[
    {
        "type": "message",
        "subtype": "channel_name",
        "ts": "1586876826.000100",
        "user": "U011XCJJ7KK",
        "text": "<@U011XCJJ7KK> has renamed the channel from \"skinplastering\" to \"proj-skinplastering\"",
        "old_name": "skinplastering",
        "name": "proj-skinplastering"
    },
    {
        "type": "message",
        "subtype": "channel_purpose",
        "ts": "1586876827.000200",
        "user": "U011XCJJ7KK",
        "text": "<@U011XCJJ7KK> set the channel purpose: Skin plastering material that coats the skin of medical staffs fighting Coronavirus to protect them from risk of getting infection.<https:\/\/solve.mit.edu\/challenges\/health-security-pandemics\/solutions\/21112>",
        "purpose": "Skin plastering material that coats the skin of medical staffs fighting Coronavirus to protect them from risk of getting infection.<https:\/\/solve.mit.edu\/challenges\/health-security-pandemics\/solutions\/21112>"
    }
]