[
    {
        "type": "message",
        "subtype": "channel_join",
        "ts": "1583938758.000200",
        "user": "UV0RRGB6H",
        "text": "<@UV0RRGB6H> has joined the channel"
    },
    {
        "type": "message",
        "subtype": "channel_join",
        "ts": "1583946653.000400",
        "user": "UV1D9NR1N",
        "text": "<@UV1D9NR1N> has joined the channel"
    },
    {
        "type": "message",
        "subtype": "channel_join",
        "ts": "1583949495.000600",
        "user": "UUSMRLYH1",
        "text": "<@UUSMRLYH1> has joined the channel"
    },
    {
        "type": "message",
        "subtype": "channel_join",
        "ts": "1583951281.000800",
        "user": "UV78M0ESG",
        "text": "<@UV78M0ESG> has joined the channel"
    },
    {
        "type": "message",
        "subtype": "channel_join",
        "ts": "1583976751.000200",
        "user": "UV92CLHPA",
        "text": "<@UV92CLHPA> has joined the channel"
    }
]