[
    {
        "client_msg_id": "573dac75-e2f9-4779-bf98-a01515b0b3a6",
        "type": "message",
        "text": "<https:\/\/dotgiscorp.github.io\/Open-Epidemiologic-Sanitary-Smart-Resources\/>",
        "user": "U0115R9V9CJ",
        "ts": "1586965457.000200",
        "team": "TUU48M0T1",
        "user_team": "TUU48M0T1",
        "source_team": "TUU48M0T1",
        "user_profile": {
            "avatar_hash": "99c6fe09a754",
            "image_72": "https:\/\/avatars.slack-edge.com\/2020-04-06\/1041034345155_99c6fe09a754200cd505_72.png",
            "first_name": "Rodrigo",
            "real_name": "Rodrigo Hercif",
            "display_name": "Rodrigo Hercif",
            "team": "TUU48M0T1",
            "name": "rodrihercif",
            "is_restricted": false,
            "is_ultra_restricted": false
        },
        "attachments": [
            {
                "title": "Open Epidemiologic Sanitary Smart Resources",
                "title_link": "https:\/\/dotgiscorp.github.io\/Open-Epidemiologic-Sanitary-Smart-Resources\/",
                "text": "Web site created using create-react-app",
                "fallback": "Open Epidemiologic Sanitary Smart Resources",
                "from_url": "https:\/\/dotgiscorp.github.io\/Open-Epidemiologic-Sanitary-Smart-Resources\/",
                "service_name": "dotgiscorp.github.io",
                "id": 1,
                "original_url": "https:\/\/dotgiscorp.github.io\/Open-Epidemiologic-Sanitary-Smart-Resources\/"
            }
        ],
        "blocks": [
            {
                "type": "rich_text",
                "block_id": "hyGfn",
                "elements": [
                    {
                        "type": "rich_text_section",
                        "elements": [
                            {
                                "type": "link",
                                "url": "https:\/\/dotgiscorp.github.io\/Open-Epidemiologic-Sanitary-Smart-Resources\/"
                            }
                        ]
                    }
                ]
            }
        ]
    },
    {
        "client_msg_id": "ca175ff9-fd29-48d9-837d-5ffb060d0352",
        "type": "message",
        "text": "Fran, PoC web deployed",
        "user": "U0115R9V9CJ",
        "ts": "1586965487.000800",
        "team": "TUU48M0T1",
        "user_team": "TUU48M0T1",
        "source_team": "TUU48M0T1",
        "user_profile": {
            "avatar_hash": "99c6fe09a754",
            "image_72": "https:\/\/avatars.slack-edge.com\/2020-04-06\/1041034345155_99c6fe09a754200cd505_72.png",
            "first_name": "Rodrigo",
            "real_name": "Rodrigo Hercif",
            "display_name": "Rodrigo Hercif",
            "team": "TUU48M0T1",
            "name": "rodrihercif",
            "is_restricted": false,
            "is_ultra_restricted": false
        },
        "blocks": [
            {
                "type": "rich_text",
                "block_id": "\/pZ",
                "elements": [
                    {
                        "type": "rich_text_section",
                        "elements": [
                            {
                                "type": "text",
                                "text": "Fran, PoC web deployed"
                            }
                        ]
                    }
                ]
            }
        ]
    },
    {
        "type": "message",
        "subtype": "channel_join",
        "ts": "1586971702.001000",
        "user": "U0104M5CWV9",
        "text": "<@U0104M5CWV9> has joined the channel"
    }
]