[
    {
        "type": "message",
        "subtype": "channel_join",
        "ts": "1588153000.000200",
        "user": "U011B6VLM2A",
        "text": "<@U011B6VLM2A> has joined the channel"
    },
    {
        "client_msg_id": "c28f36f5-e5e8-40e7-8677-f6562b4dd032",
        "type": "message",
        "text": "*Hello @ channel*!\nI’m working on the coordination team and implementing a new Slack tool: User Groups. We’re looking to identify the main Project Lead(s) for each project, and add them to the Project Leads user group so that they can be easily contacted.\n*Who should I add from this project? <@U0115R9V9CJ>,* would you be the right person?\nThanks!!",
        "user": "U011B6VLM2A",
        "ts": "1588153020.000500",
        "team": "TUU48M0T1",
        "user_team": "TUU48M0T1",
        "source_team": "TUU48M0T1",
        "user_profile": {
            "avatar_hash": "4231dc598cfc",
            "image_72": "https:\/\/avatars.slack-edge.com\/2020-04-02\/1044784558839_4231dc598cfc2e59c4c4_72.jpg",
            "first_name": "Alix",
            "real_name": "Alix Mains",
            "display_name": "Alix Mains - JOGL Coordinator",
            "team": "TUU48M0T1",
            "name": "alixhmains",
            "is_restricted": false,
            "is_ultra_restricted": false
        },
        "blocks": [
            {
                "type": "rich_text",
                "block_id": "SKX",
                "elements": [
                    {
                        "type": "rich_text_section",
                        "elements": [
                            {
                                "type": "text",
                                "text": "Hello @ channel",
                                "style": {
                                    "bold": true
                                }
                            },
                            {
                                "type": "text",
                                "text": "!\nI’m working on the coordination team and implementing a new Slack tool: User Groups. We’re looking to identify the main Project Lead(s) for each project, and add them to the Project Leads user group so that they can be easily contacted.\n"
                            },
                            {
                                "type": "text",
                                "text": "Who should I add from this project? ",
                                "style": {
                                    "bold": true
                                }
                            },
                            {
                                "type": "user",
                                "user_id": "U0115R9V9CJ",
                                "style": {
                                    "bold": true
                                }
                            },
                            {
                                "type": "text",
                                "text": ", ",
                                "style": {
                                    "bold": true
                                }
                            },
                            {
                                "type": "text",
                                "text": "would you be the right person?\nThanks!!"
                            }
                        ]
                    }
                ]
            }
        ]
    },
    {
        "client_msg_id": "617d6ff1-b7a6-40ca-8a77-5254656d3fd7",
        "type": "message",
        "text": "<@U011B6VLM2A> yep, thx",
        "user": "U0115R9V9CJ",
        "ts": "1588153067.000800",
        "team": "TUU48M0T1",
        "user_team": "TUU48M0T1",
        "source_team": "TUU48M0T1",
        "user_profile": {
            "avatar_hash": "99c6fe09a754",
            "image_72": "https:\/\/avatars.slack-edge.com\/2020-04-06\/1041034345155_99c6fe09a754200cd505_72.png",
            "first_name": "Rodrigo",
            "real_name": "Rodrigo Hercif",
            "display_name": "Rodrigo Hercif",
            "team": "TUU48M0T1",
            "name": "rodrihercif",
            "is_restricted": false,
            "is_ultra_restricted": false
        },
        "blocks": [
            {
                "type": "rich_text",
                "block_id": "gBO7",
                "elements": [
                    {
                        "type": "rich_text_section",
                        "elements": [
                            {
                                "type": "user",
                                "user_id": "U011B6VLM2A"
                            },
                            {
                                "type": "text",
                                "text": " yep, thx"
                            }
                        ]
                    }
                ]
            }
        ],
        "thread_ts": "1588153067.000800",
        "reply_count": 3,
        "reply_users_count": 2,
        "latest_reply": "1588165518.001500",
        "reply_users": [
            "U011B6VLM2A",
            "U0115R9V9CJ"
        ],
        "replies": [
            {
                "user": "U011B6VLM2A",
                "ts": "1588165420.001100"
            },
            {
                "user": "U0115R9V9CJ",
                "ts": "1588165499.001300"
            },
            {
                "user": "U0115R9V9CJ",
                "ts": "1588165518.001500"
            }
        ],
        "subscribed": false,
        "reactions": [
            {
                "name": "+1",
                "users": [
                    "U011B6VLM2A"
                ],
                "count": 1
            }
        ]
    },
    {
        "client_msg_id": "4978735e-87c9-4219-b5f4-a29d52fe3374",
        "type": "message",
        "text": "Thanks!\nIs there a project page on the JOGL website for this project?",
        "user": "U011B6VLM2A",
        "ts": "1588165420.001100",
        "team": "TUU48M0T1",
        "user_team": "TUU48M0T1",
        "source_team": "TUU48M0T1",
        "user_profile": {
            "avatar_hash": "4231dc598cfc",
            "image_72": "https:\/\/avatars.slack-edge.com\/2020-04-02\/1044784558839_4231dc598cfc2e59c4c4_72.jpg",
            "first_name": "Alix",
            "real_name": "Alix Mains",
            "display_name": "Alix Mains - JOGL Coordinator",
            "team": "TUU48M0T1",
            "name": "alixhmains",
            "is_restricted": false,
            "is_ultra_restricted": false
        },
        "blocks": [
            {
                "type": "rich_text",
                "block_id": "Yl\/",
                "elements": [
                    {
                        "type": "rich_text_section",
                        "elements": [
                            {
                                "type": "text",
                                "text": "Thanks!\nIs there a project page on the JOGL website for this project?"
                            }
                        ]
                    }
                ]
            }
        ],
        "thread_ts": "1588153067.000800",
        "parent_user_id": "U0115R9V9CJ"
    },
    {
        "client_msg_id": "b6b06b1a-eb52-4d8c-9f63-1c2f3ab73cd8",
        "type": "message",
        "text": "yes",
        "user": "U0115R9V9CJ",
        "ts": "1588165499.001300",
        "team": "TUU48M0T1",
        "user_team": "TUU48M0T1",
        "source_team": "TUU48M0T1",
        "user_profile": {
            "avatar_hash": "99c6fe09a754",
            "image_72": "https:\/\/avatars.slack-edge.com\/2020-04-06\/1041034345155_99c6fe09a754200cd505_72.png",
            "first_name": "Rodrigo",
            "real_name": "Rodrigo Hercif",
            "display_name": "Rodrigo Hercif",
            "team": "TUU48M0T1",
            "name": "rodrihercif",
            "is_restricted": false,
            "is_ultra_restricted": false
        },
        "blocks": [
            {
                "type": "rich_text",
                "block_id": "3lQ",
                "elements": [
                    {
                        "type": "rich_text_section",
                        "elements": [
                            {
                                "type": "text",
                                "text": "yes"
                            }
                        ]
                    }
                ]
            }
        ],
        "thread_ts": "1588153067.000800",
        "parent_user_id": "U0115R9V9CJ"
    },
    {
        "client_msg_id": "a5e3f301-0e58-4b93-b56f-d5b4e9aa38b1",
        "type": "message",
        "text": "<https:\/\/app.jogl.io\/project\/190>",
        "user": "U0115R9V9CJ",
        "ts": "1588165518.001500",
        "team": "TUU48M0T1",
        "user_team": "TUU48M0T1",
        "source_team": "TUU48M0T1",
        "user_profile": {
            "avatar_hash": "99c6fe09a754",
            "image_72": "https:\/\/avatars.slack-edge.com\/2020-04-06\/1041034345155_99c6fe09a754200cd505_72.png",
            "first_name": "Rodrigo",
            "real_name": "Rodrigo Hercif",
            "display_name": "Rodrigo Hercif",
            "team": "TUU48M0T1",
            "name": "rodrihercif",
            "is_restricted": false,
            "is_ultra_restricted": false
        },
        "attachments": [
            {
                "service_name": "JOGL - Just One Giant Lab",
                "title": "Open Epidemiologic Sanitary Smart Resources (Madrid) | JOGL",
                "title_link": "https:\/\/app.jogl.io\/project\/190",
                "text": "Can we evaluate the virus spread for prospective stages of confinement? We simulate virus spreading after quarantine.",
                "fallback": "JOGL - Just One Giant Lab: Open Epidemiologic Sanitary Smart Resources (Madrid) | JOGL",
                "thumb_url": "https:\/\/jogl-backend.herokuapp.com\/rails\/active_storage\/representations\/eyJfcmFpbHMiOnsibWVzc2FnZSI6IkJBaHBBdklGIiwiZXhwIjpudWxsLCJwdXIiOiJibG9iX2lkIn19--0899188374e462f832f14fd102c862714f09bf20\/eyJfcmFpbHMiOnsibWVzc2FnZSI6IkJBaDdCam9MY21WemFYcGxTU0lOTkRBd2VEUXdNRjRHT2daRlZBPT0iLCJleHAiOm51bGwsInB1ciI6InZhcmlhdGlvbiJ9fQ==--a35f8ec586c78dc9d1bd1b8dff57088b517bdd00\/Captura%20de%20pantalla%202020-04-06%20a%20las%2012.png",
                "from_url": "https:\/\/app.jogl.io\/project\/190",
                "thumb_width": 999,
                "thumb_height": 400,
                "service_icon": "https:\/\/app.jogl.io\/images\/favicon.ico",
                "id": 1,
                "original_url": "https:\/\/app.jogl.io\/project\/190"
            }
        ],
        "blocks": [
            {
                "type": "rich_text",
                "block_id": "AOFKx",
                "elements": [
                    {
                        "type": "rich_text_section",
                        "elements": [
                            {
                                "type": "link",
                                "url": "https:\/\/app.jogl.io\/project\/190"
                            }
                        ]
                    }
                ]
            }
        ],
        "thread_ts": "1588153067.000800",
        "parent_user_id": "U0115R9V9CJ",
        "reactions": [
            {
                "name": "+1",
                "users": [
                    "U011B6VLM2A"
                ],
                "count": 1
            }
        ]
    }
]