[
    {
        "client_msg_id": "4744f1fb-6b2c-4ba5-8763-e08ffb96b39f",
        "type": "message",
        "text": "Sorry <@U011D6K9RH6> for the late answer.\n\nI haven’t received any updates from <@U010B412MF1> and <@U012G0X589F> regarding this.",
        "user": "U011B5424FR",
        "ts": "1589211880.043700",
        "team": "TUU48M0T1",
        "user_team": "TUU48M0T1",
        "source_team": "TUU48M0T1",
        "user_profile": {
            "avatar_hash": "eb7c0d044867",
            "image_72": "https:\/\/avatars.slack-edge.com\/2020-04-05\/1054431511504_eb7c0d044867df386504_72.jpg",
            "first_name": "Aravinth",
            "real_name": "Aravinth Panch",
            "display_name": "Ara - DreamSpace Academy - SLINTEC - Sri Lanka",
            "team": "TUU48M0T1",
            "name": "me1435",
            "is_restricted": false,
            "is_ultra_restricted": false
        },
        "blocks": [
            {
                "type": "rich_text",
                "block_id": "Sw9kV",
                "elements": [
                    {
                        "type": "rich_text_section",
                        "elements": [
                            {
                                "type": "text",
                                "text": "Sorry "
                            },
                            {
                                "type": "user",
                                "user_id": "U011D6K9RH6"
                            },
                            {
                                "type": "text",
                                "text": " for the late answer.\n\nI haven’t received any updates from "
                            },
                            {
                                "type": "user",
                                "user_id": "U010B412MF1"
                            },
                            {
                                "type": "text",
                                "text": " and "
                            },
                            {
                                "type": "user",
                                "user_id": "U012G0X589F"
                            },
                            {
                                "type": "text",
                                "text": " regarding this."
                            }
                        ]
                    }
                ]
            }
        ],
        "thread_ts": "1587667077.030400",
        "parent_user_id": "U011B5424FR",
        "reactions": [
            {
                "name": "+1",
                "users": [
                    "U011D6K9RH6"
                ],
                "count": 1
            }
        ]
    },
    {
        "client_msg_id": "b55c53c5-0c56-4a01-bf9a-520d3ab827c7",
        "type": "message",
        "text": "Hi <@U011B5424FR> - Great to hear from you! Okay, no worries.  I would love to hear more if \/when you do receive updates. Thanks again for all of your work!  :slightly_smiling_face:",
        "user": "U011D6K9RH6",
        "ts": "1589225344.044100",
        "team": "TUU48M0T1",
        "user_team": "TUU48M0T1",
        "source_team": "TUU48M0T1",
        "user_profile": {
            "avatar_hash": "85c5155708e4",
            "image_72": "https:\/\/avatars.slack-edge.com\/2020-04-02\/1033600589794_85c5155708e4e6cfa61f_72.jpg",
            "first_name": "George",
            "real_name": "George Elerick",
            "display_name": "George Elerick",
            "team": "TUU48M0T1",
            "name": "george",
            "is_restricted": false,
            "is_ultra_restricted": false
        },
        "blocks": [
            {
                "type": "rich_text",
                "block_id": "8aj",
                "elements": [
                    {
                        "type": "rich_text_section",
                        "elements": [
                            {
                                "type": "text",
                                "text": "Hi "
                            },
                            {
                                "type": "user",
                                "user_id": "U011B5424FR"
                            },
                            {
                                "type": "text",
                                "text": " - Great to hear from you! Okay, no worries.  I would love to hear more if \/when you do receive updates. Thanks again for all of your work!  "
                            },
                            {
                                "type": "emoji",
                                "name": "slightly_smiling_face"
                            }
                        ]
                    }
                ]
            }
        ],
        "thread_ts": "1587667077.030400",
        "parent_user_id": "U011B5424FR"
    },
    {
        "client_msg_id": "bfdd0ed1-6acf-4d13-9a31-0b66d153eae2",
        "type": "message",
        "text": "Thanks Aravinth. We are in process of setting up project. Do you want to make or to host webinars?  Sorry if i missed something....",
        "user": "U010B412MF1",
        "ts": "1589230500.044300",
        "team": "TUU48M0T1",
        "user_team": "TUU48M0T1",
        "source_team": "TUU48M0T1",
        "user_profile": {
            "avatar_hash": "218d963a797f",
            "image_72": "https:\/\/avatars.slack-edge.com\/2020-03-19\/1013072792629_218d963a797fbf4410c0_72.png",
            "first_name": "",
            "real_name": "liu",
            "display_name": "liu",
            "team": "TUU48M0T1",
            "name": "liubov.tupikina",
            "is_restricted": false,
            "is_ultra_restricted": false
        },
        "thread_ts": "1587667077.030400",
        "parent_user_id": "U011B5424FR"
    }
]