[
    {
        "client_msg_id": "51b57d4a-2d33-4957-b15d-e014b1ad2f60",
        "type": "message",
        "text": "Hello everyone, \nJust some update on the project:\nWe asked educational insitutions around the globe and there are schools from India, Latvia, Nepal and Romania who are waiting for lecturers on covid or virology.\n\nIf you know good candidates lecturers, olease let us know <!channel> \nI also add <@UVC9WMA7N> here :earth_africa: :octopus:",
        "user": "U010B412MF1",
        "ts": "1587572118.009500",
        "team": "TUU48M0T1",
        "user_team": "TUU48M0T1",
        "source_team": "TUU48M0T1",
        "user_profile": {
            "avatar_hash": "218d963a797f",
            "image_72": "https:\/\/avatars.slack-edge.com\/2020-03-19\/1013072792629_218d963a797fbf4410c0_72.png",
            "first_name": "",
            "real_name": "liu",
            "display_name": "liu",
            "team": "TUU48M0T1",
            "name": "liubov.tupikina",
            "is_restricted": false,
            "is_ultra_restricted": false
        },
        "blocks": [
            {
                "type": "rich_text",
                "block_id": "5CZgT",
                "elements": [
                    {
                        "type": "rich_text_section",
                        "elements": [
                            {
                                "type": "text",
                                "text": "Hello everyone, \nJust some update on the project:\nWe asked educational insitutions around the globe and there are schools from India, Latvia, Nepal and Romania who are waiting for lecturers on covid or virology.\n\nIf you know good candidates lecturers, olease let us know "
                            },
                            {
                                "type": "broadcast",
                                "range": "channel"
                            },
                            {
                                "type": "text",
                                "text": " \nI also add "
                            },
                            {
                                "type": "user",
                                "user_id": "UVC9WMA7N"
                            },
                            {
                                "type": "text",
                                "text": " here "
                            },
                            {
                                "type": "emoji",
                                "name": "earth_africa"
                            },
                            {
                                "type": "text",
                                "text": " "
                            },
                            {
                                "type": "emoji",
                                "name": "octopus"
                            }
                        ]
                    }
                ]
            }
        ]
    },
    {
        "type": "message",
        "subtype": "channel_join",
        "ts": "1587572121.009700",
        "user": "UVC9WMA7N",
        "text": "<@UVC9WMA7N> has joined the channel",
        "inviter": "U010B412MF1"
    },
    {
        "client_msg_id": "7d199feb-5659-4e12-9121-c3c64d900d78",
        "type": "message",
        "text": "<@U012G0X589F> <@U010B412MF1> is the plan for webinars to just be focused on just viruses, or more generally on public health, epidemiology?",
        "user": "U0104M5CWV9",
        "ts": "1587574072.010400",
        "team": "TUU48M0T1",
        "user_team": "TUU48M0T1",
        "source_team": "TUU48M0T1",
        "user_profile": {
            "avatar_hash": "g690df94d06f",
            "image_72": "https:\/\/secure.gravatar.com\/avatar\/690df94d06f11222b2bb4d765ee7ba52.jpg?s=72&d=https%3A%2F%2Fa.slack-edge.com%2Fdf10d%2Fimg%2Favatars%2Fava_0002-72.png",
            "first_name": "John",
            "real_name": "John Urbanik",
            "display_name": "John Urbanik",
            "team": "TUU48M0T1",
            "name": "johnurbanik",
            "is_restricted": false,
            "is_ultra_restricted": false
        },
        "blocks": [
            {
                "type": "rich_text",
                "block_id": "0JVW",
                "elements": [
                    {
                        "type": "rich_text_section",
                        "elements": [
                            {
                                "type": "user",
                                "user_id": "U012G0X589F"
                            },
                            {
                                "type": "text",
                                "text": " "
                            },
                            {
                                "type": "user",
                                "user_id": "U010B412MF1"
                            },
                            {
                                "type": "text",
                                "text": " is the plan for webinars to just be focused on just viruses, or more generally on public health, epidemiology?"
                            }
                        ]
                    }
                ]
            }
        ],
        "thread_ts": "1587574072.010400",
        "reply_count": 1,
        "reply_users_count": 1,
        "latest_reply": "1587574255.012200",
        "reply_users": [
            "U010B412MF1"
        ],
        "replies": [
            {
                "user": "U010B412MF1",
                "ts": "1587574255.012200"
            }
        ],
        "subscribed": false
    },
    {
        "client_msg_id": "d40d26be-537f-4f64-b4a7-b80da95412a9",
        "type": "message",
        "text": "Tnx <@U0104M5CWV9> in general it can be also related to public health also. We will soon share the form for submission and pipeline.... will update you...",
        "user": "U010B412MF1",
        "ts": "1587574255.012200",
        "team": "TUU48M0T1",
        "user_team": "TUU48M0T1",
        "source_team": "TUU48M0T1",
        "user_profile": {
            "avatar_hash": "218d963a797f",
            "image_72": "https:\/\/avatars.slack-edge.com\/2020-03-19\/1013072792629_218d963a797fbf4410c0_72.png",
            "first_name": "",
            "real_name": "liu",
            "display_name": "liu",
            "team": "TUU48M0T1",
            "name": "liubov.tupikina",
            "is_restricted": false,
            "is_ultra_restricted": false
        },
        "blocks": [
            {
                "type": "rich_text",
                "block_id": "1fK",
                "elements": [
                    {
                        "type": "rich_text_section",
                        "elements": [
                            {
                                "type": "text",
                                "text": "Tnx "
                            },
                            {
                                "type": "user",
                                "user_id": "U0104M5CWV9"
                            },
                            {
                                "type": "text",
                                "text": " in general it can be also related to public health also. We will soon share the form for submission and pipeline.... will update you..."
                            }
                        ]
                    }
                ]
            }
        ],
        "thread_ts": "1587574072.010400",
        "parent_user_id": "U0104M5CWV9"
    },
    {
        "client_msg_id": "96c6be56-4cec-400d-823f-f90e72026c6c",
        "type": "message",
        "text": "Also, have you considered making them more generally publicly accessible \/ different formats than classic webinars? I saw that <https:\/\/twitter.com\/big_data_kane|C. Brandon Ogbunu> started streaming video games on twitch but does Q\/A on genetics and COVID-19 at the same time. Might get more engagement through formats like this from kids if it is not compulsory.",
        "user": "U0104M5CWV9",
        "ts": "1587574356.013600",
        "team": "TUU48M0T1",
        "user_team": "TUU48M0T1",
        "source_team": "TUU48M0T1",
        "user_profile": {
            "avatar_hash": "g690df94d06f",
            "image_72": "https:\/\/secure.gravatar.com\/avatar\/690df94d06f11222b2bb4d765ee7ba52.jpg?s=72&d=https%3A%2F%2Fa.slack-edge.com%2Fdf10d%2Fimg%2Favatars%2Fava_0002-72.png",
            "first_name": "John",
            "real_name": "John Urbanik",
            "display_name": "John Urbanik",
            "team": "TUU48M0T1",
            "name": "johnurbanik",
            "is_restricted": false,
            "is_ultra_restricted": false
        },
        "attachments": [
            {
                "title": "C. Brandon Ogbunu (@big_data_kane) | Twitter",
                "title_link": "https:\/\/twitter.com\/big_data_kane",
                "text": "The latest Tweets from C. Brandon Ogbunu (@big_data_kane). Epidemics, Genetics, Evolution. Works @BrownUniversity. Data &amp; culture addict. Views\/tweets are G x E x E x E x E interactions. Providence, RI",
                "fallback": "C. Brandon Ogbunu (@big_data_kane) | Twitter",
                "from_url": "https:\/\/twitter.com\/big_data_kane",
                "service_icon": "https:\/\/abs.twimg.com\/icons\/apple-touch-icon-192x192.png",
                "service_name": "twitter.com",
                "id": 1,
                "original_url": "https:\/\/twitter.com\/big_data_kane"
            }
        ],
        "blocks": [
            {
                "type": "rich_text",
                "block_id": "mLH",
                "elements": [
                    {
                        "type": "rich_text_section",
                        "elements": [
                            {
                                "type": "text",
                                "text": "Also, have you considered making them more generally publicly accessible \/ different formats than classic webinars? I saw that "
                            },
                            {
                                "type": "link",
                                "url": "https:\/\/twitter.com\/big_data_kane",
                                "text": "C. Brandon Ogbunu"
                            },
                            {
                                "type": "text",
                                "text": " started streaming video games on twitch but does Q\/A on genetics and COVID-19 at the same time. Might get more engagement through formats like this from kids if it is not compulsory."
                            }
                        ]
                    }
                ]
            }
        ],
        "thread_ts": "1587574356.013600",
        "reply_count": 1,
        "reply_users_count": 1,
        "latest_reply": "1587580491.013800",
        "reply_users": [
            "U0101DKUALV"
        ],
        "replies": [
            {
                "user": "U0101DKUALV",
                "ts": "1587580491.013800"
            }
        ],
        "subscribed": false
    },
    {
        "client_msg_id": "bccf14d3-31e2-4ee1-82c1-33253e955571",
        "type": "message",
        "text": "^^^ Very good way to do it actually.... Perhaps I need to hop onto my Twitch account and do some reconnaissance?",
        "user": "U0101DKUALV",
        "ts": "1587580491.013800",
        "team": "TUU48M0T1",
        "user_team": "TUU48M0T1",
        "source_team": "TUU48M0T1",
        "user_profile": {
            "avatar_hash": "b0aee06ed3e5",
            "image_72": "https:\/\/avatars.slack-edge.com\/2020-04-22\/1072886325190_b0aee06ed3e501ebdf56_72.png",
            "first_name": "",
            "real_name": "Pauline Chane",
            "display_name": "Pauline Chane",
            "team": "TUU48M0T1",
            "name": "pauline.chane",
            "is_restricted": false,
            "is_ultra_restricted": false
        },
        "blocks": [
            {
                "type": "rich_text",
                "block_id": "ljMh",
                "elements": [
                    {
                        "type": "rich_text_section",
                        "elements": [
                            {
                                "type": "text",
                                "text": "^^^ Very good way to do it actually.... Perhaps I need to hop onto my Twitch account and do some reconnaissance?"
                            }
                        ]
                    }
                ]
            }
        ],
        "thread_ts": "1587574356.013600",
        "parent_user_id": "U0104M5CWV9"
    },
    {
        "client_msg_id": "44448349-e08f-4b1d-8f6d-9336074e19a7",
        "type": "message",
        "text": "Hello, would like to hop in and add that Seattle AWIS (Association of Women in Science) is looking for female lecturers or grad students in STEM who would be willing to either:\nA) Host a live webinar\nB) Host pre-recorded content to be shared on Seattle AWIS' social media\nC) Option B) but including a live Q&amp;A session on the same week, same day, or right after launch of pre-recorded content.\n\nAs a guideline, one idea was to allow PhD students practice their thesis defense to an audience.\n\nSeattle area would be preferred I think, but please DM me if you are interested or can connect the org with someone who is!",
        "user": "U0101DKUALV",
        "ts": "1587581944.016400",
        "team": "TUU48M0T1",
        "user_team": "TUU48M0T1",
        "source_team": "TUU48M0T1",
        "user_profile": {
            "avatar_hash": "b0aee06ed3e5",
            "image_72": "https:\/\/avatars.slack-edge.com\/2020-04-22\/1072886325190_b0aee06ed3e501ebdf56_72.png",
            "first_name": "",
            "real_name": "Pauline Chane",
            "display_name": "Pauline Chane",
            "team": "TUU48M0T1",
            "name": "pauline.chane",
            "is_restricted": false,
            "is_ultra_restricted": false
        },
        "edited": {
            "user": "U0101DKUALV",
            "ts": "1587582061.000000"
        },
        "blocks": [
            {
                "type": "rich_text",
                "block_id": "skM",
                "elements": [
                    {
                        "type": "rich_text_section",
                        "elements": [
                            {
                                "type": "text",
                                "text": "Hello, would like to hop in and add that Seattle AWIS (Association of Women in Science) is looking for female lecturers or grad students in STEM who would be willing to either:\nA) Host a live webinar\nB) Host pre-recorded content to be shared on Seattle AWIS' social media\nC) Option B) but including a live Q&A session on the same week, same day, or right after launch of pre-recorded content.\n\nAs a guideline, one idea was to allow PhD students practice their thesis defense to an audience.\n\nSeattle area would be preferred I think, but please DM me if you are interested or can connect the org with someone who is!"
                            }
                        ]
                    }
                ]
            }
        ],
        "thread_ts": "1587581944.016400",
        "reply_count": 1,
        "reply_users_count": 1,
        "latest_reply": "1587628823.024000",
        "reply_users": [
            "U012G0X589F"
        ],
        "replies": [
            {
                "user": "U012G0X589F",
                "ts": "1587628823.024000"
            }
        ],
        "subscribed": false
    },
    {
        "client_msg_id": "ad7cb6a1-ebea-47f1-89ff-9925ec46987f",
        "type": "message",
        "text": "I'd like to chime in here. A few weeks ago, I posted a request in <#CURQC583E|random>  asking if anyone would be willing to do an information share with my kid's school here in Australia. So, if there is material that is suitable for primary and someone is willing to do this during their school day that would be great.",
        "user": "U0103LPAWQ4",
        "ts": "1587588859.018800",
        "team": "TUU48M0T1",
        "user_team": "TUU48M0T1",
        "source_team": "TUU48M0T1",
        "user_profile": {
            "avatar_hash": "7b345029e813",
            "image_72": "https:\/\/avatars.slack-edge.com\/2020-03-17\/1004213082549_7b345029e8137cbdc6b0_72.jpg",
            "first_name": "Bre",
            "real_name": "Bre",
            "display_name": "Bre",
            "team": "TUU48M0T1",
            "name": "info",
            "is_restricted": false,
            "is_ultra_restricted": false
        },
        "blocks": [
            {
                "type": "rich_text",
                "block_id": "c=F",
                "elements": [
                    {
                        "type": "rich_text_section",
                        "elements": [
                            {
                                "type": "text",
                                "text": "I'd like to chime in here. A few weeks ago, I posted a request in "
                            },
                            {
                                "type": "channel",
                                "channel_id": "CURQC583E"
                            },
                            {
                                "type": "text",
                                "text": "  asking if anyone would be willing to do an information share with my kid's school here in Australia. So, if there is material that is suitable for primary and someone is willing to do this during their school day that would be great."
                            }
                        ]
                    }
                ]
            }
        ],
        "thread_ts": "1587588859.018800",
        "reply_count": 2,
        "reply_users_count": 2,
        "latest_reply": "1587630111.027500",
        "reply_users": [
            "U012G0X589F",
            "U0103LPAWQ4"
        ],
        "replies": [
            {
                "user": "U012G0X589F",
                "ts": "1587629113.024800"
            },
            {
                "user": "U0103LPAWQ4",
                "ts": "1587630111.027500"
            }
        ],
        "subscribed": false,
        "reactions": [
            {
                "name": "+1",
                "users": [
                    "U010B412MF1"
                ],
                "count": 1
            }
        ]
    },
    {
        "client_msg_id": "5b8a4e5f-a61d-43ce-8afc-25985b29655f",
        "type": "message",
        "text": "<@U012G0X589F> what sort of support do you need with this project? I've seen a lot of requests (myself included).\nHow can we get this moving forward?",
        "user": "U0103LPAWQ4",
        "ts": "1587588984.020000",
        "team": "TUU48M0T1",
        "user_team": "TUU48M0T1",
        "source_team": "TUU48M0T1",
        "user_profile": {
            "avatar_hash": "7b345029e813",
            "image_72": "https:\/\/avatars.slack-edge.com\/2020-03-17\/1004213082549_7b345029e8137cbdc6b0_72.jpg",
            "first_name": "Bre",
            "real_name": "Bre",
            "display_name": "Bre",
            "team": "TUU48M0T1",
            "name": "info",
            "is_restricted": false,
            "is_ultra_restricted": false
        },
        "blocks": [
            {
                "type": "rich_text",
                "block_id": "5ww",
                "elements": [
                    {
                        "type": "rich_text_section",
                        "elements": [
                            {
                                "type": "user",
                                "user_id": "U012G0X589F"
                            },
                            {
                                "type": "text",
                                "text": " what sort of support do you need with this project? I've seen a lot of requests (myself included).\nHow can we get this moving forward?"
                            }
                        ]
                    }
                ]
            }
        ]
    },
    {
        "type": "message",
        "subtype": "channel_join",
        "ts": "1587606396.020200",
        "user": "U0125NWCHTQ",
        "text": "<@U0125NWCHTQ> has joined the channel"
    }
]