[
    {
        "client_msg_id": "93a0db86-c7ea-47c5-89a4-b1c82ec7d913",
        "type": "message",
        "text": "The serial bluetooth shows under \/dev\/rfcomm0 default and it is the same pipe as \/dev\/ttyUSB0 or \/dev\/ttyS0.",
        "user": "U0108DWH5NH",
        "ts": "1586244686.000100",
        "team": "TUU48M0T1",
        "user_team": "TUU48M0T1",
        "source_team": "TUU48M0T1",
        "user_profile": {
            "avatar_hash": "gd582b07cb4c",
            "image_72": "https:\/\/secure.gravatar.com\/avatar\/d582b07cb4cff8ecfdf7095f4f4eefc5.jpg?s=72&d=https%3A%2F%2Fa.slack-edge.com%2Fdf10d%2Fimg%2Favatars%2Fava_0025-72.png",
            "first_name": "",
            "real_name": "Juraj Marak",
            "display_name": "Juraj Marak",
            "team": "TUU48M0T1",
            "name": "kukulo2011",
            "is_restricted": false,
            "is_ultra_restricted": false
        },
        "blocks": [
            {
                "type": "rich_text",
                "block_id": "f6Pgu",
                "elements": [
                    {
                        "type": "rich_text_section",
                        "elements": [
                            {
                                "type": "text",
                                "text": "The serial bluetooth shows under \/dev\/rfcomm0 default and it is the same pipe as \/dev\/ttyUSB0 or \/dev\/ttyS0."
                            }
                        ]
                    }
                ]
            }
        ],
        "thread_ts": "1586197014.001900",
        "parent_user_id": "U010GFNDDL4"
    },
    {
        "client_msg_id": "fda0fc26-9535-45b4-ba63-7d2c583528c9",
        "type": "message",
        "text": "You mean on the embedded controller, or on the Android side?",
        "user": "U010GFNDDL4",
        "ts": "1586269305.000500",
        "team": "TUU48M0T1",
        "user_team": "TUU48M0T1",
        "source_team": "TUU48M0T1",
        "user_profile": {
            "avatar_hash": "b056393f8b03",
            "image_72": "https:\/\/avatars.slack-edge.com\/2020-03-21\/1017096790757_b056393f8b03bb5aef51_72.jpg",
            "first_name": "",
            "real_name": "Bill Foote",
            "display_name": "Bill Foote",
            "team": "TUU48M0T1",
            "name": "billf",
            "is_restricted": false,
            "is_ultra_restricted": false
        },
        "blocks": [
            {
                "type": "rich_text",
                "block_id": "1Ivlr",
                "elements": [
                    {
                        "type": "rich_text_section",
                        "elements": [
                            {
                                "type": "text",
                                "text": "You mean on the embedded controller, or on the Android side?"
                            }
                        ]
                    }
                ]
            }
        ],
        "thread_ts": "1586197014.001900",
        "parent_user_id": "U010GFNDDL4"
    },
    {
        "client_msg_id": "05f09748-df34-4e5f-8012-88e8af4c776a",
        "type": "message",
        "text": "Android \/ Linux kernel side.",
        "user": "U0108DWH5NH",
        "ts": "1586280634.000700",
        "team": "TUU48M0T1",
        "user_team": "TUU48M0T1",
        "source_team": "TUU48M0T1",
        "user_profile": {
            "avatar_hash": "gd582b07cb4c",
            "image_72": "https:\/\/secure.gravatar.com\/avatar\/d582b07cb4cff8ecfdf7095f4f4eefc5.jpg?s=72&d=https%3A%2F%2Fa.slack-edge.com%2Fdf10d%2Fimg%2Favatars%2Fava_0025-72.png",
            "first_name": "",
            "real_name": "Juraj Marak",
            "display_name": "Juraj Marak",
            "team": "TUU48M0T1",
            "name": "kukulo2011",
            "is_restricted": false,
            "is_ultra_restricted": false
        },
        "blocks": [
            {
                "type": "rich_text",
                "block_id": "9lDpV",
                "elements": [
                    {
                        "type": "rich_text_section",
                        "elements": [
                            {
                                "type": "text",
                                "text": "Android \/ Linux kernel side."
                            }
                        ]
                    }
                ]
            }
        ],
        "thread_ts": "1586197014.001900",
        "parent_user_id": "U010GFNDDL4"
    },
    {
        "client_msg_id": "483d704c-3c15-4bae-a986-8b5c938b0e83",
        "type": "message",
        "text": "I have it on the AutoCom diagnostics as well.",
        "user": "U0108DWH5NH",
        "ts": "1586280685.000900",
        "team": "TUU48M0T1",
        "user_team": "TUU48M0T1",
        "source_team": "TUU48M0T1",
        "user_profile": {
            "avatar_hash": "gd582b07cb4c",
            "image_72": "https:\/\/secure.gravatar.com\/avatar\/d582b07cb4cff8ecfdf7095f4f4eefc5.jpg?s=72&d=https%3A%2F%2Fa.slack-edge.com%2Fdf10d%2Fimg%2Favatars%2Fava_0025-72.png",
            "first_name": "",
            "real_name": "Juraj Marak",
            "display_name": "Juraj Marak",
            "team": "TUU48M0T1",
            "name": "kukulo2011",
            "is_restricted": false,
            "is_ultra_restricted": false
        },
        "blocks": [
            {
                "type": "rich_text",
                "block_id": "+Aln",
                "elements": [
                    {
                        "type": "rich_text_section",
                        "elements": [
                            {
                                "type": "text",
                                "text": "I have it on the AutoCom diagnostics as well."
                            }
                        ]
                    }
                ]
            }
        ],
        "thread_ts": "1586197014.001900",
        "parent_user_id": "U010GFNDDL4"
    },
    {
        "client_msg_id": "eb09a1da-da72-4ac7-94fa-4a94fdb9b412",
        "type": "message",
        "text": "After pairing it shows up as \/dev\/rfcomm0.",
        "user": "U0108DWH5NH",
        "ts": "1586280785.001100",
        "team": "TUU48M0T1",
        "user_team": "TUU48M0T1",
        "source_team": "TUU48M0T1",
        "user_profile": {
            "avatar_hash": "gd582b07cb4c",
            "image_72": "https:\/\/secure.gravatar.com\/avatar\/d582b07cb4cff8ecfdf7095f4f4eefc5.jpg?s=72&d=https%3A%2F%2Fa.slack-edge.com%2Fdf10d%2Fimg%2Favatars%2Fava_0025-72.png",
            "first_name": "",
            "real_name": "Juraj Marak",
            "display_name": "Juraj Marak",
            "team": "TUU48M0T1",
            "name": "kukulo2011",
            "is_restricted": false,
            "is_ultra_restricted": false
        },
        "blocks": [
            {
                "type": "rich_text",
                "block_id": "1fH",
                "elements": [
                    {
                        "type": "rich_text_section",
                        "elements": [
                            {
                                "type": "text",
                                "text": "After pairing it shows up as \/dev\/rfcomm0."
                            }
                        ]
                    }
                ]
            }
        ],
        "thread_ts": "1586197014.001900",
        "parent_user_id": "U010GFNDDL4"
    },
    {
        "client_msg_id": "46d992f0-8420-43a2-b1b3-02fbb4131d32",
        "type": "message",
        "text": "BTW: <https:\/\/play.google.com\/store\/apps\/details?id=de.kai_morich.serial_bluetooth_terminal>",
        "user": "U0108DWH5NH",
        "ts": "1586284929.001300",
        "team": "TUU48M0T1",
        "user_team": "TUU48M0T1",
        "source_team": "TUU48M0T1",
        "user_profile": {
            "avatar_hash": "gd582b07cb4c",
            "image_72": "https:\/\/secure.gravatar.com\/avatar\/d582b07cb4cff8ecfdf7095f4f4eefc5.jpg?s=72&d=https%3A%2F%2Fa.slack-edge.com%2Fdf10d%2Fimg%2Favatars%2Fava_0025-72.png",
            "first_name": "",
            "real_name": "Juraj Marak",
            "display_name": "Juraj Marak",
            "team": "TUU48M0T1",
            "name": "kukulo2011",
            "is_restricted": false,
            "is_ultra_restricted": false
        },
        "attachments": [
            {
                "title": "Serial Bluetooth Terminal - Apps on Google Play",
                "title_link": "https:\/\/play.google.com\/store\/apps\/details?id=de.kai_morich.serial_bluetooth_terminal",
                "text": "'Serial Bluetooth Terminal' is a line-oriented terminal \/ console app for microcontrollers, arduinos and other devices with a serial \/ UART interface connected with a bluetooth to serial converter to your android device. This app supports different bluetooth versions: - Bluetooth Classic - Bluetooth LE \/ Bluetooth Low Energy \/ BLE \/ Bluetooth Smart This app supports different bluetooth devices: Bluetooth Classic (implementing standard Bluetooth SPP profile): - HC-05, HC-06, ... - Raspberry Pi 3 - ... Bluetooth LE (implementing vendor specific Bluetooth GATT services): - predefined: * Nordic Semiconductor nRF51822, … (e.g. BBC micro:bit) * Texas Instruments CC254x (e.g. HM-10, CC41-A, … modules) * Microchip RN4870\/71, BM70\/71 'transparent UART service' * Telit Bluemod - custom profile: * Texas Instruments CC2640 serial service, except config characteristics * Silabls BLE113 * uConnect BLE serial adapter * ... All features in this app are free. In-App purchase is only used for the 'Donate' option. Looking for source code? Here you find simplified variants of this app: <https:\/\/github.com\/kai-morich\/SimpleBluetoothTerminal> <https:\/\/github.com\/kai-morich\/SimpleBluetoothLeTerminal>",
                "fallback": "Serial Bluetooth Terminal - Apps on Google Play",
                "image_url": "https:\/\/lh3.googleusercontent.com\/i2rkfkW6F1r2GwS1M7WcY7to-V610MrS-2-MzOFCyRcHYbyQP9cKot7lmxIwhKgStg",
                "from_url": "https:\/\/play.google.com\/store\/apps\/details?id=de.kai_morich.serial_bluetooth_terminal",
                "image_width": 512,
                "image_height": 250,
                "image_bytes": 247372,
                "service_icon": "http:\/\/www.gstatic.com\/android\/market_images\/web\/favicon_v2.ico",
                "service_name": "play.google.com",
                "id": 1,
                "original_url": "https:\/\/play.google.com\/store\/apps\/details?id=de.kai_morich.serial_bluetooth_terminal"
            }
        ],
        "blocks": [
            {
                "type": "rich_text",
                "block_id": "v7M",
                "elements": [
                    {
                        "type": "rich_text_section",
                        "elements": [
                            {
                                "type": "text",
                                "text": "BTW: "
                            },
                            {
                                "type": "link",
                                "url": "https:\/\/play.google.com\/store\/apps\/details?id=de.kai_morich.serial_bluetooth_terminal"
                            }
                        ]
                    }
                ]
            }
        ],
        "thread_ts": "1586197014.001900",
        "parent_user_id": "U010GFNDDL4"
    },
    {
        "client_msg_id": "5f5d645a-ef26-49c6-9bde-643133e847ad",
        "type": "message",
        "text": "<https:\/\/github.com\/kai-morich\/SimpleBluetoothTerminal>",
        "user": "U0108DWH5NH",
        "ts": "1586284998.001600",
        "team": "TUU48M0T1",
        "user_team": "TUU48M0T1",
        "source_team": "TUU48M0T1",
        "user_profile": {
            "avatar_hash": "gd582b07cb4c",
            "image_72": "https:\/\/secure.gravatar.com\/avatar\/d582b07cb4cff8ecfdf7095f4f4eefc5.jpg?s=72&d=https%3A%2F%2Fa.slack-edge.com%2Fdf10d%2Fimg%2Favatars%2Fava_0025-72.png",
            "first_name": "",
            "real_name": "Juraj Marak",
            "display_name": "Juraj Marak",
            "team": "TUU48M0T1",
            "name": "kukulo2011",
            "is_restricted": false,
            "is_ultra_restricted": false
        },
        "attachments": [
            {
                "fallback": "kai-morich\/SimpleBluetoothTerminal",
                "text": "Android terminal app for Bluetooth classing devices using SPP profile",
                "title": "kai-morich\/SimpleBluetoothTerminal",
                "footer": "<https:\/\/github.com\/kai-morich\/SimpleBluetoothTerminal|kai-morich\/SimpleBluetoothTerminal>",
                "id": 1,
                "footer_icon": "https:\/\/github.githubassets.com\/favicon.ico",
                "ts": 1549115819,
                "color": "24292f",
                "fields": [
                    {
                        "title": "Stars",
                        "value": "68",
                        "short": true
                    },
                    {
                        "title": "Language",
                        "value": "Java",
                        "short": true
                    }
                ],
                "mrkdwn_in": [
                    "text",
                    "fields"
                ],
                "bot_id": "BUW789DM0",
                "app_unfurl_url": "https:\/\/github.com\/kai-morich\/SimpleBluetoothTerminal",
                "is_app_unfurl": true
            }
        ],
        "blocks": [
            {
                "type": "rich_text",
                "block_id": "=+Oi",
                "elements": [
                    {
                        "type": "rich_text_section",
                        "elements": [
                            {
                                "type": "link",
                                "url": "https:\/\/github.com\/kai-morich\/SimpleBluetoothTerminal"
                            }
                        ]
                    }
                ]
            }
        ],
        "thread_ts": "1586197014.001900",
        "parent_user_id": "U010GFNDDL4"
    },
    {
        "client_msg_id": "e2baec04-9d5b-47c7-aef6-fe402b76ea87",
        "type": "message",
        "text": "Thanks.  I'll have to see if there are any permissions issues.  There might be issues with iOS, too.  And of course, this is bluetooth classic, not low power.\n\nI'm sure there are Java APIs for bluetooth classic, too, if the permission structure won't let me directly access \/dev.  The problem is that AFAIK there are no Dart\/Flutter bindings for the Java APIs.",
        "user": "U010GFNDDL4",
        "ts": "1586285255.001900",
        "team": "TUU48M0T1",
        "user_team": "TUU48M0T1",
        "source_team": "TUU48M0T1",
        "user_profile": {
            "avatar_hash": "b056393f8b03",
            "image_72": "https:\/\/avatars.slack-edge.com\/2020-03-21\/1017096790757_b056393f8b03bb5aef51_72.jpg",
            "first_name": "",
            "real_name": "Bill Foote",
            "display_name": "Bill Foote",
            "team": "TUU48M0T1",
            "name": "billf",
            "is_restricted": false,
            "is_ultra_restricted": false
        },
        "blocks": [
            {
                "type": "rich_text",
                "block_id": "pt9B",
                "elements": [
                    {
                        "type": "rich_text_section",
                        "elements": [
                            {
                                "type": "text",
                                "text": "Thanks.  I'll have to see if there are any permissions issues.  There might be issues with iOS, too.  And of course, this is bluetooth classic, not low power.\n\nI'm sure there are Java APIs for bluetooth classic, too, if the permission structure won't let me directly access \/dev.  The problem is that AFAIK there are no Dart\/Flutter bindings for the Java APIs."
                            }
                        ]
                    }
                ]
            }
        ],
        "thread_ts": "1586197014.001900",
        "parent_user_id": "U010GFNDDL4"
    },
    {
        "client_msg_id": "f1d549ee-b23a-4dbc-b311-94727a0e2159",
        "type": "message",
        "text": "Actually, I take that back:  there's a bluetooth_serial, but it's Android-only.",
        "user": "U010GFNDDL4",
        "ts": "1586285485.002100",
        "team": "TUU48M0T1",
        "user_team": "TUU48M0T1",
        "source_team": "TUU48M0T1",
        "user_profile": {
            "avatar_hash": "b056393f8b03",
            "image_72": "https:\/\/avatars.slack-edge.com\/2020-03-21\/1017096790757_b056393f8b03bb5aef51_72.jpg",
            "first_name": "",
            "real_name": "Bill Foote",
            "display_name": "Bill Foote",
            "team": "TUU48M0T1",
            "name": "billf",
            "is_restricted": false,
            "is_ultra_restricted": false
        },
        "blocks": [
            {
                "type": "rich_text",
                "block_id": "6QRN4",
                "elements": [
                    {
                        "type": "rich_text_section",
                        "elements": [
                            {
                                "type": "text",
                                "text": "Actually, I take that back:  there's a bluetooth_serial, but it's Android-only."
                            }
                        ]
                    }
                ]
            }
        ],
        "thread_ts": "1586197014.001900",
        "parent_user_id": "U010GFNDDL4"
    },
    {
        "client_msg_id": "8a4a9919-04bb-4217-afed-88557aac7032",
        "type": "message",
        "text": "Yeah, maybe the thing to do now is to just implement Bluetooth classic for Android only, adn then think about adding BLE once I have an embedded system that I can set up as a BLE data source.  I updated <https:\/\/github.com\/kukulo2011\/OpenCovid_ventilator\/issues\/14>",
        "user": "U010GFNDDL4",
        "ts": "1586286207.002300",
        "team": "TUU48M0T1",
        "user_team": "TUU48M0T1",
        "source_team": "TUU48M0T1",
        "user_profile": {
            "avatar_hash": "b056393f8b03",
            "image_72": "https:\/\/avatars.slack-edge.com\/2020-03-21\/1017096790757_b056393f8b03bb5aef51_72.jpg",
            "first_name": "",
            "real_name": "Bill Foote",
            "display_name": "Bill Foote",
            "team": "TUU48M0T1",
            "name": "billf",
            "is_restricted": false,
            "is_ultra_restricted": false
        },
        "attachments": [
            {
                "author_name": "zathras",
                "fallback": "[kukulo2011\/OpenCovid_ventilator] #14 Add bluetooth connectivity to android app",
                "text": "It's worth considering adding bluetooth connectivity to the application.\n\nDeferring this for now -- It turns out that advertising a bluetooth low energy service on Linux takes quite a bit of doing, and bluetooth classic isn't supported by Flutter.",
                "title": "#14 Add bluetooth connectivity to android app",
                "footer": "<https:\/\/github.com\/kukulo2011\/OpenCovid_ventilator|kukulo2011\/OpenCovid_ventilator>",
                "id": 1,
                "title_link": "https:\/\/github.com\/kukulo2011\/OpenCovid_ventilator\/issues\/14",
                "author_link": "https:\/\/github.com\/zathras",
                "author_icon": "https:\/\/avatars2.githubusercontent.com\/u\/20762139?v=4",
                "footer_icon": "https:\/\/github.githubassets.com\/favicon.ico",
                "ts": 1586229071,
                "color": "36a64f",
                "fields": [
                    {
                        "title": "Assignees",
                        "value": "zathras",
                        "short": true
                    },
                    {
                        "title": "Comments",
                        "value": "1",
                        "short": true
                    }
                ],
                "mrkdwn_in": [
                    "text"
                ],
                "bot_id": "BUW789DM0",
                "app_unfurl_url": "https:\/\/github.com\/kukulo2011\/OpenCovid_ventilator\/issues\/14",
                "is_app_unfurl": true
            }
        ],
        "blocks": [
            {
                "type": "rich_text",
                "block_id": "lqXt",
                "elements": [
                    {
                        "type": "rich_text_section",
                        "elements": [
                            {
                                "type": "text",
                                "text": "Yeah, maybe the thing to do now is to just implement Bluetooth classic for Android only, adn then think about adding BLE once I have an embedded system that I can set up as a BLE data source.  I updated "
                            },
                            {
                                "type": "link",
                                "url": "https:\/\/github.com\/kukulo2011\/OpenCovid_ventilator\/issues\/14"
                            }
                        ]
                    }
                ]
            }
        ],
        "thread_ts": "1586197014.001900",
        "parent_user_id": "U010GFNDDL4",
        "reactions": [
            {
                "name": "+1",
                "users": [
                    "U010B4EJG2C"
                ],
                "count": 1
            }
        ]
    },
    {
        "client_msg_id": "6182b877-874d-46ec-945e-fe12eaddd954",
        "type": "message",
        "text": "I just uploaded a \"beta\" to the Google app store.  I think that takes one week to review before it's made visible, though.\n\nI also uploaded to \"internal app sharing,\" which lets up to 100 people download with a special link. It doesn't work for me yet, but maybe it will after a couple of hours?  See if you guys can get the latest release here:  <https:\/\/play.google.com\/apps\/test\/RQOYI-dA324\/ahACN8eApExh0cwo_7xAIw-8rf01Oj93aaeEkdWw3S2inPEdW4a2FH7vPoDjRzpnhz43fT_wjQfMgHEPuWqvD9TZ-c>\n\nIf not, I uploaded the .apk files to Github, like normal.  The new functionality this time is the ability to use a TCP\/IP socket to send data to the app.",
        "user": "U010GFNDDL4",
        "ts": "1586305206.002800",
        "team": "TUU48M0T1",
        "user_team": "TUU48M0T1",
        "source_team": "TUU48M0T1",
        "user_profile": {
            "avatar_hash": "b056393f8b03",
            "image_72": "https:\/\/avatars.slack-edge.com\/2020-03-21\/1017096790757_b056393f8b03bb5aef51_72.jpg",
            "first_name": "",
            "real_name": "Bill Foote",
            "display_name": "Bill Foote",
            "team": "TUU48M0T1",
            "name": "billf",
            "is_restricted": false,
            "is_ultra_restricted": false
        },
        "blocks": [
            {
                "type": "rich_text",
                "block_id": "RPA",
                "elements": [
                    {
                        "type": "rich_text_section",
                        "elements": [
                            {
                                "type": "text",
                                "text": "I just uploaded a \"beta\" to the Google app store.  I think that takes one week to review before it's made visible, though.\n\nI also uploaded to \"internal app sharing,\" which lets up to 100 people download with a special link. It doesn't work for me yet, but maybe it will after a couple of hours?  See if you guys can get the latest release here:  "
                            },
                            {
                                "type": "link",
                                "url": "https:\/\/play.google.com\/apps\/test\/RQOYI-dA324\/ahACN8eApExh0cwo_7xAIw-8rf01Oj93aaeEkdWw3S2inPEdW4a2FH7vPoDjRzpnhz43fT_wjQfMgHEPuWqvD9TZ-c"
                            },
                            {
                                "type": "text",
                                "text": "\n\nIf not, I uploaded the .apk files to Github, like normal.  The new functionality this time is the ability to use a TCP\/IP socket to send data to the app."
                            }
                        ]
                    }
                ]
            }
        ],
        "thread_ts": "1586197014.001900",
        "parent_user_id": "U010GFNDDL4"
    }
]