[
    {
        "client_msg_id": "df0747d1-87de-4e11-ab7e-a0a6d6abf422",
        "type": "message",
        "text": "Hi there. I'm Germany based and I am well aware of funding positioning in Europe. Is this of value to you all? (just signed today)",
        "user": "UV9PSNTUY",
        "ts": "1584026897.002800",
        "team": "TUU48M0T1",
        "user_team": "TUU48M0T1",
        "source_team": "TUU48M0T1",
        "user_profile": {
            "avatar_hash": "5a0073af8f2b",
            "image_72": "https:\/\/avatars.slack-edge.com\/2020-03-12\/985479363475_5a0073af8f2b1261a5b8_72.jpg",
            "first_name": "Lauren",
            "real_name": "Lauren Devore",
            "display_name": "Lauren De Vore",
            "team": "TUU48M0T1",
            "name": "devorelauren",
            "is_restricted": false,
            "is_ultra_restricted": false
        },
        "edited": {
            "user": "UV9PSNTUY",
            "ts": "1584026910.000000"
        },
        "blocks": [
            {
                "type": "rich_text",
                "block_id": "KfsF",
                "elements": [
                    {
                        "type": "rich_text_section",
                        "elements": [
                            {
                                "type": "text",
                                "text": "Hi there. I'm Germany based and I am well aware of funding positioning in Europe. Is this of value to you all? (just signed today)"
                            }
                        ]
                    }
                ]
            }
        ]
    },
    {
        "client_msg_id": "4361886b-abd8-45ec-a1b0-fb6915511ecc",
        "type": "message",
        "text": "yes please!",
        "user": "UV02WET96",
        "ts": "1584029667.003100",
        "team": "TUU48M0T1",
        "user_team": "TUU48M0T1",
        "source_team": "TUU48M0T1",
        "user_profile": {
            "avatar_hash": "a99c74a194f8",
            "image_72": "https:\/\/avatars.slack-edge.com\/2020-03-07\/975708504851_a99c74a194f86715ca7d_72.png",
            "first_name": "Thomas",
            "real_name": "Thomas Landrain",
            "display_name": "Thomas Landrain - JOGL CoFounder \/ CEO",
            "team": "TUU48M0T1",
            "name": "thomas",
            "is_restricted": false,
            "is_ultra_restricted": false
        },
        "blocks": [
            {
                "type": "rich_text",
                "block_id": "Neo5",
                "elements": [
                    {
                        "type": "rich_text_section",
                        "elements": [
                            {
                                "type": "text",
                                "text": "yes please!"
                            }
                        ]
                    }
                ]
            }
        ]
    },
    {
        "client_msg_id": "BF9F25A6-0BFC-4536-B6B4-759E25746BC4",
        "type": "message",
        "text": "yea that would be great <@UV9PSNTUY> would love to hear about the opportunities!",
        "user": "UV0QTJCMT",
        "ts": "1584037875.004000",
        "team": "TUU48M0T1",
        "user_team": "TUU48M0T1",
        "source_team": "TUU48M0T1",
        "user_profile": {
            "avatar_hash": "06a6ae8f69d1",
            "image_72": "https:\/\/avatars.slack-edge.com\/2020-04-13\/1060635499315_06a6ae8f69d18f1ad464_72.png",
            "first_name": "Katherine",
            "real_name": "Katherine Holo",
            "display_name": "Kat Holo - Co-Organizer of OpenCOVID19",
            "team": "TUU48M0T1",
            "name": "katherineh245",
            "is_restricted": false,
            "is_ultra_restricted": false
        },
        "blocks": [
            {
                "type": "rich_text",
                "block_id": "Ej8I",
                "elements": [
                    {
                        "type": "rich_text_section",
                        "elements": [
                            {
                                "type": "text",
                                "text": "yea that would be great "
                            },
                            {
                                "type": "user",
                                "user_id": "UV9PSNTUY"
                            },
                            {
                                "type": "text",
                                "text": " would love to hear about the opportunities!"
                            }
                        ]
                    }
                ]
            }
        ]
    },
    {
        "client_msg_id": "f6a09ae1-bd67-4c70-9aee-0980e62e00a4",
        "type": "message",
        "text": "Wellcome Trust could be a good source of funding in the future. They have a COVID-19 scheme but it is suspended at the moment due to high demand: <https:\/\/wellcome.ac.uk\/grant-funding\/schemes\/epidemic-preparedness-covid-19>",
        "user": "UUWR0FJ7M",
        "ts": "1584039700.005900",
        "team": "TUU48M0T1",
        "user_team": "TUU48M0T1",
        "source_team": "TUU48M0T1",
        "user_profile": {
            "avatar_hash": "g0851a85aef5",
            "image_72": "https:\/\/secure.gravatar.com\/avatar\/0851a85aef59ee4069c5669edd21a593.jpg?s=72&d=https%3A%2F%2Fa.slack-edge.com%2Fdf10d%2Fimg%2Favatars%2Fava_0004-72.png",
            "first_name": "manuel",
            "real_name": "manuel lannaud",
            "display_name": "manu lannaud",
            "team": "TUU48M0T1",
            "name": "slack1260",
            "is_restricted": false,
            "is_ultra_restricted": false
        },
        "attachments": [
            {
                "title": "Epidemic Preparedness: COVID-19 funding call",
                "title_link": "https:\/\/wellcome.ac.uk\/grant-funding\/schemes\/epidemic-preparedness-covid-19",
                "text": "Strengthening the evidence base to better prevent and control coronavirus (COVID-19) epidemics and to increase research and response capacity.",
                "fallback": "Epidemic Preparedness: COVID-19 funding call",
                "from_url": "https:\/\/wellcome.ac.uk\/grant-funding\/schemes\/epidemic-preparedness-covid-19",
                "service_icon": "https:\/\/wellcome.ac.uk\/sites\/all\/themes\/corp_base\/assets\/images\/touch-icons\/apple-touch-icon-57x57.png",
                "service_name": "wellcome.ac.uk",
                "id": 1,
                "original_url": "https:\/\/wellcome.ac.uk\/grant-funding\/schemes\/epidemic-preparedness-covid-19"
            }
        ],
        "blocks": [
            {
                "type": "rich_text",
                "block_id": "9BCO",
                "elements": [
                    {
                        "type": "rich_text_section",
                        "elements": [
                            {
                                "type": "text",
                                "text": "Wellcome Trust could be a good source of funding in the future. They have a COVID-19 scheme but it is suspended at the moment due to high demand: "
                            },
                            {
                                "type": "link",
                                "url": "https:\/\/wellcome.ac.uk\/grant-funding\/schemes\/epidemic-preparedness-covid-19"
                            }
                        ]
                    }
                ]
            }
        ]
    },
    {
        "client_msg_id": "b8250fbe-8888-45b1-a5d4-0d1c19d6c6f7",
        "type": "message",
        "text": "<@UV02WET96>  <@UV0QTJCMT>  <https:\/\/ec.europa.eu\/info\/funding-tenders\/opportunities\/portal\/screen\/opportunities\/topic-details\/imi2-2020-21-01|https:\/\/ec.europa.eu\/info\/funding-tenders\/opportunities\/portal\/screen\/opportunities\/topic-details\/imi2-2020-21-01>\nWould be happy to help working on Ap when something thought worth pursuing.\nLDV",
        "user": "UV9PSNTUY",
        "ts": "1584040218.007500",
        "team": "TUU48M0T1",
        "user_team": "TUU48M0T1",
        "source_team": "TUU48M0T1",
        "user_profile": {
            "avatar_hash": "5a0073af8f2b",
            "image_72": "https:\/\/avatars.slack-edge.com\/2020-03-12\/985479363475_5a0073af8f2b1261a5b8_72.jpg",
            "first_name": "Lauren",
            "real_name": "Lauren Devore",
            "display_name": "Lauren De Vore",
            "team": "TUU48M0T1",
            "name": "devorelauren",
            "is_restricted": false,
            "is_ultra_restricted": false
        },
        "attachments": [
            {
                "title": "Funding &amp; tenders",
                "title_link": "https:\/\/ec.europa.eu\/info\/funding-tenders\/opportunities\/portal\/screen\/opportunities\/topic-details\/imi2-2020-21-01",
                "text": "The Funding and Tenders Portal is the single entry point (the Single Electronic Data Interchange Area) for applicants, contractors and experts in funding programmes and procurements managed by the European Commission.",
                "fallback": "Funding &amp; tenders",
                "from_url": "https:\/\/ec.europa.eu\/info\/funding-tenders\/opportunities\/portal\/screen\/opportunities\/topic-details\/imi2-2020-21-01",
                "service_icon": "https:\/\/ec.europa.eu\/favicon.ico",
                "service_name": "ec.europa.eu",
                "id": 1,
                "original_url": "https:\/\/ec.europa.eu\/info\/funding-tenders\/opportunities\/portal\/screen\/opportunities\/topic-details\/imi2-2020-21-01"
            }
        ],
        "blocks": [
            {
                "type": "rich_text",
                "block_id": "Jg3qV",
                "elements": [
                    {
                        "type": "rich_text_section",
                        "elements": [
                            {
                                "type": "user",
                                "user_id": "UV02WET96"
                            },
                            {
                                "type": "text",
                                "text": "  "
                            },
                            {
                                "type": "user",
                                "user_id": "UV0QTJCMT"
                            },
                            {
                                "type": "text",
                                "text": "  "
                            },
                            {
                                "type": "link",
                                "url": "https:\/\/ec.europa.eu\/info\/funding-tenders\/opportunities\/portal\/screen\/opportunities\/topic-details\/imi2-2020-21-01",
                                "text": "https:\/\/ec.europa.eu\/info\/funding-tenders\/opportunities\/portal\/screen\/opportunities\/topic-details\/imi2-2020-21-01"
                            },
                            {
                                "type": "text",
                                "text": "\nWould be happy to help working on Ap when something thought worth pursuing.\nLDV"
                            }
                        ]
                    }
                ]
            }
        ]
    },
    {
        "client_msg_id": "2016648a-0651-4351-af7c-6b8c522da4c2",
        "type": "message",
        "text": "US based researchers may be interested in this: <https:\/\/www.hhs.gov\/about\/news\/2020\/03\/06\/hhs-solicits-proposals-for-development-of-medical-products-for-novel-coronavirus.html|https:\/\/www.hhs.gov\/about\/news\/2020\/03\/06\/hhs-solicits-proposals-for-development-of-medical-products-for-novel-coronavirus.html>",
        "user": "UVADMLUB0",
        "ts": "1584040372.008400",
        "team": "TUU48M0T1",
        "user_team": "TUU48M0T1",
        "source_team": "TUU48M0T1",
        "user_profile": {
            "avatar_hash": "14179705705a",
            "image_72": "https:\/\/avatars.slack-edge.com\/2020-03-11\/981468022482_14179705705a94b3db16_72.jpg",
            "first_name": "Bill",
            "real_name": "Bill Slavin",
            "display_name": "Bill Slavin- Executive Director, Indie Lab",
            "team": "TUU48M0T1",
            "name": "bill",
            "is_restricted": false,
            "is_ultra_restricted": false
        },
        "attachments": [
            {
                "service_name": "HHS.gov",
                "title": "HHS Solicits Proposals for Development of Medical Products for Novel Coronavirus",
                "title_link": "https:\/\/www.hhs.gov\/about\/news\/2020\/03\/06\/hhs-solicits-proposals-for-development-of-medical-products-for-novel-coronavirus.html",
                "text": "As part of the government-wide effort to mitigate the spread of COVID-19 in U.S. communities, the U.S. Department of Health and Human Services (HHS) has updated a broad agency announcement (BAA) to focus specifically on products to diagnose, prevent or treat coronavirus infections.",
                "fallback": "HHS.gov: HHS Solicits Proposals for Development of Medical Products for Novel Coronavirus",
                "thumb_url": "https:\/\/www.hhs.gov\/sites\/default\/files\/HHS-Twitter-Card-180x180.jpg",
                "ts": 1583532963,
                "from_url": "https:\/\/www.hhs.gov\/about\/news\/2020\/03\/06\/hhs-solicits-proposals-for-development-of-medical-products-for-novel-coronavirus.html",
                "thumb_width": 180,
                "thumb_height": 180,
                "service_icon": "https:\/\/www.hhs.gov\/sites\/all\/themes\/project_h\/favicon.ico",
                "id": 1,
                "original_url": "https:\/\/www.hhs.gov\/about\/news\/2020\/03\/06\/hhs-solicits-proposals-for-development-of-medical-products-for-novel-coronavirus.html"
            }
        ],
        "blocks": [
            {
                "type": "rich_text",
                "block_id": "NYIz",
                "elements": [
                    {
                        "type": "rich_text_section",
                        "elements": [
                            {
                                "type": "text",
                                "text": "US based researchers may be interested in this: "
                            },
                            {
                                "type": "link",
                                "url": "https:\/\/www.hhs.gov\/about\/news\/2020\/03\/06\/hhs-solicits-proposals-for-development-of-medical-products-for-novel-coronavirus.html",
                                "text": "https:\/\/www.hhs.gov\/about\/news\/2020\/03\/06\/hhs-solicits-proposals-for-development-of-medical-products-for-novel-coronavirus.html"
                            }
                        ]
                    }
                ]
            }
        ]
    },
    {
        "type": "message",
        "text": "<@UUWR0FJ7M> <@UV9PSNTUY> <@UVADMLUB0> those sound really interesting! do you mind adding to <https:\/\/docs.google.com\/document\/d\/1nGw5zq1JZX0TxqlpIfWUdF98M05RZfEOYRssIgelGWE\/edit#|this doc> with info about them?",
        "upload": false,
        "blocks": [
            {
                "type": "rich_text",
                "block_id": "5jpx",
                "elements": [
                    {
                        "type": "rich_text_section",
                        "elements": [
                            {
                                "type": "user",
                                "user_id": "UUWR0FJ7M"
                            },
                            {
                                "type": "text",
                                "text": " "
                            },
                            {
                                "type": "user",
                                "user_id": "UV9PSNTUY"
                            },
                            {
                                "type": "text",
                                "text": " "
                            },
                            {
                                "type": "user",
                                "user_id": "UVADMLUB0"
                            },
                            {
                                "type": "text",
                                "text": " those sound really interesting! do you mind adding to "
                            },
                            {
                                "type": "link",
                                "url": "https:\/\/docs.google.com\/document\/d\/1nGw5zq1JZX0TxqlpIfWUdF98M05RZfEOYRssIgelGWE\/edit#",
                                "text": "this doc"
                            },
                            {
                                "type": "text",
                                "text": " with info about them?"
                            }
                        ]
                    }
                ]
            }
        ],
        "user": "UV0QTJCMT",
        "ts": "1584046623.009800",
        "edited": {
            "user": "UV0QTJCMT",
            "ts": "1584046632.000000"
        },
        "client_msg_id": "418404db-e691-4b7d-8891-2e2e57fdcfb2"
    },
    {
        "client_msg_id": "f294db83-88ee-4092-bc85-10fa55090260",
        "type": "message",
        "text": "we should definitely schedule a call sometime (probably after we're able to get the program up and running on JOGL) to discuss how to get more funding to support all of the projects",
        "user": "UV0QTJCMT",
        "ts": "1584046678.012300",
        "team": "TUU48M0T1",
        "user_team": "TUU48M0T1",
        "source_team": "TUU48M0T1",
        "user_profile": {
            "avatar_hash": "06a6ae8f69d1",
            "image_72": "https:\/\/avatars.slack-edge.com\/2020-04-13\/1060635499315_06a6ae8f69d18f1ad464_72.png",
            "first_name": "Katherine",
            "real_name": "Katherine Holo",
            "display_name": "Kat Holo - Co-Organizer of OpenCOVID19",
            "team": "TUU48M0T1",
            "name": "katherineh245",
            "is_restricted": false,
            "is_ultra_restricted": false
        },
        "blocks": [
            {
                "type": "rich_text",
                "block_id": "zei6",
                "elements": [
                    {
                        "type": "rich_text_section",
                        "elements": [
                            {
                                "type": "text",
                                "text": "we should definitely schedule a call sometime (probably after we're able to get the program up and running on JOGL) to discuss how to get more funding to support all of the projects"
                            }
                        ]
                    }
                ]
            }
        ]
    }
]