[
    {
        "client_msg_id": "42af29c6-8f4f-4f02-b32c-6069fe079149",
        "type": "message",
        "text": "OK, we missed it. I think it is OK for the moment :slightly_smiling_face:",
        "user": "U010X9FPMS8",
        "ts": "1587749123.020700",
        "team": "TUU48M0T1",
        "user_team": "TUU48M0T1",
        "source_team": "TUU48M0T1",
        "user_profile": {
            "avatar_hash": "faff4edf8af2",
            "image_72": "https:\/\/avatars.slack-edge.com\/2020-03-27\/1031471711236_faff4edf8af2cc7b11dd_72.jpg",
            "first_name": "Florian",
            "real_name": "Florian Schulte",
            "display_name": "Florian Schulte",
            "team": "TUU48M0T1",
            "name": "schulte.florian",
            "is_restricted": false,
            "is_ultra_restricted": false
        },
        "blocks": [
            {
                "type": "rich_text",
                "block_id": "Y5c+",
                "elements": [
                    {
                        "type": "rich_text_section",
                        "elements": [
                            {
                                "type": "text",
                                "text": "OK, we missed it. I think it is OK for the moment "
                            },
                            {
                                "type": "emoji",
                                "name": "slightly_smiling_face"
                            }
                        ]
                    }
                ]
            }
        ],
        "thread_ts": "1586759044.019300",
        "parent_user_id": "U010X9FPMS8"
    },
    {
        "client_msg_id": "e172ec9e-7c09-4c62-95de-a365286f2176",
        "type": "message",
        "text": "Sorry for that Florian, it’s been really crazy… I’m sure we’ll find the time next week :slightly_smiling_face: Thanks for your help!",
        "user": "UV02WET96",
        "ts": "1587757970.020900",
        "team": "TUU48M0T1",
        "user_team": "TUU48M0T1",
        "source_team": "TUU48M0T1",
        "user_profile": {
            "avatar_hash": "a99c74a194f8",
            "image_72": "https:\/\/avatars.slack-edge.com\/2020-03-07\/975708504851_a99c74a194f86715ca7d_72.png",
            "first_name": "Thomas",
            "real_name": "Thomas Landrain",
            "display_name": "Thomas Landrain - JOGL CoFounder \/ CEO",
            "team": "TUU48M0T1",
            "name": "thomas",
            "is_restricted": false,
            "is_ultra_restricted": false
        },
        "blocks": [
            {
                "type": "rich_text",
                "block_id": "SAKng",
                "elements": [
                    {
                        "type": "rich_text_section",
                        "elements": [
                            {
                                "type": "text",
                                "text": "Sorry for that Florian, it’s been really crazy… I’m sure we’ll find the time next week "
                            },
                            {
                                "type": "emoji",
                                "name": "slightly_smiling_face"
                            },
                            {
                                "type": "text",
                                "text": " Thanks for your help!"
                            }
                        ]
                    }
                ]
            }
        ],
        "thread_ts": "1586759044.019300",
        "parent_user_id": "U010X9FPMS8"
    }
]