[
    {
        "client_msg_id": "7f222f95-68cb-4f81-a4ec-2474fb47ae83",
        "type": "message",
        "text": "Hi everyone! I am Yannis I am a ChemE graduate from greece. I don't have access to lab or fab equipment at the moment but would be happy to help any other way that I can. I was thinking that maybe some amplification\/detection reaction modelling might be useful to get a feel of the time needed for the test to provide results. Let me know if you think that this would be useful or if u identify any other needs I could work on",
        "user": "U011BJWBFDM",
        "ts": "1586435504.030800",
        "team": "TUU48M0T1",
        "user_team": "TUU48M0T1",
        "source_team": "TUU48M0T1",
        "user_profile": {
            "avatar_hash": "1c121f4c84c8",
            "image_72": "https:\/\/avatars.slack-edge.com\/2020-04-08\/1054543351585_1c121f4c84c870a82e1f_72.jpg",
            "first_name": "",
            "real_name": "Yannis Ntekas",
            "display_name": "Yannis Ntekas",
            "team": "TUU48M0T1",
            "name": "ntekasi",
            "is_restricted": false,
            "is_ultra_restricted": false
        },
        "blocks": [
            {
                "type": "rich_text",
                "block_id": "hBbP",
                "elements": [
                    {
                        "type": "rich_text_section",
                        "elements": [
                            {
                                "type": "text",
                                "text": "Hi everyone! I am Yannis I am a ChemE graduate from greece. I don't have access to lab or fab equipment at the moment but would be happy to help any other way that I can. I was thinking that maybe some amplification\/detection reaction modelling might be useful to get a feel of the time needed for the test to provide results. Let me know if you think that this would be useful or if u identify any other needs I could work on"
                            }
                        ]
                    }
                ]
            }
        ],
        "reactions": [
            {
                "name": "heart_eyes",
                "users": [
                    "UV3URUKK5",
                    "UV3746ST1",
                    "UV20M5HGQ"
                ],
                "count": 3
            }
        ]
    },
    {
        "client_msg_id": "ecf1e59c-9aff-4a56-9f78-37c19bc28904",
        "type": "message",
        "text": "<@UV3746ST1> will be testing the circuit in an in-house made cell-free lysate which he has been working with previously and will be sharing the details of this protocol. Meanwhile, I will be using the myTxTl kit from Arbor Biosciences (as we were fortunate to receive a some as a donation from them) and lastly, we decided to test the circuit in cheaper cell-free extract kit from Korea (<https:\/\/eng.bioneer.com\/20-k-7250.html>), the idea being that if you are not able to make your own cell-free extract in-house, you can be hopeful of the circuit working in cell-free extracts from less expensive suppliers. <@UV3URUKK5> will be testing the AccuRapid kit from the Korean supplier which can be bought in a 24 reaction kit for $150 USD. I would love to also try this in a freeze-dried cell-free lysate but have yet to find a supplier. I've reached out to miniPCR who sells the BioBits kit (<https:\/\/www.minipcr.com\/product\/biobits-central-dogma\/>), however have not yet gotten a response from them. Their kit is educational and is made for visualizing RNA and protein production individually, so hopefully all of those components don't come pre-mixed so that the cell-free lysate can be used with other DNA circuits. They have a live webinar this Monday so I will ask those questions.",
        "user": "UV20M5HGQ",
        "ts": "1586443647.031000",
        "team": "TUU48M0T1",
        "user_team": "TUU48M0T1",
        "source_team": "TUU48M0T1",
        "user_profile": {
            "avatar_hash": "de7ea7b7e14e",
            "image_72": "https:\/\/avatars.slack-edge.com\/2020-03-11\/981865374050_de7ea7b7e14e7b4316b9_72.jpg",
            "first_name": "",
            "real_name": "Vesta Korniakova",
            "display_name": "Vesta Korniakova",
            "team": "TUU48M0T1",
            "name": "riboswitchvesta",
            "is_restricted": false,
            "is_ultra_restricted": false
        },
        "attachments": [
            {
                "title": "AccuRapid™ Cell-Free Protein Expression Kit (24 reactions)",
                "title_link": "https:\/\/eng.bioneer.com\/20-k-7250.html",
                "text": "AccuRapid&amp;trade; Protein Expression Kit allows expression of desired protein in a reaction tube within 3 hours using the template DNA. This product is composed of E. coli extract containing T7 RNA polymerase, ribosome, etc. and Master Mix containing amino",
                "fallback": "AccuRapid™ Cell-Free Protein Expression Kit (24 reactions)",
                "image_url": "https:\/\/eng.bioneer.com\/media\/catalog\/product\/cache\/image\/210x140\/beff4985b56e3afdbeabfc89641a4582\/a\/c\/accurapid_cell-free_protein_expression_kit.jpg",
                "from_url": "https:\/\/eng.bioneer.com\/20-k-7250.html",
                "image_width": 210,
                "image_height": 140,
                "image_bytes": 3178,
                "service_icon": "https:\/\/eng.bioneer.com\/static\/version1583902857\/frontend\/Bioneer\/general\/en_US\/Magento_Theme\/favicon.ico",
                "service_name": "eng.bioneer.com",
                "id": 1,
                "original_url": "https:\/\/eng.bioneer.com\/20-k-7250.html"
            }
        ],
        "blocks": [
            {
                "type": "rich_text",
                "block_id": "Xhi",
                "elements": [
                    {
                        "type": "rich_text_section",
                        "elements": [
                            {
                                "type": "user",
                                "user_id": "UV3746ST1"
                            },
                            {
                                "type": "text",
                                "text": " will be testing the circuit in an in-house made cell-free lysate which he has been working with previously and will be sharing the details of this protocol. Meanwhile, I will be using the myTxTl kit from Arbor Biosciences (as we were fortunate to receive a some as a donation from them) and lastly, we decided to test the circuit in cheaper cell-free extract kit from Korea ("
                            },
                            {
                                "type": "link",
                                "url": "https:\/\/eng.bioneer.com\/20-k-7250.html"
                            },
                            {
                                "type": "text",
                                "text": "), the idea being that if you are not able to make your own cell-free extract in-house, you can be hopeful of the circuit working in cell-free extracts from less expensive suppliers. "
                            },
                            {
                                "type": "user",
                                "user_id": "UV3URUKK5"
                            },
                            {
                                "type": "text",
                                "text": " will be testing the AccuRapid kit from the Korean supplier which can be bought in a 24 reaction kit for $150 USD. I would love to also try this in a freeze-dried cell-free lysate but have yet to find a supplier. I've reached out to miniPCR who sells the BioBits kit ("
                            },
                            {
                                "type": "link",
                                "url": "https:\/\/www.minipcr.com\/product\/biobits-central-dogma\/"
                            },
                            {
                                "type": "text",
                                "text": "), however have not yet gotten a response from them. Their kit is educational and is made for visualizing RNA and protein production individually, so hopefully all of those components don't come pre-mixed so that the cell-free lysate can be used with other DNA circuits. They have a live webinar this Monday so I will ask those questions."
                            }
                        ]
                    }
                ]
            }
        ],
        "thread_ts": "1586403838.026000",
        "parent_user_id": "UUNGFHSV8",
        "reactions": [
            {
                "name": "heart_eyes",
                "users": [
                    "UV3URUKK5",
                    "UV3746ST1",
                    "UUNGFHSV8"
                ],
                "count": 3
            }
        ]
    },
    {
        "client_msg_id": "b8c27946-46dc-4475-8b10-6ff7f78023ec",
        "type": "message",
        "text": "Beautiful! :raised_hands: Would you be able to find out whether we are able to use your rework of the different parts without infringing on any copyright rights? I am not familiar with these details.",
        "user": "UV20M5HGQ",
        "ts": "1586447179.032000",
        "team": "TUU48M0T1",
        "user_team": "TUU48M0T1",
        "source_team": "TUU48M0T1",
        "user_profile": {
            "avatar_hash": "de7ea7b7e14e",
            "image_72": "https:\/\/avatars.slack-edge.com\/2020-03-11\/981865374050_de7ea7b7e14e7b4316b9_72.jpg",
            "first_name": "",
            "real_name": "Vesta Korniakova",
            "display_name": "Vesta Korniakova",
            "team": "TUU48M0T1",
            "name": "riboswitchvesta",
            "is_restricted": false,
            "is_ultra_restricted": false
        },
        "blocks": [
            {
                "type": "rich_text",
                "block_id": "LmrG0",
                "elements": [
                    {
                        "type": "rich_text_section",
                        "elements": [
                            {
                                "type": "text",
                                "text": "Beautiful! "
                            },
                            {
                                "type": "emoji",
                                "name": "raised_hands"
                            },
                            {
                                "type": "text",
                                "text": " Would you be able to find out whether we are able to use your rework of the different parts without infringing on any copyright rights? I am not familiar with these details."
                            }
                        ]
                    }
                ]
            }
        ],
        "thread_ts": "1586369218.022400",
        "parent_user_id": "UV5C2TFCH"
    },
    {
        "client_msg_id": "4c0c6308-658c-400a-adc2-d76fb7290360",
        "type": "message",
        "text": "I believe it should be usable! The main image is published on a couple of articles with citation to royalty -free _Joao Paulo Burini\/Getty Images._ This_,_ along with citation to the toehold paper, should cover crediting :slightly_smiling_face:",
        "user": "UV5C2TFCH",
        "ts": "1586448317.032200",
        "team": "TUU48M0T1",
        "user_team": "TUU48M0T1",
        "source_team": "TUU48M0T1",
        "user_profile": {
            "avatar_hash": "a4f88622caa0",
            "image_72": "https:\/\/avatars.slack-edge.com\/2020-03-17\/997014072945_a4f88622caa0f9ec4968_72.jpg",
            "first_name": "",
            "real_name": "Sangita Vasikaran",
            "display_name": "",
            "team": "TUU48M0T1",
            "name": "sangitavv",
            "is_restricted": false,
            "is_ultra_restricted": false
        },
        "blocks": [
            {
                "type": "rich_text",
                "block_id": "COJ",
                "elements": [
                    {
                        "type": "rich_text_section",
                        "elements": [
                            {
                                "type": "text",
                                "text": "I believe it should be usable! The main image is published on a couple of articles with citation to royalty -free "
                            },
                            {
                                "type": "text",
                                "text": "Joao Paulo Burini\/Getty Images. ",
                                "style": {
                                    "italic": true
                                }
                            },
                            {
                                "type": "text",
                                "text": "This"
                            },
                            {
                                "type": "text",
                                "text": ", ",
                                "style": {
                                    "italic": true
                                }
                            },
                            {
                                "type": "text",
                                "text": "along with citation to the toehold paper, should cover crediting "
                            },
                            {
                                "type": "emoji",
                                "name": "slightly_smiling_face"
                            }
                        ]
                    }
                ]
            }
        ],
        "thread_ts": "1586371166.025100",
        "parent_user_id": "UV3746ST1"
    },
    {
        "client_msg_id": "7b8607f6-d6e8-43ae-8818-4bdedd1834d5",
        "type": "message",
        "text": "Great <@U011BJWBFDM> thanks for the help and the idea!.  We are currently thinking in the best ways for defining the ideal target sequences within the genome. I think is important to take in consideration the conservation of the sequences across the Sars-Cov-2 isolates, avoid recombination sites, avoid hotspots for mutations, It is important to consider too the secondary structures on the sequence that we'd like to target. Also, it is important to consider the relative expression. For instance, I've seen that the 3' of the genome is more abundant in cell-cultures than the 5'.",
        "user": "UV3746ST1",
        "ts": "1586452212.036300",
        "team": "TUU48M0T1",
        "user_team": "TUU48M0T1",
        "source_team": "TUU48M0T1",
        "user_profile": {
            "avatar_hash": "a83ec6cd1d1a",
            "image_72": "https:\/\/avatars.slack-edge.com\/2020-03-07\/987381527184_a83ec6cd1d1ab6a03a2c_72.jpg",
            "first_name": "Anibal",
            "real_name": "Anibal",
            "display_name": "Anibal",
            "team": "TUU48M0T1",
            "name": "elanibal",
            "is_restricted": false,
            "is_ultra_restricted": false
        },
        "blocks": [
            {
                "type": "rich_text",
                "block_id": "f2j",
                "elements": [
                    {
                        "type": "rich_text_section",
                        "elements": [
                            {
                                "type": "text",
                                "text": "Great "
                            },
                            {
                                "type": "user",
                                "user_id": "U011BJWBFDM"
                            },
                            {
                                "type": "text",
                                "text": " thanks for the help and the idea!.  We are currently thinking in the best ways for defining the ideal target sequences within the genome. I think is important to take in consideration the conservation of the sequences across the Sars-Cov-2 isolates, avoid recombination sites, avoid hotspots for mutations, It is important to consider too the secondary structures on the sequence that we'd like to target. Also, it is important to consider the relative expression. For instance, I've seen that the 3' of the genome is more abundant in cell-cultures than the 5'."
                            }
                        ]
                    }
                ]
            }
        ],
        "reactions": [
            {
                "name": "+1",
                "users": [
                    "U011BJWBFDM"
                ],
                "count": 1
            }
        ]
    },
    {
        "client_msg_id": "1ad16c6d-ecad-4a56-92ae-6292bd0edca6",
        "type": "message",
        "text": "great! amazing then.  :slightly_smiling_face: should we vote and chose one design ? :stuck_out_tongue:",
        "user": "UV3746ST1",
        "ts": "1586452423.036400",
        "team": "TUU48M0T1",
        "user_team": "TUU48M0T1",
        "source_team": "TUU48M0T1",
        "user_profile": {
            "avatar_hash": "a83ec6cd1d1a",
            "image_72": "https:\/\/avatars.slack-edge.com\/2020-03-07\/987381527184_a83ec6cd1d1ab6a03a2c_72.jpg",
            "first_name": "Anibal",
            "real_name": "Anibal",
            "display_name": "Anibal",
            "team": "TUU48M0T1",
            "name": "elanibal",
            "is_restricted": false,
            "is_ultra_restricted": false
        },
        "blocks": [
            {
                "type": "rich_text",
                "block_id": "C97p",
                "elements": [
                    {
                        "type": "rich_text_section",
                        "elements": [
                            {
                                "type": "text",
                                "text": "great! amazing then.  "
                            },
                            {
                                "type": "emoji",
                                "name": "slightly_smiling_face"
                            },
                            {
                                "type": "text",
                                "text": " should we vote and chose one design ? "
                            },
                            {
                                "type": "emoji",
                                "name": "stuck_out_tongue"
                            }
                        ]
                    }
                ]
            }
        ],
        "thread_ts": "1586371166.025100",
        "parent_user_id": "UV3746ST1"
    },
    {
        "client_msg_id": "82d8ed50-1f86-4c59-bc4f-7eb19f8761c7",
        "type": "message",
        "text": "+1 for this design :slightly_smiling_face: <@UV5C2TFCH> would you be able to write up a citation for this kick ass banner you've created and place it somewhere on the bottom of the banner.  I'm not sure if there is an official way of citing, but judging by this website (<https:\/\/libguides.sait.ca\/c.php?g=612365&amp;p=4252412>), it can go somewhere along the lines of: Adapted from (Joao Paulo Burini\/Getty Images) and (toehold paper) by Sangita Vasikaran.",
        "user": "UV20M5HGQ",
        "ts": "1586453568.037000",
        "team": "TUU48M0T1",
        "user_team": "TUU48M0T1",
        "source_team": "TUU48M0T1",
        "user_profile": {
            "avatar_hash": "de7ea7b7e14e",
            "image_72": "https:\/\/avatars.slack-edge.com\/2020-03-11\/981865374050_de7ea7b7e14e7b4316b9_72.jpg",
            "first_name": "",
            "real_name": "Vesta Korniakova",
            "display_name": "Vesta Korniakova",
            "team": "TUU48M0T1",
            "name": "riboswitchvesta",
            "is_restricted": false,
            "is_ultra_restricted": false
        },
        "attachments": [
            {
                "title": "Guides: Finding and Using Images: Citing Images",
                "title_link": "https:\/\/libguides.sait.ca\/c.php?g=612365&p=4252412",
                "text": "This guide is intended to help you search for images to use in your projects and research. It is not a comprehensive list of image resources but rather an introduction to the process of locating appropriate images. How to Use and Cite Images in Reports and Presentations",
                "fallback": "Guides: Finding and Using Images: Citing Images",
                "from_url": "https:\/\/libguides.sait.ca\/c.php?g=612365&p=4252412",
                "service_icon": "http:\/\/libapps-ca.s3.amazonaws.com\/apps\/common\/favicon\/apple-touch-icon.png",
                "service_name": "libguides.sait.ca",
                "id": 1,
                "original_url": "https:\/\/libguides.sait.ca\/c.php?g=612365&amp;p=4252412"
            }
        ],
        "blocks": [
            {
                "type": "rich_text",
                "block_id": "iEv",
                "elements": [
                    {
                        "type": "rich_text_section",
                        "elements": [
                            {
                                "type": "text",
                                "text": "+1 for this design "
                            },
                            {
                                "type": "emoji",
                                "name": "slightly_smiling_face"
                            },
                            {
                                "type": "text",
                                "text": " "
                            },
                            {
                                "type": "user",
                                "user_id": "UV5C2TFCH"
                            },
                            {
                                "type": "text",
                                "text": " would you be able to write up a citation for this kick ass banner you've created and place it somewhere on the bottom of the banner.  I'm not sure if there is an official way of citing, but judging by this website ("
                            },
                            {
                                "type": "link",
                                "url": "https:\/\/libguides.sait.ca\/c.php?g=612365&p=4252412"
                            },
                            {
                                "type": "text",
                                "text": "), it can go somewhere along the lines of: Adapted from (Joao Paulo Burini\/Getty Images) and (toehold paper) by Sangita Vasikaran."
                            }
                        ]
                    }
                ]
            }
        ],
        "thread_ts": "1586371166.025100",
        "parent_user_id": "UV3746ST1"
    },
    {
        "client_msg_id": "aaa5fbdd-750f-46cf-8a43-ea49f517d957",
        "type": "message",
        "text": "Hi <!channel>,\nPlease join the <https:\/\/app.jogl.io\/project\/188|#CellFreeSensors> project on JOGL :slightly_smiling_face:\nIf you would like to share\/consult documents\/resources please view our <https:\/\/drive.google.com\/open?id=1vSUlOoAkruk4I_qCDoj27s7lAhhvxt8I|Google Drive folder here>.\nWe are currently looking for the optimal target sequences from the SARS-CoV-2 genome. To get a better overview of our options, we would like to annotate the genome with the conserved regions, hotspot mutation sites, as well as recombination sites as mentioned by <@UV3746ST1>. Here is a working document towards this goal: <https:\/\/docs.google.com\/document\/d\/10riaXZBU1cnZLiYg-VkyLHTqNV-CePqpex7wB-X6lKA\/edit?usp=sharing|Determining best target sites for cell-free detection>.\nFeel free to work on this document, but please record any important steps you have done in the pipeline section so we can all keep track. Thank you everyone for your inputs and let's get to know this virus inside-out!! :male-scientist::microscope::earth_americas::female-scientist:",
        "user": "UV20M5HGQ",
        "ts": "1586456890.042200",
        "team": "TUU48M0T1",
        "user_team": "TUU48M0T1",
        "source_team": "TUU48M0T1",
        "user_profile": {
            "avatar_hash": "de7ea7b7e14e",
            "image_72": "https:\/\/avatars.slack-edge.com\/2020-03-11\/981865374050_de7ea7b7e14e7b4316b9_72.jpg",
            "first_name": "",
            "real_name": "Vesta Korniakova",
            "display_name": "Vesta Korniakova",
            "team": "TUU48M0T1",
            "name": "riboswitchvesta",
            "is_restricted": false,
            "is_ultra_restricted": false
        },
        "attachments": [
            {
                "title": "JOGL - Just One Giant Lab",
                "title_link": "https:\/\/app.jogl.io\/project\/188",
                "text": "JOGL helps sync humanity onto solving our most important social &amp; environmental problems using open science, responsible innovation &amp; continuous learning.",
                "fallback": "JOGL - Just One Giant Lab",
                "thumb_url": "https:\/\/app.jogl.io\/planet.jpg",
                "from_url": "https:\/\/app.jogl.io\/project\/188",
                "thumb_width": 2049,
                "thumb_height": 1011,
                "service_icon": "https:\/\/app.jogl.io\/favicon.ico",
                "service_name": "app.jogl.io",
                "id": 1,
                "original_url": "https:\/\/app.jogl.io\/project\/188"
            }
        ],
        "blocks": [
            {
                "type": "rich_text",
                "block_id": "qU1",
                "elements": [
                    {
                        "type": "rich_text_section",
                        "elements": [
                            {
                                "type": "text",
                                "text": "Hi "
                            },
                            {
                                "type": "broadcast",
                                "range": "channel"
                            },
                            {
                                "type": "text",
                                "text": ",\nPlease join the "
                            },
                            {
                                "type": "link",
                                "url": "https:\/\/app.jogl.io\/project\/188",
                                "text": "#CellFreeSensors"
                            },
                            {
                                "type": "text",
                                "text": " project on JOGL "
                            },
                            {
                                "type": "emoji",
                                "name": "slightly_smiling_face"
                            },
                            {
                                "type": "text",
                                "text": "\nIf you would like to share\/consult documents\/resources please view our "
                            },
                            {
                                "type": "link",
                                "url": "https:\/\/drive.google.com\/open?id=1vSUlOoAkruk4I_qCDoj27s7lAhhvxt8I",
                                "text": "Google Drive folder here"
                            },
                            {
                                "type": "text",
                                "text": ".\nWe are currently looking for the optimal target sequences from the SARS-CoV-2 genome. To get a better overview of our options, we would like to annotate the genome with the conserved regions, hotspot mutation sites, as well as recombination sites as mentioned by "
                            },
                            {
                                "type": "user",
                                "user_id": "UV3746ST1"
                            },
                            {
                                "type": "text",
                                "text": ". Here is a working document towards this goal: "
                            },
                            {
                                "type": "link",
                                "url": "https:\/\/docs.google.com\/document\/d\/10riaXZBU1cnZLiYg-VkyLHTqNV-CePqpex7wB-X6lKA\/edit?usp=sharing",
                                "text": "Determining best target sites for cell-free detection"
                            },
                            {
                                "type": "text",
                                "text": ".\nFeel free to work on this document, but please record any important steps you have done in the pipeline section so we can all keep track. Thank you everyone for your inputs and let's get to know this virus inside-out!! "
                            },
                            {
                                "type": "emoji",
                                "name": "male-scientist"
                            },
                            {
                                "type": "emoji",
                                "name": "microscope"
                            },
                            {
                                "type": "emoji",
                                "name": "earth_americas"
                            },
                            {
                                "type": "emoji",
                                "name": "female-scientist"
                            }
                        ]
                    }
                ]
            }
        ],
        "reactions": [
            {
                "name": "100",
                "users": [
                    "UV3746ST1",
                    "UV3URUKK5",
                    "U01099UVAUA"
                ],
                "count": 3
            }
        ]
    },
    {
        "client_msg_id": "3fee76f9-0c6b-469f-98b0-3749c942b89f",
        "type": "message",
        "text": "For sure! Thank you guys for all your help :slightly_smiling_face:",
        "user": "UV5C2TFCH",
        "ts": "1586467718.042800",
        "team": "TUU48M0T1",
        "user_team": "TUU48M0T1",
        "source_team": "TUU48M0T1",
        "user_profile": {
            "avatar_hash": "a4f88622caa0",
            "image_72": "https:\/\/avatars.slack-edge.com\/2020-03-17\/997014072945_a4f88622caa0f9ec4968_72.jpg",
            "first_name": "",
            "real_name": "Sangita Vasikaran",
            "display_name": "",
            "team": "TUU48M0T1",
            "name": "sangitavv",
            "is_restricted": false,
            "is_ultra_restricted": false
        },
        "blocks": [
            {
                "type": "rich_text",
                "block_id": "KzE",
                "elements": [
                    {
                        "type": "rich_text_section",
                        "elements": [
                            {
                                "type": "text",
                                "text": "For sure! Thank you guys for all your help "
                            },
                            {
                                "type": "emoji",
                                "name": "slightly_smiling_face"
                            }
                        ]
                    }
                ]
            }
        ],
        "thread_ts": "1586371166.025100",
        "parent_user_id": "UV3746ST1"
    },
    {
        "type": "message",
        "text": "Finished banner here: thanks to everyone's collaboration!",
        "files": [
            {
                "id": "F011JFLK2JE",
                "created": 1586468080,
                "timestamp": 1586468080,
                "name": "CellFreeBanner.PNG",
                "title": "CellFreeBanner.PNG",
                "mimetype": "image\/png",
                "filetype": "png",
                "pretty_type": "PNG",
                "user": "UV5C2TFCH",
                "editable": false,
                "size": 1752139,
                "mode": "hosted",
                "is_external": false,
                "external_type": "",
                "is_public": true,
                "public_url_shared": false,
                "display_as_bot": false,
                "username": "",
                "url_private": "https:\/\/files.slack.com\/files-pri\/TUU48M0T1-F011JFLK2JE\/cellfreebanner.png?t=xoxe-980144714919-1106606678066-1105227127893-6f722bb664235052954ad46852628b64",
                "url_private_download": "https:\/\/files.slack.com\/files-pri\/TUU48M0T1-F011JFLK2JE\/download\/cellfreebanner.png?t=xoxe-980144714919-1106606678066-1105227127893-6f722bb664235052954ad46852628b64",
                "thumb_64": "https:\/\/files.slack.com\/files-tmb\/TUU48M0T1-F011JFLK2JE-edd7eb784d\/cellfreebanner_64.png?t=xoxe-980144714919-1106606678066-1105227127893-6f722bb664235052954ad46852628b64",
                "thumb_80": "https:\/\/files.slack.com\/files-tmb\/TUU48M0T1-F011JFLK2JE-edd7eb784d\/cellfreebanner_80.png?t=xoxe-980144714919-1106606678066-1105227127893-6f722bb664235052954ad46852628b64",
                "thumb_360": "https:\/\/files.slack.com\/files-tmb\/TUU48M0T1-F011JFLK2JE-edd7eb784d\/cellfreebanner_360.png?t=xoxe-980144714919-1106606678066-1105227127893-6f722bb664235052954ad46852628b64",
                "thumb_360_w": 360,
                "thumb_360_h": 204,
                "thumb_480": "https:\/\/files.slack.com\/files-tmb\/TUU48M0T1-F011JFLK2JE-edd7eb784d\/cellfreebanner_480.png?t=xoxe-980144714919-1106606678066-1105227127893-6f722bb664235052954ad46852628b64",
                "thumb_480_w": 480,
                "thumb_480_h": 272,
                "thumb_160": "https:\/\/files.slack.com\/files-tmb\/TUU48M0T1-F011JFLK2JE-edd7eb784d\/cellfreebanner_160.png?t=xoxe-980144714919-1106606678066-1105227127893-6f722bb664235052954ad46852628b64",
                "thumb_720": "https:\/\/files.slack.com\/files-tmb\/TUU48M0T1-F011JFLK2JE-edd7eb784d\/cellfreebanner_720.png?t=xoxe-980144714919-1106606678066-1105227127893-6f722bb664235052954ad46852628b64",
                "thumb_720_w": 720,
                "thumb_720_h": 408,
                "thumb_800": "https:\/\/files.slack.com\/files-tmb\/TUU48M0T1-F011JFLK2JE-edd7eb784d\/cellfreebanner_800.png?t=xoxe-980144714919-1106606678066-1105227127893-6f722bb664235052954ad46852628b64",
                "thumb_800_w": 800,
                "thumb_800_h": 454,
                "thumb_960": "https:\/\/files.slack.com\/files-tmb\/TUU48M0T1-F011JFLK2JE-edd7eb784d\/cellfreebanner_960.png?t=xoxe-980144714919-1106606678066-1105227127893-6f722bb664235052954ad46852628b64",
                "thumb_960_w": 960,
                "thumb_960_h": 544,
                "thumb_1024": "https:\/\/files.slack.com\/files-tmb\/TUU48M0T1-F011JFLK2JE-edd7eb784d\/cellfreebanner_1024.png?t=xoxe-980144714919-1106606678066-1105227127893-6f722bb664235052954ad46852628b64",
                "thumb_1024_w": 1024,
                "thumb_1024_h": 581,
                "image_exif_rotation": 1,
                "original_w": 1531,
                "original_h": 868,
                "thumb_tiny": "AwAbADBGNPhbIKhwufWoidxwO9OVAAoKMcnGcZpFWLoGAcZye9Pixg4OajAHAXPoKmB9KZI6ikB5wfzpaAMryirlADu\/nVpI5EQKMnucetTKo8wjFJjaMjgmhaDbuRlG6n60gDDkA1MozjNSYFO5NiuVkbgjPvVhRhQPSl6UUXA\/\/9k=",
                "permalink": "https:\/\/open-covid19.slack.com\/files\/UV5C2TFCH\/F011JFLK2JE\/cellfreebanner.png",
                "permalink_public": "https:\/\/slack-files.com\/TUU48M0T1-F011JFLK2JE-d44c24767c",
                "is_starred": false,
                "has_rich_preview": false
            }
        ],
        "upload": true,
        "blocks": [
            {
                "type": "rich_text",
                "block_id": "+XfAA",
                "elements": [
                    {
                        "type": "rich_text_section",
                        "elements": [
                            {
                                "type": "text",
                                "text": "Finished banner here: thanks to everyone's collaboration!"
                            }
                        ]
                    }
                ]
            }
        ],
        "user": "UV5C2TFCH",
        "display_as_bot": false,
        "ts": "1586468087.043000",
        "client_msg_id": "f1406e78-c376-4189-9230-351a77bdbc3a",
        "thread_ts": "1586371166.025100",
        "parent_user_id": "UV3746ST1",
        "reactions": [
            {
                "name": "raised_hands",
                "users": [
                    "UV20M5HGQ",
                    "UV3746ST1"
                ],
                "count": 2
            }
        ]
    },
    {
        "client_msg_id": "15d22b7f-0b32-427d-b583-d876681f8851",
        "type": "message",
        "text": "Super! Looks great!",
        "user": "UV20M5HGQ",
        "ts": "1586470582.043500",
        "team": "TUU48M0T1",
        "user_team": "TUU48M0T1",
        "source_team": "TUU48M0T1",
        "user_profile": {
            "avatar_hash": "de7ea7b7e14e",
            "image_72": "https:\/\/avatars.slack-edge.com\/2020-03-11\/981865374050_de7ea7b7e14e7b4316b9_72.jpg",
            "first_name": "",
            "real_name": "Vesta Korniakova",
            "display_name": "Vesta Korniakova",
            "team": "TUU48M0T1",
            "name": "riboswitchvesta",
            "is_restricted": false,
            "is_ultra_restricted": false
        },
        "blocks": [
            {
                "type": "rich_text",
                "block_id": "a0g",
                "elements": [
                    {
                        "type": "rich_text_section",
                        "elements": [
                            {
                                "type": "text",
                                "text": "Super! Looks great!"
                            }
                        ]
                    }
                ]
            }
        ],
        "thread_ts": "1586371166.025100",
        "parent_user_id": "UV3746ST1"
    },
    {
        "client_msg_id": "f52d1e54-2df4-4cce-995c-2c089281bc79",
        "type": "message",
        "text": "I've uploaded it onto the JOGL project page :slightly_smiling_face:",
        "user": "UV20M5HGQ",
        "ts": "1586471282.043700",
        "team": "TUU48M0T1",
        "user_team": "TUU48M0T1",
        "source_team": "TUU48M0T1",
        "user_profile": {
            "avatar_hash": "de7ea7b7e14e",
            "image_72": "https:\/\/avatars.slack-edge.com\/2020-03-11\/981865374050_de7ea7b7e14e7b4316b9_72.jpg",
            "first_name": "",
            "real_name": "Vesta Korniakova",
            "display_name": "Vesta Korniakova",
            "team": "TUU48M0T1",
            "name": "riboswitchvesta",
            "is_restricted": false,
            "is_ultra_restricted": false
        },
        "blocks": [
            {
                "type": "rich_text",
                "block_id": "+PLhq",
                "elements": [
                    {
                        "type": "rich_text_section",
                        "elements": [
                            {
                                "type": "text",
                                "text": "I've uploaded it onto the JOGL project page "
                            },
                            {
                                "type": "emoji",
                                "name": "slightly_smiling_face"
                            }
                        ]
                    }
                ]
            }
        ],
        "thread_ts": "1586371166.025100",
        "parent_user_id": "UV3746ST1",
        "reactions": [
            {
                "name": "heart",
                "users": [
                    "UV5C2TFCH"
                ],
                "count": 1
            }
        ]
    }
]