[
    {
        "type": "message",
        "subtype": "channel_join",
        "ts": "1586080718.000200",
        "user": "UV1A22N3W",
        "text": "<@UV1A22N3W> has joined the channel"
    },
    {
        "client_msg_id": "90a7db60-4b9d-4a3b-a440-8c28a0d2b4a5",
        "type": "message",
        "text": "A Hackuarium member proposed something interesting, a sort of 'reverse Elisa' - based on RNA structures of the viral genome...",
        "user": "UV1A22N3W",
        "ts": "1586081022.001000",
        "team": "TUU48M0T1",
        "user_team": "TUU48M0T1",
        "source_team": "TUU48M0T1",
        "user_profile": {
            "avatar_hash": "71f827776ad6",
            "image_72": "https:\/\/avatars.slack-edge.com\/2020-03-09\/988125642964_71f827776ad610af05a2_72.jpg",
            "first_name": "",
            "real_name": "RachelA",
            "display_name": "RachelA",
            "team": "TUU48M0T1",
            "name": "raronoff",
            "is_restricted": false,
            "is_ultra_restricted": false
        },
        "blocks": [
            {
                "type": "rich_text",
                "block_id": "3Bb",
                "elements": [
                    {
                        "type": "rich_text_section",
                        "elements": [
                            {
                                "type": "text",
                                "text": "A Hackuarium member proposed something interesting, a sort of 'reverse Elisa' - based on RNA structures of the viral genome..."
                            }
                        ]
                    }
                ]
            }
        ]
    },
    {
        "type": "message",
        "subtype": "channel_join",
        "ts": "1586081128.001800",
        "user": "UV7N8HX28",
        "text": "<@UV7N8HX28> has joined the channel",
        "inviter": "UV1A22N3W"
    },
    {
        "client_msg_id": "ef81dd26-0506-4aae-a9a6-cdd55f6708dc",
        "type": "message",
        "text": "Here is what he wrote (a note in mid march, so he may have gotten further): have a fixed ssDNA probe to fish out and bind viral RNA\nthen top with a fluorescent chimera capsid protein, making a base-ssDNA-vRNA-protein* sandwich\nwashing removes unbound reporter protein et voila\n\nHowever, I'm absolutely uncertain whether this would work and is a good Idea..\njust started checking secondary structures of the viral RNA (will attach pictures) <https:\/\/www.sciencedirect.com\/science\/article\/pii\/S016817021500115X?via%3Dihub>",
        "user": "UV1A22N3W",
        "ts": "1586081178.002200",
        "team": "TUU48M0T1",
        "user_team": "TUU48M0T1",
        "source_team": "TUU48M0T1",
        "user_profile": {
            "avatar_hash": "71f827776ad6",
            "image_72": "https:\/\/avatars.slack-edge.com\/2020-03-09\/988125642964_71f827776ad610af05a2_72.jpg",
            "first_name": "",
            "real_name": "RachelA",
            "display_name": "RachelA",
            "team": "TUU48M0T1",
            "name": "raronoff",
            "is_restricted": false,
            "is_ultra_restricted": false
        },
        "attachments": [
            {
                "title": "The structure and functions of coronavirus genomic 3′ and 5′ ends",
                "title_link": "https:\/\/www.sciencedirect.com\/science\/article\/pii\/S016817021500115X?via%3Dihub",
                "text": "Coronaviruses (CoVs) are an important cause of illness in humans and animals. Most human coronaviruses commonly cause relatively mild respiratory illn…",
                "fallback": "The structure and functions of coronavirus genomic 3′ and 5′ ends",
                "from_url": "https:\/\/www.sciencedirect.com\/science\/article\/pii\/S016817021500115X?via%3Dihub",
                "thumb_url": "https:\/\/ars.els-cdn.com\/content\/image\/1-s2.0-S0168170215X00104-cov150h.gif",
                "thumb_width": 112,
                "thumb_height": 150,
                "service_icon": "https:\/\/www.sciencedirect.com\/favicon.ico",
                "service_name": "sciencedirect.com",
                "id": 1,
                "original_url": "https:\/\/www.sciencedirect.com\/science\/article\/pii\/S016817021500115X?via%3Dihub"
            }
        ],
        "blocks": [
            {
                "type": "rich_text",
                "block_id": "konag",
                "elements": [
                    {
                        "type": "rich_text_section",
                        "elements": [
                            {
                                "type": "text",
                                "text": "Here is what he wrote (a note in mid march, so he may have gotten further): have a fixed ssDNA probe to fish out and bind viral RNA\nthen top with a fluorescent chimera capsid protein, making a base-ssDNA-vRNA-protein* sandwich\nwashing removes unbound reporter protein et voila\n\nHowever, I'm absolutely uncertain whether this would work and is a good Idea..\njust started checking secondary structures of the viral RNA (will attach pictures) "
                            },
                            {
                                "type": "link",
                                "url": "https:\/\/www.sciencedirect.com\/science\/article\/pii\/S016817021500115X?via%3Dihub"
                            }
                        ]
                    }
                ]
            }
        ]
    },
    {
        "type": "message",
        "text": "one potential fold...",
        "files": [
            {
                "id": "F0115LP4TCK",
                "created": 1586081207,
                "timestamp": 1586081207,
                "name": "rna.png",
                "title": "rna.png",
                "mimetype": "image\/png",
                "filetype": "png",
                "pretty_type": "PNG",
                "user": "UV1A22N3W",
                "editable": false,
                "size": 1286977,
                "mode": "hosted",
                "is_external": false,
                "external_type": "",
                "is_public": true,
                "public_url_shared": false,
                "display_as_bot": false,
                "username": "",
                "url_private": "https:\/\/files.slack.com\/files-pri\/TUU48M0T1-F0115LP4TCK\/rna.png?t=xoxe-980144714919-1106606678066-1105227127893-6f722bb664235052954ad46852628b64",
                "url_private_download": "https:\/\/files.slack.com\/files-pri\/TUU48M0T1-F0115LP4TCK\/download\/rna.png?t=xoxe-980144714919-1106606678066-1105227127893-6f722bb664235052954ad46852628b64",
                "thumb_64": "https:\/\/files.slack.com\/files-tmb\/TUU48M0T1-F0115LP4TCK-5b8614cb57\/rna_64.png?t=xoxe-980144714919-1106606678066-1105227127893-6f722bb664235052954ad46852628b64",
                "thumb_80": "https:\/\/files.slack.com\/files-tmb\/TUU48M0T1-F0115LP4TCK-5b8614cb57\/rna_80.png?t=xoxe-980144714919-1106606678066-1105227127893-6f722bb664235052954ad46852628b64",
                "thumb_360": "https:\/\/files.slack.com\/files-tmb\/TUU48M0T1-F0115LP4TCK-5b8614cb57\/rna_360.png?t=xoxe-980144714919-1106606678066-1105227127893-6f722bb664235052954ad46852628b64",
                "thumb_360_w": 360,
                "thumb_360_h": 168,
                "thumb_480": "https:\/\/files.slack.com\/files-tmb\/TUU48M0T1-F0115LP4TCK-5b8614cb57\/rna_480.png?t=xoxe-980144714919-1106606678066-1105227127893-6f722bb664235052954ad46852628b64",
                "thumb_480_w": 480,
                "thumb_480_h": 225,
                "thumb_160": "https:\/\/files.slack.com\/files-tmb\/TUU48M0T1-F0115LP4TCK-5b8614cb57\/rna_160.png?t=xoxe-980144714919-1106606678066-1105227127893-6f722bb664235052954ad46852628b64",
                "thumb_720": "https:\/\/files.slack.com\/files-tmb\/TUU48M0T1-F0115LP4TCK-5b8614cb57\/rna_720.png?t=xoxe-980144714919-1106606678066-1105227127893-6f722bb664235052954ad46852628b64",
                "thumb_720_w": 720,
                "thumb_720_h": 337,
                "thumb_800": "https:\/\/files.slack.com\/files-tmb\/TUU48M0T1-F0115LP4TCK-5b8614cb57\/rna_800.png?t=xoxe-980144714919-1106606678066-1105227127893-6f722bb664235052954ad46852628b64",
                "thumb_800_w": 800,
                "thumb_800_h": 374,
                "thumb_960": "https:\/\/files.slack.com\/files-tmb\/TUU48M0T1-F0115LP4TCK-5b8614cb57\/rna_960.png?t=xoxe-980144714919-1106606678066-1105227127893-6f722bb664235052954ad46852628b64",
                "thumb_960_w": 960,
                "thumb_960_h": 449,
                "thumb_1024": "https:\/\/files.slack.com\/files-tmb\/TUU48M0T1-F0115LP4TCK-5b8614cb57\/rna_1024.png?t=xoxe-980144714919-1106606678066-1105227127893-6f722bb664235052954ad46852628b64",
                "thumb_1024_w": 1024,
                "thumb_1024_h": 479,
                "image_exif_rotation": 1,
                "original_w": 7436,
                "original_h": 3480,
                "thumb_tiny": "AwAWADDTooooAKTPNIeDTh0oAKKKKACiiigAxRRRQAUUUUAf\/9k=",
                "permalink": "https:\/\/open-covid19.slack.com\/files\/UV1A22N3W\/F0115LP4TCK\/rna.png",
                "permalink_public": "https:\/\/slack-files.com\/TUU48M0T1-F0115LP4TCK-e347f299ba",
                "is_starred": false,
                "has_rich_preview": false
            }
        ],
        "upload": true,
        "blocks": [
            {
                "type": "rich_text",
                "block_id": "K=zJz",
                "elements": [
                    {
                        "type": "rich_text_section",
                        "elements": [
                            {
                                "type": "text",
                                "text": "one potential fold..."
                            }
                        ]
                    }
                ]
            }
        ],
        "user": "UV1A22N3W",
        "display_as_bot": false,
        "ts": "1586081218.002400",
        "client_msg_id": "fe1b7fdd-5924-49c7-9335-53f0ae2dbce1"
    },
    {
        "client_msg_id": "c67ac47f-ab6b-46ae-a48f-a577958cbe36",
        "type": "message",
        "text": "Is anyone here ready to give some feedback on the above? (maybe after monday's deadline, I know!) I also hoped to see more of Moritz in the initiative (who has good ideas about aptamers with electro-chem sensing, but we haven't heard back from recently)...",
        "user": "UV1A22N3W",
        "ts": "1586081293.004100",
        "team": "TUU48M0T1",
        "user_team": "TUU48M0T1",
        "source_team": "TUU48M0T1",
        "user_profile": {
            "avatar_hash": "71f827776ad6",
            "image_72": "https:\/\/avatars.slack-edge.com\/2020-03-09\/988125642964_71f827776ad610af05a2_72.jpg",
            "first_name": "",
            "real_name": "RachelA",
            "display_name": "RachelA",
            "team": "TUU48M0T1",
            "name": "raronoff",
            "is_restricted": false,
            "is_ultra_restricted": false
        },
        "blocks": [
            {
                "type": "rich_text",
                "block_id": "\/Pb1G",
                "elements": [
                    {
                        "type": "rich_text_section",
                        "elements": [
                            {
                                "type": "text",
                                "text": "Is anyone here ready to give some feedback on the above? (maybe after monday's deadline, I know!) I also hoped to see more of Moritz in the initiative (who has good ideas about aptamers with electro-chem sensing, but we haven't heard back from recently)..."
                            }
                        ]
                    }
                ]
            }
        ]
    },
    {
        "client_msg_id": "e6d6d708-305c-401f-8d3b-2a499ab56b2b",
        "type": "message",
        "text": "Rachel, i just read the email. I'm going to answer tonight (I have a kind of busy day today)",
        "user": "UV3URUKK5",
        "ts": "1586090862.004800",
        "team": "TUU48M0T1",
        "user_team": "TUU48M0T1",
        "source_team": "TUU48M0T1",
        "user_profile": {
            "avatar_hash": "64c99c2ed974",
            "image_72": "https:\/\/avatars.slack-edge.com\/2020-03-15\/1000999702004_64c99c2ed97497e08ca9_72.jpg",
            "first_name": "",
            "real_name": "Francisco Javier Quero",
            "display_name": "Francisco Javier Quero",
            "team": "TUU48M0T1",
            "name": "franxi2953",
            "is_restricted": false,
            "is_ultra_restricted": false
        },
        "blocks": [
            {
                "type": "rich_text",
                "block_id": "RDIKC",
                "elements": [
                    {
                        "type": "rich_text_section",
                        "elements": [
                            {
                                "type": "text",
                                "text": "Rachel, i just read the email. I'm going to answer tonight (I have a kind of busy day today)"
                            }
                        ]
                    }
                ]
            }
        ]
    },
    {
        "client_msg_id": "daa3a966-b017-4b44-92e5-f922b5fb77bd",
        "type": "message",
        "text": "Do you guys have time for a call today ?  We still need to wrap up the last bits of the application. When is better for you ?",
        "user": "UV3746ST1",
        "ts": "1586098500.006800",
        "team": "TUU48M0T1",
        "user_team": "TUU48M0T1",
        "source_team": "TUU48M0T1",
        "user_profile": {
            "avatar_hash": "a83ec6cd1d1a",
            "image_72": "https:\/\/avatars.slack-edge.com\/2020-03-07\/987381527184_a83ec6cd1d1ab6a03a2c_72.jpg",
            "first_name": "Anibal",
            "real_name": "Anibal",
            "display_name": "Anibal",
            "team": "TUU48M0T1",
            "name": "elanibal",
            "is_restricted": false,
            "is_ultra_restricted": false
        },
        "blocks": [
            {
                "type": "rich_text",
                "block_id": "fSYM",
                "elements": [
                    {
                        "type": "rich_text_section",
                        "elements": [
                            {
                                "type": "text",
                                "text": "Do you guys have time for a call today ?  We still need to wrap up the last bits of the application. When is better for you ?"
                            }
                        ]
                    }
                ]
            }
        ],
        "thread_ts": "1586098500.006800",
        "reply_count": 3,
        "reply_users_count": 3,
        "latest_reply": "1586102169.007500",
        "reply_users": [
            "UV20M5HGQ",
            "U01099UVAUA",
            "UV3URUKK5"
        ],
        "replies": [
            {
                "user": "UV20M5HGQ",
                "ts": "1586100211.006900"
            },
            {
                "user": "U01099UVAUA",
                "ts": "1586101244.007200"
            },
            {
                "user": "UV3URUKK5",
                "ts": "1586102169.007500"
            }
        ],
        "subscribed": false
    },
    {
        "client_msg_id": "56b64e35-ab35-4039-9902-0eebc5cd970c",
        "type": "message",
        "text": "I'm free anytime",
        "user": "UV20M5HGQ",
        "ts": "1586100211.006900",
        "team": "TUU48M0T1",
        "user_team": "TUU48M0T1",
        "source_team": "TUU48M0T1",
        "user_profile": {
            "avatar_hash": "de7ea7b7e14e",
            "image_72": "https:\/\/avatars.slack-edge.com\/2020-03-11\/981865374050_de7ea7b7e14e7b4316b9_72.jpg",
            "first_name": "",
            "real_name": "Vesta Korniakova",
            "display_name": "Vesta Korniakova",
            "team": "TUU48M0T1",
            "name": "riboswitchvesta",
            "is_restricted": false,
            "is_ultra_restricted": false
        },
        "blocks": [
            {
                "type": "rich_text",
                "block_id": "3IxNm",
                "elements": [
                    {
                        "type": "rich_text_section",
                        "elements": [
                            {
                                "type": "text",
                                "text": "I'm free anytime"
                            }
                        ]
                    }
                ]
            }
        ],
        "thread_ts": "1586098500.006800",
        "parent_user_id": "UV3746ST1"
    },
    {
        "client_msg_id": "f40aef98-2595-497f-8fa3-b4f6beddb15f",
        "type": "message",
        "text": "me too",
        "user": "U01099UVAUA",
        "ts": "1586101244.007200",
        "team": "TUU48M0T1",
        "user_team": "TUU48M0T1",
        "source_team": "TUU48M0T1",
        "user_profile": {
            "avatar_hash": "ge3e198df6dc",
            "image_72": "https:\/\/secure.gravatar.com\/avatar\/e3e198df6dc45f8635520f971d0036b2.jpg?s=72&d=https%3A%2F%2Fa.slack-edge.com%2Fdf10d%2Fimg%2Favatars%2Fava_0014-72.png",
            "first_name": "",
            "real_name": "Fernan Federici",
            "display_name": "Fernan Federici",
            "team": "TUU48M0T1",
            "name": "ffederici",
            "is_restricted": false,
            "is_ultra_restricted": false
        },
        "blocks": [
            {
                "type": "rich_text",
                "block_id": "kXXG",
                "elements": [
                    {
                        "type": "rich_text_section",
                        "elements": [
                            {
                                "type": "text",
                                "text": "me too"
                            }
                        ]
                    }
                ]
            }
        ],
        "thread_ts": "1586098500.006800",
        "parent_user_id": "UV3746ST1"
    },
    {
        "client_msg_id": "9935c173-c345-41b5-b549-7549755f8606",
        "type": "message",
        "text": "me too",
        "user": "UV3URUKK5",
        "ts": "1586102169.007500",
        "team": "TUU48M0T1",
        "user_team": "TUU48M0T1",
        "source_team": "TUU48M0T1",
        "user_profile": {
            "avatar_hash": "64c99c2ed974",
            "image_72": "https:\/\/avatars.slack-edge.com\/2020-03-15\/1000999702004_64c99c2ed97497e08ca9_72.jpg",
            "first_name": "",
            "real_name": "Francisco Javier Quero",
            "display_name": "Francisco Javier Quero",
            "team": "TUU48M0T1",
            "name": "franxi2953",
            "is_restricted": false,
            "is_ultra_restricted": false
        },
        "blocks": [
            {
                "type": "rich_text",
                "block_id": "A7J",
                "elements": [
                    {
                        "type": "rich_text_section",
                        "elements": [
                            {
                                "type": "text",
                                "text": "me too"
                            }
                        ]
                    }
                ]
            }
        ],
        "thread_ts": "1586098500.006800",
        "parent_user_id": "UV3746ST1"
    },
    {
        "client_msg_id": "af185c19-3fda-4410-917c-7b5ca908b0bc",
        "type": "message",
        "text": "<https:\/\/meet.jit.si\/cell-free-JOGL>  Lets meet here then and delegate missions",
        "user": "UV3746ST1",
        "ts": "1586102639.008100",
        "team": "TUU48M0T1",
        "user_team": "TUU48M0T1",
        "source_team": "TUU48M0T1",
        "user_profile": {
            "avatar_hash": "a83ec6cd1d1a",
            "image_72": "https:\/\/avatars.slack-edge.com\/2020-03-07\/987381527184_a83ec6cd1d1ab6a03a2c_72.jpg",
            "first_name": "Anibal",
            "real_name": "Anibal",
            "display_name": "Anibal",
            "team": "TUU48M0T1",
            "name": "elanibal",
            "is_restricted": false,
            "is_ultra_restricted": false
        },
        "attachments": [
            {
                "title": "Jitsi Meet",
                "title_link": "https:\/\/meet.jit.si\/cell-free-JOGL",
                "text": "Join a WebRTC video conference powered by the Jitsi Videobridge",
                "fallback": "Jitsi Meet",
                "from_url": "https:\/\/meet.jit.si\/cell-free-JOGL",
                "service_icon": "https:\/\/meet.jit.si\/images\/apple-touch-icon.png",
                "service_name": "meet.jit.si",
                "id": 1,
                "original_url": "https:\/\/meet.jit.si\/cell-free-JOGL"
            }
        ],
        "blocks": [
            {
                "type": "rich_text",
                "block_id": "AF\/FL",
                "elements": [
                    {
                        "type": "rich_text_section",
                        "elements": [
                            {
                                "type": "link",
                                "url": "https:\/\/meet.jit.si\/cell-free-JOGL"
                            },
                            {
                                "type": "text",
                                "text": "  Lets meet here then and delegate missions"
                            }
                        ]
                    }
                ]
            }
        ]
    }
]