[
    {
        "client_msg_id": "df0658de-4005-4c00-90ed-c2c7cbe82533",
        "type": "message",
        "text": "hi cell free team - how are things going",
        "user": "UV78JAX0S",
        "ts": "1588178895.087100",
        "team": "TUU48M0T1",
        "user_team": "TUU48M0T1",
        "source_team": "TUU48M0T1",
        "user_profile": {
            "avatar_hash": "ab643489965e",
            "image_72": "https:\/\/avatars.slack-edge.com\/2020-03-17\/996174739571_ab643489965e0031c49d_72.png",
            "first_name": "Khalid",
            "real_name": "Khalid K. Alam",
            "display_name": "Khalid K. Alam",
            "team": "TUU48M0T1",
            "name": "khalid",
            "is_restricted": false,
            "is_ultra_restricted": false
        },
        "blocks": [
            {
                "type": "rich_text",
                "block_id": "kF7jA",
                "elements": [
                    {
                        "type": "rich_text_section",
                        "elements": [
                            {
                                "type": "text",
                                "text": "hi cell free team - how are things going"
                            }
                        ]
                    }
                ]
            }
        ]
    },
    {
        "client_msg_id": "90adedcc-0f2e-4095-818d-c2605809dd85",
        "type": "message",
        "text": "Ey Khalid! Do you want guys to do a videocall at the end of the week to update ourselves?",
        "user": "UV3URUKK5",
        "ts": "1588188379.087900",
        "team": "TUU48M0T1",
        "user_team": "TUU48M0T1",
        "source_team": "TUU48M0T1",
        "user_profile": {
            "avatar_hash": "64c99c2ed974",
            "image_72": "https:\/\/avatars.slack-edge.com\/2020-03-15\/1000999702004_64c99c2ed97497e08ca9_72.jpg",
            "first_name": "",
            "real_name": "Francisco Javier Quero",
            "display_name": "Francisco Javier Quero",
            "team": "TUU48M0T1",
            "name": "franxi2953",
            "is_restricted": false,
            "is_ultra_restricted": false
        },
        "blocks": [
            {
                "type": "rich_text",
                "block_id": "Pkzm",
                "elements": [
                    {
                        "type": "rich_text_section",
                        "elements": [
                            {
                                "type": "text",
                                "text": "Ey Khalid! Do you want guys to do a videocall at the end of the week to update ourselves?"
                            }
                        ]
                    }
                ]
            }
        ]
    },
    {
        "client_msg_id": "28EBC9A8-80B4-45C2-A1D9-F4CA7ADFC03B",
        "type": "message",
        "text": "Whenever you guys need to meet for updates I’d be happy to join - doesn’t have to be this week unless the team needs it!",
        "user": "UV78JAX0S",
        "ts": "1588198446.088700",
        "team": "TUU48M0T1",
        "user_team": "TUU48M0T1",
        "source_team": "TUU48M0T1",
        "user_profile": {
            "avatar_hash": "ab643489965e",
            "image_72": "https:\/\/avatars.slack-edge.com\/2020-03-17\/996174739571_ab643489965e0031c49d_72.png",
            "first_name": "Khalid",
            "real_name": "Khalid K. Alam",
            "display_name": "Khalid K. Alam",
            "team": "TUU48M0T1",
            "name": "khalid",
            "is_restricted": false,
            "is_ultra_restricted": false
        }
    }
]