[
    {
        "client_msg_id": "ec07beef-671b-4b7b-b510-58788e2734c9",
        "type": "message",
        "text": "Yes linearity, but also conservation across SARS-CoV-2 sequences. Francisco and Vesta are downloading the GisaID data base and making a mutation annalisisis. Pretty cool work, while I'm working with the NASBA constrains for Primers using Alexander Green guidelines.",
        "user": "UV3746ST1",
        "ts": "1588444443.091300",
        "team": "TUU48M0T1",
        "user_team": "TUU48M0T1",
        "source_team": "TUU48M0T1",
        "user_profile": {
            "avatar_hash": "a83ec6cd1d1a",
            "image_72": "https:\/\/avatars.slack-edge.com\/2020-03-07\/987381527184_a83ec6cd1d1ab6a03a2c_72.jpg",
            "first_name": "Anibal",
            "real_name": "Anibal",
            "display_name": "Anibal",
            "team": "TUU48M0T1",
            "name": "elanibal",
            "is_restricted": false,
            "is_ultra_restricted": false
        },
        "blocks": [
            {
                "type": "rich_text",
                "block_id": "iMza",
                "elements": [
                    {
                        "type": "rich_text_section",
                        "elements": [
                            {
                                "type": "text",
                                "text": "Yes linearity, but also conservation across SARS-CoV-2 sequences. Francisco and Vesta are downloading the GisaID data base and making a mutation annalisisis. Pretty cool work, while I'm working with the NASBA constrains for Primers using Alexander Green guidelines."
                            }
                        ]
                    }
                ]
            }
        ],
        "thread_ts": "1588388642.090900",
        "parent_user_id": "UV3746ST1"
    },
    {
        "client_msg_id": "8D9A57C8-CE5D-4723-BE60-AA2CEBD05C47",
        "type": "message",
        "text": "Curious what guidelines you’ve seen and how NASBA constraints are any different. Most folding algorithms assume 37°C, which is perfect for NASBA",
        "user": "UV78JAX0S",
        "ts": "1588462035.093500",
        "team": "TUU48M0T1",
        "user_team": "TUU48M0T1",
        "source_team": "TUU48M0T1",
        "user_profile": {
            "avatar_hash": "ab643489965e",
            "image_72": "https:\/\/avatars.slack-edge.com\/2020-03-17\/996174739571_ab643489965e0031c49d_72.png",
            "first_name": "Khalid",
            "real_name": "Khalid K. Alam",
            "display_name": "Khalid K. Alam",
            "team": "TUU48M0T1",
            "name": "khalid",
            "is_restricted": false,
            "is_ultra_restricted": false
        },
        "thread_ts": "1588388642.090900",
        "parent_user_id": "UV3746ST1"
    }
]