[
    {
        "client_msg_id": "143da806-e11f-441d-811f-2274a6a5c8fe",
        "type": "message",
        "text": "sorry I didn't save our chat from last night <@UV7LUJG1Y> but just made this spread sheet with their best primer sets.  <https:\/\/docs.google.com\/spreadsheets\/d\/1Dp0_LgHDNM6a2QW5RT3o58iuxLb3C5knTXzhTFye4as\/edit?usp=sharing>. and now I am wondering why we don't just forget about fluorescence and try the pink\/yellow. What does everyone think?  If you have the drying machine and could get the primers, it would be super for some first tests.  (I will ask the Hackuarium board about getting a microgrant for this too)",
        "user": "UV1A22N3W",
        "ts": "1584602512.206300",
        "team": "TUU48M0T1",
        "user_team": "TUU48M0T1",
        "source_team": "TUU48M0T1",
        "user_profile": {
            "avatar_hash": "71f827776ad6",
            "image_72": "https:\/\/avatars.slack-edge.com\/2020-03-09\/988125642964_71f827776ad610af05a2_72.jpg",
            "first_name": "",
            "real_name": "RachelA",
            "display_name": "RachelA",
            "team": "TUU48M0T1",
            "name": "raronoff",
            "is_restricted": false,
            "is_ultra_restricted": false
        },
        "blocks": [
            {
                "type": "rich_text",
                "block_id": "+ImG",
                "elements": [
                    {
                        "type": "rich_text_section",
                        "elements": [
                            {
                                "type": "text",
                                "text": "sorry I didn't save our chat from last night "
                            },
                            {
                                "type": "user",
                                "user_id": "UV7LUJG1Y"
                            },
                            {
                                "type": "text",
                                "text": " but just made this spread sheet with their best primer sets.  "
                            },
                            {
                                "type": "link",
                                "url": "https:\/\/docs.google.com\/spreadsheets\/d\/1Dp0_LgHDNM6a2QW5RT3o58iuxLb3C5knTXzhTFye4as\/edit?usp=sharing"
                            },
                            {
                                "type": "text",
                                "text": ". and now I am wondering why we don't just forget about fluorescence and try the pink\/yellow. What does everyone think?  If you have the drying machine and could get the primers, it would be super for some first tests.  (I will ask the Hackuarium board about getting a microgrant for this too)"
                            }
                        ]
                    }
                ]
            }
        ],
        "thread_ts": "1584379058.131400",
        "parent_user_id": "UV7AZH728",
        "reactions": [
            {
                "name": "heart_eyes",
                "users": [
                    "UV3URUKK5"
                ],
                "count": 1
            }
        ]
    },
    {
        "client_msg_id": "3301888d-c079-4d1e-badb-47e43e3743bc",
        "type": "message",
        "text": "the color is easy - and you never have to open the tubes!  :wink:  even though I like the idea of using the GMO Detective fluor detection rig...  wdyt?  One other worry is the extraction\/RT question.",
        "user": "UV1A22N3W",
        "ts": "1584602991.206600",
        "team": "TUU48M0T1",
        "user_team": "TUU48M0T1",
        "source_team": "TUU48M0T1",
        "user_profile": {
            "avatar_hash": "71f827776ad6",
            "image_72": "https:\/\/avatars.slack-edge.com\/2020-03-09\/988125642964_71f827776ad610af05a2_72.jpg",
            "first_name": "",
            "real_name": "RachelA",
            "display_name": "RachelA",
            "team": "TUU48M0T1",
            "name": "raronoff",
            "is_restricted": false,
            "is_ultra_restricted": false
        },
        "blocks": [
            {
                "type": "rich_text",
                "block_id": "+dmHl",
                "elements": [
                    {
                        "type": "rich_text_section",
                        "elements": [
                            {
                                "type": "text",
                                "text": "the color is easy - and you never have to open the tubes!  "
                            },
                            {
                                "type": "emoji",
                                "name": "wink"
                            },
                            {
                                "type": "text",
                                "text": "  even though I like the idea of using the GMO Detective fluor detection rig...  wdyt?  One other worry is the extraction\/RT question."
                            }
                        ]
                    }
                ]
            }
        ],
        "thread_ts": "1584379058.131400",
        "parent_user_id": "UV7AZH728"
    },
    {
        "client_msg_id": "22fcd14d-1f1b-4332-ad2c-5eb09b7f770b",
        "type": "message",
        "text": "but are you really keen to do the mammoth set, <@UV7LUJG1Y>?  Zhang et al's looks good too.",
        "user": "UV1A22N3W",
        "ts": "1584603181.206800",
        "team": "TUU48M0T1",
        "user_team": "TUU48M0T1",
        "source_team": "TUU48M0T1",
        "user_profile": {
            "avatar_hash": "71f827776ad6",
            "image_72": "https:\/\/avatars.slack-edge.com\/2020-03-09\/988125642964_71f827776ad610af05a2_72.jpg",
            "first_name": "",
            "real_name": "RachelA",
            "display_name": "RachelA",
            "team": "TUU48M0T1",
            "name": "raronoff",
            "is_restricted": false,
            "is_ultra_restricted": false
        },
        "blocks": [
            {
                "type": "rich_text",
                "block_id": "9jss",
                "elements": [
                    {
                        "type": "rich_text_section",
                        "elements": [
                            {
                                "type": "text",
                                "text": "but are you really keen to do the mammoth set, "
                            },
                            {
                                "type": "user",
                                "user_id": "UV7LUJG1Y"
                            },
                            {
                                "type": "text",
                                "text": "?  Zhang et al's looks good too."
                            }
                        ]
                    }
                ]
            }
        ],
        "thread_ts": "1584379058.131400",
        "parent_user_id": "UV7AZH728"
    },
    {
        "client_msg_id": "47ed45a4-888b-449c-9be3-d8559ad87244",
        "type": "message",
        "text": "at least with the NEB enz the RT is already there <https:\/\/international.neb.com\/products\/m1800-warmstart-colorimetric-lamp-2x-master-mix-dna-rna#Product%20Information>",
        "user": "UV1A22N3W",
        "ts": "1584603344.207000",
        "team": "TUU48M0T1",
        "user_team": "TUU48M0T1",
        "source_team": "TUU48M0T1",
        "user_profile": {
            "avatar_hash": "71f827776ad6",
            "image_72": "https:\/\/avatars.slack-edge.com\/2020-03-09\/988125642964_71f827776ad610af05a2_72.jpg",
            "first_name": "",
            "real_name": "RachelA",
            "display_name": "RachelA",
            "team": "TUU48M0T1",
            "name": "raronoff",
            "is_restricted": false,
            "is_ultra_restricted": false
        },
        "edited": {
            "user": "UV1A22N3W",
            "ts": "1584603797.000000"
        },
        "attachments": [
            {
                "title": "WarmStart Colorimetric LAMP 2X Master Mix (DNA &amp; RNA) | NEB",
                "title_link": "https:\/\/international.neb.com\/products\/m1800-warmstart-colorimetric-lamp-2x-master-mix-dna-rna#Product%20Information",
                "text": "WarmStart Colorimetric LAMP 2X Master Mix (DNA and RNA)",
                "fallback": "WarmStart Colorimetric LAMP 2X Master Mix (DNA &amp; RNA) | NEB",
                "from_url": "https:\/\/international.neb.com\/products\/m1800-warmstart-colorimetric-lamp-2x-master-mix-dna-rna#Product%20Information",
                "service_icon": "https:\/\/international.neb.com\/content\/img\/apple-touch-icon-114x114.png",
                "service_name": "international.neb.com",
                "id": 1,
                "original_url": "https:\/\/international.neb.com\/products\/m1800-warmstart-colorimetric-lamp-2x-master-mix-dna-rna#Product%20Information"
            }
        ],
        "blocks": [
            {
                "type": "rich_text",
                "block_id": "WWN6",
                "elements": [
                    {
                        "type": "rich_text_section",
                        "elements": [
                            {
                                "type": "text",
                                "text": "at least with the NEB enz the RT is already there "
                            },
                            {
                                "type": "link",
                                "url": "https:\/\/international.neb.com\/products\/m1800-warmstart-colorimetric-lamp-2x-master-mix-dna-rna#Product%20Information"
                            }
                        ]
                    }
                ]
            }
        ],
        "thread_ts": "1584379058.131400",
        "parent_user_id": "UV7AZH728"
    },
    {
        "client_msg_id": "6bd10803-b379-4034-b108-fc2837749d7e",
        "type": "message",
        "text": "so just worry about the viral RNA extraction remains - but the paper got pretty good sensitivity with crude lysates. (similar to that seen with the pure control RNA - detecting less than 500 copies readily)...",
        "user": "UV1A22N3W",
        "ts": "1584603861.207400",
        "team": "TUU48M0T1",
        "user_team": "TUU48M0T1",
        "source_team": "TUU48M0T1",
        "user_profile": {
            "avatar_hash": "71f827776ad6",
            "image_72": "https:\/\/avatars.slack-edge.com\/2020-03-09\/988125642964_71f827776ad610af05a2_72.jpg",
            "first_name": "",
            "real_name": "RachelA",
            "display_name": "RachelA",
            "team": "TUU48M0T1",
            "name": "raronoff",
            "is_restricted": false,
            "is_ultra_restricted": false
        },
        "blocks": [
            {
                "type": "rich_text",
                "block_id": "1KM",
                "elements": [
                    {
                        "type": "rich_text_section",
                        "elements": [
                            {
                                "type": "text",
                                "text": "so just worry about the viral RNA extraction remains - but the paper got pretty good sensitivity with crude lysates. (similar to that seen with the pure control RNA - detecting less than 500 copies readily)..."
                            }
                        ]
                    }
                ]
            }
        ],
        "thread_ts": "1584379058.131400",
        "parent_user_id": "UV7AZH728"
    },
    {
        "client_msg_id": "1d475654-0549-4074-91c6-d7ca06325a21",
        "type": "message",
        "text": "Hi people. For a while I've been wanting to try out this low tech DNA\/RNA purification method at London Biohackspace but haven't had the spare time to do so. I think there's a chance this could work really well for helping alleviate the RNA extraction kit shortage: <https:\/\/doi.org\/10.1371\/journal.pbio.2003916>\nSeems like they had good success using it to detect RNA virus in a plant using only lysis buffer + filter paper -&gt; RT-PCR or even LAMP",
        "user": "U010D9EGSTH",
        "ts": "1584617136.208400",
        "team": "TUU48M0T1",
        "user_team": "TUU48M0T1",
        "source_team": "TUU48M0T1",
        "user_profile": {
            "avatar_hash": "gc4df71cbae9",
            "image_72": "https:\/\/secure.gravatar.com\/avatar\/c4df71cbae90ff8819eff196c6ed3edf.jpg?s=72&d=https%3A%2F%2Fa.slack-edge.com%2Fdf10d%2Fimg%2Favatars%2Fava_0020-72.png",
            "first_name": "",
            "real_name": "Ilya Levantis",
            "display_name": "Ilya Levantis",
            "team": "TUU48M0T1",
            "name": "il79663",
            "is_restricted": false,
            "is_ultra_restricted": false
        },
        "edited": {
            "user": "U010D9EGSTH",
            "ts": "1584617158.000000"
        },
        "attachments": [
            {
                "title": "Nucleic acid purification from plants, animals and microbes in under 30 seconds",
                "title_link": "https:\/\/doi.org\/10.1371\/journal.pbio.2003916",
                "text": "Author summary Nucleic acid amplification has proven to be indispensable in laboratories around the world for a myriad of applications from diagnostics to genotyping. The first step in any application aiming to amplify DNA or RNA is the extraction of nucleic acids from a complex biological sample; a task traditionally requiring specialised equipment, trained technicians, and multiple liquid handling steps. It is this complexity of current nucleic acid isolation methods that limit the use of many DNA amplification technologies outside of the modern laboratory environment. Therefore, in this study, we investigated new materials and approaches to simplify nucleic acid extraction. We found that cellulose-based filter paper can be used to rapidly bind nucleic acids, retain them during a short washing step to remove contaminants, and then elute them directly into the amplification reaction. We then adapted the cellulose filter to create a dipstick that can be used to purify nucleic acids from a wide range of plant, animal, and microbe samples in less than 30 seconds without the need for any specialised equipment. The speed and simplicity of our method makes it ideally suited for nucleic acid amplification-based applications both within and outside the laboratory, including limited resource settings such as remote field sites, developing countries, and teaching institutions.",
                "fallback": "Nucleic acid purification from plants, animals and microbes in under 30 seconds",
                "thumb_url": "https:\/\/journals.plos.org\/plosbiology\/article\/figure\/image?id=10.1371\/journal.pbio.2003916.g007&size=inline",
                "from_url": "https:\/\/doi.org\/10.1371\/journal.pbio.2003916",
                "thumb_width": 320,
                "thumb_height": 406,
                "service_icon": "https:\/\/journals.plos.org\/plosbiology\/resource\/img\/favicon.ico",
                "service_name": "journals.plos.org",
                "id": 1,
                "original_url": "https:\/\/doi.org\/10.1371\/journal.pbio.2003916"
            }
        ],
        "blocks": [
            {
                "type": "rich_text",
                "block_id": "ppH",
                "elements": [
                    {
                        "type": "rich_text_section",
                        "elements": [
                            {
                                "type": "text",
                                "text": "Hi people. For a while I've been wanting to try out this low tech DNA\/RNA purification method at London Biohackspace but haven't had the spare time to do so. I think there's a chance this could work really well for helping alleviate the RNA extraction kit shortage: "
                            },
                            {
                                "type": "link",
                                "url": "https:\/\/doi.org\/10.1371\/journal.pbio.2003916"
                            },
                            {
                                "type": "text",
                                "text": "\nSeems like they had good success using it to detect RNA virus in a plant using only lysis buffer + filter paper -> RT-PCR or even LAMP"
                            }
                        ]
                    }
                ]
            }
        ],
        "thread_ts": "1584617136.208400",
        "reply_count": 10,
        "reply_users_count": 2,
        "latest_reply": "1584640057.221400",
        "reply_users": [
            "UVBQDE7R8",
            "U010D9EGSTH"
        ],
        "replies": [
            {
                "user": "UVBQDE7R8",
                "ts": "1584634645.213700"
            },
            {
                "user": "UVBQDE7R8",
                "ts": "1584634719.213900"
            },
            {
                "user": "UVBQDE7R8",
                "ts": "1584635585.216200"
            },
            {
                "user": "U010D9EGSTH",
                "ts": "1584638390.219800"
            },
            {
                "user": "UVBQDE7R8",
                "ts": "1584639021.220000"
            },
            {
                "user": "U010D9EGSTH",
                "ts": "1584639198.220200"
            },
            {
                "user": "U010D9EGSTH",
                "ts": "1584639225.220400"
            },
            {
                "user": "UVBQDE7R8",
                "ts": "1584639374.220800"
            },
            {
                "user": "U010D9EGSTH",
                "ts": "1584640021.221200"
            },
            {
                "user": "U010D9EGSTH",
                "ts": "1584640057.221400"
            }
        ],
        "subscribed": false,
        "reactions": [
            {
                "name": "+1",
                "users": [
                    "UV5CCJ9RC",
                    "UV13874FN"
                ],
                "count": 2
            }
        ]
    },
    {
        "client_msg_id": "11194590-6431-44c7-8388-f75a6019f4e2",
        "type": "message",
        "text": "<@UV7AZH728> might be worth a shot",
        "user": "U010D9EGSTH",
        "ts": "1584617257.208900",
        "team": "TUU48M0T1",
        "user_team": "TUU48M0T1",
        "source_team": "TUU48M0T1",
        "user_profile": {
            "avatar_hash": "gc4df71cbae9",
            "image_72": "https:\/\/secure.gravatar.com\/avatar\/c4df71cbae90ff8819eff196c6ed3edf.jpg?s=72&d=https%3A%2F%2Fa.slack-edge.com%2Fdf10d%2Fimg%2Favatars%2Fava_0020-72.png",
            "first_name": "",
            "real_name": "Ilya Levantis",
            "display_name": "Ilya Levantis",
            "team": "TUU48M0T1",
            "name": "il79663",
            "is_restricted": false,
            "is_ultra_restricted": false
        },
        "blocks": [
            {
                "type": "rich_text",
                "block_id": "OnQ",
                "elements": [
                    {
                        "type": "rich_text_section",
                        "elements": [
                            {
                                "type": "user",
                                "user_id": "UV7AZH728"
                            },
                            {
                                "type": "text",
                                "text": " might be worth a shot"
                            }
                        ]
                    }
                ]
            }
        ]
    },
    {
        "client_msg_id": "1afff995-dd67-4406-8394-e6a32e167d1b",
        "type": "message",
        "text": "I think someone was saying this method is not reliable, but this isothermal amp paper says they could even use crude lysates spiked with their control RNA seqs <https:\/\/www.medrxiv.org\/content\/10.1101\/2020.02.26.20028373v1.full.pdf>",
        "user": "UV1A22N3W",
        "ts": "1584618424.211600",
        "team": "TUU48M0T1",
        "user_team": "TUU48M0T1",
        "source_team": "TUU48M0T1",
        "user_profile": {
            "avatar_hash": "71f827776ad6",
            "image_72": "https:\/\/avatars.slack-edge.com\/2020-03-09\/988125642964_71f827776ad610af05a2_72.jpg",
            "first_name": "",
            "real_name": "RachelA",
            "display_name": "RachelA",
            "team": "TUU48M0T1",
            "name": "raronoff",
            "is_restricted": false,
            "is_ultra_restricted": false
        },
        "edited": {
            "user": "UV1A22N3W",
            "ts": "1584618617.000000"
        },
        "blocks": [
            {
                "type": "rich_text",
                "block_id": "1Yknh",
                "elements": [
                    {
                        "type": "rich_text_section",
                        "elements": [
                            {
                                "type": "text",
                                "text": "I think someone was saying this method is not reliable, but this isothermal amp paper says they could even use crude lysates spiked with their control RNA seqs "
                            },
                            {
                                "type": "link",
                                "url": "https:\/\/www.medrxiv.org\/content\/10.1101\/2020.02.26.20028373v1.full.pdf"
                            }
                        ]
                    }
                ]
            }
        ],
        "thread_ts": "1584618424.211600",
        "reply_count": 2,
        "reply_users_count": 2,
        "latest_reply": "1584749919.233900",
        "reply_users": [
            "UVBQDE7R8",
            "UV2BVBA4S"
        ],
        "replies": [
            {
                "user": "UVBQDE7R8",
                "ts": "1584636141.216400"
            },
            {
                "user": "UV2BVBA4S",
                "ts": "1584749919.233900"
            }
        ],
        "subscribed": false
    },
    {
        "client_msg_id": "30fd9645-698f-45da-9f5a-bad1f72f8dba",
        "type": "message",
        "text": "I asked around on this. Not really. Researchers who work in hospitals, but no one on the front line.",
        "user": "UVBDBRJ8Z",
        "ts": "1584629911.212100",
        "team": "TUU48M0T1",
        "user_team": "TUU48M0T1",
        "source_team": "TUU48M0T1",
        "user_profile": {
            "avatar_hash": "7e0cba1ff84e",
            "image_72": "https:\/\/avatars.slack-edge.com\/2020-03-17\/1007551076309_7e0cba1ff84e78f65fc3_72.jpg",
            "first_name": "",
            "real_name": "Andy Scarpelli (ChiTownBio)",
            "display_name": "Andy Scarpelli (ChiTownBio)",
            "team": "TUU48M0T1",
            "name": "ahscarpelli",
            "is_restricted": false,
            "is_ultra_restricted": false
        },
        "blocks": [
            {
                "type": "rich_text",
                "block_id": "Mac9N",
                "elements": [
                    {
                        "type": "rich_text_section",
                        "elements": [
                            {
                                "type": "text",
                                "text": "I asked around on this. Not really. Researchers who work in hospitals, but no one on the front line."
                            }
                        ]
                    }
                ]
            }
        ],
        "thread_ts": "1584466690.175300",
        "parent_user_id": "U01060RCXJ8"
    },
    {
        "client_msg_id": "8749c1eb-a56e-4b87-a002-0323f8e74a5c",
        "type": "message",
        "text": "Ok thanks for having asked around! Do you have people in Fab, 3D printing etc?",
        "user": "UV6870881",
        "ts": "1584629956.212300",
        "team": "TUU48M0T1",
        "user_team": "TUU48M0T1",
        "source_team": "TUU48M0T1",
        "user_profile": {
            "avatar_hash": "gbbbbcc3accd",
            "image_72": "https:\/\/secure.gravatar.com\/avatar\/bbbbcc3accdddb02dfb1c03a4a65b994.jpg?s=72&d=https%3A%2F%2Fa.slack-edge.com%2Fdf10d%2Fimg%2Favatars%2Fava_0011-72.png",
            "first_name": "Quant",
            "real_name": "Quant",
            "display_name": "",
            "team": "TUU48M0T1",
            "name": "admin",
            "is_restricted": false,
            "is_ultra_restricted": false
        },
        "blocks": [
            {
                "type": "rich_text",
                "block_id": "LK1\/",
                "elements": [
                    {
                        "type": "rich_text_section",
                        "elements": [
                            {
                                "type": "text",
                                "text": "Ok thanks for having asked around! Do you have people in Fab, 3D printing etc?"
                            }
                        ]
                    }
                ]
            }
        ],
        "thread_ts": "1584466690.175300",
        "parent_user_id": "U01060RCXJ8"
    },
    {
        "client_msg_id": "f2e5885a-8fb1-49a9-b12e-87107c50d9c2",
        "type": "message",
        "text": "We have a few people with access to 3D printers and some access. What were you looking for?",
        "user": "UVBDBRJ8Z",
        "ts": "1584630173.212500",
        "team": "TUU48M0T1",
        "user_team": "TUU48M0T1",
        "source_team": "TUU48M0T1",
        "user_profile": {
            "avatar_hash": "7e0cba1ff84e",
            "image_72": "https:\/\/avatars.slack-edge.com\/2020-03-17\/1007551076309_7e0cba1ff84e78f65fc3_72.jpg",
            "first_name": "",
            "real_name": "Andy Scarpelli (ChiTownBio)",
            "display_name": "Andy Scarpelli (ChiTownBio)",
            "team": "TUU48M0T1",
            "name": "ahscarpelli",
            "is_restricted": false,
            "is_ultra_restricted": false
        },
        "blocks": [
            {
                "type": "rich_text",
                "block_id": "flL",
                "elements": [
                    {
                        "type": "rich_text_section",
                        "elements": [
                            {
                                "type": "text",
                                "text": "We have a few people with access to 3D printers and some access. What were you looking for?"
                            }
                        ]
                    }
                ]
            }
        ],
        "thread_ts": "1584466690.175300",
        "parent_user_id": "U01060RCXJ8"
    },
    {
        "client_msg_id": "a9b02dca-88f3-423e-9334-1c12fc005f20",
        "type": "message",
        "text": "There is a challenge in Montreal to develop a ventilator design for $200,000 prize I am looking for people who would be interested to tackle it! here is the thread discussing it <https:\/\/open-covid19.slack.com\/archives\/C01037HNAK1\/p1584625635074600>",
        "user": "UV6870881",
        "ts": "1584630252.212700",
        "team": "TUU48M0T1",
        "user_team": "TUU48M0T1",
        "source_team": "TUU48M0T1",
        "user_profile": {
            "avatar_hash": "gbbbbcc3accd",
            "image_72": "https:\/\/secure.gravatar.com\/avatar\/bbbbcc3accdddb02dfb1c03a4a65b994.jpg?s=72&d=https%3A%2F%2Fa.slack-edge.com%2Fdf10d%2Fimg%2Favatars%2Fava_0011-72.png",
            "first_name": "Quant",
            "real_name": "Quant",
            "display_name": "",
            "team": "TUU48M0T1",
            "name": "admin",
            "is_restricted": false,
            "is_ultra_restricted": false
        },
        "attachments": [
            {
                "from_url": "https:\/\/open-covid19.slack.com\/archives\/C01037HNAK1\/p1584625635074600",
                "fallback": "[March 19th, 2020 6:47 AM] admin: 200,000$ to develop a new ventilator design in Montreal\/Canada",
                "ts": "1584625635.074600",
                "author_id": "UV6870881",
                "author_subname": "Quant",
                "channel_id": "C01037HNAK1",
                "channel_name": "prgm-hardware-team",
                "is_msg_unfurl": true,
                "is_thread_root_unfurl": true,
                "text": "200,000$ to develop a new ventilator design in Montreal\/Canada",
                "author_name": "Quant",
                "author_link": "https:\/\/open-covid19.slack.com\/team\/UV6870881",
                "author_icon": "https:\/\/secure.gravatar.com\/avatar\/bbbbcc3accdddb02dfb1c03a4a65b994.jpg?s=48&d=https%3A%2F%2Fa.slack-edge.com%2Fdf10d%2Fimg%2Favatars%2Fava_0011-48.png",
                "mrkdwn_in": [
                    "text"
                ],
                "files": [
                    {
                        "id": "F010E0X657Y",
                        "created": 1584625629,
                        "timestamp": 1584625629,
                        "name": "SmartSelect_20200319-093506_LinkedIn.jpg",
                        "title": "SmartSelect_20200319-093506_LinkedIn.jpg",
                        "mimetype": "image\/jpeg",
                        "filetype": "jpg",
                        "pretty_type": "JPEG",
                        "user": "UV6870881",
                        "editable": false,
                        "size": 162505,
                        "mode": "hosted",
                        "is_external": false,
                        "external_type": "",
                        "is_public": true,
                        "public_url_shared": false,
                        "display_as_bot": false,
                        "username": "",
                        "url_private": "https:\/\/files.slack.com\/files-pri\/TUU48M0T1-F010E0X657Y\/smartselect_20200319-093506_linkedin.jpg",
                        "url_private_download": "https:\/\/files.slack.com\/files-pri\/TUU48M0T1-F010E0X657Y\/download\/smartselect_20200319-093506_linkedin.jpg",
                        "thumb_64": "https:\/\/files.slack.com\/files-tmb\/TUU48M0T1-F010E0X657Y-de2db08262\/smartselect_20200319-093506_linkedin_64.jpg",
                        "thumb_80": "https:\/\/files.slack.com\/files-tmb\/TUU48M0T1-F010E0X657Y-de2db08262\/smartselect_20200319-093506_linkedin_80.jpg",
                        "thumb_360": "https:\/\/files.slack.com\/files-tmb\/TUU48M0T1-F010E0X657Y-de2db08262\/smartselect_20200319-093506_linkedin_360.jpg",
                        "thumb_360_w": 240,
                        "thumb_360_h": 360,
                        "thumb_480": "https:\/\/files.slack.com\/files-tmb\/TUU48M0T1-F010E0X657Y-de2db08262\/smartselect_20200319-093506_linkedin_480.jpg",
                        "thumb_480_w": 320,
                        "thumb_480_h": 480,
                        "thumb_160": "https:\/\/files.slack.com\/files-tmb\/TUU48M0T1-F010E0X657Y-de2db08262\/smartselect_20200319-093506_linkedin_160.jpg",
                        "thumb_720": "https:\/\/files.slack.com\/files-tmb\/TUU48M0T1-F010E0X657Y-de2db08262\/smartselect_20200319-093506_linkedin_720.jpg",
                        "thumb_720_w": 480,
                        "thumb_720_h": 720,
                        "thumb_800": "https:\/\/files.slack.com\/files-tmb\/TUU48M0T1-F010E0X657Y-de2db08262\/smartselect_20200319-093506_linkedin_800.jpg",
                        "thumb_800_w": 800,
                        "thumb_800_h": 1200,
                        "thumb_960": "https:\/\/files.slack.com\/files-tmb\/TUU48M0T1-F010E0X657Y-de2db08262\/smartselect_20200319-093506_linkedin_960.jpg",
                        "thumb_960_w": 640,
                        "thumb_960_h": 960,
                        "thumb_1024": "https:\/\/files.slack.com\/files-tmb\/TUU48M0T1-F010E0X657Y-de2db08262\/smartselect_20200319-093506_linkedin_1024.jpg",
                        "thumb_1024_w": 682,
                        "thumb_1024_h": 1024,
                        "image_exif_rotation": 1,
                        "original_w": 1071,
                        "original_h": 1607,
                        "thumb_tiny": "AwAwAB+\/\/E2W69vSlGB\/FSYyxwRml2H2oAXcPWlBB6UmweppQuOhNADCxyeaTcfWlI56N+VAXJx835UAJuPrT1bPWjZ7mgJg5yaAGE\/MeaM+9KRyev5UuzPf9KAG59\/1pyHt\/WjZ705VxQB\/\/9k=",
                        "permalink": "https:\/\/open-covid19.slack.com\/files\/UV6870881\/F010E0X657Y\/smartselect_20200319-093506_linkedin.jpg",
                        "permalink_public": "https:\/\/slack-files.com\/TUU48M0T1-F010E0X657Y-8c158293c4",
                        "has_rich_preview": false
                    }
                ],
                "id": 1,
                "original_url": "https:\/\/open-covid19.slack.com\/archives\/C01037HNAK1\/p1584625635074600",
                "footer": "Thread in #prgm-hardware-team"
            }
        ],
        "blocks": [
            {
                "type": "rich_text",
                "block_id": "L=kf",
                "elements": [
                    {
                        "type": "rich_text_section",
                        "elements": [
                            {
                                "type": "text",
                                "text": "There is a challenge in Montreal to develop a ventilator design for $200,000 prize I am looking for people who would be interested to tackle it! here is the thread discussing it "
                            },
                            {
                                "type": "link",
                                "url": "https:\/\/open-covid19.slack.com\/archives\/C01037HNAK1\/p1584625635074600"
                            }
                        ]
                    }
                ]
            }
        ],
        "thread_ts": "1584466690.175300",
        "parent_user_id": "U01060RCXJ8"
    },
    {
        "client_msg_id": "55efb9c3-9f9d-48dd-b966-1615edfd9a45",
        "type": "message",
        "text": "I'll share this around and see  if anyone is interested.",
        "user": "UVBDBRJ8Z",
        "ts": "1584631333.213000",
        "team": "TUU48M0T1",
        "user_team": "TUU48M0T1",
        "source_team": "TUU48M0T1",
        "user_profile": {
            "avatar_hash": "7e0cba1ff84e",
            "image_72": "https:\/\/avatars.slack-edge.com\/2020-03-17\/1007551076309_7e0cba1ff84e78f65fc3_72.jpg",
            "first_name": "",
            "real_name": "Andy Scarpelli (ChiTownBio)",
            "display_name": "Andy Scarpelli (ChiTownBio)",
            "team": "TUU48M0T1",
            "name": "ahscarpelli",
            "is_restricted": false,
            "is_ultra_restricted": false
        },
        "blocks": [
            {
                "type": "rich_text",
                "block_id": "7zEa",
                "elements": [
                    {
                        "type": "rich_text_section",
                        "elements": [
                            {
                                "type": "text",
                                "text": "I'll share this around and see  if anyone is interested."
                            }
                        ]
                    }
                ]
            }
        ],
        "thread_ts": "1584466690.175300",
        "parent_user_id": "U01060RCXJ8",
        "reactions": [
            {
                "name": "+1",
                "users": [
                    "UV6870881"
                ],
                "count": 1
            }
        ]
    },
    {
        "client_msg_id": "af72cffd-3cf2-4826-80eb-22c313f2952b",
        "type": "message",
        "text": "Cool, very similar to method in a paper posted in the thread above, so good to see it done multiple ways.",
        "user": "UVBQDE7R8",
        "ts": "1584634645.213700",
        "team": "TUU48M0T1",
        "user_team": "TUU48M0T1",
        "source_team": "TUU48M0T1",
        "user_profile": {
            "avatar_hash": "gb77d2e5c821",
            "image_72": "https:\/\/secure.gravatar.com\/avatar\/b77d2e5c8214c9643410000e998ef9f4.jpg?s=72&d=https%3A%2F%2Fa.slack-edge.com%2Fdf10d%2Fimg%2Favatars%2Fava_0018-72.png",
            "first_name": "",
            "real_name": "Darach",
            "display_name": "Darach",
            "team": "TUU48M0T1",
            "name": "dchmiller",
            "is_restricted": false,
            "is_ultra_restricted": false
        },
        "blocks": [
            {
                "type": "rich_text",
                "block_id": "uaI",
                "elements": [
                    {
                        "type": "rich_text_section",
                        "elements": [
                            {
                                "type": "text",
                                "text": "Cool, very similar to method in a paper posted in the thread above, so good to see it done multiple ways."
                            }
                        ]
                    }
                ]
            }
        ],
        "thread_ts": "1584617136.208400",
        "parent_user_id": "U010D9EGSTH"
    },
    {
        "client_msg_id": "d86f0b63-cccb-4697-a328-79e8494fd78a",
        "type": "message",
        "text": "Does it work for automation, so for equipment-rich testing pipelines? If not, could still be useful in equipment-limited testing pipelines.",
        "user": "UVBQDE7R8",
        "ts": "1584634719.213900",
        "team": "TUU48M0T1",
        "user_team": "TUU48M0T1",
        "source_team": "TUU48M0T1",
        "user_profile": {
            "avatar_hash": "gb77d2e5c821",
            "image_72": "https:\/\/secure.gravatar.com\/avatar\/b77d2e5c8214c9643410000e998ef9f4.jpg?s=72&d=https%3A%2F%2Fa.slack-edge.com%2Fdf10d%2Fimg%2Favatars%2Fava_0018-72.png",
            "first_name": "",
            "real_name": "Darach",
            "display_name": "Darach",
            "team": "TUU48M0T1",
            "name": "dchmiller",
            "is_restricted": false,
            "is_ultra_restricted": false
        },
        "blocks": [
            {
                "type": "rich_text",
                "block_id": "PS3",
                "elements": [
                    {
                        "type": "rich_text_section",
                        "elements": [
                            {
                                "type": "text",
                                "text": "Does it work for automation, so for equipment-rich testing pipelines? If not, could still be useful in equipment-limited testing pipelines."
                            }
                        ]
                    }
                ]
            }
        ],
        "thread_ts": "1584617136.208400",
        "parent_user_id": "U010D9EGSTH"
    },
    {
        "client_msg_id": "1184295e-fe99-4a94-aaa0-96e0eee41d40",
        "type": "message",
        "text": "I got a bite. You have contact information I can share with them?",
        "user": "UVBDBRJ8Z",
        "ts": "1584635259.215600",
        "team": "TUU48M0T1",
        "user_team": "TUU48M0T1",
        "source_team": "TUU48M0T1",
        "user_profile": {
            "avatar_hash": "7e0cba1ff84e",
            "image_72": "https:\/\/avatars.slack-edge.com\/2020-03-17\/1007551076309_7e0cba1ff84e78f65fc3_72.jpg",
            "first_name": "",
            "real_name": "Andy Scarpelli (ChiTownBio)",
            "display_name": "Andy Scarpelli (ChiTownBio)",
            "team": "TUU48M0T1",
            "name": "ahscarpelli",
            "is_restricted": false,
            "is_ultra_restricted": false
        },
        "blocks": [
            {
                "type": "rich_text",
                "block_id": "M\/9yZ",
                "elements": [
                    {
                        "type": "rich_text_section",
                        "elements": [
                            {
                                "type": "text",
                                "text": "I got a bite. You have contact information I can share with them?"
                            }
                        ]
                    }
                ]
            }
        ],
        "thread_ts": "1584466690.175300",
        "parent_user_id": "U01060RCXJ8"
    },
    {
        "client_msg_id": "833e36b2-356e-421e-be47-ede11ceb8891",
        "type": "message",
        "text": "Sure will send u my contact by email",
        "user": "UV6870881",
        "ts": "1584635277.215800",
        "team": "TUU48M0T1",
        "user_team": "TUU48M0T1",
        "source_team": "TUU48M0T1",
        "user_profile": {
            "avatar_hash": "gbbbbcc3accd",
            "image_72": "https:\/\/secure.gravatar.com\/avatar\/bbbbcc3accdddb02dfb1c03a4a65b994.jpg?s=72&d=https%3A%2F%2Fa.slack-edge.com%2Fdf10d%2Fimg%2Favatars%2Fava_0011-72.png",
            "first_name": "Quant",
            "real_name": "Quant",
            "display_name": "",
            "team": "TUU48M0T1",
            "name": "admin",
            "is_restricted": false,
            "is_ultra_restricted": false
        },
        "blocks": [
            {
                "type": "rich_text",
                "block_id": "ledVu",
                "elements": [
                    {
                        "type": "rich_text_section",
                        "elements": [
                            {
                                "type": "text",
                                "text": "Sure will send u my contact by email"
                            }
                        ]
                    }
                ]
            }
        ],
        "thread_ts": "1584466690.175300",
        "parent_user_id": "U01060RCXJ8"
    },
    {
        "client_msg_id": "0bc4dd25-d43e-49a2-b273-60465b42a8e6",
        "type": "message",
        "text": "Cool. I'll pass that along.",
        "user": "UVBDBRJ8Z",
        "ts": "1584635436.216000",
        "team": "TUU48M0T1",
        "user_team": "TUU48M0T1",
        "source_team": "TUU48M0T1",
        "user_profile": {
            "avatar_hash": "7e0cba1ff84e",
            "image_72": "https:\/\/avatars.slack-edge.com\/2020-03-17\/1007551076309_7e0cba1ff84e78f65fc3_72.jpg",
            "first_name": "",
            "real_name": "Andy Scarpelli (ChiTownBio)",
            "display_name": "Andy Scarpelli (ChiTownBio)",
            "team": "TUU48M0T1",
            "name": "ahscarpelli",
            "is_restricted": false,
            "is_ultra_restricted": false
        },
        "blocks": [
            {
                "type": "rich_text",
                "block_id": "zTkC",
                "elements": [
                    {
                        "type": "rich_text_section",
                        "elements": [
                            {
                                "type": "text",
                                "text": "Cool. I'll pass that along."
                            }
                        ]
                    }
                ]
            }
        ],
        "thread_ts": "1584466690.175300",
        "parent_user_id": "U01060RCXJ8"
    },
    {
        "client_msg_id": "e8e4ad11-4db9-44d9-b358-8f1fbc5b298b",
        "type": "message",
        "text": "For automation, is it possible to just put ~1mm wads of cellulose in the bottom of 96-well plates?",
        "user": "UVBQDE7R8",
        "ts": "1584635585.216200",
        "team": "TUU48M0T1",
        "user_team": "TUU48M0T1",
        "source_team": "TUU48M0T1",
        "user_profile": {
            "avatar_hash": "gb77d2e5c821",
            "image_72": "https:\/\/secure.gravatar.com\/avatar\/b77d2e5c8214c9643410000e998ef9f4.jpg?s=72&d=https%3A%2F%2Fa.slack-edge.com%2Fdf10d%2Fimg%2Favatars%2Fava_0018-72.png",
            "first_name": "",
            "real_name": "Darach",
            "display_name": "Darach",
            "team": "TUU48M0T1",
            "name": "dchmiller",
            "is_restricted": false,
            "is_ultra_restricted": false
        },
        "blocks": [
            {
                "type": "rich_text",
                "block_id": "O2bA",
                "elements": [
                    {
                        "type": "rich_text_section",
                        "elements": [
                            {
                                "type": "text",
                                "text": "For automation, is it possible to just put ~1mm wads of cellulose in the bottom of 96-well plates?"
                            }
                        ]
                    }
                ]
            }
        ],
        "thread_ts": "1584617136.208400",
        "parent_user_id": "U010D9EGSTH"
    },
    {
        "client_msg_id": "a9711e34-47fd-47dd-bb82-9f4e2e1276e9",
        "type": "message",
        "text": "Maybe the filter paper trick would be enough to clean it up?",
        "user": "UVBQDE7R8",
        "ts": "1584636141.216400",
        "team": "TUU48M0T1",
        "user_team": "TUU48M0T1",
        "source_team": "TUU48M0T1",
        "user_profile": {
            "avatar_hash": "gb77d2e5c821",
            "image_72": "https:\/\/secure.gravatar.com\/avatar\/b77d2e5c8214c9643410000e998ef9f4.jpg?s=72&d=https%3A%2F%2Fa.slack-edge.com%2Fdf10d%2Fimg%2Favatars%2Fava_0018-72.png",
            "first_name": "",
            "real_name": "Darach",
            "display_name": "Darach",
            "team": "TUU48M0T1",
            "name": "dchmiller",
            "is_restricted": false,
            "is_ultra_restricted": false
        },
        "blocks": [
            {
                "type": "rich_text",
                "block_id": "YoR7",
                "elements": [
                    {
                        "type": "rich_text_section",
                        "elements": [
                            {
                                "type": "text",
                                "text": "Maybe the filter paper trick would be enough to clean it up?"
                            }
                        ]
                    }
                ]
            }
        ],
        "thread_ts": "1584618424.211600",
        "parent_user_id": "UV1A22N3W"
    },
    {
        "client_msg_id": "1e29afd7-a3df-4d07-bb1c-3ab12f32328e",
        "type": "message",
        "text": "could use hypodermic needles on the end of the pipetting head to stab the discs and hold them in the tube then transfer to wash and then to PCR mix",
        "user": "U010D9EGSTH",
        "ts": "1584638390.219800",
        "team": "TUU48M0T1",
        "user_team": "TUU48M0T1",
        "source_team": "TUU48M0T1",
        "user_profile": {
            "avatar_hash": "gc4df71cbae9",
            "image_72": "https:\/\/secure.gravatar.com\/avatar\/c4df71cbae90ff8819eff196c6ed3edf.jpg?s=72&d=https%3A%2F%2Fa.slack-edge.com%2Fdf10d%2Fimg%2Favatars%2Fava_0020-72.png",
            "first_name": "",
            "real_name": "Ilya Levantis",
            "display_name": "Ilya Levantis",
            "team": "TUU48M0T1",
            "name": "il79663",
            "is_restricted": false,
            "is_ultra_restricted": false
        },
        "blocks": [
            {
                "type": "rich_text",
                "block_id": "Od3by",
                "elements": [
                    {
                        "type": "rich_text_section",
                        "elements": [
                            {
                                "type": "text",
                                "text": "could use hypodermic needles on the end of the pipetting head to stab the discs and hold them in the tube then transfer to wash and then to PCR mix"
                            }
                        ]
                    }
                ]
            }
        ],
        "thread_ts": "1584617136.208400",
        "parent_user_id": "U010D9EGSTH"
    },
    {
        "client_msg_id": "75b37bc0-d2cb-4e3a-9d6f-2ce253072aa1",
        "type": "message",
        "text": "I wouldn't trust an automated pipette to pick up the disc well, what about just washing by changing the buffer? What about a disc with a hole in the middle?",
        "user": "UVBQDE7R8",
        "ts": "1584639021.220000",
        "team": "TUU48M0T1",
        "user_team": "TUU48M0T1",
        "source_team": "TUU48M0T1",
        "user_profile": {
            "avatar_hash": "gb77d2e5c821",
            "image_72": "https:\/\/secure.gravatar.com\/avatar\/b77d2e5c8214c9643410000e998ef9f4.jpg?s=72&d=https%3A%2F%2Fa.slack-edge.com%2Fdf10d%2Fimg%2Favatars%2Fava_0018-72.png",
            "first_name": "",
            "real_name": "Darach",
            "display_name": "Darach",
            "team": "TUU48M0T1",
            "name": "dchmiller",
            "is_restricted": false,
            "is_ultra_restricted": false
        },
        "blocks": [
            {
                "type": "rich_text",
                "block_id": "imdF",
                "elements": [
                    {
                        "type": "rich_text_section",
                        "elements": [
                            {
                                "type": "text",
                                "text": "I wouldn't trust an automated pipette to pick up the disc well, what about just washing by changing the buffer? What about a disc with a hole in the middle?"
                            }
                        ]
                    }
                ]
            }
        ],
        "thread_ts": "1584617136.208400",
        "parent_user_id": "U010D9EGSTH"
    },
    {
        "client_msg_id": "ce5f0ee2-66e1-41e3-8655-4e0c61a9265e",
        "type": "message",
        "text": "i think probably best to jsut stick the disc to a pipette tip with super glue",
        "user": "U010D9EGSTH",
        "ts": "1584639198.220200",
        "team": "TUU48M0T1",
        "user_team": "TUU48M0T1",
        "source_team": "TUU48M0T1",
        "user_profile": {
            "avatar_hash": "gc4df71cbae9",
            "image_72": "https:\/\/secure.gravatar.com\/avatar\/c4df71cbae90ff8819eff196c6ed3edf.jpg?s=72&d=https%3A%2F%2Fa.slack-edge.com%2Fdf10d%2Fimg%2Favatars%2Fava_0020-72.png",
            "first_name": "",
            "real_name": "Ilya Levantis",
            "display_name": "Ilya Levantis",
            "team": "TUU48M0T1",
            "name": "il79663",
            "is_restricted": false,
            "is_ultra_restricted": false
        },
        "blocks": [
            {
                "type": "rich_text",
                "block_id": "PQq",
                "elements": [
                    {
                        "type": "rich_text_section",
                        "elements": [
                            {
                                "type": "text",
                                "text": "i think probably best to jsut stick the disc to a pipette tip with super glue"
                            }
                        ]
                    }
                ]
            }
        ],
        "thread_ts": "1584617136.208400",
        "parent_user_id": "U010D9EGSTH"
    },
    {
        "client_msg_id": "808d9d34-1b18-480d-9cfa-ae1d2b9acae7",
        "type": "message",
        "text": "obviously is a manual job but could be done in advance by multiple people at once",
        "user": "U010D9EGSTH",
        "ts": "1584639225.220400",
        "team": "TUU48M0T1",
        "user_team": "TUU48M0T1",
        "source_team": "TUU48M0T1",
        "user_profile": {
            "avatar_hash": "gc4df71cbae9",
            "image_72": "https:\/\/secure.gravatar.com\/avatar\/c4df71cbae90ff8819eff196c6ed3edf.jpg?s=72&d=https%3A%2F%2Fa.slack-edge.com%2Fdf10d%2Fimg%2Favatars%2Fava_0020-72.png",
            "first_name": "",
            "real_name": "Ilya Levantis",
            "display_name": "Ilya Levantis",
            "team": "TUU48M0T1",
            "name": "il79663",
            "is_restricted": false,
            "is_ultra_restricted": false
        },
        "blocks": [
            {
                "type": "rich_text",
                "block_id": "eLz2",
                "elements": [
                    {
                        "type": "rich_text_section",
                        "elements": [
                            {
                                "type": "text",
                                "text": "obviously is a manual job but could be done in advance by multiple people at once"
                            }
                        ]
                    }
                ]
            }
        ],
        "thread_ts": "1584617136.208400",
        "parent_user_id": "U010D9EGSTH"
    },
    {
        "client_msg_id": "57a9b315-8389-4203-affc-88a4e33f211e",
        "type": "message",
        "text": "Oh yeah, I guess that'd work. You'd basically be making a automated swab pad.",
        "user": "UVBQDE7R8",
        "ts": "1584639374.220800",
        "team": "TUU48M0T1",
        "user_team": "TUU48M0T1",
        "source_team": "TUU48M0T1",
        "user_profile": {
            "avatar_hash": "gb77d2e5c821",
            "image_72": "https:\/\/secure.gravatar.com\/avatar\/b77d2e5c8214c9643410000e998ef9f4.jpg?s=72&d=https%3A%2F%2Fa.slack-edge.com%2Fdf10d%2Fimg%2Favatars%2Fava_0018-72.png",
            "first_name": "",
            "real_name": "Darach",
            "display_name": "Darach",
            "team": "TUU48M0T1",
            "name": "dchmiller",
            "is_restricted": false,
            "is_ultra_restricted": false
        },
        "blocks": [
            {
                "type": "rich_text",
                "block_id": "FFNm9",
                "elements": [
                    {
                        "type": "rich_text_section",
                        "elements": [
                            {
                                "type": "text",
                                "text": "Oh yeah, I guess that'd work. You'd basically be making a automated swab pad."
                            }
                        ]
                    }
                ]
            }
        ],
        "thread_ts": "1584617136.208400",
        "parent_user_id": "U010D9EGSTH"
    },
    {
        "client_msg_id": "7dfec264-c9e6-4b1c-9a20-a373fd9e8ee8",
        "type": "message",
        "text": "regarding changing the buffer i think you want to avoid bringing as much of the liquid as possible when you move from sample to wash step. The idea being nucleic acid has bound to the cellulose but all the PCR inhibitors haven't. So the less solution brought over the better is my guess.",
        "user": "U010D9EGSTH",
        "ts": "1584640021.221200",
        "team": "TUU48M0T1",
        "user_team": "TUU48M0T1",
        "source_team": "TUU48M0T1",
        "user_profile": {
            "avatar_hash": "gc4df71cbae9",
            "image_72": "https:\/\/secure.gravatar.com\/avatar\/c4df71cbae90ff8819eff196c6ed3edf.jpg?s=72&d=https%3A%2F%2Fa.slack-edge.com%2Fdf10d%2Fimg%2Favatars%2Fava_0020-72.png",
            "first_name": "",
            "real_name": "Ilya Levantis",
            "display_name": "Ilya Levantis",
            "team": "TUU48M0T1",
            "name": "il79663",
            "is_restricted": false,
            "is_ultra_restricted": false
        },
        "blocks": [
            {
                "type": "rich_text",
                "block_id": "1Dee",
                "elements": [
                    {
                        "type": "rich_text_section",
                        "elements": [
                            {
                                "type": "text",
                                "text": "regarding changing the buffer i think you want to avoid bringing as much of the liquid as possible when you move from sample to wash step. The idea being nucleic acid has bound to the cellulose but all the PCR inhibitors haven't. So the less solution brought over the better is my guess."
                            }
                        ]
                    }
                ]
            }
        ],
        "thread_ts": "1584617136.208400",
        "parent_user_id": "U010D9EGSTH"
    },
    {
        "client_msg_id": "6dfb5f31-451f-415a-b227-eebae580c5b0",
        "type": "message",
        "text": "and physically lifting the paper out of the sample tube is probably the best way to do that",
        "user": "U010D9EGSTH",
        "ts": "1584640057.221400",
        "team": "TUU48M0T1",
        "user_team": "TUU48M0T1",
        "source_team": "TUU48M0T1",
        "user_profile": {
            "avatar_hash": "gc4df71cbae9",
            "image_72": "https:\/\/secure.gravatar.com\/avatar\/c4df71cbae90ff8819eff196c6ed3edf.jpg?s=72&d=https%3A%2F%2Fa.slack-edge.com%2Fdf10d%2Fimg%2Favatars%2Fava_0020-72.png",
            "first_name": "",
            "real_name": "Ilya Levantis",
            "display_name": "Ilya Levantis",
            "team": "TUU48M0T1",
            "name": "il79663",
            "is_restricted": false,
            "is_ultra_restricted": false
        },
        "blocks": [
            {
                "type": "rich_text",
                "block_id": "tHaiM",
                "elements": [
                    {
                        "type": "rich_text_section",
                        "elements": [
                            {
                                "type": "text",
                                "text": "and physically lifting the paper out of the sample tube is probably the best way to do that"
                            }
                        ]
                    }
                ]
            }
        ],
        "thread_ts": "1584617136.208400",
        "parent_user_id": "U010D9EGSTH"
    },
    {
        "client_msg_id": "231b2a90-8521-401d-9dae-b8bdd78247f5",
        "type": "message",
        "text": "What is the status of biomarkers for SARS-cov-2? I heard about ACE2 and I believe a metalloprotein, anything about sequestering proteins and if they interact with the virus?",
        "user": "U0101DKUALV",
        "ts": "1584659759.223500",
        "team": "TUU48M0T1",
        "user_team": "TUU48M0T1",
        "source_team": "TUU48M0T1",
        "user_profile": {
            "avatar_hash": "b0aee06ed3e5",
            "image_72": "https:\/\/avatars.slack-edge.com\/2020-04-22\/1072886325190_b0aee06ed3e501ebdf56_72.png",
            "first_name": "",
            "real_name": "Pauline Chane",
            "display_name": "Pauline Chane",
            "team": "TUU48M0T1",
            "name": "pauline.chane",
            "is_restricted": false,
            "is_ultra_restricted": false
        },
        "edited": {
            "user": "U0101DKUALV",
            "ts": "1584659836.000000"
        },
        "blocks": [
            {
                "type": "rich_text",
                "block_id": "X2BF",
                "elements": [
                    {
                        "type": "rich_text_section",
                        "elements": [
                            {
                                "type": "text",
                                "text": "What is the status of biomarkers for SARS-cov-2? I heard about ACE2 and I believe a metalloprotein, anything about sequestering proteins and if they interact with the virus?"
                            }
                        ]
                    }
                ]
            }
        ]
    }
]