[
    {
        "client_msg_id": "7caa69f8-3e96-47c4-a79c-0bf2addcc2f2",
        "type": "message",
        "text": "<https:\/\/open-covid19.slack.com\/archives\/C0103J8NF46\/p1586615574307800>",
        "user": "UV20M5HGQ",
        "ts": "1586615652.040400",
        "team": "TUU48M0T1",
        "user_team": "TUU48M0T1",
        "source_team": "TUU48M0T1",
        "user_profile": {
            "avatar_hash": "de7ea7b7e14e",
            "image_72": "https:\/\/avatars.slack-edge.com\/2020-03-11\/981865374050_de7ea7b7e14e7b4316b9_72.jpg",
            "first_name": "",
            "real_name": "Vesta Korniakova",
            "display_name": "Vesta Korniakova",
            "team": "TUU48M0T1",
            "name": "riboswitchvesta",
            "is_restricted": false,
            "is_ultra_restricted": false
        },
        "attachments": [
            {
                "from_url": "https:\/\/open-covid19.slack.com\/archives\/C0103J8NF46\/p1586615574307800",
                "fallback": "[April 11th, 2020 7:32 AM] riboswitchvesta: Hey everyone, has anyone attempted to extract <https:\/\/nextstrain.org\/ncov\/global> data in table format-- i.e. mutation positions and frequencies? I know they have a tutorial on how to build your own alignment but am wondering if anyone has already played around with it and has a simple way to do this directly from the build represented on the website?",
                "ts": "1586615574.307800",
                "author_id": "UV20M5HGQ",
                "author_subname": "Vesta Korniakova",
                "channel_id": "C0103J8NF46",
                "channel_name": "chlg-detection-diagnostic",
                "is_msg_unfurl": true,
                "text": "Hey everyone, has anyone attempted to extract <https:\/\/nextstrain.org\/ncov\/global> data in table format-- i.e. mutation positions and frequencies? I know they have a tutorial on how to build your own alignment but am wondering if anyone has already played around with it and has a simple way to do this directly from the build represented on the website?",
                "author_name": "Vesta Korniakova",
                "author_link": "https:\/\/open-covid19.slack.com\/team\/UV20M5HGQ",
                "author_icon": "https:\/\/avatars.slack-edge.com\/2020-03-11\/981865374050_de7ea7b7e14e7b4316b9_48.jpg",
                "mrkdwn_in": [
                    "text"
                ],
                "id": 1,
                "original_url": "https:\/\/open-covid19.slack.com\/archives\/C0103J8NF46\/p1586615574307800",
                "footer": "Posted in #chlg-detection-diagnostic"
            }
        ],
        "blocks": [
            {
                "type": "rich_text",
                "block_id": "lRBU",
                "elements": [
                    {
                        "type": "rich_text_section",
                        "elements": [
                            {
                                "type": "link",
                                "url": "https:\/\/open-covid19.slack.com\/archives\/C0103J8NF46\/p1586615574307800"
                            }
                        ]
                    }
                ]
            }
        ],
        "thread_ts": "1586615652.040400",
        "reply_count": 9,
        "reply_users_count": 4,
        "latest_reply": "1587056621.049100",
        "reply_users": [
            "UV8T52QJ3",
            "UV20M5HGQ",
            "UV7LUJG1Y",
            "UV3URUKK5"
        ],
        "replies": [
            {
                "user": "UV8T52QJ3",
                "ts": "1586961087.042000"
            },
            {
                "user": "UV20M5HGQ",
                "ts": "1586961739.042200"
            },
            {
                "user": "UV8T52QJ3",
                "ts": "1586993481.045800"
            },
            {
                "user": "UV7LUJG1Y",
                "ts": "1587028984.046200"
            },
            {
                "user": "UV3URUKK5",
                "ts": "1587029372.046400"
            },
            {
                "user": "UV3URUKK5",
                "ts": "1587030487.047700"
            },
            {
                "user": "UV8T52QJ3",
                "ts": "1587035297.048300"
            },
            {
                "user": "UV8T52QJ3",
                "ts": "1587035936.048700"
            },
            {
                "user": "UV3URUKK5",
                "ts": "1587056621.049100"
            }
        ],
        "subscribed": false
    }
]