[
    {
        "type": "message",
        "subtype": "channel_join",
        "ts": "1586450649.013900",
        "user": "UV1G2M821",
        "text": "<@UV1G2M821> has joined the channel"
    },
    {
        "type": "message",
        "subtype": "channel_join",
        "ts": "1586466659.014100",
        "user": "U01063V3M6U",
        "text": "<@U01063V3M6U> has joined the channel"
    },
    {
        "type": "message",
        "subtype": "channel_join",
        "ts": "1586471253.014300",
        "user": "U0103128G4D",
        "text": "<@U0103128G4D> has joined the channel"
    }
]