[
    {
        "type": "message",
        "subtype": "channel_join",
        "ts": "1586993881.017300",
        "user": "U0115G1A03D",
        "text": "<@U0115G1A03D> has joined the channel"
    },
    {
        "type": "message",
        "text": "Hello, greetings from Peru, I am a last year student of mechatronic engineering and in our country we form a small group in which we have an epidemiologist, mathematicians, data analysts, among other profiles. The project that we are about to finish is that of an epidemiological calculator, we were inspired by this website <http:\/\/gabgoh.github.io\/COVID\/index.html> and we will try to improve it so that it can be used by any epidemiologist (we only have 38 in the country). I write in this channel because it can be part of the kit they mention. I pass some screenshots of UX research. Tell me what you think.",
        "files": [
            {
                "id": "F011W4YJKFX",
                "created": 1586994518,
                "timestamp": 1586994518,
                "name": "image.png",
                "title": "image.png",
                "mimetype": "image\/png",
                "filetype": "png",
                "pretty_type": "PNG",
                "user": "U0115G1A03D",
                "editable": false,
                "size": 156312,
                "mode": "hosted",
                "is_external": false,
                "external_type": "",
                "is_public": true,
                "public_url_shared": false,
                "display_as_bot": false,
                "username": "",
                "url_private": "https:\/\/files.slack.com\/files-pri\/TUU48M0T1-F011W4YJKFX\/image.png?t=xoxe-980144714919-1133254701825-1120841107731-daf595b5a7d6c9028b0b02a925032e36",
                "url_private_download": "https:\/\/files.slack.com\/files-pri\/TUU48M0T1-F011W4YJKFX\/download\/image.png?t=xoxe-980144714919-1133254701825-1120841107731-daf595b5a7d6c9028b0b02a925032e36",
                "thumb_64": "https:\/\/files.slack.com\/files-tmb\/TUU48M0T1-F011W4YJKFX-0e3a997010\/image_64.png?t=xoxe-980144714919-1133254701825-1120841107731-daf595b5a7d6c9028b0b02a925032e36",
                "thumb_80": "https:\/\/files.slack.com\/files-tmb\/TUU48M0T1-F011W4YJKFX-0e3a997010\/image_80.png?t=xoxe-980144714919-1133254701825-1120841107731-daf595b5a7d6c9028b0b02a925032e36",
                "thumb_360": "https:\/\/files.slack.com\/files-tmb\/TUU48M0T1-F011W4YJKFX-0e3a997010\/image_360.png?t=xoxe-980144714919-1133254701825-1120841107731-daf595b5a7d6c9028b0b02a925032e36",
                "thumb_360_w": 360,
                "thumb_360_h": 225,
                "thumb_480": "https:\/\/files.slack.com\/files-tmb\/TUU48M0T1-F011W4YJKFX-0e3a997010\/image_480.png?t=xoxe-980144714919-1133254701825-1120841107731-daf595b5a7d6c9028b0b02a925032e36",
                "thumb_480_w": 480,
                "thumb_480_h": 301,
                "thumb_160": "https:\/\/files.slack.com\/files-tmb\/TUU48M0T1-F011W4YJKFX-0e3a997010\/image_160.png?t=xoxe-980144714919-1133254701825-1120841107731-daf595b5a7d6c9028b0b02a925032e36",
                "thumb_720": "https:\/\/files.slack.com\/files-tmb\/TUU48M0T1-F011W4YJKFX-0e3a997010\/image_720.png?t=xoxe-980144714919-1133254701825-1120841107731-daf595b5a7d6c9028b0b02a925032e36",
                "thumb_720_w": 720,
                "thumb_720_h": 451,
                "thumb_800": "https:\/\/files.slack.com\/files-tmb\/TUU48M0T1-F011W4YJKFX-0e3a997010\/image_800.png?t=xoxe-980144714919-1133254701825-1120841107731-daf595b5a7d6c9028b0b02a925032e36",
                "thumb_800_w": 800,
                "thumb_800_h": 501,
                "thumb_960": "https:\/\/files.slack.com\/files-tmb\/TUU48M0T1-F011W4YJKFX-0e3a997010\/image_960.png?t=xoxe-980144714919-1133254701825-1120841107731-daf595b5a7d6c9028b0b02a925032e36",
                "thumb_960_w": 960,
                "thumb_960_h": 601,
                "thumb_1024": "https:\/\/files.slack.com\/files-tmb\/TUU48M0T1-F011W4YJKFX-0e3a997010\/image_1024.png?t=xoxe-980144714919-1133254701825-1120841107731-daf595b5a7d6c9028b0b02a925032e36",
                "thumb_1024_w": 1024,
                "thumb_1024_h": 641,
                "original_w": 1281,
                "original_h": 802,
                "thumb_tiny": "AwAeADC007ZI2jj3o+0MP4R+dRN94\/Wkz7Vdjm533JhcMT90U\/fL\/wA86rr99frV6k9C4Ny6kPmSZxsH50ea4YBlxmpcDOcCoZv9alC1HK8Ve5Cw+Y\/WkxSt94\/WirOVsE+8v1q6fbrVIHBB9Kl+0H+6PzqZK5tSmo3uTjPf+VQzf61KT7Qf7o\/Omly8inGKSTKnOLVkf\/\/Z",
                "permalink": "https:\/\/open-covid19.slack.com\/files\/U0115G1A03D\/F011W4YJKFX\/image.png",
                "permalink_public": "https:\/\/slack-files.com\/TUU48M0T1-F011W4YJKFX-2a70aa96b9",
                "is_starred": false,
                "has_rich_preview": false
            }
        ],
        "upload": true,
        "blocks": [
            {
                "type": "rich_text",
                "block_id": "3HX",
                "elements": [
                    {
                        "type": "rich_text_section",
                        "elements": [
                            {
                                "type": "text",
                                "text": "Hello, greetings from Peru, I am a last year student of mechatronic engineering and in our country we form a small group in which we have an epidemiologist, mathematicians, data analysts, among other profiles. The project that we are about to finish is that of an epidemiological calculator, we were inspired by this website "
                            },
                            {
                                "type": "link",
                                "url": "http:\/\/gabgoh.github.io\/COVID\/index.html"
                            },
                            {
                                "type": "text",
                                "text": " and we will try to improve it so that it can be used by any epidemiologist (we only have 38 in the country). I write in this channel because it can be part of the kit they mention. I pass some screenshots of UX research. Tell me what you think."
                            }
                        ]
                    }
                ]
            }
        ],
        "user": "U0115G1A03D",
        "display_as_bot": false,
        "ts": "1586994521.017600",
        "client_msg_id": "ac342536-4f29-4320-99ca-5e1a378ca822",
        "thread_ts": "1586994521.017600",
        "reply_count": 9,
        "reply_users_count": 3,
        "latest_reply": "1587655350.007900",
        "reply_users": [
            "U0115G1A03D",
            "UV85V64SD",
            "U0104M5CWV9"
        ],
        "replies": [
            {
                "user": "U0115G1A03D",
                "ts": "1586994530.017900"
            },
            {
                "user": "U0115G1A03D",
                "ts": "1586994553.018300"
            },
            {
                "user": "UV85V64SD",
                "ts": "1587026280.018500"
            },
            {
                "user": "U0115G1A03D",
                "ts": "1587081606.018700"
            },
            {
                "user": "U0115G1A03D",
                "ts": "1587612404.004700"
            },
            {
                "user": "UV85V64SD",
                "ts": "1587636051.007100"
            },
            {
                "user": "U0104M5CWV9",
                "ts": "1587654863.007400"
            },
            {
                "user": "U0104M5CWV9",
                "ts": "1587654928.007700"
            },
            {
                "user": "U0104M5CWV9",
                "ts": "1587655350.007900"
            }
        ],
        "subscribed": false
    },
    {
        "type": "message",
        "text": "",
        "files": [
            {
                "id": "F011W4YQKGV",
                "created": 1586994527,
                "timestamp": 1586994527,
                "name": "image.png",
                "title": "image.png",
                "mimetype": "image\/png",
                "filetype": "png",
                "pretty_type": "PNG",
                "user": "U0115G1A03D",
                "editable": false,
                "size": 138704,
                "mode": "hosted",
                "is_external": false,
                "external_type": "",
                "is_public": true,
                "public_url_shared": false,
                "display_as_bot": false,
                "username": "",
                "url_private": "https:\/\/files.slack.com\/files-pri\/TUU48M0T1-F011W4YQKGV\/image.png?t=xoxe-980144714919-1133254701825-1120841107731-daf595b5a7d6c9028b0b02a925032e36",
                "url_private_download": "https:\/\/files.slack.com\/files-pri\/TUU48M0T1-F011W4YQKGV\/download\/image.png?t=xoxe-980144714919-1133254701825-1120841107731-daf595b5a7d6c9028b0b02a925032e36",
                "thumb_64": "https:\/\/files.slack.com\/files-tmb\/TUU48M0T1-F011W4YQKGV-9039d94ee8\/image_64.png?t=xoxe-980144714919-1133254701825-1120841107731-daf595b5a7d6c9028b0b02a925032e36",
                "thumb_80": "https:\/\/files.slack.com\/files-tmb\/TUU48M0T1-F011W4YQKGV-9039d94ee8\/image_80.png?t=xoxe-980144714919-1133254701825-1120841107731-daf595b5a7d6c9028b0b02a925032e36",
                "thumb_360": "https:\/\/files.slack.com\/files-tmb\/TUU48M0T1-F011W4YQKGV-9039d94ee8\/image_360.png?t=xoxe-980144714919-1133254701825-1120841107731-daf595b5a7d6c9028b0b02a925032e36",
                "thumb_360_w": 360,
                "thumb_360_h": 226,
                "thumb_480": "https:\/\/files.slack.com\/files-tmb\/TUU48M0T1-F011W4YQKGV-9039d94ee8\/image_480.png?t=xoxe-980144714919-1133254701825-1120841107731-daf595b5a7d6c9028b0b02a925032e36",
                "thumb_480_w": 480,
                "thumb_480_h": 302,
                "thumb_160": "https:\/\/files.slack.com\/files-tmb\/TUU48M0T1-F011W4YQKGV-9039d94ee8\/image_160.png?t=xoxe-980144714919-1133254701825-1120841107731-daf595b5a7d6c9028b0b02a925032e36",
                "thumb_720": "https:\/\/files.slack.com\/files-tmb\/TUU48M0T1-F011W4YQKGV-9039d94ee8\/image_720.png?t=xoxe-980144714919-1133254701825-1120841107731-daf595b5a7d6c9028b0b02a925032e36",
                "thumb_720_w": 720,
                "thumb_720_h": 453,
                "thumb_800": "https:\/\/files.slack.com\/files-tmb\/TUU48M0T1-F011W4YQKGV-9039d94ee8\/image_800.png?t=xoxe-980144714919-1133254701825-1120841107731-daf595b5a7d6c9028b0b02a925032e36",
                "thumb_800_w": 800,
                "thumb_800_h": 503,
                "thumb_960": "https:\/\/files.slack.com\/files-tmb\/TUU48M0T1-F011W4YQKGV-9039d94ee8\/image_960.png?t=xoxe-980144714919-1133254701825-1120841107731-daf595b5a7d6c9028b0b02a925032e36",
                "thumb_960_w": 960,
                "thumb_960_h": 603,
                "thumb_1024": "https:\/\/files.slack.com\/files-tmb\/TUU48M0T1-F011W4YQKGV-9039d94ee8\/image_1024.png?t=xoxe-980144714919-1133254701825-1120841107731-daf595b5a7d6c9028b0b02a925032e36",
                "thumb_1024_w": 1024,
                "thumb_1024_h": 644,
                "original_w": 1284,
                "original_h": 807,
                "thumb_tiny": "AwAeADC205zjA\/Op+lUm+8frV0gE02Zwbd7i0Um0elIQMdKRoLjJHWlpuBnpSgYoAosfnP1q\/VBh85+tXqpmVPqLQTikowKk1FyPWikwKOlAH\/\/Z",
                "permalink": "https:\/\/open-covid19.slack.com\/files\/U0115G1A03D\/F011W4YQKGV\/image.png",
                "permalink_public": "https:\/\/slack-files.com\/TUU48M0T1-F011W4YQKGV-f5ae67f704",
                "is_starred": false,
                "has_rich_preview": false
            }
        ],
        "upload": true,
        "user": "U0115G1A03D",
        "display_as_bot": false,
        "ts": "1586994530.017900",
        "client_msg_id": "e874095a-47ea-4c64-a71a-e361bea8a212",
        "thread_ts": "1586994521.017600",
        "parent_user_id": "U0115G1A03D"
    },
    {
        "client_msg_id": "acdade9a-f6ad-4acc-9b1c-8792995b3e77",
        "type": "message",
        "text": "This is a project for SEIR models",
        "user": "U0115G1A03D",
        "ts": "1586994553.018300",
        "team": "TUU48M0T1",
        "user_team": "TUU48M0T1",
        "source_team": "TUU48M0T1",
        "user_profile": {
            "avatar_hash": "4daeacf08e50",
            "image_72": "https:\/\/avatars.slack-edge.com\/2020-04-04\/1038340161250_4daeacf08e50360875bc_72.png",
            "first_name": "",
            "real_name": "Pablo Díaz",
            "display_name": "Pablo Díaz",
            "team": "TUU48M0T1",
            "name": "pablo.diazv",
            "is_restricted": false,
            "is_ultra_restricted": false
        },
        "blocks": [
            {
                "type": "rich_text",
                "block_id": "1nDsT",
                "elements": [
                    {
                        "type": "rich_text_section",
                        "elements": [
                            {
                                "type": "text",
                                "text": "This is a project for SEIR models"
                            }
                        ]
                    }
                ]
            }
        ],
        "thread_ts": "1586994521.017600",
        "parent_user_id": "U0115G1A03D"
    }
]