[
    {
        "client_msg_id": "24bb0bec-7457-471c-b873-cafdeec83a76",
        "type": "message",
        "text": "hey <@U0104M5CWV9> i think this is a good place to begin: <http:\/\/networksciencebook.com\/chapter\/10> (sorry if it’s too simplistic!)",
        "user": "UV85V64SD",
        "ts": "1585648011.000500",
        "team": "TUU48M0T1",
        "user_team": "TUU48M0T1",
        "source_team": "TUU48M0T1",
        "user_profile": {
            "avatar_hash": "1e73a651bdfe",
            "image_72": "https:\/\/avatars.slack-edge.com\/2020-03-16\/1004297548853_1e73a651bdfef2c41501_72.jpg",
            "first_name": "Marc",
            "real_name": "Marc Santolini",
            "display_name": "Marc Santolini - JOGL CoFounder \/ CSO",
            "team": "TUU48M0T1",
            "name": "marc.santolini",
            "is_restricted": false,
            "is_ultra_restricted": false
        },
        "attachments": [
            {
                "service_name": "BarabásiLab",
                "title": "Network Science by Albert-László Barabási",
                "title_link": "http:\/\/networksciencebook.com\/chapter\/10",
                "text": "The power of network science, the beauty of network visualization.",
                "fallback": "BarabásiLab: Network Science by Albert-László Barabási",
                "image_url": "http:\/\/networksciencebook.com\/images\/networksciencebook.jpg",
                "from_url": "http:\/\/networksciencebook.com\/chapter\/10",
                "image_width": 477,
                "image_height": 250,
                "image_bytes": 93066,
                "id": 1,
                "original_url": "http:\/\/networksciencebook.com\/chapter\/10"
            }
        ],
        "blocks": [
            {
                "type": "rich_text",
                "block_id": "2AO",
                "elements": [
                    {
                        "type": "rich_text_section",
                        "elements": [
                            {
                                "type": "text",
                                "text": "hey "
                            },
                            {
                                "type": "user",
                                "user_id": "U0104M5CWV9"
                            },
                            {
                                "type": "text",
                                "text": " i think this is a good place to begin: "
                            },
                            {
                                "type": "link",
                                "url": "http:\/\/networksciencebook.com\/chapter\/10"
                            },
                            {
                                "type": "text",
                                "text": " (sorry if it’s too simplistic!)"
                            }
                        ]
                    }
                ]
            }
        ],
        "thread_ts": "1585648011.000500",
        "reply_count": 3,
        "reply_users_count": 1,
        "latest_reply": "1585658538.010800",
        "reply_users": [
            "U0104M5CWV9"
        ],
        "replies": [
            {
                "user": "U0104M5CWV9",
                "ts": "1585657789.004000"
            },
            {
                "user": "U0104M5CWV9",
                "ts": "1585658194.008300"
            },
            {
                "user": "U0104M5CWV9",
                "ts": "1585658538.010800"
            }
        ],
        "subscribed": false
    },
    {
        "type": "message",
        "subtype": "thread_broadcast",
        "text": "Hey, there is also good recent review from Bruno Gonzales on how Not to do:)\n<https:\/\/medium.com\/data-for-science\/epidemic-modeling-101-or-why-your-covid19-exponential-fits-are-wrong-97aa50c55f8|https:\/\/medium.com\/data-for-science\/epidemic-modeling-101-or-why-your-covid19-exponential-fits-are-wrong-97aa50c55f8> \nMaybe it is too critical but mentions important point.\n\nI have around 10 other papers. Can send you soon tonight ok?",
        "user": "U010B412MF1",
        "ts": "1585648343.000700",
        "thread_ts": "1585598735.007600",
        "root": {
            "client_msg_id": "198fd64c-febe-4c5a-9089-11b9255dc883",
            "type": "message",
            "text": "hey <@UV85V64SD> and <@U010B412MF1>, looks like you guys have much better understanding of graph \/ network theory than I do. In my initial prototype, I used a compound gamma-negative binomial distribution as a mean-field approximation of the degree distribution of real world networks. I know that a binomial\/poisson -&gt; erdos-renyi and that scale-free networks should be modeled by a power law distribution, but was wondering if you had any papers for me to read on the best potential choices for modeling real world networks. Not really clear to me how to model clustering well in the near field approach, unless some hierarchical graph-theoretic framework is used in conjunction with the stochastic sims (which is definitely something I'm interested in exploring).",
            "user": "U0104M5CWV9",
            "ts": "1585598735.007600",
            "team": "TUU48M0T1",
            "blocks": [
                {
                    "type": "rich_text",
                    "block_id": "xmzNT",
                    "elements": [
                        {
                            "type": "rich_text_section",
                            "elements": [
                                {
                                    "type": "text",
                                    "text": "hey "
                                },
                                {
                                    "type": "user",
                                    "user_id": "UV85V64SD"
                                },
                                {
                                    "type": "text",
                                    "text": " and "
                                },
                                {
                                    "type": "user",
                                    "user_id": "U010B412MF1"
                                },
                                {
                                    "type": "text",
                                    "text": ", looks like you guys have much better understanding of graph \/ network theory than I do. In my initial prototype, I used a compound gamma-negative binomial distribution as a mean-field approximation of the degree distribution of real world networks. I know that a binomial\/poisson -> erdos-renyi and that scale-free networks should be modeled by a power law distribution, but was wondering if you had any papers for me to read on the best potential choices for modeling real world networks. Not really clear to me how to model clustering well in the near field approach, unless some hierarchical graph-theoretic framework is used in conjunction with the stochastic sims (which is definitely something I'm interested in exploring)."
                                }
                            ]
                        }
                    ]
                }
            ],
            "thread_ts": "1585598735.007600",
            "reply_count": 3,
            "reply_users_count": 2,
            "latest_reply": "1585658826.014300",
            "reply_users": [
                "U010B412MF1",
                "U0104M5CWV9"
            ],
            "subscribed": false
        },
        "attachments": [
            {
                "service_name": "Medium",
                "title": "Epidemic Modeling 101: Or why your CoVID19 exponential fits are wrong",
                "title_link": "https:\/\/medium.com\/data-for-science\/epidemic-modeling-101-or-why-your-covid19-exponential-fits-are-wrong-97aa50c55f8",
                "text": "Over the past few weeks, a terrible affliction has been spreading across the world. Otherwise healthy and productive members of society…",
                "fallback": "Medium: Epidemic Modeling 101: Or why your CoVID19 exponential fits are wrong",
                "image_url": "https:\/\/miro.medium.com\/max\/1200\/1*3eBjSRZ1MjMpPCUUS2bgzA.png",
                "fields": [
                    {
                        "title": "Reading time",
                        "value": "13 min read",
                        "short": true
                    }
                ],
                "ts": 1585621901,
                "from_url": "https:\/\/medium.com\/data-for-science\/epidemic-modeling-101-or-why-your-covid19-exponential-fits-are-wrong-97aa50c55f8",
                "image_width": 380,
                "image_height": 250,
                "image_bytes": 118651,
                "service_icon": "https:\/\/cdn-images-1.medium.com\/fit\/c\/152\/152\/1*8I-HPL0bfoIzGied-dzOvA.png",
                "id": 1,
                "original_url": "https:\/\/medium.com\/data-for-science\/epidemic-modeling-101-or-why-your-covid19-exponential-fits-are-wrong-97aa50c55f8"
            }
        ],
        "blocks": [
            {
                "type": "rich_text",
                "block_id": "TVF",
                "elements": [
                    {
                        "type": "rich_text_section",
                        "elements": [
                            {
                                "type": "text",
                                "text": "Hey, there is also good recent review from Bruno Gonzales on how Not to do:)\n"
                            },
                            {
                                "type": "link",
                                "url": "https:\/\/medium.com\/data-for-science\/epidemic-modeling-101-or-why-your-covid19-exponential-fits-are-wrong-97aa50c55f8",
                                "text": "https:\/\/medium.com\/data-for-science\/epidemic-modeling-101-or-why-your-covid19-exponential-fits-are-wrong-97aa50c55f8"
                            },
                            {
                                "type": "text",
                                "text": " \nMaybe it is too critical but mentions important point.\n\nI have around 10 other papers. Can send you soon tonight ok?"
                            }
                        ]
                    }
                ]
            }
        ],
        "client_msg_id": "fcd40747-8219-4a0f-81f1-73c6dd73c6f3"
    },
    {
        "client_msg_id": "70EDC6E9-DEDE-47D9-9009-089A509BAF03",
        "type": "message",
        "text": "Thanks! Definitely some good insights in there, it’s always good to read a different way of presenting material even if it’s mostly stuff you already know. Using the degree block approximation directly seems like something potentially useful! ",
        "user": "U0104M5CWV9",
        "ts": "1585657789.004000",
        "team": "TUU48M0T1",
        "user_team": "TUU48M0T1",
        "source_team": "TUU48M0T1",
        "user_profile": {
            "avatar_hash": "g690df94d06f",
            "image_72": "https:\/\/secure.gravatar.com\/avatar\/690df94d06f11222b2bb4d765ee7ba52.jpg?s=72&d=https%3A%2F%2Fa.slack-edge.com%2Fdf10d%2Fimg%2Favatars%2Fava_0002-72.png",
            "first_name": "John",
            "real_name": "John Urbanik",
            "display_name": "John Urbanik",
            "team": "TUU48M0T1",
            "name": "johnurbanik",
            "is_restricted": false,
            "is_ultra_restricted": false
        },
        "blocks": [
            {
                "type": "rich_text",
                "block_id": "810",
                "elements": [
                    {
                        "type": "rich_text_section",
                        "elements": [
                            {
                                "type": "text",
                                "text": "Thanks! Definitely some good insights in there, it’s always good to read a different way of presenting material even if it’s mostly stuff you already know. Using the degree block approximation directly seems like something potentially useful! "
                            }
                        ]
                    }
                ]
            }
        ],
        "thread_ts": "1585648011.000500",
        "parent_user_id": "UV85V64SD"
    },
    {
        "client_msg_id": "48817EDD-6471-44FA-AEC6-4C245BD86F48",
        "type": "message",
        "text": "The chapter seems to suggest GLEAMviz is more sophisticated in terms of capturing intra-population network dynamics than I thought. From what I could tell it doesn’t capture the degree distribution within nodes, nor does it model how a pathogen interacts with different subpopulations (I.e. demographic breakdown)",
        "user": "U0104M5CWV9",
        "ts": "1585658194.008300",
        "team": "TUU48M0T1",
        "user_team": "TUU48M0T1",
        "source_team": "TUU48M0T1",
        "user_profile": {
            "avatar_hash": "g690df94d06f",
            "image_72": "https:\/\/secure.gravatar.com\/avatar\/690df94d06f11222b2bb4d765ee7ba52.jpg?s=72&d=https%3A%2F%2Fa.slack-edge.com%2Fdf10d%2Fimg%2Favatars%2Fava_0002-72.png",
            "first_name": "John",
            "real_name": "John Urbanik",
            "display_name": "John Urbanik",
            "team": "TUU48M0T1",
            "name": "johnurbanik",
            "is_restricted": false,
            "is_ultra_restricted": false
        },
        "blocks": [
            {
                "type": "rich_text",
                "block_id": "IXXQ",
                "elements": [
                    {
                        "type": "rich_text_section",
                        "elements": [
                            {
                                "type": "text",
                                "text": "The chapter seems to suggest GLEAMviz is more sophisticated in terms of capturing intra-population network dynamics than I thought. From what I could tell it doesn’t capture the degree distribution within nodes, nor does it model how a pathogen interacts with different subpopulations (I.e. demographic breakdown)"
                            }
                        ]
                    }
                ]
            }
        ],
        "thread_ts": "1585648011.000500",
        "parent_user_id": "UV85V64SD"
    },
    {
        "client_msg_id": "9241C2BF-CE7D-4EB4-BE26-E74F84E35777",
        "type": "message",
        "text": "Any material suggesting that my read on it is wrong? Hugely useful tool for knowing inter-population dynamics but it seems like much if the demand right now is extremely accurate intra-pop modeling ",
        "user": "U0104M5CWV9",
        "ts": "1585658538.010800",
        "team": "TUU48M0T1",
        "user_team": "TUU48M0T1",
        "source_team": "TUU48M0T1",
        "user_profile": {
            "avatar_hash": "g690df94d06f",
            "image_72": "https:\/\/secure.gravatar.com\/avatar\/690df94d06f11222b2bb4d765ee7ba52.jpg?s=72&d=https%3A%2F%2Fa.slack-edge.com%2Fdf10d%2Fimg%2Favatars%2Fava_0002-72.png",
            "first_name": "John",
            "real_name": "John Urbanik",
            "display_name": "John Urbanik",
            "team": "TUU48M0T1",
            "name": "johnurbanik",
            "is_restricted": false,
            "is_ultra_restricted": false
        },
        "blocks": [
            {
                "type": "rich_text",
                "block_id": "8lAdQ",
                "elements": [
                    {
                        "type": "rich_text_section",
                        "elements": [
                            {
                                "type": "text",
                                "text": "Any material suggesting that my read on it is wrong? Hugely useful tool for knowing inter-population dynamics but it seems like much if the demand right now is extremely accurate intra-pop modeling "
                            }
                        ]
                    }
                ]
            }
        ],
        "thread_ts": "1585648011.000500",
        "parent_user_id": "UV85V64SD"
    },
    {
        "client_msg_id": "4B903483-F573-479B-A081-7F31E2FA1F81",
        "type": "message",
        "text": "Thanks! It’s alarming how many models I’ve seen that are getting usage in the media that follow a lot of these ‘what not to do’-s, but I’m confident that I have avoided them all",
        "user": "U0104M5CWV9",
        "ts": "1585658691.012800",
        "team": "TUU48M0T1",
        "user_team": "TUU48M0T1",
        "source_team": "TUU48M0T1",
        "user_profile": {
            "avatar_hash": "g690df94d06f",
            "image_72": "https:\/\/secure.gravatar.com\/avatar\/690df94d06f11222b2bb4d765ee7ba52.jpg?s=72&d=https%3A%2F%2Fa.slack-edge.com%2Fdf10d%2Fimg%2Favatars%2Fava_0002-72.png",
            "first_name": "John",
            "real_name": "John Urbanik",
            "display_name": "John Urbanik",
            "team": "TUU48M0T1",
            "name": "johnurbanik",
            "is_restricted": false,
            "is_ultra_restricted": false
        },
        "blocks": [
            {
                "type": "rich_text",
                "block_id": "5aL",
                "elements": [
                    {
                        "type": "rich_text_section",
                        "elements": [
                            {
                                "type": "text",
                                "text": "Thanks! It’s alarming how many models I’ve seen that are getting usage in the media that follow a lot of these ‘what not to do’-s, but I’m confident that I have avoided them all"
                            }
                        ]
                    }
                ]
            }
        ],
        "thread_ts": "1585598735.007600",
        "parent_user_id": "U0104M5CWV9"
    },
    {
        "type": "message",
        "subtype": "thread_broadcast",
        "text": "Very curious to see your papers, and whether there is any overlap with <https:\/\/github.com\/understand-covid\/proposal\/blob\/master\/model\/Prior%20Art.md|https:\/\/github.com\/understand-covid\/proposal\/blob\/master\/model\/Prior%20Art.md>. The Marc Barthelemy paper had a lot of overlap with the chapter the other Marc posted! ",
        "user": "U0104M5CWV9",
        "ts": "1585658826.014300",
        "thread_ts": "1585598735.007600",
        "root": {
            "client_msg_id": "198fd64c-febe-4c5a-9089-11b9255dc883",
            "type": "message",
            "text": "hey <@UV85V64SD> and <@U010B412MF1>, looks like you guys have much better understanding of graph \/ network theory than I do. In my initial prototype, I used a compound gamma-negative binomial distribution as a mean-field approximation of the degree distribution of real world networks. I know that a binomial\/poisson -&gt; erdos-renyi and that scale-free networks should be modeled by a power law distribution, but was wondering if you had any papers for me to read on the best potential choices for modeling real world networks. Not really clear to me how to model clustering well in the near field approach, unless some hierarchical graph-theoretic framework is used in conjunction with the stochastic sims (which is definitely something I'm interested in exploring).",
            "user": "U0104M5CWV9",
            "ts": "1585598735.007600",
            "team": "TUU48M0T1",
            "blocks": [
                {
                    "type": "rich_text",
                    "block_id": "xmzNT",
                    "elements": [
                        {
                            "type": "rich_text_section",
                            "elements": [
                                {
                                    "type": "text",
                                    "text": "hey "
                                },
                                {
                                    "type": "user",
                                    "user_id": "UV85V64SD"
                                },
                                {
                                    "type": "text",
                                    "text": " and "
                                },
                                {
                                    "type": "user",
                                    "user_id": "U010B412MF1"
                                },
                                {
                                    "type": "text",
                                    "text": ", looks like you guys have much better understanding of graph \/ network theory than I do. In my initial prototype, I used a compound gamma-negative binomial distribution as a mean-field approximation of the degree distribution of real world networks. I know that a binomial\/poisson -> erdos-renyi and that scale-free networks should be modeled by a power law distribution, but was wondering if you had any papers for me to read on the best potential choices for modeling real world networks. Not really clear to me how to model clustering well in the near field approach, unless some hierarchical graph-theoretic framework is used in conjunction with the stochastic sims (which is definitely something I'm interested in exploring)."
                                }
                            ]
                        }
                    ]
                }
            ],
            "thread_ts": "1585598735.007600",
            "reply_count": 3,
            "reply_users_count": 2,
            "latest_reply": "1585658826.014300",
            "reply_users": [
                "U010B412MF1",
                "U0104M5CWV9"
            ],
            "subscribed": false
        },
        "attachments": [
            {
                "fallback": "[understand-covid\/proposal] model\/Prior Art.md",
                "text": "```\n# Prior art\n\nMany epidemiological models (and models in other fields, like atmospheric modeling) make a subset of the relaxations or assumptions that we make. This body of literature should be explored further, but a subset of relevan papers is listed below.\n\nJing Li, et. al. The Failure of R0. [Comput Math Methods Med.](<https:\/\/www.ncbi.nlm.nih.gov\/pmc\/articles\/PMC3157160\/>)\n  - Survey highlighting that R0 estimation is extremely fickle, showing how different methods of estimation can result in very different results. It shows that epidemic infection can still persist if R0 &lt; 1, and R0 is not a measure of the necessary control effort. It also cites research showing that empirical methods of collecting r0 through contact tracing prodcues misleading estimates. It suggests that policy decisions should not be based on r0, and suggests that the urgent need is a simple but accurate measure of disease spread that can be understood by nonmathemeticians.\n\n\nKatrin Haeussler, et. al. A dynamic Bayesian Markov model for health economic evaluations of interventions in infectious disease. [BMC Medical Research Methodology](<https:\/\/bmcmedresmethodol.biomedcentral.com\/articles\/10.1186\/s12874-018-0541-7>)\n  - Engages with the idea of relaxing assumptions used in ODEs due to the impact on probabistic sensitivity analysis. It suggests that these relaxations are necessary in order to do good risk assessment. It uses a Bayesian framework for parameter calibration.\n  \nLaurent Hébert-Dufresne, et. al. Spread of infectious disease and social awareness as parasitic contagions on clustered networks.[arXiv](<https:\/\/arxiv.org\/abs\/2003.10604>)\n  - Considers the impact of cliquish networks on contagion, and models social awareness (a type of mitigation) as a 'parasitic contagion.' The results show the 'counterintuitive' effect that networks with clustering can result in higher peak incidence than random networks. The paper highlights the need for improved data collection of awareness and methods for measuring how awareness connects to preventative behaviors.\n  \n Neil Ferguson, et. al. Impact of non-pharmaceutical interventions (NPIs) to reduce COVID19 mortality and healthcare demand. [Imperial College](<https:\/\/www.imperial.ac.uk\/media\/imperial-college\/medicine\/sph\/ide\/gida-fellowships\/Imperial-College-COVID19-NPI-modelling-16-03-2020.pdf>)\n  - Aims to quantify the impact of suppression and mitigation strategies. It utilizes an individual-based simulation model to build groups of 'workplaces,' 'schools,' and 'households,' as well as allowing random community contact. It uses survey data for calibrations of the effectiveness of mitigation policies as well as topology. It models infectiousness as a gamma distribution assigned to individuals, but assumes a fixed r0 (with a small amount of sensitivity analysis) and leaves many other variables as fixed as opposed to stochastic. Additionally, while not stated, it seems to assume that asymptomatic individuals are not infectious. It does not use uncertainty estimates, and assumes the policies are determinstic (i.e. isolation at a fixed time after symptoms), and does not model things like case imports, but claims that the policies are robust to r0 and severity and makes recommendations based on this large set of assumptions.\n  \nLingcai Kong, et. al.. Modeling Heterogeneity in Direct Infectious Disease Transmission in a Compartmental Model.[Int J. of Environ Research and Public Health](<https:\/\/pubmed.ncbi.nlm.nih.gov\/26927140\/>)\n  - Uses a common SEIR compartmental model to model SARS, but adds a transmission function based on the Negative Binomial Distribution. It shows that given a fixed mean contact rate and fixed infectiousness per contact, the heterogeneity of mixing (i.e. the variance\/tailedness of the distribution) is a major driver in changing disease propagation. This result still gives a fixed r0, but the peak size, transmission speed, and peak dynamics are all hugely dependent on this mixing parameter. It fits this model to historical SARS data, showing that modeling mitigation simply as a change in heterogeneity fits daily cases well. It makes the concession that migitation measures likely change the impact of contact (i.e. more hygiene means the effective transmission of a given contact is lower). It does not split the population into demographic subgroups, and does not use a WAIFW style (\"who acquires infection from whom\") isolation matrix. \n  \nMarc Barthélemy, et. al. Dynamical Patterns of Epidemic Outbreaks in Complex Heterogeneous Networks. [J. Theor Biol](<https:\/\/pubmed.ncbi.nlm.nih.gov\/15862595\/>)\n  - Builds 'complex heterogenous networks,' believing that dynamics are related to the second moment degree distribution. It postulates that R0 is actually &gt;1 in any heterogenous network, and every infection has some probability of generating a major outbreak. It finds that in both uncorrelated and correlated scale-free networks, epidemic incidence can rise virtually instantaneously. It then simulates a real world network with preferential attachment, and shows that heterogeneity makes it hard to determine the r0 and accelerate propagation. In these heterogenous networks, infection first takes control of large degree vertices and then cascades to lower degree vertices. It suggests that control strategies should focus on population hubs, and suggests that global surveillance of network structure is critical to epidemic control.\n\nT J Hagenaars, et. al. Spatial Heterogeneity and the Persistence of Infectious Diseases. [J. Theor Biol](<https:\/\/pubmed.ncbi.nlm.nih.gov\/15234202\/>)\n  - Simulates spatially heterogenous populations, and starts to explore the interplay of 'patch-level' dynamics as an alternative to a full model. This formulation is similar to finite element methods and finite difference methods in other fields. \n\nA finite-difference method for the variable coefficient Poisson equation on hierarchical Cartesian meshes, Alice Raeli, et. al. [J. Computational Physics](<https:\/\/www.sciencedirect.com\/science\/article\/pii\/S0021999117308343>)\n  - Shows that it is possible to use hierarchical meshes when geometry is changing to model complex dynamics with less computation in finite differences models. While not directly relevant to epidemiological modeling, it suggest that hierarchical compositions of compartmental models for different populations could be useful for simulation. \n```",
                "title": "model\/Prior Art.md",
                "footer": "<https:\/\/github.com\/understand-covid\/proposal|understand-covid\/proposal>",
                "id": 1,
                "title_link": "https:\/\/github.com\/understand-covid\/proposal\/blob\/master\/model\/Prior%20Art.md",
                "footer_icon": "https:\/\/github.githubassets.com\/favicon.ico",
                "color": "24292f",
                "mrkdwn_in": [
                    "text"
                ],
                "bot_id": "BUW789DM0",
                "app_unfurl_url": "https:\/\/github.com\/understand-covid\/proposal\/blob\/master\/model\/Prior%20Art.md",
                "is_app_unfurl": true
            }
        ],
        "blocks": [
            {
                "type": "rich_text",
                "block_id": "NVJJ",
                "elements": [
                    {
                        "type": "rich_text_section",
                        "elements": [
                            {
                                "type": "text",
                                "text": "Very curious to see your papers, and whether there is any overlap with "
                            },
                            {
                                "type": "link",
                                "url": "https:\/\/github.com\/understand-covid\/proposal\/blob\/master\/model\/Prior%20Art.md",
                                "text": "https:\/\/github.com\/understand-covid\/proposal\/blob\/master\/model\/Prior%20Art.md"
                            },
                            {
                                "type": "text",
                                "text": ". The Marc Barthelemy paper had a lot of overlap with the chapter the other Marc posted! "
                            }
                        ]
                    }
                ]
            }
        ],
        "client_msg_id": "81B4C27F-7AE9-4B56-9BF8-3412EFB27731"
    }
]