[
    {
        "client_msg_id": "775e4e7f-6c0d-4ba5-9c2a-eea0ed89a03f",
        "type": "message",
        "text": "Thanks! <@U0104M5CWV9> you can have a look :slightly_smiling_face:",
        "user": "UV85V64SD",
        "ts": "1587636051.007100",
        "team": "TUU48M0T1",
        "user_team": "TUU48M0T1",
        "source_team": "TUU48M0T1",
        "user_profile": {
            "avatar_hash": "1e73a651bdfe",
            "image_72": "https:\/\/avatars.slack-edge.com\/2020-03-16\/1004297548853_1e73a651bdfef2c41501_72.jpg",
            "first_name": "Marc",
            "real_name": "Marc Santolini",
            "display_name": "Marc Santolini - JOGL CoFounder \/ CSO",
            "team": "TUU48M0T1",
            "name": "marc.santolini",
            "is_restricted": false,
            "is_ultra_restricted": false
        },
        "blocks": [
            {
                "type": "rich_text",
                "block_id": "3BfX",
                "elements": [
                    {
                        "type": "rich_text_section",
                        "elements": [
                            {
                                "type": "text",
                                "text": "Thanks! "
                            },
                            {
                                "type": "user",
                                "user_id": "U0104M5CWV9"
                            },
                            {
                                "type": "text",
                                "text": " you can have a look "
                            },
                            {
                                "type": "emoji",
                                "name": "slightly_smiling_face"
                            }
                        ]
                    }
                ]
            }
        ],
        "thread_ts": "1586994521.017600",
        "parent_user_id": "U0115G1A03D"
    },
    {
        "client_msg_id": "f0100879-09d9-4068-afd0-3af39954db69",
        "type": "message",
        "text": "Hi <@U0115G1A03D> there does not seem to be any way to actually trigger the backend to recalculate. Further, if your team does not have an epidemiological background, it might be useful to fork some of the work by other teams, such as those listed here <https:\/\/docs.google.com\/spreadsheets\/d\/1hUZlVDPfa5C8KgURoP_3dAiUQgI6rdb7A5e_g8NcPaY\/edit#gid=0>. Knowing how this is likely to be used would be helpful in terms of giving more advice.",
        "user": "U0104M5CWV9",
        "ts": "1587654863.007400",
        "team": "TUU48M0T1",
        "user_team": "TUU48M0T1",
        "source_team": "TUU48M0T1",
        "user_profile": {
            "avatar_hash": "g690df94d06f",
            "image_72": "https:\/\/secure.gravatar.com\/avatar\/690df94d06f11222b2bb4d765ee7ba52.jpg?s=72&d=https%3A%2F%2Fa.slack-edge.com%2Fdf10d%2Fimg%2Favatars%2Fava_0002-72.png",
            "first_name": "John",
            "real_name": "John Urbanik",
            "display_name": "John Urbanik",
            "team": "TUU48M0T1",
            "name": "johnurbanik",
            "is_restricted": false,
            "is_ultra_restricted": false
        },
        "blocks": [
            {
                "type": "rich_text",
                "block_id": "baMJv",
                "elements": [
                    {
                        "type": "rich_text_section",
                        "elements": [
                            {
                                "type": "text",
                                "text": "Hi "
                            },
                            {
                                "type": "user",
                                "user_id": "U0115G1A03D"
                            },
                            {
                                "type": "text",
                                "text": " there does not seem to be any way to actually trigger the backend to recalculate. Further, if your team does not have an epidemiological background, it might be useful to fork some of the work by other teams, such as those listed here "
                            },
                            {
                                "type": "link",
                                "url": "https:\/\/docs.google.com\/spreadsheets\/d\/1hUZlVDPfa5C8KgURoP_3dAiUQgI6rdb7A5e_g8NcPaY\/edit#gid=0"
                            },
                            {
                                "type": "text",
                                "text": ". Knowing how this is likely to be used would be helpful in terms of giving more advice."
                            }
                        ]
                    }
                ]
            }
        ],
        "thread_ts": "1586994521.017600",
        "parent_user_id": "U0115G1A03D"
    },
    {
        "client_msg_id": "df62e08d-94d7-4f59-8155-499ed70e6d3a",
        "type": "message",
        "text": "As far as being what this project is looking for, your design skills might be useful sometime down the line for our team, but I don't think that the application itself fits in with our needs at this time.",
        "user": "U0104M5CWV9",
        "ts": "1587654928.007700",
        "team": "TUU48M0T1",
        "user_team": "TUU48M0T1",
        "source_team": "TUU48M0T1",
        "user_profile": {
            "avatar_hash": "g690df94d06f",
            "image_72": "https:\/\/secure.gravatar.com\/avatar\/690df94d06f11222b2bb4d765ee7ba52.jpg?s=72&d=https%3A%2F%2Fa.slack-edge.com%2Fdf10d%2Fimg%2Favatars%2Fava_0002-72.png",
            "first_name": "John",
            "real_name": "John Urbanik",
            "display_name": "John Urbanik",
            "team": "TUU48M0T1",
            "name": "johnurbanik",
            "is_restricted": false,
            "is_ultra_restricted": false
        },
        "blocks": [
            {
                "type": "rich_text",
                "block_id": "Jig9+",
                "elements": [
                    {
                        "type": "rich_text_section",
                        "elements": [
                            {
                                "type": "text",
                                "text": "As far as being what this project is looking for, your design skills might be useful sometime down the line for our team, but I don't think that the application itself fits in with our needs at this time."
                            }
                        ]
                    }
                ]
            }
        ],
        "thread_ts": "1586994521.017600",
        "parent_user_id": "U0115G1A03D"
    },
    {
        "client_msg_id": "f9eb05b9-7055-41e0-8b1a-57765a51919b",
        "type": "message",
        "text": "As data scientists, building something like an ensemble model of some of the various methodologies being used throughout the world could be very helpful! Or a dashboard that incorporates many models for different applications (like hospital capacity planning), such as extending those at <https:\/\/epiforecasts.io\/covid\/> <https:\/\/cmmid-lshtm.shinyapps.io\/hospital_bed_occupancy_projections\/> <https:\/\/github.com\/neherlab\/covid19_scenarios> <https:\/\/covid-19.bsvgateway.org> <https:\/\/rt.live\/> for Peru and other South American countries)",
        "user": "U0104M5CWV9",
        "ts": "1587655350.007900",
        "team": "TUU48M0T1",
        "user_team": "TUU48M0T1",
        "source_team": "TUU48M0T1",
        "user_profile": {
            "avatar_hash": "g690df94d06f",
            "image_72": "https:\/\/secure.gravatar.com\/avatar\/690df94d06f11222b2bb4d765ee7ba52.jpg?s=72&d=https%3A%2F%2Fa.slack-edge.com%2Fdf10d%2Fimg%2Favatars%2Fava_0002-72.png",
            "first_name": "John",
            "real_name": "John Urbanik",
            "display_name": "John Urbanik",
            "team": "TUU48M0T1",
            "name": "johnurbanik",
            "is_restricted": false,
            "is_ultra_restricted": false
        },
        "edited": {
            "user": "U0104M5CWV9",
            "ts": "1587655395.000000"
        },
        "attachments": [
            {
                "fallback": "neherlab\/covid19_scenarios",
                "text": "Models of COVID-19 outbreak trajectories and hospital demand",
                "title": "neherlab\/covid19_scenarios",
                "footer": "<https:\/\/github.com\/neherlab\/covid19_scenarios|neherlab\/covid19_scenarios>",
                "id": 1,
                "footer_icon": "https:\/\/github.githubassets.com\/favicon.ico",
                "ts": 1582988011,
                "color": "24292f",
                "fields": [
                    {
                        "title": "Website",
                        "value": "<https:\/\/covid19-scenarios.org>",
                        "short": true
                    },
                    {
                        "title": "Stars",
                        "value": "1030",
                        "short": true
                    }
                ],
                "mrkdwn_in": [
                    "text",
                    "fields"
                ],
                "bot_id": "BUW789DM0",
                "app_unfurl_url": "https:\/\/github.com\/neherlab\/covid19_scenarios",
                "is_app_unfurl": true
            }
        ],
        "blocks": [
            {
                "type": "rich_text",
                "block_id": "AR5",
                "elements": [
                    {
                        "type": "rich_text_section",
                        "elements": [
                            {
                                "type": "text",
                                "text": "As data scientists, building something like an ensemble model of some of the various methodologies being used throughout the world could be very helpful! Or a dashboard that incorporates many models for different applications (like hospital capacity planning), such as extending those at "
                            },
                            {
                                "type": "link",
                                "url": "https:\/\/epiforecasts.io\/covid\/"
                            },
                            {
                                "type": "text",
                                "text": " "
                            },
                            {
                                "type": "link",
                                "url": "https:\/\/cmmid-lshtm.shinyapps.io\/hospital_bed_occupancy_projections\/"
                            },
                            {
                                "type": "text",
                                "text": " "
                            },
                            {
                                "type": "link",
                                "url": "https:\/\/github.com\/neherlab\/covid19_scenarios"
                            },
                            {
                                "type": "text",
                                "text": " "
                            },
                            {
                                "type": "link",
                                "url": "https:\/\/covid-19.bsvgateway.org"
                            },
                            {
                                "type": "text",
                                "text": " "
                            },
                            {
                                "type": "link",
                                "url": "https:\/\/rt.live\/"
                            },
                            {
                                "type": "text",
                                "text": " for Peru and other South American countries)"
                            }
                        ]
                    }
                ]
            }
        ],
        "thread_ts": "1586994521.017600",
        "parent_user_id": "U0115G1A03D",
        "reactions": [
            {
                "name": "+1",
                "users": [
                    "U0115G1A03D"
                ],
                "count": 1
            }
        ]
    }
]