[
    {
        "client_msg_id": "85a1b2ed-13d7-4da9-a111-bf280ff038c0",
        "type": "message",
        "text": "Hi <@U0104M5CWV9>\nactually what would be really interesting to get is some ideas about which algorithms exist for reconstruction of missing data from epidemiological and contact tracing data which one gets from coepi app etc.  like one was discussing here\n<#C0109J5U8P7|proj-dev-contact-tracing>",
        "user": "U010B412MF1",
        "ts": "1586196934.000200",
        "team": "TUU48M0T1",
        "user_team": "TUU48M0T1",
        "source_team": "TUU48M0T1",
        "user_profile": {
            "avatar_hash": "218d963a797f",
            "image_72": "https:\/\/avatars.slack-edge.com\/2020-03-19\/1013072792629_218d963a797fbf4410c0_72.png",
            "first_name": "",
            "real_name": "liu",
            "display_name": "liu",
            "team": "TUU48M0T1",
            "name": "liubov.tupikina",
            "is_restricted": false,
            "is_ultra_restricted": false
        },
        "blocks": [
            {
                "type": "rich_text",
                "block_id": "i1Ny",
                "elements": [
                    {
                        "type": "rich_text_section",
                        "elements": [
                            {
                                "type": "text",
                                "text": "Hi "
                            },
                            {
                                "type": "user",
                                "user_id": "U0104M5CWV9"
                            },
                            {
                                "type": "text",
                                "text": "\nactually what would be really interesting to get is some ideas about which algorithms exist for reconstruction of missing data from epidemiological and contact tracing data which one gets from coepi app etc.  like one was discussing here\n"
                            },
                            {
                                "type": "channel",
                                "channel_id": "C0109J5U8P7"
                            }
                        ]
                    }
                ]
            }
        ],
        "thread_ts": "1586026464.013100",
        "parent_user_id": "U0104M5CWV9"
    },
    {
        "client_msg_id": "7ceabd3d-6695-494d-abb8-770387c1e8c2",
        "type": "message",
        "text": "<@U010B412MF1> pulling the thread on <#C0109J5U8P7|proj-dev-contact-tracing> out of the reply above  (<https:\/\/open-covid19.slack.com\/archives\/C01148CHCLE\/p1586196934000200?thread_ts=1586026464.013100&amp;cid=C01148CHCLE>) and into it's own one here for visibility. Not sure whether I fully understand the suggestion. Is the idea to reconstruct missing contacts from the coepi dataset? Or to use contact tracing data to produce estimates of epidemiological modeling params like infection rate? Or something else?",
        "user": "U0104M5CWV9",
        "ts": "1586197744.003000",
        "team": "TUU48M0T1",
        "user_team": "TUU48M0T1",
        "source_team": "TUU48M0T1",
        "user_profile": {
            "avatar_hash": "g690df94d06f",
            "image_72": "https:\/\/secure.gravatar.com\/avatar\/690df94d06f11222b2bb4d765ee7ba52.jpg?s=72&d=https%3A%2F%2Fa.slack-edge.com%2Fdf10d%2Fimg%2Favatars%2Fava_0002-72.png",
            "first_name": "John",
            "real_name": "John Urbanik",
            "display_name": "John Urbanik",
            "team": "TUU48M0T1",
            "name": "johnurbanik",
            "is_restricted": false,
            "is_ultra_restricted": false
        },
        "attachments": [
            {
                "from_url": "https:\/\/open-covid19.slack.com\/archives\/C01148CHCLE\/p1586196934000200?thread_ts=1586026464.013100&amp;cid=C01148CHCLE",
                "fallback": "[April 6th, 2020 11:15 AM] liubov.tupikina: Hi <@U0104M5CWV9>\nactually what would be really interesting to get is some ideas about which algorithms exist for reconstruction of missing data from epidemiological and contact tracing data which one gets from coepi app etc.  like one was discussing here\n<#C0109J5U8P7|proj-dev-contact-tracing>",
                "ts": "1586196934.000200",
                "author_id": "U010B412MF1",
                "author_subname": "liu",
                "channel_id": "C01148CHCLE",
                "channel_name": "proj-epimodelingtoolkit",
                "is_msg_unfurl": true,
                "is_reply_unfurl": true,
                "text": "Hi <@U0104M5CWV9>\nactually what would be really interesting to get is some ideas about which algorithms exist for reconstruction of missing data from epidemiological and contact tracing data which one gets from coepi app etc.  like one was discussing here\n<#C0109J5U8P7|proj-dev-contact-tracing>",
                "author_name": "liu",
                "author_link": "https:\/\/open-covid19.slack.com\/team\/U010B412MF1",
                "author_icon": "https:\/\/avatars.slack-edge.com\/2020-03-19\/1013072792629_218d963a797fbf4410c0_48.png",
                "mrkdwn_in": [
                    "text"
                ],
                "id": 1,
                "original_url": "https:\/\/open-covid19.slack.com\/archives\/C01148CHCLE\/p1586196934000200?thread_ts=1586026464.013100&amp;cid=C01148CHCLE",
                "footer": "From a thread in #proj-epimodelingtoolkit"
            }
        ],
        "blocks": [
            {
                "type": "rich_text",
                "block_id": "tB8gx",
                "elements": [
                    {
                        "type": "rich_text_section",
                        "elements": [
                            {
                                "type": "user",
                                "user_id": "U010B412MF1"
                            },
                            {
                                "type": "text",
                                "text": " pulling the thread on "
                            },
                            {
                                "type": "channel",
                                "channel_id": "C0109J5U8P7"
                            },
                            {
                                "type": "text",
                                "text": " out of the reply above  ("
                            },
                            {
                                "type": "link",
                                "url": "https:\/\/open-covid19.slack.com\/archives\/C01148CHCLE\/p1586196934000200?thread_ts=1586026464.013100&cid=C01148CHCLE"
                            },
                            {
                                "type": "text",
                                "text": ") and into it's own one here for visibility. Not sure whether I fully understand the suggestion. Is the idea to reconstruct missing contacts from the coepi dataset? Or to use contact tracing data to produce estimates of epidemiological modeling params like infection rate? Or something else?"
                            }
                        ]
                    }
                ]
            }
        ],
        "thread_ts": "1586197744.003000",
        "reply_count": 3,
        "reply_users_count": 2,
        "latest_reply": "1586423330.003600",
        "reply_users": [
            "U010B412MF1",
            "U0104M5CWV9"
        ],
        "replies": [
            {
                "user": "U010B412MF1",
                "ts": "1586288707.003200"
            },
            {
                "user": "U0104M5CWV9",
                "ts": "1586289283.003400"
            },
            {
                "user": "U010B412MF1",
                "ts": "1586423330.003600"
            }
        ],
        "subscribed": false
    }
]