[
    {
        "client_msg_id": "0327c683-7de2-43c5-82c8-e58625307d86",
        "type": "message",
        "text": "Already know about this <https:\/\/analytics-tools.shinyapps.io\/covid19simulator\/> ?",
        "user": "U0115G1A03D",
        "ts": "1588023121.008700",
        "team": "TUU48M0T1",
        "user_team": "TUU48M0T1",
        "source_team": "TUU48M0T1",
        "user_profile": {
            "avatar_hash": "4daeacf08e50",
            "image_72": "https:\/\/avatars.slack-edge.com\/2020-04-04\/1038340161250_4daeacf08e50360875bc_72.png",
            "first_name": "",
            "real_name": "Pablo Díaz",
            "display_name": "Pablo Díaz",
            "team": "TUU48M0T1",
            "name": "pablo.diazv",
            "is_restricted": false,
            "is_ultra_restricted": false
        },
        "blocks": [
            {
                "type": "rich_text",
                "block_id": "4HkN",
                "elements": [
                    {
                        "type": "rich_text_section",
                        "elements": [
                            {
                                "type": "text",
                                "text": "Already know about this "
                            },
                            {
                                "type": "link",
                                "url": "https:\/\/analytics-tools.shinyapps.io\/covid19simulator\/"
                            },
                            {
                                "type": "text",
                                "text": " ?"
                            }
                        ]
                    }
                ]
            }
        ],
        "reactions": [
            {
                "name": "+1",
                "users": [
                    "U0104M5CWV9"
                ],
                "count": 1
            }
        ]
    }
]