[
    {
        "type": "message",
        "subtype": "channel_join",
        "ts": "1583936518.000200",
        "user": "UUW41MYTV",
        "text": "<@UUW41MYTV> has joined the channel"
    },
    {
        "type": "message",
        "subtype": "channel_join",
        "ts": "1583938768.000400",
        "user": "UV0RRGB6H",
        "text": "<@UV0RRGB6H> has joined the channel"
    },
    {
        "client_msg_id": "ff374fe3-6581-4deb-80a6-fbd82db4469c",
        "type": "message",
        "text": "Hi, just thought id say iGEM warwick although not planning to focus a project on COVID, I have convinced them to help out with protocol testing and cloning as and when needed :)",
        "user": "UV0RRGB6H",
        "ts": "1583938859.001900",
        "team": "TUU48M0T1",
        "user_team": "TUU48M0T1",
        "source_team": "TUU48M0T1",
        "user_profile": {
            "avatar_hash": "48d4ab64c90c",
            "image_72": "https:\/\/avatars.slack-edge.com\/2020-03-26\/1029789176912_48d4ab64c90c03f3af4a_72.jpg",
            "first_name": "",
            "real_name": "Chris LB Graham",
            "display_name": "",
            "team": "TUU48M0T1",
            "name": "chris.graham",
            "is_restricted": false,
            "is_ultra_restricted": false
        },
        "edited": {
            "user": "UV0RRGB6H",
            "ts": "1583938882.000000"
        },
        "blocks": [
            {
                "type": "rich_text",
                "block_id": "=VoaN",
                "elements": [
                    {
                        "type": "rich_text_section",
                        "elements": [
                            {
                                "type": "text",
                                "text": "Hi, just thought id say iGEM warwick although not planning to focus a project on COVID, I have convinced them to help out with protocol testing and cloning as and when needed :)"
                            }
                        ]
                    }
                ]
            }
        ],
        "reactions": [
            {
                "name": "face_with_cowboy_hat",
                "users": [
                    "UV0QTJCMT",
                    "UV02WET96",
                    "UUPFF4TC3",
                    "UUS2G6N6M",
                    "UUUEFQW8N",
                    "UV3URUKK5"
                ],
                "count": 6
            }
        ]
    },
    {
        "client_msg_id": "0348E8C3-7835-4FF1-A274-C07B30E9F106",
        "type": "message",
        "text": "Awesome! ",
        "user": "UV02WET96",
        "ts": "1583942821.002400",
        "team": "TUU48M0T1",
        "user_team": "TUU48M0T1",
        "source_team": "TUU48M0T1",
        "user_profile": {
            "avatar_hash": "a99c74a194f8",
            "image_72": "https:\/\/avatars.slack-edge.com\/2020-03-07\/975708504851_a99c74a194f86715ca7d_72.png",
            "first_name": "Thomas",
            "real_name": "Thomas Landrain",
            "display_name": "Thomas Landrain - JOGL CoFounder \/ CEO",
            "team": "TUU48M0T1",
            "name": "thomas",
            "is_restricted": false,
            "is_ultra_restricted": false
        },
        "blocks": [
            {
                "type": "rich_text",
                "block_id": "cUKLH",
                "elements": [
                    {
                        "type": "rich_text_section",
                        "elements": [
                            {
                                "type": "text",
                                "text": "Awesome! "
                            }
                        ]
                    }
                ]
            }
        ]
    },
    {
        "type": "message",
        "subtype": "channel_join",
        "ts": "1583983382.002800",
        "user": "UV2SC7ZE3",
        "text": "<@UV2SC7ZE3> has joined the channel"
    }
]