[
    {
        "client_msg_id": "384b9203-a796-423a-9543-699446a05d7f",
        "type": "message",
        "text": "Just responding to this to note that it’s been addressed — pleasure to be working with you on that project, Michelle!",
        "user": "U011B6VLM2A",
        "ts": "1586957698.008500",
        "team": "TUU48M0T1",
        "user_team": "TUU48M0T1",
        "source_team": "TUU48M0T1",
        "user_profile": {
            "avatar_hash": "4231dc598cfc",
            "image_72": "https:\/\/avatars.slack-edge.com\/2020-04-02\/1044784558839_4231dc598cfc2e59c4c4_72.jpg",
            "first_name": "Alix",
            "real_name": "Alix Mains",
            "display_name": "Alix Mains - JOGL Coordinator",
            "team": "TUU48M0T1",
            "name": "alixhmains",
            "is_restricted": false,
            "is_ultra_restricted": false
        },
        "blocks": [
            {
                "type": "rich_text",
                "block_id": "JKL\/a",
                "elements": [
                    {
                        "type": "rich_text_section",
                        "elements": [
                            {
                                "type": "text",
                                "text": "Just responding to this to note that it’s been addressed — pleasure to be working with you on that project, Michelle!"
                            }
                        ]
                    }
                ]
            }
        ],
        "thread_ts": "1586285311.001500",
        "parent_user_id": "U011D8T1Z61",
        "reactions": [
            {
                "name": "heart",
                "users": [
                    "U011D8T1Z61"
                ],
                "count": 1
            }
        ]
    },
    {
        "client_msg_id": "656e9427-1d74-438f-97f5-796c4140887f",
        "type": "message",
        "text": "I’ll be moderating this channel :slightly_smiling_face:",
        "user": "U011B6VLM2A",
        "ts": "1586957729.008700",
        "team": "TUU48M0T1",
        "user_team": "TUU48M0T1",
        "source_team": "TUU48M0T1",
        "user_profile": {
            "avatar_hash": "4231dc598cfc",
            "image_72": "https:\/\/avatars.slack-edge.com\/2020-04-02\/1044784558839_4231dc598cfc2e59c4c4_72.jpg",
            "first_name": "Alix",
            "real_name": "Alix Mains",
            "display_name": "Alix Mains - JOGL Coordinator",
            "team": "TUU48M0T1",
            "name": "alixhmains",
            "is_restricted": false,
            "is_ultra_restricted": false
        },
        "blocks": [
            {
                "type": "rich_text",
                "block_id": "nzkX2",
                "elements": [
                    {
                        "type": "rich_text_section",
                        "elements": [
                            {
                                "type": "text",
                                "text": "I’ll be moderating this channel "
                            },
                            {
                                "type": "emoji",
                                "name": "slightly_smiling_face"
                            }
                        ]
                    }
                ]
            }
        ],
        "thread_ts": "1585695366.004400",
        "parent_user_id": "UV9V03C8Y"
    },
    {
        "client_msg_id": "8c7889ac-431e-4bd0-9a03-abc7c8cb43fe",
        "type": "message",
        "text": "Hi <@U010UF6AXMF> - thanks for your question! From a quick search, it would seem that *Jean Charles Luisada* might be a good person to reach out for certification questions, although I’m not sure what type of certifications he specializes in…",
        "user": "U011B6VLM2A",
        "ts": "1586958084.008900",
        "team": "TUU48M0T1",
        "user_team": "TUU48M0T1",
        "source_team": "TUU48M0T1",
        "user_profile": {
            "avatar_hash": "4231dc598cfc",
            "image_72": "https:\/\/avatars.slack-edge.com\/2020-04-02\/1044784558839_4231dc598cfc2e59c4c4_72.jpg",
            "first_name": "Alix",
            "real_name": "Alix Mains",
            "display_name": "Alix Mains - JOGL Coordinator",
            "team": "TUU48M0T1",
            "name": "alixhmains",
            "is_restricted": false,
            "is_ultra_restricted": false
        },
        "blocks": [
            {
                "type": "rich_text",
                "block_id": "uFfi",
                "elements": [
                    {
                        "type": "rich_text_section",
                        "elements": [
                            {
                                "type": "text",
                                "text": "Hi "
                            },
                            {
                                "type": "user",
                                "user_id": "U010UF6AXMF"
                            },
                            {
                                "type": "text",
                                "text": " - thanks for your question! From a quick search, it would seem that "
                            },
                            {
                                "type": "text",
                                "text": "Jean Charles Luisada ",
                                "style": {
                                    "bold": true
                                }
                            },
                            {
                                "type": "text",
                                "text": "might be a good person to reach out for certification questions, although I’m not sure what type of certifications he specializes in…"
                            }
                        ]
                    }
                ]
            }
        ],
        "thread_ts": "1586615833.007700",
        "parent_user_id": "U010UF6AXMF"
    },
    {
        "client_msg_id": "0d3906d2-f1a9-40e9-807c-339ab6a44001",
        "type": "message",
        "text": "If you’re giving an update on the Global Community Call, that could also be a great time to make a quick announcement that you’re looking to connect with others on this topic! I think it would make a great channel where people could chat about all certification-related topics.",
        "user": "U011B6VLM2A",
        "ts": "1586958187.009100",
        "team": "TUU48M0T1",
        "user_team": "TUU48M0T1",
        "source_team": "TUU48M0T1",
        "user_profile": {
            "avatar_hash": "4231dc598cfc",
            "image_72": "https:\/\/avatars.slack-edge.com\/2020-04-02\/1044784558839_4231dc598cfc2e59c4c4_72.jpg",
            "first_name": "Alix",
            "real_name": "Alix Mains",
            "display_name": "Alix Mains - JOGL Coordinator",
            "team": "TUU48M0T1",
            "name": "alixhmains",
            "is_restricted": false,
            "is_ultra_restricted": false
        },
        "blocks": [
            {
                "type": "rich_text",
                "block_id": "Ztm",
                "elements": [
                    {
                        "type": "rich_text_section",
                        "elements": [
                            {
                                "type": "text",
                                "text": "If you’re giving an update on the Global Community Call, that could also be a great time to make a quick announcement that you’re looking to connect with others on this topic! I think it would make a great channel where people could chat about all certification-related topics."
                            }
                        ]
                    }
                ]
            }
        ],
        "thread_ts": "1586615833.007700",
        "parent_user_id": "U010UF6AXMF"
    },
    {
        "type": "message",
        "subtype": "channel_topic",
        "ts": "1586963969.009400",
        "user": "U011B6VLM2A",
        "text": "<@U011B6VLM2A> set the channel topic: Feeling lost? Find your way by asking here!\n\nInterested in being a channel moderator and helping guide community members? Contact <@U011B6VLM2A>",
        "topic": "Feeling lost? Find your way by asking here!\n\nInterested in being a channel moderator and helping guide community members? Contact <@U011B6VLM2A>"
    },
    {
        "type": "message",
        "text": "<!channel> — feel free to add pain points to this document (which we’re using as a temporary solution to collecting and addressing pain points that community members are having)",
        "files": [
            {
                "id": "F011XJW0ZDW",
                "created": 1586341126,
                "timestamp": 1586341126,
                "name": "List of painpoints to solve - OpenCovid19 initiative",
                "title": "List of painpoints to solve - OpenCovid19 initiative",
                "mimetype": "application\/vnd.google-apps.spreadsheet",
                "filetype": "gsheet",
                "pretty_type": "GSuite Spreadsheet",
                "user": "UV9V03C8Y",
                "editable": false,
                "size": 56013,
                "mode": "external",
                "is_external": true,
                "external_type": "gdrive",
                "is_public": true,
                "public_url_shared": false,
                "display_as_bot": false,
                "username": "",
                "url_private": "https:\/\/docs.google.com\/spreadsheets\/d\/1CZSZcbVbtfAOdJZtWTsXpIjk4wA6P6Href2TgaIBiX0\/edit#gid=0",
                "thumb_64": "https:\/\/files.slack.com\/files-tmb\/TUU48M0T1-F011XJW0ZDW-d997d90ec9\/list_of_painpoints_to_solve_-_opencovid19_initiative_64.png?t=xoxe-980144714919-1106606678066-1105227127893-6f722bb664235052954ad46852628b64",
                "thumb_80": "https:\/\/files.slack.com\/files-tmb\/TUU48M0T1-F011XJW0ZDW-d997d90ec9\/list_of_painpoints_to_solve_-_opencovid19_initiative_80.png?t=xoxe-980144714919-1106606678066-1105227127893-6f722bb664235052954ad46852628b64",
                "thumb_360": "https:\/\/files.slack.com\/files-tmb\/TUU48M0T1-F011XJW0ZDW-d997d90ec9\/list_of_painpoints_to_solve_-_opencovid19_initiative_360.png?t=xoxe-980144714919-1106606678066-1105227127893-6f722bb664235052954ad46852628b64",
                "thumb_360_w": 254,
                "thumb_360_h": 360,
                "thumb_480": "https:\/\/files.slack.com\/files-tmb\/TUU48M0T1-F011XJW0ZDW-d997d90ec9\/list_of_painpoints_to_solve_-_opencovid19_initiative_480.png?t=xoxe-980144714919-1106606678066-1105227127893-6f722bb664235052954ad46852628b64",
                "thumb_480_w": 339,
                "thumb_480_h": 480,
                "thumb_160": "https:\/\/files.slack.com\/files-tmb\/TUU48M0T1-F011XJW0ZDW-d997d90ec9\/list_of_painpoints_to_solve_-_opencovid19_initiative_160.png?t=xoxe-980144714919-1106606678066-1105227127893-6f722bb664235052954ad46852628b64",
                "thumb_720": "https:\/\/files.slack.com\/files-tmb\/TUU48M0T1-F011XJW0ZDW-d997d90ec9\/list_of_painpoints_to_solve_-_opencovid19_initiative_720.png?t=xoxe-980144714919-1106606678066-1105227127893-6f722bb664235052954ad46852628b64",
                "thumb_720_w": 509,
                "thumb_720_h": 720,
                "thumb_800": "https:\/\/files.slack.com\/files-tmb\/TUU48M0T1-F011XJW0ZDW-d997d90ec9\/list_of_painpoints_to_solve_-_opencovid19_initiative_800.png?t=xoxe-980144714919-1106606678066-1105227127893-6f722bb664235052954ad46852628b64",
                "thumb_800_w": 800,
                "thumb_800_h": 1132,
                "thumb_960": "https:\/\/files.slack.com\/files-tmb\/TUU48M0T1-F011XJW0ZDW-d997d90ec9\/list_of_painpoints_to_solve_-_opencovid19_initiative_960.png?t=xoxe-980144714919-1106606678066-1105227127893-6f722bb664235052954ad46852628b64",
                "thumb_960_w": 678,
                "thumb_960_h": 960,
                "thumb_1024": "https:\/\/files.slack.com\/files-tmb\/TUU48M0T1-F011XJW0ZDW-d997d90ec9\/list_of_painpoints_to_solve_-_opencovid19_initiative_1024.png?t=xoxe-980144714919-1106606678066-1105227127893-6f722bb664235052954ad46852628b64",
                "thumb_1024_w": 724,
                "thumb_1024_h": 1024,
                "image_exif_rotation": 1,
                "original_w": 1024,
                "original_h": 1449,
                "thumb_tiny": "AwAwACHRJOeCPxpCzA9R+VPxzmkKg0AN3N7flSqWPPGKXaKUDFABRRRQAUUUUAFFFFABRRRQAUUUUAFFFFABRRRQB\/\/Z",
                "permalink": "https:\/\/open-covid19.slack.com\/files\/UV9V03C8Y\/F011XJW0ZDW\/list_of_painpoints_to_solve_-_opencovid19_initiative",
                "is_starred": false,
                "external_id": "1CZSZcbVbtfAOdJZtWTsXpIjk4wA6P6Href2TgaIBiX0",
                "external_url": "https:\/\/docs.google.com\/spreadsheets\/d\/1CZSZcbVbtfAOdJZtWTsXpIjk4wA6P6Href2TgaIBiX0\/edit#gid=0",
                "has_rich_preview": true
            }
        ],
        "upload": false,
        "blocks": [
            {
                "type": "rich_text",
                "block_id": "TBbM",
                "elements": [
                    {
                        "type": "rich_text_section",
                        "elements": [
                            {
                                "type": "broadcast",
                                "range": "channel"
                            },
                            {
                                "type": "text",
                                "text": " — feel free to add pain points to this document (which we’re using as a temporary solution to collecting and addressing pain points that community members are having)"
                            }
                        ]
                    }
                ]
            }
        ],
        "user": "U011B6VLM2A",
        "display_as_bot": false,
        "ts": "1586964016.010100",
        "edited": {
            "user": "U011B6VLM2A",
            "ts": "1586964024.000000"
        },
        "reactions": [
            {
                "name": "heart_eyes",
                "users": [
                    "UV9V03C8Y",
                    "UV2SC7ZE3",
                    "U011D8T1Z61"
                ],
                "count": 3
            }
        ]
    },
    {
        "client_msg_id": "6dfd0c66-a810-4342-a3d0-3996a9217f64",
        "type": "message",
        "text": "Yes I started to discuss this with Jean-Charles.\nThanks!",
        "user": "U010UF6AXMF",
        "ts": "1586972362.011000",
        "team": "TUU48M0T1",
        "user_team": "TUU48M0T1",
        "source_team": "TUU48M0T1",
        "user_profile": {
            "avatar_hash": "g5248b59fec0",
            "image_72": "https:\/\/secure.gravatar.com\/avatar\/5248b59fec06db7591dc8d9d10879432.jpg?s=72&d=https%3A%2F%2Fa.slack-edge.com%2Fdf10d%2Fimg%2Favatars%2Fava_0020-72.png",
            "first_name": "",
            "real_name": "Charley",
            "display_name": "Charley",
            "team": "TUU48M0T1",
            "name": "charleypaulus",
            "is_restricted": false,
            "is_ultra_restricted": false
        },
        "blocks": [
            {
                "type": "rich_text",
                "block_id": "\/0AW",
                "elements": [
                    {
                        "type": "rich_text_section",
                        "elements": [
                            {
                                "type": "text",
                                "text": "Yes I started to discuss this with Jean-Charles.\nThanks!"
                            }
                        ]
                    }
                ]
            }
        ],
        "thread_ts": "1586615833.007700",
        "parent_user_id": "U010UF6AXMF"
    },
    {
        "client_msg_id": "60bead78-0233-4788-81ca-9cd9cd8e64d1",
        "type": "message",
        "text": "@Michelle, I think it depends. Some projects started before or they opened channels directly in slack. Most projects have the address right in the JOGL project page. Sometimes you need to click on About.",
        "user": "U0103SR759U",
        "ts": "1586988022.012700",
        "team": "TUU48M0T1",
        "user_team": "TUU48M0T1",
        "source_team": "TUU48M0T1",
        "user_profile": {
            "avatar_hash": "g2694d379600",
            "image_72": "https:\/\/secure.gravatar.com\/avatar\/2694d3796008843d36d4b6ceff7f8660.jpg?s=72&d=https%3A%2F%2Fa.slack-edge.com%2Fdf10d%2Fimg%2Favatars%2Fava_0010-72.png",
            "first_name": "Adrian",
            "real_name": "Adrian Molecule",
            "display_name": "Adrian Molecule",
            "team": "TUU48M0T1",
            "name": "tada",
            "is_restricted": false,
            "is_ultra_restricted": false
        },
        "blocks": [
            {
                "type": "rich_text",
                "block_id": "CVX",
                "elements": [
                    {
                        "type": "rich_text_section",
                        "elements": [
                            {
                                "type": "text",
                                "text": "@Michelle, I think it depends. Some projects started before or they opened channels directly in slack. Most projects have the address right in the JOGL project page. Sometimes you need to click on About."
                            }
                        ]
                    }
                ]
            }
        ],
        "reactions": [
            {
                "name": "+1",
                "users": [
                    "U011D8T1Z61",
                    "U011B6VLM2A"
                ],
                "count": 2
            }
        ]
    }
]