[
    {
        "type": "message",
        "subtype": "channel_join",
        "ts": "1586340544.000200",
        "user": "U011NMUSN56",
        "text": "<@U011NMUSN56> has joined the channel"
    },
    {
        "type": "message",
        "subtype": "channel_join",
        "ts": "1586344810.000500",
        "user": "U010BA2NL9E",
        "text": "<@U010BA2NL9E> has joined the channel"
    },
    {
        "type": "message",
        "subtype": "channel_join",
        "ts": "1586386711.000800",
        "user": "UVDCTDP8B",
        "text": "<@UVDCTDP8B> has joined the channel"
    }
]