[
    {
        "client_msg_id": "809661e2-040a-474b-b86b-939f9151c402",
        "type": "message",
        "text": "Hello,",
        "user": "UVB8RUHMH",
        "ts": "1584539340.011700",
        "team": "TUU48M0T1",
        "user_team": "TUU48M0T1",
        "source_team": "TUU48M0T1",
        "user_profile": {
            "avatar_hash": "e67dfe11620c",
            "image_72": "https:\/\/avatars.slack-edge.com\/2020-03-18\/1008335593556_e67dfe11620c1851600a_72.png",
            "first_name": "",
            "real_name": "Varshita Kolipaka",
            "display_name": "Varshita Kolipaka",
            "team": "TUU48M0T1",
            "name": "varshita2003",
            "is_restricted": false,
            "is_ultra_restricted": false
        },
        "blocks": [
            {
                "type": "rich_text",
                "block_id": "8yY4",
                "elements": [
                    {
                        "type": "rich_text_section",
                        "elements": [
                            {
                                "type": "text",
                                "text": "Hello,"
                            }
                        ]
                    }
                ]
            }
        ]
    },
    {
        "client_msg_id": "f9b0e0ae-4e4e-40bd-bab7-a4cd431c778e",
        "type": "message",
        "text": "I wish to help however I can to abate the situation.",
        "user": "UVB8RUHMH",
        "ts": "1584539358.012100",
        "team": "TUU48M0T1",
        "user_team": "TUU48M0T1",
        "source_team": "TUU48M0T1",
        "user_profile": {
            "avatar_hash": "e67dfe11620c",
            "image_72": "https:\/\/avatars.slack-edge.com\/2020-03-18\/1008335593556_e67dfe11620c1851600a_72.png",
            "first_name": "",
            "real_name": "Varshita Kolipaka",
            "display_name": "Varshita Kolipaka",
            "team": "TUU48M0T1",
            "name": "varshita2003",
            "is_restricted": false,
            "is_ultra_restricted": false
        },
        "blocks": [
            {
                "type": "rich_text",
                "block_id": "z4k",
                "elements": [
                    {
                        "type": "rich_text_section",
                        "elements": [
                            {
                                "type": "text",
                                "text": "I wish to help however I can to abate the situation."
                            }
                        ]
                    }
                ]
            }
        ]
    },
    {
        "client_msg_id": "c21733b3-23fb-46d2-838c-8cffc5303aef",
        "type": "message",
        "text": "A colleague of mine is looking to develop a platform to assist in care center logistics. So, where the care centers should be located, what they need, etc",
        "user": "UVD8Q035K",
        "ts": "1584542338.013400",
        "team": "TUU48M0T1",
        "user_team": "TUU48M0T1",
        "source_team": "TUU48M0T1",
        "user_profile": {
            "avatar_hash": "8b2d0f7c083b",
            "image_72": "https:\/\/avatars.slack-edge.com\/2020-03-13\/1001496871254_8b2d0f7c083b78fb0457_72.jpg",
            "first_name": "",
            "real_name": "Jonathan W. Vos",
            "display_name": "Jonathan W. Vos",
            "team": "TUU48M0T1",
            "name": "jonathan",
            "is_restricted": false,
            "is_ultra_restricted": false
        },
        "blocks": [
            {
                "type": "rich_text",
                "block_id": "tUdx=",
                "elements": [
                    {
                        "type": "rich_text_section",
                        "elements": [
                            {
                                "type": "text",
                                "text": "A colleague of mine is looking to develop a platform to assist in care center logistics. So, where the care centers should be located, what they need, etc"
                            }
                        ]
                    }
                ]
            }
        ]
    }
]