[
    {
        "type": "message",
        "subtype": "channel_join",
        "ts": "1584438573.010100",
        "user": "UUP8XJTH8",
        "text": "<@UUP8XJTH8> has joined the channel"
    },
    {
        "type": "message",
        "subtype": "channel_join",
        "ts": "1584461530.010300",
        "user": "UV7CJF9SN",
        "text": "<@UV7CJF9SN> has joined the channel"
    },
    {
        "type": "message",
        "subtype": "channel_join",
        "ts": "1584462022.010500",
        "user": "U0105Q00ACQ",
        "text": "<@U0105Q00ACQ> has joined the channel"
    }
]