[
    {
        "type": "message",
        "subtype": "channel_name",
        "ts": "1586876894.000100",
        "user": "U011XCJJ7KK",
        "text": "<@U011XCJJ7KK> has renamed the channel from \"digitaldistancingcontrol\" to \"proj-digitaldistancingcontrol\"",
        "old_name": "digitaldistancingcontrol",
        "name": "proj-digitaldistancingcontrol"
    }
]