[
    {
        "type": "message",
        "subtype": "channel_join",
        "ts": "1585159537.000300",
        "user": "UV3746ST1",
        "text": "<@UV3746ST1> has joined the channel",
        "reactions": [
            {
                "name": "wave",
                "users": [
                    "UV78JAX0S"
                ],
                "count": 1
            }
        ]
    }
]