[
    {
        "type": "message",
        "subtype": "thread_broadcast",
        "text": "Second one is my fav :)",
        "user": "UV3746ST1",
        "ts": "1586348949.017100",
        "thread_ts": "1586288548.010300",
        "root": {
            "client_msg_id": "746dd26a-3b6d-4e6d-8efc-c85ec90b5d4d",
            "type": "message",
            "text": "Some very preliminary sketches! I'd love to hear what draws you in and away, as well as anything else you'd like to see :slightly_smiling_face:",
            "user": "UV5C2TFCH",
            "ts": "1586288548.010300",
            "team": "TUU48M0T1",
            "blocks": [
                {
                    "type": "rich_text",
                    "block_id": "N9G9o",
                    "elements": [
                        {
                            "type": "rich_text_section",
                            "elements": [
                                {
                                    "type": "text",
                                    "text": "Some very preliminary sketches! I'd love to hear what draws you in and away, as well as anything else you'd like to see "
                                },
                                {
                                    "type": "emoji",
                                    "name": "slightly_smiling_face"
                                }
                            ]
                        }
                    ]
                }
            ],
            "thread_ts": "1586288548.010300",
            "reply_count": 3,
            "reply_users_count": 2,
            "latest_reply": "1586360504.017400",
            "reply_users": [
                "UV20M5HGQ",
                "UV3746ST1"
            ],
            "subscribed": false
        },
        "blocks": [
            {
                "type": "rich_text",
                "block_id": "MryDr",
                "elements": [
                    {
                        "type": "rich_text_section",
                        "elements": [
                            {
                                "type": "text",
                                "text": "Second one is my fav :)"
                            }
                        ]
                    }
                ]
            }
        ],
        "client_msg_id": "81b426ce-ba83-45c2-82af-f1c004bc23a5"
    },
    {
        "client_msg_id": "beb488cd-0589-4f72-a764-03a3dad4d9fc",
        "type": "message",
        "text": "<@UV5C2TFCH> would we be able to use the 2nd one? The RNA sensors will be sensing viral RNA amplicons and not the virus directly, but as a visual representation I think it is easier to understand the goal of our project by having the representation of the virus and the RNA sensors.",
        "user": "UV20M5HGQ",
        "ts": "1586360504.017400",
        "team": "TUU48M0T1",
        "user_team": "TUU48M0T1",
        "source_team": "TUU48M0T1",
        "user_profile": {
            "avatar_hash": "de7ea7b7e14e",
            "image_72": "https:\/\/avatars.slack-edge.com\/2020-03-11\/981865374050_de7ea7b7e14e7b4316b9_72.jpg",
            "first_name": "",
            "real_name": "Vesta Korniakova",
            "display_name": "Vesta Korniakova",
            "team": "TUU48M0T1",
            "name": "riboswitchvesta",
            "is_restricted": false,
            "is_ultra_restricted": false
        },
        "blocks": [
            {
                "type": "rich_text",
                "block_id": "pz0qQ",
                "elements": [
                    {
                        "type": "rich_text_section",
                        "elements": [
                            {
                                "type": "user",
                                "user_id": "UV5C2TFCH"
                            },
                            {
                                "type": "text",
                                "text": " would we be able to use the 2nd one? The RNA sensors will be sensing viral RNA amplicons and not the virus directly, but as a visual representation I think it is easier to understand the goal of our project by having the representation of the virus and the RNA sensors."
                            }
                        ]
                    }
                ]
            }
        ],
        "thread_ts": "1586288548.010300",
        "parent_user_id": "UV5C2TFCH",
        "reactions": [
            {
                "name": "+1",
                "users": [
                    "UV5C2TFCH"
                ],
                "count": 1
            }
        ]
    },
    {
        "client_msg_id": "662F3E0C-B800-46F5-988B-AC779C5762C0",
        "type": "message",
        "text": "Will get back to you all shortly--combining the second one with Rachel's space filling idea--this is exciting! Thanks for the inputs :) ",
        "user": "UV5C2TFCH",
        "ts": "1586360774.019100",
        "team": "TUU48M0T1",
        "user_team": "TUU48M0T1",
        "source_team": "TUU48M0T1",
        "user_profile": {
            "avatar_hash": "a4f88622caa0",
            "image_72": "https:\/\/avatars.slack-edge.com\/2020-03-17\/997014072945_a4f88622caa0f9ec4968_72.jpg",
            "first_name": "",
            "real_name": "Sangita Vasikaran",
            "display_name": "",
            "team": "TUU48M0T1",
            "name": "sangitavv",
            "is_restricted": false,
            "is_ultra_restricted": false
        },
        "blocks": [
            {
                "type": "rich_text",
                "block_id": "3iPR",
                "elements": [
                    {
                        "type": "rich_text_section",
                        "elements": [
                            {
                                "type": "text",
                                "text": "Will get back to you all shortly--combining the second one with Rachel's space filling idea--this is exciting! Thanks for the inputs :) "
                            }
                        ]
                    }
                ]
            }
        ],
        "reactions": [
            {
                "name": "heart",
                "users": [
                    "UV20M5HGQ",
                    "UV3URUKK5",
                    "UV3746ST1"
                ],
                "count": 3
            }
        ]
    },
    {
        "client_msg_id": "ee7f8493-2288-4806-bc7e-236dda67d25b",
        "type": "message",
        "text": "thanks <@UV5C2TFCH> !",
        "user": "UV3746ST1",
        "ts": "1586365919.020000",
        "team": "TUU48M0T1",
        "user_team": "TUU48M0T1",
        "source_team": "TUU48M0T1",
        "user_profile": {
            "avatar_hash": "a83ec6cd1d1a",
            "image_72": "https:\/\/avatars.slack-edge.com\/2020-03-07\/987381527184_a83ec6cd1d1ab6a03a2c_72.jpg",
            "first_name": "Anibal",
            "real_name": "Anibal",
            "display_name": "Anibal",
            "team": "TUU48M0T1",
            "name": "elanibal",
            "is_restricted": false,
            "is_ultra_restricted": false
        },
        "blocks": [
            {
                "type": "rich_text",
                "block_id": "iXV",
                "elements": [
                    {
                        "type": "rich_text_section",
                        "elements": [
                            {
                                "type": "text",
                                "text": "thanks "
                            },
                            {
                                "type": "user",
                                "user_id": "UV5C2TFCH"
                            },
                            {
                                "type": "text",
                                "text": " !"
                            }
                        ]
                    }
                ]
            }
        ],
        "reactions": [
            {
                "name": "heart",
                "users": [
                    "UV5C2TFCH"
                ],
                "count": 1
            }
        ]
    },
    {
        "client_msg_id": "61456ba1-1ebf-4001-a936-a00f9136c18d",
        "type": "message",
        "text": "On board with the visual comprehension point of depicting the virus rather than the RNA!  Here's  an iteration of the space-filling model--not to scale haha, let me know what'd be good to edit :slightly_smiling_face:",
        "user": "UV5C2TFCH",
        "ts": "1586369218.022400",
        "team": "TUU48M0T1",
        "user_team": "TUU48M0T1",
        "source_team": "TUU48M0T1",
        "user_profile": {
            "avatar_hash": "a4f88622caa0",
            "image_72": "https:\/\/avatars.slack-edge.com\/2020-03-17\/997014072945_a4f88622caa0f9ec4968_72.jpg",
            "first_name": "",
            "real_name": "Sangita Vasikaran",
            "display_name": "",
            "team": "TUU48M0T1",
            "name": "sangitavv",
            "is_restricted": false,
            "is_ultra_restricted": false
        },
        "blocks": [
            {
                "type": "rich_text",
                "block_id": "B5arA",
                "elements": [
                    {
                        "type": "rich_text_section",
                        "elements": [
                            {
                                "type": "text",
                                "text": "On board with the visual comprehension point of depicting the virus rather than the RNA!  Here's  an iteration of the space-filling model--not to scale haha, let me know what'd be good to edit "
                            },
                            {
                                "type": "emoji",
                                "name": "slightly_smiling_face"
                            }
                        ]
                    }
                ]
            }
        ],
        "thread_ts": "1586369218.022400",
        "reply_count": 1,
        "reply_users_count": 1,
        "latest_reply": "1586447179.032000",
        "reply_users": [
            "UV20M5HGQ"
        ],
        "replies": [
            {
                "user": "UV20M5HGQ",
                "ts": "1586447179.032000"
            }
        ],
        "subscribed": false
    },
    {
        "type": "message",
        "text": "",
        "files": [
            {
                "id": "F011P86T0KT",
                "created": 1586369221,
                "timestamp": 1586369221,
                "name": "image.png",
                "title": "image.png",
                "mimetype": "image\/png",
                "filetype": "png",
                "pretty_type": "PNG",
                "user": "UV5C2TFCH",
                "editable": false,
                "size": 440797,
                "mode": "hosted",
                "is_external": false,
                "external_type": "",
                "is_public": true,
                "public_url_shared": false,
                "display_as_bot": false,
                "username": "",
                "url_private": "https:\/\/files.slack.com\/files-pri\/TUU48M0T1-F011P86T0KT\/image.png?t=xoxe-980144714919-1133254701825-1120841107731-daf595b5a7d6c9028b0b02a925032e36",
                "url_private_download": "https:\/\/files.slack.com\/files-pri\/TUU48M0T1-F011P86T0KT\/download\/image.png?t=xoxe-980144714919-1133254701825-1120841107731-daf595b5a7d6c9028b0b02a925032e36",
                "thumb_64": "https:\/\/files.slack.com\/files-tmb\/TUU48M0T1-F011P86T0KT-bea27cfebd\/image_64.png?t=xoxe-980144714919-1133254701825-1120841107731-daf595b5a7d6c9028b0b02a925032e36",
                "thumb_80": "https:\/\/files.slack.com\/files-tmb\/TUU48M0T1-F011P86T0KT-bea27cfebd\/image_80.png?t=xoxe-980144714919-1133254701825-1120841107731-daf595b5a7d6c9028b0b02a925032e36",
                "thumb_360": "https:\/\/files.slack.com\/files-tmb\/TUU48M0T1-F011P86T0KT-bea27cfebd\/image_360.png?t=xoxe-980144714919-1133254701825-1120841107731-daf595b5a7d6c9028b0b02a925032e36",
                "thumb_360_w": 360,
                "thumb_360_h": 205,
                "thumb_480": "https:\/\/files.slack.com\/files-tmb\/TUU48M0T1-F011P86T0KT-bea27cfebd\/image_480.png?t=xoxe-980144714919-1133254701825-1120841107731-daf595b5a7d6c9028b0b02a925032e36",
                "thumb_480_w": 480,
                "thumb_480_h": 274,
                "thumb_160": "https:\/\/files.slack.com\/files-tmb\/TUU48M0T1-F011P86T0KT-bea27cfebd\/image_160.png?t=xoxe-980144714919-1133254701825-1120841107731-daf595b5a7d6c9028b0b02a925032e36",
                "thumb_720": "https:\/\/files.slack.com\/files-tmb\/TUU48M0T1-F011P86T0KT-bea27cfebd\/image_720.png?t=xoxe-980144714919-1133254701825-1120841107731-daf595b5a7d6c9028b0b02a925032e36",
                "thumb_720_w": 720,
                "thumb_720_h": 410,
                "thumb_800": "https:\/\/files.slack.com\/files-tmb\/TUU48M0T1-F011P86T0KT-bea27cfebd\/image_800.png?t=xoxe-980144714919-1133254701825-1120841107731-daf595b5a7d6c9028b0b02a925032e36",
                "thumb_800_w": 800,
                "thumb_800_h": 456,
                "image_exif_rotation": 1,
                "original_w": 800,
                "original_h": 456,
                "thumb_tiny": "AwAbADBGPNPhbIKhwufWoidxwO9OVAAoKMcnGcZpFWLoGAcZye9Pixg4OajHGAo9hzUwPp+VMkdRTQxzg49c06gDL8oq5QA7j37GrKROiBRz649asAYbimnpnvQtBt3IijdT9aQBh0BqVRnGe1SYHpTuTYgKyN1GferCjCgelFGaLjP\/2Q==",
                "permalink": "https:\/\/open-covid19.slack.com\/files\/UV5C2TFCH\/F011P86T0KT\/image.png",
                "permalink_public": "https:\/\/slack-files.com\/TUU48M0T1-F011P86T0KT-18bfda0960",
                "is_starred": false,
                "has_rich_preview": false
            }
        ],
        "upload": true,
        "user": "UV5C2TFCH",
        "display_as_bot": false,
        "ts": "1586369226.022500",
        "client_msg_id": "2293ffdb-3320-4a32-b542-fdb2cb6d6f18"
    },
    {
        "client_msg_id": "c076ea98-fde1-4037-8842-505586a8811e",
        "type": "message",
        "text": "(this is directly from the paper haha, if there is a more applicable toehold\/ribozyme you'd like to see instead that would be great as well!)",
        "user": "UV5C2TFCH",
        "ts": "1586369267.023400",
        "team": "TUU48M0T1",
        "user_team": "TUU48M0T1",
        "source_team": "TUU48M0T1",
        "user_profile": {
            "avatar_hash": "a4f88622caa0",
            "image_72": "https:\/\/avatars.slack-edge.com\/2020-03-17\/997014072945_a4f88622caa0f9ec4968_72.jpg",
            "first_name": "",
            "real_name": "Sangita Vasikaran",
            "display_name": "",
            "team": "TUU48M0T1",
            "name": "sangitavv",
            "is_restricted": false,
            "is_ultra_restricted": false
        },
        "blocks": [
            {
                "type": "rich_text",
                "block_id": "7nB\/Z",
                "elements": [
                    {
                        "type": "rich_text_section",
                        "elements": [
                            {
                                "type": "text",
                                "text": "(this is directly from the paper haha, if there is a more applicable toehold\/ribozyme you'd like to see instead that would be great as well!)"
                            }
                        ]
                    }
                ]
            }
        ]
    },
    {
        "client_msg_id": "85f5cf2f-2467-42cf-aefd-133a313fb719",
        "type": "message",
        "text": "Nice! Have you checked weather those intial images are Creative Commons protrcted or have any other copy-right ?",
        "user": "UV3746ST1",
        "ts": "1586371166.025100",
        "team": "TUU48M0T1",
        "user_team": "TUU48M0T1",
        "source_team": "TUU48M0T1",
        "user_profile": {
            "avatar_hash": "a83ec6cd1d1a",
            "image_72": "https:\/\/avatars.slack-edge.com\/2020-03-07\/987381527184_a83ec6cd1d1ab6a03a2c_72.jpg",
            "first_name": "Anibal",
            "real_name": "Anibal",
            "display_name": "Anibal",
            "team": "TUU48M0T1",
            "name": "elanibal",
            "is_restricted": false,
            "is_ultra_restricted": false
        },
        "edited": {
            "user": "UV3746ST1",
            "ts": "1586371215.000000"
        },
        "blocks": [
            {
                "type": "rich_text",
                "block_id": "Zi=in",
                "elements": [
                    {
                        "type": "rich_text_section",
                        "elements": [
                            {
                                "type": "text",
                                "text": "Nice! Have you checked weather those intial images are Creative Commons protrcted or have any other copy-right ?"
                            }
                        ]
                    }
                ]
            }
        ],
        "thread_ts": "1586371166.025100",
        "reply_count": 7,
        "reply_users_count": 3,
        "latest_reply": "1586471282.043700",
        "reply_users": [
            "UV5C2TFCH",
            "UV3746ST1",
            "UV20M5HGQ"
        ],
        "replies": [
            {
                "user": "UV5C2TFCH",
                "ts": "1586448317.032200"
            },
            {
                "user": "UV3746ST1",
                "ts": "1586452423.036400"
            },
            {
                "user": "UV20M5HGQ",
                "ts": "1586453568.037000"
            },
            {
                "user": "UV5C2TFCH",
                "ts": "1586467718.042800"
            },
            {
                "user": "UV5C2TFCH",
                "ts": "1586468087.043000"
            },
            {
                "user": "UV20M5HGQ",
                "ts": "1586470582.043500"
            },
            {
                "user": "UV20M5HGQ",
                "ts": "1586471282.043700"
            }
        ],
        "subscribed": false
    },
    {
        "client_msg_id": "1b649b64-2409-4817-8379-874eb989fef0",
        "type": "message",
        "text": "Is the plan definitely to buy the cell-free extract? Or does anyone have good, inexpensive cell-free extract production methods?",
        "user": "UUNGFHSV8",
        "ts": "1586403838.026000",
        "team": "TUU48M0T1",
        "user_team": "TUU48M0T1",
        "source_team": "TUU48M0T1",
        "user_profile": {
            "avatar_hash": "1c55ee32397a",
            "image_72": "https:\/\/avatars.slack-edge.com\/2020-03-07\/987349161984_1c55ee32397a85a87ec4_72.png",
            "first_name": "Isaac",
            "real_name": "Isaac Larkin",
            "display_name": "Isaac Larkin",
            "team": "TUU48M0T1",
            "name": "eyesmo",
            "is_restricted": false,
            "is_ultra_restricted": false
        },
        "blocks": [
            {
                "type": "rich_text",
                "block_id": "7amH",
                "elements": [
                    {
                        "type": "rich_text_section",
                        "elements": [
                            {
                                "type": "text",
                                "text": "Is the plan definitely to buy the cell-free extract? Or does anyone have good, inexpensive cell-free extract production methods?"
                            }
                        ]
                    }
                ]
            }
        ],
        "thread_ts": "1586403838.026000",
        "reply_count": 1,
        "reply_users_count": 1,
        "latest_reply": "1586443647.031000",
        "reply_users": [
            "UV20M5HGQ"
        ],
        "replies": [
            {
                "user": "UV20M5HGQ",
                "ts": "1586443647.031000"
            }
        ],
        "subscribed": false
    },
    {
        "client_msg_id": "177ce7ee-e93c-4398-8274-5ff9b3301879",
        "type": "message",
        "text": "<@UUNGFHSV8> We are going to do both and compare! <https:\/\/app.jogl.io\/project\/188>",
        "user": "UV3URUKK5",
        "ts": "1586411229.026500",
        "team": "TUU48M0T1",
        "user_team": "TUU48M0T1",
        "source_team": "TUU48M0T1",
        "user_profile": {
            "avatar_hash": "64c99c2ed974",
            "image_72": "https:\/\/avatars.slack-edge.com\/2020-03-15\/1000999702004_64c99c2ed97497e08ca9_72.jpg",
            "first_name": "",
            "real_name": "Francisco Javier Quero",
            "display_name": "Francisco Javier Quero",
            "team": "TUU48M0T1",
            "name": "franxi2953",
            "is_restricted": false,
            "is_ultra_restricted": false
        },
        "attachments": [
            {
                "title": "JOGL - Just One Giant Lab",
                "title_link": "https:\/\/app.jogl.io\/project\/188",
                "text": "JOGL helps sync humanity onto solving our most important social &amp; environmental problems using open science, responsible innovation &amp; continuous learning.",
                "fallback": "JOGL - Just One Giant Lab",
                "thumb_url": "https:\/\/app.jogl.io\/planet.jpg",
                "from_url": "https:\/\/app.jogl.io\/project\/188",
                "thumb_width": 2049,
                "thumb_height": 1011,
                "service_icon": "https:\/\/app.jogl.io\/favicon.ico",
                "service_name": "app.jogl.io",
                "id": 1,
                "original_url": "https:\/\/app.jogl.io\/project\/188"
            }
        ],
        "blocks": [
            {
                "type": "rich_text",
                "block_id": "jXUJ",
                "elements": [
                    {
                        "type": "rich_text_section",
                        "elements": [
                            {
                                "type": "user",
                                "user_id": "UUNGFHSV8"
                            },
                            {
                                "type": "text",
                                "text": " We are going to do both and compare! "
                            },
                            {
                                "type": "link",
                                "url": "https:\/\/app.jogl.io\/project\/188"
                            }
                        ]
                    }
                ]
            }
        ],
        "reactions": [
            {
                "name": "the_horns",
                "users": [
                    "UUNGFHSV8"
                ],
                "count": 1
            }
        ]
    }
]