[
    {
        "client_msg_id": "ad831741-dbfc-4023-8b72-b4e57d60aa50",
        "type": "message",
        "text": "It will be good to have a friendlier better banner for this the JOGL page. Any of you have designer skills? :slightly_smiling_face:",
        "user": "UV3746ST1",
        "ts": "1586271740.007600",
        "team": "TUU48M0T1",
        "user_team": "TUU48M0T1",
        "source_team": "TUU48M0T1",
        "user_profile": {
            "avatar_hash": "a83ec6cd1d1a",
            "image_72": "https:\/\/avatars.slack-edge.com\/2020-03-07\/987381527184_a83ec6cd1d1ab6a03a2c_72.jpg",
            "first_name": "Anibal",
            "real_name": "Anibal",
            "display_name": "Anibal",
            "team": "TUU48M0T1",
            "name": "elanibal",
            "is_restricted": false,
            "is_ultra_restricted": false
        },
        "blocks": [
            {
                "type": "rich_text",
                "block_id": "MzS3O",
                "elements": [
                    {
                        "type": "rich_text_section",
                        "elements": [
                            {
                                "type": "text",
                                "text": "It will be good to have a friendlier better banner for this the JOGL page. Any of you have designer skills? "
                            },
                            {
                                "type": "emoji",
                                "name": "slightly_smiling_face"
                            }
                        ]
                    }
                ]
            }
        ]
    },
    {
        "client_msg_id": "061297b5-8dda-48be-bc75-e388de321252",
        "type": "message",
        "text": "haha, i can help with design! what kinds of things do you mean by friendlier?",
        "user": "UV5C2TFCH",
        "ts": "1586283782.008000",
        "team": "TUU48M0T1",
        "user_team": "TUU48M0T1",
        "source_team": "TUU48M0T1",
        "user_profile": {
            "avatar_hash": "a4f88622caa0",
            "image_72": "https:\/\/avatars.slack-edge.com\/2020-03-17\/997014072945_a4f88622caa0f9ec4968_72.jpg",
            "first_name": "",
            "real_name": "Sangita Vasikaran",
            "display_name": "",
            "team": "TUU48M0T1",
            "name": "sangitavv",
            "is_restricted": false,
            "is_ultra_restricted": false
        },
        "blocks": [
            {
                "type": "rich_text",
                "block_id": "yUUYi",
                "elements": [
                    {
                        "type": "rich_text_section",
                        "elements": [
                            {
                                "type": "text",
                                "text": "haha, i can help with design! what kinds of things do you mean by friendlier?"
                            }
                        ]
                    }
                ]
            }
        ]
    },
    {
        "client_msg_id": "7e4d3c09-4922-43fa-ba76-600c38b26f04",
        "type": "message",
        "text": "a cooler ahahhaa",
        "user": "UV3URUKK5",
        "ts": "1586283926.008200",
        "team": "TUU48M0T1",
        "user_team": "TUU48M0T1",
        "source_team": "TUU48M0T1",
        "user_profile": {
            "avatar_hash": "64c99c2ed974",
            "image_72": "https:\/\/avatars.slack-edge.com\/2020-03-15\/1000999702004_64c99c2ed97497e08ca9_72.jpg",
            "first_name": "",
            "real_name": "Francisco Javier Quero",
            "display_name": "Francisco Javier Quero",
            "team": "TUU48M0T1",
            "name": "franxi2953",
            "is_restricted": false,
            "is_ultra_restricted": false
        },
        "blocks": [
            {
                "type": "rich_text",
                "block_id": "hJy",
                "elements": [
                    {
                        "type": "rich_text_section",
                        "elements": [
                            {
                                "type": "text",
                                "text": "a cooler ahahhaa"
                            }
                        ]
                    }
                ]
            }
        ]
    },
    {
        "client_msg_id": "c2357472-c7d0-4c80-90c0-5cb642df6c24",
        "type": "message",
        "text": "something to put as the image of the project!",
        "user": "UV3URUKK5",
        "ts": "1586283935.008500",
        "team": "TUU48M0T1",
        "user_team": "TUU48M0T1",
        "source_team": "TUU48M0T1",
        "user_profile": {
            "avatar_hash": "64c99c2ed974",
            "image_72": "https:\/\/avatars.slack-edge.com\/2020-03-15\/1000999702004_64c99c2ed97497e08ca9_72.jpg",
            "first_name": "",
            "real_name": "Francisco Javier Quero",
            "display_name": "Francisco Javier Quero",
            "team": "TUU48M0T1",
            "name": "franxi2953",
            "is_restricted": false,
            "is_ultra_restricted": false
        },
        "blocks": [
            {
                "type": "rich_text",
                "block_id": "pdlF",
                "elements": [
                    {
                        "type": "rich_text_section",
                        "elements": [
                            {
                                "type": "text",
                                "text": "something to put as the image of the project!"
                            }
                        ]
                    }
                ]
            }
        ]
    },
    {
        "client_msg_id": "778d7ffc-cd5b-452f-a46d-36560357455c",
        "type": "message",
        "text": "a lysed microbe with glowing stuff and RNA spillin out would be cool!",
        "user": "UV78JAX0S",
        "ts": "1586284953.008900",
        "team": "TUU48M0T1",
        "user_team": "TUU48M0T1",
        "source_team": "TUU48M0T1",
        "user_profile": {
            "avatar_hash": "ab643489965e",
            "image_72": "https:\/\/avatars.slack-edge.com\/2020-03-17\/996174739571_ab643489965e0031c49d_72.png",
            "first_name": "Khalid",
            "real_name": "Khalid K. Alam",
            "display_name": "Khalid K. Alam",
            "team": "TUU48M0T1",
            "name": "khalid",
            "is_restricted": false,
            "is_ultra_restricted": false
        },
        "blocks": [
            {
                "type": "rich_text",
                "block_id": "+K1y",
                "elements": [
                    {
                        "type": "rich_text_section",
                        "elements": [
                            {
                                "type": "text",
                                "text": "a lysed microbe with glowing stuff and RNA spillin out would be cool!"
                            }
                        ]
                    }
                ]
            }
        ],
        "reactions": [
            {
                "name": "open_mouth",
                "users": [
                    "UV5C2TFCH",
                    "UV3746ST1"
                ],
                "count": 2
            },
            {
                "name": "sunglasses",
                "users": [
                    "UV20M5HGQ",
                    "UV3746ST1"
                ],
                "count": 2
            }
        ]
    },
    {
        "client_msg_id": "746dd26a-3b6d-4e6d-8efc-c85ec90b5d4d",
        "type": "message",
        "text": "Some very preliminary sketches! I'd love to hear what draws you in and away, as well as anything else you'd like to see :slightly_smiling_face:",
        "user": "UV5C2TFCH",
        "ts": "1586288548.010300",
        "team": "TUU48M0T1",
        "user_team": "TUU48M0T1",
        "source_team": "TUU48M0T1",
        "user_profile": {
            "avatar_hash": "a4f88622caa0",
            "image_72": "https:\/\/avatars.slack-edge.com\/2020-03-17\/997014072945_a4f88622caa0f9ec4968_72.jpg",
            "first_name": "",
            "real_name": "Sangita Vasikaran",
            "display_name": "",
            "team": "TUU48M0T1",
            "name": "sangitavv",
            "is_restricted": false,
            "is_ultra_restricted": false
        },
        "blocks": [
            {
                "type": "rich_text",
                "block_id": "N9G9o",
                "elements": [
                    {
                        "type": "rich_text_section",
                        "elements": [
                            {
                                "type": "text",
                                "text": "Some very preliminary sketches! I'd love to hear what draws you in and away, as well as anything else you'd like to see "
                            },
                            {
                                "type": "emoji",
                                "name": "slightly_smiling_face"
                            }
                        ]
                    }
                ]
            }
        ],
        "thread_ts": "1586288548.010300",
        "reply_count": 3,
        "reply_users_count": 2,
        "latest_reply": "1586360504.017400",
        "reply_users": [
            "UV20M5HGQ",
            "UV3746ST1"
        ],
        "replies": [
            {
                "user": "UV20M5HGQ",
                "ts": "1586294649.016300"
            },
            {
                "user": "UV3746ST1",
                "ts": "1586348949.017100"
            },
            {
                "user": "UV20M5HGQ",
                "ts": "1586360504.017400"
            }
        ],
        "subscribed": false,
        "reactions": [
            {
                "name": "+1",
                "users": [
                    "UV3746ST1"
                ],
                "count": 1
            },
            {
                "name": "slightly_smiling_face",
                "users": [
                    "UV20M5HGQ"
                ],
                "count": 1
            }
        ]
    },
    {
        "type": "message",
        "text": "",
        "files": [
            {
                "id": "F011VCG1G8Y",
                "created": 1586288583,
                "timestamp": 1586288583,
                "name": "opencovid.pptx",
                "title": "opencovid.pptx",
                "mimetype": "application\/vnd.openxmlformats-officedocument.presentationml.presentation",
                "filetype": "pptx",
                "pretty_type": "PowerPoint Presentation",
                "user": "UV5C2TFCH",
                "editable": false,
                "size": 15666641,
                "mode": "hosted",
                "is_external": false,
                "external_type": "",
                "is_public": true,
                "public_url_shared": false,
                "display_as_bot": false,
                "username": "",
                "url_private": "https:\/\/files.slack.com\/files-pri\/TUU48M0T1-F011VCG1G8Y\/opencovid.pptx?t=xoxe-980144714919-1133254701825-1120841107731-daf595b5a7d6c9028b0b02a925032e36",
                "url_private_download": "https:\/\/files.slack.com\/files-pri\/TUU48M0T1-F011VCG1G8Y\/download\/opencovid.pptx?t=xoxe-980144714919-1133254701825-1120841107731-daf595b5a7d6c9028b0b02a925032e36",
                "converted_pdf": "https:\/\/files.slack.com\/files-tmb\/TUU48M0T1-F011VCG1G8Y-093cf368bc\/opencovid_converted.pdf?t=xoxe-980144714919-1133254701825-1120841107731-daf595b5a7d6c9028b0b02a925032e36",
                "thumb_pdf": "https:\/\/files.slack.com\/files-tmb\/TUU48M0T1-F011VCG1G8Y-093cf368bc\/opencovid_thumb_pdf.png?t=xoxe-980144714919-1133254701825-1120841107731-daf595b5a7d6c9028b0b02a925032e36",
                "thumb_pdf_w": 1467,
                "thumb_pdf_h": 825,
                "permalink": "https:\/\/open-covid19.slack.com\/files\/UV5C2TFCH\/F011VCG1G8Y\/opencovid.pptx",
                "permalink_public": "https:\/\/slack-files.com\/TUU48M0T1-F011VCG1G8Y-ad099c552e",
                "is_starred": false,
                "has_rich_preview": false
            }
        ],
        "upload": true,
        "user": "UV5C2TFCH",
        "display_as_bot": false,
        "ts": "1586288596.010400",
        "client_msg_id": "db52155b-b777-4791-9eb5-da353b302a8c"
    },
    {
        "client_msg_id": "baaba86b-59fd-41a4-9597-f83d7f8e21ea",
        "type": "message",
        "text": "personally I like the second one better. But I'd also be aware because probably some of the pictures you used to start with could have property rights.",
        "user": "UV3746ST1",
        "ts": "1586288931.012500",
        "team": "TUU48M0T1",
        "user_team": "TUU48M0T1",
        "source_team": "TUU48M0T1",
        "user_profile": {
            "avatar_hash": "a83ec6cd1d1a",
            "image_72": "https:\/\/avatars.slack-edge.com\/2020-03-07\/987381527184_a83ec6cd1d1ab6a03a2c_72.jpg",
            "first_name": "Anibal",
            "real_name": "Anibal",
            "display_name": "Anibal",
            "team": "TUU48M0T1",
            "name": "elanibal",
            "is_restricted": false,
            "is_ultra_restricted": false
        },
        "blocks": [
            {
                "type": "rich_text",
                "block_id": "s59",
                "elements": [
                    {
                        "type": "rich_text_section",
                        "elements": [
                            {
                                "type": "text",
                                "text": "personally I like the second one better. But I'd also be aware because probably some of the pictures you used to start with could have property rights."
                            }
                        ]
                    }
                ]
            }
        ],
        "reactions": [
            {
                "name": "+1",
                "users": [
                    "UV5C2TFCH"
                ],
                "count": 1
            }
        ]
    },
    {
        "client_msg_id": "70c710ed-c5fe-4f53-bab2-a353e1e3e30e",
        "type": "message",
        "text": "whoa, very cool designs!",
        "user": "UV78JAX0S",
        "ts": "1586290572.012700",
        "team": "TUU48M0T1",
        "user_team": "TUU48M0T1",
        "source_team": "TUU48M0T1",
        "user_profile": {
            "avatar_hash": "ab643489965e",
            "image_72": "https:\/\/avatars.slack-edge.com\/2020-03-17\/996174739571_ab643489965e0031c49d_72.png",
            "first_name": "Khalid",
            "real_name": "Khalid K. Alam",
            "display_name": "Khalid K. Alam",
            "team": "TUU48M0T1",
            "name": "khalid",
            "is_restricted": false,
            "is_ultra_restricted": false
        },
        "blocks": [
            {
                "type": "rich_text",
                "block_id": "qqwSd",
                "elements": [
                    {
                        "type": "rich_text_section",
                        "elements": [
                            {
                                "type": "text",
                                "text": "whoa, very cool designs!"
                            }
                        ]
                    }
                ]
            }
        ],
        "reactions": [
            {
                "name": "100",
                "users": [
                    "UV3746ST1"
                ],
                "count": 1
            },
            {
                "name": "heart",
                "users": [
                    "UV5C2TFCH"
                ],
                "count": 1
            }
        ]
    },
    {
        "client_msg_id": "4404134f-44a1-4ae2-b71d-198d44a67b7d",
        "type": "message",
        "text": "really nice! <@UV5C2TFCH> I also wonder if you might also be inspired by this <https:\/\/www.researchgate.net\/publication\/316690276_DSSR-enhanced_visualization_of_nucleic_acid_structures_in_Jmol\/figures?lo=1>   in a way the toehold and ribozymes sensors are acting like antibodies for detection - as Fran and I discussed together the other day :slightly_smiling_face: - so maybe space-filling models would be even better (like figure 3B in the above link), not just for the virus.  wdyt?",
        "user": "UV1A22N3W",
        "ts": "1586293814.015800",
        "team": "TUU48M0T1",
        "user_team": "TUU48M0T1",
        "source_team": "TUU48M0T1",
        "user_profile": {
            "avatar_hash": "71f827776ad6",
            "image_72": "https:\/\/avatars.slack-edge.com\/2020-03-09\/988125642964_71f827776ad610af05a2_72.jpg",
            "first_name": "",
            "real_name": "RachelA",
            "display_name": "RachelA",
            "team": "TUU48M0T1",
            "name": "raronoff",
            "is_restricted": false,
            "is_ultra_restricted": false
        },
        "blocks": [
            {
                "type": "rich_text",
                "block_id": "8ZPZ=",
                "elements": [
                    {
                        "type": "rich_text_section",
                        "elements": [
                            {
                                "type": "text",
                                "text": "really nice! "
                            },
                            {
                                "type": "user",
                                "user_id": "UV5C2TFCH"
                            },
                            {
                                "type": "text",
                                "text": " I also wonder if you might also be inspired by this "
                            },
                            {
                                "type": "link",
                                "url": "https:\/\/www.researchgate.net\/publication\/316690276_DSSR-enhanced_visualization_of_nucleic_acid_structures_in_Jmol\/figures?lo=1"
                            },
                            {
                                "type": "text",
                                "text": "   in a way the toehold and ribozymes sensors are acting like antibodies for detection - as Fran and I discussed together the other day "
                            },
                            {
                                "type": "emoji",
                                "name": "slightly_smiling_face"
                            },
                            {
                                "type": "text",
                                "text": " - so maybe space-filling models would be even better (like figure 3B in the above link), not just for the virus.  wdyt?"
                            }
                        ]
                    }
                ]
            }
        ],
        "reactions": [
            {
                "name": "+1",
                "users": [
                    "UV3746ST1",
                    "UV3URUKK5",
                    "UV5C2TFCH"
                ],
                "count": 3
            },
            {
                "name": "bow",
                "users": [
                    "UV5C2TFCH"
                ],
                "count": 1
            }
        ]
    },
    {
        "client_msg_id": "877032e5-f95c-49c9-8080-ba96e55e87d7",
        "type": "message",
        "text": "The first 2 are my favs! Thanks Sangita :slightly_smiling_face:",
        "user": "UV20M5HGQ",
        "ts": "1586294649.016300",
        "team": "TUU48M0T1",
        "user_team": "TUU48M0T1",
        "source_team": "TUU48M0T1",
        "user_profile": {
            "avatar_hash": "de7ea7b7e14e",
            "image_72": "https:\/\/avatars.slack-edge.com\/2020-03-11\/981865374050_de7ea7b7e14e7b4316b9_72.jpg",
            "first_name": "",
            "real_name": "Vesta Korniakova",
            "display_name": "Vesta Korniakova",
            "team": "TUU48M0T1",
            "name": "riboswitchvesta",
            "is_restricted": false,
            "is_ultra_restricted": false
        },
        "blocks": [
            {
                "type": "rich_text",
                "block_id": "m9bs",
                "elements": [
                    {
                        "type": "rich_text_section",
                        "elements": [
                            {
                                "type": "text",
                                "text": "The first 2 are my favs! Thanks Sangita "
                            },
                            {
                                "type": "emoji",
                                "name": "slightly_smiling_face"
                            }
                        ]
                    }
                ]
            }
        ],
        "thread_ts": "1586288548.010300",
        "parent_user_id": "UV5C2TFCH"
    },
    {
        "type": "message",
        "subtype": "channel_join",
        "ts": "1586325806.016600",
        "user": "U011BJWBFDM",
        "text": "<@U011BJWBFDM> has joined the channel",
        "reactions": [
            {
                "name": "heart",
                "users": [
                    "UV3URUKK5"
                ],
                "count": 1
            }
        ]
    }
]