[
    {
        "client_msg_id": "2a00b51f-ad16-471e-9dd0-aadf69bdb059",
        "type": "message",
        "text": "Will try to take a look whenever I have downtime on my trip",
        "user": "UUUEFQW8N",
        "ts": "1583853164.004000",
        "team": "TUU48M0T1",
        "user_team": "TUU48M0T1",
        "source_team": "TUU48M0T1",
        "user_profile": {
            "avatar_hash": "5660f4d7fe91",
            "image_72": "https:\/\/avatars.slack-edge.com\/2020-03-06\/974037299378_5660f4d7fe9118b28c09_72.jpg",
            "first_name": "zachmueller",
            "real_name": "zachmueller",
            "display_name": "zachmueller",
            "team": "TUU48M0T1",
            "name": "zach",
            "is_restricted": false,
            "is_ultra_restricted": false
        },
        "blocks": [
            {
                "type": "rich_text",
                "block_id": "Pa8P",
                "elements": [
                    {
                        "type": "rich_text_section",
                        "elements": [
                            {
                                "type": "text",
                                "text": "Will try to take a look whenever I have downtime on my trip"
                            }
                        ]
                    }
                ]
            }
        ],
        "thread_ts": "1583818607.002800",
        "parent_user_id": "UUPFF4TC3"
    },
    {
        "type": "message",
        "subtype": "channel_join",
        "ts": "1583886532.004300",
        "user": "UV5CCJ9RC",
        "text": "<@UV5CCJ9RC> has joined the channel"
    }
]