[
    {
        "client_msg_id": "7b55b56d-8340-4f4d-9834-447983eaedaf",
        "type": "message",
        "text": "<http:\/\/www.imperial-consultants.co.uk\/wp-content\/uploads\/2020\/04\/DesignDocument_5-0-0.pdf>",
        "user": "U010B4EJG2C",
        "ts": "1586697304.032700",
        "team": "TUU48M0T1",
        "user_team": "TUU48M0T1",
        "source_team": "TUU48M0T1",
        "user_profile": {
            "avatar_hash": "5c9626d7b328",
            "image_72": "https:\/\/avatars.slack-edge.com\/2020-03-19\/1011171782821_5c9626d7b328e5dc84ea_72.jpg",
            "first_name": "Adam",
            "real_name": "Adam Krovina",
            "display_name": "Adam Krovina",
            "team": "TUU48M0T1",
            "name": "adam",
            "is_restricted": false,
            "is_ultra_restricted": false
        },
        "blocks": [
            {
                "type": "rich_text",
                "block_id": "nAW",
                "elements": [
                    {
                        "type": "rich_text_section",
                        "elements": [
                            {
                                "type": "link",
                                "url": "http:\/\/www.imperial-consultants.co.uk\/wp-content\/uploads\/2020\/04\/DesignDocument_5-0-0.pdf"
                            }
                        ]
                    }
                ]
            }
        ]
    }
]