[
    {
        "client_msg_id": "883f7fdb-4b79-43cb-8b43-ac19a8ae5d77",
        "type": "message",
        "text": "Hi all!\nI'm looking for information on medical device certification in the current context.\n\nI came across this interesting analysis:\n<https:\/\/docs.google.com\/spreadsheets\/d\/1VCMbf8DbHgXpG7UWWGWRJvkweCZnE9h3QCrYeYL_wdw\/edit?usp=drivesdk|Regulatory Strategy> (found in the project review doc). The file mentions a Slack channel called #legal-medical-regulatory, but I don't see this channel.\n\nWhat would be the right people\/group to discuss certification processes?\nThanks!",
        "user": "U010UF6AXMF",
        "ts": "1586615833.007700",
        "team": "TUU48M0T1",
        "user_team": "TUU48M0T1",
        "source_team": "TUU48M0T1",
        "user_profile": {
            "avatar_hash": "g5248b59fec0",
            "image_72": "https:\/\/secure.gravatar.com\/avatar\/5248b59fec06db7591dc8d9d10879432.jpg?s=72&d=https%3A%2F%2Fa.slack-edge.com%2Fdf10d%2Fimg%2Favatars%2Fava_0020-72.png",
            "first_name": "",
            "real_name": "Charley",
            "display_name": "Charley",
            "team": "TUU48M0T1",
            "name": "charleypaulus",
            "is_restricted": false,
            "is_ultra_restricted": false
        },
        "blocks": [
            {
                "type": "rich_text",
                "block_id": "dy+",
                "elements": [
                    {
                        "type": "rich_text_section",
                        "elements": [
                            {
                                "type": "text",
                                "text": "Hi all!\nI'm looking for information on medical device certification in the current context.\n\nI came across this interesting analysis:\n"
                            },
                            {
                                "type": "link",
                                "url": "https:\/\/docs.google.com\/spreadsheets\/d\/1VCMbf8DbHgXpG7UWWGWRJvkweCZnE9h3QCrYeYL_wdw\/edit?usp=drivesdk",
                                "text": "Regulatory Strategy"
                            },
                            {
                                "type": "text",
                                "text": " (found in the project review doc). The file mentions a Slack channel called #legal-medical-regulatory, but I don't see this channel.\n\nWhat would be the right people\/group to discuss certification processes?\nThanks!"
                            }
                        ]
                    }
                ]
            }
        ],
        "thread_ts": "1586615833.007700",
        "reply_count": 4,
        "reply_users_count": 3,
        "latest_reply": "1587101783.016200",
        "reply_users": [
            "U011B6VLM2A",
            "U010UF6AXMF",
            "U011KUG3KTR"
        ],
        "replies": [
            {
                "user": "U011B6VLM2A",
                "ts": "1586958084.008900"
            },
            {
                "user": "U011B6VLM2A",
                "ts": "1586958187.009100"
            },
            {
                "user": "U010UF6AXMF",
                "ts": "1586972362.011000"
            },
            {
                "user": "U011KUG3KTR",
                "ts": "1587101783.016200"
            }
        ],
        "subscribed": false
    }
]