[
    {
        "type": "message",
        "subtype": "channel_join",
        "ts": "1584279861.000200",
        "user": "UV02WET96",
        "text": "<@UV02WET96> has joined the channel"
    },
    {
        "type": "message",
        "subtype": "channel_purpose",
        "ts": "1584279861.000300",
        "user": "UV02WET96",
        "text": "<@UV02WET96> set the channel purpose: Ask any questions for guidance",
        "purpose": "Ask any questions for guidance"
    },
    {
        "type": "message",
        "subtype": "channel_join",
        "ts": "1584282216.000500",
        "user": "UV0RRGB6H",
        "text": "<@UV0RRGB6H> has joined the channel"
    },
    {
        "type": "message",
        "subtype": "channel_join",
        "ts": "1584297930.000700",
        "user": "U01019BQXM3",
        "text": "<@U01019BQXM3> has joined the channel"
    },
    {
        "type": "message",
        "subtype": "channel_join",
        "ts": "1584300957.000900",
        "user": "UV0QTJCMT",
        "text": "<@UV0QTJCMT> has joined the channel"
    },
    {
        "type": "message",
        "subtype": "channel_name",
        "ts": "1584300970.001000",
        "user": "UV0QTJCMT",
        "text": "<@UV0QTJCMT> has renamed the channel from \"questions-support-feedback\" to \"prgm-questions-support-feedback\"",
        "old_name": "questions-support-feedback",
        "name": "prgm-questions-support-feedback"
    },
    {
        "type": "message",
        "subtype": "channel_join",
        "ts": "1584301438.001300",
        "user": "UV120B2P7",
        "text": "<@UV120B2P7> has joined the channel"
    },
    {
        "type": "message",
        "subtype": "channel_join",
        "ts": "1584301782.001500",
        "user": "UV2CNECM7",
        "text": "<@UV2CNECM7> has joined the channel"
    },
    {
        "client_msg_id": "88244be8-4148-4afd-bfe7-7acc3562cb25",
        "type": "message",
        "text": "where has publically announced gone?",
        "user": "UV2CNECM7",
        "ts": "1584317125.001700",
        "team": "TUU48M0T1",
        "user_team": "TUU48M0T1",
        "source_team": "TUU48M0T1",
        "user_profile": {
            "avatar_hash": "135b0b0aa9c1",
            "image_72": "https:\/\/avatars.slack-edge.com\/2020-03-14\/990564660081_135b0b0aa9c163d47018_72.jpg",
            "first_name": "",
            "real_name": "Jeremy Cahill",
            "display_name": "Jeremy Cahill",
            "team": "TUU48M0T1",
            "name": "jeremy.cahill",
            "is_restricted": false,
            "is_ultra_restricted": false
        },
        "blocks": [
            {
                "type": "rich_text",
                "block_id": "533O",
                "elements": [
                    {
                        "type": "rich_text_section",
                        "elements": [
                            {
                                "type": "text",
                                "text": "where has publically announced gone?"
                            }
                        ]
                    }
                ]
            }
        ],
        "thread_ts": "1584317125.001700",
        "reply_count": 1,
        "reply_users_count": 1,
        "latest_reply": "1584358480.000200",
        "reply_users": [
            "UV02WET96"
        ],
        "replies": [
            {
                "user": "UV02WET96",
                "ts": "1584358480.000200"
            }
        ],
        "subscribed": false
    }
]