[
    {
        "client_msg_id": "bfa8cb3b-6fac-452f-80b6-dcf5ee70107d",
        "type": "message",
        "text": "I said from the very beginning that most of these projects are going to be run in parallel by Universities and Industry not even mentioning that the industry already has designs for these. I also said that by the time some of these projects will produce something useful we might even have an overproduction of what was at the beginning in short supply. So we should be careful not to waste energy and bark up the wrong tree.",
        "user": "U0103SR759U",
        "ts": "1585882147.004700",
        "team": "TUU48M0T1",
        "user_team": "TUU48M0T1",
        "source_team": "TUU48M0T1",
        "user_profile": {
            "avatar_hash": "g2694d379600",
            "image_72": "https:\/\/secure.gravatar.com\/avatar\/2694d3796008843d36d4b6ceff7f8660.jpg?s=72&d=https%3A%2F%2Fa.slack-edge.com%2Fdf10d%2Fimg%2Favatars%2Fava_0010-72.png",
            "first_name": "Adrian",
            "real_name": "Adrian Molecule",
            "display_name": "Adrian Molecule",
            "team": "TUU48M0T1",
            "name": "tada",
            "is_restricted": false,
            "is_ultra_restricted": false
        },
        "blocks": [
            {
                "type": "rich_text",
                "block_id": "i6A",
                "elements": [
                    {
                        "type": "rich_text_section",
                        "elements": [
                            {
                                "type": "text",
                                "text": "I said from the very beginning that most of these projects are going to be run in parallel by Universities and Industry not even mentioning that the industry already has designs for these. I also said that by the time some of these projects will produce something useful we might even have an overproduction of what was at the beginning in short supply. So we should be careful not to waste energy and bark up the wrong tree."
                            }
                        ]
                    }
                ]
            }
        ],
        "thread_ts": "1584647399.012000",
        "parent_user_id": "UV2P3AQEN"
    }
]