"","user","timestamp","mode"
"1","UV0QTJCMT","1584208470.000200","cj"
"2","UV2CNECM7","1584209562.000500","cj"
"3","UV2SC7ZE3","1584212240.000700","cj"
"4","U0100EPL9RT","1584221519.000900","cj"
"5","UV02WET96","1584221549.001100","cj"
"6","UUUEFQW8N","1584221690.001300","cj"
"7","U0100BF93LY","1584221798.001500","cj"
"8","U01009BMH52","1584224775.002200","cj"
"9","U0102UZALTG","1584225015.002400","cj"
"10","UV0GKVDUZ","1584225422.002600","cj"
"11","UV3HA9MM4","1584225422.002800","cj"
"12","UVA1JS2PR","1584225422.003000","cj"
"13","UV0FQT2QL","1584225422.003200","cj"
"14","UV3746ST1","1584225422.003400","cj"
"15","U0100GHS29E","1584225422.003600","cj"
"16","UVCTZ37DE","1584225423.003800","cj"
"17","UVABNG1A9","1584225423.004000","cj"
"18","UV6SDUFU4","1584225423.004200","cj"
"19","UV99UNP8E","1584225423.004400","cj"
"20","UV18Y0Q1Y","1584225423.004600","cj"
"21","UV39M083H","1584225423.004800","cj"
"22","U01009SF4UV","1584225423.005000","cj"
"23","UUU098YEN","1584225423.005200","cj"
"24","UUYGC6ZHQ","1584225423.005400","cj"
"25","UV0BB32QL","1584225423.005600","cj"
"26","U0100TGE5PG","1584225424.005800","cj"
"27","U0101RW22P9","1584225424.006000","cj"
"28","UUW1Q644T","1584225424.006200","cj"
"29","U0101DUALAJ","1584225424.006400","cj"
"30","UV1RE76NN","1584225486.006600","cj"
"31","UVADMLUB0","1584225486.006800","cj"
"32","UV48S3N6T","1584225486.007000","cj"
"33","UVA91N19V","1584225486.007200","cj"
"34","UV0S4MVDX","1584225486.007400","cj"
"35","UV42V9XTQ","1584225486.007600","cj"
"36","UVAH6U0PP","1584225486.007800","cj"
"37","UVCNYTP0Q","1584225486.008000","cj"
"38","UUXTPFTD0","1584225486.008200","cj"
"39","UURGMNE3T","1584225487.008400","cj"
"40","UVBEDFNPJ","1584225487.008600","cj"
"41","U0100EYRK6Z","1584225487.008800","cj"
"42","UV45NJJ01","1584225487.009000","cj"
"43","UVAHXT4NQ","1584225487.009200","cj"
"44","UV90DGB4N","1584225487.009400","cj"
"45","UVA46RKLY","1584225487.009600","cj"
"46","UUS2G6N6M","1584225545.009800","cj"
"47","UUWPKNE2E","1584225545.010000","cj"
"48","UV1A22N3W","1584225545.010200","cj"
"49","UUPFF4TC3","1584225545.010400","cj"
"50","UUX34JPLH","1584225545.010600","cj"
"51","UV9SUH41W","1584225545.010800","cj"
"52","UV5CCJ9RC","1584225545.011000","cj"
"53","UV9V03C8Y","1584225546.011200","cj"
"54","UV87UQ37A","1584225546.011400","cj"
"55","UVAUVMHN0","1584225546.011600","cj"
"56","UUSMRLYH1","1584225546.011800","cj"
"57","UV1D3FJ0M","1584225546.012000","cj"
"58","UVD1SPRCL","1584225546.012200","cj"
"59","UV7R9KG2C","1584225546.012400","cj"
"60","UV0RRGB6H","1584225546.012600","cj"
"61","UVAJ9BJ87","1584225546.012800","cj"
"62","UV0CX49QB","1584225650.013100","cj"
"63","UUNQ7H1MG","1584225650.013300","cj"
"64","UV19CVA93","1584225650.013500","cj"
"65","UUY5NSL2V","1584225651.013700","cj"
"66","UV85E8945","1584225651.013900","cj"
"67","UUUB9RFQA","1584225651.014100","cj"
"68","UUYSVHXTL","1584225651.014300","cj"
"69","UV229V9SQ","1584225651.014500","cj"
"70","UV9PSNTUY","1584225651.014700","cj"
"71","UV0ASBY3E","1584225651.014900","cj"
"72","UUSPCUDL3","1584225651.015100","cj"
"73","UV1PJF1FC","1584225652.015300","cj"
"74","UUW41MYTV","1584225652.015500","cj"
"75","U0100DEBABS","1584225652.015700","cj"
"76","UUZ5ESJUR","1584225652.015900","cj"
"77","UV8HN81LM","1584225652.016100","cj"
"78","U0102C4767Q","1584225652.016300","cj"
"79","UUVC28VNW","1584225652.016500","cj"
"80","UV0PCSG58","1584225652.016700","cj"
"81","UV13874FN","1584225653.016900","cj"
"82","UVD51JE68","1584225653.017100","cj"
"83","UVA0E24KZ","1584225653.017300","cj"
"84","UUSKUHPEE","1584225653.017500","cj"
"85","UV2NTML9H","1584225653.017700","cj"
"86","UUPQGNNTV","1584225653.017900","cj"
"87","UV221GBV1","1584225653.018100","cj"
"88","UV8Q23Y1K","1584225653.018300","cj"
"89","UUP8XJTH8","1584225653.018500","cj"
"90","UUNGFHSV8","1584225653.018700","cj"
"91","U0100ES0SG0","1584225653.018900","cj"
"92","UUWLPKCLB","1584225653.019100","cj"
"93","UVA5NGLMS","1584225653.019300","cj"
"94","UV8F6CP44","1584225654.019500","cj"
"95","UVC88S53R","1584225724.019700","cj"
"96","UV2MPP2PM","1584225724.019900","cj"
"97","UV10KBUQG","1584225724.020100","cj"
"98","UV1D9NR1N","1584225724.020300","cj"
"99","UUU7B6135","1584225724.020500","cj"
"100","UVDQRQ1K6","1584225724.020700","cj"
"101","UV3V8C9S5","1584225725.020900","cj"
"102","UVCSNJU2J","1584225725.021100","cj"
"103","UVDAA15DE","1584225725.021300","cj"
"104","U0100KK4PBP","1584225725.021500","cj"
"105","UV120B2P7","1584225725.021700","cj"
"106","UVAMSUXEC","1584225725.021900","cj"
"107","UV143JZD3","1584225725.022100","cj"
"108","UV8T52QJ3","1584225725.022300","cj"
"109","UVCR5F11A","1584225725.022500","cj"
"110","UV92CLHPA","1584225725.022700","cj"
"111","UUX7EP0HG","1584225725.022900","cj"
"112","UVC4QT3V5","1584225725.023100","cj"
"113","U0100FUAYH3","1584225726.023300","cj"
"114","UUQM4L2AF","1584225726.023500","cj"
"115","UUSV78MJN","1584225726.023700","cj"
"116","U0101EUJH0X","1584225726.023900","cj"
"117","U0101V2L3LP","1584225726.024100","cj"
"118","UURHGHB7T","1584225726.024300","cj"
"119","UV2QSAX35","1584225726.024500","cj"
"120","UVDTYV2MT","1584225726.024700","cj"
"121","UVCT4AT54","1584225727.024900","cj"
"122","UV852BSMN","1584225727.025100","cj"
"123","UV8GFKVEU","1584225727.025300","cj"
"124","UVC9WMA7N","1584225727.025500","cj"
"125","UVC7J1K7Y","1584225806.025700","cj"
"126","UV33XEYG0","1584225806.025900","cj"
"127","UVABQCS3G","1584225806.026100","cj"
"128","UV4506VK7","1584225806.026300","cj"
"129","UUY9ND75X","1584225806.026500","cj"
"130","UV43R37NV","1584225806.026700","cj"
"131","U0100JTRA8G","1584225806.026900","cj"
"132","UV7QBRCFN","1584225806.027100","cj"
"133","UUPF597H9","1584225806.027300","cj"
"134","U01001VBMFE","1584225806.027500","cj"
"135","UV4AEAG4D","1584225806.027700","cj"
"136","UV1CX069G","1584225807.027900","cj"
"137","UV66RCFPE","1584225807.028100","cj"
"138","UV4AY45H6","1584225807.028300","cj"
"139","UV8U53CBY","1584225807.028500","cj"
"140","UV4BCQ11P","1584225807.028700","cj"
"141","UUSGW93R9","1584225807.028900","cj"
"142","UV7627B6Y","1584225807.029100","cj"
"143","UVD19AXHV","1584225807.029300","cj"
"144","UV20M5HGQ","1584225807.029500","cj"
"145","U01021XDUNA","1584225807.029700","cj"
"146","UV2P7ML3Z","1584225808.029900","cj"
"147","UVBDX2YBG","1584225808.030100","cj"
"148","UUWR0FJ7M","1584225808.030300","cj"
"149","UVDR74SJU","1584225808.030500","cj"
"150","U01022HL5PZ","1584225808.030700","cj"
"151","U010064UP38","1584225808.030900","cj"
"152","UV37P5CM9","1584225808.031100","cj"
"153","UV78M0ESG","1584225808.031300","cj"
"154","UV7N8HX28","1584225808.031500","cj"
"155","UUWQU0D8T","1584225808.031700","cj"
"156","UUWSJTQ67","1584225809.031900","cj"
"157","U0100ET4KUM","1584225809.032100","cj"
"158","U01021AKSAK","1584225809.032300","cj"
"159","UV71KBVRN","1584225928.032500","cj"
"160","UVDPTK7AQ","1584225928.032700","cj"
"161","UUVK08BCJ","1584225928.032900","cj"
"162","UVCQU0UAJ","1584225928.033100","cj"
"163","U0102AK7SB0","1584225928.033300","cj"
"164","UUQR32JHG","1584225929.033500","cj"
"165","UV2T73S5R","1584225929.033700","cj"
"166","UVDRADWTE","1584225929.033900","cj"
"167","UVBDUT4NS","1584225929.034100","cj"
"168","U0100746RSR","1584225929.034300","cj"
"169","UVBGD5LCX","1584225929.034500","cj"
"170","UV19H8E82","1584225929.034700","cj"
"171","UVDEJ7W0M","1584225929.034900","cj"
"172","U01022HS0MV","1584225930.035100","cj"
"173","UV81Y6P9V","1584225930.035300","cj"
"174","UUZHHJVGR","1584225930.035500","cj"
"175","UVCJ1BGG5","1584225930.035700","cj"
"176","UV3JDFX17","1584225930.035900","cj"
"177","UVAC2Q19S","1584225930.036100","cj"
"178","UUYTLGUFL","1584225930.036300","cj"
"179","UV9N0EE2J","1584225930.036500","cj"
"180","UV6DV6E5V","1584225931.036700","cj"
"181","UUVG81TD0","1584225931.036900","cj"
"182","UV2TZ4DQR","1584225931.037100","cj"
"183","UUYHN08TV","1584225931.037300","cj"
"184","UVC90E7SR","1584225931.037500","cj"
"185","UUWUKTATD","1584225931.037700","cj"
"186","UV372RJMC","1584225931.037900","cj"
"187","UVAB15FU0","1584225931.038100","cj"
"188","UVBEKTPK9","1584225931.038300","cj"
"189","UUTSPUZH7","1584225931.038500","cj"
"190","UVAFGTTGC","1584225931.038700","cj"
"191","UVAP0J75L","1584225931.038900","cj"
"192","UV7AZH728","1584225931.039100","cj"
"193","UV1BJFTAQ","1584225932.039300","cj"
"194","UUX8HFPR7","1584225932.039500","cj"
"195","UUW05LBEV","1584225932.039700","cj"
"196","UUTACBTSM","1584225932.039900","cj"
"197","U0100LKUPSR","1584225932.040100","cj"
"198","U01025PFKRC","1584225932.040300","cj"
"199","UV4EY2049","1584225932.040500","cj"
"200","UV1JVH78D","1584225932.040700","cj"
"201","UUZGNRNRH","1584225932.040900","cj"
"202","UVD8Q035K","1584225932.041100","cj"
"203","UV1B17TQS","1584225932.041300","cj"
"204","UVC39L18D","1584225933.041500","cj"
"205","UV5SR7E4W","1584226205.041700","cj"
"206","UVDCK8M9V","1584226206.041900","cj"
"207","UVDM3SQ3A","1584226206.042100","cj"
"208","U01028XMJA3","1584226206.042300","cj"
"209","UVB2SQXL5","1584226206.042500","cj"
"210","UV30KJ4LX","1584226206.042700","cj"
"211","UV1G2M821","1584226206.042900","cj"
"212","U01016B7KPY","1584226206.043100","cj"
"213","UV8V95W14","1584226207.043300","cj"
"214","U0102R1FCF8","1584279997.086100","cj"
"215","UV2BVBA4S","1584281035.086500","gb"
"216","U0103C4TMTQ","1584282126.086900","gb"
"217","U0100NGSTDJ","1584283783.091000","gb"
"218","U01032X5N7R","1584285099.096200","gb"
"219","U01017UKS8M","1584286342.096900","gb"
"220","UV3PG8USF","1584288078.099400","gb"
"221","UV3PURN5R","1584289240.100000","gb"
"222","U0101885R24","1584289408.101300","gb"
"223","U0100QFHM52","1584290043.101800","gb"
"224","U01019BQXM3","1584291171.102000","gb"
"225","U01035U3JBH","1584294458.104900","gb"
"226","UV3RMPGPM","1584294980.111900","gb"
"227","UV2H55TSN","1584297880.118400","gb"
"228","UV594N881","1584299408.125100","gb"
"229","U0101CDQPGD","1584300940.131400","gb"
"230","UV5AQ1R5X","1584304487.136300","gb"
"231","U0101DKUALV","1584304756.136500","gb"
"232","UV3URUKK5","1584304987.138400","gb"
"233","U0101DPQPRT","1584305133.141000","gb"
"234","U0103KFCBB8","1584305504.151200","gb"
"235","UV5C2TFCH","1584308877.160600","gb"
"236","U0103AWRSMV","1584310651.161300","gb"
"237","U0101FU08P7","1584311770.161500","gb"
"238","U0103BD5CB1","1584312134.164600","gb"
"239","U0101204092","1584312155.165200","gb"
"240","U010120CH2Q","1584312183.166000","gb"
"241","UV41N463V","1584312189.166200","gb"
"242","U0101FSDALQ","1584313309.166500","gb"
"243","U0101G0UYQY","1584314052.169700","gb"
"244","UV429QK0B","1584314099.169900","gb"
"245","U01012QS8J0","1584314345.170100","gb"
"246","U0101H1BC05","1584315436.170300","gb"
"247","UV2NYK35Y","1584316071.171500","gb"
"248","UV2P3AQEN","1584316474.176300","gb"
"249","UV43E3CSX","1584317196.184600","gb"
"250","U0101JURYJH","1584319517.189300","gb"
"251","U0101JBCTLG","1584319573.189500","gb"
"252","U0101JLBNE4","1584319973.189700","gb"
"253","UV2QYU1PC","1584320165.191100","gb"
"254","UV45T898T","1584321667.198200","gb"
"255","U0103S6V8TG","1584322484.198500","gb"
"256","U0101M1NN9K","1584323374.198700","gb"
"257","UV2SSARFC","1584323402.198900","gb"
"258","U0103SR759U","1584323468.199100","gb"
"259","UV5L5EYKB","1584327278.209500","gb"
"260","U0101QRAARW","1584332821.216000","gb"
"261","U0101SARY3X","1584335223.216200","gb"
"262","U0103Q6QT71","1584340512.216400","gb"
"263","U0103U82Q2K","1584346298.217000","gb"
"264","U0101PB9JP6","1584350766.217300","gb"
"265","U01044P6YH5","1584352096.218000","gb"
"266","U01044V1DAT","1584352264.218200","gb"
"267","U010454KNQ7","1584352543.218400","gb"
"268","U01045W0UMV","1584353222.219000","gb"
"269","UV6870881","1584353754.220400","gb"
"270","U0102C82A3F","1584355049.222000","gb"
"271","UV4TPRPHR","1584355434.225100","gb"
"272","U010201K3C4","1584356854.235800","gb"
"273","U0102EMQEJH","1584357569.237700","gb"
"274","UV3LUKBU2","1584358112.237900","gb"
"275","U0102EQJKR6","1584358254.238100","gb"
"276","U01022EN8A0","1584359470.238800","gb"
"277","U0104NXUAF8","1584360385.239300","gb"
"278","UV3QV055Y","1584362123.239500","gb"
"279","U01027K0E1J","1584364011.242400","gb"
"280","UV3T7JS4A","1584364016.242600","gb"
"281","U0102NN0D0V","1584364879.242800","gb"
"282","U0102RUF4F2","1584367374.250500","gb"
"283","U01054MD7K8","1584368690.251100","gb"
"284","U0102U32732","1584368839.251300","gb"
"285","UV5EETE1Z","1584368904.252100","gb"
"286","U0102FNSTK6","1584369435.256700","gb"
"287","U0103128G4D","1584369995.260800","gb"
"288","U0102LXM420","1584372654.262600","gb"
"289","U0102MVF23W","1584373236.262800","gb"
"290","UV74CTS81","1584373696.263400","gb"
"291","U0105DJ3RB8","1584374188.263700","gb"
"292","U01038NJVD3","1584374614.263900","gb"
"293","U0102R22GNQ","1584375172.265100","gb"
"294","U0105HLPPV4","1584376675.267300","gb"
"295","U0103BSMXT2","1584376911.269300","gb"
"296","U0102UQFEN8","1584379502.275500","gb"
"297","UV7FKQAUR","1584380907.275700","gb"
"298","UV4Q15S5Q","1584380910.275900","gb"
"299","UV7MYCLF3","1584385546.279300","gb"
"300","UV6ATKJR1","1584385884.279500","gb"
"301","U0103QLA6NL","1584385911.279700","gb"
"302","UV51YP7MG","1584386319.281700","gb"
"303","U0103UK5RNC","1584389060.282000","gb"
"304","U01067SK4ES","1584391144.293400","gb"
"305","UV67R5F1R","1584391199.293900","gb"
"306","U0103LPAWQ4","1584393944.301300","gb"
"307","UV8519NFK","1584396571.310800","gb"
"308","UV85V64SD","1584397538.318800","gb"
"309","UV6T1KU0K","1584401968.328600","gb"
"310","U0106J51HN2","1584402857.329000","gb"
"311","U0104DUJQPP","1584404841.332900","gb"
"312","UV76M0QQ3","1584417754.334000","gb"
"313","UV8JG33S5","1584418282.334400","gb"
"314","UV5TD4TSN","1584419362.334700","gb"
"315","U0106VDVAQ6","1584423872.341600","gb"
"316","U01071FFXLN","1584426725.341800","gb"
"317","U0104BFRM44","1584427047.342200","gb"
"318","U01051H2GLD","1584434205.344700","gb"
"319","UV8PE2FDF","1584434521.344800","gb"
"320","U0104S3L14M","1584435909.350600","gb"
"321","U01054QCBT7","1584437160.358700","gb"
"322","U0105BB3FPX","1584443228.363100","gb"
"323","UV9AYS0N5","1584445595.363400","gb"
"324","UV6LNPJ3C","1584446822.365100","gb"
"325","UV6PMT2DQ","1584449425.368600","gb"
"326","U0105LXSDS4","1584451966.369500","gb"
"327","UV884K3C3","1584453029.371000","gb"
"328","U0105Q00ACQ","1584453905.371500","gb"
"329","U0105P5AV1B","1584456735.371800","gb"
"330","UV76CQTB4","1584457264.372100","gb"
"331","UV78JAX0S","1584458505.372700","gb"
"332","U01062X8G13","1584458571.373000","gb"
"333","U01063V3M6U","1584459430.374200","gb"
"334","U0105DBLFCL","1584459905.374700","gb"
"335","U0105LVE9NG","1584460028.375000","gb"
"336","UV7CJF9SN","1584460829.376600","gb"
"337","U0105P4PVE0","1584461296.379400","gb"
"338","U01061H34J2","1584461323.379900","gb"
"339","U01084P4ELX","1584462233.382300","gb"
"340","U01085CTZSB","1584462646.384800","gb"
"341","UVA9LCNP3","1584464112.386900","gb"
"342","UV7K9AEPL","1584464865.387200","gb"
"343","UV7KLC11Q","1584465078.387500","gb"
"344","U01060RCXJ8","1584465636.387800","gb"
"345","UV7LUJG1Y","1584465910.391200","gb"
"346","U01089UEU30","1584466962.398400","gb"
"347","U0106JA2SBX","1584468020.399400","gb"
"348","U0106J2711N","1584468204.399700","gb"
"349","U0106K3PCNL","1584468929.400200","gb"
"350","U0108GAETPZ","1584469785.400800","gb"
"351","U0108GG2F47","1584469887.401100","gb"
"352","U0106LT814Y","1584470117.401400","gb"
"353","U0108JZRPRD","1584471683.401900","gb"
"354","U0106PLV8PJ","1584472125.402200","gb"
"355","U0106QMKKA9","1584472489.406600","gb"
"356","U01072R92KF","1584478438.425400","gb"
"357","UV9K69YQK","1584479528.427400","gb"
"358","UV8AZ6ABC","1584480627.431700","gb"
"359","U01075QTUBX","1584481089.432200","gb"
"360","U0107781RPA","1584483184.436800","gb"
"361","U0108TFKR0E","1584484837.440500","gb"
"362","UV9QHNNRH","1584485060.440800","gb"
"363","UV8FL0JCA","1584485625.442700","gb"
"364","U0107BL010Q","1584488592.444500","gb"
"365","U0106TT6ATW","1584488876.444800","gb"
"366","U0109KDBBKQ","1584490852.450200","gb"
"367","UVA01G999","1584491725.454500","gb"
"368","U0109LG61E2","1584492526.457200","gb"
"369","U0109LRFM3Q","1584492967.457500","gb"
"370","U0109M8DMB8","1584493703.458900","gb"
"371","UVBD296EM","1584493815.459200","gb"
"372","UVBDBRJ8Z","1584494276.460300","gb"
"373","U01072JUEJ0","1584495188.464900","gb"
"374","U0107H4FEDB","1584496294.468000","gb"
"375","UV8PAEN3C","1584497033.468500","gb"
"376","UVA3EP8DR","1584497318.468800","gb"
"377","U0107HK54S1","1584497518.468900","gb"
"378","U0109DMS555","1584498175.469200","gb"
"379","U0109EJ0BN3","1584499863.470800","gb"
"380","U01074EM8BE","1584499867.470900","gb"
"381","UVA640G91","1584502520.471600","gb"
"382","U0109S8S8R4","1584502982.472100","gb"
"383","UVA8VCCP5","1584508150.472400","gb"
"384","U0107NS25A4","1584508479.472700","gb"
"385","UVA9QC7C3","1584509910.475800","gb"
"386","U0107PP8THN","1584510375.476200","gb"
"387","U0109MDM2KH","1584513593.476500","gb"
"388","U010A4C6UB0","1584516940.476800","gb"
"389","U0107G3C0P6","1584519195.477100","gb"
"390","UVAGPKT19","1584520198.480000","gb"
"391","U01081Y0TBP","1584520545.480400","gb"
"392","U010AA3RX4N","1584522919.480800","gb"
"393","U010859829K","1584523641.481100","gb"
"394","U0108C2Q332","1584530562.482700","gb"
"395","U0108DBLQSZ","1584531270.483100","gb"
"396","U0108DWH5NH","1584531857.483400","gb"
"397","U010817B2AY","1584533086.487900","gb"
"398","U01082CRYQ4","1584534200.491300","gb"
"399","U010ANJJTNJ","1584534731.491700","gb"
"400","U0108HJ698D","1584535284.492900","gb"
"401","U010APQC76J","1584535737.493200","gb"
"402","UVB6ECTHR","1584537890.497600","gb"
"403","U010AGDDEBZ","1584537912.497700","gb"
"404","UVB8RUHMH","1584539266.498000","gb"
"405","UVB8V787M","1584539330.498300","gb"
"406","U010AKE1X4P","1584539848.499400","gb"
"407","UVA216F8S","1584540902.000400","gb"
"408","U0108CAG90C","1584541246.000800","gb"
"409","UVCQNN3UH","1584541851.001100","gb"
"410","U0108GB4GA0","1584543646.005600","gb"
"411","U0108GK4L9J","1584543766.005900","gb"
"412","UVBJYQ5GT","1584545391.006200","gb"
"413","U01093UE40Y","1584545678.007200","gb"
"414","U01094VFEDN","1584546282.007500","gb"
"415","UVBLWGLQ3","1584546497.007800","gb"
"416","U010BCM06LE","1584547172.009800","gb"
"417","U010B412MF1","1584548024.011600","gb"
"418","U01099A1YS1","1584548450.012000","gb"
"419","U010BDU2SQ6","1584548667.012300","gb"
"420","UVBRAS6HZ","1584548983.012600","gb"
"421","U010B5TBWP9","1584549051.012900","gb"
"422","U010BGHV36J","1584549368.013600","gb"
"423","UVBS4TYPM","1584549451.013900","gb"
"424","UVA1LR1DF","1584549903.014000","gb"
"425","U0109CC9XS9","1584550272.014700","gb"
"426","UVDB0PY3B","1584550961.016900","gb"
"427","U010B9E5D2B","1584551171.017300","gb"
"428","UVC05JBAP","1584551487.017600","gb"
"429","U0108UAAUQM","1584551612.017700","gb"
"430","U0109EH7V5E","1584551864.018000","gb"
"431","UVALZTQ58","1584551998.018900","gb"
"432","U010BM999V4","1584552244.019200","gb"
"433","U0109G7NH0D","1584552612.019500","gb"
"434","U0109FYJQAC","1584552775.021100","gb"
"435","U010930190C","1584553048.023200","gb"
"436","U010BNPDPSS","1584553122.024400","gb"
"437","U010BDB7VQF","1584553656.025100","gb"
"438","U010BF4HLMV","1584554768.025800","gb"
"439","UVA1JSXU1","1584555038.026000","gb"
"440","U010BS77A3G","1584555386.026300","gb"
"441","UVATLD4HG","1584556274.027000","gb"
"442","UVATPEW2W","1584556335.027300","gb"
"443","U0109PYPC3F","1584557750.030200","gb"
"444","U0109B6RAJ0","1584558527.030500","gb"
"445","UVDNYPPFB","1584558797.030800","gb"
"446","U010BM4M81M","1584558918.031100","gb"
"447","U0109R52UF2","1584558932.031400","gb"
"448","U0109T1DV9T","1584559928.036900","gb"
"449","UVB3LC4HG","1584560093.037200","gb"
"450","U0109U9BE7P","1584560866.037500","gb"
"451","UVCHD4KMZ","1584563433.038300","gb"
"452","U0109QQJVUL","1584569538.046100","gb"
"453","UVCQF4EDR","1584569617.046400","gb"
"454","U0109RN2L4C","1584571468.047600","gb"
"455","U010CJB82J2","1584573511.047900","gb"
"456","U0100CAGTUH","1584576496.056900","gb"
"457","U010CLPS5AA","1584576819.057200","gb"
"458","UVBQDE7R8","1584582679.057700","gb"
"459","UVD8460V9","1584590033.059900","gb"
"460","U010D014546","1584592892.060300","gb"
"461","UVC22JUR0","1584596858.060800","gb"
"462","UVDCTDP8B","1584599352.061100","gb"
"463","U010ADLMYNQ","1584600128.063000","gb"
"464","UVC744YUA","1584604781.063900","gb"
"465","UVDH8M6D9","1584605566.064200","gb"
"466","UVDJ0PAQK","1584607462.071200","gb"
"467","U0100152ERF","1584608013.072000","gb"
"468","U010B4EJG2C","1584608443.075000","gb"
"469","U010B5UCT6Z","1584609221.075500","gb"
"470","UVCDJN550","1584611036.075900","gb"
"471","U010B9GTH6U","1584613045.081200","gb"
"472","U010BA2NL9E","1584613603.084600","gb"
"473","U010D8KRB5M","1584615972.085200","gb"
"474","UVDV19VR9","1584616731.087300","gb"
"475","U010D9EGSTH","1584616766.087600","gb"
"476","U010BHAPG3F","1584620036.094000","gb"
"477","U010BH84UUQ","1584620478.094300","gb"
"478","U010BJ40CCV","1584620780.094600","gb"
"479","U010B53A1J8","1584621569.094900","gb"
"480","UVCRP3QR0","1584622318.095200","gb"
"481","UVCS0865Q","1584622579.096700","gb"
"482","U010BM880JH","1584623303.097500","gb"
"483","U0101MQ3ATT","1584625949.098200","gb"
"484","U010E2JCYB0","1584626606.100900","gb"
"485","U010BDL265A","1584627356.101900","gb"
"486","U010BUH2CGG","1584628270.102300","gb"
"487","U0100ETMC4T","1584628305.102600","gb"
"488","U0100GM9S83","1584629398.103400","gb"
"489","U0100HBB8PM","1584629810.105200","gb"
"490","U010210N8KB","1584630472.105500","gb"
"491","U010E11MX63","1584631697.105800","gb"
"492","U010C59GW80","1584631825.106100","gb"
"493","U010BMYLX36","1584632190.106400","gb"
"494","U010BRCG80L","1584634087.111500","gb"
"495","UVDGKRMEW","1584634642.112500","gb"
"496","U010CC740GG","1584635763.113100","gb"
"497","U010ENQ0PP0","1584638397.113400","gb"
"498","UVDQ2RECS","1584639214.113700","gb"
"499","U010EJJFQ6B","1584642412.114000","gb"
"500","U010C95JTA8","1584642433.114300","gb"
"501","U010CT19KS9","1584645267.114600","gb"
"502","U010CTVR6UV","1584645924.114800","gb"
"503","U0102T953MX","1584647382.115400","gb"
"504","U010F9GTD7G","1584650128.117000","gb"
"505","U010D4VP6LD","1584650988.117400","gb"
"506","U010F124LNB","1584651582.117700","gb"
"507","U010CN0QZCL","1584652362.118000","gb"
"508","U010D73GG7P","1584655413.118300","gb"
"509","U010FG0FQDU","1584656122.118700","gb"
"510","U010DA27EV6","1584656385.119000","gb"
"511","U010CS8L1LL","1584656581.119200","gb"
"512","U010F6922SK","1584656594.119600","gb"
"513","U010CT005MJ","1584657423.119900","gb"
"514","U010CUHH7FE","1584659284.121000","gb"
"515","U010CUX7F8U","1584659836.121300","gb"
"516","U01020789CK","1584661297.121600","gb"
"517","U010DG4358Q","1584664226.126700","gb"
"518","U01022JT4KV","1584664626.127000","gb"
"519","UVBPFRVGS","1584666594.127100","gb"
"520","U010DJ681NC","1584667843.127400","gb"
"521","U010DJU8M5E","1584669157.130400","gb"
"522","U010DJZ8540","1584669463.130800","gb"
"523","U010DKZDP40","1584671607.133500","gb"
"524","U010FDH9JMD","1584672203.133800","gb"
"525","U010FE5HAT1","1584673661.134400","gb"
"526","U0102895U6P","1584676370.141400","gb"
"527","U010G0HT14N","1584680486.146700","gb"
"528","U010G1TCBN2","1584683666.147000","gb"
"529","U010DRZ7ULQ","1584685803.147300","gb"
"530","U010150NR6W","1584689773.147700","gb"
"531","U010FUU89B9","1584698200.148500","gb"
"532","U01044C8TED","1584698305.148800","gb"
"533","U010E79BQ2H","1584698720.149100","gb"
"534","U0101M7B19Q","1584707320.150700","gb"
"535","U010EFD9ZEC","1584707726.152000","gb"
"536","U01031ZQ7U3","1584708062.154300","gb"
"537","U010EHBA396","1584709375.163900","gb"
"538","U010E4SB9PW","1584710025.164300","gb"
"539","U0103H5TU2X","1584718304.166900","gb"
"540","U010H9ZRWUW","1584719736.172300","gb"
"541","U010EMLGWPN","1584720746.173900","gb"
"542","U010ENB7YUU","1584721200.175000","gb"
"543","U010HGE5NKG","1584723665.176700","gb"
"544","U010H500T2B","1584724672.181500","gb"
"545","U010FF51YRK","1584726586.183100","gb"
"546","U010F2PUXRS","1584727562.186000","gb"
"547","U010FJCHWSH","1584728842.186500","gb"
"548","U010FKTJX32","1584730320.186700","gb"
"549","U010F6P20MS","1584730509.187100","gb"
"550","U010FNQB15K","1584732036.189500","gb"
"551","U0104AG4R9R","1584733615.193000","gb"
"552","U010FUDNKHB","1584736321.195500","gb"
"553","U010J48QN14","1584736843.196200","gb"
"554","U010FFSA3LL","1584737356.196900","gb"
"555","U01070BS2AG","1584739682.197500","gb"
"556","U010FKYJ276","1584741076.200800","gb"
"557","U010G5EQ5HT","1584742064.201400","gb"
"558","U0104M5CWV9","1584742453.201700","gb"
"559","U0104ME2W9H","1584742736.202000","gb"
"560","U0104NZE67M","1584744599.202300","gb"
"561","U010GBTNQ93","1584750872.202800","gb"
"562","U0104VBF2SX","1584757403.204000","gb"
"563","U0103L89ASE","1584758307.204300","gb"
"564","U010G0A9WAY","1584759738.204400","gb"
"565","U010JLSQ2LW","1584762284.204900","gb"
"566","U010G1Q30AY","1584763133.205200","gb"
"567","U010GFE0AKS","1584764648.205500","gb"
"568","U010J948MUP","1584766735.205800","gb"
"569","U010J9P1X71","1584769378.207900","gb"
"570","U010551RZ8B","1584780751.213800","gb"
"571","U0103RQF7R8","1584783120.214100","gb"
"572","U01055WPGD9","1584784104.214400","gb"
"573","U010JSWR4R4","1584787971.214900","gb"
"574","U0106JZ034Z","1584788327.215200","gb"
"575","U010577V803","1584788996.215500","gb"
"576","U0106KBK82D","1584789639.215800","gb"
"577","U010GMFJ3PA","1584790816.216100","gb"
"578","U0103TXPP1Q","1584791338.216600","gb"
"579","U010JEWLE8P","1584791488.216900","gb"
"580","U0106MAF8CR","1584796363.223200","gb"
"581","U010G9T51GU","1584796472.223900","gb"
"582","U01059DB927","1584796477.224000","gb"
"583","U0106M2EBMX","1584796909.224100","gb"
"584","U010GQLQM0V","1584799171.226300","gb"
"585","U010416RT8S","1584799838.228600","gb"
"586","U0106NJNM17","1584800043.229700","gb"
"587","U010GR15E5T","1584800305.230800","gb"
"588","U010GQGUQMN","1584800475.232000","gb"
"589","U010GRJ5685","1584801700.232700","gb"
"590","U010JJ8SDJT","1584801868.233000","gb"
"591","U0105BAMLM9","1584801988.233300","gb"
"592","U0106Q1JU01","1584804066.236700","gb"
"593","U0106Q75GJD","1584804504.237000","gb"
"594","U010GS1A116","1584804598.237300","gb"
"595","U0105D8UGCB","1584807303.240400","gb"
"596","U0105D9EDQB","1584807344.240700","gb"
"597","U010GPQBQA1","1584807746.240800","gb"
"598","U0105DYPYAF","1584810325.241100","gb"
"599","U0105F34HGT","1584812631.241600","gb"
"600","U010K5PFCG6","1584812775.241900","gb"
"601","U010GD6AALC","1584812836.242800","gb"
"602","U010GFNDDL4","1584813160.247300","gb"
"603","U0106T8HV4Z","1584813299.248200","gb"
"604","U0106T9TL3T","1584813413.250100","gb"
"605","U0105FVLBC3","1584814948.257900","gb"
"606","U010GD52QPN","1584815941.265500","gb"
"607","U010GHT685A","1584819851.267100","gb"
"608","U010GHWFVKN","1584820188.268600","gb"
"609","U010K8VGZAA","1584822991.271100","gb"
"610","U010H37CXHN","1584825119.272500","gb"
"611","U010H3V5F3P","1584825312.272800","gb"
"612","U010KA591PY","1584828146.279400","gb"
"613","U010GL9T3QC","1584829086.281800","gb"
"614","U010KAFC1QE","1584829105.282100","gb"
"615","U0104AMN058","1584829471.285000","gb"
"616","U010KAMNPRC","1584829904.285500","gb"
"617","U01072PG4LR","1584830218.285800","gb"
"618","U0105LL9E9Z","1584832064.286100","gb"
"619","U01073K69C1","1584834006.286400","gb"
"620","U01073YMBS5","1584835705.287400","gb"
"621","U010H65L60Y","1584837573.291600","gb"
"622","U0105N975LK","1584839440.292000","gb"
"623","U010H79AAN9","1584839868.292300","gb"
"624","U010KCXU938","1584840404.292600","gb"
"625","U0105KZPEJF","1584840831.292700","gb"
"626","U0104DWLMAN","1584844249.303200","gb"
"627","U0105PUUFL3","1584847477.303500","gb"
"628","U0105R0UYKD","1584854154.305300","gb"
"629","U010H9CUQCQ","1584854216.305500","gb"
"630","U010K4Q6C2K","1584865343.305900","gb"
"631","U0106QPDTB3","1584866135.307400","gb"
"632","U010K5MTTN3","1584869176.307700","gb"
"633","U010H0G55GU","1584874760.308000","gb"
"634","U0104L8M4JW","1584875127.308300","gb"
"635","U01060CNJUT","1584875827.308600","gb"
"636","U01060M08F5","1584876763.308900","gb"
"637","U010K92FMJT","1584881990.312300","gb"
"638","U010K9MHXEK","1584883834.312600","gb"
"639","U0107FL9UHX","1584886929.313100","gb"
"640","U0104RKNR8A","1584892873.314800","gb"
"641","U0104RMC75Y","1584893012.315700","gb"
"642","U010KCGKEGP","1584896585.315800","gb"
"643","U010KT2RR1U","1584897822.316100","gb"
"644","U010KF4N6B1","1584900973.316600","gb"
"645","U010HMTS196","1584901864.316900","gb"
"646","U010KGBEFLP","1584904832.317700","gb"
"647","U010KHRE7AB","1584909570.321400","gb"
"648","U010H59SZFE","1584909584.321500","gb"
"649","U0106BBE6PM","1584911506.322700","gb"
"650","U010L2FDLEA","1584913471.325100","gb"
"651","U010KAJ3SLW","1584914763.325200","gb"
"652","U010HSZFE4V","1584915895.325900","gb"
"653","U010HTBUHS9","1584917051.326100","gb"
"654","U0107GAJXPT","1584918518.331600","gb"
"655","U010L4A4N4W","1584919237.331900","gb"
"656","U0107S120EM","1584920167.332400","gb"
"657","U010L4VK0F8","1584920975.332700","gb"
"658","U010HERBG0L","1584921081.333000","gb"
"659","U010550945Q","1584921094.333300","gb"
"660","U010566NJHG","1584924163.333600","gb"
"661","U010HGC63BN","1584925189.341100","gb"
"662","U010J190S5B","1584925978.344100","gb"
"663","U0106GLU7AP","1584926582.346300","gb"
"664","U010L8A5P7Y","1584929122.357900","gb"
"665","U01080CJ6P3","1584929243.358200","gb"
"666","U01074A630R","1584929662.358800","gb"
"667","U010810HXUH","1584930752.362400","gb"
"668","U010602FRUH","1584932029.363900","gb"
"669","U01069KSCKV","1584933200.365100","gb"
"670","U0105C4LVV0","1584937809.366500","gb"
"671","U010844MSBT","1584937959.366800","gb"
"672","U01087NTUJD","1584945212.367100","gb"
"673","U010L2V3N9M","1584945807.367400","gb"
"674","U010LHE00T0","1584948022.367700","gb"
"675","U010LLZNYTY","1584952088.368100","gb"
"676","U0108EE5873","1584953397.368400","gb"
"677","U01072UT127","1584953797.368700","gb"
"678","U0105PR4WGJ","1584954464.371100","gb"
"679","U010JLC82G5","1584956530.372700","gb"
"680","U010J6TQC4U","1584956878.377000","gb"
"681","U010J80FY3E","1584957889.385900","gb"
"682","U010JMKUAHE","1584958108.386200","gb"
"683","U010LN4G62K","1584965031.386700","gb"
"684","U010K41SPCM","1584968428.392400","gb"
"685","U0106B312E6","1584969307.392900","gb"
"686","U010LUG47AT","1584970035.393300","gb"
"687","U010MCAV022","1584970213.395400","gb"
"688","U0104NWQ8RG","1584970311.396100","gb"
"689","U0106NZUSTU","1584976337.396800","gb"
"690","U010KGY2N6L","1584976501.397100","gb"
"691","U0109H13TUZ","1584977489.397500","gb"
"692","U0106SLH7K4","1584978364.397800","gb"
"693","U01072FKRFC","1584981343.398100","gb"
"694","U010734498S","1584981966.398400","gb"
"695","U010KTKK36U","1584982610.398900","gb"
"696","U010KTXG596","1584982808.399200","gb"
"697","U0108GQLD0T","1584984317.399600","gb"
"698","U010LFB3TL0","1584994015.402200","gb"
"699","U0107NHCAG2","1584994543.402500","gb"
"700","U010LHVMSTA","1584995724.402800","gb"
"701","U010LNECEHE","1584999015.403300","gb"
"702","U010AU9E1DX","1585006732.409200","gb"
"703","U0109GA0XLK","1585006818.409500","gb"
"704","U010NP8HCLF","1585007002.409800","gb"
"705","U010LLT60UC","1585013257.410100","gb"
"706","U0108BNJX5G","1585014366.410400","gb"
"707","U010M9BB0HJ","1585041762.412800","gb"
"708","U010PJ8SRTR","1585044015.413100","gb"
"709","U010PJXBS3Y","1585048476.413400","gb"
"710","U010PM50QAJ","1585050730.413800","gb"
"711","U01099UVAUA","1585051516.414100","gb"
"712","U010C2VBCBB","1585052444.414400","gb"
"713","U010Q9HT6LW","1585062831.414900","gb"
"714","U010N7AFMHA","1585062926.415200","gb"
"715","U010QF4JQ79","1585063769.415600","gb"
"716","U010NTZB8FP","1585066807.415900","gb"
"717","U010NUT3G2H","1585067302.416200","gb"
"718","U010QHBTBPY","1585067366.416500","gb"
"719","U010NV3PCKX","1585067470.416800","gb"
"720","U010P2U4UPJ","1585069725.417700","gb"
"721","U010AKR3Z6W","1585076395.418200","gb"
"722","U010PEV8VS4","1585077332.419300","gb"
"723","U010PC9AKEG","1585085100.421700","gb"
"724","U010RE9CWUW","1585085176.421800","gb"
"725","U010PDA830U","1585086039.424500","gb"
"726","U010RJVPCTH","1585086055.424600","gb"
"727","U010PSQLYFJ","1585086287.424800","gb"
"728","U010RL9ETV5","1585086699.425000","gb"
"729","U010RMADF2T","1585087695.426800","gb"
"730","U010PNARDQV","1585090897.433400","gb"
"731","U010RTJ8AK0","1585102640.000200","gb"
"732","U010S36FRPZ","1585104749.003900","gb"
"733","U010BN2T542","1585116866.004700","gb"
"734","U010S34MUTG","1585117701.008600","gb"
"735","U010S8R901L","1585123532.008800","gb"
"736","U010BLKEZ0S","1585126145.008900","gb"
"737","U010SFH73HD","1585126451.009100","gb"
"738","U010Q5FEDRT","1585127887.009700","gb"
"739","U010QGMD5CM","1585129515.009900","gb"
"740","U010QDQ5GR2","1585130756.014600","gb"
"741","U010DHA93D1","1585134766.019000","gb"
"742","U010DHTR16X","1585135335.019200","gb"
"743","U010C7RAT50","1585135656.019300","gb"
"744","U010QM74MRA","1585138472.019900","gb"
"745","U010DPQQ2E7","1585141106.020100","gb"
"746","U010CFPGPB4","1585142061.020900","gb"
"747","U010CKCDEPL","1585144597.021100","gb"
"748","U010RE1NDCG","1585145359.021800","gb"
"749","U010RH54KH6","1585147241.028700","gb"
"750","U010R5M7LUU","1585148139.028900","gb"
"751","U010RCB72A1","1585149631.029100","gb"
"752","U010D8HHMRQ","1585155406.030800","gb"
"753","U010EKETFA7","1585156277.032900","gb"
"754","U010G3HSC9X","1585157104.033100","gb"
"755","U010ERHR04B","1585159799.034300","gb"
"756","U010G9320HF","1585160269.034500","gb"
"757","U010DR75K6E","1585165517.034700","gb"
"758","U010UFNLC9M","1585168080.035300","gb"
"759","U010UGFSN4E","1585172437.035500","gb"
"760","U010SJMDN93","1585172607.035700","gb"
"761","U010E7D63A6","1585175564.038400","gb"
"762","U010E88CX42","1585176063.038600","gb"
"763","U010SVD31GD","1585187951.039000","gb"
"764","U010FMSQ210","1585231324.043400","gb"
"765","U010JJ4NH3K","1585233796.043600","gb"
"766","U010JMLP8GZ","1585235753.044900","gb"
"767","U010WKVUFFY","1585240494.047300","gb"
"768","U010HL8RDC3","1585247458.056000","gb"
"769","U010VFG5LKS","1585249458.061000","gb"
"770","U010KLMG8M7","1585254329.061800","gb"
"771","U010XBNFKFY","1585255251.062000","gb"
"772","U010V3XAA04","1585257961.062200","gb"
"773","U010VHA0H5K","1585258348.062400","gb"
"774","U010V7XT30U","1585260777.062700","gb"
"775","U010VM36QBF","1585260985.062900","gb"
"776","U010XTMFG5C","1585270146.064300","gb"
"777","U010L38EL8H","1585275101.064700","gb"
"778","U010HGKFDNE","1585294521.070200","gb"
"779","U010K7L2U91","1585303054.073000","gb"
"780","U010W8NMRBN","1585304474.073300","gb"
"781","U010WBRRQN8","1585307705.077400","gb"
"782","U010Z2UTY2J","1585316258.077800","gb"
"783","U010YA82ESJ","1585318144.083900","gb"
"784","U010WRFC13N","1585319083.085600","gb"
"785","U010MCDGN9F","1585321049.085900","gb"
"786","U010L5Y9A0K","1585324882.087300","gb"
"787","U010MLYPQGH","1585325952.087600","gb"
"788","U010L8GHA4B","1585326451.087900","gb"
"789","U010MNDL0EM","1585326842.088200","gb"
"790","U010X9FPMS8","1585327302.088900","gb"
"791","U010GD44692","1585327846.093800","gb"
"792","U010LD2N0P5","1585329102.097000","gb"
"793","U010WDF7UAC","1585329886.097100","gb"
"794","U010XJCMAAG","1585333306.104000","gb"
"795","U010KAZ7D0S","1585337176.106300","gb"
"796","U010KB8AV6W","1585343365.106600","gb"
"797","U010Y2WQG21","1585345907.109100","gb"
"798","U010YLN6FPF","1585351566.110000","gb"
"799","U010Y7USAP6","1585351823.110300","gb"
"800","U010NKQAZU1","1585355342.110600","gb"
"801","U010NQSAHSM","1585360859.111000","gb"
"802","U010W8C1LBF","1585367175.112400","gb"
"803","U010NTVJ08Z","1585376205.116400","gb"
"804","U010Z0DUPS4","1585382518.118500","gb"
"805","U01113Y1PLP","1585395688.119100","gb"
"806","U010Z4GHYGG","1585401069.119400","gb"
"807","U010Z3UR6S1","1585403779.120100","gb"
"808","U010XK7C352","1585406969.126100","gb"
"809","U01118S6E23","1585412067.127000","gb"
"810","U011177KY86","1585420641.133000","gb"
"811","U010Z9CTN3F","1585420980.133300","gb"
"812","U010LETBZCJ","1585424541.155200","gb"
"813","U010ZBP3BJ9","1585429955.155500","gb"
"814","U010ZD43P2L","1585430092.155800","gb"
"815","U0111E3A0B1","1585430700.157100","gb"
"816","U010PCPNW81","1585431713.158800","gb"
"817","U010PCYNTHP","1585432920.159200","gb"
"818","U0111AB2CKG","1585433222.160500","gb"
"819","U010PEV711P","1585442162.161100","gb"
"820","U0111CXQWES","1585446190.161400","gb"
"821","U0111EGC8KY","1585455195.161700","gb"
"822","U010LRFUGHG","1585459117.161900","gb"
"823","U010N5NRSAX","1585465063.162400","gb"
"824","U010ZKWTTKJ","1585467059.162700","gb"
"825","U010ZNQKV32","1585480035.163100","gb"
"826","U010PN4GWPK","1585480792.163400","gb"
"827","U010N9A2F0B","1585481829.163700","gb"
"828","U0111SBAU87","1585490838.164100","gb"
"829","U010ZRW9NN4","1585492281.164400","gb"
"830","U010M4350US","1585494761.164800","gb"
"831","U0111PA1JKG","1585495245.165100","gb"
"832","U010NGH70TV","1585508523.165600","gb"
"833","U0111TMRPF0","1585511628.165900","gb"
"834","U010XEY5Q6L","1585511754.166000","gb"
"835","U010Q1JH9FT","1585513977.166200","gb"
"836","U010Q3372P3","1585520179.171000","gb"
"837","U010Q3G4MDF","1585521613.173100","gb"
"838","U01104GQW8Y","1585528705.173400","gb"
"839","U010NPVDXGB","1585534246.173800","gb"
"840","U01109N3VCG","1585535837.174100","gb"
"841","U010Q8W9A5P","1585535999.174400","gb"
"842","U0110DA5GKS","1585544448.181200","gb"
"843","U0110DDL56U","1585544645.181500","gb"
"844","U0110GUN3EZ","1585552770.182100","gb"
"845","U010MSLEW9Y","1585554237.182400","gb"
"846","U01136GDY5V","1585569214.183900","gb"
"847","U010PNMUX51","1585570702.184200","gb"
"848","U01116C1413","1585571430.184500","gb"
"849","U0110FRMS6B","1585572236.184600","gb"
"850","U011181RCG5","1585572858.184900","gb"
"851","U010PSQAELB","1585573985.185300","gb"
"852","U0113TTNECF","1585583926.185800","gb"
"853","U010P71EPS6","1585585514.186100","gb"
"854","U0112GC2RG8","1585597507.189600","gb"
"855","U010R79B9EX","1585601603.199200","gb"
"856","U01102S7P0V","1585603351.199300","gb"
"857","U01129RLLTW","1585604293.199600","gb"
"858","U0114RYKXU7","1585605287.200700","gb"
"859","U01155M7M62","1585627586.207200","gb"
"860","U010S08MHS7","1585637091.211000","gb"
"861","U01137DRELU","1585645014.213600","gb"
"862","U0115QTR5QF","1585646988.221200","gb"
"863","U010R28M89Y","1585647857.222100","gb"
"864","U0113AS75GU","1585648146.223200","gb"
"865","U010SBWN66P","1585648797.225600","gb"
"866","U010U91TTBK","1585661246.226000","gb"
"867","U011487FG3X","1585661296.226300","gb"
"868","U010U9EHR7T","1585661478.226600","gb"
"869","U0113U9LCKW","1585663483.229400","gb"
"870","U010SUT8M5H","1585663521.229900","gb"
"871","U0116ANK6CE","1585664017.231500","gb"
"872","U010UF6AXMF","1585665105.231900","gb"
"873","U0116HWM0UX","1585665821.232200","gb"
"874","U010RULSPJ6","1585668691.232900","gb"
"875","U0116K7QWBY","1585669230.233200","gb"
"876","U01148A50CU","1585669243.233500","gb"
"877","U0114A32Q3E","1585670363.233800","gb"
"878","U011760BB0W","1585680259.234300","gb"
"879","U010SGS3LCS","1585680652.234600","gb"
"880","U010SNMBSDQ","1585685543.235100","gb"
"881","U010SQD8S66","1585686691.235400","gb"
"882","U0115UAUTCY","1585698104.235700","gb"
"883","U0115KDH2LC","1585706940.236100","gb"
"884","U010W4KTANM","1585708563.236400","gb"
"885","U01188EJ5JT","1585713121.238000","gb"
"886","U01185F8RCN","1585715765.238300","gb"
"887","U0116AZ35RT","1585722339.238600","gb"
"888","U0115U5P1B6","1585723151.238900","gb"
"889","U0116SY1761","1585738487.240100","gb"
"890","U010U7XP8P4","1585740573.241100","gb"
"891","U01173XTTJ4","1585743355.241600","gb"
"892","U010X6JPVKK","1585746067.242100","gb"
"893","U0119C7AK0W","1585751553.242500","gb"
"894","U0119HL9LDV","1585752204.248100","gb"
"895","U010W2Z4MMZ","1585752335.248700","gb"
"896","U01181TG37X","1585762358.250600","gb"
"897","U0117K6R72Q","1585762907.250900","gb"
"898","U010X289003","1585771926.252900","gb"
"899","U010XCGM3JP","1585779588.253200","gb"
"900","U0118A1U6MS","1585779680.253600","gb"
"901","U010XCPKSE7","1585779785.254100","gb"
"902","U010WDTJA90","1585791571.255500","gb"
"903","U0118T0THTP","1585794845.255900","gb"
"904","U010XUF2L9Z","1585801821.256200","gb"
"905","U011ARP8MRU","1585814628.256800","gb"
"906","U011ATMV3NJ","1585819544.259300","gb"
"907","U0111198UKB","1585829196.260400","gb"
"908","U0119JVTN0M","1585832998.260700","gb"
"909","U0119L4UMDK","1585834303.261700","gb"
"910","U011AMTLK0X","1585835129.264100","gb"
"911","U0119SJAKU4","1585836536.264400","gb"
"912","U011B6VLM2A","1585837604.265000","gb"
"913","U010WPEJMFU","1585838352.265200","gb"
"914","U011AN76LUX","1585838453.265500","gb"
"915","U0119SR5LMT","1585840247.266200","gb"
"916","U0110449PRR","1585849498.268400","gb"
"917","U010YT4BM34","1585849854.269300","gb"
"918","UV442FNFK","1585853081.270900","gb"
"919","U011ANKLTNG","1585853516.271300","gb"
"920","U011D6K9RH6","1585854493.271600","gb"
"921","U011B0TK3A8","1585859376.272000","gb"
"922","U011DR5B6Q0","1585863828.272400","gb"
"923","U011BN6LZ54","1585864737.275500","gb"
"924","U011DTCAJAU","1585865175.276800","gb"
"925","U010ZRNUQ0J","1585870020.277300","gb"
"926","U01113DUV8B","1585870633.279100","gb"
"927","U011AQGHDHT","1585872443.279400","gb"
"928","U011C9CNK52","1585908077.280900","gb"
"929","U011G0YJXBJ","1585916851.282200","gb"
"930","U011CLDTKJ8","1585917687.282500","gb"
"931","U011632SYHF","1585919299.282800","gb"
"932","U011CQ4GSCU","1585920272.283100","gb"
"933","U011CQ8C9GU","1585920346.283400","gb"
"934","U0116F79UHF","1585924561.284200","gb"
"935","U01176CEPS5","1585932861.286700","gb"
"936","U011CCCTPFF","1585939653.287300","gb"
"937","U0113UW6V3M","1585942431.287700","gb"
"938","U011CNWD52A","1585943301.288000","gb"
"939","U01148F31NF","1585949003.288300","gb"
"940","U011CRMJ3V4","1585949848.288600","gb"
"941","U011CQU9J05","1585959898.288900","gb"
"942","U011K5G14RW","1585985808.289200","gb"
"943","U011K6LLBCY","1585989189.289500","gb"
"944","U011B32J55M","1585994013.292500","gb"
"945","U011K8F9WBS","1585994521.292800","gb"
"946","U011D2690PP","1586000104.293100","gb"
"947","U011D32H1PX","1586005526.293400","gb"
"948","U011EQ93ZAQ","1586005905.293700","gb"
"949","U011D38V4HK","1586006623.295100","gb"
"950","U011D3TGYA1","1586009639.297900","gb"
"951","U011D3WAY13","1586010085.298200","gb"
"952","U011KG47FMW","1586011328.298500","gb"
"953","U011ETLFXFE","1586014794.298800","gb"
"954","U011D4Z7XJ9","1586015737.299100","gb"
"955","U011D62HLBG","1586018140.299400","gb"
"956","U011KMY4RCY","1586021866.301900","gb"
"957","U011D6Q3JJJ","1586021893.302200","gb"
"958","U011F20LH1S","1586026506.302500","gb"
"959","U011F2CSS3W","1586027812.303400","gb"
"960","U011D7H9GE9","1586028713.308500","gb"
"961","U011D8T1Z61","1586036605.309200","gb"
"962","U011D8ZFW77","1586037803.317400","gb"
"963","U0115G1A03D","1586061145.331000","gb"
"964","U0119U5N3T3","1586061577.332000","gb"
"965","U011DB95VPY","1586073363.340000","gb"
"966","U011B5424FR","1586077182.340400","gb"
"967","U011A3NSWL9","1586079616.340700","gb"
"968","U0114ERCC10","1586081089.341000","gb"
"969","U0114GRKMGS","1586088490.341400","gb"
"970","U011DGAK561","1586092034.341700","gb"
"971","U011A8S06AD","1586094029.342000","gb"
"972","U011FGW893N","1586095107.342300","gb"
"973","U011LHM20HW","1586095436.342600","gb"
"974","U011DENRMFG","1586098763.343000","gb"
"975","U011FJ9GDT6","1586099412.344200","gb"
"976","U011FK9GA5A","1586103029.345000","gb"
"977","U011B7UDG6T","1586104318.345300","gb"
"978","U0115U8LPSP","1586104883.345600","gb"
"979","U011DFJ370E","1586105803.346100","gb"
"980","U011B7X7KBR","1586106872.346400","gb"
"981","U011FLRK0A0","1586108471.346700","gb"
"982","U011DKQFE4D","1586110693.347000","gb"
"983","U01161SFCNP","1586114042.347300","gb"
"984","U011B87DK4P","1586116133.347600","gb"
"985","U011DLSJC9K","1586116728.347900","gb"
"986","U011LTQQBDW","1586119665.348200","gb"
"987","U011DHQ3Z4N","1586126496.348700","gb"
"988","U011BA58RTR","1586162798.355000","gb"
"989","U0115R9V9CJ","1586164198.355300","gb"
"990","U011BAD8A5V","1586165652.355700","gb"
"991","U011DTQ085U","1586167323.356300","gb"
"992","U011DTUTKHU","1586167665.356700","gb"
"993","U0116129SQJ","1586168336.357400","gb"
"994","U01176DUPC3","1586168901.359100","gb"
"995","U011GPZE02G","1586171879.361200","gb"
"996","U011NMUSN56","1586175247.362100","gb"
"997","U011EHELDLM","1586178689.362400","gb"
"998","U0116EPFAJE","1586179151.362700","gb"
"999","U0116PLEP6E","1586183961.363100","gb"
"1000","U01188XCK19","1586189686.363700","gb"
"1001","U011E9Z2UF8","1586190481.364200","gb"
"1002","U011HNEMU9J","1586192069.364500","gb"
"1003","U011J62JFHS","1586202465.365100","gb"
"1004","U0117TTQP18","1586204335.365400","gb"
"1005","U011EJX7MB8","1586208924.366300","gb"
"1006","U011R8E6F32","1586210022.368300","gb"
"1007","U011F096MNV","1586210685.368600","gb"
"1008","U011JGHK5AQ","1586213140.368900","gb"
"1009","U0119D7U2SX","1586213526.371000","gb"
"1010","U011FPD1QLV","1586223277.371900","gb"
"1011","U0119S5AU3D","1586232757.372400","gb"
"1012","U011G1G2KQD","1586242993.372800","gb"
"1013","U011K52JF0U","1586244593.373100","gb"
"1014","U011SLGPQFJ","1586249103.374700","gb"
"1015","U011BGJUFAB","1586250760.375000","gb"
"1016","U011H56KL4R","1586264548.381700","gb"
"1017","U011GJ6NL4D","1586266127.382000","gb"
"1018","U011B43S6PM","1586267068.382300","gb"
"1019","U011BJWBFDM","1586273105.382800","gb"
"1020","U011LBJA7MJ","1586275547.383100","gb"
"1021","U011BKM7P71","1586279311.383400","gb"
"1022","U011H4JDESH","1586281177.383700","gb"
"1023","U011C6SQ6V9","1586285618.384500","gb"
"1024","U011B7508CA","1586287239.390700","gb"
"1025","U011M0GS1MJ","1586289637.391700","gb"
"1026","U011VF29MK2","1586289867.392000","gb"
"1027","U011M78B6VA","1586295505.397300","gb"
"1028","U011DD9EMQB","1586325126.398600","gb"
"1029","U011X270TS4","1586331040.398900","gb"
"1030","U011CRU6F8A","1586338882.401300","gb"
"1031","U011N89UDE0","1586338884.401500","gb"
"1032","U011BRFPK39","1586340154.402800","gb"
"1033","U011BSKJZHV","1586349226.403000","gb"
"1034","U011DCG7Z26","1586351666.403400","gb"
"1035","U011DCQ66NN","1586351811.403600","gb"
"1036","U011GD4PNPQ","1586352074.403800","gb"
"1037","U011N1C7VRP","1586354807.404000","gb"
"1038","U011JHXC0MT","1586354927.404100","gb"
"1039","U011JRAJ1CM","1586358166.404300","gb"
"1040","U011NB3UBFB","1586358567.404600","gb"
"1041","U011NAZK9C1","1586358747.404700","gb"
"1042","U0117K7SDK4","1586363116.405100","gb"
"1043","U011Z6FS5MW","1586363169.405300","gb"
"1044","U011K3B684V","1586364617.405500","gb"
"1045","U011PEVETMJ","1586366544.405800","gb"
"1046","U011ZGR3L8G","1586367467.407000","gb"
"1047","U011FP3LP8T","1586373251.408200","gb"
"1048","U01207SSQ0G","1586377335.408700","gb"
"1049","U0120D3KK2L","1586380223.409000","gb"
"1050","U011H19AK7G","1586381898.409200","gb"
"1051","U011H1K1JBY","1586382680.409400","gb"
"1052","U011C2TQPQX","1586412838.418300","gb"
"1053","U011C3EAHLP","1586420166.418500","gb"
"1054","U011RGC6KQR","1586422589.418700","gb"
"1055","U011HC28YH4","1586422776.419200","gb"
"1056","U011R2UV0VA","1586425676.423300","gb"
"1057","U011HRHA659","1586437861.425000","gb"
"1058","U011HLQ3NH4","1586442641.425200","gb"
"1059","U011KLG0UNP","1586475587.425500","gb"
"1060","U0125K6US3A","1586486976.425700","gb"
"1061","U011RS1D06L","1586503015.425800","gb"
"1062","U0126BVUWTA","1586514138.426000","gb"
"1063","U011VTSJTPB","1586514724.426200","gb"
"1064","U0126EXGWQY","1586517635.426400","gb"
"1065","U011JJUR0AJ","1586523734.431900","gb"
"1066","U011JHWPRRB","1586541923.434200","gb"
"1067","U011XCJJ7KK","1586546580.434600","gb"
"1068","U011MJK2K43","1586548367.435100","gb"
"1069","U011LRK6UV8","1586551642.435400","gb"
"1070","U011MCWH2H0","1586593463.435700","gb"
"1071","U011V9XEKD2","1586595198.435900","gb"
"1072","U011CHEP0UX","1586604290.436200","gb"
"1073","U011MH0U9K4","1586607123.436500","gb"
"1074","U011P9RS2P7","1586607597.436700","gb"
"1075","U011VCLEZKN","1586607834.436900","gb"
"1076","U011MK5NH0S","1586613460.437200","gb"
"1077","U011VGFNM9A","1586622559.437400","gb"
"1078","U011KA8NB2A","1586631143.440500","gb"
"1079","U011NP3QRLK","1586638899.440900","gb"
"1080","U011NR5GVHR","1586647516.441300","gb"
"1081","U011NSDDEKV","1586652901.442200","gb"
"1082","U011CLVJMQX","1586691722.451400","gb"
"1083","U011PP4H2BF","1586692001.451600","gb"
"1084","U011NDHPS2E","1586698533.452600","gb"
"1085","U011W4N3XU4","1586700872.454300","gb"
"1086","U011P9U1MU3","1586701086.454500","gb"
"1087","U011PQW5JLD","1586703399.454700","gb"
"1088","U012A6WA3GQ","1586707192.455300","gb"
"1089","U011NJ37M0S","1586713203.462200","gb"
"1090","U011W90JUCC","1586718864.462400","gb"
"1091","U011CNRLYDV","1586741386.462600","gb"
"1092","U012AQQQYP2","1586750837.462800","gb"
"1093","U011WSPEDGU","1586769231.463400","gb"
"1094","U012BAZK4TS","1586769975.463600","gb"
"1095","U012CCYGG48","1586793673.464700","gb"
"1096","U011R307NH3","1586802615.464900","gb"
"1097","U011Y788MEY","1586809554.465400","gb"
"1098","U011Y83JJ04","1586810539.465700","gb"
"1099","U012DU78Q6L","1586818668.466000","gb"
"1100","U0123D6FZ41","1586821341.466200","gb"
"1101","U012F73G7GQ","1586851565.467700","gb"
"1102","U011LQ49GLW","1586855539.467900","gb"
"1103","U011STK4883","1586855725.470700","gb"
"1104","U0124UA6NBT","1586861265.473700","gb"
"1105","U0122PL863B","1586872152.473800","gb"
"1106","U011S9UHY2H","1586874012.474100","gb"
"1107","U011TLX75U3","1586875124.474300","gb"
"1108","U0125SH5LDP","1586875903.474500","gb"
"1109","U01205TU3QU","1586885293.481000","gb"
"1110","U0120AGV1PE","1586889006.481200","gb"
"1111","U011DFM4QET","1586890820.481400","gb"
"1112","U012J389JGY","1586890900.481600","gb"
"1113","U0120HBFWG4","1586894780.481800","gb"
"1114","U0120HRL99S","1586895162.482000","gb"
"1115","U011MRXFFT8","1586900160.482400","gb"
"1116","U0120RVQYHJ","1586903569.483800","gb"
"1117","U011N317G94","1586909154.484800","gb"
"1118","U011DJPT0VB","1586917008.485000","gb"
"1119","U012JR234UQ","1586919038.485200","gb"
"1120","U011VNGLUHG","1586950153.485900","gb"
"1121","U011FLEAST1","1586965247.490600","gb"
"1122","U011V4B6RU5","1586967155.494000","gb"
"1123","U0122LXD076","1586967575.499500","gb"
"1124","U011G0QGFN3","1586972010.000300","gb"
"1125","U011Q1MUY1L","1586972745.000500","gb"
"1126","U0129F8FC57","1586975093.002100","gb"
"1127","U010PC3QFFA","1586978134.002500","cj"
"1128","U010PC3QFFA","1586978135.002600","gb"
"1129","U010ZV6MNTZ","1586978142.002800","cj"
"1130","U010ZV6MNTZ","1586978143.002900","gb"
"1131","U010XDVC6GL","1586978157.003200","cj"
"1132","U010XDVC6GL","1586978158.003300","gb"
"1133","U0122HZJ18U","1586978377.003400","gb"
"1134","U011VL7PJFP","1586979277.004000","gb"
"1135","U011X24CJN6","1586979394.004200","gb"
"1136","U0123959PEG","1586981140.004400","gb"
"1137","U011X6ED9TL","1586983093.004600","gb"
"1138","U011X9JASTC","1586985973.004800","gb"
"1139","U011WGYUCG5","1587017754.006400","gb"
"1140","U011HGM1Q4F","1587028936.006800","gb"
"1141","U011RQN98UW","1587037756.007900","gb"
"1142","U01250UKJCC","1587044963.008100","gb"
"1143","U011JCFRJEB","1587052035.008600","gb"
"1144","U011JFRM9JB","1587054730.008900","gb"
"1145","U011JLY7SGP","1587056286.009200","gb"
"1146","U011Y2S0AER","1587056820.009400","gb"
"1147","U012PKWLPA4","1587065019.009700","gb"
"1148","U011K8XFRGX","1587070091.009900","gb"
"1149","U01207ER9L2","1587076814.010100","gb"
"1150","U011TFHR04E","1587077173.010300","gb"
"1151","U011KUG3KTR","1587101514.010500","gb"
"1152","U012755RD0C","1587113488.010800","gb"
"1153","U011UA38DV4","1587115615.011000","gb"
"1154","U012DR790JD","1587120658.017700","gb"
"1155","U011V2S867Q","1587136032.018000","gb"
"1156","U011VLNAKLN","1587149728.019200","gb"
"1157","U012F5CDYRF","1587152822.019400","gb"
"1158","U0123CM4M43","1587201341.019600","gb"
"1159","U011WK05V2S","1587221025.019800","gb"
"1160","U012G0X589F","1587223370.020200","gb"
"1161","U0123ED8WV8","1587231141.020400","gb"
"1162","U01227WL6FP","1587250564.020800","gb"
"1163","U0123KJHRSN","1587253007.021000","gb"
"1164","U0124142S5R","1587280790.021300","gb"
"1165","U012419JQPM","1587281679.021800","gb"
"1166","U01243D50RH","1587291329.022000","gb"
"1167","U011X8L2UGN","1587305435.028600","gb"
"1168","U012A7FCA9J","1587312093.028800","gb"
"1169","U012U74N1FA","1587347562.029100","gb"
"1170","U011CT12X8X","1587371593.029300","gb"
"1171","U0123RWDZA9","1587384261.029600","gb"
"1172","U011QJHRZ0X","1587387361.029900","gb"
"1173","U011Z43JHML","1587398115.030200","gb"
"1174","U011ZBLUNTY","1587403776.030400","gb"
"1175","U011ZGHR18W","1587407773.030600","gb"
"1176","U0126DX4GR0","1587412419.030800","gb"
"1177","U0122HX7VB7","1587463865.031100","gb"
"1178","U0128ATKHDY","1587480736.031300","gb"
"1179","U012982CKQB","1587495780.031500","gb"
"1180","U011NP2GGJJ","1587550780.031600","gb"
"1181","U0129H2PYBX","1587564122.031800","gb"
"1182","U012BFUB3CK","1587571196.032000","gb"
"1183","U012Q25C31P","1587573609.032600","gb"
"1184","U012C7ML7MZ","1587587792.032900","gb"
"1185","U012ASH0XCM","1587594873.033100","gb"
"1186","U0125NWCHTQ","1587606040.037800","gb"
"1187","U011XU3AH0F","1587616805.043900","gb"
"1188","U012CUFADR9","1587620914.044100","gb"
"1189","U012DMH8C91","1587645699.052000","gb"
"1190","U0126RV1SCW","1587658682.053700","gb"
"1191","U0127F119GE","1587660435.053900","gb"
"1192","U012CS67BBP","1587661281.054200","gb"
"1193","U012CN299JP","1587672039.055400","gb"
"1194","U012MBHSP1S","1587688127.057200","gb"
"1195","U012B48G3FX","1587709010.057400","gb"
"1196","U012NUJBLMS","1587743292.058000","gb"
"1197","U012PAADW2Y","1587751955.058200","gb"
"1198","U0137DMGCP2","1587763988.058600","gb"
"1199","U012PU1540L","1587771538.058800","gb"
"1200","U0123E3591V","1587822984.064500","gb"
"1201","U0123EC8WPR","1587823786.067400","gb"
"1202","U012JBFNBL2","1587842081.072800","gb"
"1203","U0123LMFJNT","1587848091.075900","gb"
"1204","U012JRY6Q4A","1587924545.077000","gb"
"1205","U012R6DMAJY","1587933644.080000","gb"
"1206","U01393EMNDN","1587956243.080200","gb"
"1207","U012HT7UUSH","1587958495.080400","gb"
"1208","U012JRY6FDG","1587968127.081000","gb"
"1209","U012M79TM9Q","1588016083.086100","gb"
"1210","U0127ERKYTH","1588059472.086700","gb"
"1211","U0132G0EHNV","1588101437.088300","gb"
"1212","U013ED82H16","1588129308.090000","gb"
"1213","U012R8TDBGT","1588152422.090400","gb"
"1214","U012PSB1A1K","1588158770.090600","gb"
"1215","U012AKH7763","1588162957.090800","gb"
"1216","U012K7JSL7Q","1588175895.094700","gb"
"1217","U012Y8AJMBN","1588178186.095000","gb"
"1218","U0134PD5AMP","1588179628.095200","gb"
"1219","U012YDF5XEG","1588182033.096000","gb"
"1220","U012R3F0PBP","1588186837.096300","gb"
"1221","U012SNWMF7U","1588193816.096500","gb"
"1222","U012SQJGMGS","1588195270.096700","gb"
"1223","U012RP2DPB7","1588208374.096900","gb"
"1224","U012ZLAE5MJ","1588229351.097100","gb"
"1225","U012N7J908N","1588266949.099200","gb"
"1226","U012E8S1QQP","1588268873.099400","gb"
"1227","U012NFJCJ06","1588273166.099700","gb"
"1228","U012NGSRWA2","1588274139.099900","gb"
"1229","U012NQ4TUB0","1588280423.100100","gb"
"1230","U012KS8N6KF","1588289798.100300","gb"
"1231","U013L0VS472","1588314693.100600","gb"
"1232","U01393AJ9BK","1588333825.100800","gb"
"1233","U012QAY466A","1588353190.102200","gb"
"1234","U0133953ZK6","1588353961.102400","gb"
"1235","U012XFWCW3D","1588359316.102700","gb"
"1236","U01342HB9QU","1588386974.103200","gb"
"1237","U012XSSRE82","1588387538.103400","gb"
"1238","U012H74ACEB","1588397347.105700","gb"
"1239","U012H7EE0QP","1588399078.105900","gb"
"1240","U013MQJEQP2","1588401044.106300","gb"
"1241","U012WMQ0AE9","1588439339.106600","gb"
"1242","U012Z5VG6R1","1588534946.106800","gb"
"1243","U013NQG86SC","1588535590.107000","gb"
"1244","U01319FQPUL","1588643298.108100","gb"
"1245","U0131T9QYKD","1588651079.108300","gb"
"1246","U012XSPFCGK","1588653059.108400","gb"
"1247","U013EQ95FNV","1588673453.108600","gb"
"1248","U012MMGH7L7","1588682607.109600","gb"
"1249","U0133SXG9M3","1588775274.115600","gb"
"1250","U01359A5LCA","1588775658.115900","gb"
"1251","U0137HD742Y","1588799538.119400","gb"
"1252","U0137JZSFBP","1588884737.120800","gb"
"1253","U012W728FE3","1588959928.121500","gb"
"1254","U013H7V0RQC","1588962570.121900","gb"
"1255","U013HD5P5NY","1588967419.122200","gb"
"1256","U013D18970T","1589140975.123900","gb"
"1257","U013H8GRE11","1589299036.133700","gb"
"1258","U0132CTMGJ3","1589300989.133900","gb"
"1259","U013H99Q0AE","1589303985.134300","gb"
"1260","U013Q3W2S20","1589320127.138600","gb"
"1261","U013WUUB34H","1589342992.139100","gb"
