[
    {
        "client_msg_id": "d2b5909d-3961-4b57-ad07-812c7cc97c34",
        "type": "message",
        "text": "TWIST's positive control RNA sequences are now in the shared LAMP drive. This was their answer to my question of safety:",
        "user": "UUPQGNNTV",
        "ts": "1588096040.087000",
        "team": "TUU48M0T1",
        "user_team": "TUU48M0T1",
        "source_team": "TUU48M0T1",
        "user_profile": {
            "avatar_hash": "c28127caf7eb",
            "image_72": "https:\/\/avatars.slack-edge.com\/2020-03-07\/989562470694_c28127caf7ebfe67df97_72.jpg",
            "first_name": "",
            "real_name": "Ellen Jorgensen",
            "display_name": "",
            "team": "TUU48M0T1",
            "name": "ejorgensen",
            "is_restricted": false,
            "is_ultra_restricted": false
        },
        "blocks": [
            {
                "type": "rich_text",
                "block_id": "=f1",
                "elements": [
                    {
                        "type": "rich_text_section",
                        "elements": [
                            {
                                "type": "text",
                                "text": "TWIST's positive control RNA sequences are now in the shared LAMP drive. This was their answer to my question of safety:"
                            }
                        ]
                    }
                ]
            }
        ]
    },
    {
        "client_msg_id": "46f4f02d-fbf3-42ae-9c94-376470086faa",
        "type": "message",
        "text": "Thank you for your email regarding our SARS-CoV-2 RNA controls. As you mentioned, our controls are split up into six non-overlapping fragments of 5kb each. Thus, it is incredibly unlikely that a viable virus could be created. Due to manufacturing constrains, the last fragment does not contain a polyA tail – it only has 5 A-bases appended to the end. I am attaching the sequences of our two controls to this email. The sequences of the first three fragments are the same between the two strains; the last three fragments differ by 3 bases (SNPs) and a 10 base pair deletion.",
        "user": "UUPQGNNTV",
        "ts": "1588096042.087200",
        "team": "TUU48M0T1",
        "user_team": "TUU48M0T1",
        "source_team": "TUU48M0T1",
        "user_profile": {
            "avatar_hash": "c28127caf7eb",
            "image_72": "https:\/\/avatars.slack-edge.com\/2020-03-07\/989562470694_c28127caf7ebfe67df97_72.jpg",
            "first_name": "",
            "real_name": "Ellen Jorgensen",
            "display_name": "",
            "team": "TUU48M0T1",
            "name": "ejorgensen",
            "is_restricted": false,
            "is_ultra_restricted": false
        },
        "blocks": [
            {
                "type": "rich_text",
                "block_id": "9\/Mg",
                "elements": [
                    {
                        "type": "rich_text_section",
                        "elements": [
                            {
                                "type": "text",
                                "text": "Thank you for your email regarding our SARS-CoV-2 RNA controls. As you mentioned, our controls are split up into six non-overlapping fragments of 5kb each. Thus, it is incredibly unlikely that a viable virus could be created. Due to manufacturing constrains, the last fragment does not contain a polyA tail – it only has 5 A-bases appended to the end. I am attaching the sequences of our two controls to this email. The sequences of the first three fragments are the same between the two strains; the last three fragments differ by 3 bases (SNPs) and a 10 base pair deletion."
                            }
                        ]
                    }
                ]
            }
        ]
    },
    {
        "client_msg_id": "1c205262-0ff7-412d-aff3-c28ffa90e92f",
        "type": "message",
        "text": "My company has judged that this control is safe to use in BSL1 areas.",
        "user": "UUPQGNNTV",
        "ts": "1588096072.087700",
        "team": "TUU48M0T1",
        "user_team": "TUU48M0T1",
        "source_team": "TUU48M0T1",
        "user_profile": {
            "avatar_hash": "c28127caf7eb",
            "image_72": "https:\/\/avatars.slack-edge.com\/2020-03-07\/989562470694_c28127caf7ebfe67df97_72.jpg",
            "first_name": "",
            "real_name": "Ellen Jorgensen",
            "display_name": "",
            "team": "TUU48M0T1",
            "name": "ejorgensen",
            "is_restricted": false,
            "is_ultra_restricted": false
        },
        "blocks": [
            {
                "type": "rich_text",
                "block_id": "9+u",
                "elements": [
                    {
                        "type": "rich_text_section",
                        "elements": [
                            {
                                "type": "text",
                                "text": "My company has judged that this control is safe to use in BSL1 areas."
                            }
                        ]
                    }
                ]
            }
        ]
    }
]