[
    {
        "client_msg_id": "c4bf47c3-b650-49e8-b2e9-d2b99a59ce9c",
        "type": "message",
        "text": "Hi Biosafety group! I'm on the communication team and we are creating a Biosafety Statements resource for community members and for the press. This is a list of commonly asked biosafety questions which we've prepared and I'd like to ask for your help in answering them. Simple bullet points are great, we can craft statements from there and bring them back to you for final review.  I saw in your Biosafety\/Biosecurity Guideline docs that you were planning something similar (Biosafety &amp; Biosecurity FAQs) so these could be used there too!       Feel free to add your own questions too.   Thanks!\n\nThe document: <https:\/\/docs.google.com\/document\/d\/1bHAatKemqHx7RJgxb5Unxx4cZ-PY2Tsf7yzD1TUITgY\/edit#>",
        "user": "UV76CQTB4",
        "ts": "1585588821.033100",
        "team": "TUU48M0T1",
        "user_team": "TUU48M0T1",
        "source_team": "TUU48M0T1",
        "user_profile": {
            "avatar_hash": "07668a20a751",
            "image_72": "https:\/\/avatars.slack-edge.com\/2020-03-17\/993297059666_07668a20a751afe52104_72.png",
            "first_name": "",
            "real_name": "Julie Legault",
            "display_name": "Julie Legault",
            "team": "TUU48M0T1",
            "name": "julie",
            "is_restricted": false,
            "is_ultra_restricted": false
        },
        "blocks": [
            {
                "type": "rich_text",
                "block_id": "2if",
                "elements": [
                    {
                        "type": "rich_text_section",
                        "elements": [
                            {
                                "type": "text",
                                "text": "Hi Biosafety group! I'm on the communication team and we are creating a Biosafety Statements resource for community members and for the press. This is a list of commonly asked biosafety questions which we've prepared and I'd like to ask for your help in answering them. Simple bullet points are great, we can craft statements from there and bring them back to you for final review.  I saw in your Biosafety\/Biosecurity Guideline docs that you were planning something similar (Biosafety & Biosecurity FAQs) so these could be used there too!       Feel free to add your own questions too.   Thanks!\n\nThe document: "
                            },
                            {
                                "type": "link",
                                "url": "https:\/\/docs.google.com\/document\/d\/1bHAatKemqHx7RJgxb5Unxx4cZ-PY2Tsf7yzD1TUITgY\/edit#"
                            }
                        ]
                    }
                ]
            }
        ],
        "thread_ts": "1585588821.033100",
        "reply_count": 5,
        "reply_users_count": 3,
        "latest_reply": "1585657330.034600",
        "reply_users": [
            "UV1V637PU",
            "UV76CQTB4",
            "UV1A22N3W"
        ],
        "replies": [
            {
                "user": "UV1V637PU",
                "ts": "1585598986.033200"
            },
            {
                "user": "UV76CQTB4",
                "ts": "1585599862.033800"
            },
            {
                "user": "UV76CQTB4",
                "ts": "1585599965.034000"
            },
            {
                "user": "UV1A22N3W",
                "ts": "1585652035.034300"
            },
            {
                "user": "UV1A22N3W",
                "ts": "1585657330.034600"
            }
        ],
        "subscribed": false
    },
    {
        "type": "message",
        "subtype": "thread_broadcast",
        "text": "Thanks <@UV76CQTB4> - I requested edit access :simple_smile:",
        "user": "UV1V637PU",
        "ts": "1585598986.033200",
        "thread_ts": "1585588821.033100",
        "root": {
            "client_msg_id": "c4bf47c3-b650-49e8-b2e9-d2b99a59ce9c",
            "type": "message",
            "text": "Hi Biosafety group! I'm on the communication team and we are creating a Biosafety Statements resource for community members and for the press. This is a list of commonly asked biosafety questions which we've prepared and I'd like to ask for your help in answering them. Simple bullet points are great, we can craft statements from there and bring them back to you for final review.  I saw in your Biosafety\/Biosecurity Guideline docs that you were planning something similar (Biosafety &amp; Biosecurity FAQs) so these could be used there too!       Feel free to add your own questions too.   Thanks!\n\nThe document: <https:\/\/docs.google.com\/document\/d\/1bHAatKemqHx7RJgxb5Unxx4cZ-PY2Tsf7yzD1TUITgY\/edit#>",
            "user": "UV76CQTB4",
            "ts": "1585588821.033100",
            "team": "TUU48M0T1",
            "blocks": [
                {
                    "type": "rich_text",
                    "block_id": "2if",
                    "elements": [
                        {
                            "type": "rich_text_section",
                            "elements": [
                                {
                                    "type": "text",
                                    "text": "Hi Biosafety group! I'm on the communication team and we are creating a Biosafety Statements resource for community members and for the press. This is a list of commonly asked biosafety questions which we've prepared and I'd like to ask for your help in answering them. Simple bullet points are great, we can craft statements from there and bring them back to you for final review.  I saw in your Biosafety\/Biosecurity Guideline docs that you were planning something similar (Biosafety & Biosecurity FAQs) so these could be used there too!       Feel free to add your own questions too.   Thanks!\n\nThe document: "
                                },
                                {
                                    "type": "link",
                                    "url": "https:\/\/docs.google.com\/document\/d\/1bHAatKemqHx7RJgxb5Unxx4cZ-PY2Tsf7yzD1TUITgY\/edit#"
                                }
                            ]
                        }
                    ]
                }
            ],
            "thread_ts": "1585588821.033100",
            "reply_count": 5,
            "reply_users_count": 3,
            "latest_reply": "1585657330.034600",
            "reply_users": [
                "UV1V637PU",
                "UV76CQTB4",
                "UV1A22N3W"
            ],
            "subscribed": false
        },
        "blocks": [
            {
                "type": "rich_text",
                "block_id": "4Ln",
                "elements": [
                    {
                        "type": "rich_text_section",
                        "elements": [
                            {
                                "type": "text",
                                "text": "Thanks "
                            },
                            {
                                "type": "user",
                                "user_id": "UV76CQTB4"
                            },
                            {
                                "type": "text",
                                "text": " - I requested edit access "
                            },
                            {
                                "type": "emoji",
                                "name": "simple_smile"
                            }
                        ]
                    }
                ]
            }
        ],
        "client_msg_id": "c5e2893b-a4d3-4c8f-becd-1dc1b4c0f328",
        "reactions": [
            {
                "name": "star-struck",
                "users": [
                    "UV76CQTB4"
                ],
                "count": 1
            }
        ]
    },
    {
        "client_msg_id": "C42AFE49-BBA8-497B-9501-86F40D3B9F50",
        "type": "message",
        "text": "Oh I’ll fix the permissions :) ",
        "user": "UV76CQTB4",
        "ts": "1585599862.033800",
        "team": "TUU48M0T1",
        "user_team": "TUU48M0T1",
        "source_team": "TUU48M0T1",
        "user_profile": {
            "avatar_hash": "07668a20a751",
            "image_72": "https:\/\/avatars.slack-edge.com\/2020-03-17\/993297059666_07668a20a751afe52104_72.png",
            "first_name": "",
            "real_name": "Julie Legault",
            "display_name": "Julie Legault",
            "team": "TUU48M0T1",
            "name": "julie",
            "is_restricted": false,
            "is_ultra_restricted": false
        },
        "blocks": [
            {
                "type": "rich_text",
                "block_id": "BO\/",
                "elements": [
                    {
                        "type": "rich_text_section",
                        "elements": [
                            {
                                "type": "text",
                                "text": "Oh I’ll fix the permissions :) "
                            }
                        ]
                    }
                ]
            }
        ],
        "thread_ts": "1585588821.033100",
        "parent_user_id": "UV76CQTB4"
    },
    {
        "client_msg_id": "70890593-a6c1-4245-8dab-1cc4447c6b22",
        "type": "message",
        "text": "You should be able to edit now :slightly_smiling_face:",
        "user": "UV76CQTB4",
        "ts": "1585599965.034000",
        "team": "TUU48M0T1",
        "user_team": "TUU48M0T1",
        "source_team": "TUU48M0T1",
        "user_profile": {
            "avatar_hash": "07668a20a751",
            "image_72": "https:\/\/avatars.slack-edge.com\/2020-03-17\/993297059666_07668a20a751afe52104_72.png",
            "first_name": "",
            "real_name": "Julie Legault",
            "display_name": "Julie Legault",
            "team": "TUU48M0T1",
            "name": "julie",
            "is_restricted": false,
            "is_ultra_restricted": false
        },
        "blocks": [
            {
                "type": "rich_text",
                "block_id": "JyN",
                "elements": [
                    {
                        "type": "rich_text_section",
                        "elements": [
                            {
                                "type": "text",
                                "text": "You should be able to edit now "
                            },
                            {
                                "type": "emoji",
                                "name": "slightly_smiling_face"
                            }
                        ]
                    }
                ]
            }
        ],
        "thread_ts": "1585588821.033100",
        "parent_user_id": "UV76CQTB4"
    }
]