[
    {
        "type": "message",
        "subtype": "channel_name",
        "ts": "1586876805.000100",
        "user": "U011XCJJ7KK",
        "text": "<@U011XCJJ7KK> has renamed the channel from \"savetheanimals\" to \"proj-savetheanimals\"",
        "old_name": "savetheanimals",
        "name": "proj-savetheanimals"
    },
    {
        "type": "message",
        "subtype": "channel_purpose",
        "ts": "1586876805.000200",
        "user": "U011XCJJ7KK",
        "text": "<@U011XCJJ7KK> set the channel purpose: This project is about building a face mask for zoo animals to protect them from getting infected with the Coronavirus. For more information please visit <https:\/\/solve.mit.edu\/challenges\/health-security-pandemics\/solutions\/21752>",
        "purpose": "This project is about building a face mask for zoo animals to protect them from getting infected with the Coronavirus. For more information please visit <https:\/\/solve.mit.edu\/challenges\/health-security-pandemics\/solutions\/21752>"
    }
]