<?xml version="1.0" encoding="UTF-8"?>
<graphml xmlns="http://graphml.graphdrawing.org/xmlns"
         xmlns:xsi="http://www.w3.org/2001/XMLSchema-instance"
         xsi:schemaLocation="http://graphml.graphdrawing.org/xmlns
         http://graphml.graphdrawing.org/xmlns/1.0/graphml.xsd">
<!-- Created by igraph -->
  <key id="v_name" for="node" attr.name="name" attr.type="string"/>
  <key id="e_weight" for="edge" attr.name="weight" attr.type="double"/>
  <graph id="G" edgedefault="undirected">
    <node id="n0">
      <data key="v_name">JOGL</data>
    </node>
    <node id="n1">
      <data key="v_name">AWisdomJourney</data>
    </node>
    <node id="n2">
      <data key="v_name">Containerlab</data>
    </node>
    <node id="n3">
      <data key="v_name">robotmissions</data>
    </node>
    <node id="n4">
      <data key="v_name">Ikigai</data>
    </node>
    <node id="n5">
      <data key="v_name">PO</data>
    </node>
    <node id="n6">
      <data key="v_name">dawatrack</data>
    </node>
    <node id="n7">
      <data key="v_name">WebScout</data>
    </node>
    <node id="n8">
      <data key="v_name">Boardgame</data>
    </node>
    <node id="n9">
      <data key="v_name">Opscidia</data>
    </node>
    <node id="n10">
      <data key="v_name">JOGP</data>
    </node>
    <node id="n11">
      <data key="v_name">EduKey</data>
    </node>
    <node id="n12">
      <data key="v_name">Ocean</data>
    </node>
    <node id="n13">
      <data key="v_name">openwatertest</data>
    </node>
    <node id="n14">
      <data key="v_name">FABSDGs</data>
    </node>
    <node id="n15">
      <data key="v_name">PIOGE</data>
    </node>
    <node id="n16">
      <data key="v_name">HERApp</data>
    </node>
    <node id="n17">
      <data key="v_name">bhc</data>
    </node>
    <node id="n18">
      <data key="v_name">TwitterVac</data>
    </node>
    <node id="n19">
      <data key="v_name">VaEsGa</data>
    </node>
    <node id="n20">
      <data key="v_name">TravailPair</data>
    </node>
    <node id="n21">
      <data key="v_name">EPathways</data>
    </node>
    <node id="n22">
      <data key="v_name">VaccineDataDump</data>
    </node>
    <node id="n23">
      <data key="v_name">vaxtrends</data>
    </node>
    <node id="n24">
      <data key="v_name">greg001</data>
    </node>
    <node id="n25">
      <data key="v_name">Hulkbooster</data>
    </node>
    <node id="n26">
      <data key="v_name">HarmonizeVaccination</data>
    </node>
    <node id="n27">
      <data key="v_name">metaimmune</data>
    </node>
    <node id="n28">
      <data key="v_name">UnderstandingTwitterAds</data>
    </node>
    <node id="n29">
      <data key="v_name">biopunkchallenge</data>
    </node>
    <node id="n30">
      <data key="v_name">Sapelli</data>
    </node>
    <node id="n31">
      <data key="v_name">biloba</data>
    </node>
    <node id="n32">
      <data key="v_name">WakuSenshi</data>
    </node>
    <node id="n33">
      <data key="v_name">Crawler</data>
    </node>
    <node id="n34">
      <data key="v_name">PassItOn</data>
    </node>
    <node id="n35">
      <data key="v_name">GoViral</data>
    </node>
    <node id="n36">
      <data key="v_name">mva</data>
    </node>
    <node id="n37">
      <data key="v_name">VaccRiskAssess</data>
    </node>
    <node id="n38">
      <data key="v_name">VaxTopics</data>
    </node>
    <node id="n39">
      <data key="v_name">ESIDM</data>
    </node>
    <node id="n40">
      <data key="v_name">VaxAdministrationOnSocialMedia</data>
    </node>
    <node id="n41">
      <data key="v_name">VaxHesitancyOnSocialMedia</data>
    </node>
    <node id="n42">
      <data key="v_name">3duf</data>
    </node>
    <node id="n43">
      <data key="v_name">FOCHrwanda</data>
    </node>
    <node id="n44">
      <data key="v_name">committopromotevaccination</data>
    </node>
    <node id="n45">
      <data key="v_name">metafluidics</data>
    </node>
    <node id="n46">
      <data key="v_name">tb</data>
    </node>
    <node id="n47">
      <data key="v_name">Covid19DetectionKit</data>
    </node>
    <node id="n48">
      <data key="v_name">fungar</data>
    </node>
    <node id="n49">
      <data key="v_name">TheWorldSim</data>
    </node>
    <node id="n50">
      <data key="v_name">HE</data>
    </node>
    <node id="n51">
      <data key="v_name">Coronavirusawareness</data>
    </node>
    <node id="n52">
      <data key="v_name">PandemicAlert</data>
    </node>
    <node id="n53">
      <data key="v_name">Covid19cures</data>
    </node>
    <node id="n54">
      <data key="v_name">STEAMforChange</data>
    </node>
    <node id="n55">
      <data key="v_name">NoContact</data>
    </node>
    <node id="n56">
      <data key="v_name">S4G</data>
    </node>
    <node id="n57">
      <data key="v_name">constrution</data>
    </node>
    <node id="n58">
      <data key="v_name">MakersHospitalSupportProjects</data>
    </node>
    <node id="n59">
      <data key="v_name">COVID19</data>
    </node>
    <node id="n60">
      <data key="v_name">aicoughdetection</data>
    </node>
    <node id="n61">
      <data key="v_name">Vigibot</data>
    </node>
    <node id="n62">
      <data key="v_name">continuumplus</data>
    </node>
    <node id="n63">
      <data key="v_name">QuantifiedFlu</data>
    </node>
    <node id="n64">
      <data key="v_name">SONA</data>
    </node>
    <node id="n65">
      <data key="v_name">contacttraceCOVID19</data>
    </node>
    <node id="n66">
      <data key="v_name">ClimHB</data>
    </node>
    <node id="n67">
      <data key="v_name">MesData</data>
    </node>
    <node id="n68">
      <data key="v_name">edgame</data>
    </node>
    <node id="n69">
      <data key="v_name">Matteroflifeanddeath</data>
    </node>
    <node id="n70">
      <data key="v_name">Matteroflife</data>
    </node>
    <node id="n71">
      <data key="v_name">Savinglives</data>
    </node>
    <node id="n72">
      <data key="v_name">COVID19map</data>
    </node>
    <node id="n73">
      <data key="v_name">Indirectcontact</data>
    </node>
    <node id="n74">
      <data key="v_name">Indirectcontact2</data>
    </node>
    <node id="n75">
      <data key="v_name">Recycling</data>
    </node>
    <node id="n76">
      <data key="v_name">Resourcesallocation</data>
    </node>
    <node id="n77">
      <data key="v_name">Behavioralchange</data>
    </node>
    <node id="n78">
      <data key="v_name">maskchallenge</data>
    </node>
    <node id="n79">
      <data key="v_name">Breezy</data>
    </node>
    <node id="n80">
      <data key="v_name">Aanikabio</data>
    </node>
    <node id="n81">
      <data key="v_name">stem4home</data>
    </node>
    <node id="n82">
      <data key="v_name">1</data>
    </node>
    <node id="n83">
      <data key="v_name">Socialdistancing</data>
    </node>
    <node id="n84">
      <data key="v_name">prgmbioreactor</data>
    </node>
    <node id="n85">
      <data key="v_name">COVID19AnonymizedData</data>
    </node>
    <node id="n86">
      <data key="v_name">Tagging</data>
    </node>
    <node id="n87">
      <data key="v_name">CommunityBasedMassTesting</data>
    </node>
    <node id="n88">
      <data key="v_name">Medecinetraditionnelle</data>
    </node>
    <node id="n89">
      <data key="v_name">Microglue</data>
    </node>
    <node id="n90">
      <data key="v_name">PCEvent</data>
    </node>
    <node id="n91">
      <data key="v_name">nebLAMPtest</data>
    </node>
    <node id="n92">
      <data key="v_name">KOCOVIDchemo</data>
    </node>
    <node id="n93">
      <data key="v_name">ElevonsCOVID19</data>
    </node>
    <node id="n94">
      <data key="v_name">Airlock</data>
    </node>
    <node id="n95">
      <data key="v_name">survivorSerum</data>
    </node>
    <node id="n96">
      <data key="v_name">simulation</data>
    </node>
    <node id="n97">
      <data key="v_name">epimodelingtoolkit</data>
    </node>
    <node id="n98">
      <data key="v_name">Savedoctors</data>
    </node>
    <edge source="n0" target="n32">
      <data key="e_weight">1</data>
    </edge>
    <edge source="n0" target="n34">
      <data key="e_weight">1</data>
    </edge>
    <edge source="n0" target="n43">
      <data key="e_weight">1</data>
    </edge>
    <edge source="n0" target="n56">
      <data key="e_weight">1</data>
    </edge>
    <edge source="n0" target="n58">
      <data key="e_weight">1</data>
    </edge>
    <edge source="n0" target="n88">
      <data key="e_weight">1</data>
    </edge>
    <edge source="n0" target="n91">
      <data key="e_weight">1</data>
    </edge>
    <edge source="n0" target="n6">
      <data key="e_weight">1</data>
    </edge>
    <edge source="n1" target="n32">
      <data key="e_weight">2</data>
    </edge>
    <edge source="n1" target="n34">
      <data key="e_weight">2</data>
    </edge>
    <edge source="n1" target="n54">
      <data key="e_weight">1</data>
    </edge>
    <edge source="n1" target="n68">
      <data key="e_weight">2</data>
    </edge>
    <edge source="n1" target="n19">
      <data key="e_weight">1</data>
    </edge>
    <edge source="n1" target="n21">
      <data key="e_weight">1</data>
    </edge>
    <edge source="n1" target="n6">
      <data key="e_weight">1</data>
    </edge>
    <edge source="n2" target="n6">
      <data key="e_weight">1</data>
    </edge>
    <edge source="n2" target="n12">
      <data key="e_weight">1</data>
    </edge>
    <edge source="n2" target="n53">
      <data key="e_weight">1</data>
    </edge>
    <edge source="n2" target="n68">
      <data key="e_weight">1</data>
    </edge>
    <edge source="n3" target="n87">
      <data key="e_weight">1</data>
    </edge>
    <edge source="n6" target="n12">
      <data key="e_weight">1</data>
    </edge>
    <edge source="n6" target="n18">
      <data key="e_weight">2</data>
    </edge>
    <edge source="n6" target="n25">
      <data key="e_weight">2</data>
    </edge>
    <edge source="n6" target="n36">
      <data key="e_weight">3</data>
    </edge>
    <edge source="n6" target="n38">
      <data key="e_weight">2</data>
    </edge>
    <edge source="n6" target="n40">
      <data key="e_weight">1</data>
    </edge>
    <edge source="n6" target="n41">
      <data key="e_weight">1</data>
    </edge>
    <edge source="n6" target="n63">
      <data key="e_weight">1</data>
    </edge>
    <edge source="n6" target="n85">
      <data key="e_weight">1</data>
    </edge>
    <edge source="n6" target="n97">
      <data key="e_weight">1</data>
    </edge>
    <edge source="n6" target="n87">
      <data key="e_weight">1</data>
    </edge>
    <edge source="n6" target="n60">
      <data key="e_weight">2</data>
    </edge>
    <edge source="n6" target="n82">
      <data key="e_weight">1</data>
    </edge>
    <edge source="n6" target="n23">
      <data key="e_weight">1</data>
    </edge>
    <edge source="n6" target="n27">
      <data key="e_weight">2</data>
    </edge>
    <edge source="n6" target="n28">
      <data key="e_weight">2</data>
    </edge>
    <edge source="n6" target="n31">
      <data key="e_weight">2</data>
    </edge>
    <edge source="n6" target="n10">
      <data key="e_weight">1</data>
    </edge>
    <edge source="n6" target="n26">
      <data key="e_weight">1</data>
    </edge>
    <edge source="n6" target="n42">
      <data key="e_weight">1</data>
    </edge>
    <edge source="n6" target="n51">
      <data key="e_weight">1</data>
    </edge>
    <edge source="n6" target="n52">
      <data key="e_weight">1</data>
    </edge>
    <edge source="n6" target="n64">
      <data key="e_weight">1</data>
    </edge>
    <edge source="n6" target="n65">
      <data key="e_weight">1</data>
    </edge>
    <edge source="n6" target="n72">
      <data key="e_weight">1</data>
    </edge>
    <edge source="n6" target="n76">
      <data key="e_weight">1</data>
    </edge>
    <edge source="n6" target="n34">
      <data key="e_weight">1</data>
    </edge>
    <edge source="n7" target="n36">
      <data key="e_weight">1</data>
    </edge>
    <edge source="n8" target="n81">
      <data key="e_weight">1</data>
    </edge>
    <edge source="n9" target="n32">
      <data key="e_weight">1</data>
    </edge>
    <edge source="n10" target="n26">
      <data key="e_weight">1</data>
    </edge>
    <edge source="n10" target="n28">
      <data key="e_weight">1</data>
    </edge>
    <edge source="n10" target="n31">
      <data key="e_weight">1</data>
    </edge>
    <edge source="n10" target="n36">
      <data key="e_weight">1</data>
    </edge>
    <edge source="n10" target="n42">
      <data key="e_weight">1</data>
    </edge>
    <edge source="n10" target="n51">
      <data key="e_weight">1</data>
    </edge>
    <edge source="n10" target="n52">
      <data key="e_weight">1</data>
    </edge>
    <edge source="n10" target="n60">
      <data key="e_weight">1</data>
    </edge>
    <edge source="n10" target="n64">
      <data key="e_weight">1</data>
    </edge>
    <edge source="n10" target="n65">
      <data key="e_weight">1</data>
    </edge>
    <edge source="n10" target="n72">
      <data key="e_weight">1</data>
    </edge>
    <edge source="n10" target="n76">
      <data key="e_weight">1</data>
    </edge>
    <edge source="n10" target="n87">
      <data key="e_weight">1</data>
    </edge>
    <edge source="n10" target="n20">
      <data key="e_weight">1</data>
    </edge>
    <edge source="n11" target="n29">
      <data key="e_weight">1</data>
    </edge>
    <edge source="n11" target="n34">
      <data key="e_weight">1</data>
    </edge>
    <edge source="n11" target="n66">
      <data key="e_weight">1</data>
    </edge>
    <edge source="n11" target="n87">
      <data key="e_weight">1</data>
    </edge>
    <edge source="n12" target="n58">
      <data key="e_weight">1</data>
    </edge>
    <edge source="n12" target="n61">
      <data key="e_weight">1</data>
    </edge>
    <edge source="n12" target="n78">
      <data key="e_weight">1</data>
    </edge>
    <edge source="n12" target="n79">
      <data key="e_weight">1</data>
    </edge>
    <edge source="n12" target="n93">
      <data key="e_weight">1</data>
    </edge>
    <edge source="n14" target="n58">
      <data key="e_weight">1</data>
    </edge>
    <edge source="n16" target="n82">
      <data key="e_weight">1</data>
    </edge>
    <edge source="n18" target="n25">
      <data key="e_weight">3</data>
    </edge>
    <edge source="n18" target="n36">
      <data key="e_weight">2</data>
    </edge>
    <edge source="n18" target="n38">
      <data key="e_weight">3</data>
    </edge>
    <edge source="n18" target="n40">
      <data key="e_weight">1</data>
    </edge>
    <edge source="n18" target="n41">
      <data key="e_weight">1</data>
    </edge>
    <edge source="n18" target="n63">
      <data key="e_weight">1</data>
    </edge>
    <edge source="n18" target="n85">
      <data key="e_weight">1</data>
    </edge>
    <edge source="n18" target="n97">
      <data key="e_weight">1</data>
    </edge>
    <edge source="n18" target="n23">
      <data key="e_weight">1</data>
    </edge>
    <edge source="n18" target="n27">
      <data key="e_weight">1</data>
    </edge>
    <edge source="n18" target="n28">
      <data key="e_weight">2</data>
    </edge>
    <edge source="n18" target="n31">
      <data key="e_weight">1</data>
    </edge>
    <edge source="n19" target="n21">
      <data key="e_weight">2</data>
    </edge>
    <edge source="n19" target="n32">
      <data key="e_weight">1</data>
    </edge>
    <edge source="n19" target="n34">
      <data key="e_weight">1</data>
    </edge>
    <edge source="n19" target="n68">
      <data key="e_weight">1</data>
    </edge>
    <edge source="n19" target="n65">
      <data key="e_weight">1</data>
    </edge>
    <edge source="n19" target="n38">
      <data key="e_weight">1</data>
    </edge>
    <edge source="n19" target="n40">
      <data key="e_weight">1</data>
    </edge>
    <edge source="n19" target="n41">
      <data key="e_weight">1</data>
    </edge>
    <edge source="n19" target="n67">
      <data key="e_weight">1</data>
    </edge>
    <edge source="n19" target="n97">
      <data key="e_weight">1</data>
    </edge>
    <edge source="n21" target="n32">
      <data key="e_weight">1</data>
    </edge>
    <edge source="n21" target="n34">
      <data key="e_weight">1</data>
    </edge>
    <edge source="n21" target="n68">
      <data key="e_weight">1</data>
    </edge>
    <edge source="n21" target="n22">
      <data key="e_weight">1</data>
    </edge>
    <edge source="n21" target="n33">
      <data key="e_weight">1</data>
    </edge>
    <edge source="n23" target="n25">
      <data key="e_weight">1</data>
    </edge>
    <edge source="n23" target="n27">
      <data key="e_weight">2</data>
    </edge>
    <edge source="n23" target="n28">
      <data key="e_weight">1</data>
    </edge>
    <edge source="n23" target="n31">
      <data key="e_weight">1</data>
    </edge>
    <edge source="n23" target="n36">
      <data key="e_weight">1</data>
    </edge>
    <edge source="n23" target="n38">
      <data key="e_weight">1</data>
    </edge>
    <edge source="n23" target="n53">
      <data key="e_weight">1</data>
    </edge>
    <edge source="n23" target="n87">
      <data key="e_weight">1</data>
    </edge>
    <edge source="n23" target="n24">
      <data key="e_weight">1</data>
    </edge>
    <edge source="n23" target="n52">
      <data key="e_weight">1</data>
    </edge>
    <edge source="n23" target="n59">
      <data key="e_weight">1</data>
    </edge>
    <edge source="n23" target="n81">
      <data key="e_weight">1</data>
    </edge>
    <edge source="n23" target="n82">
      <data key="e_weight">1</data>
    </edge>
    <edge source="n23" target="n86">
      <data key="e_weight">1</data>
    </edge>
    <edge source="n23" target="n98">
      <data key="e_weight">1</data>
    </edge>
    <edge source="n24" target="n27">
      <data key="e_weight">1</data>
    </edge>
    <edge source="n24" target="n52">
      <data key="e_weight">1</data>
    </edge>
    <edge source="n24" target="n59">
      <data key="e_weight">1</data>
    </edge>
    <edge source="n24" target="n81">
      <data key="e_weight">1</data>
    </edge>
    <edge source="n24" target="n82">
      <data key="e_weight">1</data>
    </edge>
    <edge source="n24" target="n86">
      <data key="e_weight">1</data>
    </edge>
    <edge source="n24" target="n98">
      <data key="e_weight">1</data>
    </edge>
    <edge source="n24" target="n28">
      <data key="e_weight">1</data>
    </edge>
    <edge source="n24" target="n84">
      <data key="e_weight">1</data>
    </edge>
    <edge source="n25" target="n36">
      <data key="e_weight">2</data>
    </edge>
    <edge source="n25" target="n38">
      <data key="e_weight">3</data>
    </edge>
    <edge source="n25" target="n40">
      <data key="e_weight">1</data>
    </edge>
    <edge source="n25" target="n41">
      <data key="e_weight">1</data>
    </edge>
    <edge source="n25" target="n63">
      <data key="e_weight">1</data>
    </edge>
    <edge source="n25" target="n85">
      <data key="e_weight">1</data>
    </edge>
    <edge source="n25" target="n97">
      <data key="e_weight">1</data>
    </edge>
    <edge source="n25" target="n27">
      <data key="e_weight">1</data>
    </edge>
    <edge source="n25" target="n28">
      <data key="e_weight">2</data>
    </edge>
    <edge source="n25" target="n31">
      <data key="e_weight">1</data>
    </edge>
    <edge source="n26" target="n28">
      <data key="e_weight">1</data>
    </edge>
    <edge source="n26" target="n31">
      <data key="e_weight">1</data>
    </edge>
    <edge source="n26" target="n36">
      <data key="e_weight">1</data>
    </edge>
    <edge source="n26" target="n42">
      <data key="e_weight">1</data>
    </edge>
    <edge source="n26" target="n51">
      <data key="e_weight">1</data>
    </edge>
    <edge source="n26" target="n52">
      <data key="e_weight">1</data>
    </edge>
    <edge source="n26" target="n60">
      <data key="e_weight">2</data>
    </edge>
    <edge source="n26" target="n64">
      <data key="e_weight">1</data>
    </edge>
    <edge source="n26" target="n65">
      <data key="e_weight">1</data>
    </edge>
    <edge source="n26" target="n72">
      <data key="e_weight">1</data>
    </edge>
    <edge source="n26" target="n76">
      <data key="e_weight">1</data>
    </edge>
    <edge source="n26" target="n30">
      <data key="e_weight">1</data>
    </edge>
    <edge source="n26" target="n37">
      <data key="e_weight">1</data>
    </edge>
    <edge source="n26" target="n38">
      <data key="e_weight">1</data>
    </edge>
    <edge source="n26" target="n35">
      <data key="e_weight">1</data>
    </edge>
    <edge source="n26" target="n63">
      <data key="e_weight">1</data>
    </edge>
    <edge source="n26" target="n81">
      <data key="e_weight">1</data>
    </edge>
    <edge source="n27" target="n28">
      <data key="e_weight">1</data>
    </edge>
    <edge source="n27" target="n31">
      <data key="e_weight">1</data>
    </edge>
    <edge source="n27" target="n36">
      <data key="e_weight">1</data>
    </edge>
    <edge source="n27" target="n38">
      <data key="e_weight">1</data>
    </edge>
    <edge source="n27" target="n52">
      <data key="e_weight">1</data>
    </edge>
    <edge source="n27" target="n59">
      <data key="e_weight">1</data>
    </edge>
    <edge source="n27" target="n81">
      <data key="e_weight">1</data>
    </edge>
    <edge source="n27" target="n82">
      <data key="e_weight">1</data>
    </edge>
    <edge source="n27" target="n86">
      <data key="e_weight">1</data>
    </edge>
    <edge source="n27" target="n98">
      <data key="e_weight">1</data>
    </edge>
    <edge source="n28" target="n31">
      <data key="e_weight">2</data>
    </edge>
    <edge source="n28" target="n36">
      <data key="e_weight">2</data>
    </edge>
    <edge source="n28" target="n38">
      <data key="e_weight">2</data>
    </edge>
    <edge source="n28" target="n42">
      <data key="e_weight">1</data>
    </edge>
    <edge source="n28" target="n51">
      <data key="e_weight">1</data>
    </edge>
    <edge source="n28" target="n52">
      <data key="e_weight">1</data>
    </edge>
    <edge source="n28" target="n60">
      <data key="e_weight">1</data>
    </edge>
    <edge source="n28" target="n64">
      <data key="e_weight">1</data>
    </edge>
    <edge source="n28" target="n65">
      <data key="e_weight">1</data>
    </edge>
    <edge source="n28" target="n72">
      <data key="e_weight">1</data>
    </edge>
    <edge source="n28" target="n76">
      <data key="e_weight">1</data>
    </edge>
    <edge source="n28" target="n84">
      <data key="e_weight">1</data>
    </edge>
    <edge source="n29" target="n34">
      <data key="e_weight">1</data>
    </edge>
    <edge source="n29" target="n66">
      <data key="e_weight">1</data>
    </edge>
    <edge source="n29" target="n87">
      <data key="e_weight">1</data>
    </edge>
    <edge source="n30" target="n37">
      <data key="e_weight">1</data>
    </edge>
    <edge source="n30" target="n38">
      <data key="e_weight">1</data>
    </edge>
    <edge source="n30" target="n60">
      <data key="e_weight">1</data>
    </edge>
    <edge source="n31" target="n36">
      <data key="e_weight">2</data>
    </edge>
    <edge source="n31" target="n38">
      <data key="e_weight">1</data>
    </edge>
    <edge source="n31" target="n42">
      <data key="e_weight">1</data>
    </edge>
    <edge source="n31" target="n51">
      <data key="e_weight">1</data>
    </edge>
    <edge source="n31" target="n52">
      <data key="e_weight">1</data>
    </edge>
    <edge source="n31" target="n60">
      <data key="e_weight">1</data>
    </edge>
    <edge source="n31" target="n64">
      <data key="e_weight">1</data>
    </edge>
    <edge source="n31" target="n65">
      <data key="e_weight">1</data>
    </edge>
    <edge source="n31" target="n72">
      <data key="e_weight">1</data>
    </edge>
    <edge source="n31" target="n76">
      <data key="e_weight">1</data>
    </edge>
    <edge source="n31" target="n34">
      <data key="e_weight">1</data>
    </edge>
    <edge source="n31" target="n69">
      <data key="e_weight">1</data>
    </edge>
    <edge source="n31" target="n70">
      <data key="e_weight">1</data>
    </edge>
    <edge source="n31" target="n71">
      <data key="e_weight">1</data>
    </edge>
    <edge source="n32" target="n34">
      <data key="e_weight">4</data>
    </edge>
    <edge source="n32" target="n43">
      <data key="e_weight">1</data>
    </edge>
    <edge source="n32" target="n56">
      <data key="e_weight">1</data>
    </edge>
    <edge source="n32" target="n58">
      <data key="e_weight">1</data>
    </edge>
    <edge source="n32" target="n88">
      <data key="e_weight">1</data>
    </edge>
    <edge source="n32" target="n91">
      <data key="e_weight">1</data>
    </edge>
    <edge source="n32" target="n54">
      <data key="e_weight">1</data>
    </edge>
    <edge source="n32" target="n68">
      <data key="e_weight">3</data>
    </edge>
    <edge source="n32" target="n66">
      <data key="e_weight">1</data>
    </edge>
    <edge source="n32" target="n85">
      <data key="e_weight">1</data>
    </edge>
    <edge source="n32" target="n97">
      <data key="e_weight">1</data>
    </edge>
    <edge source="n34" target="n43">
      <data key="e_weight">1</data>
    </edge>
    <edge source="n34" target="n56">
      <data key="e_weight">1</data>
    </edge>
    <edge source="n34" target="n58">
      <data key="e_weight">1</data>
    </edge>
    <edge source="n34" target="n88">
      <data key="e_weight">1</data>
    </edge>
    <edge source="n34" target="n91">
      <data key="e_weight">1</data>
    </edge>
    <edge source="n34" target="n54">
      <data key="e_weight">1</data>
    </edge>
    <edge source="n34" target="n68">
      <data key="e_weight">2</data>
    </edge>
    <edge source="n34" target="n66">
      <data key="e_weight">2</data>
    </edge>
    <edge source="n34" target="n87">
      <data key="e_weight">1</data>
    </edge>
    <edge source="n34" target="n85">
      <data key="e_weight">1</data>
    </edge>
    <edge source="n34" target="n97">
      <data key="e_weight">1</data>
    </edge>
    <edge source="n35" target="n63">
      <data key="e_weight">1</data>
    </edge>
    <edge source="n35" target="n81">
      <data key="e_weight">1</data>
    </edge>
    <edge source="n35" target="n52">
      <data key="e_weight">1</data>
    </edge>
    <edge source="n35" target="n55">
      <data key="e_weight">1</data>
    </edge>
    <edge source="n35" target="n60">
      <data key="e_weight">1</data>
    </edge>
    <edge source="n36" target="n38">
      <data key="e_weight">2</data>
    </edge>
    <edge source="n36" target="n40">
      <data key="e_weight">1</data>
    </edge>
    <edge source="n36" target="n41">
      <data key="e_weight">1</data>
    </edge>
    <edge source="n36" target="n63">
      <data key="e_weight">1</data>
    </edge>
    <edge source="n36" target="n85">
      <data key="e_weight">1</data>
    </edge>
    <edge source="n36" target="n97">
      <data key="e_weight">1</data>
    </edge>
    <edge source="n36" target="n42">
      <data key="e_weight">1</data>
    </edge>
    <edge source="n36" target="n51">
      <data key="e_weight">1</data>
    </edge>
    <edge source="n36" target="n52">
      <data key="e_weight">1</data>
    </edge>
    <edge source="n36" target="n60">
      <data key="e_weight">1</data>
    </edge>
    <edge source="n36" target="n64">
      <data key="e_weight">1</data>
    </edge>
    <edge source="n36" target="n65">
      <data key="e_weight">1</data>
    </edge>
    <edge source="n36" target="n72">
      <data key="e_weight">1</data>
    </edge>
    <edge source="n36" target="n76">
      <data key="e_weight">1</data>
    </edge>
    <edge source="n36" target="n44">
      <data key="e_weight">1</data>
    </edge>
    <edge source="n36" target="n66">
      <data key="e_weight">1</data>
    </edge>
    <edge source="n36" target="n67">
      <data key="e_weight">1</data>
    </edge>
    <edge source="n37" target="n38">
      <data key="e_weight">1</data>
    </edge>
    <edge source="n37" target="n60">
      <data key="e_weight">1</data>
    </edge>
    <edge source="n38" target="n40">
      <data key="e_weight">2</data>
    </edge>
    <edge source="n38" target="n41">
      <data key="e_weight">2</data>
    </edge>
    <edge source="n38" target="n63">
      <data key="e_weight">1</data>
    </edge>
    <edge source="n38" target="n85">
      <data key="e_weight">1</data>
    </edge>
    <edge source="n38" target="n97">
      <data key="e_weight">2</data>
    </edge>
    <edge source="n38" target="n67">
      <data key="e_weight">1</data>
    </edge>
    <edge source="n38" target="n60">
      <data key="e_weight">1</data>
    </edge>
    <edge source="n40" target="n41">
      <data key="e_weight">2</data>
    </edge>
    <edge source="n40" target="n63">
      <data key="e_weight">1</data>
    </edge>
    <edge source="n40" target="n85">
      <data key="e_weight">1</data>
    </edge>
    <edge source="n40" target="n97">
      <data key="e_weight">2</data>
    </edge>
    <edge source="n40" target="n67">
      <data key="e_weight">1</data>
    </edge>
    <edge source="n41" target="n63">
      <data key="e_weight">1</data>
    </edge>
    <edge source="n41" target="n85">
      <data key="e_weight">1</data>
    </edge>
    <edge source="n41" target="n97">
      <data key="e_weight">2</data>
    </edge>
    <edge source="n41" target="n67">
      <data key="e_weight">1</data>
    </edge>
    <edge source="n42" target="n51">
      <data key="e_weight">1</data>
    </edge>
    <edge source="n42" target="n52">
      <data key="e_weight">1</data>
    </edge>
    <edge source="n42" target="n60">
      <data key="e_weight">1</data>
    </edge>
    <edge source="n42" target="n64">
      <data key="e_weight">1</data>
    </edge>
    <edge source="n42" target="n65">
      <data key="e_weight">1</data>
    </edge>
    <edge source="n42" target="n72">
      <data key="e_weight">1</data>
    </edge>
    <edge source="n42" target="n76">
      <data key="e_weight">1</data>
    </edge>
    <edge source="n43" target="n56">
      <data key="e_weight">1</data>
    </edge>
    <edge source="n43" target="n58">
      <data key="e_weight">1</data>
    </edge>
    <edge source="n43" target="n88">
      <data key="e_weight">1</data>
    </edge>
    <edge source="n43" target="n91">
      <data key="e_weight">1</data>
    </edge>
    <edge source="n44" target="n66">
      <data key="e_weight">1</data>
    </edge>
    <edge source="n44" target="n67">
      <data key="e_weight">1</data>
    </edge>
    <edge source="n44" target="n60">
      <data key="e_weight">2</data>
    </edge>
    <edge source="n47" target="n84">
      <data key="e_weight">1</data>
    </edge>
    <edge source="n47" target="n96">
      <data key="e_weight">1</data>
    </edge>
    <edge source="n47" target="n91">
      <data key="e_weight">2</data>
    </edge>
    <edge source="n50" target="n90">
      <data key="e_weight">1</data>
    </edge>
    <edge source="n50" target="n77">
      <data key="e_weight">1</data>
    </edge>
    <edge source="n51" target="n52">
      <data key="e_weight">1</data>
    </edge>
    <edge source="n51" target="n60">
      <data key="e_weight">1</data>
    </edge>
    <edge source="n51" target="n64">
      <data key="e_weight">1</data>
    </edge>
    <edge source="n51" target="n65">
      <data key="e_weight">1</data>
    </edge>
    <edge source="n51" target="n72">
      <data key="e_weight">1</data>
    </edge>
    <edge source="n51" target="n76">
      <data key="e_weight">1</data>
    </edge>
    <edge source="n52" target="n60">
      <data key="e_weight">2</data>
    </edge>
    <edge source="n52" target="n64">
      <data key="e_weight">1</data>
    </edge>
    <edge source="n52" target="n65">
      <data key="e_weight">1</data>
    </edge>
    <edge source="n52" target="n72">
      <data key="e_weight">1</data>
    </edge>
    <edge source="n52" target="n76">
      <data key="e_weight">1</data>
    </edge>
    <edge source="n52" target="n59">
      <data key="e_weight">1</data>
    </edge>
    <edge source="n52" target="n81">
      <data key="e_weight">1</data>
    </edge>
    <edge source="n52" target="n82">
      <data key="e_weight">1</data>
    </edge>
    <edge source="n52" target="n86">
      <data key="e_weight">1</data>
    </edge>
    <edge source="n52" target="n98">
      <data key="e_weight">1</data>
    </edge>
    <edge source="n52" target="n55">
      <data key="e_weight">1</data>
    </edge>
    <edge source="n53" target="n68">
      <data key="e_weight">1</data>
    </edge>
    <edge source="n53" target="n87">
      <data key="e_weight">1</data>
    </edge>
    <edge source="n54" target="n68">
      <data key="e_weight">1</data>
    </edge>
    <edge source="n55" target="n60">
      <data key="e_weight">1</data>
    </edge>
    <edge source="n55" target="n61">
      <data key="e_weight">1</data>
    </edge>
    <edge source="n55" target="n84">
      <data key="e_weight">1</data>
    </edge>
    <edge source="n56" target="n58">
      <data key="e_weight">1</data>
    </edge>
    <edge source="n56" target="n88">
      <data key="e_weight">1</data>
    </edge>
    <edge source="n56" target="n91">
      <data key="e_weight">1</data>
    </edge>
    <edge source="n58" target="n88">
      <data key="e_weight">1</data>
    </edge>
    <edge source="n58" target="n91">
      <data key="e_weight">1</data>
    </edge>
    <edge source="n58" target="n61">
      <data key="e_weight">1</data>
    </edge>
    <edge source="n58" target="n78">
      <data key="e_weight">1</data>
    </edge>
    <edge source="n58" target="n79">
      <data key="e_weight">1</data>
    </edge>
    <edge source="n58" target="n93">
      <data key="e_weight">1</data>
    </edge>
    <edge source="n59" target="n81">
      <data key="e_weight">1</data>
    </edge>
    <edge source="n59" target="n82">
      <data key="e_weight">1</data>
    </edge>
    <edge source="n59" target="n86">
      <data key="e_weight">1</data>
    </edge>
    <edge source="n59" target="n98">
      <data key="e_weight">1</data>
    </edge>
    <edge source="n60" target="n82">
      <data key="e_weight">1</data>
    </edge>
    <edge source="n60" target="n64">
      <data key="e_weight">1</data>
    </edge>
    <edge source="n60" target="n65">
      <data key="e_weight">1</data>
    </edge>
    <edge source="n60" target="n72">
      <data key="e_weight">1</data>
    </edge>
    <edge source="n60" target="n76">
      <data key="e_weight">1</data>
    </edge>
    <edge source="n60" target="n63">
      <data key="e_weight">1</data>
    </edge>
    <edge source="n60" target="n81">
      <data key="e_weight">1</data>
    </edge>
    <edge source="n61" target="n78">
      <data key="e_weight">1</data>
    </edge>
    <edge source="n61" target="n79">
      <data key="e_weight">1</data>
    </edge>
    <edge source="n61" target="n93">
      <data key="e_weight">1</data>
    </edge>
    <edge source="n61" target="n84">
      <data key="e_weight">2</data>
    </edge>
    <edge source="n61" target="n90">
      <data key="e_weight">1</data>
    </edge>
    <edge source="n63" target="n85">
      <data key="e_weight">1</data>
    </edge>
    <edge source="n63" target="n97">
      <data key="e_weight">1</data>
    </edge>
    <edge source="n63" target="n81">
      <data key="e_weight">2</data>
    </edge>
    <edge source="n64" target="n65">
      <data key="e_weight">1</data>
    </edge>
    <edge source="n64" target="n72">
      <data key="e_weight">1</data>
    </edge>
    <edge source="n64" target="n76">
      <data key="e_weight">1</data>
    </edge>
    <edge source="n65" target="n72">
      <data key="e_weight">1</data>
    </edge>
    <edge source="n65" target="n76">
      <data key="e_weight">1</data>
    </edge>
    <edge source="n66" target="n87">
      <data key="e_weight">1</data>
    </edge>
    <edge source="n66" target="n85">
      <data key="e_weight">2</data>
    </edge>
    <edge source="n66" target="n97">
      <data key="e_weight">1</data>
    </edge>
    <edge source="n66" target="n67">
      <data key="e_weight">1</data>
    </edge>
    <edge source="n67" target="n97">
      <data key="e_weight">1</data>
    </edge>
    <edge source="n69" target="n70">
      <data key="e_weight">2</data>
    </edge>
    <edge source="n69" target="n71">
      <data key="e_weight">1</data>
    </edge>
    <edge source="n69" target="n74">
      <data key="e_weight">1</data>
    </edge>
    <edge source="n70" target="n71">
      <data key="e_weight">1</data>
    </edge>
    <edge source="n70" target="n74">
      <data key="e_weight">1</data>
    </edge>
    <edge source="n71" target="n73">
      <data key="e_weight">1</data>
    </edge>
    <edge source="n72" target="n76">
      <data key="e_weight">1</data>
    </edge>
    <edge source="n78" target="n79">
      <data key="e_weight">1</data>
    </edge>
    <edge source="n78" target="n93">
      <data key="e_weight">1</data>
    </edge>
    <edge source="n79" target="n93">
      <data key="e_weight">1</data>
    </edge>
    <edge source="n81" target="n82">
      <data key="e_weight">1</data>
    </edge>
    <edge source="n81" target="n86">
      <data key="e_weight">1</data>
    </edge>
    <edge source="n81" target="n98">
      <data key="e_weight">1</data>
    </edge>
    <edge source="n81" target="n87">
      <data key="e_weight">1</data>
    </edge>
    <edge source="n82" target="n86">
      <data key="e_weight">1</data>
    </edge>
    <edge source="n82" target="n98">
      <data key="e_weight">1</data>
    </edge>
    <edge source="n82" target="n85">
      <data key="e_weight">1</data>
    </edge>
    <edge source="n84" target="n96">
      <data key="e_weight">1</data>
    </edge>
    <edge source="n84" target="n90">
      <data key="e_weight">1</data>
    </edge>
    <edge source="n84" target="n85">
      <data key="e_weight">1</data>
    </edge>
    <edge source="n85" target="n97">
      <data key="e_weight">2</data>
    </edge>
    <edge source="n86" target="n98">
      <data key="e_weight">1</data>
    </edge>
    <edge source="n88" target="n91">
      <data key="e_weight">1</data>
    </edge>
  </graph>
</graphml>
