[
    {
        "type": "message",
        "subtype": "channel_join",
        "ts": "1584270842.017000",
        "user": "UVA46RKLY",
        "text": "<@UVA46RKLY> has joined the channel"
    },
    {
        "type": "message",
        "subtype": "channel_join",
        "ts": "1584281691.017200",
        "user": "UV2BVBA4S",
        "text": "<@UV2BVBA4S> has joined the channel"
    },
    {
        "type": "message",
        "subtype": "channel_join",
        "ts": "1584282198.023400",
        "user": "UV0RRGB6H",
        "text": "<@UV0RRGB6H> has joined the channel"
    },
    {
        "client_msg_id": "fee70fa9-755d-4fdf-af09-d6d2cac7675e",
        "type": "message",
        "text": "Not sure where else to put this, but a very general thing for anyone doing lab work. Please ensure you use RNAse free water and RNAse free plasticware. Even for testing stages. All primer stocks etc. should use this water, all RNA extracted\/eluted should be stored in it too.\n\nRNA is often stored in water rathre than buffers, as buffers can interfere with assays. If you have access to a -80 I'd recommend storage there, split any RNA into aliquots to minimise freeze thawing.\n\nAlso if you don't have it, get some RNAseZap\/RNAse away or even better make your own: <http:\/\/pipettejockey.com\/2016\/11\/01\/just-bleach-it\/>\n\nAnd for testing a key thing to keep in mind is  often the amount of virus can be quite low. This is why real-time\/quantitative PCR or similar approaches are the method being used - they're highly sensitive. So try as much as possible to use the smallest volumes etc possible. Reaction kinetics often are much better in smaller volumes, so htings like 0.2mL tubes versus 1.5mL.\n\nAnyone doing optical type assays - the plasticware you use can be quite important. qPCR and other fluorescence assays use specific plastics that are clear, and sometimes a thinner wall.",
        "user": "UV2BVBA4S",
        "ts": "1584282289.025000",
        "team": "TUU48M0T1",
        "user_team": "TUU48M0T1",
        "source_team": "TUU48M0T1",
        "user_profile": {
            "avatar_hash": "gb86c40b6439",
            "image_72": "https:\/\/secure.gravatar.com\/avatar\/b86c40b643942e166767196f14a46b7e.jpg?s=72&d=https%3A%2F%2Fa.slack-edge.com%2Fdf10d%2Fimg%2Favatars%2Fava_0006-72.png",
            "first_name": "",
            "real_name": "geekyjane",
            "display_name": "geekyjane",
            "team": "TUU48M0T1",
            "name": "janette.edson",
            "is_restricted": false,
            "is_ultra_restricted": false
        },
        "attachments": [
            {
                "service_name": "Pipette Jockey",
                "title": "Just bleach it",
                "title_link": "http:\/\/pipettejockey.com\/2016\/11\/01\/just-bleach-it\/",
                "text": "Earlier I made a post about decontaminating solutions and how to homebrew them for cheap. I had one more patent to talk about but I felt kinda burnt out (and a bit guilty that I was bully…",
                "fallback": "Pipette Jockey: Just bleach it",
                "thumb_url": "https:\/\/s0.wp.com\/i\/blank.jpg",
                "ts": 1477977510,
                "from_url": "http:\/\/pipettejockey.com\/2016\/11\/01\/just-bleach-it\/",
                "thumb_width": 200,
                "thumb_height": 200,
                "service_icon": "http:\/\/pipettejockey.com\/favicon.ico",
                "id": 1,
                "original_url": "http:\/\/pipettejockey.com\/2016\/11\/01\/just-bleach-it\/"
            }
        ],
        "blocks": [
            {
                "type": "rich_text",
                "block_id": "d7mJ",
                "elements": [
                    {
                        "type": "rich_text_section",
                        "elements": [
                            {
                                "type": "text",
                                "text": "Not sure where else to put this, but a very general thing for anyone doing lab work. Please ensure you use RNAse free water and RNAse free plasticware. Even for testing stages. All primer stocks etc. should use this water, all RNA extracted\/eluted should be stored in it too.\n\nRNA is often stored in water rathre than buffers, as buffers can interfere with assays. If you have access to a -80 I'd recommend storage there, split any RNA into aliquots to minimise freeze thawing.\n\nAlso if you don't have it, get some RNAseZap\/RNAse away or even better make your own: "
                            },
                            {
                                "type": "link",
                                "url": "http:\/\/pipettejockey.com\/2016\/11\/01\/just-bleach-it\/"
                            },
                            {
                                "type": "text",
                                "text": "\n\nAnd for testing a key thing to keep in mind is  often the amount of virus can be quite low. This is why real-time\/quantitative PCR or similar approaches are the method being used - they're highly sensitive. So try as much as possible to use the smallest volumes etc possible. Reaction kinetics often are much better in smaller volumes, so htings like 0.2mL tubes versus 1.5mL.\n\nAnyone doing optical type assays - the plasticware you use can be quite important. qPCR and other fluorescence assays use specific plastics that are clear, and sometimes a thinner wall."
                            }
                        ]
                    }
                ]
            }
        ],
        "thread_ts": "1584282289.025000",
        "reply_count": 2,
        "reply_users_count": 1,
        "latest_reply": "1584414384.030400",
        "reply_users": [
            "UV120B2P7"
        ],
        "replies": [
            {
                "user": "UV120B2P7",
                "ts": "1584385456.030100"
            },
            {
                "user": "UV120B2P7",
                "ts": "1584414384.030400"
            }
        ],
        "subscribed": false,
        "reactions": [
            {
                "name": "+1",
                "users": [
                    "UV2SC7ZE3"
                ],
                "count": 1
            }
        ]
    },
    {
        "client_msg_id": "0349b2c8-11e1-422b-ac1f-3e407063f66c",
        "type": "message",
        "text": "Among the other things, I will also give it a try to the <https:\/\/mammoth.bio\/> approach. I will start studying it tomorrow, waiting for the reply of <@UV3JDFX17> from Twistbioscience",
        "user": "UV18Y0Q1Y",
        "ts": "1584290757.026800",
        "team": "TUU48M0T1",
        "user_team": "TUU48M0T1",
        "source_team": "TUU48M0T1",
        "user_profile": {
            "avatar_hash": "ab7e379b5648",
            "image_72": "https:\/\/avatars.slack-edge.com\/2020-03-16\/991446609699_ab7e379b5648a9ac0566_72.jpg",
            "first_name": "",
            "real_name": "Alecrimi",
            "display_name": "Alecrimi",
            "team": "TUU48M0T1",
            "name": "alecrimi",
            "is_restricted": false,
            "is_ultra_restricted": false
        },
        "attachments": [
            {
                "title": "Mammoth Biosciences",
                "title_link": "https:\/\/mammoth.bio\/",
                "text": "Reading and writing the code of life.",
                "fallback": "Mammoth Biosciences",
                "image_url": "https:\/\/mammoth.bio\/wp-content\/uploads\/2020\/01\/Facebook.jpg",
                "image_width": 476,
                "image_height": 250,
                "from_url": "https:\/\/mammoth.bio\/",
                "image_bytes": 453508,
                "service_icon": "https:\/\/mammoth.bio\/wp-content\/uploads\/2020\/01\/cropped-mammoth-180x180.png",
                "service_name": "mammoth.bio",
                "id": 1,
                "original_url": "https:\/\/mammoth.bio\/"
            }
        ],
        "blocks": [
            {
                "type": "rich_text",
                "block_id": "C2f",
                "elements": [
                    {
                        "type": "rich_text_section",
                        "elements": [
                            {
                                "type": "text",
                                "text": "Among the other things, I will also give it a try to the "
                            },
                            {
                                "type": "link",
                                "url": "https:\/\/mammoth.bio\/"
                            },
                            {
                                "type": "text",
                                "text": " approach. I will start studying it tomorrow, waiting for the reply of "
                            },
                            {
                                "type": "user",
                                "user_id": "UV3JDFX17"
                            },
                            {
                                "type": "text",
                                "text": " from Twistbioscience"
                            }
                        ]
                    }
                ]
            }
        ],
        "thread_ts": "1584290757.026800",
        "reply_count": 2,
        "reply_users_count": 2,
        "latest_reply": "1584307919.028000",
        "reply_users": [
            "UV2SC7ZE3",
            "UV18Y0Q1Y"
        ],
        "replies": [
            {
                "user": "UV2SC7ZE3",
                "ts": "1584290858.027200"
            },
            {
                "user": "UV18Y0Q1Y",
                "ts": "1584307919.028000"
            }
        ],
        "subscribed": false
    },
    {
        "type": "message",
        "subtype": "channel_join",
        "ts": "1584290765.027100",
        "user": "UV3JDFX17",
        "text": "<@UV3JDFX17> has joined the channel",
        "inviter": "UV18Y0Q1Y"
    },
    {
        "client_msg_id": "26c4c6a0-505f-4fda-a38b-c509fb4bfdec",
        "type": "message",
        "text": "You can also check out <#CV4AYKS5U|repro-mammoth-crispr> !",
        "user": "UV2SC7ZE3",
        "ts": "1584290858.027200",
        "team": "TUU48M0T1",
        "user_team": "TUU48M0T1",
        "source_team": "TUU48M0T1",
        "user_profile": {
            "avatar_hash": "d28dd0d076e8",
            "image_72": "https:\/\/avatars.slack-edge.com\/2020-03-14\/987873094258_d28dd0d076e8fa9a8409_72.png",
            "first_name": "David",
            "real_name": "David Lu",
            "display_name": "David Lu",
            "team": "TUU48M0T1",
            "name": "ludavidyi",
            "is_restricted": false,
            "is_ultra_restricted": false
        },
        "edited": {
            "user": "UV2SC7ZE3",
            "ts": "1584290883.000000"
        },
        "blocks": [
            {
                "type": "rich_text",
                "block_id": "9Up",
                "elements": [
                    {
                        "type": "rich_text_section",
                        "elements": [
                            {
                                "type": "text",
                                "text": "You can also check out "
                            },
                            {
                                "type": "channel",
                                "channel_id": "CV4AYKS5U"
                            },
                            {
                                "type": "text",
                                "text": " !"
                            }
                        ]
                    }
                ]
            }
        ],
        "thread_ts": "1584290757.026800",
        "parent_user_id": "UV18Y0Q1Y",
        "reactions": [
            {
                "name": "+1",
                "users": [
                    "UV18Y0Q1Y"
                ],
                "count": 1
            }
        ]
    },
    {
        "type": "message",
        "subtype": "channel_name",
        "ts": "1584300695.027800",
        "user": "UV0QTJCMT",
        "text": "<@UV0QTJCMT> has renamed the channel from \"ideas\" to \"prgm-ideas\"",
        "old_name": "ideas",
        "name": "prgm-ideas"
    },
    {
        "type": "message",
        "subtype": "channel_topic",
        "ts": "1584300732.027900",
        "user": "UV0QTJCMT",
        "text": "<@UV0QTJCMT> set the channel topic: Discuss possible ideas for addressing COVID-19 and receive feedback from others to shape them into working projects",
        "topic": "Discuss possible ideas for addressing COVID-19 and receive feedback from others to shape them into working projects"
    },
    {
        "client_msg_id": "8057c19f-5b19-48ef-8c88-0d993f517d14",
        "type": "message",
        "text": "Too many channels, we need to clean up a bit",
        "user": "UV18Y0Q1Y",
        "ts": "1584307919.028000",
        "team": "TUU48M0T1",
        "user_team": "TUU48M0T1",
        "source_team": "TUU48M0T1",
        "user_profile": {
            "avatar_hash": "ab7e379b5648",
            "image_72": "https:\/\/avatars.slack-edge.com\/2020-03-16\/991446609699_ab7e379b5648a9ac0566_72.jpg",
            "first_name": "",
            "real_name": "Alecrimi",
            "display_name": "Alecrimi",
            "team": "TUU48M0T1",
            "name": "alecrimi",
            "is_restricted": false,
            "is_ultra_restricted": false
        },
        "blocks": [
            {
                "type": "rich_text",
                "block_id": "2g5eb",
                "elements": [
                    {
                        "type": "rich_text_section",
                        "elements": [
                            {
                                "type": "text",
                                "text": "Too many channels, we need to clean up a bit"
                            }
                        ]
                    }
                ]
            }
        ],
        "thread_ts": "1584290757.026800",
        "parent_user_id": "UV18Y0Q1Y"
    }
]