[
    {
        "type": "message",
        "subtype": "channel_join",
        "ts": "1584784611.000200",
        "user": "U0103RQF7R8",
        "text": "<@U0103RQF7R8> has joined the channel"
    },
    {
        "client_msg_id": "5fc8a294-73ce-42b0-ad42-b6238497cf1b",
        "type": "message",
        "text": "Hi <!here> -- happy to get papers you can't otherwise get to, my lab has pretty comprehensive access",
        "user": "U0103RQF7R8",
        "ts": "1584784685.001200",
        "team": "TUU48M0T1",
        "user_team": "TUU48M0T1",
        "source_team": "TUU48M0T1",
        "user_profile": {
            "avatar_hash": "a6c12e0e64cd",
            "image_72": "https:\/\/avatars.slack-edge.com\/2020-03-21\/1005206447347_a6c12e0e64cdd801a393_72.jpg",
            "first_name": "",
            "real_name": "Greg Lever",
            "display_name": "",
            "team": "TUU48M0T1",
            "name": "greglever",
            "is_restricted": false,
            "is_ultra_restricted": false
        },
        "blocks": [
            {
                "type": "rich_text",
                "block_id": "9Xi+",
                "elements": [
                    {
                        "type": "rich_text_section",
                        "elements": [
                            {
                                "type": "text",
                                "text": "Hi "
                            },
                            {
                                "type": "broadcast",
                                "range": "here"
                            },
                            {
                                "type": "text",
                                "text": " -- happy to get papers you can't otherwise get to, my lab has pretty comprehensive access"
                            }
                        ]
                    }
                ]
            }
        ],
        "reactions": [
            {
                "name": "+1",
                "users": [
                    "UV0QTJCMT"
                ],
                "count": 1
            }
        ]
    },
    {
        "type": "message",
        "subtype": "channel_join",
        "ts": "1584808998.000200",
        "user": "U010J948MUP",
        "text": "<@U010J948MUP> has joined the channel"
    },
    {
        "type": "message",
        "subtype": "channel_join",
        "ts": "1584813743.000500",
        "user": "U0106T9TL3T",
        "text": "<@U0106T9TL3T> has joined the channel"
    },
    {
        "type": "message",
        "subtype": "channel_join",
        "ts": "1584820234.000700",
        "user": "U010GHT685A",
        "text": "<@U010GHT685A> has joined the channel"
    }
]