[
    {
        "type": "message",
        "text": "",
        "files": [
            {
                "id": "F011G2Q7KAR",
                "created": 1586244884,
                "timestamp": 1586244884,
                "name": "local_hu_moments.pdf",
                "title": "local_hu_moments.pdf",
                "mimetype": "application\/pdf",
                "filetype": "pdf",
                "pretty_type": "PDF",
                "user": "U0103RQF7R8",
                "editable": false,
                "size": 2687273,
                "mode": "hosted",
                "is_external": false,
                "external_type": "",
                "is_public": true,
                "public_url_shared": false,
                "display_as_bot": false,
                "username": "",
                "url_private": "https:\/\/files.slack.com\/files-pri\/TUU48M0T1-F011G2Q7KAR\/local_hu_moments.pdf?t=xoxe-980144714919-1133254701825-1120841107731-daf595b5a7d6c9028b0b02a925032e36",
                "url_private_download": "https:\/\/files.slack.com\/files-pri\/TUU48M0T1-F011G2Q7KAR\/download\/local_hu_moments.pdf?t=xoxe-980144714919-1133254701825-1120841107731-daf595b5a7d6c9028b0b02a925032e36",
                "thumb_pdf": "https:\/\/files.slack.com\/files-tmb\/TUU48M0T1-F011G2Q7KAR-2da911a14c\/local_hu_moments_thumb_pdf.png?t=xoxe-980144714919-1133254701825-1120841107731-daf595b5a7d6c9028b0b02a925032e36",
                "thumb_pdf_w": 908,
                "thumb_pdf_h": 1210,
                "permalink": "https:\/\/open-covid19.slack.com\/files\/U0103RQF7R8\/F011G2Q7KAR\/local_hu_moments.pdf",
                "permalink_public": "https:\/\/slack-files.com\/TUU48M0T1-F011G2Q7KAR-bd94ecede6",
                "is_starred": false,
                "has_rich_preview": false
            }
        ],
        "upload": true,
        "user": "U0103RQF7R8",
        "display_as_bot": false,
        "ts": "1586244891.002600",
        "client_msg_id": "eb2c6522-0bdf-4146-a293-05b76eab56de",
        "thread_ts": "1586198887.002400",
        "parent_user_id": "UVDCTDP8B",
        "reactions": [
            {
                "name": "raised_hands",
                "users": [
                    "UVDCTDP8B"
                ],
                "count": 1
            }
        ]
    },
    {
        "type": "message",
        "text": "",
        "files": [
            {
                "id": "F011G2QP7M3",
                "created": 1586244909,
                "timestamp": 1586244909,
                "name": "pediatric_patients.pdf",
                "title": "pediatric_patients.pdf",
                "mimetype": "application\/pdf",
                "filetype": "pdf",
                "pretty_type": "PDF",
                "user": "U0103RQF7R8",
                "editable": false,
                "size": 712250,
                "mode": "hosted",
                "is_external": false,
                "external_type": "",
                "is_public": true,
                "public_url_shared": false,
                "display_as_bot": false,
                "username": "",
                "url_private": "https:\/\/files.slack.com\/files-pri\/TUU48M0T1-F011G2QP7M3\/pediatric_patients.pdf?t=xoxe-980144714919-1133254701825-1120841107731-daf595b5a7d6c9028b0b02a925032e36",
                "url_private_download": "https:\/\/files.slack.com\/files-pri\/TUU48M0T1-F011G2QP7M3\/download\/pediatric_patients.pdf?t=xoxe-980144714919-1133254701825-1120841107731-daf595b5a7d6c9028b0b02a925032e36",
                "thumb_pdf": "https:\/\/files.slack.com\/files-tmb\/TUU48M0T1-F011G2QP7M3-3b13017bda\/pediatric_patients_thumb_pdf.png?t=xoxe-980144714919-1133254701825-1120841107731-daf595b5a7d6c9028b0b02a925032e36",
                "thumb_pdf_w": 935,
                "thumb_pdf_h": 1210,
                "permalink": "https:\/\/open-covid19.slack.com\/files\/U0103RQF7R8\/F011G2QP7M3\/pediatric_patients.pdf",
                "permalink_public": "https:\/\/slack-files.com\/TUU48M0T1-F011G2QP7M3-107a6ad1f0",
                "is_starred": false,
                "has_rich_preview": false
            }
        ],
        "upload": true,
        "user": "U0103RQF7R8",
        "display_as_bot": false,
        "ts": "1586244912.003000",
        "client_msg_id": "4190e1d6-b4a1-44a3-8892-fe71b9f616d5",
        "thread_ts": "1585981187.001800",
        "parent_user_id": "UVDCTDP8B",
        "reactions": [
            {
                "name": "raised_hands",
                "users": [
                    "UVDCTDP8B"
                ],
                "count": 1
            }
        ]
    },
    {
        "type": "message",
        "text": "",
        "files": [
            {
                "id": "F011ETTHNKG",
                "created": 1586244942,
                "timestamp": 1586244942,
                "name": "mode_decomposition.pdf",
                "title": "mode_decomposition.pdf",
                "mimetype": "application\/pdf",
                "filetype": "pdf",
                "pretty_type": "PDF",
                "user": "U0103RQF7R8",
                "editable": false,
                "size": 3625826,
                "mode": "hosted",
                "is_external": false,
                "external_type": "",
                "is_public": true,
                "public_url_shared": false,
                "display_as_bot": false,
                "username": "",
                "url_private": "https:\/\/files.slack.com\/files-pri\/TUU48M0T1-F011ETTHNKG\/mode_decomposition.pdf?t=xoxe-980144714919-1133254701825-1120841107731-daf595b5a7d6c9028b0b02a925032e36",
                "url_private_download": "https:\/\/files.slack.com\/files-pri\/TUU48M0T1-F011ETTHNKG\/download\/mode_decomposition.pdf?t=xoxe-980144714919-1133254701825-1120841107731-daf595b5a7d6c9028b0b02a925032e36",
                "thumb_pdf": "https:\/\/files.slack.com\/files-tmb\/TUU48M0T1-F011ETTHNKG-51b73bfc4f\/mode_decomposition_thumb_pdf.png?t=xoxe-980144714919-1133254701825-1120841107731-daf595b5a7d6c9028b0b02a925032e36",
                "thumb_pdf_w": 935,
                "thumb_pdf_h": 1210,
                "permalink": "https:\/\/open-covid19.slack.com\/files\/U0103RQF7R8\/F011ETTHNKG\/mode_decomposition.pdf",
                "permalink_public": "https:\/\/slack-files.com\/TUU48M0T1-F011ETTHNKG-adbd30bfc3",
                "is_starred": false,
                "has_rich_preview": false
            }
        ],
        "upload": true,
        "user": "U0103RQF7R8",
        "display_as_bot": false,
        "ts": "1586244948.003400",
        "client_msg_id": "40a0dfb9-5bc9-40e7-bf1d-74e3db0f36e6",
        "thread_ts": "1585978427.001400",
        "parent_user_id": "UVDCTDP8B",
        "reactions": [
            {
                "name": "100",
                "users": [
                    "UVDCTDP8B"
                ],
                "count": 1
            },
            {
                "name": "raised_hands",
                "users": [
                    "UVDCTDP8B"
                ],
                "count": 1
            }
        ]
    }
]