[
    {
        "type": "message",
        "subtype": "channel_join",
        "ts": "1584551481.000200",
        "user": "UUNGFHSV8",
        "text": "<@UUNGFHSV8> has joined the channel"
    },
    {
        "type": "message",
        "subtype": "channel_join",
        "ts": "1584560123.000400",
        "user": "U0109T1DV9T",
        "text": "<@U0109T1DV9T> has joined the channel"
    },
    {
        "type": "message",
        "subtype": "channel_join",
        "ts": "1584586252.000200",
        "user": "U0101DKUALV",
        "text": "<@U0101DKUALV> has joined the channel"
    }
]