[
    {
        "client_msg_id": "b202402f-5f6e-4e20-ae64-e1b5de4316dd",
        "type": "message",
        "text": "I have been offered a dissertation for mass spectrometry based corona testing. Is it worth the effort \/ is there a perspective that it could work? I am not (yet) an expert in this field. However, the study by Lewis et al 2017, where they tested it on bacterial respiratory tract infections, sounded rather disappointing to me (low sensitivity and specificity). I am happy for any reading recommendations.",
        "user": "U010X9FPMS8",
        "ts": "1585410365.002700",
        "team": "TUU48M0T1",
        "user_team": "TUU48M0T1",
        "source_team": "TUU48M0T1",
        "user_profile": {
            "avatar_hash": "faff4edf8af2",
            "image_72": "https:\/\/avatars.slack-edge.com\/2020-03-27\/1031471711236_faff4edf8af2cc7b11dd_72.jpg",
            "first_name": "Florian",
            "real_name": "Florian Schulte",
            "display_name": "Florian Schulte",
            "team": "TUU48M0T1",
            "name": "schulte.florian",
            "is_restricted": false,
            "is_ultra_restricted": false
        },
        "blocks": [
            {
                "type": "rich_text",
                "block_id": "toX",
                "elements": [
                    {
                        "type": "rich_text_section",
                        "elements": [
                            {
                                "type": "text",
                                "text": "I have been offered a dissertation for mass spectrometry based corona testing. Is it worth the effort \/ is there a perspective that it could work? I am not (yet) an expert in this field. However, the study by Lewis et al 2017, where they tested it on bacterial respiratory tract infections, sounded rather disappointing to me (low sensitivity and specificity). I am happy for any reading recommendations."
                            }
                        ]
                    }
                ]
            }
        ],
        "thread_ts": "1585410365.002700",
        "reply_count": 7,
        "reply_users_count": 2,
        "latest_reply": "1587749197.000100",
        "reply_users": [
            "UVA46RKLY",
            "U010X9FPMS8"
        ],
        "replies": [
            {
                "user": "UVA46RKLY",
                "ts": "1585420101.006000"
            },
            {
                "user": "U010X9FPMS8",
                "ts": "1585425179.006200"
            },
            {
                "user": "UVA46RKLY",
                "ts": "1585477322.000100"
            },
            {
                "user": "UVA46RKLY",
                "ts": "1585477368.000300"
            },
            {
                "user": "U010X9FPMS8",
                "ts": "1585488108.000500"
            },
            {
                "user": "UVA46RKLY",
                "ts": "1585493314.000700"
            },
            {
                "user": "U010X9FPMS8",
                "ts": "1587749197.000100"
            }
        ],
        "subscribed": false
    },
    {
        "client_msg_id": "bb05eb2e-5acd-40f1-9f63-a5b0bc544812",
        "type": "message",
        "text": "Hi Florian, I strongly believe mass spectrometry can help a lot in COVID-19 testing. In fact I am working on a proposal right now to be submitted in some Indian government organisations where mass spectrometry can help. Since the deadline is 31st March, am not able to dedicate a lot of time here. But feel free to connect with me, there are a lot of things that can be done with MS.",
        "user": "UVA46RKLY",
        "ts": "1585419451.005400",
        "team": "TUU48M0T1",
        "user_team": "TUU48M0T1",
        "source_team": "TUU48M0T1",
        "user_profile": {
            "avatar_hash": "8d10ec5a9437",
            "image_72": "https:\/\/avatars.slack-edge.com\/2020-03-12\/996164491840_8d10ec5a943740f34518_72.jpg",
            "first_name": "Nivedita",
            "real_name": "Nivedita Bhattacharya",
            "display_name": "Nivi",
            "team": "TUU48M0T1",
            "name": "evaladybrave",
            "is_restricted": false,
            "is_ultra_restricted": false
        },
        "blocks": [
            {
                "type": "rich_text",
                "block_id": "AD1",
                "elements": [
                    {
                        "type": "rich_text_section",
                        "elements": [
                            {
                                "type": "text",
                                "text": "Hi Florian, I strongly believe mass spectrometry can help a lot in COVID-19 testing. In fact I am working on a proposal right now to be submitted in some Indian government organisations where mass spectrometry can help. Since the deadline is 31st March, am not able to dedicate a lot of time here. But feel free to connect with me, there are a lot of things that can be done with MS."
                            }
                        ]
                    }
                ]
            }
        ]
    },
    {
        "client_msg_id": "a74478f0-7ccb-4b17-8313-1caf5126b9b8",
        "type": "message",
        "text": "And welcome to the group Erwan and Florian",
        "user": "UVA46RKLY",
        "ts": "1585419847.005900",
        "team": "TUU48M0T1",
        "user_team": "TUU48M0T1",
        "source_team": "TUU48M0T1",
        "user_profile": {
            "avatar_hash": "8d10ec5a9437",
            "image_72": "https:\/\/avatars.slack-edge.com\/2020-03-12\/996164491840_8d10ec5a943740f34518_72.jpg",
            "first_name": "Nivedita",
            "real_name": "Nivedita Bhattacharya",
            "display_name": "Nivi",
            "team": "TUU48M0T1",
            "name": "evaladybrave",
            "is_restricted": false,
            "is_ultra_restricted": false
        },
        "blocks": [
            {
                "type": "rich_text",
                "block_id": "ocz",
                "elements": [
                    {
                        "type": "rich_text_section",
                        "elements": [
                            {
                                "type": "text",
                                "text": "And welcome to the group Erwan and Florian"
                            }
                        ]
                    }
                ]
            }
        ]
    },
    {
        "client_msg_id": "708ed8ae-d547-4b2a-8b51-2f0485347823",
        "type": "message",
        "text": "If you don't mind, can you forward me the paper?",
        "user": "UVA46RKLY",
        "ts": "1585420101.006000",
        "team": "TUU48M0T1",
        "user_team": "TUU48M0T1",
        "source_team": "TUU48M0T1",
        "user_profile": {
            "avatar_hash": "8d10ec5a9437",
            "image_72": "https:\/\/avatars.slack-edge.com\/2020-03-12\/996164491840_8d10ec5a943740f34518_72.jpg",
            "first_name": "Nivedita",
            "real_name": "Nivedita Bhattacharya",
            "display_name": "Nivi",
            "team": "TUU48M0T1",
            "name": "evaladybrave",
            "is_restricted": false,
            "is_ultra_restricted": false
        },
        "blocks": [
            {
                "type": "rich_text",
                "block_id": "5=8U",
                "elements": [
                    {
                        "type": "rich_text_section",
                        "elements": [
                            {
                                "type": "text",
                                "text": "If you don't mind, can you forward me the paper?"
                            }
                        ]
                    }
                ]
            }
        ],
        "thread_ts": "1585410365.002700",
        "parent_user_id": "U010X9FPMS8"
    },
    {
        "type": "message",
        "text": "",
        "files": [
            {
                "id": "F010ZBWPRNC",
                "created": 1585425158,
                "timestamp": 1585425158,
                "name": "JM Lewis 2017 identifying volatile metabolite signatures.pdf",
                "title": "JM Lewis 2017 identifying volatile metabolite signatures.pdf",
                "mimetype": "application\/pdf",
                "filetype": "pdf",
                "pretty_type": "PDF",
                "user": "U010X9FPMS8",
                "editable": false,
                "size": 2200304,
                "mode": "hosted",
                "is_external": false,
                "external_type": "",
                "is_public": true,
                "public_url_shared": false,
                "display_as_bot": false,
                "username": "",
                "url_private": "https:\/\/files.slack.com\/files-pri\/TUU48M0T1-F010ZBWPRNC\/jm_lewis_2017_identifying_volatile_metabolite_signatures.pdf?t=xoxe-980144714919-1106606678066-1105227127893-6f722bb664235052954ad46852628b64",
                "url_private_download": "https:\/\/files.slack.com\/files-pri\/TUU48M0T1-F010ZBWPRNC\/download\/jm_lewis_2017_identifying_volatile_metabolite_signatures.pdf?t=xoxe-980144714919-1106606678066-1105227127893-6f722bb664235052954ad46852628b64",
                "thumb_pdf": "https:\/\/files.slack.com\/files-tmb\/TUU48M0T1-F010ZBWPRNC-14e3d59558\/jm_lewis_2017_identifying_volatile_metabolite_signatures_thumb_pdf.png?t=xoxe-980144714919-1106606678066-1105227127893-6f722bb664235052954ad46852628b64",
                "thumb_pdf_w": 935,
                "thumb_pdf_h": 1210,
                "permalink": "https:\/\/open-covid19.slack.com\/files\/U010X9FPMS8\/F010ZBWPRNC\/jm_lewis_2017_identifying_volatile_metabolite_signatures.pdf",
                "permalink_public": "https:\/\/slack-files.com\/TUU48M0T1-F010ZBWPRNC-c7ed717a06",
                "is_starred": false,
                "has_rich_preview": false
            }
        ],
        "upload": true,
        "user": "U010X9FPMS8",
        "display_as_bot": false,
        "ts": "1585425179.006200",
        "client_msg_id": "3c8eef48-975f-43e3-a607-0bd9f8dcf887",
        "thread_ts": "1585410365.002700",
        "parent_user_id": "U010X9FPMS8"
    }
]