[
    {
        "type": "message",
        "subtype": "channel_join",
        "ts": "1585468652.042100",
        "user": "UV3JN6XUK",
        "text": "<@UV3JN6XUK> has joined the channel"
    },
    {
        "client_msg_id": "b8b0d7d8-4c27-49ff-98c6-69ea882fa41d",
        "type": "message",
        "text": "<https:\/\/en.wikipedia.org\/wiki\/K-mer>",
        "user": "UV3JN6XUK",
        "ts": "1585468655.042200",
        "team": "TUU48M0T1",
        "user_team": "TUU48M0T1",
        "source_team": "TUU48M0T1",
        "user_profile": {
            "avatar_hash": "c6c0c1b1b336",
            "image_72": "https:\/\/avatars.slack-edge.com\/2020-03-15\/1003312480278_c6c0c1b1b336d5d6bc8a_72.png",
            "first_name": "Pavel",
            "real_name": "Pavel Savchenko",
            "display_name": "pavel",
            "team": "TUU48M0T1",
            "name": "asfaltboy",
            "is_restricted": false,
            "is_ultra_restricted": false
        },
        "edited": {
            "user": "UV3JN6XUK",
            "ts": "1585468881.000000"
        },
        "blocks": [
            {
                "type": "rich_text",
                "block_id": "+85V7",
                "elements": [
                    {
                        "type": "rich_text_section",
                        "elements": [
                            {
                                "type": "link",
                                "url": "https:\/\/en.wikipedia.org\/wiki\/K-mer"
                            }
                        ]
                    }
                ]
            }
        ],
        "thread_ts": "1585442230.011100",
        "parent_user_id": "U01084P4ELX"
    },
    {
        "client_msg_id": "52B92E67-9572-4E76-9157-A0E5AE33318F",
        "type": "message",
        "text": "```from generators import G, read\n\ndef expand_chars(item):\n    if \"W\" in item:\n        yield item.replace(\"W\", \"A\")\n        yield item.replace(\"W\", \"T\")\n    if \"N\" in item:\n        yield item.replace(\"N\", \"G\")\n        yield item.replace(\"N\", \"A\")\n        yield item.replace(\"N\", \"T\")\n        yield item.replace(\"N\", \"C\")\n    yield item\n\npipe = G(\n    read('..\/GCF_000001405.39_GRCh38.p13_rna.fna')\n).map(\n    str.strip\n).groupby(\n    lambda i: i.startswith('&gt;')\n).filter(\n    lambda i: i[0] == False\n).map(\n    lambda i: G(\n        expand_chars(''.join(i[1]))\n    ).map(\n        lambda i: G(i).window(28).map(''.join)\n    ).chain()\n).chain(\n).chunk(4096).map('\\n'.join).print().run()```\nThat sprays to stdout\ncomment out the last line if you want to _use_ pipe instead of it just spraying stdout.",
        "user": "U010GHT685A",
        "ts": "1585492741.042600",
        "team": "TUU48M0T1",
        "user_team": "TUU48M0T1",
        "source_team": "TUU48M0T1",
        "user_profile": {
            "avatar_hash": "g8b82eba32dc",
            "image_72": "https:\/\/secure.gravatar.com\/avatar\/8b82eba32dceb4a94f0d2f641621be24.jpg?s=72&d=https%3A%2F%2Fa.slack-edge.com%2Fdf10d%2Fimg%2Favatars%2Fava_0014-72.png",
            "first_name": "",
            "real_name": "Cody Kochmann",
            "display_name": "",
            "team": "TUU48M0T1",
            "name": "kochmanncody",
            "is_restricted": false,
            "is_ultra_restricted": false
        },
        "edited": {
            "user": "U010GHT685A",
            "ts": "1585493530.000000"
        },
        "blocks": [
            {
                "type": "rich_text",
                "block_id": "11ZEg",
                "elements": [
                    {
                        "type": "rich_text_preformatted",
                        "elements": [
                            {
                                "type": "text",
                                "text": "from generators import G, read\n\ndef expand_chars(item):\n    if \"W\" in item:\n        yield item.replace(\"W\", \"A\")\n        yield item.replace(\"W\", \"T\")\n    if \"N\" in item:\n        yield item.replace(\"N\", \"G\")\n        yield item.replace(\"N\", \"A\")\n        yield item.replace(\"N\", \"T\")\n        yield item.replace(\"N\", \"C\")\n    yield item\n\npipe = G(\n    read('..\/GCF_000001405.39_GRCh38.p13_rna.fna')\n).map(\n    str.strip\n).groupby(\n    lambda i: i.startswith('>')\n).filter(\n    lambda i:"
                            },
                            {
                                "type": "text",
                                "text": " "
                            },
                            {
                                "type": "text",
                                "text": "i[0] == False\n).map(\n    lambda i: G(\n        expand_chars(''.join(i[1]))\n    ).map(\n        lambda i: G(i).window(28).map(''.join)\n    ).chain()\n).chain(\n).chunk(4096).map('\\n'.join).print().run()"
                            }
                        ]
                    },
                    {
                        "type": "rich_text_section",
                        "elements": [
                            {
                                "type": "text",
                                "text": "That sprays to stdout\ncomment out the last line if you want to "
                            },
                            {
                                "type": "text",
                                "text": "use",
                                "style": {
                                    "italic": true
                                }
                            },
                            {
                                "type": "text",
                                "text": " pipe instead of it just spraying stdout."
                            }
                        ]
                    }
                ]
            }
        ]
    },
    {
        "client_msg_id": "DDBD6C00-1871-4E6E-852E-B01E11E133DE",
        "type": "message",
        "text": "for reference that was this",
        "user": "U010GHT685A",
        "ts": "1585492749.042900",
        "team": "TUU48M0T1",
        "user_team": "TUU48M0T1",
        "source_team": "TUU48M0T1",
        "user_profile": {
            "avatar_hash": "g8b82eba32dc",
            "image_72": "https:\/\/secure.gravatar.com\/avatar\/8b82eba32dceb4a94f0d2f641621be24.jpg?s=72&d=https%3A%2F%2Fa.slack-edge.com%2Fdf10d%2Fimg%2Favatars%2Fava_0014-72.png",
            "first_name": "",
            "real_name": "Cody Kochmann",
            "display_name": "",
            "team": "TUU48M0T1",
            "name": "kochmanncody",
            "is_restricted": false,
            "is_ultra_restricted": false
        },
        "blocks": [
            {
                "type": "rich_text",
                "block_id": "ZRmw",
                "elements": [
                    {
                        "type": "rich_text_section",
                        "elements": [
                            {
                                "type": "text",
                                "text": "for reference that was this"
                            }
                        ]
                    }
                ]
            }
        ]
    },
    {
        "client_msg_id": "AD640630-6E3F-4E35-B604-7AECD52ED34B",
        "type": "message",
        "text": "For a little background <@U01084P4ELX> marcin and I kinda do s*** like this all the time with NASA",
        "user": "U010GHT685A",
        "ts": "1585492992.044400",
        "team": "TUU48M0T1",
        "user_team": "TUU48M0T1",
        "source_team": "TUU48M0T1",
        "user_profile": {
            "avatar_hash": "g8b82eba32dc",
            "image_72": "https:\/\/secure.gravatar.com\/avatar\/8b82eba32dceb4a94f0d2f641621be24.jpg?s=72&d=https%3A%2F%2Fa.slack-edge.com%2Fdf10d%2Fimg%2Favatars%2Fava_0014-72.png",
            "first_name": "",
            "real_name": "Cody Kochmann",
            "display_name": "",
            "team": "TUU48M0T1",
            "name": "kochmanncody",
            "is_restricted": false,
            "is_ultra_restricted": false
        },
        "blocks": [
            {
                "type": "rich_text",
                "block_id": "u8Zz",
                "elements": [
                    {
                        "type": "rich_text_section",
                        "elements": [
                            {
                                "type": "text",
                                "text": "For a little background "
                            },
                            {
                                "type": "user",
                                "user_id": "U01084P4ELX"
                            },
                            {
                                "type": "text",
                                "text": " marcin and I kinda do s*** like this all the time with NASA"
                            }
                        ]
                    }
                ]
            }
        ]
    },
    {
        "client_msg_id": "029ACA1B-69E4-441F-8198-7056C17F13A9",
        "type": "message",
        "text": "To push that snippet further, I would change the file its reading to `sys.stdin` and parameterize the `28` so you can have that as a cli argument.\n\nI have a feeling that it would read fastest from reading from `tar` inline extracting the file, assuming 9 minute read time is not fast enough or you are trying to keep disk usage to a minimum.",
        "user": "U010GHT685A",
        "ts": "1585493386.049800",
        "team": "TUU48M0T1",
        "user_team": "TUU48M0T1",
        "source_team": "TUU48M0T1",
        "user_profile": {
            "avatar_hash": "g8b82eba32dc",
            "image_72": "https:\/\/secure.gravatar.com\/avatar\/8b82eba32dceb4a94f0d2f641621be24.jpg?s=72&d=https%3A%2F%2Fa.slack-edge.com%2Fdf10d%2Fimg%2Favatars%2Fava_0014-72.png",
            "first_name": "",
            "real_name": "Cody Kochmann",
            "display_name": "",
            "team": "TUU48M0T1",
            "name": "kochmanncody",
            "is_restricted": false,
            "is_ultra_restricted": false
        },
        "blocks": [
            {
                "type": "rich_text",
                "block_id": "sMmew",
                "elements": [
                    {
                        "type": "rich_text_section",
                        "elements": [
                            {
                                "type": "text",
                                "text": "To push that snippet further, I would change the file its reading to "
                            },
                            {
                                "type": "text",
                                "text": "sys.stdin",
                                "style": {
                                    "code": true
                                }
                            },
                            {
                                "type": "text",
                                "text": " and parameterize the "
                            },
                            {
                                "type": "text",
                                "text": "28",
                                "style": {
                                    "code": true
                                }
                            },
                            {
                                "type": "text",
                                "text": " so you can have that as a cli argument.\n"
                            },
                            {
                                "type": "text",
                                "text": "\n"
                            },
                            {
                                "type": "text",
                                "text": "I have a feeling that it would read fastest from reading from "
                            },
                            {
                                "type": "text",
                                "text": "tar",
                                "style": {
                                    "code": true
                                }
                            },
                            {
                                "type": "text",
                                "text": " inline extracting the file, assuming 9 minute read time is not fast enough or you are trying to keep disk usage to a minimum."
                            }
                        ]
                    }
                ]
            }
        ]
    },
    {
        "client_msg_id": "BA016176-7A21-4C2D-8204-D01CE522B7F9",
        "type": "message",
        "text": "also if you would prefer WAY more speed, this library I used is specifically good at pre-forming the specific code needed to make this rip in rust. so if we needed to call upon the speed gods, thats an option",
        "user": "U010GHT685A",
        "ts": "1585493488.051800",
        "team": "TUU48M0T1",
        "user_team": "TUU48M0T1",
        "source_team": "TUU48M0T1",
        "user_profile": {
            "avatar_hash": "g8b82eba32dc",
            "image_72": "https:\/\/secure.gravatar.com\/avatar\/8b82eba32dceb4a94f0d2f641621be24.jpg?s=72&d=https%3A%2F%2Fa.slack-edge.com%2Fdf10d%2Fimg%2Favatars%2Fava_0014-72.png",
            "first_name": "",
            "real_name": "Cody Kochmann",
            "display_name": "",
            "team": "TUU48M0T1",
            "name": "kochmanncody",
            "is_restricted": false,
            "is_ultra_restricted": false
        },
        "blocks": [
            {
                "type": "rich_text",
                "block_id": "9Y7j",
                "elements": [
                    {
                        "type": "rich_text_section",
                        "elements": [
                            {
                                "type": "text",
                                "text": "also if you would prefer WAY more speed, this library I used is specifically good at pre-forming the specific code needed to make this rip in rust. so if we needed to call upon the speed gods, thats an option"
                            }
                        ]
                    }
                ]
            }
        ]
    },
    {
        "client_msg_id": "98B5CF1D-5225-4218-B2A2-FC667EA0392F",
        "type": "message",
        "text": "dna comparison using integer bit optimizations <https:\/\/gist.github.com\/7bb4694ea00aa1613f533822507eec89|https:\/\/gist.github.com\/7bb4694ea00aa1613f533822507eec89>",
        "user": "U010GHT685A",
        "ts": "1585503506.052200",
        "team": "TUU48M0T1",
        "user_team": "TUU48M0T1",
        "source_team": "TUU48M0T1",
        "user_profile": {
            "avatar_hash": "g8b82eba32dc",
            "image_72": "https:\/\/secure.gravatar.com\/avatar\/8b82eba32dceb4a94f0d2f641621be24.jpg?s=72&d=https%3A%2F%2Fa.slack-edge.com%2Fdf10d%2Fimg%2Favatars%2Fava_0014-72.png",
            "first_name": "",
            "real_name": "Cody Kochmann",
            "display_name": "",
            "team": "TUU48M0T1",
            "name": "kochmanncody",
            "is_restricted": false,
            "is_ultra_restricted": false
        },
        "blocks": [
            {
                "type": "rich_text",
                "block_id": "Xo07",
                "elements": [
                    {
                        "type": "rich_text_section",
                        "elements": [
                            {
                                "type": "text",
                                "text": "dna comparison using integer bit optimizations "
                            },
                            {
                                "type": "link",
                                "url": "https:\/\/gist.github.com\/7bb4694ea00aa1613f533822507eec89",
                                "text": "https:\/\/gist.github.com\/7bb4694ea00aa1613f533822507eec89"
                            }
                        ]
                    }
                ]
            }
        ],
        "reactions": [
            {
                "name": "heart",
                "users": [
                    "U010ZD43P2L"
                ],
                "count": 1
            }
        ]
    },
    {
        "client_msg_id": "A54717A5-AD2C-4366-9698-CD72FF8EEA05",
        "type": "message",
        "text": "<@U010ZD43P2L> theres your converter to turn all the slices into ints so we can just do proper xor operations",
        "user": "U010GHT685A",
        "ts": "1585503573.053700",
        "team": "TUU48M0T1",
        "user_team": "TUU48M0T1",
        "source_team": "TUU48M0T1",
        "user_profile": {
            "avatar_hash": "g8b82eba32dc",
            "image_72": "https:\/\/secure.gravatar.com\/avatar\/8b82eba32dceb4a94f0d2f641621be24.jpg?s=72&d=https%3A%2F%2Fa.slack-edge.com%2Fdf10d%2Fimg%2Favatars%2Fava_0014-72.png",
            "first_name": "",
            "real_name": "Cody Kochmann",
            "display_name": "",
            "team": "TUU48M0T1",
            "name": "kochmanncody",
            "is_restricted": false,
            "is_ultra_restricted": false
        },
        "blocks": [
            {
                "type": "rich_text",
                "block_id": "ZNf1y",
                "elements": [
                    {
                        "type": "rich_text_section",
                        "elements": [
                            {
                                "type": "user",
                                "user_id": "U010ZD43P2L"
                            },
                            {
                                "type": "text",
                                "text": " theres your converter to turn all the slices into ints so we can just do proper xor operations"
                            }
                        ]
                    }
                ]
            }
        ]
    },
    {
        "type": "message",
        "text": "",
        "files": [
            {
                "id": "F010ZEPPFJ8",
                "created": 1585503602,
                "timestamp": 1585503602,
                "name": "Image from iOS.jpg",
                "title": "Image from iOS",
                "mimetype": "image\/jpeg",
                "filetype": "jpg",
                "pretty_type": "JPEG",
                "user": "U010GHT685A",
                "editable": false,
                "size": 157237,
                "mode": "hosted",
                "is_external": false,
                "external_type": "",
                "is_public": true,
                "public_url_shared": false,
                "display_as_bot": false,
                "username": "",
                "url_private": "https:\/\/files.slack.com\/files-pri\/TUU48M0T1-F010ZEPPFJ8\/image_from_ios.jpg?t=xoxe-980144714919-1106606678066-1105227127893-6f722bb664235052954ad46852628b64",
                "url_private_download": "https:\/\/files.slack.com\/files-pri\/TUU48M0T1-F010ZEPPFJ8\/download\/image_from_ios.jpg?t=xoxe-980144714919-1106606678066-1105227127893-6f722bb664235052954ad46852628b64",
                "thumb_64": "https:\/\/files.slack.com\/files-tmb\/TUU48M0T1-F010ZEPPFJ8-662c99c3bb\/image_from_ios_64.jpg?t=xoxe-980144714919-1106606678066-1105227127893-6f722bb664235052954ad46852628b64",
                "thumb_80": "https:\/\/files.slack.com\/files-tmb\/TUU48M0T1-F010ZEPPFJ8-662c99c3bb\/image_from_ios_80.jpg?t=xoxe-980144714919-1106606678066-1105227127893-6f722bb664235052954ad46852628b64",
                "thumb_360": "https:\/\/files.slack.com\/files-tmb\/TUU48M0T1-F010ZEPPFJ8-662c99c3bb\/image_from_ios_360.jpg?t=xoxe-980144714919-1106606678066-1105227127893-6f722bb664235052954ad46852628b64",
                "thumb_360_w": 360,
                "thumb_360_h": 193,
                "thumb_480": "https:\/\/files.slack.com\/files-tmb\/TUU48M0T1-F010ZEPPFJ8-662c99c3bb\/image_from_ios_480.jpg?t=xoxe-980144714919-1106606678066-1105227127893-6f722bb664235052954ad46852628b64",
                "thumb_480_w": 480,
                "thumb_480_h": 257,
                "thumb_160": "https:\/\/files.slack.com\/files-tmb\/TUU48M0T1-F010ZEPPFJ8-662c99c3bb\/image_from_ios_160.jpg?t=xoxe-980144714919-1106606678066-1105227127893-6f722bb664235052954ad46852628b64",
                "thumb_720": "https:\/\/files.slack.com\/files-tmb\/TUU48M0T1-F010ZEPPFJ8-662c99c3bb\/image_from_ios_720.jpg?t=xoxe-980144714919-1106606678066-1105227127893-6f722bb664235052954ad46852628b64",
                "thumb_720_w": 720,
                "thumb_720_h": 386,
                "thumb_800": "https:\/\/files.slack.com\/files-tmb\/TUU48M0T1-F010ZEPPFJ8-662c99c3bb\/image_from_ios_800.jpg?t=xoxe-980144714919-1106606678066-1105227127893-6f722bb664235052954ad46852628b64",
                "thumb_800_w": 800,
                "thumb_800_h": 429,
                "thumb_960": "https:\/\/files.slack.com\/files-tmb\/TUU48M0T1-F010ZEPPFJ8-662c99c3bb\/image_from_ios_960.jpg?t=xoxe-980144714919-1106606678066-1105227127893-6f722bb664235052954ad46852628b64",
                "thumb_960_w": 960,
                "thumb_960_h": 515,
                "thumb_1024": "https:\/\/files.slack.com\/files-tmb\/TUU48M0T1-F010ZEPPFJ8-662c99c3bb\/image_from_ios_1024.jpg?t=xoxe-980144714919-1106606678066-1105227127893-6f722bb664235052954ad46852628b64",
                "thumb_1024_w": 1024,
                "thumb_1024_h": 549,
                "image_exif_rotation": 1,
                "original_w": 1563,
                "original_h": 838,
                "thumb_tiny": "AwAZADDPAGO1LhfagdOgpecdBQAm1cdqZx6GneWT3o8s+tADePQ0cehp3lt60hQgcmgBw4HBpCTnvTKKAHlm980bnplFAD9z0hLEc02igD\/\/2Q==",
                "permalink": "https:\/\/open-covid19.slack.com\/files\/U010GHT685A\/F010ZEPPFJ8\/image_from_ios.jpg",
                "permalink_public": "https:\/\/slack-files.com\/TUU48M0T1-F010ZEPPFJ8-2815c73417",
                "is_starred": false,
                "has_rich_preview": false
            }
        ],
        "upload": true,
        "blocks": [
            {
                "type": "rich_text",
                "block_id": "30Q",
                "elements": []
            }
        ],
        "user": "U010GHT685A",
        "display_as_bot": false,
        "ts": "1585503606.053900",
        "client_msg_id": "720DAD08-B4C2-43FE-9902-82B1365AE5A2"
    },
    {
        "client_msg_id": "F367C284-D499-462D-9B6E-0887D8A16724",
        "type": "message",
        "text": "I added a demo function so you guys can see how it works",
        "user": "U010GHT685A",
        "ts": "1585503625.054600",
        "team": "TUU48M0T1",
        "user_team": "TUU48M0T1",
        "source_team": "TUU48M0T1",
        "user_profile": {
            "avatar_hash": "g8b82eba32dc",
            "image_72": "https:\/\/secure.gravatar.com\/avatar\/8b82eba32dceb4a94f0d2f641621be24.jpg?s=72&d=https%3A%2F%2Fa.slack-edge.com%2Fdf10d%2Fimg%2Favatars%2Fava_0014-72.png",
            "first_name": "",
            "real_name": "Cody Kochmann",
            "display_name": "",
            "team": "TUU48M0T1",
            "name": "kochmanncody",
            "is_restricted": false,
            "is_ultra_restricted": false
        },
        "blocks": [
            {
                "type": "rich_text",
                "block_id": "R+a7p",
                "elements": [
                    {
                        "type": "rich_text_section",
                        "elements": [
                            {
                                "type": "text",
                                "text": "I added a demo function so you guys can see how it works"
                            }
                        ]
                    }
                ]
            }
        ]
    },
    {
        "client_msg_id": "1418ca58-e4c3-4314-9f96-e49a232fed5d",
        "type": "message",
        "text": "did you look my simple SQLite stuff from late last night?",
        "user": "U010ZD43P2L",
        "ts": "1585503657.055200",
        "team": "TUU48M0T1",
        "user_team": "TUU48M0T1",
        "source_team": "TUU48M0T1",
        "user_profile": {
            "avatar_hash": "g0c2f52ce1ed",
            "image_72": "https:\/\/secure.gravatar.com\/avatar\/0c2f52ce1edc35f686d3240bf7043264.jpg?s=72&d=https%3A%2F%2Fa.slack-edge.com%2Fdf10d%2Fimg%2Favatars%2Fava_0024-72.png",
            "first_name": "",
            "real_name": "Marcin Pohl",
            "display_name": "Marcin Pohl",
            "team": "TUU48M0T1",
            "name": "marcinpohl",
            "is_restricted": false,
            "is_ultra_restricted": false
        },
        "blocks": [
            {
                "type": "rich_text",
                "block_id": "lhsG",
                "elements": [
                    {
                        "type": "rich_text_section",
                        "elements": [
                            {
                                "type": "text",
                                "text": "did you look my simple SQLite stuff from late last night?"
                            }
                        ]
                    }
                ]
            }
        ]
    },
    {
        "client_msg_id": "29505786-DD42-4602-AC37-FD6D9D80F496",
        "type": "message",
        "text": "I briefly did and immediately got to work on this when I saw you setting things up for text comparisons ",
        "user": "U010GHT685A",
        "ts": "1585503698.056200",
        "team": "TUU48M0T1",
        "user_team": "TUU48M0T1",
        "source_team": "TUU48M0T1",
        "user_profile": {
            "avatar_hash": "g8b82eba32dc",
            "image_72": "https:\/\/secure.gravatar.com\/avatar\/8b82eba32dceb4a94f0d2f641621be24.jpg?s=72&d=https%3A%2F%2Fa.slack-edge.com%2Fdf10d%2Fimg%2Favatars%2Fava_0014-72.png",
            "first_name": "",
            "real_name": "Cody Kochmann",
            "display_name": "",
            "team": "TUU48M0T1",
            "name": "kochmanncody",
            "is_restricted": false,
            "is_ultra_restricted": false
        },
        "blocks": [
            {
                "type": "rich_text",
                "block_id": "FQj",
                "elements": [
                    {
                        "type": "rich_text_section",
                        "elements": [
                            {
                                "type": "text",
                                "text": "I briefly did and immediately got to work on this when I saw you setting things up for text comparisons "
                            }
                        ]
                    }
                ]
            }
        ]
    },
    {
        "client_msg_id": "78179b15-0c79-40ae-8f79-aa6f2ecd2e31",
        "type": "message",
        "text": "it's a stupid bet, but i figured it's too easy to do to ignore it preemptively",
        "user": "U010ZD43P2L",
        "ts": "1585503777.056800",
        "team": "TUU48M0T1",
        "user_team": "TUU48M0T1",
        "source_team": "TUU48M0T1",
        "user_profile": {
            "avatar_hash": "g0c2f52ce1ed",
            "image_72": "https:\/\/secure.gravatar.com\/avatar\/0c2f52ce1edc35f686d3240bf7043264.jpg?s=72&d=https%3A%2F%2Fa.slack-edge.com%2Fdf10d%2Fimg%2Favatars%2Fava_0024-72.png",
            "first_name": "",
            "real_name": "Marcin Pohl",
            "display_name": "Marcin Pohl",
            "team": "TUU48M0T1",
            "name": "marcinpohl",
            "is_restricted": false,
            "is_ultra_restricted": false
        },
        "blocks": [
            {
                "type": "rich_text",
                "block_id": "hPz",
                "elements": [
                    {
                        "type": "rich_text_section",
                        "elements": [
                            {
                                "type": "text",
                                "text": "it's a stupid bet, but i figured it's too easy to do to ignore it preemptively"
                            }
                        ]
                    }
                ]
            }
        ]
    },
    {
        "client_msg_id": "0D8549CA-6FF6-4FD0-B65F-AB115C954306",
        "type": "message",
        "text": "I agree",
        "user": "U010GHT685A",
        "ts": "1585503791.057300",
        "team": "TUU48M0T1",
        "user_team": "TUU48M0T1",
        "source_team": "TUU48M0T1",
        "user_profile": {
            "avatar_hash": "g8b82eba32dc",
            "image_72": "https:\/\/secure.gravatar.com\/avatar\/8b82eba32dceb4a94f0d2f641621be24.jpg?s=72&d=https%3A%2F%2Fa.slack-edge.com%2Fdf10d%2Fimg%2Favatars%2Fava_0014-72.png",
            "first_name": "",
            "real_name": "Cody Kochmann",
            "display_name": "",
            "team": "TUU48M0T1",
            "name": "kochmanncody",
            "is_restricted": false,
            "is_ultra_restricted": false
        },
        "blocks": [
            {
                "type": "rich_text",
                "block_id": "8uAOr",
                "elements": [
                    {
                        "type": "rich_text_section",
                        "elements": [
                            {
                                "type": "text",
                                "text": "I agree"
                            }
                        ]
                    }
                ]
            }
        ]
    },
    {
        "client_msg_id": "ac5b220e-96b4-4099-9ce1-fd845da34908",
        "type": "message",
        "text": "text sucks, but i figured the full text search engine might have some tricks up its sleeves to make up for it",
        "user": "U010ZD43P2L",
        "ts": "1585503804.057600",
        "team": "TUU48M0T1",
        "user_team": "TUU48M0T1",
        "source_team": "TUU48M0T1",
        "user_profile": {
            "avatar_hash": "g0c2f52ce1ed",
            "image_72": "https:\/\/secure.gravatar.com\/avatar\/0c2f52ce1edc35f686d3240bf7043264.jpg?s=72&d=https%3A%2F%2Fa.slack-edge.com%2Fdf10d%2Fimg%2Favatars%2Fava_0024-72.png",
            "first_name": "",
            "real_name": "Marcin Pohl",
            "display_name": "Marcin Pohl",
            "team": "TUU48M0T1",
            "name": "marcinpohl",
            "is_restricted": false,
            "is_ultra_restricted": false
        },
        "blocks": [
            {
                "type": "rich_text",
                "block_id": "W4d",
                "elements": [
                    {
                        "type": "rich_text_section",
                        "elements": [
                            {
                                "type": "text",
                                "text": "text sucks, but i figured the full text search engine might have some tricks up its sleeves to make up for it"
                            }
                        ]
                    }
                ]
            }
        ]
    },
    {
        "client_msg_id": "e39e71f6-607d-4ec1-b4e2-03d691adb314",
        "type": "message",
        "text": "so now we have a baseline",
        "user": "U010ZD43P2L",
        "ts": "1585503812.057900",
        "team": "TUU48M0T1",
        "user_team": "TUU48M0T1",
        "source_team": "TUU48M0T1",
        "user_profile": {
            "avatar_hash": "g0c2f52ce1ed",
            "image_72": "https:\/\/secure.gravatar.com\/avatar\/0c2f52ce1edc35f686d3240bf7043264.jpg?s=72&d=https%3A%2F%2Fa.slack-edge.com%2Fdf10d%2Fimg%2Favatars%2Fava_0024-72.png",
            "first_name": "",
            "real_name": "Marcin Pohl",
            "display_name": "Marcin Pohl",
            "team": "TUU48M0T1",
            "name": "marcinpohl",
            "is_restricted": false,
            "is_ultra_restricted": false
        },
        "blocks": [
            {
                "type": "rich_text",
                "block_id": "Xq=",
                "elements": [
                    {
                        "type": "rich_text_section",
                        "elements": [
                            {
                                "type": "text",
                                "text": "so now we have a baseline"
                            }
                        ]
                    }
                ]
            }
        ]
    },
    {
        "client_msg_id": "1a4f352a-9bc7-47e0-925d-eb9e19452808",
        "type": "message",
        "text": "what kind of speeds did you get with just py3 dict?",
        "user": "U010ZD43P2L",
        "ts": "1585503843.058400",
        "team": "TUU48M0T1",
        "user_team": "TUU48M0T1",
        "source_team": "TUU48M0T1",
        "user_profile": {
            "avatar_hash": "g0c2f52ce1ed",
            "image_72": "https:\/\/secure.gravatar.com\/avatar\/0c2f52ce1edc35f686d3240bf7043264.jpg?s=72&d=https%3A%2F%2Fa.slack-edge.com%2Fdf10d%2Fimg%2Favatars%2Fava_0024-72.png",
            "first_name": "",
            "real_name": "Marcin Pohl",
            "display_name": "Marcin Pohl",
            "team": "TUU48M0T1",
            "name": "marcinpohl",
            "is_restricted": false,
            "is_ultra_restricted": false
        },
        "blocks": [
            {
                "type": "rich_text",
                "block_id": "HOmoY",
                "elements": [
                    {
                        "type": "rich_text_section",
                        "elements": [
                            {
                                "type": "text",
                                "text": "what kind of speeds did you get with just py3 dict?"
                            }
                        ]
                    }
                ]
            }
        ]
    },
    {
        "client_msg_id": "432DC51F-EF7A-42C1-82C4-627C1C07EAC0",
        "type": "message",
        "text": "assembly or lookup?",
        "user": "U010GHT685A",
        "ts": "1585503885.059100",
        "team": "TUU48M0T1",
        "user_team": "TUU48M0T1",
        "source_team": "TUU48M0T1",
        "user_profile": {
            "avatar_hash": "g8b82eba32dc",
            "image_72": "https:\/\/secure.gravatar.com\/avatar\/8b82eba32dceb4a94f0d2f641621be24.jpg?s=72&d=https%3A%2F%2Fa.slack-edge.com%2Fdf10d%2Fimg%2Favatars%2Fava_0014-72.png",
            "first_name": "",
            "real_name": "Cody Kochmann",
            "display_name": "",
            "team": "TUU48M0T1",
            "name": "kochmanncody",
            "is_restricted": false,
            "is_ultra_restricted": false
        },
        "blocks": [
            {
                "type": "rich_text",
                "block_id": "9OEC",
                "elements": [
                    {
                        "type": "rich_text_section",
                        "elements": [
                            {
                                "type": "text",
                                "text": "assembly or lookup?"
                            }
                        ]
                    }
                ]
            }
        ]
    },
    {
        "client_msg_id": "78f62924-1412-45e6-9f31-25fd372040fd",
        "type": "message",
        "text": "lookup",
        "user": "U010ZD43P2L",
        "ts": "1585503891.059300",
        "team": "TUU48M0T1",
        "user_team": "TUU48M0T1",
        "source_team": "TUU48M0T1",
        "user_profile": {
            "avatar_hash": "g0c2f52ce1ed",
            "image_72": "https:\/\/secure.gravatar.com\/avatar\/0c2f52ce1edc35f686d3240bf7043264.jpg?s=72&d=https%3A%2F%2Fa.slack-edge.com%2Fdf10d%2Fimg%2Favatars%2Fava_0024-72.png",
            "first_name": "",
            "real_name": "Marcin Pohl",
            "display_name": "Marcin Pohl",
            "team": "TUU48M0T1",
            "name": "marcinpohl",
            "is_restricted": false,
            "is_ultra_restricted": false
        },
        "blocks": [
            {
                "type": "rich_text",
                "block_id": "0wN+I",
                "elements": [
                    {
                        "type": "rich_text_section",
                        "elements": [
                            {
                                "type": "text",
                                "text": "lookup"
                            }
                        ]
                    }
                ]
            }
        ]
    },
    {
        "client_msg_id": "28ae8b10-eb08-4a36-a858-eca4c329d23c",
        "type": "message",
        "text": "btw, import into sqlite was like few seconds, with creating indexes, total was like 31 secs on my tiny laptop",
        "user": "U010ZD43P2L",
        "ts": "1585503921.060200",
        "team": "TUU48M0T1",
        "user_team": "TUU48M0T1",
        "source_team": "TUU48M0T1",
        "user_profile": {
            "avatar_hash": "g0c2f52ce1ed",
            "image_72": "https:\/\/secure.gravatar.com\/avatar\/0c2f52ce1edc35f686d3240bf7043264.jpg?s=72&d=https%3A%2F%2Fa.slack-edge.com%2Fdf10d%2Fimg%2Favatars%2Fava_0024-72.png",
            "first_name": "",
            "real_name": "Marcin Pohl",
            "display_name": "Marcin Pohl",
            "team": "TUU48M0T1",
            "name": "marcinpohl",
            "is_restricted": false,
            "is_ultra_restricted": false
        },
        "blocks": [
            {
                "type": "rich_text",
                "block_id": "y+SW",
                "elements": [
                    {
                        "type": "rich_text_section",
                        "elements": [
                            {
                                "type": "text",
                                "text": "btw, import into sqlite was like few seconds, with creating indexes, total was like 31 secs on my tiny laptop"
                            }
                        ]
                    }
                ]
            }
        ]
    },
    {
        "client_msg_id": "690967B9-482A-4BDE-8CC1-0425D60AC8A0",
        "type": "message",
        "text": "3,500,000 lookups\/sec",
        "user": "U010GHT685A",
        "ts": "1585503930.060600",
        "team": "TUU48M0T1",
        "user_team": "TUU48M0T1",
        "source_team": "TUU48M0T1",
        "user_profile": {
            "avatar_hash": "g8b82eba32dc",
            "image_72": "https:\/\/secure.gravatar.com\/avatar\/8b82eba32dceb4a94f0d2f641621be24.jpg?s=72&d=https%3A%2F%2Fa.slack-edge.com%2Fdf10d%2Fimg%2Favatars%2Fava_0014-72.png",
            "first_name": "",
            "real_name": "Cody Kochmann",
            "display_name": "",
            "team": "TUU48M0T1",
            "name": "kochmanncody",
            "is_restricted": false,
            "is_ultra_restricted": false
        },
        "blocks": [
            {
                "type": "rich_text",
                "block_id": "UyTxM",
                "elements": [
                    {
                        "type": "rich_text_section",
                        "elements": [
                            {
                                "type": "text",
                                "text": "3,500,000 lookups\/sec"
                            }
                        ]
                    }
                ]
            }
        ]
    },
    {
        "client_msg_id": "8577f598-2a83-4bee-83c7-dec92c25ba7f",
        "type": "message",
        "text": "for a fixed length or `prefix*` ?",
        "user": "U010ZD43P2L",
        "ts": "1585503955.061000",
        "team": "TUU48M0T1",
        "user_team": "TUU48M0T1",
        "source_team": "TUU48M0T1",
        "user_profile": {
            "avatar_hash": "g0c2f52ce1ed",
            "image_72": "https:\/\/secure.gravatar.com\/avatar\/0c2f52ce1edc35f686d3240bf7043264.jpg?s=72&d=https%3A%2F%2Fa.slack-edge.com%2Fdf10d%2Fimg%2Favatars%2Fava_0024-72.png",
            "first_name": "",
            "real_name": "Marcin Pohl",
            "display_name": "Marcin Pohl",
            "team": "TUU48M0T1",
            "name": "marcinpohl",
            "is_restricted": false,
            "is_ultra_restricted": false
        },
        "blocks": [
            {
                "type": "rich_text",
                "block_id": "T=64",
                "elements": [
                    {
                        "type": "rich_text_section",
                        "elements": [
                            {
                                "type": "text",
                                "text": "for a fixed length or "
                            },
                            {
                                "type": "text",
                                "text": "prefix*",
                                "style": {
                                    "code": true
                                }
                            },
                            {
                                "type": "text",
                                "text": " ?"
                            }
                        ]
                    }
                ]
            }
        ]
    },
    {
        "client_msg_id": "77358ad1-9a78-45bf-af70-e94b989d6c2c",
        "type": "message",
        "text": "i have two make targets, benchmark and benchmark.FTS5, take a look at what i do",
        "user": "U010ZD43P2L",
        "ts": "1585504014.062100",
        "team": "TUU48M0T1",
        "user_team": "TUU48M0T1",
        "source_team": "TUU48M0T1",
        "user_profile": {
            "avatar_hash": "g0c2f52ce1ed",
            "image_72": "https:\/\/secure.gravatar.com\/avatar\/0c2f52ce1edc35f686d3240bf7043264.jpg?s=72&d=https%3A%2F%2Fa.slack-edge.com%2Fdf10d%2Fimg%2Favatars%2Fava_0024-72.png",
            "first_name": "",
            "real_name": "Marcin Pohl",
            "display_name": "Marcin Pohl",
            "team": "TUU48M0T1",
            "name": "marcinpohl",
            "is_restricted": false,
            "is_ultra_restricted": false
        },
        "blocks": [
            {
                "type": "rich_text",
                "block_id": "60Zmt",
                "elements": [
                    {
                        "type": "rich_text_section",
                        "elements": [
                            {
                                "type": "text",
                                "text": "i have two make targets, benchmark and benchmark.FTS5, take a look at what i do"
                            }
                        ]
                    }
                ]
            }
        ]
    },
    {
        "client_msg_id": "E1B809DB-8906-4781-8C67-10D3A33343E9",
        "type": "message",
        "text": "that was for 600 million 28 mers",
        "user": "U010GHT685A",
        "ts": "1585504019.062300",
        "team": "TUU48M0T1",
        "user_team": "TUU48M0T1",
        "source_team": "TUU48M0T1",
        "user_profile": {
            "avatar_hash": "g8b82eba32dc",
            "image_72": "https:\/\/secure.gravatar.com\/avatar\/8b82eba32dceb4a94f0d2f641621be24.jpg?s=72&d=https%3A%2F%2Fa.slack-edge.com%2Fdf10d%2Fimg%2Favatars%2Fava_0014-72.png",
            "first_name": "",
            "real_name": "Cody Kochmann",
            "display_name": "",
            "team": "TUU48M0T1",
            "name": "kochmanncody",
            "is_restricted": false,
            "is_ultra_restricted": false
        },
        "blocks": [
            {
                "type": "rich_text",
                "block_id": "P3TGX",
                "elements": [
                    {
                        "type": "rich_text_section",
                        "elements": [
                            {
                                "type": "text",
                                "text": "that was for 600 million 28 mers"
                            }
                        ]
                    }
                ]
            }
        ]
    },
    {
        "client_msg_id": "850bd226-026f-4839-82ad-d16a719422a0",
        "type": "message",
        "text": "ok, you need to explain the 28 mers thing to me, call me?",
        "user": "U010ZD43P2L",
        "ts": "1585504037.062700",
        "team": "TUU48M0T1",
        "user_team": "TUU48M0T1",
        "source_team": "TUU48M0T1",
        "user_profile": {
            "avatar_hash": "g0c2f52ce1ed",
            "image_72": "https:\/\/secure.gravatar.com\/avatar\/0c2f52ce1edc35f686d3240bf7043264.jpg?s=72&d=https%3A%2F%2Fa.slack-edge.com%2Fdf10d%2Fimg%2Favatars%2Fava_0024-72.png",
            "first_name": "",
            "real_name": "Marcin Pohl",
            "display_name": "Marcin Pohl",
            "team": "TUU48M0T1",
            "name": "marcinpohl",
            "is_restricted": false,
            "is_ultra_restricted": false
        },
        "blocks": [
            {
                "type": "rich_text",
                "block_id": "=4Hzg",
                "elements": [
                    {
                        "type": "rich_text_section",
                        "elements": [
                            {
                                "type": "text",
                                "text": "ok, you need to explain the 28 mers thing to me, call me?"
                            }
                        ]
                    }
                ]
            }
        ]
    },
    {
        "client_msg_id": "6559A134-5C29-4C15-9216-FB8C6B361F18",
        "type": "message",
        "text": "when I say 28 mer its substring with 28 chars",
        "user": "U010GHT685A",
        "ts": "1585504062.063300",
        "team": "TUU48M0T1",
        "user_team": "TUU48M0T1",
        "source_team": "TUU48M0T1",
        "user_profile": {
            "avatar_hash": "g8b82eba32dc",
            "image_72": "https:\/\/secure.gravatar.com\/avatar\/8b82eba32dceb4a94f0d2f641621be24.jpg?s=72&d=https%3A%2F%2Fa.slack-edge.com%2Fdf10d%2Fimg%2Favatars%2Fava_0014-72.png",
            "first_name": "",
            "real_name": "Cody Kochmann",
            "display_name": "",
            "team": "TUU48M0T1",
            "name": "kochmanncody",
            "is_restricted": false,
            "is_ultra_restricted": false
        },
        "blocks": [
            {
                "type": "rich_text",
                "block_id": "x44N",
                "elements": [
                    {
                        "type": "rich_text_section",
                        "elements": [
                            {
                                "type": "text",
                                "text": "when I say 28 mer its substring with 28 chars"
                            }
                        ]
                    }
                ]
            }
        ]
    },
    {
        "client_msg_id": "802ED1FF-CF1D-4F8D-BEF8-B6AC33054B3E",
        "type": "message",
        "text": "just trying to get use to the lingo so they can call out when Im fucking up logic",
        "user": "U010GHT685A",
        "ts": "1585504094.064400",
        "team": "TUU48M0T1",
        "user_team": "TUU48M0T1",
        "source_team": "TUU48M0T1",
        "user_profile": {
            "avatar_hash": "g8b82eba32dc",
            "image_72": "https:\/\/secure.gravatar.com\/avatar\/8b82eba32dceb4a94f0d2f641621be24.jpg?s=72&d=https%3A%2F%2Fa.slack-edge.com%2Fdf10d%2Fimg%2Favatars%2Fava_0014-72.png",
            "first_name": "",
            "real_name": "Cody Kochmann",
            "display_name": "",
            "team": "TUU48M0T1",
            "name": "kochmanncody",
            "is_restricted": false,
            "is_ultra_restricted": false
        },
        "blocks": [
            {
                "type": "rich_text",
                "block_id": "rBqR",
                "elements": [
                    {
                        "type": "rich_text_section",
                        "elements": [
                            {
                                "type": "text",
                                "text": "just trying to get use to the lingo so they can call out when Im fucking up logic"
                            }
                        ]
                    }
                ]
            }
        ]
    },
    {
        "client_msg_id": "d2599293-1824-4c94-95ed-3e5c4255c497",
        "type": "message",
        "text": "we need to come up with a standard benchmark, so we can compare oranges to oranges",
        "user": "U010ZD43P2L",
        "ts": "1585504100.064600",
        "team": "TUU48M0T1",
        "user_team": "TUU48M0T1",
        "source_team": "TUU48M0T1",
        "user_profile": {
            "avatar_hash": "g0c2f52ce1ed",
            "image_72": "https:\/\/secure.gravatar.com\/avatar\/0c2f52ce1edc35f686d3240bf7043264.jpg?s=72&d=https%3A%2F%2Fa.slack-edge.com%2Fdf10d%2Fimg%2Favatars%2Fava_0024-72.png",
            "first_name": "",
            "real_name": "Marcin Pohl",
            "display_name": "Marcin Pohl",
            "team": "TUU48M0T1",
            "name": "marcinpohl",
            "is_restricted": false,
            "is_ultra_restricted": false
        },
        "blocks": [
            {
                "type": "rich_text",
                "block_id": "Xu2kN",
                "elements": [
                    {
                        "type": "rich_text_section",
                        "elements": [
                            {
                                "type": "text",
                                "text": "we need to come up with a standard benchmark, so we can compare oranges to oranges"
                            }
                        ]
                    }
                ]
            }
        ]
    },
    {
        "client_msg_id": "6753601b-4a3b-49c7-80f7-52120ee5c010",
        "type": "message",
        "text": "yea but i still dont speak the lingo... i dont care what it represents, cuz i'm a bio-moron, a string is a string to me",
        "user": "U010ZD43P2L",
        "ts": "1585504132.065400",
        "team": "TUU48M0T1",
        "user_team": "TUU48M0T1",
        "source_team": "TUU48M0T1",
        "user_profile": {
            "avatar_hash": "g0c2f52ce1ed",
            "image_72": "https:\/\/secure.gravatar.com\/avatar\/0c2f52ce1edc35f686d3240bf7043264.jpg?s=72&d=https%3A%2F%2Fa.slack-edge.com%2Fdf10d%2Fimg%2Favatars%2Fava_0024-72.png",
            "first_name": "",
            "real_name": "Marcin Pohl",
            "display_name": "Marcin Pohl",
            "team": "TUU48M0T1",
            "name": "marcinpohl",
            "is_restricted": false,
            "is_ultra_restricted": false
        },
        "blocks": [
            {
                "type": "rich_text",
                "block_id": "4511",
                "elements": [
                    {
                        "type": "rich_text_section",
                        "elements": [
                            {
                                "type": "text",
                                "text": "yea but i still dont speak the lingo... i dont care what it represents, cuz i'm a bio-moron, a string is a string to me"
                            }
                        ]
                    }
                ]
            }
        ]
    },
    {
        "client_msg_id": "c294d1da-ec61-4e1f-b57d-8e4c55935b0f",
        "type": "message",
        "text": "call me in like 3 mins, i'm making tea",
        "user": "U010ZD43P2L",
        "ts": "1585504230.066700",
        "team": "TUU48M0T1",
        "user_team": "TUU48M0T1",
        "source_team": "TUU48M0T1",
        "user_profile": {
            "avatar_hash": "g0c2f52ce1ed",
            "image_72": "https:\/\/secure.gravatar.com\/avatar\/0c2f52ce1edc35f686d3240bf7043264.jpg?s=72&d=https%3A%2F%2Fa.slack-edge.com%2Fdf10d%2Fimg%2Favatars%2Fava_0024-72.png",
            "first_name": "",
            "real_name": "Marcin Pohl",
            "display_name": "Marcin Pohl",
            "team": "TUU48M0T1",
            "name": "marcinpohl",
            "is_restricted": false,
            "is_ultra_restricted": false
        },
        "blocks": [
            {
                "type": "rich_text",
                "block_id": "yPX",
                "elements": [
                    {
                        "type": "rich_text_section",
                        "elements": [
                            {
                                "type": "text",
                                "text": "call me in like 3 mins, i'm making tea"
                            }
                        ]
                    }
                ]
            }
        ]
    },
    {
        "client_msg_id": "243ABBA8-6F37-4C09-BE6A-F0BA7BE36A06",
        "type": "message",
        "text": "we more need <@U01084P4ELX> to step through the steps with us to put together a makefile for a base real world build that we can work towards giving him. ",
        "user": "U010GHT685A",
        "ts": "1585504268.067600",
        "team": "TUU48M0T1",
        "user_team": "TUU48M0T1",
        "source_team": "TUU48M0T1",
        "user_profile": {
            "avatar_hash": "g8b82eba32dc",
            "image_72": "https:\/\/secure.gravatar.com\/avatar\/8b82eba32dceb4a94f0d2f641621be24.jpg?s=72&d=https%3A%2F%2Fa.slack-edge.com%2Fdf10d%2Fimg%2Favatars%2Fava_0014-72.png",
            "first_name": "",
            "real_name": "Cody Kochmann",
            "display_name": "",
            "team": "TUU48M0T1",
            "name": "kochmanncody",
            "is_restricted": false,
            "is_ultra_restricted": false
        },
        "blocks": [
            {
                "type": "rich_text",
                "block_id": "3lWJo",
                "elements": [
                    {
                        "type": "rich_text_section",
                        "elements": [
                            {
                                "type": "text",
                                "text": "we more need "
                            },
                            {
                                "type": "user",
                                "user_id": "U01084P4ELX"
                            },
                            {
                                "type": "text",
                                "text": " to step through the steps with us to put together a makefile for a base real world build that we can work towards giving him. "
                            }
                        ]
                    }
                ]
            }
        ]
    },
    {
        "client_msg_id": "E8FD1468-D6E8-4143-B972-D9F594EB4137",
        "type": "message",
        "text": "he posted a wikipedia of K-mer. k-mer is just a window of characters of size k",
        "user": "U010GHT685A",
        "ts": "1585504308.068700",
        "team": "TUU48M0T1",
        "user_team": "TUU48M0T1",
        "source_team": "TUU48M0T1",
        "user_profile": {
            "avatar_hash": "g8b82eba32dc",
            "image_72": "https:\/\/secure.gravatar.com\/avatar\/8b82eba32dceb4a94f0d2f641621be24.jpg?s=72&d=https%3A%2F%2Fa.slack-edge.com%2Fdf10d%2Fimg%2Favatars%2Fava_0014-72.png",
            "first_name": "",
            "real_name": "Cody Kochmann",
            "display_name": "",
            "team": "TUU48M0T1",
            "name": "kochmanncody",
            "is_restricted": false,
            "is_ultra_restricted": false
        },
        "blocks": [
            {
                "type": "rich_text",
                "block_id": "WFX",
                "elements": [
                    {
                        "type": "rich_text_section",
                        "elements": [
                            {
                                "type": "text",
                                "text": "he posted a wikipedia of K-mer. k-mer is just a window of characters of size k"
                            }
                        ]
                    }
                ]
            }
        ]
    },
    {
        "type": "message",
        "text": "Hamming weight (aka number of 1s after XOR)",
        "files": [
            {
                "id": "F010PUXP26M",
                "created": 1585505975,
                "timestamp": 1585505975,
                "name": "Untitled",
                "title": "Untitled",
                "mimetype": "text\/plain",
                "filetype": "c",
                "pretty_type": "C",
                "user": "U010ZD43P2L",
                "editable": true,
                "size": 252,
                "mode": "snippet",
                "is_external": false,
                "external_type": "",
                "is_public": true,
                "public_url_shared": false,
                "display_as_bot": false,
                "username": "",
                "url_private": "https:\/\/files.slack.com\/files-pri\/TUU48M0T1-F010PUXP26M\/untitled?t=xoxe-980144714919-1106606678066-1105227127893-6f722bb664235052954ad46852628b64",
                "url_private_download": "https:\/\/files.slack.com\/files-pri\/TUU48M0T1-F010PUXP26M\/download\/untitled?t=xoxe-980144714919-1106606678066-1105227127893-6f722bb664235052954ad46852628b64",
                "permalink": "https:\/\/open-covid19.slack.com\/files\/U010ZD43P2L\/F010PUXP26M\/untitled",
                "permalink_public": "https:\/\/slack-files.com\/TUU48M0T1-F010PUXP26M-66dc1f1725",
                "edit_link": "https:\/\/open-covid19.slack.com\/files\/U010ZD43P2L\/F010PUXP26M\/untitled\/edit",
                "is_starred": false,
                "has_rich_preview": false
            }
        ],
        "upload": true,
        "blocks": [
            {
                "type": "rich_text",
                "block_id": "JO4",
                "elements": [
                    {
                        "type": "rich_text_section",
                        "elements": [
                            {
                                "type": "text",
                                "text": "Hamming weight (aka number of 1s after XOR)"
                            }
                        ]
                    }
                ]
            }
        ],
        "user": "U010ZD43P2L",
        "display_as_bot": false,
        "ts": "1585505977.069100",
        "client_msg_id": "1c3c268e-f090-488d-8f23-90633f7c6113"
    },
    {
        "client_msg_id": "bea3598a-af46-4441-853c-2ea9e6fa9802",
        "type": "message",
        "text": "<https:\/\/stackoverflow.com\/questions\/109023\/how-to-count-the-number-of-set-bits-in-a-32-bit-integer>",
        "user": "U010ZD43P2L",
        "ts": "1585506023.069500",
        "team": "TUU48M0T1",
        "user_team": "TUU48M0T1",
        "source_team": "TUU48M0T1",
        "user_profile": {
            "avatar_hash": "g0c2f52ce1ed",
            "image_72": "https:\/\/secure.gravatar.com\/avatar\/0c2f52ce1edc35f686d3240bf7043264.jpg?s=72&d=https%3A%2F%2Fa.slack-edge.com%2Fdf10d%2Fimg%2Favatars%2Fava_0024-72.png",
            "first_name": "",
            "real_name": "Marcin Pohl",
            "display_name": "Marcin Pohl",
            "team": "TUU48M0T1",
            "name": "marcinpohl",
            "is_restricted": false,
            "is_ultra_restricted": false
        },
        "attachments": [
            {
                "service_name": "Stack Overflow",
                "title": "How to count the number of set bits in a 32-bit integer?",
                "title_link": "https:\/\/stackoverflow.com\/questions\/109023\/how-to-count-the-number-of-set-bits-in-a-32-bit-integer",
                "text": "8 bits representing the number 7 look like this: 00000111 Three bits are set. What are algorithms to determine the number of set bits in a 32-bit integer?",
                "fallback": "Stack Overflow: How to count the number of set bits in a 32-bit integer?",
                "thumb_url": "https:\/\/cdn.sstatic.net\/Sites\/stackoverflow\/img\/apple-touch-icon@2.png?v=73d79a89bded",
                "from_url": "https:\/\/stackoverflow.com\/questions\/109023\/how-to-count-the-number-of-set-bits-in-a-32-bit-integer",
                "thumb_width": 316,
                "thumb_height": 316,
                "service_icon": "https:\/\/cdn.sstatic.net\/Sites\/stackoverflow\/img\/apple-touch-icon.png?v=c78bd457575a",
                "id": 1,
                "original_url": "https:\/\/stackoverflow.com\/questions\/109023\/how-to-count-the-number-of-set-bits-in-a-32-bit-integer"
            }
        ],
        "blocks": [
            {
                "type": "rich_text",
                "block_id": "tV=0",
                "elements": [
                    {
                        "type": "rich_text_section",
                        "elements": [
                            {
                                "type": "link",
                                "url": "https:\/\/stackoverflow.com\/questions\/109023\/how-to-count-the-number-of-set-bits-in-a-32-bit-integer"
                            }
                        ]
                    }
                ]
            }
        ]
    },
    {
        "client_msg_id": "46A15096-4762-4BE1-835B-25676AC7C883",
        "type": "message",
        "text": "<https:\/\/gist.github.com\/424515da1c093ee368bc22e61562ff35|https:\/\/gist.github.com\/424515da1c093ee368bc22e61562ff35>",
        "user": "U010GHT685A",
        "ts": "1585507487.069800",
        "team": "TUU48M0T1",
        "user_team": "TUU48M0T1",
        "source_team": "TUU48M0T1",
        "user_profile": {
            "avatar_hash": "g8b82eba32dc",
            "image_72": "https:\/\/secure.gravatar.com\/avatar\/8b82eba32dceb4a94f0d2f641621be24.jpg?s=72&d=https%3A%2F%2Fa.slack-edge.com%2Fdf10d%2Fimg%2Favatars%2Fava_0014-72.png",
            "first_name": "",
            "real_name": "Cody Kochmann",
            "display_name": "",
            "team": "TUU48M0T1",
            "name": "kochmanncody",
            "is_restricted": false,
            "is_ultra_restricted": false
        },
        "blocks": [
            {
                "type": "rich_text",
                "block_id": "AXl",
                "elements": [
                    {
                        "type": "rich_text_section",
                        "elements": [
                            {
                                "type": "link",
                                "url": "https:\/\/gist.github.com\/424515da1c093ee368bc22e61562ff35",
                                "text": "https:\/\/gist.github.com\/424515da1c093ee368bc22e61562ff35"
                            }
                        ]
                    }
                ]
            }
        ]
    },
    {
        "client_msg_id": "CF0C8BA8-7FD4-474A-95D1-847755E7DC01",
        "type": "message",
        "text": "here are the two combined. so you now have a stream of nice optimized ints coming from the reader",
        "user": "U010GHT685A",
        "ts": "1585507523.070800",
        "team": "TUU48M0T1",
        "user_team": "TUU48M0T1",
        "source_team": "TUU48M0T1",
        "user_profile": {
            "avatar_hash": "g8b82eba32dc",
            "image_72": "https:\/\/secure.gravatar.com\/avatar\/8b82eba32dceb4a94f0d2f641621be24.jpg?s=72&d=https%3A%2F%2Fa.slack-edge.com%2Fdf10d%2Fimg%2Favatars%2Fava_0014-72.png",
            "first_name": "",
            "real_name": "Cody Kochmann",
            "display_name": "",
            "team": "TUU48M0T1",
            "name": "kochmanncody",
            "is_restricted": false,
            "is_ultra_restricted": false
        },
        "edited": {
            "user": "U010GHT685A",
            "ts": "1585507534.000000"
        },
        "blocks": [
            {
                "type": "rich_text",
                "block_id": "Hbh",
                "elements": [
                    {
                        "type": "rich_text_section",
                        "elements": [
                            {
                                "type": "text",
                                "text": "here are the two combined. so you now have a stream of nice optimized ints coming from the reader"
                            }
                        ]
                    }
                ]
            }
        ]
    },
    {
        "type": "message",
        "text": "",
        "files": [
            {
                "id": "F010Q02S733",
                "created": 1585508162,
                "timestamp": 1585508162,
                "name": "Untitled",
                "title": "Untitled",
                "mimetype": "text\/plain",
                "filetype": "text",
                "pretty_type": "Plain Text",
                "user": "U010GHT685A",
                "editable": true,
                "size": 1278,
                "mode": "snippet",
                "is_external": false,
                "external_type": "",
                "is_public": true,
                "public_url_shared": false,
                "display_as_bot": false,
                "username": "",
                "url_private": "https:\/\/files.slack.com\/files-pri\/TUU48M0T1-F010Q02S733\/untitled?t=xoxe-980144714919-1106606678066-1105227127893-6f722bb664235052954ad46852628b64",
                "url_private_download": "https:\/\/files.slack.com\/files-pri\/TUU48M0T1-F010Q02S733\/download\/untitled?t=xoxe-980144714919-1106606678066-1105227127893-6f722bb664235052954ad46852628b64",
                "permalink": "https:\/\/open-covid19.slack.com\/files\/U010GHT685A\/F010Q02S733\/untitled",
                "permalink_public": "https:\/\/slack-files.com\/TUU48M0T1-F010Q02S733-786cf051aa",
                "edit_link": "https:\/\/open-covid19.slack.com\/files\/U010GHT685A\/F010Q02S733\/untitled\/edit",
                "is_starred": false,
                "has_rich_preview": false
            }
        ],
        "upload": true,
        "user": "U010GHT685A",
        "display_as_bot": false,
        "ts": "1585508163.071000",
        "client_msg_id": "3b1bc68b-66c4-4d90-bf9c-314d73390263"
    },
    {
        "client_msg_id": "70b7c86b-e557-40a2-9744-3c4e5f664efb",
        "type": "message",
        "text": "<!here> Why 28?",
        "user": "U010GHT685A",
        "ts": "1585517404.072800",
        "team": "TUU48M0T1",
        "user_team": "TUU48M0T1",
        "source_team": "TUU48M0T1",
        "user_profile": {
            "avatar_hash": "g8b82eba32dc",
            "image_72": "https:\/\/secure.gravatar.com\/avatar\/8b82eba32dceb4a94f0d2f641621be24.jpg?s=72&d=https%3A%2F%2Fa.slack-edge.com%2Fdf10d%2Fimg%2Favatars%2Fava_0014-72.png",
            "first_name": "",
            "real_name": "Cody Kochmann",
            "display_name": "",
            "team": "TUU48M0T1",
            "name": "kochmanncody",
            "is_restricted": false,
            "is_ultra_restricted": false
        },
        "blocks": [
            {
                "type": "rich_text",
                "block_id": "9\/wD",
                "elements": [
                    {
                        "type": "rich_text_section",
                        "elements": [
                            {
                                "type": "broadcast",
                                "range": "here"
                            },
                            {
                                "type": "text",
                                "text": " Why 28?"
                            }
                        ]
                    }
                ]
            }
        ]
    },
    {
        "client_msg_id": "4e1bdeac-b041-448d-91e6-8c4df12528f3",
        "type": "message",
        "text": "Why not 10, 32, 64, 1000, what makes 28 special\/ideal?",
        "user": "U010GHT685A",
        "ts": "1585517433.073300",
        "team": "TUU48M0T1",
        "user_team": "TUU48M0T1",
        "source_team": "TUU48M0T1",
        "user_profile": {
            "avatar_hash": "g8b82eba32dc",
            "image_72": "https:\/\/secure.gravatar.com\/avatar\/8b82eba32dceb4a94f0d2f641621be24.jpg?s=72&d=https%3A%2F%2Fa.slack-edge.com%2Fdf10d%2Fimg%2Favatars%2Fava_0014-72.png",
            "first_name": "",
            "real_name": "Cody Kochmann",
            "display_name": "",
            "team": "TUU48M0T1",
            "name": "kochmanncody",
            "is_restricted": false,
            "is_ultra_restricted": false
        },
        "edited": {
            "user": "U010GHT685A",
            "ts": "1585517448.000000"
        },
        "blocks": [
            {
                "type": "rich_text",
                "block_id": "hTb",
                "elements": [
                    {
                        "type": "rich_text_section",
                        "elements": [
                            {
                                "type": "text",
                                "text": "Why not 10, 32, 64, 1000, what makes 28 special\/ideal?"
                            }
                        ]
                    }
                ]
            }
        ]
    }
]