[
    {
        "client_msg_id": "13ef437b-84de-4582-bac6-34006e855e33",
        "type": "message",
        "text": "ok, great, wait, then we would just basically need to extract you information about\n1. doctor\n2. nurses\n3. EMTs\n4. experts in textiles (how to formulate it?)\nWhat is the deadline for this?\n\nWe can also ask <@UV0QTJCMT> to help us to find people if we do not find enough maybe",
        "user": "U010B412MF1",
        "ts": "1585128296.000400",
        "team": "TUU48M0T1",
        "user_team": "TUU48M0T1",
        "source_team": "TUU48M0T1",
        "user_profile": {
            "avatar_hash": "218d963a797f",
            "image_72": "https:\/\/avatars.slack-edge.com\/2020-03-19\/1013072792629_218d963a797fbf4410c0_72.png",
            "first_name": "",
            "real_name": "liu",
            "display_name": "liu",
            "team": "TUU48M0T1",
            "name": "liubov.tupikina",
            "is_restricted": false,
            "is_ultra_restricted": false
        },
        "blocks": [
            {
                "type": "rich_text",
                "block_id": "BOisV",
                "elements": [
                    {
                        "type": "rich_text_section",
                        "elements": [
                            {
                                "type": "text",
                                "text": "ok, great, wait, then we would just basically need to extract you information about\n"
                            }
                        ]
                    },
                    {
                        "type": "rich_text_list",
                        "elements": [
                            {
                                "type": "rich_text_section",
                                "elements": [
                                    {
                                        "type": "text",
                                        "text": "doctor"
                                    }
                                ]
                            },
                            {
                                "type": "rich_text_section",
                                "elements": [
                                    {
                                        "type": "text",
                                        "text": "nurses"
                                    }
                                ]
                            },
                            {
                                "type": "rich_text_section",
                                "elements": [
                                    {
                                        "type": "text",
                                        "text": "EMTs"
                                    }
                                ]
                            },
                            {
                                "type": "rich_text_section",
                                "elements": [
                                    {
                                        "type": "text",
                                        "text": "experts in textiles (how to formulate it?)"
                                    }
                                ]
                            }
                        ],
                        "style": "ordered",
                        "indent": 0
                    },
                    {
                        "type": "rich_text_section",
                        "elements": [
                            {
                                "type": "text",
                                "text": "\nWhat is the deadline for this?\n\nWe can also ask "
                            },
                            {
                                "type": "user",
                                "user_id": "UV0QTJCMT"
                            },
                            {
                                "type": "text",
                                "text": " to help us to find people if we do not find enough maybe"
                            }
                        ]
                    }
                ]
            }
        ],
        "thread_ts": "1585083543.025800",
        "parent_user_id": "U010HTBUHS9"
    },
    {
        "client_msg_id": "16eb322b-1c5b-478d-9702-586c6fb203bd",
        "type": "message",
        "text": "<@U010HTBUHS9> do you need an internal matchmaking (in JOGL) or a widespread world-wide one? For the latter I can out you in touch with the data scientist from <https:\/\/publiscience.com\/> who has designed a paper-to-reviewer matchmaking system using web of science databases. For the former I see several possibilities depending on the urgency: 1\/ get insights from the survey and extract email sets from this, or 2\/ we can work out a need-to-slackbot system for sending a pressing need to the community, getting a DM from a bot that says 1\/ do you wanna help and 2\/ what areas can you help with. This is something <@UVC9WMA7N> is currently designing but would take maybe more time.",
        "user": "UV85V64SD",
        "ts": "1585128426.000600",
        "team": "TUU48M0T1",
        "user_team": "TUU48M0T1",
        "source_team": "TUU48M0T1",
        "user_profile": {
            "avatar_hash": "1e73a651bdfe",
            "image_72": "https:\/\/avatars.slack-edge.com\/2020-03-16\/1004297548853_1e73a651bdfef2c41501_72.jpg",
            "first_name": "Marc",
            "real_name": "Marc Santolini",
            "display_name": "Marc Santolini - JOGL CoFounder \/ CSO",
            "team": "TUU48M0T1",
            "name": "marc.santolini",
            "is_restricted": false,
            "is_ultra_restricted": false
        },
        "blocks": [
            {
                "type": "rich_text",
                "block_id": "4uG69",
                "elements": [
                    {
                        "type": "rich_text_section",
                        "elements": [
                            {
                                "type": "user",
                                "user_id": "U010HTBUHS9"
                            },
                            {
                                "type": "text",
                                "text": " do you need an internal matchmaking (in JOGL) or a widespread world-wide one? For the latter I can out you in touch with the data scientist from "
                            },
                            {
                                "type": "link",
                                "url": "https:\/\/publiscience.com\/"
                            },
                            {
                                "type": "text",
                                "text": " who has designed a paper-to-reviewer matchmaking system using web of science databases. For the former I see several possibilities depending on the urgency: 1\/ get insights from the survey and extract email sets from this, or 2\/ we can work out a need-to-slackbot system for sending a pressing need to the community, getting a DM from a bot that says 1\/ do you wanna help and 2\/ what areas can you help with. This is something "
                            },
                            {
                                "type": "user",
                                "user_id": "UVC9WMA7N"
                            },
                            {
                                "type": "text",
                                "text": " is currently designing but would take maybe more time."
                            }
                        ]
                    }
                ]
            }
        ],
        "thread_ts": "1585083543.025800",
        "parent_user_id": "U010HTBUHS9"
    },
    {
        "client_msg_id": "854d749e-06bc-4a6f-b2ce-0d43295de82e",
        "type": "message",
        "text": "<@UV85V64SD> This data call is quite urgent however I don't want to get too focused on the immidiate situation - I think we should be looking at long term effective solutions.  We can put band aids on the system for now in the form of extra labor but it would be great to start the wheels in motion for doing things \"right\" so perhaps the conversation should start with your data scientist friend if <@UVC9WMA7N>is overwhelmed.",
        "user": "U010HTBUHS9",
        "ts": "1585139914.000900",
        "team": "TUU48M0T1",
        "user_team": "TUU48M0T1",
        "source_team": "TUU48M0T1",
        "user_profile": {
            "avatar_hash": "e7bdbebff0d9",
            "image_72": "https:\/\/avatars.slack-edge.com\/2020-03-22\/1017951251813_e7bdbebff0d9ad1e8f12_72.jpg",
            "first_name": "",
            "real_name": "Adam Arabian",
            "display_name": "Adam Arabian",
            "team": "TUU48M0T1",
            "name": "adam.arabian",
            "is_restricted": false,
            "is_ultra_restricted": false
        },
        "blocks": [
            {
                "type": "rich_text",
                "block_id": "cDNLj",
                "elements": [
                    {
                        "type": "rich_text_section",
                        "elements": [
                            {
                                "type": "user",
                                "user_id": "UV85V64SD"
                            },
                            {
                                "type": "text",
                                "text": " This data call is quite urgent however I don't want to get too focused on the immidiate situation - I think we should be looking at long term effective solutions.  We can put band aids on the system for now in the form of extra labor but it would be great to start the wheels in motion for doing things \"right\" so perhaps the conversation should start with your data scientist friend if "
                            },
                            {
                                "type": "user",
                                "user_id": "UVC9WMA7N"
                            },
                            {
                                "type": "text",
                                "text": "is overwhelmed."
                            }
                        ]
                    }
                ]
            }
        ],
        "thread_ts": "1585083543.025800",
        "parent_user_id": "U010HTBUHS9"
    },
    {
        "client_msg_id": "010103d6-6397-40d3-86ae-e23adb65255d",
        "type": "message",
        "text": "<@U010B412MF1> For manufacturing We are looking at not just textiles but also plastics maanufacturer or metal bending (nose bridges etc. for instance).  Its also worth looking for someone who knows shipping logistics since we need to coordinate moving things globally probably (getting things into and out of various countries can be a big pain from a tariff standpoint so we would want to coordinate in advance getting medical or humanitarian exemptions).  And finally  also scientists - we need people who understand aerosol science and biosafety who can assess a mask and say yes, that will filter effectively or not.",
        "user": "U010HTBUHS9",
        "ts": "1585140061.001100",
        "team": "TUU48M0T1",
        "user_team": "TUU48M0T1",
        "source_team": "TUU48M0T1",
        "user_profile": {
            "avatar_hash": "e7bdbebff0d9",
            "image_72": "https:\/\/avatars.slack-edge.com\/2020-03-22\/1017951251813_e7bdbebff0d9ad1e8f12_72.jpg",
            "first_name": "",
            "real_name": "Adam Arabian",
            "display_name": "Adam Arabian",
            "team": "TUU48M0T1",
            "name": "adam.arabian",
            "is_restricted": false,
            "is_ultra_restricted": false
        },
        "blocks": [
            {
                "type": "rich_text",
                "block_id": "moJ",
                "elements": [
                    {
                        "type": "rich_text_section",
                        "elements": [
                            {
                                "type": "user",
                                "user_id": "U010B412MF1"
                            },
                            {
                                "type": "text",
                                "text": " For manufacturing We are looking at not just textiles but also plastics maanufacturer or metal bending (nose bridges etc. for instance).  Its also worth looking for someone who knows shipping logistics since we need to coordinate moving things globally probably (getting things into and out of various countries can be a big pain from a tariff standpoint so we would want to coordinate in advance getting medical or humanitarian exemptions).  And finally  also scientists - we need people who understand aerosol science and biosafety who can assess a mask and say yes, that will filter effectively or not."
                            }
                        ]
                    }
                ]
            }
        ],
        "thread_ts": "1585083543.025800",
        "parent_user_id": "U010HTBUHS9"
    },
    {
        "client_msg_id": "a86fc5bc-cdf5-4b26-84bb-c5b16a86440e",
        "type": "message",
        "text": "<@U010HTBUHS9> Not really overwhelemed just yet :wink: More trying to juggle between the different priorities ? But quite seriously, it's not even a question of technology here.\nIt has more to do with, are you looking to create a database or do you want to use an pre existing one.\n\nRight now on JOGL the current plans are\n1. Get a clean, nice and easy to use Need &lt;-&gt; User search\/match maker\n2. Get a Custom Form, embedable in a Program\/Challenge\/Project so as to design surveys usable by teams. ",
        "user": "UVC9WMA7N",
        "ts": "1585140221.001300",
        "team": "TUU48M0T1",
        "user_team": "TUU48M0T1",
        "source_team": "TUU48M0T1",
        "user_profile": {
            "avatar_hash": "56d14d58ed53",
            "image_72": "https:\/\/avatars.slack-edge.com\/2020-03-13\/998337892660_56d14d58ed537e6e4654_72.png",
            "first_name": "Leo",
            "real_name": "Leo Blondel",
            "display_name": "Leo Blondel - JOGL CoFounder \/ CTO",
            "team": "TUU48M0T1",
            "name": "leo",
            "is_restricted": false,
            "is_ultra_restricted": false
        },
        "blocks": [
            {
                "type": "rich_text",
                "block_id": "NO=",
                "elements": [
                    {
                        "type": "rich_text_section",
                        "elements": [
                            {
                                "type": "user",
                                "user_id": "U010HTBUHS9"
                            },
                            {
                                "type": "text",
                                "text": " Not really overwhelemed just yet "
                            },
                            {
                                "type": "emoji",
                                "name": "wink"
                            },
                            {
                                "type": "text",
                                "text": " More trying to juggle between the different priorities ? But quite seriously, it's not even a question of technology here.\nIt has more to do with, are you looking to create a database or do you want to use an pre existing one.\n\nRight now on JOGL the current plans are\n"
                            }
                        ]
                    },
                    {
                        "type": "rich_text_list",
                        "elements": [
                            {
                                "type": "rich_text_section",
                                "elements": [
                                    {
                                        "type": "text",
                                        "text": "Get a clean, nice and easy to use Need <-> User search\/match maker"
                                    }
                                ]
                            },
                            {
                                "type": "rich_text_section",
                                "elements": [
                                    {
                                        "type": "text",
                                        "text": "Get a Custom Form, embedable in a Program\/Challenge\/Project so as to design surveys usable by teams. "
                                    }
                                ]
                            }
                        ],
                        "style": "ordered",
                        "indent": 0
                    }
                ]
            }
        ],
        "thread_ts": "1585083543.025800",
        "parent_user_id": "U010HTBUHS9"
    },
    {
        "client_msg_id": "ec312591-0b27-4fff-939b-3404e44a858f",
        "type": "message",
        "text": "hi there! guys, if anyone hasn't address that questionnaire task yet, I can take it today ok?\nI'm not familiarized with open source workflow, so if it's not the way you're managing tasks, just let me know. thanks!",
        "user": "UV8AZ6ABC",
        "ts": "1585141302.003500",
        "team": "TUU48M0T1",
        "user_team": "TUU48M0T1",
        "source_team": "TUU48M0T1",
        "user_profile": {
            "avatar_hash": "b4d8c336125b",
            "image_72": "https:\/\/avatars.slack-edge.com\/2020-03-17\/1006719750788_b4d8c336125bdcf987eb_72.jpg",
            "first_name": "Juliana",
            "real_name": "Juliana Cavalheiro",
            "display_name": "Juliana Cavalheiro",
            "team": "TUU48M0T1",
            "name": "ju.cavalheiro",
            "is_restricted": false,
            "is_ultra_restricted": false
        },
        "blocks": [
            {
                "type": "rich_text",
                "block_id": "Tvv",
                "elements": [
                    {
                        "type": "rich_text_section",
                        "elements": [
                            {
                                "type": "text",
                                "text": "hi there! guys, if anyone hasn't address that questionnaire task yet, I can take it today ok?\nI'm not familiarized with open source workflow, so if it's not the way you're managing tasks, just let me know. thanks!"
                            }
                        ]
                    }
                ]
            }
        ],
        "thread_ts": "1585141302.003500",
        "reply_count": 17,
        "reply_users_count": 3,
        "latest_reply": "1585265144.023600",
        "reply_users": [
            "U0108UAAUQM",
            "UV8AZ6ABC",
            "UVABNG1A9"
        ],
        "replies": [
            {
                "user": "U0108UAAUQM",
                "ts": "1585141658.003800"
            },
            {
                "user": "UV8AZ6ABC",
                "ts": "1585141751.004000"
            },
            {
                "user": "U0108UAAUQM",
                "ts": "1585141790.004400"
            },
            {
                "user": "UV8AZ6ABC",
                "ts": "1585141967.004600"
            },
            {
                "user": "U0108UAAUQM",
                "ts": "1585142173.005100"
            },
            {
                "user": "UV8AZ6ABC",
                "ts": "1585142415.005300"
            },
            {
                "user": "U0108UAAUQM",
                "ts": "1585142480.005500"
            },
            {
                "user": "U0108UAAUQM",
                "ts": "1585142527.005700"
            },
            {
                "user": "UV8AZ6ABC",
                "ts": "1585142545.005900"
            },
            {
                "user": "U0108UAAUQM",
                "ts": "1585142552.006100"
            },
            {
                "user": "U0108UAAUQM",
                "ts": "1585142599.006800"
            },
            {
                "user": "UV8AZ6ABC",
                "ts": "1585142669.007000"
            },
            {
                "user": "U0108UAAUQM",
                "ts": "1585180004.012800"
            },
            {
                "user": "UVABNG1A9",
                "ts": "1585236158.022000"
            },
            {
                "user": "U0108UAAUQM",
                "ts": "1585244670.022800"
            },
            {
                "user": "UV8AZ6ABC",
                "ts": "1585246294.023000"
            },
            {
                "user": "UVABNG1A9",
                "ts": "1585265144.023600"
            }
        ],
        "subscribed": false
    },
    {
        "client_msg_id": "fe33f97d-e861-4534-8dec-387b4b90dfed",
        "type": "message",
        "text": "<@UVC9WMA7N> My thought is that if an existing database exists we tap into it but if not just put out a broad announcement soliciting applications via a short google form (? - maybe thats creating a new database even if we didn't mean to?) and we find likely candidates.",
        "user": "U010HTBUHS9",
        "ts": "1585141318.003600",
        "team": "TUU48M0T1",
        "user_team": "TUU48M0T1",
        "source_team": "TUU48M0T1",
        "user_profile": {
            "avatar_hash": "e7bdbebff0d9",
            "image_72": "https:\/\/avatars.slack-edge.com\/2020-03-22\/1017951251813_e7bdbebff0d9ad1e8f12_72.jpg",
            "first_name": "",
            "real_name": "Adam Arabian",
            "display_name": "Adam Arabian",
            "team": "TUU48M0T1",
            "name": "adam.arabian",
            "is_restricted": false,
            "is_ultra_restricted": false
        },
        "blocks": [
            {
                "type": "rich_text",
                "block_id": "Z2i+",
                "elements": [
                    {
                        "type": "rich_text_section",
                        "elements": [
                            {
                                "type": "user",
                                "user_id": "UVC9WMA7N"
                            },
                            {
                                "type": "text",
                                "text": " My thought is that if an existing database exists we tap into it but if not just put out a broad announcement soliciting applications via a short google form (? - maybe thats creating a new database even if we didn't mean to?) and we find likely candidates."
                            }
                        ]
                    }
                ]
            }
        ],
        "thread_ts": "1585083543.025800",
        "parent_user_id": "U010HTBUHS9"
    },
    {
        "client_msg_id": "99f8a5fa-bdf4-46d4-9e90-5598e96bcf82",
        "type": "message",
        "text": "referring to the two mentorship questionnaires?",
        "user": "U0108UAAUQM",
        "ts": "1585141658.003800",
        "team": "TUU48M0T1",
        "user_team": "TUU48M0T1",
        "source_team": "TUU48M0T1",
        "user_profile": {
            "avatar_hash": "8c169aed81a4",
            "image_72": "https:\/\/avatars.slack-edge.com\/2020-03-25\/1026926917366_8c169aed81a4dabd872c_72.jpg",
            "first_name": "Robert",
            "real_name": "Robert Ward",
            "display_name": "Robbie Ward",
            "team": "TUU48M0T1",
            "name": "rward48",
            "is_restricted": false,
            "is_ultra_restricted": false
        },
        "blocks": [
            {
                "type": "rich_text",
                "block_id": "tiE",
                "elements": [
                    {
                        "type": "rich_text_section",
                        "elements": [
                            {
                                "type": "text",
                                "text": "referring to the two mentorship questionnaires?"
                            }
                        ]
                    }
                ]
            }
        ],
        "thread_ts": "1585141302.003500",
        "parent_user_id": "UV8AZ6ABC"
    },
    {
        "type": "message",
        "text": "regarding this one here",
        "files": [
            {
                "id": "F010DQN8T3M",
                "created": 1585141748,
                "timestamp": 1585141748,
                "name": "Captura de Tela 2020-03-25 às 10.08.32.png",
                "title": "Captura de Tela 2020-03-25 às 10.08.32.png",
                "mimetype": "image\/png",
                "filetype": "png",
                "pretty_type": "PNG",
                "user": "UV8AZ6ABC",
                "editable": false,
                "size": 58814,
                "mode": "hosted",
                "is_external": false,
                "external_type": "",
                "is_public": true,
                "public_url_shared": false,
                "display_as_bot": false,
                "username": "",
                "url_private": "https:\/\/files.slack.com\/files-pri\/TUU48M0T1-F010DQN8T3M\/captura_de_tela_2020-03-25_a__s_10.08.32.png?t=xoxe-980144714919-1106606678066-1105227127893-6f722bb664235052954ad46852628b64",
                "url_private_download": "https:\/\/files.slack.com\/files-pri\/TUU48M0T1-F010DQN8T3M\/download\/captura_de_tela_2020-03-25_a__s_10.08.32.png?t=xoxe-980144714919-1106606678066-1105227127893-6f722bb664235052954ad46852628b64",
                "thumb_64": "https:\/\/files.slack.com\/files-tmb\/TUU48M0T1-F010DQN8T3M-60d8c9caf9\/captura_de_tela_2020-03-25_a__s_10.08.32_64.png?t=xoxe-980144714919-1106606678066-1105227127893-6f722bb664235052954ad46852628b64",
                "thumb_80": "https:\/\/files.slack.com\/files-tmb\/TUU48M0T1-F010DQN8T3M-60d8c9caf9\/captura_de_tela_2020-03-25_a__s_10.08.32_80.png?t=xoxe-980144714919-1106606678066-1105227127893-6f722bb664235052954ad46852628b64",
                "thumb_360": "https:\/\/files.slack.com\/files-tmb\/TUU48M0T1-F010DQN8T3M-60d8c9caf9\/captura_de_tela_2020-03-25_a__s_10.08.32_360.png?t=xoxe-980144714919-1106606678066-1105227127893-6f722bb664235052954ad46852628b64",
                "thumb_360_w": 360,
                "thumb_360_h": 55,
                "thumb_480": "https:\/\/files.slack.com\/files-tmb\/TUU48M0T1-F010DQN8T3M-60d8c9caf9\/captura_de_tela_2020-03-25_a__s_10.08.32_480.png?t=xoxe-980144714919-1106606678066-1105227127893-6f722bb664235052954ad46852628b64",
                "thumb_480_w": 480,
                "thumb_480_h": 73,
                "thumb_160": "https:\/\/files.slack.com\/files-tmb\/TUU48M0T1-F010DQN8T3M-60d8c9caf9\/captura_de_tela_2020-03-25_a__s_10.08.32_160.png?t=xoxe-980144714919-1106606678066-1105227127893-6f722bb664235052954ad46852628b64",
                "thumb_720": "https:\/\/files.slack.com\/files-tmb\/TUU48M0T1-F010DQN8T3M-60d8c9caf9\/captura_de_tela_2020-03-25_a__s_10.08.32_720.png?t=xoxe-980144714919-1106606678066-1105227127893-6f722bb664235052954ad46852628b64",
                "thumb_720_w": 720,
                "thumb_720_h": 110,
                "thumb_800": "https:\/\/files.slack.com\/files-tmb\/TUU48M0T1-F010DQN8T3M-60d8c9caf9\/captura_de_tela_2020-03-25_a__s_10.08.32_800.png?t=xoxe-980144714919-1106606678066-1105227127893-6f722bb664235052954ad46852628b64",
                "thumb_800_w": 800,
                "thumb_800_h": 122,
                "thumb_960": "https:\/\/files.slack.com\/files-tmb\/TUU48M0T1-F010DQN8T3M-60d8c9caf9\/captura_de_tela_2020-03-25_a__s_10.08.32_960.png?t=xoxe-980144714919-1106606678066-1105227127893-6f722bb664235052954ad46852628b64",
                "thumb_960_w": 960,
                "thumb_960_h": 147,
                "thumb_1024": "https:\/\/files.slack.com\/files-tmb\/TUU48M0T1-F010DQN8T3M-60d8c9caf9\/captura_de_tela_2020-03-25_a__s_10.08.32_1024.png?t=xoxe-980144714919-1106606678066-1105227127893-6f722bb664235052954ad46852628b64",
                "thumb_1024_w": 1024,
                "thumb_1024_h": 156,
                "image_exif_rotation": 1,
                "original_w": 1270,
                "original_h": 194,
                "thumb_tiny": "AwAHADC6c5ODRz3JoPU0d6dhDl69T+IpQDjnGKROpp\/YUhjWGE4pE98\/nTm6Ui0Af\/\/Z",
                "permalink": "https:\/\/open-covid19.slack.com\/files\/UV8AZ6ABC\/F010DQN8T3M\/captura_de_tela_2020-03-25_a__s_10.08.32.png",
                "permalink_public": "https:\/\/slack-files.com\/TUU48M0T1-F010DQN8T3M-ee40acfc6d",
                "is_starred": false,
                "has_rich_preview": false
            }
        ],
        "upload": true,
        "blocks": [
            {
                "type": "rich_text",
                "block_id": "+VxX",
                "elements": [
                    {
                        "type": "rich_text_section",
                        "elements": [
                            {
                                "type": "text",
                                "text": "regarding this one here"
                            }
                        ]
                    }
                ]
            }
        ],
        "user": "UV8AZ6ABC",
        "display_as_bot": false,
        "ts": "1585141751.004000",
        "client_msg_id": "76e66f40-747c-4ce3-8977-154aa3c366bd",
        "thread_ts": "1585141302.003500",
        "parent_user_id": "UV8AZ6ABC"
    },
    {
        "client_msg_id": "79f754de-9a46-48b2-9259-6e07b4b9130c",
        "type": "message",
        "text": "Ah.. where are those tasks at? I can work on it this afternoon",
        "user": "U0108UAAUQM",
        "ts": "1585141790.004400",
        "team": "TUU48M0T1",
        "user_team": "TUU48M0T1",
        "source_team": "TUU48M0T1",
        "user_profile": {
            "avatar_hash": "8c169aed81a4",
            "image_72": "https:\/\/avatars.slack-edge.com\/2020-03-25\/1026926917366_8c169aed81a4dabd872c_72.jpg",
            "first_name": "Robert",
            "real_name": "Robert Ward",
            "display_name": "Robbie Ward",
            "team": "TUU48M0T1",
            "name": "rward48",
            "is_restricted": false,
            "is_ultra_restricted": false
        },
        "blocks": [
            {
                "type": "rich_text",
                "block_id": "TnK",
                "elements": [
                    {
                        "type": "rich_text_section",
                        "elements": [
                            {
                                "type": "text",
                                "text": "Ah.. where are those tasks at? I can work on it this afternoon"
                            }
                        ]
                    }
                ]
            }
        ],
        "thread_ts": "1585141302.003500",
        "parent_user_id": "UV8AZ6ABC"
    },
    {
        "type": "message",
        "text": "<https:\/\/open-covid19.slack.com\/files\/UV85V64SD\/F010ET5SP3J\/2020-03-20_metastudy_call_-_agenda_and_notes>\n\nok, so how do we organize ourselves?\nyou start and I make my comments later?",
        "files": [
            {
                "id": "F010ET5SP3J",
                "created": 1584716060,
                "timestamp": 1584716060,
                "name": "2020-03-20 Metastudy Call - Agenda and Notes",
                "title": "2020-03-20 Metastudy Call - Agenda and Notes",
                "mimetype": "application\/vnd.google-apps.document",
                "filetype": "gdoc",
                "pretty_type": "GSuite Document",
                "user": "UV85V64SD",
                "editable": false,
                "size": 2908,
                "mode": "external",
                "is_external": true,
                "external_type": "gdrive",
                "is_public": true,
                "public_url_shared": false,
                "display_as_bot": false,
                "username": "",
                "url_private": "https:\/\/docs.google.com\/document\/d\/10m8xdgTfD7yVWhnuh8fgWrB52cZpQOlTW1C27mGq9-I\/edit#",
                "thumb_64": "https:\/\/files.slack.com\/files-tmb\/TUU48M0T1-F010ET5SP3J-252da3d0a4\/2020-03-20_metastudy_call_-_agenda_and_notes_64.png?t=xoxe-980144714919-1106606678066-1105227127893-6f722bb664235052954ad46852628b64",
                "thumb_80": "https:\/\/files.slack.com\/files-tmb\/TUU48M0T1-F010ET5SP3J-252da3d0a4\/2020-03-20_metastudy_call_-_agenda_and_notes_80.png?t=xoxe-980144714919-1106606678066-1105227127893-6f722bb664235052954ad46852628b64",
                "thumb_360": "https:\/\/files.slack.com\/files-tmb\/TUU48M0T1-F010ET5SP3J-252da3d0a4\/2020-03-20_metastudy_call_-_agenda_and_notes_360.png?t=xoxe-980144714919-1106606678066-1105227127893-6f722bb664235052954ad46852628b64",
                "thumb_360_w": 278,
                "thumb_360_h": 360,
                "thumb_480": "https:\/\/files.slack.com\/files-tmb\/TUU48M0T1-F010ET5SP3J-252da3d0a4\/2020-03-20_metastudy_call_-_agenda_and_notes_480.png?t=xoxe-980144714919-1106606678066-1105227127893-6f722bb664235052954ad46852628b64",
                "thumb_480_w": 371,
                "thumb_480_h": 480,
                "thumb_160": "https:\/\/files.slack.com\/files-tmb\/TUU48M0T1-F010ET5SP3J-252da3d0a4\/2020-03-20_metastudy_call_-_agenda_and_notes_160.png?t=xoxe-980144714919-1106606678066-1105227127893-6f722bb664235052954ad46852628b64",
                "thumb_720": "https:\/\/files.slack.com\/files-tmb\/TUU48M0T1-F010ET5SP3J-252da3d0a4\/2020-03-20_metastudy_call_-_agenda_and_notes_720.png?t=xoxe-980144714919-1106606678066-1105227127893-6f722bb664235052954ad46852628b64",
                "thumb_720_w": 557,
                "thumb_720_h": 720,
                "thumb_800": "https:\/\/files.slack.com\/files-tmb\/TUU48M0T1-F010ET5SP3J-252da3d0a4\/2020-03-20_metastudy_call_-_agenda_and_notes_800.png?t=xoxe-980144714919-1106606678066-1105227127893-6f722bb664235052954ad46852628b64",
                "thumb_800_w": 800,
                "thumb_800_h": 1035,
                "thumb_960": "https:\/\/files.slack.com\/files-tmb\/TUU48M0T1-F010ET5SP3J-252da3d0a4\/2020-03-20_metastudy_call_-_agenda_and_notes_960.png?t=xoxe-980144714919-1106606678066-1105227127893-6f722bb664235052954ad46852628b64",
                "thumb_960_w": 742,
                "thumb_960_h": 960,
                "thumb_1024": "https:\/\/files.slack.com\/files-tmb\/TUU48M0T1-F010ET5SP3J-252da3d0a4\/2020-03-20_metastudy_call_-_agenda_and_notes_1024.png?t=xoxe-980144714919-1106606678066-1105227127893-6f722bb664235052954ad46852628b64",
                "thumb_1024_w": 791,
                "thumb_1024_h": 1024,
                "image_exif_rotation": 1,
                "original_w": 800,
                "original_h": 1035,
                "thumb_tiny": "AwAwACXTpCcUGkwfagA3fSlByKMH2pR74oAKKKKAEakDfWlPtSfN6UALu9jS5HrSc+lL+FABRRRQAjDIpmT61IeaTHvQAwE9yacCPelwfWloAKKKKAP\/2Q==",
                "permalink": "https:\/\/open-covid19.slack.com\/files\/UV85V64SD\/F010ET5SP3J\/2020-03-20_metastudy_call_-_agenda_and_notes",
                "is_starred": false,
                "external_id": "10m8xdgTfD7yVWhnuh8fgWrB52cZpQOlTW1C27mGq9-I",
                "external_url": "https:\/\/docs.google.com\/document\/d\/10m8xdgTfD7yVWhnuh8fgWrB52cZpQOlTW1C27mGq9-I\/edit#",
                "has_rich_preview": true
            }
        ],
        "upload": false,
        "blocks": [
            {
                "type": "rich_text",
                "block_id": "c0P4",
                "elements": [
                    {
                        "type": "rich_text_section",
                        "elements": [
                            {
                                "type": "link",
                                "url": "https:\/\/open-covid19.slack.com\/files\/UV85V64SD\/F010ET5SP3J\/2020-03-20_metastudy_call_-_agenda_and_notes"
                            },
                            {
                                "type": "text",
                                "text": "\n\nok, so how do we organize ourselves?\nyou start and I make my comments later?"
                            }
                        ]
                    }
                ]
            }
        ],
        "user": "UV8AZ6ABC",
        "display_as_bot": false,
        "x_files": [
            "F010ET5SP3J"
        ],
        "ts": "1585141967.004600",
        "client_msg_id": "b4246512-3a0b-4848-bfd3-2524b3dd447c",
        "thread_ts": "1585141302.003500",
        "parent_user_id": "UV8AZ6ABC"
    },
    {
        "client_msg_id": "52c114a1-8bd6-4d03-b88f-ffc33040a2cd",
        "type": "message",
        "text": "Either way is fine with me.  I wont be able to start on it until ~11am EST \/ 4pm CET.",
        "user": "U0108UAAUQM",
        "ts": "1585142173.005100",
        "team": "TUU48M0T1",
        "user_team": "TUU48M0T1",
        "source_team": "TUU48M0T1",
        "user_profile": {
            "avatar_hash": "8c169aed81a4",
            "image_72": "https:\/\/avatars.slack-edge.com\/2020-03-25\/1026926917366_8c169aed81a4dabd872c_72.jpg",
            "first_name": "Robert",
            "real_name": "Robert Ward",
            "display_name": "Robbie Ward",
            "team": "TUU48M0T1",
            "name": "rward48",
            "is_restricted": false,
            "is_ultra_restricted": false
        },
        "blocks": [
            {
                "type": "rich_text",
                "block_id": "P=GA\/",
                "elements": [
                    {
                        "type": "rich_text_section",
                        "elements": [
                            {
                                "type": "text",
                                "text": "Either way is fine with me.  I wont be able to start on it until ~11am EST \/ 4pm CET."
                            }
                        ]
                    }
                ]
            }
        ],
        "thread_ts": "1585141302.003500",
        "parent_user_id": "UV8AZ6ABC"
    },
    {
        "client_msg_id": "c48e2823-f3a8-424a-bd38-f72d85fffee6",
        "type": "message",
        "text": "oh god, having brain cramps here\nok, I'm in GMT-3 it's 10:19 am now. I'm working on it at night, probably at 9:00 pm\nwhat GMT timestamp are you in?",
        "user": "UV8AZ6ABC",
        "ts": "1585142415.005300",
        "team": "TUU48M0T1",
        "user_team": "TUU48M0T1",
        "source_team": "TUU48M0T1",
        "user_profile": {
            "avatar_hash": "b4d8c336125b",
            "image_72": "https:\/\/avatars.slack-edge.com\/2020-03-17\/1006719750788_b4d8c336125bdcf987eb_72.jpg",
            "first_name": "Juliana",
            "real_name": "Juliana Cavalheiro",
            "display_name": "Juliana Cavalheiro",
            "team": "TUU48M0T1",
            "name": "ju.cavalheiro",
            "is_restricted": false,
            "is_ultra_restricted": false
        },
        "blocks": [
            {
                "type": "rich_text",
                "block_id": "pqNKF",
                "elements": [
                    {
                        "type": "rich_text_section",
                        "elements": [
                            {
                                "type": "text",
                                "text": "oh god, having brain cramps here\nok, I'm in GMT-3 it's 10:19 am now. I'm working on it at night, probably at 9:00 pm\nwhat GMT timestamp are you in?"
                            }
                        ]
                    }
                ]
            }
        ],
        "thread_ts": "1585141302.003500",
        "parent_user_id": "UV8AZ6ABC"
    },
    {
        "client_msg_id": "dce13641-2ec9-42f4-a79d-f2292c8ff4e6",
        "type": "message",
        "text": "I’m in Atlanta.  GMT-5",
        "user": "U0108UAAUQM",
        "ts": "1585142480.005500",
        "team": "TUU48M0T1",
        "user_team": "TUU48M0T1",
        "source_team": "TUU48M0T1",
        "user_profile": {
            "avatar_hash": "8c169aed81a4",
            "image_72": "https:\/\/avatars.slack-edge.com\/2020-03-25\/1026926917366_8c169aed81a4dabd872c_72.jpg",
            "first_name": "Robert",
            "real_name": "Robert Ward",
            "display_name": "Robbie Ward",
            "team": "TUU48M0T1",
            "name": "rward48",
            "is_restricted": false,
            "is_ultra_restricted": false
        },
        "blocks": [
            {
                "type": "rich_text",
                "block_id": "=1dbG",
                "elements": [
                    {
                        "type": "rich_text_section",
                        "elements": [
                            {
                                "type": "text",
                                "text": "I’m in Atlanta.  GMT-5"
                            }
                        ]
                    }
                ]
            }
        ],
        "thread_ts": "1585141302.003500",
        "parent_user_id": "UV8AZ6ABC"
    },
    {
        "client_msg_id": "4bf54a00-105c-4603-9c66-2b8c7e42513a",
        "type": "message",
        "text": "It’s 9:20 here (because of daylight savings)",
        "user": "U0108UAAUQM",
        "ts": "1585142527.005700",
        "team": "TUU48M0T1",
        "user_team": "TUU48M0T1",
        "source_team": "TUU48M0T1",
        "user_profile": {
            "avatar_hash": "8c169aed81a4",
            "image_72": "https:\/\/avatars.slack-edge.com\/2020-03-25\/1026926917366_8c169aed81a4dabd872c_72.jpg",
            "first_name": "Robert",
            "real_name": "Robert Ward",
            "display_name": "Robbie Ward",
            "team": "TUU48M0T1",
            "name": "rward48",
            "is_restricted": false,
            "is_ultra_restricted": false
        },
        "blocks": [
            {
                "type": "rich_text",
                "block_id": "CoUC",
                "elements": [
                    {
                        "type": "rich_text_section",
                        "elements": [
                            {
                                "type": "text",
                                "text": "It’s 9:20 here (because of daylight savings)"
                            }
                        ]
                    }
                ]
            }
        ],
        "thread_ts": "1585141302.003500",
        "parent_user_id": "UV8AZ6ABC"
    },
    {
        "client_msg_id": "210d812c-1de9-4b1b-81ed-8209fd456b7d",
        "type": "message",
        "text": "yay \\o\/\nthanks! maybe we can work on it together, how does that sound to you?",
        "user": "UV8AZ6ABC",
        "ts": "1585142545.005900",
        "team": "TUU48M0T1",
        "user_team": "TUU48M0T1",
        "source_team": "TUU48M0T1",
        "user_profile": {
            "avatar_hash": "b4d8c336125b",
            "image_72": "https:\/\/avatars.slack-edge.com\/2020-03-17\/1006719750788_b4d8c336125bdcf987eb_72.jpg",
            "first_name": "Juliana",
            "real_name": "Juliana Cavalheiro",
            "display_name": "Juliana Cavalheiro",
            "team": "TUU48M0T1",
            "name": "ju.cavalheiro",
            "is_restricted": false,
            "is_ultra_restricted": false
        },
        "blocks": [
            {
                "type": "rich_text",
                "block_id": "702",
                "elements": [
                    {
                        "type": "rich_text_section",
                        "elements": [
                            {
                                "type": "text",
                                "text": "yay \\o\/\nthanks! maybe we can work on it together, how does that sound to you?"
                            }
                        ]
                    }
                ]
            }
        ],
        "thread_ts": "1585141302.003500",
        "parent_user_id": "UV8AZ6ABC",
        "reactions": [
            {
                "name": "grin",
                "users": [
                    "U0108UAAUQM"
                ],
                "count": 1
            }
        ]
    },
    {
        "client_msg_id": "da78b354-bf1e-461a-a08a-48ddcb986628",
        "type": "message",
        "text": "Perfect",
        "user": "U0108UAAUQM",
        "ts": "1585142552.006100",
        "team": "TUU48M0T1",
        "user_team": "TUU48M0T1",
        "source_team": "TUU48M0T1",
        "user_profile": {
            "avatar_hash": "8c169aed81a4",
            "image_72": "https:\/\/avatars.slack-edge.com\/2020-03-25\/1026926917366_8c169aed81a4dabd872c_72.jpg",
            "first_name": "Robert",
            "real_name": "Robert Ward",
            "display_name": "Robbie Ward",
            "team": "TUU48M0T1",
            "name": "rward48",
            "is_restricted": false,
            "is_ultra_restricted": false
        },
        "blocks": [
            {
                "type": "rich_text",
                "block_id": "IE4",
                "elements": [
                    {
                        "type": "rich_text_section",
                        "elements": [
                            {
                                "type": "text",
                                "text": "Perfect"
                            }
                        ]
                    }
                ]
            }
        ],
        "thread_ts": "1585141302.003500",
        "parent_user_id": "UV8AZ6ABC"
    },
    {
        "client_msg_id": "0883630a-bb98-4f50-a8e4-7f0636371a0e",
        "type": "message",
        "text": "i’ll plan to take a look this afternoon then we can work together tonight.  Skype if we need.",
        "user": "U0108UAAUQM",
        "ts": "1585142599.006800",
        "team": "TUU48M0T1",
        "user_team": "TUU48M0T1",
        "source_team": "TUU48M0T1",
        "user_profile": {
            "avatar_hash": "8c169aed81a4",
            "image_72": "https:\/\/avatars.slack-edge.com\/2020-03-25\/1026926917366_8c169aed81a4dabd872c_72.jpg",
            "first_name": "Robert",
            "real_name": "Robert Ward",
            "display_name": "Robbie Ward",
            "team": "TUU48M0T1",
            "name": "rward48",
            "is_restricted": false,
            "is_ultra_restricted": false
        },
        "blocks": [
            {
                "type": "rich_text",
                "block_id": "\/6Gbr",
                "elements": [
                    {
                        "type": "rich_text_section",
                        "elements": [
                            {
                                "type": "text",
                                "text": "i’ll plan to take a look this afternoon then we can work together tonight.  Skype if we need."
                            }
                        ]
                    }
                ]
            }
        ],
        "thread_ts": "1585141302.003500",
        "parent_user_id": "UV8AZ6ABC"
    },
    {
        "client_msg_id": "f61bee46-fe29-4a15-aadc-308b78cc9a95",
        "type": "message",
        "text": "great! I'll ping you to let you know I'm available ok?\nsure, skype id: zezefreda",
        "user": "UV8AZ6ABC",
        "ts": "1585142669.007000",
        "team": "TUU48M0T1",
        "user_team": "TUU48M0T1",
        "source_team": "TUU48M0T1",
        "user_profile": {
            "avatar_hash": "b4d8c336125b",
            "image_72": "https:\/\/avatars.slack-edge.com\/2020-03-17\/1006719750788_b4d8c336125bdcf987eb_72.jpg",
            "first_name": "Juliana",
            "real_name": "Juliana Cavalheiro",
            "display_name": "Juliana Cavalheiro",
            "team": "TUU48M0T1",
            "name": "ju.cavalheiro",
            "is_restricted": false,
            "is_ultra_restricted": false
        },
        "blocks": [
            {
                "type": "rich_text",
                "block_id": "TElP",
                "elements": [
                    {
                        "type": "rich_text_section",
                        "elements": [
                            {
                                "type": "text",
                                "text": "great! I'll ping you to let you know I'm available ok?\nsure, skype id: zezefreda"
                            }
                        ]
                    }
                ]
            }
        ],
        "thread_ts": "1585141302.003500",
        "parent_user_id": "UV8AZ6ABC",
        "reactions": [
            {
                "name": "+1",
                "users": [
                    "U0108UAAUQM"
                ],
                "count": 1
            }
        ]
    },
    {
        "client_msg_id": "46aa08af-0e67-4528-b917-d7d47baa512e",
        "type": "message",
        "text": "That would be creating a new DB :wink:\n\nBut yes, this might be the best way ? Until we have a more solid fundation for custom form creation and datagathering on JOGL google form might be your best bet.\n\n<@UV85V64SD> collaborators did already made such a DB so probably best to first tap into it IMO",
        "user": "UVC9WMA7N",
        "ts": "1585147137.007300",
        "team": "TUU48M0T1",
        "user_team": "TUU48M0T1",
        "source_team": "TUU48M0T1",
        "user_profile": {
            "avatar_hash": "56d14d58ed53",
            "image_72": "https:\/\/avatars.slack-edge.com\/2020-03-13\/998337892660_56d14d58ed537e6e4654_72.png",
            "first_name": "Leo",
            "real_name": "Leo Blondel",
            "display_name": "Leo Blondel - JOGL CoFounder \/ CTO",
            "team": "TUU48M0T1",
            "name": "leo",
            "is_restricted": false,
            "is_ultra_restricted": false
        },
        "blocks": [
            {
                "type": "rich_text",
                "block_id": "9Le",
                "elements": [
                    {
                        "type": "rich_text_section",
                        "elements": [
                            {
                                "type": "text",
                                "text": "That would be creating a new DB "
                            },
                            {
                                "type": "emoji",
                                "name": "wink"
                            },
                            {
                                "type": "text",
                                "text": "\n\nBut yes, this might be the best way ? Until we have a more solid fundation for custom form creation and datagathering on JOGL google form might be your best bet.\n\n"
                            },
                            {
                                "type": "user",
                                "user_id": "UV85V64SD"
                            },
                            {
                                "type": "text",
                                "text": " collaborators did already made such a DB so probably best to first tap into it IMO"
                            }
                        ]
                    }
                ]
            }
        ],
        "thread_ts": "1585083543.025800",
        "parent_user_id": "U010HTBUHS9"
    },
    {
        "client_msg_id": "f95276d4-61f8-4454-a5b5-6679ff468608",
        "type": "message",
        "text": "<@UVC9WMA7N> <@UV85V64SD> To confirm what I'm hearing our best option is to post a call on <#CUDEHLGHY|announcements> - fastest though messiest is to have people post to a new channel, more efficient would be a google form that creates a new database (preferable).  Is this an <@UV02WET96> thing?  I don't know who does announcements.  I'm also ignorant of google forms (Though this is the second time my ignorance has come up so I need to remedy that) so ideally someone can do a quick creation.",
        "user": "U010HTBUHS9",
        "ts": "1585147893.007500",
        "team": "TUU48M0T1",
        "user_team": "TUU48M0T1",
        "source_team": "TUU48M0T1",
        "user_profile": {
            "avatar_hash": "e7bdbebff0d9",
            "image_72": "https:\/\/avatars.slack-edge.com\/2020-03-22\/1017951251813_e7bdbebff0d9ad1e8f12_72.jpg",
            "first_name": "",
            "real_name": "Adam Arabian",
            "display_name": "Adam Arabian",
            "team": "TUU48M0T1",
            "name": "adam.arabian",
            "is_restricted": false,
            "is_ultra_restricted": false
        },
        "blocks": [
            {
                "type": "rich_text",
                "block_id": "pPE",
                "elements": [
                    {
                        "type": "rich_text_section",
                        "elements": [
                            {
                                "type": "user",
                                "user_id": "UVC9WMA7N"
                            },
                            {
                                "type": "text",
                                "text": " "
                            },
                            {
                                "type": "user",
                                "user_id": "UV85V64SD"
                            },
                            {
                                "type": "text",
                                "text": " To confirm what I'm hearing our best option is to post a call on "
                            },
                            {
                                "type": "channel",
                                "channel_id": "CUDEHLGHY"
                            },
                            {
                                "type": "text",
                                "text": " - fastest though messiest is to have people post to a new channel, more efficient would be a google form that creates a new database (preferable).  Is this an "
                            },
                            {
                                "type": "user",
                                "user_id": "UV02WET96"
                            },
                            {
                                "type": "text",
                                "text": " thing?  I don't know who does announcements.  I'm also ignorant of google forms (Though this is the second time my ignorance has come up so I need to remedy that) so ideally someone can do a quick creation."
                            }
                        ]
                    }
                ]
            }
        ],
        "thread_ts": "1585083543.025800",
        "parent_user_id": "U010HTBUHS9"
    },
    {
        "client_msg_id": "0056ce2f-7a76-495d-9023-2012c2bcc9bd",
        "type": "message",
        "text": "<@U010HTBUHS9>\n\nAnnouncements are <@UV0QTJCMT> and <@UV02WET96> for now\n\nYou will need to design the columns of the file you want to have (aka what dimensions are you trying to capture)\nthe  you can move on to designing the actual form !",
        "user": "UVC9WMA7N",
        "ts": "1585150974.007700",
        "team": "TUU48M0T1",
        "user_team": "TUU48M0T1",
        "source_team": "TUU48M0T1",
        "user_profile": {
            "avatar_hash": "56d14d58ed53",
            "image_72": "https:\/\/avatars.slack-edge.com\/2020-03-13\/998337892660_56d14d58ed537e6e4654_72.png",
            "first_name": "Leo",
            "real_name": "Leo Blondel",
            "display_name": "Leo Blondel - JOGL CoFounder \/ CTO",
            "team": "TUU48M0T1",
            "name": "leo",
            "is_restricted": false,
            "is_ultra_restricted": false
        },
        "blocks": [
            {
                "type": "rich_text",
                "block_id": "eLpib",
                "elements": [
                    {
                        "type": "rich_text_section",
                        "elements": [
                            {
                                "type": "user",
                                "user_id": "U010HTBUHS9"
                            },
                            {
                                "type": "text",
                                "text": "\n\nAnnouncements are "
                            },
                            {
                                "type": "user",
                                "user_id": "UV0QTJCMT"
                            },
                            {
                                "type": "text",
                                "text": " and "
                            },
                            {
                                "type": "user",
                                "user_id": "UV02WET96"
                            },
                            {
                                "type": "text",
                                "text": " for now\n\nYou will need to design the columns of the file you want to have (aka what dimensions are you trying to capture)\nthe  you can move on to designing the actual form !"
                            }
                        ]
                    }
                ]
            }
        ],
        "thread_ts": "1585083543.025800",
        "parent_user_id": "U010HTBUHS9"
    },
    {
        "client_msg_id": "824a9025-be9b-4ec0-818e-628b3f38ec0c",
        "type": "message",
        "text": "Ok i will look at it tonight. I will update you here on the outcome. Can you ping me here if I don't answer until 9pm please?:)",
        "user": "U010B412MF1",
        "ts": "1585151859.007900",
        "team": "TUU48M0T1",
        "user_team": "TUU48M0T1",
        "source_team": "TUU48M0T1",
        "user_profile": {
            "avatar_hash": "218d963a797f",
            "image_72": "https:\/\/avatars.slack-edge.com\/2020-03-19\/1013072792629_218d963a797fbf4410c0_72.png",
            "first_name": "",
            "real_name": "liu",
            "display_name": "liu",
            "team": "TUU48M0T1",
            "name": "liubov.tupikina",
            "is_restricted": false,
            "is_ultra_restricted": false
        },
        "thread_ts": "1585083543.025800",
        "parent_user_id": "U010HTBUHS9"
    },
    {
        "client_msg_id": "2e13e34b-7dc0-4d02-b5b6-3eed7093ed79",
        "type": "message",
        "text": "Hey guys, how is it going :slightly_smiling_face:\nWhat would you like to present during the global community call today?",
        "user": "UV02WET96",
        "ts": "1585151973.008200",
        "team": "TUU48M0T1",
        "user_team": "TUU48M0T1",
        "source_team": "TUU48M0T1",
        "user_profile": {
            "avatar_hash": "a99c74a194f8",
            "image_72": "https:\/\/avatars.slack-edge.com\/2020-03-07\/975708504851_a99c74a194f86715ca7d_72.png",
            "first_name": "Thomas",
            "real_name": "Thomas Landrain",
            "display_name": "Thomas Landrain - JOGL CoFounder \/ CEO",
            "team": "TUU48M0T1",
            "name": "thomas",
            "is_restricted": false,
            "is_ultra_restricted": false
        },
        "blocks": [
            {
                "type": "rich_text",
                "block_id": "UygQ",
                "elements": [
                    {
                        "type": "rich_text_section",
                        "elements": [
                            {
                                "type": "text",
                                "text": "Hey guys, how is it going "
                            },
                            {
                                "type": "emoji",
                                "name": "slightly_smiling_face"
                            },
                            {
                                "type": "text",
                                "text": "\nWhat would you like to present during the global community call today?"
                            }
                        ]
                    }
                ]
            }
        ],
        "thread_ts": "1585151973.008200",
        "reply_count": 2,
        "reply_users_count": 2,
        "latest_reply": "1585214358.013200",
        "reply_users": [
            "U010B412MF1",
            "UV85V64SD"
        ],
        "replies": [
            {
                "user": "U010B412MF1",
                "ts": "1585160117.008300"
            },
            {
                "user": "UV85V64SD",
                "ts": "1585214358.013200"
            }
        ],
        "subscribed": false
    },
    {
        "client_msg_id": "70351e9a-2185-4ef9-9d75-be6d6be969c6",
        "type": "message",
        "text": "Hey <@UV02WET96> Marc is presenting. :)",
        "user": "U010B412MF1",
        "ts": "1585160117.008300",
        "team": "TUU48M0T1",
        "user_team": "TUU48M0T1",
        "source_team": "TUU48M0T1",
        "user_profile": {
            "avatar_hash": "218d963a797f",
            "image_72": "https:\/\/avatars.slack-edge.com\/2020-03-19\/1013072792629_218d963a797fbf4410c0_72.png",
            "first_name": "",
            "real_name": "liu",
            "display_name": "liu",
            "team": "TUU48M0T1",
            "name": "liubov.tupikina",
            "is_restricted": false,
            "is_ultra_restricted": false
        },
        "blocks": [
            {
                "type": "rich_text",
                "block_id": "Ahy",
                "elements": [
                    {
                        "type": "rich_text_section",
                        "elements": [
                            {
                                "type": "text",
                                "text": "Hey "
                            },
                            {
                                "type": "user",
                                "user_id": "UV02WET96"
                            },
                            {
                                "type": "text",
                                "text": " Marc is presenting. :)"
                            }
                        ]
                    }
                ]
            }
        ],
        "thread_ts": "1585151973.008200",
        "parent_user_id": "UV02WET96"
    },
    {
        "client_msg_id": "d2e2fe55-a3fe-42fe-8770-79cdeda37852",
        "type": "message",
        "text": "hey Meta Study team !\n\nI knowwwwwwwwww you are like MASSIVE network fan right (looking at you <@UV85V64SD> :stuck_out_tongue: )\n\nSo, well here comes ! JOGL DB as a network with API enpoint, generated every 24h for you all to enjoy !\n\nAnd even better, I made you a python notebook for your amusement and help to get started with using this !\n\nEnjoy !",
        "user": "UVC9WMA7N",
        "ts": "1585175697.010000",
        "team": "TUU48M0T1",
        "user_team": "TUU48M0T1",
        "source_team": "TUU48M0T1",
        "user_profile": {
            "avatar_hash": "56d14d58ed53",
            "image_72": "https:\/\/avatars.slack-edge.com\/2020-03-13\/998337892660_56d14d58ed537e6e4654_72.png",
            "first_name": "Leo",
            "real_name": "Leo Blondel",
            "display_name": "Leo Blondel - JOGL CoFounder \/ CTO",
            "team": "TUU48M0T1",
            "name": "leo",
            "is_restricted": false,
            "is_ultra_restricted": false
        },
        "blocks": [
            {
                "type": "rich_text",
                "block_id": "nK+93",
                "elements": [
                    {
                        "type": "rich_text_section",
                        "elements": [
                            {
                                "type": "text",
                                "text": "hey Meta Study team !\n\nI knowwwwwwwwww you are like MASSIVE network fan right (looking at you "
                            },
                            {
                                "type": "user",
                                "user_id": "UV85V64SD"
                            },
                            {
                                "type": "text",
                                "text": " "
                            },
                            {
                                "type": "emoji",
                                "name": "stuck_out_tongue"
                            },
                            {
                                "type": "text",
                                "text": " )\n\nSo, well here comes ! JOGL DB as a network with API enpoint, generated every 24h for you all to enjoy !\n\nAnd even better, I made you a python notebook for your amusement and help to get started with using this !\n\nEnjoy !"
                            }
                        ]
                    }
                ]
            }
        ],
        "reactions": [
            {
                "name": "heart",
                "users": [
                    "UV85V64SD"
                ],
                "count": 1
            }
        ]
    },
    {
        "type": "message",
        "text": "ipynb jupyter notebook file",
        "files": [
            {
                "id": "F010F905CQ3",
                "created": 1585175750,
                "timestamp": 1585175750,
                "name": "JOGL_as_a_network.ipynb",
                "title": "JOGL_as_a_network.ipynb",
                "mimetype": "text\/plain",
                "filetype": "text",
                "pretty_type": "Plain Text",
                "user": "UVC9WMA7N",
                "editable": true,
                "size": 118201,
                "mode": "snippet",
                "is_external": false,
                "external_type": "",
                "is_public": true,
                "public_url_shared": false,
                "display_as_bot": false,
                "username": "",
                "url_private": "https:\/\/files.slack.com\/files-pri\/TUU48M0T1-F010F905CQ3\/jogl_as_a_network.ipynb?t=xoxe-980144714919-1106606678066-1105227127893-6f722bb664235052954ad46852628b64",
                "url_private_download": "https:\/\/files.slack.com\/files-pri\/TUU48M0T1-F010F905CQ3\/download\/jogl_as_a_network.ipynb?t=xoxe-980144714919-1106606678066-1105227127893-6f722bb664235052954ad46852628b64",
                "permalink": "https:\/\/open-covid19.slack.com\/files\/UVC9WMA7N\/F010F905CQ3\/jogl_as_a_network.ipynb",
                "permalink_public": "https:\/\/slack-files.com\/TUU48M0T1-F010F905CQ3-de2b24bd84",
                "edit_link": "https:\/\/open-covid19.slack.com\/files\/UVC9WMA7N\/F010F905CQ3\/jogl_as_a_network.ipynb\/edit",
                "is_starred": false,
                "has_rich_preview": false
            }
        ],
        "upload": true,
        "blocks": [
            {
                "type": "rich_text",
                "block_id": "b0S",
                "elements": [
                    {
                        "type": "rich_text_section",
                        "elements": [
                            {
                                "type": "text",
                                "text": "ipynb jupyter notebook file"
                            }
                        ]
                    }
                ]
            }
        ],
        "user": "UVC9WMA7N",
        "display_as_bot": false,
        "ts": "1585175751.010400",
        "client_msg_id": "23d303df-b614-4734-9443-db1376a0fc6a"
    },
    {
        "type": "message",
        "text": "Today's Graph !",
        "files": [
            {
                "id": "F010T1DGJEL",
                "created": 1585175771,
                "timestamp": 1585175771,
                "name": "JOGL_network.graphml",
                "title": "JOGL_network.graphml",
                "mimetype": "application\/octet-stream",
                "filetype": "binary",
                "pretty_type": "Binary",
                "user": "UVC9WMA7N",
                "editable": false,
                "size": 3205861,
                "mode": "hosted",
                "is_external": false,
                "external_type": "",
                "is_public": true,
                "public_url_shared": false,
                "display_as_bot": false,
                "username": "",
                "url_private": "https:\/\/files.slack.com\/files-pri\/TUU48M0T1-F010T1DGJEL\/jogl_network.graphml?t=xoxe-980144714919-1106606678066-1105227127893-6f722bb664235052954ad46852628b64",
                "url_private_download": "https:\/\/files.slack.com\/files-pri\/TUU48M0T1-F010T1DGJEL\/download\/jogl_network.graphml?t=xoxe-980144714919-1106606678066-1105227127893-6f722bb664235052954ad46852628b64",
                "permalink": "https:\/\/open-covid19.slack.com\/files\/UVC9WMA7N\/F010T1DGJEL\/jogl_network.graphml",
                "permalink_public": "https:\/\/slack-files.com\/TUU48M0T1-F010T1DGJEL-7c0d280229",
                "is_starred": false,
                "has_rich_preview": false
            }
        ],
        "upload": true,
        "blocks": [
            {
                "type": "rich_text",
                "block_id": "MjF37",
                "elements": [
                    {
                        "type": "rich_text_section",
                        "elements": [
                            {
                                "type": "text",
                                "text": "Today's Graph !"
                            }
                        ]
                    }
                ]
            }
        ],
        "user": "UVC9WMA7N",
        "display_as_bot": false,
        "ts": "1585175772.010700",
        "client_msg_id": "a2f53940-6557-4e72-a252-ee4b84307331"
    },
    {
        "type": "message",
        "text": "HTML version of notebook just in case you don't have jupyter ?",
        "files": [
            {
                "id": "F010T1FU4V6",
                "created": 1585175859,
                "timestamp": 1585175859,
                "name": "JOGL_as_a_network(1).html",
                "title": "JOGL_as_a_network(1).html",
                "mimetype": "text\/plain",
                "filetype": "html",
                "pretty_type": "HTML",
                "user": "UVC9WMA7N",
                "editable": true,
                "size": 401227,
                "mode": "snippet",
                "is_external": false,
                "external_type": "",
                "is_public": true,
                "public_url_shared": false,
                "display_as_bot": false,
                "username": "",
                "url_private": "https:\/\/files.slack.com\/files-pri\/TUU48M0T1-F010T1FU4V6\/jogl_as_a_network_1_.html?t=xoxe-980144714919-1106606678066-1105227127893-6f722bb664235052954ad46852628b64",
                "url_private_download": "https:\/\/files.slack.com\/files-pri\/TUU48M0T1-F010T1FU4V6\/download\/jogl_as_a_network_1_.html?t=xoxe-980144714919-1106606678066-1105227127893-6f722bb664235052954ad46852628b64",
                "permalink": "https:\/\/open-covid19.slack.com\/files\/UVC9WMA7N\/F010T1FU4V6\/jogl_as_a_network_1_.html",
                "permalink_public": "https:\/\/slack-files.com\/TUU48M0T1-F010T1FU4V6-5a15e756b8",
                "edit_link": "https:\/\/open-covid19.slack.com\/files\/UVC9WMA7N\/F010T1FU4V6\/jogl_as_a_network_1_.html\/edit",
                "is_starred": false,
                "has_rich_preview": false
            }
        ],
        "upload": true,
        "blocks": [
            {
                "type": "rich_text",
                "block_id": "F+HJ",
                "elements": [
                    {
                        "type": "rich_text_section",
                        "elements": [
                            {
                                "type": "text",
                                "text": "HTML version of notebook just in case you don't have jupyter ?"
                            }
                        ]
                    }
                ]
            }
        ],
        "user": "UVC9WMA7N",
        "display_as_bot": false,
        "ts": "1585175861.011200",
        "client_msg_id": "c3f0b6a3-504c-4d3a-93ce-e34a8acf6c77"
    },
    {
        "client_msg_id": "345a7347-5385-4c67-a0d1-b14afbf48826",
        "type": "message",
        "text": "Whomever want's to avoid any of those files ?\n\nAPI endpoints:\n• Index available networks GET <https:\/\/jogl-backend.herokuapp.com\/api\/networks>\n• Get a network GET <https:\/\/jogl-backend.herokuapp.com\/api\/networks\/:id>",
        "user": "UVC9WMA7N",
        "ts": "1585175951.012600",
        "team": "TUU48M0T1",
        "user_team": "TUU48M0T1",
        "source_team": "TUU48M0T1",
        "user_profile": {
            "avatar_hash": "56d14d58ed53",
            "image_72": "https:\/\/avatars.slack-edge.com\/2020-03-13\/998337892660_56d14d58ed537e6e4654_72.png",
            "first_name": "Leo",
            "real_name": "Leo Blondel",
            "display_name": "Leo Blondel - JOGL CoFounder \/ CTO",
            "team": "TUU48M0T1",
            "name": "leo",
            "is_restricted": false,
            "is_ultra_restricted": false
        },
        "blocks": [
            {
                "type": "rich_text",
                "block_id": "dwW",
                "elements": [
                    {
                        "type": "rich_text_section",
                        "elements": [
                            {
                                "type": "text",
                                "text": "Whomever want's to avoid any of those files ?\n\nAPI endpoints:\n"
                            }
                        ]
                    },
                    {
                        "type": "rich_text_list",
                        "elements": [
                            {
                                "type": "rich_text_section",
                                "elements": [
                                    {
                                        "type": "text",
                                        "text": "Index available networks GET "
                                    },
                                    {
                                        "type": "link",
                                        "url": "https:\/\/jogl-backend.herokuapp.com\/api\/networks"
                                    }
                                ]
                            },
                            {
                                "type": "rich_text_section",
                                "elements": [
                                    {
                                        "type": "text",
                                        "text": "Get a network GET "
                                    },
                                    {
                                        "type": "link",
                                        "url": "https:\/\/jogl-backend.herokuapp.com\/api\/networks\/:id"
                                    }
                                ]
                            }
                        ],
                        "style": "bullet",
                        "indent": 0
                    }
                ]
            }
        ]
    },
    {
        "client_msg_id": "d584a080-ed1d-4c67-823c-8f8395840bff",
        "type": "message",
        "text": "<@UVABNG1A9> or others; what’s the plan for analyzing the free text answers on the survey.  Manual coding or word embedding?",
        "user": "U0108UAAUQM",
        "ts": "1585180004.012800",
        "team": "TUU48M0T1",
        "user_team": "TUU48M0T1",
        "source_team": "TUU48M0T1",
        "user_profile": {
            "avatar_hash": "8c169aed81a4",
            "image_72": "https:\/\/avatars.slack-edge.com\/2020-03-25\/1026926917366_8c169aed81a4dabd872c_72.jpg",
            "first_name": "Robert",
            "real_name": "Robert Ward",
            "display_name": "Robbie Ward",
            "team": "TUU48M0T1",
            "name": "rward48",
            "is_restricted": false,
            "is_ultra_restricted": false
        },
        "blocks": [
            {
                "type": "rich_text",
                "block_id": "0t7z",
                "elements": [
                    {
                        "type": "rich_text_section",
                        "elements": [
                            {
                                "type": "user",
                                "user_id": "UVABNG1A9"
                            },
                            {
                                "type": "text",
                                "text": " or others; what’s the plan for analyzing the free text answers on the survey.  Manual coding or word embedding?"
                            }
                        ]
                    }
                ]
            }
        ],
        "thread_ts": "1585141302.003500",
        "parent_user_id": "UV8AZ6ABC"
    }
]