[
    {
        "client_msg_id": "8a0b4c44-a607-4b12-bd53-b1c02905e4ca",
        "type": "message",
        "text": "nooo don’t worry! don’t hesitate to mention people that’s great!",
        "user": "UV85V64SD",
        "ts": "1584784477.000500",
        "team": "TUU48M0T1",
        "user_team": "TUU48M0T1",
        "source_team": "TUU48M0T1",
        "user_profile": {
            "avatar_hash": "1e73a651bdfe",
            "image_72": "https:\/\/avatars.slack-edge.com\/2020-03-16\/1004297548853_1e73a651bdfef2c41501_72.jpg",
            "first_name": "Marc",
            "real_name": "Marc Santolini",
            "display_name": "Marc Santolini - JOGL CoFounder \/ CSO",
            "team": "TUU48M0T1",
            "name": "marc.santolini",
            "is_restricted": false,
            "is_ultra_restricted": false
        },
        "blocks": [
            {
                "type": "rich_text",
                "block_id": "rA44b",
                "elements": [
                    {
                        "type": "rich_text_section",
                        "elements": [
                            {
                                "type": "text",
                                "text": "nooo don’t worry! don’t hesitate to mention people that’s great!"
                            }
                        ]
                    }
                ]
            }
        ],
        "thread_ts": "1584739851.069600",
        "parent_user_id": "UV8AZ6ABC"
    },
    {
        "client_msg_id": "f08ff9d5-18f0-456f-830b-ae0e48125d9d",
        "type": "message",
        "text": "ok thank you. Can you access gitlab link?",
        "user": "U010B412MF1",
        "ts": "1584810292.001000",
        "team": "TUU48M0T1",
        "user_team": "TUU48M0T1",
        "source_team": "TUU48M0T1",
        "user_profile": {
            "avatar_hash": "218d963a797f",
            "image_72": "https:\/\/avatars.slack-edge.com\/2020-03-19\/1013072792629_218d963a797fbf4410c0_72.png",
            "first_name": "",
            "real_name": "liu",
            "display_name": "liu",
            "team": "TUU48M0T1",
            "name": "liubov.tupikina",
            "is_restricted": false,
            "is_ultra_restricted": false
        },
        "blocks": [
            {
                "type": "rich_text",
                "block_id": "dVE",
                "elements": [
                    {
                        "type": "rich_text_section",
                        "elements": [
                            {
                                "type": "text",
                                "text": "ok thank you. Can you access gitlab link?"
                            }
                        ]
                    }
                ]
            }
        ],
        "thread_ts": "1584729378.059800",
        "parent_user_id": "U010B412MF1"
    },
    {
        "client_msg_id": "c6a18bef-6be1-4623-9fdb-aef2f96959f8",
        "type": "message",
        "text": "Yeah, I can",
        "user": "U010AGDDEBZ",
        "ts": "1584815907.001200",
        "team": "TUU48M0T1",
        "user_team": "TUU48M0T1",
        "source_team": "TUU48M0T1",
        "user_profile": {
            "avatar_hash": "a1cf28a8adcc",
            "image_72": "https:\/\/avatars.slack-edge.com\/2020-03-22\/1017122430308_a1cf28a8adcc052e8332_72.png",
            "first_name": "Rathin",
            "real_name": "Rathin Jeyaram",
            "display_name": "Rathin Jeyaram",
            "team": "TUU48M0T1",
            "name": "jeyaram.rathin",
            "is_restricted": false,
            "is_ultra_restricted": false
        },
        "blocks": [
            {
                "type": "rich_text",
                "block_id": "F9r",
                "elements": [
                    {
                        "type": "rich_text_section",
                        "elements": [
                            {
                                "type": "text",
                                "text": "Yeah, I can"
                            }
                        ]
                    }
                ]
            }
        ],
        "thread_ts": "1584729378.059800",
        "parent_user_id": "U010B412MF1"
    },
    {
        "client_msg_id": "e6b361fa-2f92-4bfb-a55d-eb650a95c0b4",
        "type": "message",
        "text": "In Turkey, situations are getting worse. We are passing the Italy! Our patient numbers and the death number is growing exponentionally",
        "user": "UV6LNPJ3C",
        "ts": "1584824571.002700",
        "team": "TUU48M0T1",
        "user_team": "TUU48M0T1",
        "source_team": "TUU48M0T1",
        "user_profile": {
            "avatar_hash": "ac43ca2970ef",
            "image_72": "https:\/\/avatars.slack-edge.com\/2020-03-17\/1005540783616_ac43ca2970ef953e3501_72.jpg",
            "first_name": "Serena",
            "real_name": "Serena Özabrahamyan",
            "display_name": "Serena Özabrahamyan",
            "team": "TUU48M0T1",
            "name": "serena",
            "is_restricted": false,
            "is_ultra_restricted": false
        },
        "blocks": [
            {
                "type": "rich_text",
                "block_id": "GRe",
                "elements": [
                    {
                        "type": "rich_text_section",
                        "elements": [
                            {
                                "type": "text",
                                "text": "In Turkey, situations are getting worse. We are passing the Italy! Our patient numbers and the death number is growing exponentionally"
                            }
                        ]
                    }
                ]
            }
        ]
    },
    {
        "client_msg_id": "f352d275-d44a-4f6a-99ac-235e47546949",
        "type": "message",
        "text": "In channel <#C0105A7QACT|prgm-metastudy-team-slack> we work on visualisation of slack of opencovid. Just to specify for people who are interested...",
        "user": "U010B412MF1",
        "ts": "1584824792.003500",
        "team": "TUU48M0T1",
        "user_team": "TUU48M0T1",
        "source_team": "TUU48M0T1",
        "user_profile": {
            "avatar_hash": "218d963a797f",
            "image_72": "https:\/\/avatars.slack-edge.com\/2020-03-19\/1013072792629_218d963a797fbf4410c0_72.png",
            "first_name": "",
            "real_name": "liu",
            "display_name": "liu",
            "team": "TUU48M0T1",
            "name": "liubov.tupikina",
            "is_restricted": false,
            "is_ultra_restricted": false
        },
        "blocks": [
            {
                "type": "rich_text",
                "block_id": "L3V",
                "elements": [
                    {
                        "type": "rich_text_section",
                        "elements": [
                            {
                                "type": "text",
                                "text": "In channel "
                            },
                            {
                                "type": "channel",
                                "channel_id": "C0105A7QACT"
                            },
                            {
                                "type": "text",
                                "text": " we work on visualisation of slack of opencovid. Just to specify for people who are interested..."
                            }
                        ]
                    }
                ]
            }
        ]
    },
    {
        "client_msg_id": "02971338-8093-46a8-b42e-6c915e6952f6",
        "type": "message",
        "text": "Hey I just remembered we had an Issue Card about this which is not yet well made.\n\nBut if what you guys come up with could fit somehow in this:\n\n<https:\/\/gitlab.com\/JOGL\/JOGL\/-\/issues\/77>",
        "user": "UVC9WMA7N",
        "ts": "1584825027.004200",
        "team": "TUU48M0T1",
        "user_team": "TUU48M0T1",
        "source_team": "TUU48M0T1",
        "user_profile": {
            "avatar_hash": "56d14d58ed53",
            "image_72": "https:\/\/avatars.slack-edge.com\/2020-03-13\/998337892660_56d14d58ed537e6e4654_72.png",
            "first_name": "Leo",
            "real_name": "Leo Blondel",
            "display_name": "Leo Blondel - JOGL CoFounder \/ CTO",
            "team": "TUU48M0T1",
            "name": "leo",
            "is_restricted": false,
            "is_ultra_restricted": false
        },
        "attachments": [
            {
                "service_name": "GitLab",
                "title": "[CHALLENGE] I want to see analytics on how is the challenge going (#77) · Issues · Just One Giant Lab \/ JOGL",
                "title_link": "https:\/\/gitlab.com\/JOGL\/JOGL\/-\/issues\/77",
                "text": "I want to see some analytics on how the challenge is going, I want to have a few fields that I can plot. * Number of users who joined the...",
                "fallback": "GitLab: [CHALLENGE] I want to see analytics on how is the challenge going (#77) · Issues · Just One Giant Lab \/ JOGL",
                "thumb_url": "https:\/\/assets.gitlab-static.net\/assets\/gitlab_logo-7ae504fe4f68fdebb3c2034e36621930cd36ea87924c11ff65dbcb8ed50dca58.png",
                "fields": [
                    {
                        "title": "Author",
                        "value": "Xqua",
                        "short": true
                    }
                ],
                "from_url": "https:\/\/gitlab.com\/JOGL\/JOGL\/-\/issues\/77",
                "thumb_width": 128,
                "thumb_height": 128,
                "service_icon": "https:\/\/assets.gitlab-static.net\/assets\/touch-icon-iphone-5a9cee0e8a51212e70b90c87c12f382c428870c0ff67d1eb034d884b78d2dae7.png",
                "id": 1,
                "original_url": "https:\/\/gitlab.com\/JOGL\/JOGL\/-\/issues\/77"
            }
        ],
        "blocks": [
            {
                "type": "rich_text",
                "block_id": "Ug6Q",
                "elements": [
                    {
                        "type": "rich_text_section",
                        "elements": [
                            {
                                "type": "text",
                                "text": "Hey I just remembered we had an Issue Card about this which is not yet well made.\n\nBut if what you guys come up with could fit somehow in this:\n\n"
                            },
                            {
                                "type": "link",
                                "url": "https:\/\/gitlab.com\/JOGL\/JOGL\/-\/issues\/77"
                            }
                        ]
                    }
                ]
            }
        ],
        "thread_ts": "1584825027.004200",
        "reply_count": 4,
        "reply_users_count": 3,
        "latest_reply": "1584826952.007500",
        "reply_users": [
            "U010B412MF1",
            "UVC9WMA7N",
            "U0101DKUALV"
        ],
        "replies": [
            {
                "user": "U010B412MF1",
                "ts": "1584826652.005600"
            },
            {
                "user": "UVC9WMA7N",
                "ts": "1584826684.005800"
            },
            {
                "user": "U0101DKUALV",
                "ts": "1584826694.006000"
            },
            {
                "user": "U0101DKUALV",
                "ts": "1584826952.007500"
            }
        ],
        "subscribed": false
    },
    {
        "client_msg_id": "bd14375c-c236-485a-b80b-464fd8ef9e05",
        "type": "message",
        "text": "ok <@UVC9WMA7N> for the moment <@UV85V64SD> suggested one simple tool which i installed and use in paralellel with <#C0105A7QACT|prgm-metastudy-team-slack> project it is called <@U010K47QZHC>",
        "user": "U010B412MF1",
        "ts": "1584826652.005600",
        "team": "TUU48M0T1",
        "user_team": "TUU48M0T1",
        "source_team": "TUU48M0T1",
        "user_profile": {
            "avatar_hash": "218d963a797f",
            "image_72": "https:\/\/avatars.slack-edge.com\/2020-03-19\/1013072792629_218d963a797fbf4410c0_72.png",
            "first_name": "",
            "real_name": "liu",
            "display_name": "liu",
            "team": "TUU48M0T1",
            "name": "liubov.tupikina",
            "is_restricted": false,
            "is_ultra_restricted": false
        },
        "blocks": [
            {
                "type": "rich_text",
                "block_id": "A5j",
                "elements": [
                    {
                        "type": "rich_text_section",
                        "elements": [
                            {
                                "type": "text",
                                "text": "ok "
                            },
                            {
                                "type": "user",
                                "user_id": "UVC9WMA7N"
                            },
                            {
                                "type": "text",
                                "text": " for the moment "
                            },
                            {
                                "type": "user",
                                "user_id": "UV85V64SD"
                            },
                            {
                                "type": "text",
                                "text": " suggested one simple tool which i installed and use in paralellel with "
                            },
                            {
                                "type": "channel",
                                "channel_id": "C0105A7QACT"
                            },
                            {
                                "type": "text",
                                "text": " project it is called "
                            },
                            {
                                "type": "user",
                                "user_id": "U010K47QZHC"
                            }
                        ]
                    }
                ]
            }
        ],
        "thread_ts": "1584825027.004200",
        "parent_user_id": "UVC9WMA7N"
    },
    {
        "client_msg_id": "0d6ac8e2-6b8a-4a19-87b9-d89b6365c882",
        "type": "message",
        "text": "Sounds good, I'm just popping this here in case of :wink:",
        "user": "UVC9WMA7N",
        "ts": "1584826684.005800",
        "team": "TUU48M0T1",
        "user_team": "TUU48M0T1",
        "source_team": "TUU48M0T1",
        "user_profile": {
            "avatar_hash": "56d14d58ed53",
            "image_72": "https:\/\/avatars.slack-edge.com\/2020-03-13\/998337892660_56d14d58ed537e6e4654_72.png",
            "first_name": "Leo",
            "real_name": "Leo Blondel",
            "display_name": "Leo Blondel - JOGL CoFounder \/ CTO",
            "team": "TUU48M0T1",
            "name": "leo",
            "is_restricted": false,
            "is_ultra_restricted": false
        },
        "blocks": [
            {
                "type": "rich_text",
                "block_id": "usD",
                "elements": [
                    {
                        "type": "rich_text_section",
                        "elements": [
                            {
                                "type": "text",
                                "text": "Sounds good, I'm just popping this here in case of "
                            },
                            {
                                "type": "emoji",
                                "name": "wink"
                            }
                        ]
                    }
                ]
            }
        ],
        "thread_ts": "1584825027.004200",
        "parent_user_id": "UVC9WMA7N"
    },
    {
        "client_msg_id": "a0645d8d-b701-4d6c-a939-4e747f04f3df",
        "type": "message",
        "text": "Hi Liu, I added Compass to Slack but can't figure out where to get to the dashboard you shared in your screenshots.",
        "user": "U0101DKUALV",
        "ts": "1584826694.006000",
        "team": "TUU48M0T1",
        "user_team": "TUU48M0T1",
        "source_team": "TUU48M0T1",
        "user_profile": {
            "avatar_hash": "b0aee06ed3e5",
            "image_72": "https:\/\/avatars.slack-edge.com\/2020-04-22\/1072886325190_b0aee06ed3e501ebdf56_72.png",
            "first_name": "",
            "real_name": "Pauline Chane",
            "display_name": "Pauline Chane",
            "team": "TUU48M0T1",
            "name": "pauline.chane",
            "is_restricted": false,
            "is_ultra_restricted": false
        },
        "blocks": [
            {
                "type": "rich_text",
                "block_id": "1hGyk",
                "elements": [
                    {
                        "type": "rich_text_section",
                        "elements": [
                            {
                                "type": "text",
                                "text": "Hi Liu, I added Compass to Slack but can't figure out where to get to the dashboard you shared in your screenshots."
                            }
                        ]
                    }
                ]
            }
        ],
        "thread_ts": "1584825027.004200",
        "parent_user_id": "UVC9WMA7N"
    },
    {
        "client_msg_id": "01d5e2bc-0621-4aa4-8a82-7c6aaac46ba6",
        "type": "message",
        "text": "Perhaps it may be good to consult <#CV0QED4KU|prgm-governance-team> , but in terms of prgm\/proj\/chlg progress, how would we best define project progress\/output and would we need to implement anything to be able to measure this? We are currently able to measure chat activity to my understanding, but relative to <https:\/\/gitlab.com\/JOGL\/JOGL\/-\/issues\/77> mentioned by Leo earlier, it may be useful to have a way to compare slack activity to project outcome?",
        "user": "U0101DKUALV",
        "ts": "1584826773.007300",
        "team": "TUU48M0T1",
        "user_team": "TUU48M0T1",
        "source_team": "TUU48M0T1",
        "user_profile": {
            "avatar_hash": "b0aee06ed3e5",
            "image_72": "https:\/\/avatars.slack-edge.com\/2020-04-22\/1072886325190_b0aee06ed3e501ebdf56_72.png",
            "first_name": "",
            "real_name": "Pauline Chane",
            "display_name": "Pauline Chane",
            "team": "TUU48M0T1",
            "name": "pauline.chane",
            "is_restricted": false,
            "is_ultra_restricted": false
        },
        "blocks": [
            {
                "type": "rich_text",
                "block_id": "4giT",
                "elements": [
                    {
                        "type": "rich_text_section",
                        "elements": [
                            {
                                "type": "text",
                                "text": "Perhaps it may be good to consult "
                            },
                            {
                                "type": "channel",
                                "channel_id": "CV0QED4KU"
                            },
                            {
                                "type": "text",
                                "text": " , but in terms of prgm\/proj\/chlg progress, how would we best define project progress\/output and would we need to implement anything to be able to measure this? We are currently able to measure chat activity to my understanding, but relative to "
                            },
                            {
                                "type": "link",
                                "url": "https:\/\/gitlab.com\/JOGL\/JOGL\/-\/issues\/77"
                            },
                            {
                                "type": "text",
                                "text": " mentioned by Leo earlier, it may be useful to have a way to compare slack activity to project outcome?"
                            }
                        ]
                    }
                ]
            }
        ],
        "thread_ts": "1584826773.007300",
        "reply_count": 1,
        "reply_users_count": 1,
        "latest_reply": "1584955003.019200",
        "reply_users": [
            "UV85V64SD"
        ],
        "replies": [
            {
                "user": "UV85V64SD",
                "ts": "1584955003.019200"
            }
        ],
        "subscribed": false
    },
    {
        "client_msg_id": "5c756129-1654-4d9e-b71a-028f73c9acab",
        "type": "message",
        "text": "Never mind, I got it!",
        "user": "U0101DKUALV",
        "ts": "1584826952.007500",
        "team": "TUU48M0T1",
        "user_team": "TUU48M0T1",
        "source_team": "TUU48M0T1",
        "user_profile": {
            "avatar_hash": "b0aee06ed3e5",
            "image_72": "https:\/\/avatars.slack-edge.com\/2020-04-22\/1072886325190_b0aee06ed3e501ebdf56_72.png",
            "first_name": "",
            "real_name": "Pauline Chane",
            "display_name": "Pauline Chane",
            "team": "TUU48M0T1",
            "name": "pauline.chane",
            "is_restricted": false,
            "is_ultra_restricted": false
        },
        "blocks": [
            {
                "type": "rich_text",
                "block_id": "Af74",
                "elements": [
                    {
                        "type": "rich_text_section",
                        "elements": [
                            {
                                "type": "text",
                                "text": "Never mind, I got it!"
                            }
                        ]
                    }
                ]
            }
        ],
        "thread_ts": "1584825027.004200",
        "parent_user_id": "UVC9WMA7N"
    },
    {
        "client_msg_id": "922fe2de-71ad-49d7-9224-a1e5cc10d727",
        "type": "message",
        "text": "Hello, all!\nAs mentioned on Friday's <#CV48ZESEP|prgm-metastudy-team> call, <@UVATPEW2W> and I have been working on a survey to gauge the benefits of a mentorship (or rather, skillbuilding relationship) \"matching\" program between students\/early-career members and experts\/mid-to-late career professionals within the slack. We just finished two polls that we are hoping to send to <@UV0QTJCMT> to put in announcements or into various project\/prgm\/chlg channels to gather responses, and are requesting feedback for the format and content of the questionnaires. Any help would be appreciated!\n\n<https:\/\/docs.google.com\/forms\/d\/1chjy0t-5IaUagmMPpBm0gVfcjYEfEu0qjmpEufV0WXY\/edit?usp=sharing> (\"Mentors\" or Mid-to-Late Career)\n<https:\/\/docs.google.com\/forms\/d\/1chXf21PXR7KwGfTnu_1EXM4lv-wXDXyob4NcBiYyvHw\/edit?usp=sharing> (Student or Early Career)",
        "user": "U0101DKUALV",
        "ts": "1584838871.011100",
        "team": "TUU48M0T1",
        "user_team": "TUU48M0T1",
        "source_team": "TUU48M0T1",
        "user_profile": {
            "avatar_hash": "b0aee06ed3e5",
            "image_72": "https:\/\/avatars.slack-edge.com\/2020-04-22\/1072886325190_b0aee06ed3e501ebdf56_72.png",
            "first_name": "",
            "real_name": "Pauline Chane",
            "display_name": "Pauline Chane",
            "team": "TUU48M0T1",
            "name": "pauline.chane",
            "is_restricted": false,
            "is_ultra_restricted": false
        },
        "blocks": [
            {
                "type": "rich_text",
                "block_id": "PVSh",
                "elements": [
                    {
                        "type": "rich_text_section",
                        "elements": [
                            {
                                "type": "text",
                                "text": "Hello, all!\nAs mentioned on Friday's "
                            },
                            {
                                "type": "channel",
                                "channel_id": "CV48ZESEP"
                            },
                            {
                                "type": "text",
                                "text": " call, "
                            },
                            {
                                "type": "user",
                                "user_id": "UVATPEW2W"
                            },
                            {
                                "type": "text",
                                "text": " and I have been working on a survey to gauge the benefits of a mentorship (or rather, skillbuilding relationship) \"matching\" program between students\/early-career members and experts\/mid-to-late career professionals within the slack. We just finished two polls that we are hoping to send to "
                            },
                            {
                                "type": "user",
                                "user_id": "UV0QTJCMT"
                            },
                            {
                                "type": "text",
                                "text": " to put in announcements or into various project\/prgm\/chlg channels to gather responses, and are requesting feedback for the format and content of the questionnaires. Any help would be appreciated!\n\n"
                            },
                            {
                                "type": "link",
                                "url": "https:\/\/docs.google.com\/forms\/d\/1chjy0t-5IaUagmMPpBm0gVfcjYEfEu0qjmpEufV0WXY\/edit?usp=sharing"
                            },
                            {
                                "type": "text",
                                "text": " (\"Mentors\" or Mid-to-Late Career)\n"
                            },
                            {
                                "type": "link",
                                "url": "https:\/\/docs.google.com\/forms\/d\/1chXf21PXR7KwGfTnu_1EXM4lv-wXDXyob4NcBiYyvHw\/edit?usp=sharing"
                            },
                            {
                                "type": "text",
                                "text": " (Student or Early Career)"
                            }
                        ]
                    }
                ]
            }
        ],
        "thread_ts": "1584838871.011100",
        "reply_count": 5,
        "reply_users_count": 2,
        "latest_reply": "1584940241.018900",
        "reply_users": [
            "U0101DKUALV",
            "U010GHT685A"
        ],
        "replies": [
            {
                "user": "U0101DKUALV",
                "ts": "1584839022.011600"
            },
            {
                "user": "U010GHT685A",
                "ts": "1584939139.018000"
            },
            {
                "user": "U0101DKUALV",
                "ts": "1584940055.018200"
            },
            {
                "user": "U010GHT685A",
                "ts": "1584940156.018700"
            },
            {
                "user": "U0101DKUALV",
                "ts": "1584940241.018900"
            }
        ],
        "subscribed": false,
        "reactions": [
            {
                "name": "+1",
                "users": [
                    "U01080CJ6P3",
                    "UV8AZ6ABC"
                ],
                "count": 2
            }
        ]
    },
    {
        "type": "message",
        "subtype": "channel_join",
        "ts": "1584838877.011500",
        "user": "UVATPEW2W",
        "text": "<@UVATPEW2W> has joined the channel",
        "inviter": "U0101DKUALV"
    },
    {
        "client_msg_id": "d5a578c0-2364-4741-8470-07911d5e8cbf",
        "type": "message",
        "text": "I do want to add that I am aware we have many students\/early-career members who are already in projects, but I also get the impression there are many who would like to join but are not sure where to jump in. Our hope is that we are able to develop some sort of project or programs that can engage this target group while making important contributions to the initiative.",
        "user": "U0101DKUALV",
        "ts": "1584839022.011600",
        "team": "TUU48M0T1",
        "user_team": "TUU48M0T1",
        "source_team": "TUU48M0T1",
        "user_profile": {
            "avatar_hash": "b0aee06ed3e5",
            "image_72": "https:\/\/avatars.slack-edge.com\/2020-04-22\/1072886325190_b0aee06ed3e501ebdf56_72.png",
            "first_name": "",
            "real_name": "Pauline Chane",
            "display_name": "Pauline Chane",
            "team": "TUU48M0T1",
            "name": "pauline.chane",
            "is_restricted": false,
            "is_ultra_restricted": false
        },
        "blocks": [
            {
                "type": "rich_text",
                "block_id": "vhAu8",
                "elements": [
                    {
                        "type": "rich_text_section",
                        "elements": [
                            {
                                "type": "text",
                                "text": "I do want to add that I am aware we have many students\/early-career members who are already in projects, but I also get the impression there are many who would like to join but are not sure where to jump in. Our hope is that we are able to develop some sort of project or programs that can engage this target group while making important contributions to the initiative."
                            }
                        ]
                    }
                ]
            }
        ],
        "thread_ts": "1584838871.011100",
        "parent_user_id": "U0101DKUALV"
    }
]