[
    {
        "client_msg_id": "a9e7df8a-9a25-427d-b1e3-db30e3167151",
        "type": "message",
        "text": "<https:\/\/www.biobot.io\/covid19\/|Wastewater epidemiology with biobot>",
        "user": "U0109T1DV9T",
        "ts": "1585316289.003400",
        "team": "TUU48M0T1",
        "user_team": "TUU48M0T1",
        "source_team": "TUU48M0T1",
        "user_profile": {
            "avatar_hash": "0e741d71262c",
            "image_72": "https:\/\/avatars.slack-edge.com\/2020-03-18\/1012114282886_0e741d71262c690a9183_72.jpg",
            "first_name": "",
            "real_name": "Judy Nguyen",
            "display_name": "Judy Nguyen",
            "team": "TUU48M0T1",
            "name": "judy.v.nguyen",
            "is_restricted": false,
            "is_ultra_restricted": false
        },
        "blocks": [
            {
                "type": "rich_text",
                "block_id": "lN\/B",
                "elements": [
                    {
                        "type": "rich_text_section",
                        "elements": [
                            {
                                "type": "link",
                                "url": "https:\/\/www.biobot.io\/covid19\/",
                                "text": "Wastewater epidemiology with biobot"
                            }
                        ]
                    }
                ]
            }
        ],
        "thread_ts": "1585160171.002100",
        "parent_user_id": "UUWSJTQ67"
    }
]