[
    {
        "type": "message",
        "subtype": "channel_join",
        "ts": "1585681552.000200",
        "user": "UV87UQ37A",
        "text": "<@UV87UQ37A> has joined the channel"
    },
    {
        "type": "message",
        "subtype": "channel_purpose",
        "ts": "1585681553.000300",
        "user": "UV87UQ37A",
        "text": "<@UV87UQ37A> set the channel purpose: Announce your project to community and apply for up €2000 to take it across the finish line.",
        "purpose": "Announce your project to community and apply for up €2000 to take it across the finish line."
    },
    {
        "type": "message",
        "subtype": "channel_join",
        "ts": "1585681561.000500",
        "user": "UV9V03C8Y",
        "text": "<@UV9V03C8Y> has joined the channel",
        "inviter": "UV87UQ37A"
    },
    {
        "type": "message",
        "subtype": "channel_join",
        "ts": "1585681576.000700",
        "user": "U010RKNAKG8",
        "text": "<@U010RKNAKG8> has joined the channel",
        "inviter": "UV87UQ37A"
    },
    {
        "type": "message",
        "subtype": "channel_purpose",
        "ts": "1585681639.000800",
        "user": "UV87UQ37A",
        "text": "<@UV87UQ37A> set the channel purpose: Announce your project to the community and apply for up €2000 to take it across the finish line.",
        "purpose": "Announce your project to the community and apply for up €2000 to take it across the finish line."
    },
    {
        "type": "message",
        "subtype": "channel_join",
        "ts": "1585682882.001200",
        "user": "UVB1JGDK7",
        "text": "<@UVB1JGDK7> has joined the channel",
        "inviter": "UV87UQ37A"
    }
]