[
    {
        "type": "message",
        "subtype": "channel_join",
        "ts": "1585160387.000200",
        "user": "UVA0E24KZ",
        "text": "<@UVA0E24KZ> has joined the channel"
    },
    {
        "type": "message",
        "subtype": "channel_purpose",
        "ts": "1585160388.000300",
        "user": "UVA0E24KZ",
        "text": "<@UVA0E24KZ> set the channel purpose: Serological blood test sourcing, distribution, financing, legal, etc",
        "purpose": "Serological blood test sourcing, distribution, financing, legal, etc"
    },
    {
        "type": "message",
        "subtype": "channel_join",
        "ts": "1585160499.000500",
        "user": "UV4Q15S5Q",
        "text": "<@UV4Q15S5Q> has joined the channel"
    },
    {
        "type": "message",
        "subtype": "channel_join",
        "ts": "1585160872.000700",
        "user": "U010ERHR04B",
        "text": "<@U010ERHR04B> has joined the channel"
    },
    {
        "client_msg_id": "b143ad24-2874-4423-85fa-8f89ffa96886",
        "type": "message",
        "text": "Working on sourcing tests from the listing here: <https:\/\/www.finddx.org\/covid-19\/pipeline\/>",
        "user": "UVA0E24KZ",
        "ts": "1585161169.001100",
        "team": "TUU48M0T1",
        "user_team": "TUU48M0T1",
        "source_team": "TUU48M0T1",
        "user_profile": {
            "avatar_hash": "g8d0c2cd1337",
            "image_72": "https:\/\/secure.gravatar.com\/avatar\/8d0c2cd1337827f7d3f3bafc23baca0b.jpg?s=72&d=https%3A%2F%2Fa.slack-edge.com%2Fdf10d%2Fimg%2Favatars%2Fava_0022-72.png",
            "first_name": "",
            "real_name": "Elliot Roth",
            "display_name": "Elliot Roth",
            "team": "TUU48M0T1",
            "name": "elliot",
            "is_restricted": false,
            "is_ultra_restricted": false
        },
        "attachments": [
            {
                "service_name": "FIND",
                "title": "SARS-CoV-2 diagnostic pipeline - FIND",
                "title_link": "https:\/\/www.finddx.org\/covid-19\/pipeline\/",
                "text": "View Page",
                "fallback": "FIND: SARS-CoV-2 diagnostic pipeline - FIND",
                "image_url": "https:\/\/www.finddx.org\/wp-content\/uploads\/2020\/02\/ceo-20feb20.jpg",
                "image_width": 476,
                "image_height": 250,
                "from_url": "https:\/\/www.finddx.org\/covid-19\/pipeline\/",
                "image_bytes": 43219,
                "id": 1,
                "original_url": "https:\/\/www.finddx.org\/covid-19\/pipeline\/"
            }
        ],
        "blocks": [
            {
                "type": "rich_text",
                "block_id": "pS6N",
                "elements": [
                    {
                        "type": "rich_text_section",
                        "elements": [
                            {
                                "type": "text",
                                "text": "Working on sourcing tests from the listing here: "
                            },
                            {
                                "type": "link",
                                "url": "https:\/\/www.finddx.org\/covid-19\/pipeline\/"
                            }
                        ]
                    }
                ]
            }
        ]
    },
    {
        "client_msg_id": "4403c1d0-42b2-4fba-b079-aab8d6cc3242",
        "type": "message",
        "text": "If you are US-based and don't mind late-nights, the Chinese suppliers are great to talk to",
        "user": "UVA0E24KZ",
        "ts": "1585161195.001800",
        "team": "TUU48M0T1",
        "user_team": "TUU48M0T1",
        "source_team": "TUU48M0T1",
        "user_profile": {
            "avatar_hash": "g8d0c2cd1337",
            "image_72": "https:\/\/secure.gravatar.com\/avatar\/8d0c2cd1337827f7d3f3bafc23baca0b.jpg?s=72&d=https%3A%2F%2Fa.slack-edge.com%2Fdf10d%2Fimg%2Favatars%2Fava_0022-72.png",
            "first_name": "",
            "real_name": "Elliot Roth",
            "display_name": "Elliot Roth",
            "team": "TUU48M0T1",
            "name": "elliot",
            "is_restricted": false,
            "is_ultra_restricted": false
        },
        "blocks": [
            {
                "type": "rich_text",
                "block_id": "joVp",
                "elements": [
                    {
                        "type": "rich_text_section",
                        "elements": [
                            {
                                "type": "text",
                                "text": "If you are US-based and don't mind late-nights, the Chinese suppliers are great to talk to"
                            }
                        ]
                    }
                ]
            }
        ]
    },
    {
        "client_msg_id": "278f8e5c-31dd-4f5e-b31d-f0f631e9ebe3",
        "type": "message",
        "text": "they have minimums though and pricing is a bitch. The idea is to raise $$$ so we can buy bulk and find the proper distribution nonprofits\/unions",
        "user": "UVA0E24KZ",
        "ts": "1585161229.002500",
        "team": "TUU48M0T1",
        "user_team": "TUU48M0T1",
        "source_team": "TUU48M0T1",
        "user_profile": {
            "avatar_hash": "g8d0c2cd1337",
            "image_72": "https:\/\/secure.gravatar.com\/avatar\/8d0c2cd1337827f7d3f3bafc23baca0b.jpg?s=72&d=https%3A%2F%2Fa.slack-edge.com%2Fdf10d%2Fimg%2Favatars%2Fava_0022-72.png",
            "first_name": "",
            "real_name": "Elliot Roth",
            "display_name": "Elliot Roth",
            "team": "TUU48M0T1",
            "name": "elliot",
            "is_restricted": false,
            "is_ultra_restricted": false
        },
        "blocks": [
            {
                "type": "rich_text",
                "block_id": "v1EA",
                "elements": [
                    {
                        "type": "rich_text_section",
                        "elements": [
                            {
                                "type": "text",
                                "text": "they have minimums though and pricing is a bitch. The idea is to raise $$$ so we can buy bulk and find the proper distribution nonprofits\/unions"
                            }
                        ]
                    }
                ]
            }
        ]
    },
    {
        "client_msg_id": "d5295892-a96b-4f15-886a-b33f3b93b948",
        "type": "message",
        "text": "The best protocol would be to perform at least 2 tests in a 48hr window, follow-up with rtPCR",
        "user": "UVA0E24KZ",
        "ts": "1585161277.003700",
        "team": "TUU48M0T1",
        "user_team": "TUU48M0T1",
        "source_team": "TUU48M0T1",
        "user_profile": {
            "avatar_hash": "g8d0c2cd1337",
            "image_72": "https:\/\/secure.gravatar.com\/avatar\/8d0c2cd1337827f7d3f3bafc23baca0b.jpg?s=72&d=https%3A%2F%2Fa.slack-edge.com%2Fdf10d%2Fimg%2Favatars%2Fava_0022-72.png",
            "first_name": "",
            "real_name": "Elliot Roth",
            "display_name": "Elliot Roth",
            "team": "TUU48M0T1",
            "name": "elliot",
            "is_restricted": false,
            "is_ultra_restricted": false
        },
        "blocks": [
            {
                "type": "rich_text",
                "block_id": "JaI",
                "elements": [
                    {
                        "type": "rich_text_section",
                        "elements": [
                            {
                                "type": "text",
                                "text": "The best protocol would be to perform at least 2 tests in a 48hr window, follow-up with rtPCR"
                            }
                        ]
                    }
                ]
            }
        ]
    },
    {
        "type": "message",
        "subtype": "channel_join",
        "ts": "1585161870.003900",
        "user": "U0102NEMRTR",
        "text": "<@U0102NEMRTR> has joined the channel"
    },
    {
        "client_msg_id": "a43f0abf-14aa-4ce8-8bcd-70831a0f1737",
        "type": "message",
        "text": "<@UVA0E24KZ> - will you be getting some test samples before you have to commit to the big bulk order?",
        "user": "U0102NEMRTR",
        "ts": "1585162284.004700",
        "team": "TUU48M0T1",
        "user_team": "TUU48M0T1",
        "source_team": "TUU48M0T1",
        "user_profile": {
            "avatar_hash": "g6072d132593",
            "image_72": "https:\/\/secure.gravatar.com\/avatar\/6072d132593acb6de99356666ff0ed9e.jpg?s=72&d=https%3A%2F%2Fa.slack-edge.com%2Fdf10d%2Fimg%2Favatars%2Fava_0008-72.png",
            "first_name": "",
            "real_name": "Patrik D'haeseleer",
            "display_name": "Patrik D'haeseleer",
            "team": "TUU48M0T1",
            "name": "patrikd",
            "is_restricted": false,
            "is_ultra_restricted": false
        },
        "blocks": [
            {
                "type": "rich_text",
                "block_id": "v\/QF",
                "elements": [
                    {
                        "type": "rich_text_section",
                        "elements": [
                            {
                                "type": "user",
                                "user_id": "UVA0E24KZ"
                            },
                            {
                                "type": "text",
                                "text": " - will you be getting some test samples before you have to commit to the big bulk order?"
                            }
                        ]
                    }
                ]
            }
        ],
        "thread_ts": "1585162284.004700",
        "reply_count": 1,
        "reply_users_count": 1,
        "latest_reply": "1585168655.005200",
        "reply_users": [
            "UVA0E24KZ"
        ],
        "replies": [
            {
                "user": "UVA0E24KZ",
                "ts": "1585168655.005200"
            }
        ],
        "subscribed": false
    },
    {
        "type": "message",
        "subtype": "channel_join",
        "ts": "1585163067.004900",
        "user": "U010G9320HF",
        "text": "<@U010G9320HF> has joined the channel"
    },
    {
        "type": "message",
        "subtype": "channel_join",
        "ts": "1585167914.005100",
        "user": "UV3JDFX17",
        "text": "<@UV3JDFX17> has joined the channel"
    },
    {
        "client_msg_id": "f36b36aa-8c7f-4690-8b06-08204801f45e",
        "type": "message",
        "text": "Yes. They're shipping them now. We have a positive control group to test against",
        "user": "UVA0E24KZ",
        "ts": "1585168655.005200",
        "team": "TUU48M0T1",
        "user_team": "TUU48M0T1",
        "source_team": "TUU48M0T1",
        "user_profile": {
            "avatar_hash": "g8d0c2cd1337",
            "image_72": "https:\/\/secure.gravatar.com\/avatar\/8d0c2cd1337827f7d3f3bafc23baca0b.jpg?s=72&d=https%3A%2F%2Fa.slack-edge.com%2Fdf10d%2Fimg%2Favatars%2Fava_0022-72.png",
            "first_name": "",
            "real_name": "Elliot Roth",
            "display_name": "Elliot Roth",
            "team": "TUU48M0T1",
            "name": "elliot",
            "is_restricted": false,
            "is_ultra_restricted": false
        },
        "blocks": [
            {
                "type": "rich_text",
                "block_id": "5iI",
                "elements": [
                    {
                        "type": "rich_text_section",
                        "elements": [
                            {
                                "type": "text",
                                "text": "Yes. They're shipping them now. We have a positive control group to test against"
                            }
                        ]
                    }
                ]
            }
        ],
        "thread_ts": "1585162284.004700",
        "parent_user_id": "U0102NEMRTR"
    }
]