[
    {
        "client_msg_id": "ab36e13c-ca77-4418-88b1-45aabec04481",
        "type": "message",
        "text": "<https:\/\/patents.google.com\/patent\/CA2602230A1\/en|https:\/\/patents.google.com\/patent\/CA2602230A1\/en>",
        "user": "UV20M5HGQ",
        "ts": "1584909429.021800",
        "team": "TUU48M0T1",
        "user_team": "TUU48M0T1",
        "source_team": "TUU48M0T1",
        "user_profile": {
            "avatar_hash": "de7ea7b7e14e",
            "image_72": "https:\/\/avatars.slack-edge.com\/2020-03-11\/981865374050_de7ea7b7e14e7b4316b9_72.jpg",
            "first_name": "",
            "real_name": "Vesta Korniakova",
            "display_name": "Vesta Korniakova",
            "team": "TUU48M0T1",
            "name": "riboswitchvesta",
            "is_restricted": false,
            "is_ultra_restricted": false
        },
        "attachments": [
            {
                "title": "CA2602230A1 - Apparatus and method for using ozone as a disinfectant        - Google Patents",
                "title_link": "https:\/\/patents.google.com\/patent\/CA2602230A1\/en",
                "text": "A method of sterilizing a closed environment is provided in which an ozone generator is placed into the closed environment; it then generates ozone to a predetermined ozone concentration and increases the humidity of the closed environment. The ozone concentration is maintained at the predetermined ozone concentration for a predetermined period of time, and after the period of time has expired, the ozone is depleted. When the ozone concentration is reduced to a predetermined safe level, the ozone generator signals.",
                "fallback": "CA2602230A1 - Apparatus and method for using ozone as a disinfectant        - Google Patents",
                "from_url": "https:\/\/patents.google.com\/patent\/CA2602230A1\/en",
                "service_icon": "https:\/\/patents.google.com\/favicon.ico",
                "service_name": "patents.google.com",
                "id": 1,
                "original_url": "https:\/\/patents.google.com\/patent\/CA2602230A1\/en"
            }
        ],
        "blocks": [
            {
                "type": "rich_text",
                "block_id": "XAG",
                "elements": [
                    {
                        "type": "rich_text_section",
                        "elements": [
                            {
                                "type": "link",
                                "url": "https:\/\/patents.google.com\/patent\/CA2602230A1\/en",
                                "text": "https:\/\/patents.google.com\/patent\/CA2602230A1\/en"
                            }
                        ]
                    }
                ]
            }
        ],
        "thread_ts": "1584909429.021800",
        "reply_count": 2,
        "reply_users_count": 2,
        "latest_reply": "1584910138.022200",
        "reply_users": [
            "UV2P3AQEN",
            "UV20M5HGQ"
        ],
        "replies": [
            {
                "user": "UV2P3AQEN",
                "ts": "1584909656.022000"
            },
            {
                "user": "UV20M5HGQ",
                "ts": "1584910138.022200"
            }
        ],
        "subscribed": false
    },
    {
        "client_msg_id": "f84f48db-2192-4cc7-b287-618253e064e1",
        "type": "message",
        "text": "If I'm not mistaken this expires today, doesn't it?",
        "user": "UV2P3AQEN",
        "ts": "1584909656.022000",
        "team": "TUU48M0T1",
        "user_team": "TUU48M0T1",
        "source_team": "TUU48M0T1",
        "user_profile": {
            "avatar_hash": "82d977ce9645",
            "image_72": "https:\/\/avatars.slack-edge.com\/2020-03-16\/1003452392327_82d977ce9645ebc30917_72.jpg",
            "first_name": "Antonio",
            "real_name": "Antonio Mangiapane",
            "display_name": "Antonio Mangiapane",
            "team": "TUU48M0T1",
            "name": "antonio.mangiapane29",
            "is_restricted": false,
            "is_ultra_restricted": false
        },
        "blocks": [
            {
                "type": "rich_text",
                "block_id": "Onfo",
                "elements": [
                    {
                        "type": "rich_text_section",
                        "elements": [
                            {
                                "type": "text",
                                "text": "If I'm not mistaken this expires today, doesn't it?"
                            }
                        ]
                    }
                ]
            }
        ],
        "thread_ts": "1584909429.021800",
        "parent_user_id": "UV20M5HGQ"
    },
    {
        "client_msg_id": "0f040585-d55c-44c6-8924-e3a342b069db",
        "type": "message",
        "text": "Wow! I hadn't even noticed that! But yes, seems like it expires today. Good observation <@UV2P3AQEN>",
        "user": "UV20M5HGQ",
        "ts": "1584910138.022200",
        "team": "TUU48M0T1",
        "user_team": "TUU48M0T1",
        "source_team": "TUU48M0T1",
        "user_profile": {
            "avatar_hash": "de7ea7b7e14e",
            "image_72": "https:\/\/avatars.slack-edge.com\/2020-03-11\/981865374050_de7ea7b7e14e7b4316b9_72.jpg",
            "first_name": "",
            "real_name": "Vesta Korniakova",
            "display_name": "Vesta Korniakova",
            "team": "TUU48M0T1",
            "name": "riboswitchvesta",
            "is_restricted": false,
            "is_ultra_restricted": false
        },
        "blocks": [
            {
                "type": "rich_text",
                "block_id": "SjE",
                "elements": [
                    {
                        "type": "rich_text_section",
                        "elements": [
                            {
                                "type": "text",
                                "text": "Wow! I hadn't even noticed that! But yes, seems like it expires today. Good observation "
                            },
                            {
                                "type": "user",
                                "user_id": "UV2P3AQEN"
                            }
                        ]
                    }
                ]
            }
        ],
        "thread_ts": "1584909429.021800",
        "parent_user_id": "UV20M5HGQ"
    },
    {
        "type": "message",
        "text": "<@U01081Y0TBP> proposed making a face lotion to disactivate the virus. Any ideas? Not sure about adding salt though, as I'm not sure how much salt would be available for virus disactivation once it is added to a cream, and natural skin oils.",
        "user": "UV20M5HGQ",
        "ts": "1584912456.022400",
        "team": "TUU48M0T1",
        "user_team": "TUU48M0T1",
        "source_team": "TUU48M0T1",
        "user_profile": {
            "avatar_hash": "de7ea7b7e14e",
            "image_72": "https:\/\/avatars.slack-edge.com\/2020-03-11\/981865374050_de7ea7b7e14e7b4316b9_72.jpg",
            "first_name": "",
            "real_name": "Vesta Korniakova",
            "display_name": "Vesta Korniakova",
            "team": "TUU48M0T1",
            "name": "riboswitchvesta",
            "is_restricted": false,
            "is_ultra_restricted": false
        },
        "attachments": [
            {
                "fallback": "[March 21st, 2020 4:45 AM] peterkooren: I had the idea of a face lotion that can hinder the virus. I am a mechanical engineer, so I don't know the feasibility and\/or the essential ingredients for such a lotion.",
                "ts": "1584780325.002700",
                "author_id": "U01081Y0TBP",
                "author_subname": "Peter Kooren",
                "channel_id": "CV59UC6JD",
                "channel_name": "chlg-prevent-team",
                "is_msg_unfurl": true,
                "text": "I had the idea of a face lotion that can hinder the virus. I am a mechanical engineer, so I don't know the feasibility and\/or the essential ingredients for such a lotion.",
                "author_name": "Peter Kooren",
                "author_link": "https:\/\/open-covid19.slack.com\/team\/U01081Y0TBP",
                "author_icon": "https:\/\/avatars.slack-edge.com\/2020-03-18\/995274181218_60ec5b47107a3bd2ca7d_48.jpg",
                "mrkdwn_in": [
                    "text"
                ],
                "color": "D0D0D0",
                "from_url": "https:\/\/open-covid19.slack.com\/archives\/CV59UC6JD\/p1584780325002700",
                "is_share": true,
                "footer": "Posted in #chlg-prevent-team"
            }
        ],
        "blocks": [
            {
                "type": "rich_text",
                "block_id": "H5E",
                "elements": [
                    {
                        "type": "rich_text_section",
                        "elements": [
                            {
                                "type": "user",
                                "user_id": "U01081Y0TBP"
                            },
                            {
                                "type": "text",
                                "text": " proposed making a face lotion to disactivate the virus. Any ideas? Not sure about adding salt though, as I'm not sure how much salt would be available for virus disactivation once it is added to a cream, and natural skin oils."
                            }
                        ]
                    }
                ]
            }
        ],
        "thread_ts": "1584912456.022400",
        "reply_count": 1,
        "reply_users_count": 1,
        "latest_reply": "1585136744.000100",
        "reply_users": [
            "UV4EY2049"
        ],
        "replies": [
            {
                "user": "UV4EY2049",
                "ts": "1585136744.000100"
            }
        ],
        "subscribed": false
    },
    {
        "type": "message",
        "subtype": "channel_join",
        "ts": "1584912471.022600",
        "user": "U01081Y0TBP",
        "text": "<@U01081Y0TBP> has joined the channel",
        "inviter": "UV20M5HGQ"
    }
]