[
    {
        "type": "message",
        "subtype": "channel_join",
        "ts": "1583741291.004800",
        "user": "UURGMNE3T",
        "text": "<@UURGMNE3T> has joined the channel"
    },
    {
        "type": "message",
        "subtype": "channel_join",
        "ts": "1583769744.005000",
        "user": "UV120B2P7",
        "text": "<@UV120B2P7> has joined the channel"
    }
]