[
    {
        "client_msg_id": "e33ae5d2-7b86-423e-b1c3-0ed8aacd832c",
        "type": "message",
        "text": "<https:\/\/www.independent.ie\/world-news\/coronavirus\/irish-developed-kit-confirms-infection-in-15-minutes-39046582.html>",
        "user": "UV13874FN",
        "ts": "1584391431.008300",
        "team": "TUU48M0T1",
        "user_team": "TUU48M0T1",
        "source_team": "TUU48M0T1",
        "user_profile": {
            "avatar_hash": "31797d60dac0",
            "image_72": "https:\/\/avatars.slack-edge.com\/2020-03-18\/1000251468817_31797d60dac08dcca856_72.png",
            "first_name": "",
            "real_name": "Eric Xia",
            "display_name": "Eric Xia",
            "team": "TUU48M0T1",
            "name": "ericpingxia",
            "is_restricted": false,
            "is_ultra_restricted": false
        },
        "attachments": [
            {
                "service_name": "independent",
                "title": "Coronavirus: Irish-developed kit that confirms Covid-19 infection in 15 minutes could be released in seven days",
                "title_link": "https:\/\/www.independent.ie\/world-news\/coronavirus\/irish-developed-kit-confirms-infection-in-15-minutes-39046582.html",
                "text": "An Irish company is preparing to release rapid Covid-19 testing kits, which can provide results in 15 minutes and potentially act as a \"clinical weapon\" against coronavirus.",
                "fallback": "independent: Coronavirus: Irish-developed kit that confirms Covid-19 infection in 15 minutes could be released in seven days",
                "thumb_url": "https:\/\/www.independent.ie\/incoming\/75f88\/39046250.ece\/AUTOCROP\/w1240h700\/6%20NEWS-HEALTH-C-243.jpg",
                "from_url": "https:\/\/www.independent.ie\/world-news\/coronavirus\/irish-developed-kit-confirms-infection-in-15-minutes-39046582.html",
                "thumb_width": 1240,
                "thumb_height": 700,
                "service_icon": "https:\/\/www.independent.ie\/theme\/_base\/images\/b694601ee5acf9623e4a8c0120cc2a5e.ico",
                "id": 1,
                "original_url": "https:\/\/www.independent.ie\/world-news\/coronavirus\/irish-developed-kit-confirms-infection-in-15-minutes-39046582.html"
            }
        ],
        "blocks": [
            {
                "type": "rich_text",
                "block_id": "xX0VF",
                "elements": [
                    {
                        "type": "rich_text_section",
                        "elements": [
                            {
                                "type": "link",
                                "url": "https:\/\/www.independent.ie\/world-news\/coronavirus\/irish-developed-kit-confirms-infection-in-15-minutes-39046582.html"
                            }
                        ]
                    }
                ]
            }
        ],
        "reactions": [
            {
                "name": "neutral_face",
                "users": [
                    "UV2SC7ZE3"
                ],
                "count": 1
            }
        ]
    }
]