[
    {
        "client_msg_id": "d7c700ca-f96b-4d29-9d49-f60329905fd7",
        "type": "message",
        "text": "<https:\/\/www.nyit.edu\/box\/features\/tb_vaccine_could_be_a_valuable_weapon_in_covid_19_fight>",
        "user": "UV20M5HGQ",
        "ts": "1585632496.016400",
        "team": "TUU48M0T1",
        "user_team": "TUU48M0T1",
        "source_team": "TUU48M0T1",
        "user_profile": {
            "avatar_hash": "de7ea7b7e14e",
            "image_72": "https:\/\/avatars.slack-edge.com\/2020-03-11\/981865374050_de7ea7b7e14e7b4316b9_72.jpg",
            "first_name": "",
            "real_name": "Vesta Korniakova",
            "display_name": "Vesta Korniakova",
            "team": "TUU48M0T1",
            "name": "riboswitchvesta",
            "is_restricted": false,
            "is_ultra_restricted": false
        },
        "blocks": [
            {
                "type": "rich_text",
                "block_id": "Jm8\/M",
                "elements": [
                    {
                        "type": "rich_text_section",
                        "elements": [
                            {
                                "type": "link",
                                "url": "https:\/\/www.nyit.edu\/box\/features\/tb_vaccine_could_be_a_valuable_weapon_in_covid_19_fight"
                            }
                        ]
                    }
                ]
            }
        ]
    },
    {
        "client_msg_id": "3a605dd7-934c-4965-9c84-794ce5c5f841",
        "type": "message",
        "text": "<https:\/\/www.medrxiv.org\/content\/10.1101\/2020.03.24.20042937v1>",
        "user": "UV20M5HGQ",
        "ts": "1585632530.016600",
        "team": "TUU48M0T1",
        "user_team": "TUU48M0T1",
        "source_team": "TUU48M0T1",
        "user_profile": {
            "avatar_hash": "de7ea7b7e14e",
            "image_72": "https:\/\/avatars.slack-edge.com\/2020-03-11\/981865374050_de7ea7b7e14e7b4316b9_72.jpg",
            "first_name": "",
            "real_name": "Vesta Korniakova",
            "display_name": "Vesta Korniakova",
            "team": "TUU48M0T1",
            "name": "riboswitchvesta",
            "is_restricted": false,
            "is_ultra_restricted": false
        },
        "attachments": [
            {
                "service_name": "medRxiv",
                "title": "Correlation between universal BCG vaccination policy and reduced morbidity and mortality for COVID-19: an epidemiological study",
                "title_link": "https:\/\/www.medrxiv.org\/content\/10.1101\/2020.03.24.20042937v1",
                "text": "COVID-19 has spread to most countries in the world. Puzzlingly, the impact of the disease is different in different countries. These differences are attributed to differences in cultural norms, mitigation efforts, and health infrastructure. Here we propose that national differences in COVID-19 impact could be partially explained by the different national policies respect to Bacillus Calmette-Guerin (BCG) childhood vaccination. BCG vaccination has been reported to offer broad protection to respiratory infections. We compared large number of countries BCG vaccination policies with the morbidity and mortality for COVID-19. We found that countries without universal policies of BCG vaccination (Italy, Nederland, USA) have been more severely affected compared to countries with universal and long-standing BCG policies. Countries that have a late start of universal BCG policy (Iran, 1984) had high mortality, consistent with the idea that BCG protects the vaccinated elderly population. We also found that BCG vaccination also reduced the number of reported COVID-19 cases in a country. The combination of reduced morbidity and mortality makes BCG vaccination a potential new tool in the fight against COVID-19. ### Competing Interest Statement The authors have declared no competing interest. ### Funding Statement No external funding was received. ### Author Declarations All relevant ethical guidelines have been followed; any necessary IRB and\/or ethics committee approvals have been obtained and details of the IRB\/oversight body are included in the manuscript. Yes All necessary patient\/participant consent has been obtained and the appropriate institutional forms have been archived. Yes I understand that all clinical trials and any other prospective interventional studies must be registered with an ICMJE-approved registry, such as <http:\/\/ClinicalTrials.gov|ClinicalTrials.gov>. I confirm that any such study reported in the manuscript has been registered and the trial registration ID is provided (note: if posting a prospective study registered retrospectively, please provide a statement in the trial ID field explaining why the study was not registered in advance). Yes I have followed all appropriate research reporting guidelines and uploaded the relevant EQUATOR Network research reporting checklist(s) and other pertinent material as supplementary files, if applicable. Yes Data used for the study is attached as supplementary material. All data used is publicly available.",
                "fallback": "medRxiv: Correlation between universal BCG vaccination policy and reduced morbidity and mortality for COVID-19: an epidemiological study",
                "ts": 1585378800,
                "from_url": "https:\/\/www.medrxiv.org\/content\/10.1101\/2020.03.24.20042937v1",
                "service_icon": "https:\/\/www.medrxiv.org\/sites\/default\/files\/images\/favicon.ico",
                "id": 1,
                "original_url": "https:\/\/www.medrxiv.org\/content\/10.1101\/2020.03.24.20042937v1"
            }
        ],
        "blocks": [
            {
                "type": "rich_text",
                "block_id": "zP9Z",
                "elements": [
                    {
                        "type": "rich_text_section",
                        "elements": [
                            {
                                "type": "link",
                                "url": "https:\/\/www.medrxiv.org\/content\/10.1101\/2020.03.24.20042937v1"
                            }
                        ]
                    }
                ]
            }
        ],
        "reactions": [
            {
                "name": "+1",
                "users": [
                    "UV1A22N3W"
                ],
                "count": 1
            }
        ]
    }
]