[
    {
        "client_msg_id": "9afcd6f8-eb27-4551-88de-82613a301535",
        "type": "message",
        "text": "we're not looking only at CRISPR proper, but also at similar things with less immunogenicity",
        "user": "U01084P4ELX",
        "ts": "1585338849.008300",
        "team": "TUU48M0T1",
        "user_team": "TUU48M0T1",
        "source_team": "TUU48M0T1",
        "user_profile": {
            "avatar_hash": "g314bfba96c5",
            "image_72": "https:\/\/secure.gravatar.com\/avatar\/314bfba96c545495efbc8e77256c78a1.jpg?s=72&d=https%3A%2F%2Fa.slack-edge.com%2Fdf10d%2Fimg%2Favatars%2Fava_0024-72.png",
            "first_name": "",
            "real_name": "Chris Hennick",
            "display_name": "Chris Hennick",
            "team": "TUU48M0T1",
            "name": "chrishennick1",
            "is_restricted": false,
            "is_ultra_restricted": false
        },
        "blocks": [
            {
                "type": "rich_text",
                "block_id": "VcPA",
                "elements": [
                    {
                        "type": "rich_text_section",
                        "elements": [
                            {
                                "type": "text",
                                "text": "we're not looking only at CRISPR proper, but also at similar things with less immunogenicity"
                            }
                        ]
                    }
                ]
            }
        ],
        "thread_ts": "1585284888.006700",
        "parent_user_id": "UV7QBRCFN"
    },
    {
        "client_msg_id": "e7b6e6f9-bdd5-4cda-b6e1-e83d19bced13",
        "type": "message",
        "text": "If that still leaves any concerns from a bio standpoint, I can put you in touch with the project lead -- he's the one with formal bio training, but he's not on JOGL",
        "user": "U01084P4ELX",
        "ts": "1585339671.008500",
        "team": "TUU48M0T1",
        "user_team": "TUU48M0T1",
        "source_team": "TUU48M0T1",
        "user_profile": {
            "avatar_hash": "g314bfba96c5",
            "image_72": "https:\/\/secure.gravatar.com\/avatar\/314bfba96c545495efbc8e77256c78a1.jpg?s=72&d=https%3A%2F%2Fa.slack-edge.com%2Fdf10d%2Fimg%2Favatars%2Fava_0024-72.png",
            "first_name": "",
            "real_name": "Chris Hennick",
            "display_name": "Chris Hennick",
            "team": "TUU48M0T1",
            "name": "chrishennick1",
            "is_restricted": false,
            "is_ultra_restricted": false
        },
        "edited": {
            "user": "U01084P4ELX",
            "ts": "1585339692.000000"
        },
        "blocks": [
            {
                "type": "rich_text",
                "block_id": "hkv",
                "elements": [
                    {
                        "type": "rich_text_section",
                        "elements": [
                            {
                                "type": "text",
                                "text": "If that still leaves any concerns from a bio standpoint, I can put you in touch with the project lead -- he's the one with formal bio training, but he's not on JOGL"
                            }
                        ]
                    }
                ]
            }
        ],
        "thread_ts": "1585284888.006700",
        "parent_user_id": "UV7QBRCFN"
    },
    {
        "client_msg_id": "1170a7b1-4177-414a-9a6e-8ec83901de73",
        "type": "message",
        "text": "I am curious if it is possible to get infected by a common flu while suffering from covid19 and whether this may be a potential strategy to outcompete sars-cov-2. Here is a post I found on this topic: <https:\/\/www.researchgate.net\/post\/Can_common_coronavirus_compete_with_novel_coronavirus>",
        "user": "UV20M5HGQ",
        "ts": "1585341368.011600",
        "team": "TUU48M0T1",
        "user_team": "TUU48M0T1",
        "source_team": "TUU48M0T1",
        "user_profile": {
            "avatar_hash": "de7ea7b7e14e",
            "image_72": "https:\/\/avatars.slack-edge.com\/2020-03-11\/981865374050_de7ea7b7e14e7b4316b9_72.jpg",
            "first_name": "",
            "real_name": "Vesta Korniakova",
            "display_name": "Vesta Korniakova",
            "team": "TUU48M0T1",
            "name": "riboswitchvesta",
            "is_restricted": false,
            "is_ultra_restricted": false
        },
        "blocks": [
            {
                "type": "rich_text",
                "block_id": "A8dja",
                "elements": [
                    {
                        "type": "rich_text_section",
                        "elements": [
                            {
                                "type": "text",
                                "text": "I am curious if it is possible to get infected by a common flu while suffering from covid19 and whether this may be a potential strategy to outcompete sars-cov-2. Here is a post I found on this topic: "
                            },
                            {
                                "type": "link",
                                "url": "https:\/\/www.researchgate.net\/post\/Can_common_coronavirus_compete_with_novel_coronavirus"
                            }
                        ]
                    }
                ]
            }
        ]
    },
    {
        "client_msg_id": "127b4616-7db5-4b33-93f6-7bacd6626bee",
        "type": "message",
        "text": "Hello, guys! I would appreciate a lot if some of you can share some opinions about a grey area of science which may be worth investigating from my perspective.\n\nI am an MS and from what I know, detergents are effective against coronavirus because they can break the lipid layer from coronavirus structure which basically leads to virus inactivation. Also, I am aware that the severe cases\/deaths due to coronavirus are mostly because of respiratory distress caused by the virus binding to ACE-II receptors from the lungs epithelium.\n\nAcknowledging this stuff, I wondered what would happen if patients with severe respiratory distress from coronavirus would inhale detergent (it sounds weird, but let me follow on that). My first guess was that the inhalation of detergent would destroy the coronavirus together with the lungs epithelium.\n\nHowever, what I found surprising when checking the literature is that there are no scientific references to detergent inhalation side-effects. So, any guesses\/thoughts on what inhalation of detergent would do to lung epithelium and viruses?",
        "user": "U010L8GHA4B",
        "ts": "1585344343.013900",
        "team": "TUU48M0T1",
        "user_team": "TUU48M0T1",
        "source_team": "TUU48M0T1",
        "user_profile": {
            "avatar_hash": "gf2fae5cf1ea",
            "image_72": "https:\/\/secure.gravatar.com\/avatar\/f2fae5cf1ea5e82055eb227179142b4a.jpg?s=72&d=https%3A%2F%2Fa.slack-edge.com%2Fdf10d%2Fimg%2Favatars%2Fava_0006-72.png",
            "first_name": "",
            "real_name": "Mihai",
            "display_name": "Mihai",
            "team": "TUU48M0T1",
            "name": "eumihai10",
            "is_restricted": false,
            "is_ultra_restricted": false
        },
        "blocks": [
            {
                "type": "rich_text",
                "block_id": "UX72n",
                "elements": [
                    {
                        "type": "rich_text_section",
                        "elements": [
                            {
                                "type": "text",
                                "text": "Hello, guys! I would appreciate a lot if some of you can share some opinions about a grey area of science which may be worth investigating from my perspective.\n\nI am an MS and from what I know, detergents are effective against coronavirus because they can break the lipid layer from coronavirus structure which basically leads to virus inactivation. Also, I am aware that the severe cases\/deaths due to coronavirus are mostly because of respiratory distress caused by the virus binding to ACE-II receptors from the lungs epithelium.\n\nAcknowledging this stuff, I wondered what would happen if patients with severe respiratory distress from coronavirus would inhale detergent (it sounds weird, but let me follow on that). My first guess was that the inhalation of detergent would destroy the coronavirus together with the lungs epithelium.\n\nHowever, what I found surprising when checking the literature is that there are no scientific references to detergent inhalation side-effects. So, any guesses\/thoughts on what inhalation of detergent would do to lung epithelium and viruses?"
                            }
                        ]
                    }
                ]
            }
        ]
    }
]