[
    {
        "type": "message",
        "subtype": "channel_join",
        "ts": "1584198997.000200",
        "user": "U0100EPL9RT",
        "text": "<@U0100EPL9RT> has joined the channel"
    },
    {
        "type": "message",
        "subtype": "channel_purpose",
        "ts": "1584198997.000300",
        "user": "U0100EPL9RT",
        "text": "<@U0100EPL9RT> set the channel purpose: Papers and discussion about repurposing existing treatments for Covid-19",
        "purpose": "Papers and discussion about repurposing existing treatments for Covid-19"
    },
    {
        "type": "message",
        "subtype": "channel_name",
        "ts": "1584199076.000400",
        "user": "U0100EPL9RT",
        "text": "<@U0100EPL9RT> has renamed the channel from \"drug-repurposing\" to \"treatments\"",
        "old_name": "drug-repurposing",
        "name": "treatments"
    },
    {
        "type": "message",
        "subtype": "channel_join",
        "ts": "1584199217.000600",
        "user": "U0100DEBABS",
        "text": "<@U0100DEBABS> has joined the channel"
    },
    {
        "type": "message",
        "text": "This is an overview of the literature put out by a group in China, a good place to start:\n\n_Zhang, L., &amp; Liu, Y. (2020). Potential Interventions for Novel Coronavirus in China: A Systematic Review. Journal of Medical Virology, jmv.25707–36. <http:\/\/doi.org\/10.1002\/jmv.25707>_",
        "files": [
            {
                "id": "F0102MH6VK8",
                "created": 1584199361,
                "timestamp": 1584199361,
                "name": "J. Med. Virol. 2020 Zhang.pdf",
                "title": "J. Med. Virol. 2020 Zhang.pdf",
                "mimetype": "application\/pdf",
                "filetype": "pdf",
                "pretty_type": "PDF",
                "user": "U0100EPL9RT",
                "editable": false,
                "size": 207760,
                "mode": "hosted",
                "is_external": false,
                "external_type": "",
                "is_public": true,
                "public_url_shared": false,
                "display_as_bot": false,
                "username": "",
                "url_private": "https:\/\/files.slack.com\/files-pri\/TUU48M0T1-F0102MH6VK8\/j._med._virol._2020_zhang.pdf?t=xoxe-980144714919-1106606678066-1105227127893-6f722bb664235052954ad46852628b64",
                "url_private_download": "https:\/\/files.slack.com\/files-pri\/TUU48M0T1-F0102MH6VK8\/download\/j._med._virol._2020_zhang.pdf?t=xoxe-980144714919-1106606678066-1105227127893-6f722bb664235052954ad46852628b64",
                "permalink": "https:\/\/open-covid19.slack.com\/files\/U0100EPL9RT\/F0102MH6VK8\/j._med._virol._2020_zhang.pdf",
                "permalink_public": "https:\/\/slack-files.com\/TUU48M0T1-F0102MH6VK8-07d99e1027",
                "is_starred": false,
                "has_rich_preview": false
            }
        ],
        "upload": true,
        "blocks": [
            {
                "type": "rich_text",
                "block_id": "qJF",
                "elements": [
                    {
                        "type": "rich_text_section",
                        "elements": [
                            {
                                "type": "text",
                                "text": "This is an overview of the literature put out by a group in China, a good place to start:\n\n"
                            },
                            {
                                "type": "text",
                                "text": "Zhang, L., & Liu, Y. (2020). Potential Interventions for Novel Coronavirus in China: A Systematic Review. Journal of Medical Virology, jmv.25707–36. ",
                                "style": {
                                    "italic": true
                                }
                            },
                            {
                                "type": "link",
                                "url": "http:\/\/doi.org\/10.1002\/jmv.25707",
                                "style": {
                                    "italic": true
                                }
                            }
                        ]
                    }
                ]
            }
        ],
        "user": "U0100EPL9RT",
        "display_as_bot": false,
        "ts": "1584199363.001400",
        "edited": {
            "user": "U0100EPL9RT",
            "ts": "1584199733.000000"
        },
        "client_msg_id": "2ed06716-2b32-44a1-bd68-9bfc70fc25eb"
    },
    {
        "client_msg_id": "2a428dfd-c668-4ec2-bd94-0d546e950ad7",
        "type": "message",
        "text": "Another one that I think is much more focused and relevent is this:",
        "user": "U0100EPL9RT",
        "ts": "1584199417.002200",
        "team": "TUU48M0T1",
        "user_team": "TUU48M0T1",
        "source_team": "TUU48M0T1",
        "user_profile": {
            "avatar_hash": "gcb426d5e001",
            "image_72": "https:\/\/secure.gravatar.com\/avatar\/cb426d5e001776a4cbc74343e46f1916.jpg?s=72&d=https%3A%2F%2Fa.slack-edge.com%2Fdf10d%2Fimg%2Favatars%2Fava_0000-72.png",
            "first_name": "Zac",
            "real_name": "Zac",
            "display_name": "Zac",
            "team": "TUU48M0T1",
            "name": "zac",
            "is_restricted": false,
            "is_ultra_restricted": false
        },
        "blocks": [
            {
                "type": "rich_text",
                "block_id": "yL+B+",
                "elements": [
                    {
                        "type": "rich_text_section",
                        "elements": [
                            {
                                "type": "text",
                                "text": "Another one that I think is much more focused and relevent is this:"
                            }
                        ]
                    }
                ]
            }
        ]
    },
    {
        "type": "message",
        "subtype": "channel_join",
        "ts": "1584199431.002500",
        "user": "UVCT4AT54",
        "text": "<@UVCT4AT54> has joined the channel"
    },
    {
        "type": "message",
        "text": "_Gao, J., Tian, Z., &amp; Yang, X. (2020). Breakthrough: Chloroquine phosphate has shown apparent efficacy in treatment of COVID-19 associated pneumonia in clinical studies. BioScience Trends_, 1–2. <http:\/\/doi.org\/10.5582\/bst.2020.01047>",
        "files": [
            {
                "id": "FV1MLFN1G",
                "created": 1584199440,
                "timestamp": 1584199440,
                "name": "BST 2020 Gao.pdf",
                "title": "BST 2020 Gao.pdf",
                "mimetype": "application\/pdf",
                "filetype": "pdf",
                "pretty_type": "PDF",
                "user": "U0100EPL9RT",
                "editable": false,
                "size": 214837,
                "mode": "hosted",
                "is_external": false,
                "external_type": "",
                "is_public": true,
                "public_url_shared": false,
                "display_as_bot": false,
                "username": "",
                "url_private": "https:\/\/files.slack.com\/files-pri\/TUU48M0T1-FV1MLFN1G\/bst_2020_gao.pdf?t=xoxe-980144714919-1106606678066-1105227127893-6f722bb664235052954ad46852628b64",
                "url_private_download": "https:\/\/files.slack.com\/files-pri\/TUU48M0T1-FV1MLFN1G\/download\/bst_2020_gao.pdf?t=xoxe-980144714919-1106606678066-1105227127893-6f722bb664235052954ad46852628b64",
                "thumb_pdf": "https:\/\/files.slack.com\/files-tmb\/TUU48M0T1-FV1MLFN1G-3e1f4d5ede\/bst_2020_gao_thumb_pdf.png?t=xoxe-980144714919-1106606678066-1105227127893-6f722bb664235052954ad46852628b64",
                "thumb_pdf_w": 909,
                "thumb_pdf_h": 1286,
                "permalink": "https:\/\/open-covid19.slack.com\/files\/U0100EPL9RT\/FV1MLFN1G\/bst_2020_gao.pdf",
                "permalink_public": "https:\/\/slack-files.com\/TUU48M0T1-FV1MLFN1G-bea5bee0d3",
                "is_starred": false,
                "has_rich_preview": false
            }
        ],
        "upload": true,
        "blocks": [
            {
                "type": "rich_text",
                "block_id": "ePXq",
                "elements": [
                    {
                        "type": "rich_text_section",
                        "elements": [
                            {
                                "type": "text",
                                "text": "Gao, J., Tian, Z., & Yang, X. (2020). Breakthrough: Chloroquine phosphate has shown apparent efficacy in treatment of COVID-19 associated pneumonia in clinical studies. BioScience Trends",
                                "style": {
                                    "italic": true
                                }
                            },
                            {
                                "type": "text",
                                "text": ", 1–2. "
                            },
                            {
                                "type": "link",
                                "url": "http:\/\/doi.org\/10.5582\/bst.2020.01047"
                            }
                        ]
                    }
                ]
            }
        ],
        "user": "U0100EPL9RT",
        "display_as_bot": false,
        "ts": "1584199443.002600",
        "edited": {
            "user": "U0100EPL9RT",
            "ts": "1584199725.000000"
        },
        "client_msg_id": "fc6e53ac-17bc-46a0-8fd4-c32d737691cf"
    },
    {
        "type": "message",
        "subtype": "channel_join",
        "ts": "1584199482.003000",
        "user": "UV02WET96",
        "text": "<@UV02WET96> has joined the channel"
    },
    {
        "type": "message",
        "subtype": "channel_join",
        "ts": "1584199648.006200",
        "user": "UV2CNECM7",
        "text": "<@UV2CNECM7> has joined the channel"
    },
    {
        "type": "message",
        "text": "Here is a very interesting paper about SARS-COV (the old SARS virus which is a close relative of SARS-COV-2), which shows very strong antiviral activity of a common prescription NSAID (think ibuprofen).\n_Amici, C., Di Caro, A., Ciucci, A., Chiappa, L., Castilletti, C., Martella, V., et al. (2006). Indomethacin has a potent antiviral activity against SARS coronavirus. Antiviral Therapy, 11(8), 1021–1030._",
        "files": [
            {
                "id": "F0100FELGQG",
                "created": 1584199645,
                "timestamp": 1584199645,
                "name": "2006-9.pdf",
                "title": "2006-9.pdf",
                "mimetype": "application\/pdf",
                "filetype": "pdf",
                "pretty_type": "PDF",
                "user": "U0100EPL9RT",
                "editable": false,
                "size": 1474610,
                "mode": "hosted",
                "is_external": false,
                "external_type": "",
                "is_public": true,
                "public_url_shared": false,
                "display_as_bot": false,
                "username": "",
                "url_private": "https:\/\/files.slack.com\/files-pri\/TUU48M0T1-F0100FELGQG\/2006-9.pdf?t=xoxe-980144714919-1106606678066-1105227127893-6f722bb664235052954ad46852628b64",
                "url_private_download": "https:\/\/files.slack.com\/files-pri\/TUU48M0T1-F0100FELGQG\/download\/2006-9.pdf?t=xoxe-980144714919-1106606678066-1105227127893-6f722bb664235052954ad46852628b64",
                "thumb_pdf": "https:\/\/files.slack.com\/files-tmb\/TUU48M0T1-F0100FELGQG-b09a3f3507\/2006-9_thumb_pdf.png?t=xoxe-980144714919-1106606678066-1105227127893-6f722bb664235052954ad46852628b64",
                "thumb_pdf_w": 919,
                "thumb_pdf_h": 1222,
                "permalink": "https:\/\/open-covid19.slack.com\/files\/U0100EPL9RT\/F0100FELGQG\/2006-9.pdf",
                "permalink_public": "https:\/\/slack-files.com\/TUU48M0T1-F0100FELGQG-95845d11eb",
                "is_starred": false,
                "has_rich_preview": false
            }
        ],
        "upload": true,
        "blocks": [
            {
                "type": "rich_text",
                "block_id": "4FtSI",
                "elements": [
                    {
                        "type": "rich_text_section",
                        "elements": [
                            {
                                "type": "text",
                                "text": "Here is a very interesting paper about SARS-COV (the old SARS virus which is a close relative of SARS-COV-2), which shows very strong antiviral activity of a common prescription NSAID (think ibuprofen).\n"
                            },
                            {
                                "type": "text",
                                "text": "Amici, C., Di Caro, A., Ciucci, A., Chiappa, L., Castilletti, C., Martella, V., et al. (2006). Indomethacin has a potent antiviral activity against SARS coronavirus. Antiviral Therapy, 11(8), 1021–1030.",
                                "style": {
                                    "italic": true
                                }
                            }
                        ]
                    }
                ]
            }
        ],
        "user": "U0100EPL9RT",
        "display_as_bot": false,
        "ts": "1584199649.006300",
        "edited": {
            "user": "U0100EPL9RT",
            "ts": "1584199714.000000"
        },
        "client_msg_id": "3f5a3e45-176f-4979-9ca3-23e6bdc73b47",
        "thread_ts": "1584199649.006300",
        "reply_count": 3,
        "reply_users_count": 2,
        "latest_reply": "1584200896.011100",
        "reply_users": [
            "U0100EPL9RT",
            "UVCT4AT54"
        ],
        "replies": [
            {
                "user": "U0100EPL9RT",
                "ts": "1584199850.007400"
            },
            {
                "user": "UVCT4AT54",
                "ts": "1584200321.009700"
            },
            {
                "user": "U0100EPL9RT",
                "ts": "1584200896.011100"
            }
        ],
        "subscribed": false
    },
    {
        "client_msg_id": "468f58d1-b39f-45d1-a9be-367c5109b1bc",
        "type": "message",
        "text": "About the Zinc and Cloroquine. Cloroquine is a Zn ionophore. Maybe this is also a mode of antiviral action. As they say Zn may interfere with Virus replication in cells. I would be curious if other Zn ionophores combined with Zn supplementation could prove useful. Does any one know a study to contradict this speculation?",
        "user": "UVCT4AT54",
        "ts": "1584199656.006800",
        "team": "TUU48M0T1",
        "user_team": "TUU48M0T1",
        "source_team": "TUU48M0T1",
        "user_profile": {
            "avatar_hash": "deae325ec149",
            "image_72": "https:\/\/avatars.slack-edge.com\/2020-03-13\/999319371812_deae325ec1496af7deb8_72.jpg",
            "first_name": "",
            "real_name": "Adrian Pascu",
            "display_name": "Adrian Pascu",
            "team": "TUU48M0T1",
            "name": "ionut.cepleanu",
            "is_restricted": false,
            "is_ultra_restricted": false
        },
        "edited": {
            "user": "UVCT4AT54",
            "ts": "1584199705.000000"
        },
        "blocks": [
            {
                "type": "rich_text",
                "block_id": "4Bm4",
                "elements": [
                    {
                        "type": "rich_text_section",
                        "elements": [
                            {
                                "type": "text",
                                "text": "About the Zinc and Cloroquine. Cloroquine is a Zn ionophore. Maybe this is also a mode of antiviral action. As they say Zn may interfere with Virus replication in cells. I would be curious if other Zn ionophores combined with Zn supplementation could prove useful. Does any one know a study to contradict this speculation?"
                            }
                        ]
                    }
                ]
            }
        ],
        "thread_ts": "1584199656.006800",
        "reply_count": 16,
        "reply_users_count": 2,
        "latest_reply": "1584495644.057800",
        "reply_users": [
            "U0100EPL9RT",
            "UVCT4AT54"
        ],
        "replies": [
            {
                "user": "U0100EPL9RT",
                "ts": "1584199970.007700"
            },
            {
                "user": "U0100EPL9RT",
                "ts": "1584200036.008200"
            },
            {
                "user": "U0100EPL9RT",
                "ts": "1584200159.008700"
            },
            {
                "user": "UVCT4AT54",
                "ts": "1584200220.009000"
            },
            {
                "user": "UVCT4AT54",
                "ts": "1584200249.009200"
            },
            {
                "user": "U0100EPL9RT",
                "ts": "1584200320.009500"
            },
            {
                "user": "UVCT4AT54",
                "ts": "1584200407.010100"
            },
            {
                "user": "U0100EPL9RT",
                "ts": "1584200535.010500"
            },
            {
                "user": "U0100EPL9RT",
                "ts": "1584200592.010700"
            },
            {
                "user": "UVCT4AT54",
                "ts": "1584200683.010900"
            },
            {
                "user": "UVCT4AT54",
                "ts": "1584203594.031900"
            },
            {
                "user": "U0100EPL9RT",
                "ts": "1584216096.033200"
            },
            {
                "user": "U0100EPL9RT",
                "ts": "1584216129.033400"
            },
            {
                "user": "U0100EPL9RT",
                "ts": "1584216137.033600"
            },
            {
                "user": "UVCT4AT54",
                "ts": "1584217592.033900"
            },
            {
                "user": "U0100EPL9RT",
                "ts": "1584495644.057800"
            }
        ],
        "subscribed": false
    },
    {
        "client_msg_id": "c39f44dd-c290-46a5-955a-7fd452118f7d",
        "type": "message",
        "text": "Interestingly the same group followed up with other viruses and showed strong antiviral effect of Inomethacin in a plant virus which could mean it has a very broad antiviral effect:\n\n_Amici, C., La Frazia, S., Brunelli, C., Balsamo, M., Angelini, M., &amp; Santoro, M. G. (2015). Inhibition of viral protein translation by indomethacin in vesicular stomatitis virus infection: role of eIF2α kinase PKR. Cellular Microbiology, 17(9), 1391–1404. <http:\/\/doi.org\/10.1111\/cmi.12446>_",
        "user": "U0100EPL9RT",
        "ts": "1584199850.007400",
        "team": "TUU48M0T1",
        "user_team": "TUU48M0T1",
        "source_team": "TUU48M0T1",
        "user_profile": {
            "avatar_hash": "gcb426d5e001",
            "image_72": "https:\/\/secure.gravatar.com\/avatar\/cb426d5e001776a4cbc74343e46f1916.jpg?s=72&d=https%3A%2F%2Fa.slack-edge.com%2Fdf10d%2Fimg%2Favatars%2Fava_0000-72.png",
            "first_name": "Zac",
            "real_name": "Zac",
            "display_name": "Zac",
            "team": "TUU48M0T1",
            "name": "zac",
            "is_restricted": false,
            "is_ultra_restricted": false
        },
        "blocks": [
            {
                "type": "rich_text",
                "block_id": "F+0r",
                "elements": [
                    {
                        "type": "rich_text_section",
                        "elements": [
                            {
                                "type": "text",
                                "text": "Interestingly the same group followed up with other viruses and showed strong antiviral effect of Inomethacin in a plant virus which could mean it has a very broad antiviral effect:\n\n"
                            },
                            {
                                "type": "text",
                                "text": "Amici, C., La Frazia, S., Brunelli, C., Balsamo, M., Angelini, M., & Santoro, M. G. (2015). Inhibition of viral protein translation by indomethacin in vesicular stomatitis virus infection: role of eIF2α kinase PKR. Cellular Microbiology, 17(9), 1391–1404. ",
                                "style": {
                                    "italic": true
                                }
                            },
                            {
                                "type": "link",
                                "url": "http:\/\/doi.org\/10.1111\/cmi.12446",
                                "style": {
                                    "italic": true
                                }
                            }
                        ]
                    }
                ]
            }
        ],
        "thread_ts": "1584199649.006300",
        "parent_user_id": "U0100EPL9RT"
    },
    {
        "client_msg_id": "cd37e3a0-046c-4e45-96c1-d51f667721f0",
        "type": "message",
        "text": "A quick search validates your idea to some degree:",
        "user": "U0100EPL9RT",
        "ts": "1584199970.007700",
        "team": "TUU48M0T1",
        "user_team": "TUU48M0T1",
        "source_team": "TUU48M0T1",
        "user_profile": {
            "avatar_hash": "gcb426d5e001",
            "image_72": "https:\/\/secure.gravatar.com\/avatar\/cb426d5e001776a4cbc74343e46f1916.jpg?s=72&d=https%3A%2F%2Fa.slack-edge.com%2Fdf10d%2Fimg%2Favatars%2Fava_0000-72.png",
            "first_name": "Zac",
            "real_name": "Zac",
            "display_name": "Zac",
            "team": "TUU48M0T1",
            "name": "zac",
            "is_restricted": false,
            "is_ultra_restricted": false
        },
        "blocks": [
            {
                "type": "rich_text",
                "block_id": "Qq1\/",
                "elements": [
                    {
                        "type": "rich_text_section",
                        "elements": [
                            {
                                "type": "text",
                                "text": "A quick search validates your idea to some degree:"
                            }
                        ]
                    }
                ]
            }
        ],
        "thread_ts": "1584199656.006800",
        "parent_user_id": "UVCT4AT54"
    },
    {
        "client_msg_id": "1f6c6257-913e-4765-9478-39ce60007931",
        "type": "message",
        "text": "Whoops wrong paper :slightly_smiling_face:   - <https:\/\/jvi.asm.org\/content\/83\/1\/58.short>",
        "user": "U0100EPL9RT",
        "ts": "1584200036.008200",
        "team": "TUU48M0T1",
        "user_team": "TUU48M0T1",
        "source_team": "TUU48M0T1",
        "user_profile": {
            "avatar_hash": "gcb426d5e001",
            "image_72": "https:\/\/secure.gravatar.com\/avatar\/cb426d5e001776a4cbc74343e46f1916.jpg?s=72&d=https%3A%2F%2Fa.slack-edge.com%2Fdf10d%2Fimg%2Favatars%2Fava_0000-72.png",
            "first_name": "Zac",
            "real_name": "Zac",
            "display_name": "Zac",
            "team": "TUU48M0T1",
            "name": "zac",
            "is_restricted": false,
            "is_ultra_restricted": false
        },
        "attachments": [
            {
                "service_name": "Journal of Virology",
                "title": "Antiviral Activity of the Zinc Ionophores Pyrithione and Hinokitiol against Picornavirus Infections",
                "title_link": "https:\/\/jvi.asm.org\/content\/83\/1\/58.short",
                "text": "We have discovered two metal ion binding compounds, pyrithione (PT) and hinokitiol (HK), that efficiently inhibit human rhinovirus, coxsackievirus, and mengovirus multiplication. Early stages of virus infection are unaffected by these compounds. However, the cleavage of the cellular eukaryotic translation initiation factor eIF4GI by the rhinoviral 2A protease was abolished in the presence of PT and HK. We further show that these compounds inhibit picornavirus replication by interfering with proper processing of the viral polyprotein. In addition, we provide evidence that these structurally unrelated compounds lead to a rapid import of extracellular zinc ions into cells. Imported Zn2+ was found to be localized in punctate structures, as well as in mitochondria. The observed elevated level of zinc ions was reversible when the compounds were removed. As the antiviral activity of these compounds requires the continuous presence of the zinc ionophore PT, HK, or pyrrolidine-dithiocarbamate, the requirement for zinc ions for the antiviral activity is further substantiated. Therefore, an increase in intracellular zinc levels provides the basis for a new antipicornavirus mechanism.",
                "fallback": "Journal of Virology: Antiviral Activity of the Zinc Ionophores Pyrithione and Hinokitiol against Picornavirus Infections",
                "ts": 1230796800,
                "from_url": "https:\/\/jvi.asm.org\/content\/83\/1\/58.short",
                "thumb_url": "https:\/\/jvi.asm.org\/sites\/default\/files\/highwire\/jvi\/83\/1.cover.gif",
                "thumb_width": 134,
                "thumb_height": 178,
                "service_icon": "https:\/\/jvi.asm.org\/favicon.ico",
                "id": 1,
                "original_url": "https:\/\/jvi.asm.org\/content\/83\/1\/58.short"
            }
        ],
        "blocks": [
            {
                "type": "rich_text",
                "block_id": "aY\/",
                "elements": [
                    {
                        "type": "rich_text_section",
                        "elements": [
                            {
                                "type": "text",
                                "text": "Whoops wrong paper "
                            },
                            {
                                "type": "emoji",
                                "name": "slightly_smiling_face"
                            },
                            {
                                "type": "text",
                                "text": "   - "
                            },
                            {
                                "type": "link",
                                "url": "https:\/\/jvi.asm.org\/content\/83\/1\/58.short"
                            }
                        ]
                    }
                ]
            }
        ],
        "thread_ts": "1584199656.006800",
        "parent_user_id": "UVCT4AT54"
    },
    {
        "client_msg_id": "8c9f2167-6595-44e9-b2c4-bac04c8def70",
        "type": "message",
        "text": "I think that picornaviruses are related to coronaviruses",
        "user": "U0100EPL9RT",
        "ts": "1584200159.008700",
        "team": "TUU48M0T1",
        "user_team": "TUU48M0T1",
        "source_team": "TUU48M0T1",
        "user_profile": {
            "avatar_hash": "gcb426d5e001",
            "image_72": "https:\/\/secure.gravatar.com\/avatar\/cb426d5e001776a4cbc74343e46f1916.jpg?s=72&d=https%3A%2F%2Fa.slack-edge.com%2Fdf10d%2Fimg%2Favatars%2Fava_0000-72.png",
            "first_name": "Zac",
            "real_name": "Zac",
            "display_name": "Zac",
            "team": "TUU48M0T1",
            "name": "zac",
            "is_restricted": false,
            "is_ultra_restricted": false
        },
        "blocks": [
            {
                "type": "rich_text",
                "block_id": "TRIwc",
                "elements": [
                    {
                        "type": "rich_text_section",
                        "elements": [
                            {
                                "type": "text",
                                "text": "I think that picornaviruses are related to coronaviruses"
                            }
                        ]
                    }
                ]
            }
        ],
        "thread_ts": "1584199656.006800",
        "parent_user_id": "UVCT4AT54"
    },
    {
        "client_msg_id": "afd3566f-1466-4780-a46f-dcd59154265f",
        "type": "message",
        "text": "I found a study that shows Zn also inhibits Coronavirus Sars .",
        "user": "UVCT4AT54",
        "ts": "1584200220.009000",
        "team": "TUU48M0T1",
        "user_team": "TUU48M0T1",
        "source_team": "TUU48M0T1",
        "user_profile": {
            "avatar_hash": "deae325ec149",
            "image_72": "https:\/\/avatars.slack-edge.com\/2020-03-13\/999319371812_deae325ec1496af7deb8_72.jpg",
            "first_name": "",
            "real_name": "Adrian Pascu",
            "display_name": "Adrian Pascu",
            "team": "TUU48M0T1",
            "name": "ionut.cepleanu",
            "is_restricted": false,
            "is_ultra_restricted": false
        },
        "blocks": [
            {
                "type": "rich_text",
                "block_id": "OEkxt",
                "elements": [
                    {
                        "type": "rich_text_section",
                        "elements": [
                            {
                                "type": "text",
                                "text": "I found a study that shows Zn also inhibits Coronavirus Sars ."
                            }
                        ]
                    }
                ]
            }
        ],
        "thread_ts": "1584199656.006800",
        "parent_user_id": "UVCT4AT54"
    },
    {
        "client_msg_id": "16f899be-d1e6-4116-8ddc-767eb68b4e93",
        "type": "message",
        "text": "This one <https:\/\/www.ncbi.nlm.nih.gov\/pmc\/articles\/PMC2973827\/>",
        "user": "UVCT4AT54",
        "ts": "1584200249.009200",
        "team": "TUU48M0T1",
        "user_team": "TUU48M0T1",
        "source_team": "TUU48M0T1",
        "user_profile": {
            "avatar_hash": "deae325ec149",
            "image_72": "https:\/\/avatars.slack-edge.com\/2020-03-13\/999319371812_deae325ec1496af7deb8_72.jpg",
            "first_name": "",
            "real_name": "Adrian Pascu",
            "display_name": "Adrian Pascu",
            "team": "TUU48M0T1",
            "name": "ionut.cepleanu",
            "is_restricted": false,
            "is_ultra_restricted": false
        },
        "attachments": [
            {
                "service_name": "PubMed Central (PMC)",
                "title": "Zn2+ Inhibits Coronavirus and Arterivirus RNA Polymerase Activity In Vitro and Zinc Ionophores Block the Replication of These Viruses in Cell Culture",
                "title_link": "https:\/\/www.ncbi.nlm.nih.gov\/pmc\/articles\/PMC2973827\/",
                "text": "Increasing the intracellular Zn[2+] concentration with zinc-ionophores like pyrithione (PT) can efficiently impair the replication of a variety of RNA viruses, including poliovirus and influenza virus. For some viruses this effect has been attributed ...",
                "fallback": "PubMed Central (PMC): Zn2+ Inhibits Coronavirus and Arterivirus RNA Polymerase Activity In Vitro and Zinc Ionophores Block the Replication of These Viruses in Cell Culture",
                "thumb_url": "https:\/\/www.ncbi.nlm.nih.gov\/corehtml\/pmc\/pmcgifs\/pmc-logo-share.png",
                "from_url": "https:\/\/www.ncbi.nlm.nih.gov\/pmc\/articles\/PMC2973827\/",
                "thumb_width": 1200,
                "thumb_height": 630,
                "service_icon": "http:\/\/www.ncbi.nlm.nih.gov\/favicon.ico",
                "id": 1,
                "original_url": "https:\/\/www.ncbi.nlm.nih.gov\/pmc\/articles\/PMC2973827\/"
            }
        ],
        "blocks": [
            {
                "type": "rich_text",
                "block_id": "\/R9",
                "elements": [
                    {
                        "type": "rich_text_section",
                        "elements": [
                            {
                                "type": "text",
                                "text": "This one "
                            },
                            {
                                "type": "link",
                                "url": "https:\/\/www.ncbi.nlm.nih.gov\/pmc\/articles\/PMC2973827\/"
                            }
                        ]
                    }
                ]
            }
        ],
        "thread_ts": "1584199656.006800",
        "parent_user_id": "UVCT4AT54"
    },
    {
        "client_msg_id": "9392b453-81e2-47b0-afb7-d9c33a8ddbdf",
        "type": "message",
        "text": "I agree that is a plausible mechanism of action.",
        "user": "U0100EPL9RT",
        "ts": "1584200320.009500",
        "team": "TUU48M0T1",
        "user_team": "TUU48M0T1",
        "source_team": "TUU48M0T1",
        "user_profile": {
            "avatar_hash": "gcb426d5e001",
            "image_72": "https:\/\/secure.gravatar.com\/avatar\/cb426d5e001776a4cbc74343e46f1916.jpg?s=72&d=https%3A%2F%2Fa.slack-edge.com%2Fdf10d%2Fimg%2Favatars%2Fava_0000-72.png",
            "first_name": "Zac",
            "real_name": "Zac",
            "display_name": "Zac",
            "team": "TUU48M0T1",
            "name": "zac",
            "is_restricted": false,
            "is_ultra_restricted": false
        },
        "blocks": [
            {
                "type": "rich_text",
                "block_id": "xV\/lX",
                "elements": [
                    {
                        "type": "rich_text_section",
                        "elements": [
                            {
                                "type": "text",
                                "text": "I agree that is a plausible mechanism of action."
                            }
                        ]
                    }
                ]
            }
        ],
        "thread_ts": "1584199656.006800",
        "parent_user_id": "UVCT4AT54"
    },
    {
        "client_msg_id": "ef3ed680-c6ea-4761-9a25-d06163f99629",
        "type": "message",
        "text": "Indomethacin is a NSAID. The same as ibuprofen, both inhibiting COX. Why is then ibuprofen contraindicated for Covid19?",
        "user": "UVCT4AT54",
        "ts": "1584200321.009700",
        "team": "TUU48M0T1",
        "user_team": "TUU48M0T1",
        "source_team": "TUU48M0T1",
        "user_profile": {
            "avatar_hash": "deae325ec149",
            "image_72": "https:\/\/avatars.slack-edge.com\/2020-03-13\/999319371812_deae325ec1496af7deb8_72.jpg",
            "first_name": "",
            "real_name": "Adrian Pascu",
            "display_name": "Adrian Pascu",
            "team": "TUU48M0T1",
            "name": "ionut.cepleanu",
            "is_restricted": false,
            "is_ultra_restricted": false
        },
        "blocks": [
            {
                "type": "rich_text",
                "block_id": "OaYdn",
                "elements": [
                    {
                        "type": "rich_text_section",
                        "elements": [
                            {
                                "type": "text",
                                "text": "Indomethacin is a NSAID. The same as ibuprofen, both inhibiting COX. Why is then ibuprofen contraindicated for Covid19?"
                            }
                        ]
                    }
                ]
            }
        ],
        "thread_ts": "1584199649.006300",
        "parent_user_id": "U0100EPL9RT"
    },
    {
        "client_msg_id": "f1d6824c-2282-4ffd-a543-529054e79e16",
        "type": "message",
        "text": "Quercitin for example is a cheap ionophore. ECGC the same. Won't hurt to try, in my opinion..widely available. <https:\/\/www.ncbi.nlm.nih.gov\/pubmed\/25050823>",
        "user": "UVCT4AT54",
        "ts": "1584200407.010100",
        "team": "TUU48M0T1",
        "user_team": "TUU48M0T1",
        "source_team": "TUU48M0T1",
        "user_profile": {
            "avatar_hash": "deae325ec149",
            "image_72": "https:\/\/avatars.slack-edge.com\/2020-03-13\/999319371812_deae325ec1496af7deb8_72.jpg",
            "first_name": "",
            "real_name": "Adrian Pascu",
            "display_name": "Adrian Pascu",
            "team": "TUU48M0T1",
            "name": "ionut.cepleanu",
            "is_restricted": false,
            "is_ultra_restricted": false
        },
        "attachments": [
            {
                "title": "Zinc ionophore activity of quercetin and epigallocatechin-gallate: from Hepa 1-6 cells to a liposome model.  - PubMed - NCBI ",
                "title_link": "https:\/\/www.ncbi.nlm.nih.gov\/pubmed\/25050823",
                "text": "J Agric Food Chem. 2014 Aug 13;62(32):8085-93. doi: 10.1021\/jf5014633. Epub 2014 Jul 31. Comparative Study; Research Support, Non-U.S. Gov't",
                "fallback": "Zinc ionophore activity of quercetin and epigallocatechin-gallate: from Hepa 1-6 cells to a liposome model.  - PubMed - NCBI ",
                "image_url": "http:\/\/www.ncbi.nlm.nih.gov\/coreutils\/img\/pubmed256blue.png",
                "from_url": "https:\/\/www.ncbi.nlm.nih.gov\/pubmed\/25050823",
                "image_width": 250,
                "image_height": 250,
                "image_bytes": 13298,
                "service_icon": "http:\/\/www.ncbi.nlm.nih.gov\/favicon.ico",
                "service_name": "ncbi.nlm.nih.gov",
                "id": 1,
                "original_url": "https:\/\/www.ncbi.nlm.nih.gov\/pubmed\/25050823"
            }
        ],
        "blocks": [
            {
                "type": "rich_text",
                "block_id": "4mji",
                "elements": [
                    {
                        "type": "rich_text_section",
                        "elements": [
                            {
                                "type": "text",
                                "text": "Quercitin for example is a cheap ionophore. ECGC the same. Won't hurt to try, in my opinion..widely available. "
                            },
                            {
                                "type": "link",
                                "url": "https:\/\/www.ncbi.nlm.nih.gov\/pubmed\/25050823"
                            }
                        ]
                    }
                ]
            }
        ],
        "thread_ts": "1584199656.006800",
        "parent_user_id": "UVCT4AT54"
    },
    {
        "client_msg_id": "e11e3b47-d8d9-459b-a48a-9381354508c7",
        "type": "message",
        "text": "CQ is pretty nasty stuff  so if something else could work that would be really interesting.",
        "user": "U0100EPL9RT",
        "ts": "1584200535.010500",
        "team": "TUU48M0T1",
        "user_team": "TUU48M0T1",
        "source_team": "TUU48M0T1",
        "user_profile": {
            "avatar_hash": "gcb426d5e001",
            "image_72": "https:\/\/secure.gravatar.com\/avatar\/cb426d5e001776a4cbc74343e46f1916.jpg?s=72&d=https%3A%2F%2Fa.slack-edge.com%2Fdf10d%2Fimg%2Favatars%2Fava_0000-72.png",
            "first_name": "Zac",
            "real_name": "Zac",
            "display_name": "Zac",
            "team": "TUU48M0T1",
            "name": "zac",
            "is_restricted": false,
            "is_ultra_restricted": false
        },
        "blocks": [
            {
                "type": "rich_text",
                "block_id": "1enVF",
                "elements": [
                    {
                        "type": "rich_text_section",
                        "elements": [
                            {
                                "type": "text",
                                "text": "CQ is pretty nasty stuff  so if something else could work that would be really interesting."
                            }
                        ]
                    }
                ]
            }
        ],
        "thread_ts": "1584199656.006800",
        "parent_user_id": "UVCT4AT54"
    },
    {
        "client_msg_id": "ffa94e91-be37-4f81-8815-87aa91b69c9f",
        "type": "message",
        "text": "That being said, it’s widely used and safe and effective on the population scale.",
        "user": "U0100EPL9RT",
        "ts": "1584200592.010700",
        "team": "TUU48M0T1",
        "user_team": "TUU48M0T1",
        "source_team": "TUU48M0T1",
        "user_profile": {
            "avatar_hash": "gcb426d5e001",
            "image_72": "https:\/\/secure.gravatar.com\/avatar\/cb426d5e001776a4cbc74343e46f1916.jpg?s=72&d=https%3A%2F%2Fa.slack-edge.com%2Fdf10d%2Fimg%2Favatars%2Fava_0000-72.png",
            "first_name": "Zac",
            "real_name": "Zac",
            "display_name": "Zac",
            "team": "TUU48M0T1",
            "name": "zac",
            "is_restricted": false,
            "is_ultra_restricted": false
        },
        "blocks": [
            {
                "type": "rich_text",
                "block_id": "xoA",
                "elements": [
                    {
                        "type": "rich_text_section",
                        "elements": [
                            {
                                "type": "text",
                                "text": "That being said, it’s widely used and safe and effective on the population scale."
                            }
                        ]
                    }
                ]
            }
        ],
        "thread_ts": "1584199656.006800",
        "parent_user_id": "UVCT4AT54"
    },
    {
        "client_msg_id": "a27bad57-b481-4703-bcdd-a2d0410a34e3",
        "type": "message",
        "text": "The study also speculates that ECGC and Quercitin may also work in vivo. \"In conclusion, we have demonstrated that QCT, EGCG, and CQ rapidly increase intracellular labile zinc in Hepa 1-6 cells and that they function as ionophores for zinc in a liposomal system. Thus, natural flavonoids can be added to an arsenal of drugs that may be used to modulate zinc homeostasis and regulate zinc-dependent biological pathways.\"",
        "user": "UVCT4AT54",
        "ts": "1584200683.010900",
        "team": "TUU48M0T1",
        "user_team": "TUU48M0T1",
        "source_team": "TUU48M0T1",
        "user_profile": {
            "avatar_hash": "deae325ec149",
            "image_72": "https:\/\/avatars.slack-edge.com\/2020-03-13\/999319371812_deae325ec1496af7deb8_72.jpg",
            "first_name": "",
            "real_name": "Adrian Pascu",
            "display_name": "Adrian Pascu",
            "team": "TUU48M0T1",
            "name": "ionut.cepleanu",
            "is_restricted": false,
            "is_ultra_restricted": false
        },
        "blocks": [
            {
                "type": "rich_text",
                "block_id": "Zpefi",
                "elements": [
                    {
                        "type": "rich_text_section",
                        "elements": [
                            {
                                "type": "text",
                                "text": "The study also speculates that ECGC and Quercitin may also work in vivo. \"In conclusion, we have demonstrated that QCT, EGCG, and CQ rapidly increase intracellular labile zinc in Hepa 1-6 cells and that they function as ionophores for zinc in a liposomal system. Thus, natural flavonoids can be added to an arsenal of drugs that may be used to modulate zinc homeostasis and regulate zinc-dependent biological pathways.\""
                            }
                        ]
                    }
                ]
            }
        ],
        "thread_ts": "1584199656.006800",
        "parent_user_id": "UVCT4AT54"
    },
    {
        "client_msg_id": "81b2b8db-f2e5-434b-9628-1f4e4e994f47",
        "type": "message",
        "text": "Not sure on the ibuprofen question. Interestingly, in this paper they demonstrated that the MOA of indomethacin is not via COX, although that was the original hypothesis.",
        "user": "U0100EPL9RT",
        "ts": "1584200896.011100",
        "team": "TUU48M0T1",
        "user_team": "TUU48M0T1",
        "source_team": "TUU48M0T1",
        "user_profile": {
            "avatar_hash": "gcb426d5e001",
            "image_72": "https:\/\/secure.gravatar.com\/avatar\/cb426d5e001776a4cbc74343e46f1916.jpg?s=72&d=https%3A%2F%2Fa.slack-edge.com%2Fdf10d%2Fimg%2Favatars%2Fava_0000-72.png",
            "first_name": "Zac",
            "real_name": "Zac",
            "display_name": "Zac",
            "team": "TUU48M0T1",
            "name": "zac",
            "is_restricted": false,
            "is_ultra_restricted": false
        },
        "blocks": [
            {
                "type": "rich_text",
                "block_id": "Looq",
                "elements": [
                    {
                        "type": "rich_text_section",
                        "elements": [
                            {
                                "type": "text",
                                "text": "Not sure on the ibuprofen question. Interestingly, in this paper they demonstrated that the MOA of indomethacin is not via COX, although that was the original hypothesis."
                            }
                        ]
                    }
                ]
            }
        ],
        "thread_ts": "1584199649.006300",
        "parent_user_id": "U0100EPL9RT"
    },
    {
        "type": "message",
        "subtype": "channel_join",
        "ts": "1584200947.011400",
        "user": "UV1A22N3W",
        "text": "<@UV1A22N3W> has joined the channel"
    },
    {
        "client_msg_id": "18c19cf7-dac6-43c4-beb5-ce920480378d",
        "type": "message",
        "text": "host sera, like with antibodies that neutralise it, might be another possible acute treatment (last year there was some big news about such treatments to save people from Ebola), but I like the idea of a simple ion to help...",
        "user": "UV1A22N3W",
        "ts": "1584201259.014700",
        "team": "TUU48M0T1",
        "user_team": "TUU48M0T1",
        "source_team": "TUU48M0T1",
        "user_profile": {
            "avatar_hash": "71f827776ad6",
            "image_72": "https:\/\/avatars.slack-edge.com\/2020-03-09\/988125642964_71f827776ad610af05a2_72.jpg",
            "first_name": "",
            "real_name": "RachelA",
            "display_name": "RachelA",
            "team": "TUU48M0T1",
            "name": "raronoff",
            "is_restricted": false,
            "is_ultra_restricted": false
        },
        "blocks": [
            {
                "type": "rich_text",
                "block_id": "401G",
                "elements": [
                    {
                        "type": "rich_text_section",
                        "elements": [
                            {
                                "type": "text",
                                "text": "host sera, like with antibodies that neutralise it, might be another possible acute treatment (last year there was some big news about such treatments to save people from Ebola), but I like the idea of a simple ion to help..."
                            }
                        ]
                    }
                ]
            }
        ],
        "thread_ts": "1584201259.014700",
        "reply_count": 4,
        "reply_users_count": 2,
        "latest_reply": "1584473547.056700",
        "reply_users": [
            "U0100EPL9RT",
            "UV1A22N3W"
        ],
        "replies": [
            {
                "user": "U0100EPL9RT",
                "ts": "1584202358.028300"
            },
            {
                "user": "U0100EPL9RT",
                "ts": "1584202391.028500"
            },
            {
                "user": "UV1A22N3W",
                "ts": "1584462197.056400"
            },
            {
                "user": "U0100EPL9RT",
                "ts": "1584473547.056700"
            }
        ],
        "subscribed": false
    },
    {
        "client_msg_id": "9972ccf8-61cc-4063-99dc-bc151ffd59d1",
        "type": "message",
        "text": "Ok..here's me with the Zn ionophore again. Indomethacin is ALSO a Zn ionophore. 8 hidroxy quinolone the same. Vit C and E...thought not as much effect. <https:\/\/patentimages.storage.googleapis.com\/14\/81\/fb\/c013ebac0c09cf\/US6495538.pdf>",
        "user": "UVCT4AT54",
        "ts": "1584201427.018300",
        "team": "TUU48M0T1",
        "user_team": "TUU48M0T1",
        "source_team": "TUU48M0T1",
        "user_profile": {
            "avatar_hash": "deae325ec149",
            "image_72": "https:\/\/avatars.slack-edge.com\/2020-03-13\/999319371812_deae325ec1496af7deb8_72.jpg",
            "first_name": "",
            "real_name": "Adrian Pascu",
            "display_name": "Adrian Pascu",
            "team": "TUU48M0T1",
            "name": "ionut.cepleanu",
            "is_restricted": false,
            "is_ultra_restricted": false
        },
        "blocks": [
            {
                "type": "rich_text",
                "block_id": "Skz4",
                "elements": [
                    {
                        "type": "rich_text_section",
                        "elements": [
                            {
                                "type": "text",
                                "text": "Ok..here's me with the Zn ionophore again. Indomethacin is ALSO a Zn ionophore. 8 hidroxy quinolone the same. Vit C and E...thought not as much effect. "
                            },
                            {
                                "type": "link",
                                "url": "https:\/\/patentimages.storage.googleapis.com\/14\/81\/fb\/c013ebac0c09cf\/US6495538.pdf"
                            }
                        ]
                    }
                ]
            }
        ]
    },
    {
        "client_msg_id": "4fe3efa6-1591-4e2b-9282-b5b3efa67a62",
        "type": "message",
        "text": "This idea is fascinating <@UVCT4AT54>.  Practically speaking, does anyone here have any background in clinical trials?  I know a bunch of companies have recently started “virtual trials” where doctors can join the trials with their patients  and log data remotely, etc. In particular with these existing drugs and supplements I could imagine many doctors (and patients) would be very interested in this.  An free open platform for this could be useful if one doesn’t exist already.  This is a place where software folks could help for sure.",
        "user": "U0100EPL9RT",
        "ts": "1584201618.021700",
        "team": "TUU48M0T1",
        "user_team": "TUU48M0T1",
        "source_team": "TUU48M0T1",
        "user_profile": {
            "avatar_hash": "gcb426d5e001",
            "image_72": "https:\/\/secure.gravatar.com\/avatar\/cb426d5e001776a4cbc74343e46f1916.jpg?s=72&d=https%3A%2F%2Fa.slack-edge.com%2Fdf10d%2Fimg%2Favatars%2Fava_0000-72.png",
            "first_name": "Zac",
            "real_name": "Zac",
            "display_name": "Zac",
            "team": "TUU48M0T1",
            "name": "zac",
            "is_restricted": false,
            "is_ultra_restricted": false
        },
        "blocks": [
            {
                "type": "rich_text",
                "block_id": "vLPC",
                "elements": [
                    {
                        "type": "rich_text_section",
                        "elements": [
                            {
                                "type": "text",
                                "text": "This idea is fascinating "
                            },
                            {
                                "type": "user",
                                "user_id": "UVCT4AT54"
                            },
                            {
                                "type": "text",
                                "text": ".  Practically speaking, does anyone here have any background in clinical trials?  I know a bunch of companies have recently started “virtual trials” where doctors can join the trials with their patients  and log data remotely, etc. In particular with these existing drugs and supplements I could imagine many doctors (and patients) would be very interested in this.  An free open platform for this could be useful if one doesn’t exist already.  This is a place where software folks could help for sure."
                            }
                        ]
                    }
                ]
            }
        ],
        "thread_ts": "1584201618.021700",
        "reply_count": 1,
        "reply_users_count": 1,
        "latest_reply": "1584202578.028900",
        "reply_users": [
            "U0100EPL9RT"
        ],
        "replies": [
            {
                "user": "U0100EPL9RT",
                "ts": "1584202578.028900"
            }
        ],
        "subscribed": false
    },
    {
        "client_msg_id": "fcfe9392-413e-42a9-be2e-7795ad44f39f",
        "type": "message",
        "text": "I would very much appreciate it if someone finds a flaw in my speculation.. that Cloroquine and indomethacin inhibit viral replication in cells via Zn migration into the cytoplasm mediated by ionophore activity.",
        "user": "UVCT4AT54",
        "ts": "1584201626.021900",
        "team": "TUU48M0T1",
        "user_team": "TUU48M0T1",
        "source_team": "TUU48M0T1",
        "user_profile": {
            "avatar_hash": "deae325ec149",
            "image_72": "https:\/\/avatars.slack-edge.com\/2020-03-13\/999319371812_deae325ec1496af7deb8_72.jpg",
            "first_name": "",
            "real_name": "Adrian Pascu",
            "display_name": "Adrian Pascu",
            "team": "TUU48M0T1",
            "name": "ionut.cepleanu",
            "is_restricted": false,
            "is_ultra_restricted": false
        },
        "blocks": [
            {
                "type": "rich_text",
                "block_id": "eoJy",
                "elements": [
                    {
                        "type": "rich_text_section",
                        "elements": [
                            {
                                "type": "text",
                                "text": "I would very much appreciate it if someone finds a flaw in my speculation.. that Cloroquine and indomethacin inhibit viral replication in cells via Zn migration into the cytoplasm mediated by ionophore activity."
                            }
                        ]
                    }
                ]
            }
        ]
    },
    {
        "client_msg_id": "9718fee0-5cc9-47fc-ad78-d45215b02c8f",
        "type": "message",
        "text": "I'm not trying to be right here. Just come with some arguments that I'm wrong, if you can..Things are rarely that simple.",
        "user": "UVCT4AT54",
        "ts": "1584201678.022600",
        "team": "TUU48M0T1",
        "user_team": "TUU48M0T1",
        "source_team": "TUU48M0T1",
        "user_profile": {
            "avatar_hash": "deae325ec149",
            "image_72": "https:\/\/avatars.slack-edge.com\/2020-03-13\/999319371812_deae325ec1496af7deb8_72.jpg",
            "first_name": "",
            "real_name": "Adrian Pascu",
            "display_name": "Adrian Pascu",
            "team": "TUU48M0T1",
            "name": "ionut.cepleanu",
            "is_restricted": false,
            "is_ultra_restricted": false
        },
        "blocks": [
            {
                "type": "rich_text",
                "block_id": "KfHR5",
                "elements": [
                    {
                        "type": "rich_text_section",
                        "elements": [
                            {
                                "type": "text",
                                "text": "I'm not trying to be right here. Just come with some arguments that I'm wrong, if you can..Things are rarely that simple."
                            }
                        ]
                    }
                ]
            }
        ]
    },
    {
        "client_msg_id": "0b808e50-3e74-4906-819c-d674baf5e513",
        "type": "message",
        "text": "Adrian, I think the next step to understanding your hypothesis is trying to understand the mechanism further on the molecular level.  This may be in one of the papers you posted, but when the Zn is there in the cytoplasm specifically how does it inhibit viral replication in the viruses in the literature?  If this is known, we can look phylogenetically at SARS-COV-2 proteins involved in  that process and see if they are related.  A powerful thing here is because of all the research into SARS-COV-1 we’ve got a leg up on studying some of these things.",
        "user": "U0100EPL9RT",
        "ts": "1584201963.027100",
        "team": "TUU48M0T1",
        "user_team": "TUU48M0T1",
        "source_team": "TUU48M0T1",
        "user_profile": {
            "avatar_hash": "gcb426d5e001",
            "image_72": "https:\/\/secure.gravatar.com\/avatar\/cb426d5e001776a4cbc74343e46f1916.jpg?s=72&d=https%3A%2F%2Fa.slack-edge.com%2Fdf10d%2Fimg%2Favatars%2Fava_0000-72.png",
            "first_name": "Zac",
            "real_name": "Zac",
            "display_name": "Zac",
            "team": "TUU48M0T1",
            "name": "zac",
            "is_restricted": false,
            "is_ultra_restricted": false
        },
        "blocks": [
            {
                "type": "rich_text",
                "block_id": "SLHD+",
                "elements": [
                    {
                        "type": "rich_text_section",
                        "elements": [
                            {
                                "type": "text",
                                "text": "Adrian, I think the next step to understanding your hypothesis is trying to understand the mechanism further on the molecular level.  This may be in one of the papers you posted, but when the Zn is there in the cytoplasm specifically how does it inhibit viral replication in the viruses in the literature?  If this is known, we can look phylogenetically at SARS-COV-2 proteins involved in  that process and see if they are related.  A powerful thing here is because of all the research into SARS-COV-1 we’ve got a leg up on studying some of these things."
                            }
                        ]
                    }
                ]
            }
        ]
    },
    {
        "client_msg_id": "8494fd93-8317-4787-9557-e8b1adf9ae4a",
        "type": "message",
        "text": "Ok I see\n```Using these independent in vitro approaches, we were able to demonstrate that Zn2+ directly impairs nidovirus RNA synthesis, since it had a strong inhibitory effect in both RTC and RdRp assays. (<https:\/\/www.ncbi.nlm.nih.gov\/pmc\/articles\/PMC2973827\/>)```",
        "user": "U0100EPL9RT",
        "ts": "1584202025.028000",
        "team": "TUU48M0T1",
        "user_team": "TUU48M0T1",
        "source_team": "TUU48M0T1",
        "user_profile": {
            "avatar_hash": "gcb426d5e001",
            "image_72": "https:\/\/secure.gravatar.com\/avatar\/cb426d5e001776a4cbc74343e46f1916.jpg?s=72&d=https%3A%2F%2Fa.slack-edge.com%2Fdf10d%2Fimg%2Favatars%2Fava_0000-72.png",
            "first_name": "Zac",
            "real_name": "Zac",
            "display_name": "Zac",
            "team": "TUU48M0T1",
            "name": "zac",
            "is_restricted": false,
            "is_ultra_restricted": false
        },
        "blocks": [
            {
                "type": "rich_text",
                "block_id": "yfaWG",
                "elements": [
                    {
                        "type": "rich_text_section",
                        "elements": [
                            {
                                "type": "text",
                                "text": "Ok I see\n"
                            }
                        ]
                    },
                    {
                        "type": "rich_text_preformatted",
                        "elements": [
                            {
                                "type": "text",
                                "text": "Using these independent in vitro approaches, we were able to demonstrate that Zn2+ directly impairs nidovirus RNA synthesis, since it had a strong inhibitory effect in both RTC and RdRp assays. ("
                            },
                            {
                                "type": "link",
                                "url": "https:\/\/www.ncbi.nlm.nih.gov\/pmc\/articles\/PMC2973827\/"
                            },
                            {
                                "type": "text",
                                "text": ")"
                            }
                        ]
                    }
                ]
            }
        ]
    },
    {
        "client_msg_id": "3a9a137a-4a9b-498f-aae7-ab1e8bb452e9",
        "type": "message",
        "text": "I will look it up in more detail. As I understand it inhibits the activity of the RNA dependent RNA polym.",
        "user": "UVCT4AT54",
        "ts": "1584202032.028100",
        "team": "TUU48M0T1",
        "user_team": "TUU48M0T1",
        "source_team": "TUU48M0T1",
        "user_profile": {
            "avatar_hash": "deae325ec149",
            "image_72": "https:\/\/avatars.slack-edge.com\/2020-03-13\/999319371812_deae325ec1496af7deb8_72.jpg",
            "first_name": "",
            "real_name": "Adrian Pascu",
            "display_name": "Adrian Pascu",
            "team": "TUU48M0T1",
            "name": "ionut.cepleanu",
            "is_restricted": false,
            "is_ultra_restricted": false
        },
        "blocks": [
            {
                "type": "rich_text",
                "block_id": "SJeF",
                "elements": [
                    {
                        "type": "rich_text_section",
                        "elements": [
                            {
                                "type": "text",
                                "text": "I will look it up in more detail. As I understand it inhibits the activity of the RNA dependent RNA polym."
                            }
                        ]
                    }
                ]
            }
        ]
    },
    {
        "client_msg_id": "5cc23369-99e7-4d46-9d33-cd51bc5ef54c",
        "type": "message",
        "text": "Totally, this is a great idea.",
        "user": "U0100EPL9RT",
        "ts": "1584202358.028300",
        "team": "TUU48M0T1",
        "user_team": "TUU48M0T1",
        "source_team": "TUU48M0T1",
        "user_profile": {
            "avatar_hash": "gcb426d5e001",
            "image_72": "https:\/\/secure.gravatar.com\/avatar\/cb426d5e001776a4cbc74343e46f1916.jpg?s=72&d=https%3A%2F%2Fa.slack-edge.com%2Fdf10d%2Fimg%2Favatars%2Fava_0000-72.png",
            "first_name": "Zac",
            "real_name": "Zac",
            "display_name": "Zac",
            "team": "TUU48M0T1",
            "name": "zac",
            "is_restricted": false,
            "is_ultra_restricted": false
        },
        "blocks": [
            {
                "type": "rich_text",
                "block_id": "\/c=rg",
                "elements": [
                    {
                        "type": "rich_text_section",
                        "elements": [
                            {
                                "type": "text",
                                "text": "Totally, this is a great idea."
                            }
                        ]
                    }
                ]
            }
        ],
        "thread_ts": "1584201259.014700",
        "parent_user_id": "UV1A22N3W",
        "reactions": [
            {
                "name": "blush",
                "users": [
                    "UV1A22N3W"
                ],
                "count": 1
            }
        ]
    },
    {
        "client_msg_id": "66202ce9-d6cd-490a-9539-0f35f3c98c9c",
        "type": "message",
        "text": "convalescent sera treatment has been shown to work well in a number of areas.",
        "user": "U0100EPL9RT",
        "ts": "1584202391.028500",
        "team": "TUU48M0T1",
        "user_team": "TUU48M0T1",
        "source_team": "TUU48M0T1",
        "user_profile": {
            "avatar_hash": "gcb426d5e001",
            "image_72": "https:\/\/secure.gravatar.com\/avatar\/cb426d5e001776a4cbc74343e46f1916.jpg?s=72&d=https%3A%2F%2Fa.slack-edge.com%2Fdf10d%2Fimg%2Favatars%2Fava_0000-72.png",
            "first_name": "Zac",
            "real_name": "Zac",
            "display_name": "Zac",
            "team": "TUU48M0T1",
            "name": "zac",
            "is_restricted": false,
            "is_ultra_restricted": false
        },
        "blocks": [
            {
                "type": "rich_text",
                "block_id": "3XZz",
                "elements": [
                    {
                        "type": "rich_text_section",
                        "elements": [
                            {
                                "type": "text",
                                "text": "convalescent sera treatment has been shown to work well in a number of areas."
                            }
                        ]
                    }
                ]
            }
        ],
        "thread_ts": "1584201259.014700",
        "parent_user_id": "UV1A22N3W",
        "reactions": [
            {
                "name": "grinning",
                "users": [
                    "UV1A22N3W"
                ],
                "count": 1
            }
        ]
    },
    {
        "client_msg_id": "bf38506b-a85e-4cb3-954b-e4921b1da196",
        "type": "message",
        "text": "<@U01001VBMFE> I saw your post and I thought I would call your attention to this as a potential idea as well.  A community for doctors and patients creating clinical trials for Cov19 treatments could be powerful.  (Obviously under a  doctor’s care, software could be for coordination and data collection)",
        "user": "U0100EPL9RT",
        "ts": "1584202578.028900",
        "team": "TUU48M0T1",
        "user_team": "TUU48M0T1",
        "source_team": "TUU48M0T1",
        "user_profile": {
            "avatar_hash": "gcb426d5e001",
            "image_72": "https:\/\/secure.gravatar.com\/avatar\/cb426d5e001776a4cbc74343e46f1916.jpg?s=72&d=https%3A%2F%2Fa.slack-edge.com%2Fdf10d%2Fimg%2Favatars%2Fava_0000-72.png",
            "first_name": "Zac",
            "real_name": "Zac",
            "display_name": "Zac",
            "team": "TUU48M0T1",
            "name": "zac",
            "is_restricted": false,
            "is_ultra_restricted": false
        },
        "blocks": [
            {
                "type": "rich_text",
                "block_id": "irKX",
                "elements": [
                    {
                        "type": "rich_text_section",
                        "elements": [
                            {
                                "type": "user",
                                "user_id": "U01001VBMFE"
                            },
                            {
                                "type": "text",
                                "text": " I saw your post and I thought I would call your attention to this as a potential idea as well.  A community for doctors and patients creating clinical trials for Cov19 treatments could be powerful.  (Obviously under a  doctor’s care, software could be for coordination and data collection)"
                            }
                        ]
                    }
                ]
            }
        ],
        "thread_ts": "1584201618.021700",
        "parent_user_id": "U0100EPL9RT"
    },
    {
        "type": "message",
        "subtype": "channel_join",
        "ts": "1584202581.029200",
        "user": "U01001VBMFE",
        "text": "<@U01001VBMFE> has joined the channel",
        "inviter": "U0100EPL9RT"
    },
    {
        "client_msg_id": "0069b452-c8ab-4d6a-b5c2-7927e64690c9",
        "type": "message",
        "text": "\"In contrast to EAV, the effect of Zn2+ on RNA synthesis by SARS-CoV RTCs was not limited to initiation, but appeared to impair the elongation phase as well, given that the addition of Zn2+ completely blocked further incorporation of [α-32P]CMP when added 40 min after the start of the reaction (<https:\/\/www.ncbi.nlm.nih.gov\/pmc\/articles\/PMC2973827\/figure\/ppat-1001176-g006\/|Fig. 6C>).\" Therefore, Zn2+appears to be a specific inhibitor of the initiation phase of EAV RNA synthesis. In contrast, Zn2+ inhibited SARS-CoV RdRp activity also during the elongation phase of RNA synthesis, probably by directly affecting template binding (<https:\/\/www.ncbi.nlm.nih.gov\/pmc\/articles\/PMC2973827\/figure\/ppat-1001176-g008\/|Fig. 8>). In coronaviruses, zinc ions thus appear to inhibit both the proper proteolytic processing of replicase polyproteins <https:\/\/www.ncbi.nlm.nih.gov\/pmc\/articles\/PMC2973827\/#ppat.1001176-Denison1|[23]>, <https:\/\/www.ncbi.nlm.nih.gov\/pmc\/articles\/PMC2973827\/#ppat.1001176-Denison2|[24]> and RdRp activity (this study). Contrary to the RTC assays, millimolar instead of micromolar concentrations of ZnOAc2 were required for a nearly complete inhibition of nucleotide incorporation in RdRp assays..",
        "user": "UVCT4AT54",
        "ts": "1584202692.029400",
        "team": "TUU48M0T1",
        "user_team": "TUU48M0T1",
        "source_team": "TUU48M0T1",
        "user_profile": {
            "avatar_hash": "deae325ec149",
            "image_72": "https:\/\/avatars.slack-edge.com\/2020-03-13\/999319371812_deae325ec1496af7deb8_72.jpg",
            "first_name": "",
            "real_name": "Adrian Pascu",
            "display_name": "Adrian Pascu",
            "team": "TUU48M0T1",
            "name": "ionut.cepleanu",
            "is_restricted": false,
            "is_ultra_restricted": false
        },
        "edited": {
            "user": "UVCT4AT54",
            "ts": "1584202743.000000"
        },
        "blocks": [
            {
                "type": "rich_text",
                "block_id": "WT7Y+",
                "elements": [
                    {
                        "type": "rich_text_section",
                        "elements": [
                            {
                                "type": "text",
                                "text": "\"In contrast to EAV, the effect of Zn2+ on RNA synthesis by SARS-CoV RTCs was not limited to initiation, but appeared to impair the elongation phase as well, given that the addition of Zn2+ completely blocked further incorporation of [α-32P]CMP when added 40 min after the start of the reaction ("
                            },
                            {
                                "type": "link",
                                "url": "https:\/\/www.ncbi.nlm.nih.gov\/pmc\/articles\/PMC2973827\/figure\/ppat-1001176-g006\/",
                                "text": "Fig. 6C"
                            },
                            {
                                "type": "text",
                                "text": ").\" Therefore, Zn2+appears to be a specific inhibitor of the initiation phase of EAV RNA synthesis. In contrast, Zn2+ inhibited SARS-CoV RdRp activity also during the elongation phase of RNA synthesis, probably by directly affecting template binding ("
                            },
                            {
                                "type": "link",
                                "url": "https:\/\/www.ncbi.nlm.nih.gov\/pmc\/articles\/PMC2973827\/figure\/ppat-1001176-g008\/",
                                "text": "Fig. 8"
                            },
                            {
                                "type": "text",
                                "text": "). In coronaviruses, zinc ions thus appear to inhibit both the proper proteolytic processing of replicase polyproteins "
                            },
                            {
                                "type": "link",
                                "url": "https:\/\/www.ncbi.nlm.nih.gov\/pmc\/articles\/PMC2973827\/#ppat.1001176-Denison1",
                                "text": "[23]"
                            },
                            {
                                "type": "text",
                                "text": ", "
                            },
                            {
                                "type": "link",
                                "url": "https:\/\/www.ncbi.nlm.nih.gov\/pmc\/articles\/PMC2973827\/#ppat.1001176-Denison2",
                                "text": "[24]"
                            },
                            {
                                "type": "text",
                                "text": " and RdRp activity (this study). Contrary to the RTC assays, millimolar instead of micromolar concentrations of ZnOAc2 were required for a nearly complete inhibition of nucleotide incorporation in RdRp assays.."
                            }
                        ]
                    }
                ]
            }
        ]
    },
    {
        "client_msg_id": "316c79bd-0af9-4c64-8949-e419cb9bc142",
        "type": "message",
        "text": "It apperas that Zn even in small conc. in cytoplasm for Coronavirus used in this study suppresses bot elongation and binding of the Rna dependent Rna polym to the template.",
        "user": "UVCT4AT54",
        "ts": "1584202846.031400",
        "team": "TUU48M0T1",
        "user_team": "TUU48M0T1",
        "source_team": "TUU48M0T1",
        "user_profile": {
            "avatar_hash": "deae325ec149",
            "image_72": "https:\/\/avatars.slack-edge.com\/2020-03-13\/999319371812_deae325ec1496af7deb8_72.jpg",
            "first_name": "",
            "real_name": "Adrian Pascu",
            "display_name": "Adrian Pascu",
            "team": "TUU48M0T1",
            "name": "ionut.cepleanu",
            "is_restricted": false,
            "is_ultra_restricted": false
        },
        "blocks": [
            {
                "type": "rich_text",
                "block_id": "GD9",
                "elements": [
                    {
                        "type": "rich_text_section",
                        "elements": [
                            {
                                "type": "text",
                                "text": "It apperas that Zn even in small conc. in cytoplasm for Coronavirus used in this study suppresses bot elongation and binding of the Rna dependent Rna polym to the template."
                            }
                        ]
                    }
                ]
            }
        ]
    },
    {
        "type": "message",
        "text": "Of course...like any good scientist I am more than willing to try this \"novel\" treatment on myself If I test positive in some way.  I will risk it for the greater good! I have no idea what this will do to me..... seems risky...but yeah...",
        "files": [
            {
                "id": "FV1NXBZJN",
                "created": 1584203586,
                "timestamp": 1584203586,
                "name": "IMG_5990.JPG",
                "title": "IMG_5990.JPG",
                "mimetype": "image\/jpeg",
                "filetype": "jpg",
                "pretty_type": "JPEG",
                "user": "UVCT4AT54",
                "editable": false,
                "size": 2107569,
                "mode": "hosted",
                "is_external": false,
                "external_type": "",
                "is_public": true,
                "public_url_shared": false,
                "display_as_bot": false,
                "username": "",
                "url_private": "https:\/\/files.slack.com\/files-pri\/TUU48M0T1-FV1NXBZJN\/img_5990.jpg?t=xoxe-980144714919-1106606678066-1105227127893-6f722bb664235052954ad46852628b64",
                "url_private_download": "https:\/\/files.slack.com\/files-pri\/TUU48M0T1-FV1NXBZJN\/download\/img_5990.jpg?t=xoxe-980144714919-1106606678066-1105227127893-6f722bb664235052954ad46852628b64",
                "thumb_64": "https:\/\/files.slack.com\/files-tmb\/TUU48M0T1-FV1NXBZJN-1afbbc4742\/img_5990_64.jpg?t=xoxe-980144714919-1106606678066-1105227127893-6f722bb664235052954ad46852628b64",
                "thumb_80": "https:\/\/files.slack.com\/files-tmb\/TUU48M0T1-FV1NXBZJN-1afbbc4742\/img_5990_80.jpg?t=xoxe-980144714919-1106606678066-1105227127893-6f722bb664235052954ad46852628b64",
                "thumb_360": "https:\/\/files.slack.com\/files-tmb\/TUU48M0T1-FV1NXBZJN-1afbbc4742\/img_5990_360.jpg?t=xoxe-980144714919-1106606678066-1105227127893-6f722bb664235052954ad46852628b64",
                "thumb_360_w": 270,
                "thumb_360_h": 360,
                "thumb_480": "https:\/\/files.slack.com\/files-tmb\/TUU48M0T1-FV1NXBZJN-1afbbc4742\/img_5990_480.jpg?t=xoxe-980144714919-1106606678066-1105227127893-6f722bb664235052954ad46852628b64",
                "thumb_480_w": 360,
                "thumb_480_h": 480,
                "thumb_160": "https:\/\/files.slack.com\/files-tmb\/TUU48M0T1-FV1NXBZJN-1afbbc4742\/img_5990_160.jpg?t=xoxe-980144714919-1106606678066-1105227127893-6f722bb664235052954ad46852628b64",
                "thumb_720": "https:\/\/files.slack.com\/files-tmb\/TUU48M0T1-FV1NXBZJN-1afbbc4742\/img_5990_720.jpg?t=xoxe-980144714919-1106606678066-1105227127893-6f722bb664235052954ad46852628b64",
                "thumb_720_w": 540,
                "thumb_720_h": 720,
                "thumb_800": "https:\/\/files.slack.com\/files-tmb\/TUU48M0T1-FV1NXBZJN-1afbbc4742\/img_5990_800.jpg?t=xoxe-980144714919-1106606678066-1105227127893-6f722bb664235052954ad46852628b64",
                "thumb_800_w": 800,
                "thumb_800_h": 1067,
                "thumb_960": "https:\/\/files.slack.com\/files-tmb\/TUU48M0T1-FV1NXBZJN-1afbbc4742\/img_5990_960.jpg?t=xoxe-980144714919-1106606678066-1105227127893-6f722bb664235052954ad46852628b64",
                "thumb_960_w": 720,
                "thumb_960_h": 960,
                "thumb_1024": "https:\/\/files.slack.com\/files-tmb\/TUU48M0T1-FV1NXBZJN-1afbbc4742\/img_5990_1024.jpg?t=xoxe-980144714919-1106606678066-1105227127893-6f722bb664235052954ad46852628b64",
                "thumb_1024_w": 768,
                "thumb_1024_h": 1024,
                "image_exif_rotation": 6,
                "original_w": 4032,
                "original_h": 3024,
                "thumb_tiny": "AwAwACSMACIg4zU9rcrFCEwWbJ4FRBFdzuJ44xSOixZ25FCelimaUUu\/qNp9M5qSsuOVtpK8HHFWkvosAOWDY5+WgktUVB9rg\/56foaX7XB\/z0H5GgCmhCsSNuc8k06cq8bbTnHNVEYncQMnPpVyLcyEP1NTsVuyvArN9Ka2AxVkDEcZyaj3srYyeDStjfnjH07GqIuPAQ5wh\/76NLsT+4f++\/8A61RgIQNzAEeho2xf3v1pjHx4BI9asI6JyWAqJIto3Py38qTC5+6KkoGjEshaM49yKGtJjyJQamRunFWAOKBGe9tPu6A8D0pPs0\/90fkK0cUlFwsf\/9k=",
                "permalink": "https:\/\/open-covid19.slack.com\/files\/UVCT4AT54\/FV1NXBZJN\/img_5990.jpg",
                "permalink_public": "https:\/\/slack-files.com\/TUU48M0T1-FV1NXBZJN-7158f805b8",
                "is_starred": false,
                "has_rich_preview": false
            }
        ],
        "upload": true,
        "blocks": [
            {
                "type": "rich_text",
                "block_id": "qnMW",
                "elements": [
                    {
                        "type": "rich_text_section",
                        "elements": [
                            {
                                "type": "text",
                                "text": "Of course...like any good scientist I am more than willing to try this \"novel\" treatment on myself If I test positive in some way.  I will risk it for the greater good! I have no idea what this will do to me..... seems risky...but yeah..."
                            }
                        ]
                    }
                ]
            }
        ],
        "user": "UVCT4AT54",
        "display_as_bot": false,
        "ts": "1584203594.031900",
        "client_msg_id": "51f7211c-4826-4615-8813-2298ded7ecaf",
        "thread_ts": "1584199656.006800",
        "parent_user_id": "UVCT4AT54",
        "reactions": [
            {
                "name": "joy",
                "users": [
                    "U0100EPL9RT"
                ],
                "count": 1
            }
        ]
    },
    {
        "client_msg_id": "0226ceea-f3be-4353-8765-c0c0fb96231f",
        "type": "message",
        "text": "This is super interesting.",
        "user": "U0100EPL9RT",
        "ts": "1584205351.032700",
        "team": "TUU48M0T1",
        "user_team": "TUU48M0T1",
        "source_team": "TUU48M0T1",
        "user_profile": {
            "avatar_hash": "gcb426d5e001",
            "image_72": "https:\/\/secure.gravatar.com\/avatar\/cb426d5e001776a4cbc74343e46f1916.jpg?s=72&d=https%3A%2F%2Fa.slack-edge.com%2Fdf10d%2Fimg%2Favatars%2Fava_0000-72.png",
            "first_name": "Zac",
            "real_name": "Zac",
            "display_name": "Zac",
            "team": "TUU48M0T1",
            "name": "zac",
            "is_restricted": false,
            "is_ultra_restricted": false
        },
        "blocks": [
            {
                "type": "rich_text",
                "block_id": "G4K5b",
                "elements": [
                    {
                        "type": "rich_text_section",
                        "elements": [
                            {
                                "type": "text",
                                "text": "This is super interesting."
                            }
                        ]
                    }
                ]
            }
        ]
    },
    {
        "type": "message",
        "subtype": "channel_join",
        "ts": "1584207295.032900",
        "user": "UV2T73S5R",
        "text": "<@UV2T73S5R> has joined the channel"
    },
    {
        "type": "message",
        "subtype": "channel_join",
        "ts": "1584208583.033100",
        "user": "UVAB15FU0",
        "text": "<@UVAB15FU0> has joined the channel"
    },
    {
        "client_msg_id": "31cb3617-9e25-4c3c-b3e0-8874aa567506",
        "type": "message",
        "text": "<@UVCT4AT54> you can eat this with confidence.  My multivitamin I take every day has both Quercetin and Zinc in it and I’m still breathing.  <https:\/\/www.iherb.com\/pr\/Nature-s-Plus-Source-of-Life-Multi-Vitamin-Mineral-Supplement-with-Whole-Food-Concentrates-180-Tablets\/7517>",
        "user": "U0100EPL9RT",
        "ts": "1584216096.033200",
        "team": "TUU48M0T1",
        "user_team": "TUU48M0T1",
        "source_team": "TUU48M0T1",
        "user_profile": {
            "avatar_hash": "gcb426d5e001",
            "image_72": "https:\/\/secure.gravatar.com\/avatar\/cb426d5e001776a4cbc74343e46f1916.jpg?s=72&d=https%3A%2F%2Fa.slack-edge.com%2Fdf10d%2Fimg%2Favatars%2Fava_0000-72.png",
            "first_name": "Zac",
            "real_name": "Zac",
            "display_name": "Zac",
            "team": "TUU48M0T1",
            "name": "zac",
            "is_restricted": false,
            "is_ultra_restricted": false
        },
        "blocks": [
            {
                "type": "rich_text",
                "block_id": "oVLeG",
                "elements": [
                    {
                        "type": "rich_text_section",
                        "elements": [
                            {
                                "type": "user",
                                "user_id": "UVCT4AT54"
                            },
                            {
                                "type": "text",
                                "text": " you can eat this with confidence.  My multivitamin I take every day has both Quercetin and Zinc in it and I’m still breathing.  "
                            },
                            {
                                "type": "link",
                                "url": "https:\/\/www.iherb.com\/pr\/Nature-s-Plus-Source-of-Life-Multi-Vitamin-Mineral-Supplement-with-Whole-Food-Concentrates-180-Tablets\/7517"
                            }
                        ]
                    }
                ]
            }
        ],
        "thread_ts": "1584199656.006800",
        "parent_user_id": "UVCT4AT54"
    },
    {
        "client_msg_id": "9e1cc57a-bd88-430f-9dce-936e90947bed",
        "type": "message",
        "text": "I’ve been taking this for years now apparently.",
        "user": "U0100EPL9RT",
        "ts": "1584216129.033400",
        "team": "TUU48M0T1",
        "user_team": "TUU48M0T1",
        "source_team": "TUU48M0T1",
        "user_profile": {
            "avatar_hash": "gcb426d5e001",
            "image_72": "https:\/\/secure.gravatar.com\/avatar\/cb426d5e001776a4cbc74343e46f1916.jpg?s=72&d=https%3A%2F%2Fa.slack-edge.com%2Fdf10d%2Fimg%2Favatars%2Fava_0000-72.png",
            "first_name": "Zac",
            "real_name": "Zac",
            "display_name": "Zac",
            "team": "TUU48M0T1",
            "name": "zac",
            "is_restricted": false,
            "is_ultra_restricted": false
        },
        "blocks": [
            {
                "type": "rich_text",
                "block_id": "HY3o",
                "elements": [
                    {
                        "type": "rich_text_section",
                        "elements": [
                            {
                                "type": "text",
                                "text": "I’ve been taking this for years now apparently."
                            }
                        ]
                    }
                ]
            }
        ],
        "thread_ts": "1584199656.006800",
        "parent_user_id": "UVCT4AT54"
    },
    {
        "client_msg_id": "3db4f089-ea1f-4343-a736-c40cff249bf1",
        "type": "message",
        "text": "I wonder what effective dosage is.",
        "user": "U0100EPL9RT",
        "ts": "1584216137.033600",
        "team": "TUU48M0T1",
        "user_team": "TUU48M0T1",
        "source_team": "TUU48M0T1",
        "user_profile": {
            "avatar_hash": "gcb426d5e001",
            "image_72": "https:\/\/secure.gravatar.com\/avatar\/cb426d5e001776a4cbc74343e46f1916.jpg?s=72&d=https%3A%2F%2Fa.slack-edge.com%2Fdf10d%2Fimg%2Favatars%2Fava_0000-72.png",
            "first_name": "Zac",
            "real_name": "Zac",
            "display_name": "Zac",
            "team": "TUU48M0T1",
            "name": "zac",
            "is_restricted": false,
            "is_ultra_restricted": false
        },
        "blocks": [
            {
                "type": "rich_text",
                "block_id": "Wju",
                "elements": [
                    {
                        "type": "rich_text_section",
                        "elements": [
                            {
                                "type": "text",
                                "text": "I wonder what effective dosage is."
                            }
                        ]
                    }
                ]
            }
        ],
        "thread_ts": "1584199656.006800",
        "parent_user_id": "UVCT4AT54"
    },
    {
        "client_msg_id": "7f4fed7f-6a52-474f-ae4d-a73d9ab57dc3",
        "type": "message",
        "text": "I was being sarcastic about the risks. I have no idea even if it works. Will probably read every bit of these studies and try to find others but about the optimum dosage (if it even has an effect) we cannot say probably without a trial . I think.. This may be too simple to work though..Zn supplementation..lol",
        "user": "UVCT4AT54",
        "ts": "1584217592.033900",
        "team": "TUU48M0T1",
        "user_team": "TUU48M0T1",
        "source_team": "TUU48M0T1",
        "user_profile": {
            "avatar_hash": "deae325ec149",
            "image_72": "https:\/\/avatars.slack-edge.com\/2020-03-13\/999319371812_deae325ec1496af7deb8_72.jpg",
            "first_name": "",
            "real_name": "Adrian Pascu",
            "display_name": "Adrian Pascu",
            "team": "TUU48M0T1",
            "name": "ionut.cepleanu",
            "is_restricted": false,
            "is_ultra_restricted": false
        },
        "blocks": [
            {
                "type": "rich_text",
                "block_id": "ChAk",
                "elements": [
                    {
                        "type": "rich_text_section",
                        "elements": [
                            {
                                "type": "text",
                                "text": "I was being sarcastic about the risks. I have no idea even if it works. Will probably read every bit of these studies and try to find others but about the optimum dosage (if it even has an effect) we cannot say probably without a trial . I think.. This may be too simple to work though..Zn supplementation..lol"
                            }
                        ]
                    }
                ]
            }
        ],
        "thread_ts": "1584199656.006800",
        "parent_user_id": "UVCT4AT54"
    },
    {
        "type": "message",
        "subtype": "channel_join",
        "ts": "1584224864.034400",
        "user": "U01009BMH52",
        "text": "<@U01009BMH52> has joined the channel"
    },
    {
        "type": "message",
        "subtype": "channel_join",
        "ts": "1584232178.034600",
        "user": "UVC39L18D",
        "text": "<@UVC39L18D> has joined the channel"
    }
]