[
    {
        "type": "message",
        "subtype": "channel_join",
        "ts": "1584727064.001200",
        "user": "UV0QTJCMT",
        "text": "<@UV0QTJCMT> has joined the channel"
    },
    {
        "type": "message",
        "subtype": "channel_archive",
        "ts": "1584727079.001300",
        "user": "UV0QTJCMT",
        "text": "<@UV0QTJCMT> archived the channel"
    }
]