[
    {
        "client_msg_id": "33fc5837-99b4-4214-a41b-dc1c78996b73",
        "type": "message",
        "text": "<!channel> Amyone know someone in the Chicago area with experience as a supervisor in a CLIA certified lab?",
        "user": "UV10KBUQG",
        "ts": "1586562885.002000",
        "team": "TUU48M0T1",
        "user_team": "TUU48M0T1",
        "source_team": "TUU48M0T1",
        "user_profile": {
            "avatar_hash": "2deebbf6be3d",
            "image_72": "https:\/\/avatars.slack-edge.com\/2020-03-06\/976932190641_2deebbf6be3d17141d91_72.jpg",
            "first_name": "Sarah",
            "real_name": "Sarah Blossom Ware",
            "display_name": "Sarah Blossom Ware - BioBlaze Community Bio Lab",
            "team": "TUU48M0T1",
            "name": "ware.sarah",
            "is_restricted": false,
            "is_ultra_restricted": false
        },
        "blocks": [
            {
                "type": "rich_text",
                "block_id": "KEBj",
                "elements": [
                    {
                        "type": "rich_text_section",
                        "elements": [
                            {
                                "type": "broadcast",
                                "range": "channel"
                            },
                            {
                                "type": "text",
                                "text": " Amyone know someone in the Chicago area with experience as a supervisor in a CLIA certified lab?"
                            }
                        ]
                    }
                ]
            }
        ]
    }
]