[
    {
        "type": "message",
        "subtype": "channel_join",
        "ts": "1587158919.000200",
        "user": "U010Q3372P3",
        "text": "<@U010Q3372P3> has joined the channel"
    },
    {
        "type": "message",
        "subtype": "channel_join",
        "ts": "1587159034.000400",
        "user": "U010W4KTANM",
        "text": "<@U010W4KTANM> has joined the channel"
    }
]