[
    {
        "client_msg_id": "08f7dcda-312b-443c-ba2e-cd54ada5e01d",
        "type": "message",
        "text": "The mHub manufacturing accelerator in Chicago is putting together a team to work on building and funding low-cost ventilators; OpenCOVID19 people should reach out and connect with them! <https:\/\/cprcovid19.com\/blog\/31727>",
        "user": "UUNGFHSV8",
        "ts": "1584718866.000200",
        "team": "TUU48M0T1",
        "user_team": "TUU48M0T1",
        "source_team": "TUU48M0T1",
        "user_profile": {
            "avatar_hash": "1c55ee32397a",
            "image_72": "https:\/\/avatars.slack-edge.com\/2020-03-07\/987349161984_1c55ee32397a85a87ec4_72.png",
            "first_name": "Isaac",
            "real_name": "Isaac Larkin",
            "display_name": "Isaac Larkin",
            "team": "TUU48M0T1",
            "name": "eyesmo",
            "is_restricted": false,
            "is_ultra_restricted": false
        },
        "blocks": [
            {
                "type": "rich_text",
                "block_id": "D=m",
                "elements": [
                    {
                        "type": "rich_text_section",
                        "elements": [
                            {
                                "type": "text",
                                "text": "The mHub manufacturing accelerator in Chicago is putting together a team to work on building and funding low-cost ventilators; OpenCOVID19 people should reach out and connect with them! "
                            },
                            {
                                "type": "link",
                                "url": "https:\/\/cprcovid19.com\/blog\/31727"
                            }
                        ]
                    }
                ]
            }
        ],
        "thread_ts": "1584718866.000200",
        "reply_count": 2,
        "reply_users_count": 2,
        "latest_reply": "1584754865.000600",
        "reply_users": [
            "UV78JAX0S",
            "UUNGFHSV8"
        ],
        "replies": [
            {
                "user": "UV78JAX0S",
                "ts": "1584754181.000300"
            },
            {
                "user": "UUNGFHSV8",
                "ts": "1584754865.000600"
            }
        ],
        "subscribed": false
    },
    {
        "client_msg_id": "bd3f852e-8f03-49c3-bc4f-39c5925d16a7",
        "type": "message",
        "text": "have you passed this message along to the relevant channel\/projects working on these things?",
        "user": "UV78JAX0S",
        "ts": "1584754181.000300",
        "team": "TUU48M0T1",
        "user_team": "TUU48M0T1",
        "source_team": "TUU48M0T1",
        "user_profile": {
            "avatar_hash": "ab643489965e",
            "image_72": "https:\/\/avatars.slack-edge.com\/2020-03-17\/996174739571_ab643489965e0031c49d_72.png",
            "first_name": "Khalid",
            "real_name": "Khalid K. Alam",
            "display_name": "Khalid K. Alam",
            "team": "TUU48M0T1",
            "name": "khalid",
            "is_restricted": false,
            "is_ultra_restricted": false
        },
        "blocks": [
            {
                "type": "rich_text",
                "block_id": "ybBS7",
                "elements": [
                    {
                        "type": "rich_text_section",
                        "elements": [
                            {
                                "type": "text",
                                "text": "have you passed this message along to the relevant channel\/projects working on these things?"
                            }
                        ]
                    }
                ]
            }
        ],
        "thread_ts": "1584718866.000200",
        "parent_user_id": "UUNGFHSV8"
    },
    {
        "client_msg_id": "F342D756-6713-411F-9ABD-749763C2132E",
        "type": "message",
        "text": "Yep!",
        "user": "UUNGFHSV8",
        "ts": "1584754865.000600",
        "team": "TUU48M0T1",
        "user_team": "TUU48M0T1",
        "source_team": "TUU48M0T1",
        "user_profile": {
            "avatar_hash": "1c55ee32397a",
            "image_72": "https:\/\/avatars.slack-edge.com\/2020-03-07\/987349161984_1c55ee32397a85a87ec4_72.png",
            "first_name": "Isaac",
            "real_name": "Isaac Larkin",
            "display_name": "Isaac Larkin",
            "team": "TUU48M0T1",
            "name": "eyesmo",
            "is_restricted": false,
            "is_ultra_restricted": false
        },
        "blocks": [
            {
                "type": "rich_text",
                "block_id": "qgz",
                "elements": [
                    {
                        "type": "rich_text_section",
                        "elements": [
                            {
                                "type": "text",
                                "text": "Yep!"
                            }
                        ]
                    }
                ]
            }
        ],
        "thread_ts": "1584718866.000200",
        "parent_user_id": "UUNGFHSV8"
    }
]