[
    {
        "client_msg_id": "5e633a29-afa7-4d39-83d7-870591024b79",
        "type": "message",
        "text": "<@UV10KBUQG> Do you know Justin from the end of today’s com. call?  How can we follow him, what’s his name and lab name?",
        "user": "UUWSJTQ67",
        "ts": "1584554542.001300",
        "team": "TUU48M0T1",
        "user_team": "TUU48M0T1",
        "source_team": "TUU48M0T1",
        "user_profile": {
            "avatar_hash": "gde149e5dcc8",
            "image_72": "https:\/\/secure.gravatar.com\/avatar\/de149e5dcc80dc75132c77f4b3981257.jpg?s=72&d=https%3A%2F%2Fa.slack-edge.com%2Fdf10d%2Fimg%2Favatars%2Fava_0019-72.png",
            "first_name": "",
            "real_name": "Michael Valipour",
            "display_name": "Michael Valipour",
            "team": "TUU48M0T1",
            "name": "michael.valipour",
            "is_restricted": false,
            "is_ultra_restricted": false
        },
        "blocks": [
            {
                "type": "rich_text",
                "block_id": "wivX",
                "elements": [
                    {
                        "type": "rich_text_section",
                        "elements": [
                            {
                                "type": "user",
                                "user_id": "UV10KBUQG"
                            },
                            {
                                "type": "text",
                                "text": " Do you know Justin from the end of today’s com. call?  How can we follow him, what’s his name and lab name?"
                            }
                        ]
                    }
                ]
            }
        ],
        "thread_ts": "1584554542.001300",
        "reply_count": 1,
        "reply_users_count": 1,
        "latest_reply": "1584675820.000100",
        "reply_users": [
            "UV10KBUQG"
        ],
        "replies": [
            {
                "user": "UV10KBUQG",
                "ts": "1584675820.000100"
            }
        ],
        "subscribed": false
    },
    {
        "client_msg_id": "1bf5f16d-b246-46c7-b7a1-c7a292e1a2e8",
        "type": "message",
        "text": "His youtube channel and twitter account is Thought Emporium",
        "user": "UUNGFHSV8",
        "ts": "1584555061.001700",
        "team": "TUU48M0T1",
        "user_team": "TUU48M0T1",
        "source_team": "TUU48M0T1",
        "user_profile": {
            "avatar_hash": "1c55ee32397a",
            "image_72": "https:\/\/avatars.slack-edge.com\/2020-03-07\/987349161984_1c55ee32397a85a87ec4_72.png",
            "first_name": "Isaac",
            "real_name": "Isaac Larkin",
            "display_name": "Isaac Larkin",
            "team": "TUU48M0T1",
            "name": "eyesmo",
            "is_restricted": false,
            "is_ultra_restricted": false
        },
        "blocks": [
            {
                "type": "rich_text",
                "block_id": "0QQ",
                "elements": [
                    {
                        "type": "rich_text_section",
                        "elements": [
                            {
                                "type": "text",
                                "text": "His youtube channel and twitter account is Thought Emporium"
                            }
                        ]
                    }
                ]
            }
        ]
    },
    {
        "client_msg_id": "0ec5c59f-fa7a-43ae-a003-4e6dd560a607",
        "type": "message",
        "text": "TYVM Isaac!",
        "user": "UUWSJTQ67",
        "ts": "1584555174.002000",
        "team": "TUU48M0T1",
        "user_team": "TUU48M0T1",
        "source_team": "TUU48M0T1",
        "user_profile": {
            "avatar_hash": "gde149e5dcc8",
            "image_72": "https:\/\/secure.gravatar.com\/avatar\/de149e5dcc80dc75132c77f4b3981257.jpg?s=72&d=https%3A%2F%2Fa.slack-edge.com%2Fdf10d%2Fimg%2Favatars%2Fava_0019-72.png",
            "first_name": "",
            "real_name": "Michael Valipour",
            "display_name": "Michael Valipour",
            "team": "TUU48M0T1",
            "name": "michael.valipour",
            "is_restricted": false,
            "is_ultra_restricted": false
        },
        "blocks": [
            {
                "type": "rich_text",
                "block_id": "mcBX3",
                "elements": [
                    {
                        "type": "rich_text_section",
                        "elements": [
                            {
                                "type": "text",
                                "text": "TYVM Isaac!"
                            }
                        ]
                    }
                ]
            }
        ]
    },
    {
        "client_msg_id": "86980ac5-04fe-455a-a3b0-5888dea944d8",
        "type": "message",
        "text": "Oh, this is Gabe’s friend :man-facepalming:  Missed where he was from haha",
        "user": "UUWSJTQ67",
        "ts": "1584555599.002700",
        "team": "TUU48M0T1",
        "user_team": "TUU48M0T1",
        "source_team": "TUU48M0T1",
        "user_profile": {
            "avatar_hash": "gde149e5dcc8",
            "image_72": "https:\/\/secure.gravatar.com\/avatar\/de149e5dcc80dc75132c77f4b3981257.jpg?s=72&d=https%3A%2F%2Fa.slack-edge.com%2Fdf10d%2Fimg%2Favatars%2Fava_0019-72.png",
            "first_name": "",
            "real_name": "Michael Valipour",
            "display_name": "Michael Valipour",
            "team": "TUU48M0T1",
            "name": "michael.valipour",
            "is_restricted": false,
            "is_ultra_restricted": false
        },
        "blocks": [
            {
                "type": "rich_text",
                "block_id": "Z2HF",
                "elements": [
                    {
                        "type": "rich_text_section",
                        "elements": [
                            {
                                "type": "text",
                                "text": "Oh, this is Gabe’s friend "
                            },
                            {
                                "type": "emoji",
                                "name": "man-facepalming"
                            },
                            {
                                "type": "text",
                                "text": "  Missed where he was from haha"
                            }
                        ]
                    }
                ]
            }
        ]
    },
    {
        "type": "message",
        "subtype": "channel_join",
        "ts": "1584562534.003000",
        "user": "UV8FL0JCA",
        "text": "<@UV8FL0JCA> has joined the channel"
    },
    {
        "client_msg_id": "c8787050-5a5d-458b-8e60-7214b926352e",
        "type": "message",
        "text": "Hi all! I live in Brooklyn normally, but I’m here in Chicago staying with family to wait out the COVID-19 storm. I’m interested in helping with local efforts here if I can. I put together my own image-heavy summary document of open source COVID-19 solutions in order to facilitate quick discussion with the medical community. Because I know they’re very short on time, so I figured images would be much easier to skim to get a sense of what’s out there. <https:\/\/docs.google.com\/document\/d\/1DczBWaHiMBxT4umAzhgwTpK5ldzxBYP7MwfbBu_4I_U\/edit#heading=h.u90jt5a56zn6>",
        "user": "UV8FL0JCA",
        "ts": "1584563376.008000",
        "team": "TUU48M0T1",
        "user_team": "TUU48M0T1",
        "source_team": "TUU48M0T1",
        "user_profile": {
            "avatar_hash": "920c820f5900",
            "image_72": "https:\/\/avatars.slack-edge.com\/2020-03-17\/1009529536646_920c820f5900215fb339_72.jpg",
            "first_name": "Eric",
            "real_name": "Eric Chaves",
            "display_name": "Eric Chaves",
            "team": "TUU48M0T1",
            "name": "eric.chaves.llc",
            "is_restricted": false,
            "is_ultra_restricted": false
        },
        "blocks": [
            {
                "type": "rich_text",
                "block_id": "3QBi+",
                "elements": [
                    {
                        "type": "rich_text_section",
                        "elements": [
                            {
                                "type": "text",
                                "text": "Hi all! I live in Brooklyn normally, but I’m here in Chicago staying with family to wait out the COVID-19 storm. I’m interested in helping with local efforts here if I can. I put together my own image-heavy summary document of open source COVID-19 solutions in order to facilitate quick discussion with the medical community. Because I know they’re very short on time, so I figured images would be much easier to skim to get a sense of what’s out there. "
                            },
                            {
                                "type": "link",
                                "url": "https:\/\/docs.google.com\/document\/d\/1DczBWaHiMBxT4umAzhgwTpK5ldzxBYP7MwfbBu_4I_U\/edit#heading=h.u90jt5a56zn6"
                            }
                        ]
                    }
                ]
            }
        ],
        "thread_ts": "1584563376.008000",
        "reply_count": 24,
        "reply_users_count": 4,
        "latest_reply": "1584909849.003100",
        "reply_users": [
            "UV78JAX0S",
            "UV8FL0JCA",
            "UV10KBUQG",
            "UV6870881"
        ],
        "replies": [
            {
                "user": "UV78JAX0S",
                "ts": "1584564520.008200"
            },
            {
                "user": "UV8FL0JCA",
                "ts": "1584567240.008400"
            },
            {
                "user": "UV8FL0JCA",
                "ts": "1584567285.008600"
            },
            {
                "user": "UV10KBUQG",
                "ts": "1584664459.001600"
            },
            {
                "user": "UV6870881",
                "ts": "1584802168.000300"
            },
            {
                "user": "UV78JAX0S",
                "ts": "1584811695.000500"
            },
            {
                "user": "UV6870881",
                "ts": "1584813586.000900"
            },
            {
                "user": "UV78JAX0S",
                "ts": "1584813631.001100"
            },
            {
                "user": "UV78JAX0S",
                "ts": "1584813663.001300"
            },
            {
                "user": "UV6870881",
                "ts": "1584813762.001500"
            },
            {
                "user": "UV78JAX0S",
                "ts": "1584813811.001700"
            },
            {
                "user": "UV6870881",
                "ts": "1584813920.001900"
            },
            {
                "user": "UV78JAX0S",
                "ts": "1584814049.002100"
            },
            {
                "user": "UV6870881",
                "ts": "1584814208.002300"
            },
            {
                "user": "UV6870881",
                "ts": "1584814288.002500"
            },
            {
                "user": "UV78JAX0S",
                "ts": "1584825424.002700"
            },
            {
                "user": "UV78JAX0S",
                "ts": "1584825457.002900"
            },
            {
                "user": "UV78JAX0S",
                "ts": "1584825501.003100"
            },
            {
                "user": "UV78JAX0S",
                "ts": "1584825526.003300"
            },
            {
                "user": "UV78JAX0S",
                "ts": "1584825541.003500"
            },
            {
                "user": "UV6870881",
                "ts": "1584825800.003700"
            },
            {
                "user": "UV10KBUQG",
                "ts": "1584902908.002700"
            },
            {
                "user": "UV6870881",
                "ts": "1584904639.002900"
            },
            {
                "user": "UV10KBUQG",
                "ts": "1584909849.003100"
            }
        ],
        "subscribed": false
    },
    {
        "client_msg_id": "134d0ea4-2b5a-49ca-8f9b-2568cebb73b6",
        "type": "message",
        "text": "Hi Eric - many of us here are with either BioBlaze, ChiTownBio, or both!",
        "user": "UV78JAX0S",
        "ts": "1584564520.008200",
        "team": "TUU48M0T1",
        "user_team": "TUU48M0T1",
        "source_team": "TUU48M0T1",
        "user_profile": {
            "avatar_hash": "ab643489965e",
            "image_72": "https:\/\/avatars.slack-edge.com\/2020-03-17\/996174739571_ab643489965e0031c49d_72.png",
            "first_name": "Khalid",
            "real_name": "Khalid K. Alam",
            "display_name": "Khalid K. Alam",
            "team": "TUU48M0T1",
            "name": "khalid",
            "is_restricted": false,
            "is_ultra_restricted": false
        },
        "blocks": [
            {
                "type": "rich_text",
                "block_id": "dFg",
                "elements": [
                    {
                        "type": "rich_text_section",
                        "elements": [
                            {
                                "type": "text",
                                "text": "Hi Eric - many of us here are with either BioBlaze, ChiTownBio, or both!"
                            }
                        ]
                    }
                ]
            }
        ],
        "thread_ts": "1584563376.008000",
        "parent_user_id": "UV8FL0JCA"
    },
    {
        "client_msg_id": "a43a938a-95b6-4fc3-80f2-fea746aa409d",
        "type": "message",
        "text": "Very cool! Thanks <@UV78JAX0S>. I’m just now skimming through the <#CVD4RHKDF|proj-ventilator> and <#C01037HNAK1|prgm-hardware-team> channels. Please let me know if you have any other suggestions for how we can prevent Chicago from running out of critical supplies in the weeks to come.",
        "user": "UV8FL0JCA",
        "ts": "1584567240.008400",
        "team": "TUU48M0T1",
        "user_team": "TUU48M0T1",
        "source_team": "TUU48M0T1",
        "user_profile": {
            "avatar_hash": "920c820f5900",
            "image_72": "https:\/\/avatars.slack-edge.com\/2020-03-17\/1009529536646_920c820f5900215fb339_72.jpg",
            "first_name": "Eric",
            "real_name": "Eric Chaves",
            "display_name": "Eric Chaves",
            "team": "TUU48M0T1",
            "name": "eric.chaves.llc",
            "is_restricted": false,
            "is_ultra_restricted": false
        },
        "blocks": [
            {
                "type": "rich_text",
                "block_id": "POx",
                "elements": [
                    {
                        "type": "rich_text_section",
                        "elements": [
                            {
                                "type": "text",
                                "text": "Very cool! Thanks "
                            },
                            {
                                "type": "user",
                                "user_id": "UV78JAX0S"
                            },
                            {
                                "type": "text",
                                "text": ". I’m just now skimming through the "
                            },
                            {
                                "type": "channel",
                                "channel_id": "CVD4RHKDF"
                            },
                            {
                                "type": "text",
                                "text": " and "
                            },
                            {
                                "type": "channel",
                                "channel_id": "C01037HNAK1"
                            },
                            {
                                "type": "text",
                                "text": " channels. Please let me know if you have any other suggestions for how we can prevent Chicago from running out of critical supplies in the weeks to come."
                            }
                        ]
                    }
                ]
            }
        ],
        "thread_ts": "1584563376.008000",
        "parent_user_id": "UV8FL0JCA"
    },
    {
        "client_msg_id": "d8325ab8-c6eb-462e-80bb-63c74d056ecf",
        "type": "message",
        "text": "I’m checking out ChiTownBio and BioBlaze now. Very cool :slightly_smiling_face:",
        "user": "UV8FL0JCA",
        "ts": "1584567285.008600",
        "team": "TUU48M0T1",
        "user_team": "TUU48M0T1",
        "source_team": "TUU48M0T1",
        "user_profile": {
            "avatar_hash": "920c820f5900",
            "image_72": "https:\/\/avatars.slack-edge.com\/2020-03-17\/1009529536646_920c820f5900215fb339_72.jpg",
            "first_name": "Eric",
            "real_name": "Eric Chaves",
            "display_name": "Eric Chaves",
            "team": "TUU48M0T1",
            "name": "eric.chaves.llc",
            "is_restricted": false,
            "is_ultra_restricted": false
        },
        "blocks": [
            {
                "type": "rich_text",
                "block_id": "sVp",
                "elements": [
                    {
                        "type": "rich_text_section",
                        "elements": [
                            {
                                "type": "text",
                                "text": "I’m checking out ChiTownBio and BioBlaze now. Very cool "
                            },
                            {
                                "type": "emoji",
                                "name": "slightly_smiling_face"
                            }
                        ]
                    }
                ]
            }
        ],
        "thread_ts": "1584563376.008000",
        "parent_user_id": "UV8FL0JCA"
    },
    {
        "client_msg_id": "993f4257-e46a-4421-bba3-65a8a0a98268",
        "type": "message",
        "text": "Some researchers at Northwestern are trying to help organize the Chicago COVID-19 response. They made a google form that people can use to inventory their labs for kits\/reagents that are most urgently needed for local clinical testing. People can also sign up to get trained and run qPCR diagnostic tests. <https:\/\/docs.google.com\/forms\/d\/e\/1FAIpQLSfONA20BwJf9R11egZMPrjm8LKG3aOc7ie0Ch01iQDf5qiw_w\/viewform>",
        "user": "UUNGFHSV8",
        "ts": "1584591897.001800",
        "team": "TUU48M0T1",
        "user_team": "TUU48M0T1",
        "source_team": "TUU48M0T1",
        "user_profile": {
            "avatar_hash": "1c55ee32397a",
            "image_72": "https:\/\/avatars.slack-edge.com\/2020-03-07\/987349161984_1c55ee32397a85a87ec4_72.png",
            "first_name": "Isaac",
            "real_name": "Isaac Larkin",
            "display_name": "Isaac Larkin",
            "team": "TUU48M0T1",
            "name": "eyesmo",
            "is_restricted": false,
            "is_ultra_restricted": false
        },
        "blocks": [
            {
                "type": "rich_text",
                "block_id": "0xt",
                "elements": [
                    {
                        "type": "rich_text_section",
                        "elements": [
                            {
                                "type": "text",
                                "text": "Some researchers at Northwestern are trying to help organize the Chicago COVID-19 response. They made a google form that people can use to inventory their labs for kits\/reagents that are most urgently needed for local clinical testing. People can also sign up to get trained and run qPCR diagnostic tests. "
                            },
                            {
                                "type": "link",
                                "url": "https:\/\/docs.google.com\/forms\/d\/e\/1FAIpQLSfONA20BwJf9R11egZMPrjm8LKG3aOc7ie0Ch01iQDf5qiw_w\/viewform"
                            }
                        ]
                    }
                ]
            }
        ],
        "reactions": [
            {
                "name": "+1",
                "users": [
                    "UV10KBUQG"
                ],
                "count": 1
            }
        ]
    },
    {
        "type": "message",
        "subtype": "channel_join",
        "ts": "1584595653.002100",
        "user": "U010BM4M81M",
        "text": "<@U010BM4M81M> has joined the channel"
    }
]