[
    {
        "client_msg_id": "018cad92-09c7-4d7b-874f-73101a2401cf",
        "type": "message",
        "text": "great!! thanks :slightly_smiling_face:",
        "user": "UV85V64SD",
        "ts": "1587977822.084700",
        "team": "TUU48M0T1",
        "user_team": "TUU48M0T1",
        "source_team": "TUU48M0T1",
        "user_profile": {
            "avatar_hash": "1e73a651bdfe",
            "image_72": "https:\/\/avatars.slack-edge.com\/2020-03-16\/1004297548853_1e73a651bdfef2c41501_72.jpg",
            "first_name": "Marc",
            "real_name": "Marc Santolini",
            "display_name": "Marc Santolini - JOGL CoFounder \/ CSO",
            "team": "TUU48M0T1",
            "name": "marc.santolini",
            "is_restricted": false,
            "is_ultra_restricted": false
        },
        "edited": {
            "user": "UV85V64SD",
            "ts": "1587977827.000000"
        },
        "blocks": [
            {
                "type": "rich_text",
                "block_id": "yqaJM",
                "elements": [
                    {
                        "type": "rich_text_section",
                        "elements": [
                            {
                                "type": "text",
                                "text": "great!! thanks "
                            },
                            {
                                "type": "emoji",
                                "name": "slightly_smiling_face"
                            }
                        ]
                    }
                ]
            }
        ],
        "thread_ts": "1587897830.084100",
        "parent_user_id": "U0101DKUALV"
    },
    {
        "client_msg_id": "65045e98-df48-4973-b71f-2126c8c7a70f",
        "type": "message",
        "text": "whoa, nice!",
        "user": "U010RE1NDCG",
        "ts": "1587999895.085000",
        "team": "TUU48M0T1",
        "user_team": "TUU48M0T1",
        "source_team": "TUU48M0T1",
        "user_profile": {
            "avatar_hash": "9b536de47814",
            "image_72": "https:\/\/avatars.slack-edge.com\/2020-03-27\/1033593346022_9b536de4781429680ea1_72.jpg",
            "first_name": "",
            "real_name": "Prashant Sinha",
            "display_name": "",
            "team": "TUU48M0T1",
            "name": "prashant",
            "is_restricted": false,
            "is_ultra_restricted": false
        },
        "blocks": [
            {
                "type": "rich_text",
                "block_id": "J8J2x",
                "elements": [
                    {
                        "type": "rich_text_section",
                        "elements": [
                            {
                                "type": "text",
                                "text": "whoa, nice!"
                            }
                        ]
                    }
                ]
            }
        ],
        "thread_ts": "1587897830.084100",
        "parent_user_id": "U0101DKUALV"
    },
    {
        "client_msg_id": "44a2f1df-c4e5-4986-a7a1-9ddb33508b8b",
        "type": "message",
        "text": "Nuce. Where do you store the matching, in csv file? Tnx",
        "user": "U010B412MF1",
        "ts": "1588000628.098100",
        "team": "TUU48M0T1",
        "user_team": "TUU48M0T1",
        "source_team": "TUU48M0T1",
        "user_profile": {
            "avatar_hash": "218d963a797f",
            "image_72": "https:\/\/avatars.slack-edge.com\/2020-03-19\/1013072792629_218d963a797fbf4410c0_72.png",
            "first_name": "",
            "real_name": "liu",
            "display_name": "liu",
            "team": "TUU48M0T1",
            "name": "liubov.tupikina",
            "is_restricted": false,
            "is_ultra_restricted": false
        },
        "blocks": [
            {
                "type": "rich_text",
                "block_id": "JA\/",
                "elements": [
                    {
                        "type": "rich_text_section",
                        "elements": [
                            {
                                "type": "text",
                                "text": "Nuce. Where do you store the matching, in csv file? Tnx"
                            }
                        ]
                    }
                ]
            }
        ],
        "thread_ts": "1587897830.084100",
        "parent_user_id": "U0101DKUALV"
    },
    {
        "client_msg_id": "37c121d0-0ac6-4f7e-827f-d6568cbb3c74",
        "type": "message",
        "text": "hey guys, i just finished moving-out-in-to-new-apartment-process, but still don't have proper network connection to join the call (already reaching my 4g limit), so i will catch up by reading the google doc.\n\nCould I ask <@U010B412MF1> and <@U010AGDDEBZ> (and maybe <@U0101DKUALV>) to include the the links to your jupyter notebooks\/data in the doc or add comments here?\n\nBasically the idea after last week is to _get your visualisations and analysis on a webpage_. I have played a lot more with streamlit (the screenshot above) for making webpages of the visualisations -- and i think i can very quickly transform your results and plots into the interactive viz through streamlit. The step next to it would be a review with everyone for \"what to change\/add\" that isn't available in the library already. I think this would be fast to iterate and make public.\n\nRE teamchatviz for this slack, we can make the visuals public, and apply the styling through the style-guide I've seen in the design-team's channel.\n\nRE recsys: <@UVC9WMA7N> i did a  review of my previous work so i know what did it do and what were the issues, so i now need to find your time to discuss. A summary is: our recsys recommended events to doctors. We built a classifier for generating feature vector of each event from its text, where the dimensions of the vector is defined as medical specialities. We made a gui for users profile that asked their specialities and interests. The recommendation was done by sorting the cosine-distance between user and event vector, and other signals (time, location, etc). The cosine distance was calculated in query-time using Elasticsearch. Classification was done in a worker process.\n\ndoes this sound ok? :))",
        "user": "U010RE1NDCG",
        "ts": "1588000774.100200",
        "team": "TUU48M0T1",
        "user_team": "TUU48M0T1",
        "source_team": "TUU48M0T1",
        "user_profile": {
            "avatar_hash": "9b536de47814",
            "image_72": "https:\/\/avatars.slack-edge.com\/2020-03-27\/1033593346022_9b536de4781429680ea1_72.jpg",
            "first_name": "",
            "real_name": "Prashant Sinha",
            "display_name": "",
            "team": "TUU48M0T1",
            "name": "prashant",
            "is_restricted": false,
            "is_ultra_restricted": false
        },
        "blocks": [
            {
                "type": "rich_text",
                "block_id": "RK77t",
                "elements": [
                    {
                        "type": "rich_text_section",
                        "elements": [
                            {
                                "type": "text",
                                "text": "hey guys, i just finished moving-out-in-to-new-apartment-process, but still don't have proper network connection to join the call (already reaching my 4g limit), so i will catch up by reading the google doc.\n\nCould I ask "
                            },
                            {
                                "type": "user",
                                "user_id": "U010B412MF1"
                            },
                            {
                                "type": "text",
                                "text": " and "
                            },
                            {
                                "type": "user",
                                "user_id": "U010AGDDEBZ"
                            },
                            {
                                "type": "text",
                                "text": " (and maybe "
                            },
                            {
                                "type": "user",
                                "user_id": "U0101DKUALV"
                            },
                            {
                                "type": "text",
                                "text": ") to include the the links to your jupyter notebooks\/data in the doc or add comments here?\n\nBasically the idea after last week is to"
                            },
                            {
                                "type": "text",
                                "text": " get your visualisations and analysis on a webpage",
                                "style": {
                                    "italic": true
                                }
                            },
                            {
                                "type": "text",
                                "text": ". I have played a lot more with streamlit (the screenshot above) for making webpages of the visualisations -- and i think i can very quickly transform your results and plots into the interactive viz through streamlit. The step next to it would be a review with everyone for \"what to change\/add\" that isn't available in the library already. I think this would be fast to iterate and make public.\n\nRE teamchatviz for this slack, we can make the visuals public, and apply the styling through the style-guide I've seen in the design-team's channel.\n\nRE recsys: "
                            },
                            {
                                "type": "user",
                                "user_id": "UVC9WMA7N"
                            },
                            {
                                "type": "text",
                                "text": " i did a  review of my previous work so i know what did it do and what were the issues, so i now need to find your time to discuss. A summary is: our recsys recommended events to doctors. We built a classifier for generating feature vector of each event from its text, where the dimensions of the vector is defined as medical specialities. We made a gui for users profile that asked their specialities and interests. The recommendation was done by sorting the cosine-distance between user and event vector, and other signals (time, location, etc). The cosine distance was calculated in query-time using Elasticsearch. Classification was done in a worker process.\n\ndoes this sound ok? :))"
                            }
                        ]
                    }
                ]
            }
        ],
        "thread_ts": "1588000774.100200",
        "reply_count": 8,
        "reply_users_count": 3,
        "latest_reply": "1588007352.118200",
        "reply_users": [
            "U010B412MF1",
            "U010RE1NDCG",
            "UVC9WMA7N"
        ],
        "replies": [
            {
                "user": "U010B412MF1",
                "ts": "1588000929.100500"
            },
            {
                "user": "U010RE1NDCG",
                "ts": "1588001256.100700"
            },
            {
                "user": "U010RE1NDCG",
                "ts": "1588001305.100900"
            },
            {
                "user": "U010RE1NDCG",
                "ts": "1588001375.101200"
            },
            {
                "user": "UVC9WMA7N",
                "ts": "1588003870.103900"
            },
            {
                "user": "U010RE1NDCG",
                "ts": "1588004439.105700"
            },
            {
                "user": "UVC9WMA7N",
                "ts": "1588005810.105900"
            },
            {
                "user": "U010RE1NDCG",
                "ts": "1588007352.118200"
            }
        ],
        "subscribed": false,
        "reactions": [
            {
                "name": "+1",
                "users": [
                    "U010B412MF1"
                ],
                "count": 1
            }
        ]
    },
    {
        "client_msg_id": "8bbedc3d-e834-4eaf-800d-108e2b09f406",
        "type": "message",
        "text": "Ok <@U010RE1NDCG> we will keep you updated on this.",
        "user": "U010B412MF1",
        "ts": "1588000929.100500",
        "team": "TUU48M0T1",
        "user_team": "TUU48M0T1",
        "source_team": "TUU48M0T1",
        "user_profile": {
            "avatar_hash": "218d963a797f",
            "image_72": "https:\/\/avatars.slack-edge.com\/2020-03-19\/1013072792629_218d963a797fbf4410c0_72.png",
            "first_name": "",
            "real_name": "liu",
            "display_name": "liu",
            "team": "TUU48M0T1",
            "name": "liubov.tupikina",
            "is_restricted": false,
            "is_ultra_restricted": false
        },
        "blocks": [
            {
                "type": "rich_text",
                "block_id": "rI3v",
                "elements": [
                    {
                        "type": "rich_text_section",
                        "elements": [
                            {
                                "type": "text",
                                "text": "Ok "
                            },
                            {
                                "type": "user",
                                "user_id": "U010RE1NDCG"
                            },
                            {
                                "type": "text",
                                "text": " we will keep you updated on this."
                            }
                        ]
                    }
                ]
            }
        ],
        "thread_ts": "1588000774.100200",
        "parent_user_id": "U010RE1NDCG"
    },
    {
        "client_msg_id": "6894b62b-66c9-4b63-9181-3030a308fbbb",
        "type": "message",
        "text": "Thanks! Btw, the notebooks\/analysis dont have to be complete or perfect. It's just that i need to have some data indicative of what we'd like to have in the visualisation webpage. It's a bit difficult otherwise to use\/generate fake data.",
        "user": "U010RE1NDCG",
        "ts": "1588001256.100700",
        "team": "TUU48M0T1",
        "user_team": "TUU48M0T1",
        "source_team": "TUU48M0T1",
        "user_profile": {
            "avatar_hash": "9b536de47814",
            "image_72": "https:\/\/avatars.slack-edge.com\/2020-03-27\/1033593346022_9b536de4781429680ea1_72.jpg",
            "first_name": "",
            "real_name": "Prashant Sinha",
            "display_name": "",
            "team": "TUU48M0T1",
            "name": "prashant",
            "is_restricted": false,
            "is_ultra_restricted": false
        },
        "blocks": [
            {
                "type": "rich_text",
                "block_id": "1ht8i",
                "elements": [
                    {
                        "type": "rich_text_section",
                        "elements": [
                            {
                                "type": "text",
                                "text": "Thanks! Btw, the notebooks\/analysis dont have to be complete or perfect. It's just that i need to have some data indicative of what we'd like to have in the visualisation webpage. It's a bit difficult otherwise to use\/generate fake data."
                            }
                        ]
                    }
                ]
            }
        ],
        "thread_ts": "1588000774.100200",
        "parent_user_id": "U010RE1NDCG"
    },
    {
        "client_msg_id": "e045c30e-5508-45bb-aefd-f10578c90783",
        "type": "message",
        "text": "<https:\/\/gitlab.com\/Liyubov\/metastudy\/-\/blob\/master\/Slack%20data\/notebooks\/slack_analysis_openCOVID.ipynb>\n\nthis notebook, for example, is perfect example. <@U010B412MF1>, btw, should i go ahead with this notebook meanwhile or do you plan to update it?",
        "user": "U010RE1NDCG",
        "ts": "1588001305.100900",
        "team": "TUU48M0T1",
        "user_team": "TUU48M0T1",
        "source_team": "TUU48M0T1",
        "user_profile": {
            "avatar_hash": "9b536de47814",
            "image_72": "https:\/\/avatars.slack-edge.com\/2020-03-27\/1033593346022_9b536de4781429680ea1_72.jpg",
            "first_name": "",
            "real_name": "Prashant Sinha",
            "display_name": "",
            "team": "TUU48M0T1",
            "name": "prashant",
            "is_restricted": false,
            "is_ultra_restricted": false
        },
        "edited": {
            "user": "U010RE1NDCG",
            "ts": "1588001381.000000"
        },
        "blocks": [
            {
                "type": "rich_text",
                "block_id": "Tl2",
                "elements": [
                    {
                        "type": "rich_text_section",
                        "elements": [
                            {
                                "type": "link",
                                "url": "https:\/\/gitlab.com\/Liyubov\/metastudy\/-\/blob\/master\/Slack%20data\/notebooks\/slack_analysis_openCOVID.ipynb"
                            },
                            {
                                "type": "text",
                                "text": "\n\nthis notebook, for example, is perfect example. "
                            },
                            {
                                "type": "user",
                                "user_id": "U010B412MF1"
                            },
                            {
                                "type": "text",
                                "text": ", btw, should i go ahead with this notebook meanwhile or do you plan to update it?"
                            }
                        ]
                    }
                ]
            }
        ],
        "thread_ts": "1588000774.100200",
        "parent_user_id": "U010RE1NDCG"
    },
    {
        "client_msg_id": "3feedfba-74f2-47b7-a2ae-6396b42aee59",
        "type": "message",
        "text": "And this:\n\n<https:\/\/gitlab.com\/Liyubov\/metastudy\/-\/blob\/master\/JOGL%20platform%20analysis\/create_dataframes_from_API_jogl.ipynb>",
        "user": "U010RE1NDCG",
        "ts": "1588001375.101200",
        "team": "TUU48M0T1",
        "user_team": "TUU48M0T1",
        "source_team": "TUU48M0T1",
        "user_profile": {
            "avatar_hash": "9b536de47814",
            "image_72": "https:\/\/avatars.slack-edge.com\/2020-03-27\/1033593346022_9b536de4781429680ea1_72.jpg",
            "first_name": "",
            "real_name": "Prashant Sinha",
            "display_name": "",
            "team": "TUU48M0T1",
            "name": "prashant",
            "is_restricted": false,
            "is_ultra_restricted": false
        },
        "edited": {
            "user": "U010RE1NDCG",
            "ts": "1588001385.000000"
        },
        "blocks": [
            {
                "type": "rich_text",
                "block_id": "iHxH",
                "elements": [
                    {
                        "type": "rich_text_section",
                        "elements": [
                            {
                                "type": "text",
                                "text": "And this:\n\n"
                            },
                            {
                                "type": "link",
                                "url": "https:\/\/gitlab.com\/Liyubov\/metastudy\/-\/blob\/master\/JOGL%20platform%20analysis\/create_dataframes_from_API_jogl.ipynb"
                            }
                        ]
                    }
                ]
            }
        ],
        "thread_ts": "1588000774.100200",
        "parent_user_id": "U010RE1NDCG"
    },
    {
        "client_msg_id": "56fa998a-52a4-4b64-be43-358fe9af885b",
        "type": "message",
        "text": "thanks we will discuss this with the others then",
        "user": "UV85V64SD",
        "ts": "1588002932.102100",
        "team": "TUU48M0T1",
        "user_team": "TUU48M0T1",
        "source_team": "TUU48M0T1",
        "user_profile": {
            "avatar_hash": "1e73a651bdfe",
            "image_72": "https:\/\/avatars.slack-edge.com\/2020-03-16\/1004297548853_1e73a651bdfef2c41501_72.jpg",
            "first_name": "Marc",
            "real_name": "Marc Santolini",
            "display_name": "Marc Santolini - JOGL CoFounder \/ CSO",
            "team": "TUU48M0T1",
            "name": "marc.santolini",
            "is_restricted": false,
            "is_ultra_restricted": false
        },
        "blocks": [
            {
                "type": "rich_text",
                "block_id": "EJG",
                "elements": [
                    {
                        "type": "rich_text_section",
                        "elements": [
                            {
                                "type": "text",
                                "text": "thanks we will discuss this with the others then"
                            }
                        ]
                    }
                ]
            }
        ]
    },
    {
        "client_msg_id": "5862843d-cf88-4b83-ac57-2688952f07c2",
        "type": "message",
        "text": "reminder zoom room will be <https:\/\/github.com\/grahamjenson\/list_of_recommender_systems>",
        "user": "UV85V64SD",
        "ts": "1588002940.102400",
        "team": "TUU48M0T1",
        "user_team": "TUU48M0T1",
        "source_team": "TUU48M0T1",
        "user_profile": {
            "avatar_hash": "1e73a651bdfe",
            "image_72": "https:\/\/avatars.slack-edge.com\/2020-03-16\/1004297548853_1e73a651bdfef2c41501_72.jpg",
            "first_name": "Marc",
            "real_name": "Marc Santolini",
            "display_name": "Marc Santolini - JOGL CoFounder \/ CSO",
            "team": "TUU48M0T1",
            "name": "marc.santolini",
            "is_restricted": false,
            "is_ultra_restricted": false
        },
        "attachments": [
            {
                "fallback": "grahamjenson\/list_of_recommender_systems",
                "text": "A List of Recommender Systems and Resources",
                "title": "grahamjenson\/list_of_recommender_systems",
                "footer": "<https:\/\/github.com\/grahamjenson\/list_of_recommender_systems|grahamjenson\/list_of_recommender_systems>",
                "id": 1,
                "footer_icon": "https:\/\/github.githubassets.com\/favicon.ico",
                "ts": 1434094292,
                "color": "24292f",
                "fields": [
                    {
                        "title": "Stars",
                        "value": "3310",
                        "short": true
                    },
                    {
                        "title": "Last updated",
                        "value": "8 hours ago",
                        "short": true
                    }
                ],
                "mrkdwn_in": [
                    "text",
                    "fields"
                ],
                "bot_id": "BUW789DM0",
                "app_unfurl_url": "https:\/\/github.com\/grahamjenson\/list_of_recommender_systems",
                "is_app_unfurl": true
            }
        ],
        "blocks": [
            {
                "type": "rich_text",
                "block_id": "9cmMd",
                "elements": [
                    {
                        "type": "rich_text_section",
                        "elements": [
                            {
                                "type": "text",
                                "text": "reminder zoom room will be "
                            },
                            {
                                "type": "link",
                                "url": "https:\/\/github.com\/grahamjenson\/list_of_recommender_systems"
                            }
                        ]
                    }
                ]
            }
        ]
    },
    {
        "client_msg_id": "8e93fce6-0c95-44a7-a05e-7cb4ede8b3ec",
        "type": "message",
        "text": "oops",
        "user": "UV85V64SD",
        "ts": "1588003222.102700",
        "team": "TUU48M0T1",
        "user_team": "TUU48M0T1",
        "source_team": "TUU48M0T1",
        "user_profile": {
            "avatar_hash": "1e73a651bdfe",
            "image_72": "https:\/\/avatars.slack-edge.com\/2020-03-16\/1004297548853_1e73a651bdfef2c41501_72.jpg",
            "first_name": "Marc",
            "real_name": "Marc Santolini",
            "display_name": "Marc Santolini - JOGL CoFounder \/ CSO",
            "team": "TUU48M0T1",
            "name": "marc.santolini",
            "is_restricted": false,
            "is_ultra_restricted": false
        },
        "blocks": [
            {
                "type": "rich_text",
                "block_id": "+tM3",
                "elements": [
                    {
                        "type": "rich_text_section",
                        "elements": [
                            {
                                "type": "text",
                                "text": "oops"
                            }
                        ]
                    }
                ]
            }
        ]
    },
    {
        "client_msg_id": "82a8195a-ba83-4400-a8fa-847d1fc6d2cb",
        "type": "message",
        "text": "too many copy paste",
        "user": "UV85V64SD",
        "ts": "1588003231.103100",
        "team": "TUU48M0T1",
        "user_team": "TUU48M0T1",
        "source_team": "TUU48M0T1",
        "user_profile": {
            "avatar_hash": "1e73a651bdfe",
            "image_72": "https:\/\/avatars.slack-edge.com\/2020-03-16\/1004297548853_1e73a651bdfef2c41501_72.jpg",
            "first_name": "Marc",
            "real_name": "Marc Santolini",
            "display_name": "Marc Santolini - JOGL CoFounder \/ CSO",
            "team": "TUU48M0T1",
            "name": "marc.santolini",
            "is_restricted": false,
            "is_ultra_restricted": false
        },
        "blocks": [
            {
                "type": "rich_text",
                "block_id": "Idg",
                "elements": [
                    {
                        "type": "rich_text_section",
                        "elements": [
                            {
                                "type": "text",
                                "text": "too many copy paste"
                            }
                        ]
                    }
                ]
            }
        ]
    },
    {
        "client_msg_id": "c473d74c-2dcb-4887-9387-e61b682f22ef",
        "type": "message",
        "text": "<https:\/\/us02web.zoom.us\/j\/87110731777>",
        "user": "UV85V64SD",
        "ts": "1588003255.103500",
        "team": "TUU48M0T1",
        "user_team": "TUU48M0T1",
        "source_team": "TUU48M0T1",
        "user_profile": {
            "avatar_hash": "1e73a651bdfe",
            "image_72": "https:\/\/avatars.slack-edge.com\/2020-03-16\/1004297548853_1e73a651bdfef2c41501_72.jpg",
            "first_name": "Marc",
            "real_name": "Marc Santolini",
            "display_name": "Marc Santolini - JOGL CoFounder \/ CSO",
            "team": "TUU48M0T1",
            "name": "marc.santolini",
            "is_restricted": false,
            "is_ultra_restricted": false
        },
        "blocks": [
            {
                "type": "rich_text",
                "block_id": "AGBj",
                "elements": [
                    {
                        "type": "rich_text_section",
                        "elements": [
                            {
                                "type": "link",
                                "url": "https:\/\/us02web.zoom.us\/j\/87110731777"
                            }
                        ]
                    }
                ]
            }
        ]
    },
    {
        "client_msg_id": "bf884d83-5ed6-4761-a488-d9e4fb3efdbe",
        "type": "message",
        "text": "this is going to be the place!",
        "user": "UV85V64SD",
        "ts": "1588003265.103800",
        "team": "TUU48M0T1",
        "user_team": "TUU48M0T1",
        "source_team": "TUU48M0T1",
        "user_profile": {
            "avatar_hash": "1e73a651bdfe",
            "image_72": "https:\/\/avatars.slack-edge.com\/2020-03-16\/1004297548853_1e73a651bdfef2c41501_72.jpg",
            "first_name": "Marc",
            "real_name": "Marc Santolini",
            "display_name": "Marc Santolini - JOGL CoFounder \/ CSO",
            "team": "TUU48M0T1",
            "name": "marc.santolini",
            "is_restricted": false,
            "is_ultra_restricted": false
        },
        "blocks": [
            {
                "type": "rich_text",
                "block_id": "bGC",
                "elements": [
                    {
                        "type": "rich_text_section",
                        "elements": [
                            {
                                "type": "text",
                                "text": "this is going to be the place!"
                            }
                        ]
                    }
                ]
            }
        ]
    },
    {
        "client_msg_id": "d5a301d3-a43b-4388-9e2b-495afa1dd6ce",
        "type": "message",
        "text": "<@U010RE1NDCG> we need to find some time this week to talk about this !",
        "user": "UVC9WMA7N",
        "ts": "1588003870.103900",
        "team": "TUU48M0T1",
        "user_team": "TUU48M0T1",
        "source_team": "TUU48M0T1",
        "user_profile": {
            "avatar_hash": "56d14d58ed53",
            "image_72": "https:\/\/avatars.slack-edge.com\/2020-03-13\/998337892660_56d14d58ed537e6e4654_72.png",
            "first_name": "Leo",
            "real_name": "Leo Blondel",
            "display_name": "Leo Blondel - JOGL CoFounder \/ CTO",
            "team": "TUU48M0T1",
            "name": "leo",
            "is_restricted": false,
            "is_ultra_restricted": false
        },
        "blocks": [
            {
                "type": "rich_text",
                "block_id": "jfL",
                "elements": [
                    {
                        "type": "rich_text_section",
                        "elements": [
                            {
                                "type": "user",
                                "user_id": "U010RE1NDCG"
                            },
                            {
                                "type": "text",
                                "text": " we need to find some time this week to talk about this !"
                            }
                        ]
                    }
                ]
            }
        ],
        "thread_ts": "1588000774.100200",
        "parent_user_id": "U010RE1NDCG"
    },
    {
        "client_msg_id": "348C8977-3936-46BC-AC33-705C3C06DA6F",
        "type": "message",
        "text": "yess, when does it work for you? i'll have proper internet from tomorrow (hopefully)",
        "user": "U010RE1NDCG",
        "ts": "1588004439.105700",
        "team": "TUU48M0T1",
        "user_team": "TUU48M0T1",
        "source_team": "TUU48M0T1",
        "user_profile": {
            "avatar_hash": "9b536de47814",
            "image_72": "https:\/\/avatars.slack-edge.com\/2020-03-27\/1033593346022_9b536de4781429680ea1_72.jpg",
            "first_name": "",
            "real_name": "Prashant Sinha",
            "display_name": "",
            "team": "TUU48M0T1",
            "name": "prashant",
            "is_restricted": false,
            "is_ultra_restricted": false
        },
        "blocks": [
            {
                "type": "rich_text",
                "block_id": "YX4",
                "elements": [
                    {
                        "type": "rich_text_section",
                        "elements": [
                            {
                                "type": "text",
                                "text": "yess, when does it work for you? i'll have proper internet from tomorrow (hopefully)"
                            }
                        ]
                    }
                ]
            }
        ],
        "thread_ts": "1588000774.100200",
        "parent_user_id": "U010RE1NDCG"
    },
    {
        "client_msg_id": "6a37dbf6-b9e3-4b1b-845c-096b6641d4e8",
        "type": "message",
        "text": "Wen 4:30 pm ?",
        "user": "UVC9WMA7N",
        "ts": "1588005810.105900",
        "team": "TUU48M0T1",
        "user_team": "TUU48M0T1",
        "source_team": "TUU48M0T1",
        "user_profile": {
            "avatar_hash": "56d14d58ed53",
            "image_72": "https:\/\/avatars.slack-edge.com\/2020-03-13\/998337892660_56d14d58ed537e6e4654_72.png",
            "first_name": "Leo",
            "real_name": "Leo Blondel",
            "display_name": "Leo Blondel - JOGL CoFounder \/ CTO",
            "team": "TUU48M0T1",
            "name": "leo",
            "is_restricted": false,
            "is_ultra_restricted": false
        },
        "blocks": [
            {
                "type": "rich_text",
                "block_id": "J44GX",
                "elements": [
                    {
                        "type": "rich_text_section",
                        "elements": [
                            {
                                "type": "text",
                                "text": "Wen 4:30 pm ?"
                            }
                        ]
                    }
                ]
            }
        ],
        "thread_ts": "1588000774.100200",
        "parent_user_id": "U010RE1NDCG"
    },
    {
        "client_msg_id": "67acc0dd-f321-4a51-b1f0-d5594c167436",
        "type": "message",
        "text": "So <@U010RE1NDCG>\nwe discussed and have the idea that we would use a simple pipeline where we do any of the plots we have in plotly, and just need to know the data input format in  teamchatviz so that it can be simply intergrated",
        "user": "UV85V64SD",
        "ts": "1588006452.107000",
        "team": "TUU48M0T1",
        "user_team": "TUU48M0T1",
        "source_team": "TUU48M0T1",
        "user_profile": {
            "avatar_hash": "1e73a651bdfe",
            "image_72": "https:\/\/avatars.slack-edge.com\/2020-03-16\/1004297548853_1e73a651bdfef2c41501_72.jpg",
            "first_name": "Marc",
            "real_name": "Marc Santolini",
            "display_name": "Marc Santolini - JOGL CoFounder \/ CSO",
            "team": "TUU48M0T1",
            "name": "marc.santolini",
            "is_restricted": false,
            "is_ultra_restricted": false
        },
        "blocks": [
            {
                "type": "rich_text",
                "block_id": "nxq",
                "elements": [
                    {
                        "type": "rich_text_section",
                        "elements": [
                            {
                                "type": "text",
                                "text": "So "
                            },
                            {
                                "type": "user",
                                "user_id": "U010RE1NDCG"
                            },
                            {
                                "type": "text",
                                "text": "\nwe discussed and have the idea that we would use a simple pipeline where we do any of the plots we have in plotly, and just need to know the data input format in  teamchatviz so that it can be simply intergrated"
                            }
                        ]
                    }
                ]
            }
        ],
        "thread_ts": "1588006452.107000",
        "reply_count": 4,
        "reply_users_count": 2,
        "latest_reply": "1588166978.119200",
        "reply_users": [
            "U010RE1NDCG",
            "UV85V64SD"
        ],
        "replies": [
            {
                "user": "U010RE1NDCG",
                "ts": "1588007325.117800"
            },
            {
                "user": "UV85V64SD",
                "ts": "1588166463.118800"
            },
            {
                "user": "U010RE1NDCG",
                "ts": "1588166940.119000"
            },
            {
                "user": "U010RE1NDCG",
                "ts": "1588166978.119200"
            }
        ],
        "subscribed": false
    },
    {
        "client_msg_id": "4b3c69a3-c209-4faa-8699-c72489f5b237",
        "type": "message",
        "text": "we just need to know the data standard on your end to plug to the API!",
        "user": "UV85V64SD",
        "ts": "1588006475.107400",
        "team": "TUU48M0T1",
        "user_team": "TUU48M0T1",
        "source_team": "TUU48M0T1",
        "user_profile": {
            "avatar_hash": "1e73a651bdfe",
            "image_72": "https:\/\/avatars.slack-edge.com\/2020-03-16\/1004297548853_1e73a651bdfef2c41501_72.jpg",
            "first_name": "Marc",
            "real_name": "Marc Santolini",
            "display_name": "Marc Santolini - JOGL CoFounder \/ CSO",
            "team": "TUU48M0T1",
            "name": "marc.santolini",
            "is_restricted": false,
            "is_ultra_restricted": false
        },
        "blocks": [
            {
                "type": "rich_text",
                "block_id": "R+y=",
                "elements": [
                    {
                        "type": "rich_text_section",
                        "elements": [
                            {
                                "type": "text",
                                "text": "we just need to know the data standard on your end to plug to the API!"
                            }
                        ]
                    }
                ]
            }
        ]
    },
    {
        "client_msg_id": "C888EC1B-0D45-40C1-BCD1-2518758A3B96",
        "type": "message",
        "text": "Sounds like a good idea. I haven’t reviewed specifics on teamchatviz’s frontend code other than higher level stuff, so I will do that in a day or so.\n\nIgnoring the server specific implementation details, the code queries the database (the same format as the Json-based pandas dataframes i demod last time), and has some ui components to render the viz. so this is pretty much standard. I’m missing the details on the _how_ part of it, so I’ll check it out. \n\nFor plotly, great! It’s a very good toolkit with loads of examples. I’ll look for how to get it in teamchatviz uid. \n\nWhich brings to my question: so we’re looking to generate static html pages for the viz, or extending teamchatviz ?",
        "user": "U010RE1NDCG",
        "ts": "1588007325.117800",
        "team": "TUU48M0T1",
        "user_team": "TUU48M0T1",
        "source_team": "TUU48M0T1",
        "user_profile": {
            "avatar_hash": "9b536de47814",
            "image_72": "https:\/\/avatars.slack-edge.com\/2020-03-27\/1033593346022_9b536de4781429680ea1_72.jpg",
            "first_name": "",
            "real_name": "Prashant Sinha",
            "display_name": "",
            "team": "TUU48M0T1",
            "name": "prashant",
            "is_restricted": false,
            "is_ultra_restricted": false
        },
        "blocks": [
            {
                "type": "rich_text",
                "block_id": "YqT8",
                "elements": [
                    {
                        "type": "rich_text_section",
                        "elements": [
                            {
                                "type": "text",
                                "text": "Sounds like a good idea. I haven’t reviewed specifics on teamchatviz’s frontend code other than higher level stuff, so I will do that in a day or so.\n"
                            },
                            {
                                "type": "text",
                                "text": "\n"
                            },
                            {
                                "type": "text",
                                "text": "Ignoring the server specific implementation details, the code queries the database (the same format as the Json-based pandas dataframes i demod last time), and has some ui components to render the viz. so this is pretty much standard. I’m missing the details on the "
                            },
                            {
                                "type": "text",
                                "text": "how",
                                "style": {
                                    "italic": true
                                }
                            },
                            {
                                "type": "text",
                                "text": " part of it, so I’ll check it out. \n"
                            },
                            {
                                "type": "text",
                                "text": "\n"
                            },
                            {
                                "type": "text",
                                "text": "For plotly, great! It’s a very good toolkit with loads of examples. I’ll look for how to get it in teamchatviz uid. \n"
                            },
                            {
                                "type": "text",
                                "text": "\n"
                            },
                            {
                                "type": "text",
                                "text": "Which brings to my question: so we’re looking to generate static html pages for the viz, or extending teamchatviz ?"
                            }
                        ]
                    }
                ]
            }
        ],
        "thread_ts": "1588006452.107000",
        "parent_user_id": "UV85V64SD"
    },
    {
        "client_msg_id": "5FCAD438-B88C-41D9-856C-74D6E09F22A5",
        "type": "message",
        "text": "Perfect !!",
        "user": "U010RE1NDCG",
        "ts": "1588007352.118200",
        "team": "TUU48M0T1",
        "user_team": "TUU48M0T1",
        "source_team": "TUU48M0T1",
        "user_profile": {
            "avatar_hash": "9b536de47814",
            "image_72": "https:\/\/avatars.slack-edge.com\/2020-03-27\/1033593346022_9b536de4781429680ea1_72.jpg",
            "first_name": "",
            "real_name": "Prashant Sinha",
            "display_name": "",
            "team": "TUU48M0T1",
            "name": "prashant",
            "is_restricted": false,
            "is_ultra_restricted": false
        },
        "blocks": [
            {
                "type": "rich_text",
                "block_id": "LwWb",
                "elements": [
                    {
                        "type": "rich_text_section",
                        "elements": [
                            {
                                "type": "text",
                                "text": "Perfect !!"
                            }
                        ]
                    }
                ]
            }
        ],
        "thread_ts": "1588000774.100200",
        "parent_user_id": "U010RE1NDCG"
    },
    {
        "client_msg_id": "cd65184b-79f5-4464-b995-d01e18ed05b1",
        "type": "message",
        "text": "Currently CSV, not too familiar with Jupyter notebooks.....",
        "user": "U0101DKUALV",
        "ts": "1588030638.118600",
        "team": "TUU48M0T1",
        "user_team": "TUU48M0T1",
        "source_team": "TUU48M0T1",
        "user_profile": {
            "avatar_hash": "b0aee06ed3e5",
            "image_72": "https:\/\/avatars.slack-edge.com\/2020-04-22\/1072886325190_b0aee06ed3e501ebdf56_72.png",
            "first_name": "",
            "real_name": "Pauline Chane",
            "display_name": "Pauline Chane",
            "team": "TUU48M0T1",
            "name": "pauline.chane",
            "is_restricted": false,
            "is_ultra_restricted": false
        },
        "blocks": [
            {
                "type": "rich_text",
                "block_id": "cG5",
                "elements": [
                    {
                        "type": "rich_text_section",
                        "elements": [
                            {
                                "type": "text",
                                "text": "Currently CSV, not too familiar with Jupyter notebooks....."
                            }
                        ]
                    }
                ]
            }
        ],
        "thread_ts": "1587897830.084100",
        "parent_user_id": "U0101DKUALV"
    }
]