[
    {
        "type": "message",
        "text": "my notes (sorry i was trying to write most important keywords for myself, so might not be super useful for you all)",
        "files": [
            {
                "id": "F011H20QN3F",
                "created": 1586278573,
                "timestamp": 1586278573,
                "name": "notes from meeting",
                "title": "notes from meeting",
                "mimetype": "text\/plain",
                "filetype": "text",
                "pretty_type": "Plain Text",
                "user": "U010RE1NDCG",
                "editable": true,
                "size": 1588,
                "mode": "snippet",
                "is_external": false,
                "external_type": "",
                "is_public": true,
                "public_url_shared": false,
                "display_as_bot": false,
                "username": "",
                "url_private": "https:\/\/files.slack.com\/files-pri\/TUU48M0T1-F011H20QN3F\/notes_from_meeting?t=xoxe-980144714919-1106606678066-1105227127893-6f722bb664235052954ad46852628b64",
                "url_private_download": "https:\/\/files.slack.com\/files-pri\/TUU48M0T1-F011H20QN3F\/download\/notes_from_meeting?t=xoxe-980144714919-1106606678066-1105227127893-6f722bb664235052954ad46852628b64",
                "permalink": "https:\/\/open-covid19.slack.com\/files\/U010RE1NDCG\/F011H20QN3F\/notes_from_meeting",
                "permalink_public": "https:\/\/slack-files.com\/TUU48M0T1-F011H20QN3F-eacdbdeeec",
                "edit_link": "https:\/\/open-covid19.slack.com\/files\/U010RE1NDCG\/F011H20QN3F\/notes_from_meeting\/edit",
                "is_starred": false,
                "has_rich_preview": false
            }
        ],
        "upload": true,
        "blocks": [
            {
                "type": "rich_text",
                "block_id": "LMO",
                "elements": [
                    {
                        "type": "rich_text_section",
                        "elements": [
                            {
                                "type": "text",
                                "text": "my notes (sorry i was trying to write most important keywords for myself, so might not be super useful for you all)"
                            }
                        ]
                    }
                ]
            }
        ],
        "user": "U010RE1NDCG",
        "display_as_bot": false,
        "ts": "1586278574.003400",
        "client_msg_id": "553e9f9e-f234-4ea0-b374-8079ffe0b783",
        "thread_ts": "1586278574.003400",
        "reply_count": 6,
        "reply_users_count": 3,
        "latest_reply": "1586288342.006500",
        "reply_users": [
            "U010RE1NDCG",
            "UV85V64SD",
            "U010B412MF1"
        ],
        "replies": [
            {
                "user": "U010RE1NDCG",
                "ts": "1586278631.003700"
            },
            {
                "user": "UV85V64SD",
                "ts": "1586278658.003900"
            },
            {
                "user": "U010RE1NDCG",
                "ts": "1586278717.004100"
            },
            {
                "user": "U010RE1NDCG",
                "ts": "1586278862.004400"
            },
            {
                "user": "UV85V64SD",
                "ts": "1586279789.006200"
            },
            {
                "user": "U010B412MF1",
                "ts": "1586288342.006500"
            }
        ],
        "subscribed": false
    },
    {
        "client_msg_id": "46fe98fa-ed36-4c68-acb2-304a29279eaa",
        "type": "message",
        "text": "<@UV85V64SD>, i would love to read the \"scientific trajectories\" paper if its ok to share!",
        "user": "U010RE1NDCG",
        "ts": "1586278631.003700",
        "team": "TUU48M0T1",
        "user_team": "TUU48M0T1",
        "source_team": "TUU48M0T1",
        "user_profile": {
            "avatar_hash": "9b536de47814",
            "image_72": "https:\/\/avatars.slack-edge.com\/2020-03-27\/1033593346022_9b536de4781429680ea1_72.jpg",
            "first_name": "",
            "real_name": "Prashant Sinha",
            "display_name": "",
            "team": "TUU48M0T1",
            "name": "prashant",
            "is_restricted": false,
            "is_ultra_restricted": false
        },
        "blocks": [
            {
                "type": "rich_text",
                "block_id": "Ovw",
                "elements": [
                    {
                        "type": "rich_text_section",
                        "elements": [
                            {
                                "type": "user",
                                "user_id": "UV85V64SD"
                            },
                            {
                                "type": "text",
                                "text": ", i would love to read the \"scientific trajectories\" paper if its ok to share!"
                            }
                        ]
                    }
                ]
            }
        ],
        "thread_ts": "1586278574.003400",
        "parent_user_id": "U010RE1NDCG",
        "reactions": [
            {
                "name": "point_up_2",
                "users": [
                    "U0101DKUALV"
                ],
                "count": 1
            }
        ]
    },
    {
        "client_msg_id": "41df89b3-d471-4301-b517-f07ba9c08714",
        "type": "message",
        "text": "it;s a draft but i’ll share with you alongside slides",
        "user": "UV85V64SD",
        "ts": "1586278658.003900",
        "team": "TUU48M0T1",
        "user_team": "TUU48M0T1",
        "source_team": "TUU48M0T1",
        "user_profile": {
            "avatar_hash": "1e73a651bdfe",
            "image_72": "https:\/\/avatars.slack-edge.com\/2020-03-16\/1004297548853_1e73a651bdfef2c41501_72.jpg",
            "first_name": "Marc",
            "real_name": "Marc Santolini",
            "display_name": "Marc Santolini - JOGL CoFounder \/ CSO",
            "team": "TUU48M0T1",
            "name": "marc.santolini",
            "is_restricted": false,
            "is_ultra_restricted": false
        },
        "blocks": [
            {
                "type": "rich_text",
                "block_id": "mr3T",
                "elements": [
                    {
                        "type": "rich_text_section",
                        "elements": [
                            {
                                "type": "text",
                                "text": "it;s a draft but i’ll share with you alongside slides"
                            }
                        ]
                    }
                ]
            }
        ],
        "thread_ts": "1586278574.003400",
        "parent_user_id": "U010RE1NDCG"
    },
    {
        "client_msg_id": "ef648328-7dd2-4d24-a7a2-a17936d9cfca",
        "type": "message",
        "text": "RE the database app i used for postgresql:\nits this:\n<https:\/\/github.com\/sosedoff\/pgweb>\n\nsetting it up is easy",
        "user": "U010RE1NDCG",
        "ts": "1586278717.004100",
        "team": "TUU48M0T1",
        "user_team": "TUU48M0T1",
        "source_team": "TUU48M0T1",
        "user_profile": {
            "avatar_hash": "9b536de47814",
            "image_72": "https:\/\/avatars.slack-edge.com\/2020-03-27\/1033593346022_9b536de4781429680ea1_72.jpg",
            "first_name": "",
            "real_name": "Prashant Sinha",
            "display_name": "",
            "team": "TUU48M0T1",
            "name": "prashant",
            "is_restricted": false,
            "is_ultra_restricted": false
        },
        "attachments": [
            {
                "fallback": "sosedoff\/pgweb",
                "text": "Cross-platform client for PostgreSQL databases",
                "title": "sosedoff\/pgweb",
                "footer": "<https:\/\/github.com\/sosedoff\/pgweb|sosedoff\/pgweb>",
                "id": 1,
                "footer_icon": "https:\/\/github.githubassets.com\/favicon.ico",
                "ts": 1412818892,
                "color": "24292f",
                "fields": [
                    {
                        "title": "Website",
                        "value": "<http:\/\/sosedoff.github.io\/pgweb>",
                        "short": true
                    },
                    {
                        "title": "Stars",
                        "value": "6344",
                        "short": true
                    }
                ],
                "mrkdwn_in": [
                    "text",
                    "fields"
                ],
                "bot_id": "BUW789DM0",
                "app_unfurl_url": "https:\/\/github.com\/sosedoff\/pgweb",
                "is_app_unfurl": true
            }
        ],
        "blocks": [
            {
                "type": "rich_text",
                "block_id": "ccfWM",
                "elements": [
                    {
                        "type": "rich_text_section",
                        "elements": [
                            {
                                "type": "text",
                                "text": "RE the database app i used for postgresql:\nits this:\n"
                            },
                            {
                                "type": "link",
                                "url": "https:\/\/github.com\/sosedoff\/pgweb"
                            },
                            {
                                "type": "text",
                                "text": "\n\nsetting it up is easy"
                            }
                        ]
                    }
                ]
            }
        ],
        "thread_ts": "1586278574.003400",
        "parent_user_id": "U010RE1NDCG"
    },
    {
        "client_msg_id": "bb10b8ad-3df9-4925-950e-4496e690e511",
        "type": "message",
        "text": "thanks! Im very cuirous about the plots. you gave me lots of keywords google now!",
        "user": "U010RE1NDCG",
        "ts": "1586278862.004400",
        "team": "TUU48M0T1",
        "user_team": "TUU48M0T1",
        "source_team": "TUU48M0T1",
        "user_profile": {
            "avatar_hash": "9b536de47814",
            "image_72": "https:\/\/avatars.slack-edge.com\/2020-03-27\/1033593346022_9b536de4781429680ea1_72.jpg",
            "first_name": "",
            "real_name": "Prashant Sinha",
            "display_name": "",
            "team": "TUU48M0T1",
            "name": "prashant",
            "is_restricted": false,
            "is_ultra_restricted": false
        },
        "blocks": [
            {
                "type": "rich_text",
                "block_id": "Km2y",
                "elements": [
                    {
                        "type": "rich_text_section",
                        "elements": [
                            {
                                "type": "text",
                                "text": "thanks! Im very cuirous about the plots. you gave me lots of keywords google now!"
                            }
                        ]
                    }
                ]
            }
        ],
        "thread_ts": "1586278574.003400",
        "parent_user_id": "U010RE1NDCG"
    },
    {
        "client_msg_id": "7d0cd032-44c4-43fe-b1fb-cc472a66538b",
        "type": "message",
        "text": "Out of curiosity, when we finally connect to the Slack API, will we be able to tell when a user joins the channel then leaves it (which probably explains the discrepancy between users in the channel and users with a join message) ? It doesn't seem to be apparent in the json data or I am overlooking something....",
        "user": "U0101DKUALV",
        "ts": "1586279213.006100",
        "team": "TUU48M0T1",
        "user_team": "TUU48M0T1",
        "source_team": "TUU48M0T1",
        "user_profile": {
            "avatar_hash": "b0aee06ed3e5",
            "image_72": "https:\/\/avatars.slack-edge.com\/2020-04-22\/1072886325190_b0aee06ed3e501ebdf56_72.png",
            "first_name": "",
            "real_name": "Pauline Chane",
            "display_name": "Pauline Chane",
            "team": "TUU48M0T1",
            "name": "pauline.chane",
            "is_restricted": false,
            "is_ultra_restricted": false
        },
        "blocks": [
            {
                "type": "rich_text",
                "block_id": "CuG5r",
                "elements": [
                    {
                        "type": "rich_text_section",
                        "elements": [
                            {
                                "type": "text",
                                "text": "Out of curiosity, when we finally connect to the Slack API, will we be able to tell when a user joins the channel then leaves it (which probably explains the discrepancy between users in the channel and users with a join message) ? It doesn't seem to be apparent in the json data or I am overlooking something...."
                            }
                        ]
                    }
                ]
            }
        ],
        "thread_ts": "1586279213.006100",
        "reply_count": 2,
        "reply_users_count": 2,
        "latest_reply": "1586296192.010700",
        "reply_users": [
            "U010B412MF1",
            "U010AGDDEBZ"
        ],
        "replies": [
            {
                "user": "U010B412MF1",
                "ts": "1586288434.006700"
            },
            {
                "user": "U010AGDDEBZ",
                "ts": "1586296192.010700"
            }
        ],
        "subscribed": false
    },
    {
        "client_msg_id": "8899ded2-eb08-4cfc-977c-6ea71ca509f0",
        "type": "message",
        "text": "what a note taker!",
        "user": "UV85V64SD",
        "ts": "1586279789.006200",
        "team": "TUU48M0T1",
        "user_team": "TUU48M0T1",
        "source_team": "TUU48M0T1",
        "user_profile": {
            "avatar_hash": "1e73a651bdfe",
            "image_72": "https:\/\/avatars.slack-edge.com\/2020-03-16\/1004297548853_1e73a651bdfef2c41501_72.jpg",
            "first_name": "Marc",
            "real_name": "Marc Santolini",
            "display_name": "Marc Santolini - JOGL CoFounder \/ CSO",
            "team": "TUU48M0T1",
            "name": "marc.santolini",
            "is_restricted": false,
            "is_ultra_restricted": false
        },
        "blocks": [
            {
                "type": "rich_text",
                "block_id": "bXHUy",
                "elements": [
                    {
                        "type": "rich_text_section",
                        "elements": [
                            {
                                "type": "text",
                                "text": "what a note taker!"
                            }
                        ]
                    }
                ]
            }
        ],
        "thread_ts": "1586278574.003400",
        "parent_user_id": "U010RE1NDCG"
    },
    {
        "client_msg_id": "3b19e003-a43d-413f-bec4-5383ea33e493",
        "type": "message",
        "text": "Great. You can talk and take notes at the same time:) <@U010RE1NDCG> :)",
        "user": "U010B412MF1",
        "ts": "1586288342.006500",
        "team": "TUU48M0T1",
        "user_team": "TUU48M0T1",
        "source_team": "TUU48M0T1",
        "user_profile": {
            "avatar_hash": "218d963a797f",
            "image_72": "https:\/\/avatars.slack-edge.com\/2020-03-19\/1013072792629_218d963a797fbf4410c0_72.png",
            "first_name": "",
            "real_name": "liu",
            "display_name": "liu",
            "team": "TUU48M0T1",
            "name": "liubov.tupikina",
            "is_restricted": false,
            "is_ultra_restricted": false
        },
        "blocks": [
            {
                "type": "rich_text",
                "block_id": "sU0hO",
                "elements": [
                    {
                        "type": "rich_text_section",
                        "elements": [
                            {
                                "type": "text",
                                "text": "Great. You can talk and take notes at the same time:) "
                            },
                            {
                                "type": "user",
                                "user_id": "U010RE1NDCG"
                            },
                            {
                                "type": "text",
                                "text": " :)"
                            }
                        ]
                    }
                ]
            }
        ],
        "thread_ts": "1586278574.003400",
        "parent_user_id": "U010RE1NDCG"
    },
    {
        "client_msg_id": "61cf8998-5f37-4de4-b7c6-6076d701d179",
        "type": "message",
        "text": "<@U010AGDDEBZ> i saw the creation of the channel and also info about time when user joins. But can you comment on <@U0101DKUALV> question? Tnx",
        "user": "U010B412MF1",
        "ts": "1586288434.006700",
        "team": "TUU48M0T1",
        "user_team": "TUU48M0T1",
        "source_team": "TUU48M0T1",
        "user_profile": {
            "avatar_hash": "218d963a797f",
            "image_72": "https:\/\/avatars.slack-edge.com\/2020-03-19\/1013072792629_218d963a797fbf4410c0_72.png",
            "first_name": "",
            "real_name": "liu",
            "display_name": "liu",
            "team": "TUU48M0T1",
            "name": "liubov.tupikina",
            "is_restricted": false,
            "is_ultra_restricted": false
        },
        "blocks": [
            {
                "type": "rich_text",
                "block_id": "T+TSf",
                "elements": [
                    {
                        "type": "rich_text_section",
                        "elements": [
                            {
                                "type": "user",
                                "user_id": "U010AGDDEBZ"
                            },
                            {
                                "type": "text",
                                "text": " i saw the creation of the channel and also info about time when user joins. But can you comment on "
                            },
                            {
                                "type": "user",
                                "user_id": "U0101DKUALV"
                            },
                            {
                                "type": "text",
                                "text": " question? Tnx"
                            }
                        ]
                    }
                ]
            }
        ],
        "thread_ts": "1586279213.006100",
        "parent_user_id": "U0101DKUALV"
    },
    {
        "client_msg_id": "385b93da-1adb-4d38-84c4-c388d0fb5e3b",
        "type": "message",
        "text": "<@U010AGDDEBZ> latest slack extract here <https:\/\/gitlab.com\/JOGL\/metastudy\/-\/tree\/master\/Slack%20data>",
        "user": "UV85V64SD",
        "ts": "1586294442.007100",
        "team": "TUU48M0T1",
        "user_team": "TUU48M0T1",
        "source_team": "TUU48M0T1",
        "user_profile": {
            "avatar_hash": "1e73a651bdfe",
            "image_72": "https:\/\/avatars.slack-edge.com\/2020-03-16\/1004297548853_1e73a651bdfef2c41501_72.jpg",
            "first_name": "Marc",
            "real_name": "Marc Santolini",
            "display_name": "Marc Santolini - JOGL CoFounder \/ CSO",
            "team": "TUU48M0T1",
            "name": "marc.santolini",
            "is_restricted": false,
            "is_ultra_restricted": false
        },
        "attachments": [
            {
                "service_name": "GitLab",
                "title": "Slack data · master · Just One Giant Lab \/ Metastudy",
                "title_link": "https:\/\/gitlab.com\/JOGL\/metastudy\/-\/tree\/master\/Slack%20data",
                "text": "Metastudy of the OpenCovid community organisation and response",
                "fallback": "GitLab: Slack data · master · Just One Giant Lab \/ Metastudy",
                "thumb_url": "https:\/\/assets.gitlab-static.net\/assets\/gitlab_logo-7ae504fe4f68fdebb3c2034e36621930cd36ea87924c11ff65dbcb8ed50dca58.png",
                "from_url": "https:\/\/gitlab.com\/JOGL\/metastudy\/-\/tree\/master\/Slack%20data",
                "thumb_width": 128,
                "thumb_height": 128,
                "service_icon": "https:\/\/assets.gitlab-static.net\/assets\/touch-icon-iphone-5a9cee0e8a51212e70b90c87c12f382c428870c0ff67d1eb034d884b78d2dae7.png",
                "id": 1,
                "original_url": "https:\/\/gitlab.com\/JOGL\/metastudy\/-\/tree\/master\/Slack%20data"
            }
        ],
        "blocks": [
            {
                "type": "rich_text",
                "block_id": "iAl1N",
                "elements": [
                    {
                        "type": "rich_text_section",
                        "elements": [
                            {
                                "type": "user",
                                "user_id": "U010AGDDEBZ"
                            },
                            {
                                "type": "text",
                                "text": " latest slack extract here "
                            },
                            {
                                "type": "link",
                                "url": "https:\/\/gitlab.com\/JOGL\/metastudy\/-\/tree\/master\/Slack%20data"
                            }
                        ]
                    }
                ]
            }
        ],
        "thread_ts": "1586294442.007100",
        "reply_count": 1,
        "reply_users_count": 1,
        "latest_reply": "1586296244.011000",
        "reply_users": [
            "U010AGDDEBZ"
        ],
        "replies": [
            {
                "user": "U010AGDDEBZ",
                "ts": "1586296244.011000"
            }
        ],
        "subscribed": false
    },
    {
        "client_msg_id": "035e1062-9ef6-4f73-9adf-06eb43cecac5",
        "type": "message",
        "text": "<@U010RE1NDCG> hopefully we can have your interactive viz from welearn by tomorrow evening? so that i show it at the call at 6pm",
        "user": "UV85V64SD",
        "ts": "1586294703.008700",
        "team": "TUU48M0T1",
        "user_team": "TUU48M0T1",
        "source_team": "TUU48M0T1",
        "user_profile": {
            "avatar_hash": "1e73a651bdfe",
            "image_72": "https:\/\/avatars.slack-edge.com\/2020-03-16\/1004297548853_1e73a651bdfef2c41501_72.jpg",
            "first_name": "Marc",
            "real_name": "Marc Santolini",
            "display_name": "Marc Santolini - JOGL CoFounder \/ CSO",
            "team": "TUU48M0T1",
            "name": "marc.santolini",
            "is_restricted": false,
            "is_ultra_restricted": false
        },
        "blocks": [
            {
                "type": "rich_text",
                "block_id": "9EwL",
                "elements": [
                    {
                        "type": "rich_text_section",
                        "elements": [
                            {
                                "type": "user",
                                "user_id": "U010RE1NDCG"
                            },
                            {
                                "type": "text",
                                "text": " hopefully we can have your interactive viz from welearn by tomorrow evening? so that i show it at the call at 6pm"
                            }
                        ]
                    }
                ]
            }
        ],
        "thread_ts": "1586294703.008700",
        "reply_count": 1,
        "reply_users_count": 1,
        "latest_reply": "1586344056.011600",
        "reply_users": [
            "U010RE1NDCG"
        ],
        "replies": [
            {
                "user": "U010RE1NDCG",
                "ts": "1586344056.011600"
            }
        ],
        "subscribed": false
    },
    {
        "client_msg_id": "1aa4ec9f-2212-40d3-b1c6-87fa1a5beb6f",
        "type": "message",
        "text": "also any way we can have simple statistics on timezones of people?",
        "user": "UV85V64SD",
        "ts": "1586295794.009200",
        "team": "TUU48M0T1",
        "user_team": "TUU48M0T1",
        "source_team": "TUU48M0T1",
        "user_profile": {
            "avatar_hash": "1e73a651bdfe",
            "image_72": "https:\/\/avatars.slack-edge.com\/2020-03-16\/1004297548853_1e73a651bdfef2c41501_72.jpg",
            "first_name": "Marc",
            "real_name": "Marc Santolini",
            "display_name": "Marc Santolini - JOGL CoFounder \/ CSO",
            "team": "TUU48M0T1",
            "name": "marc.santolini",
            "is_restricted": false,
            "is_ultra_restricted": false
        },
        "blocks": [
            {
                "type": "rich_text",
                "block_id": "PshG",
                "elements": [
                    {
                        "type": "rich_text_section",
                        "elements": [
                            {
                                "type": "text",
                                "text": "also any way we can have simple statistics on timezones of people?"
                            }
                        ]
                    }
                ]
            }
        ],
        "thread_ts": "1586295794.009200",
        "reply_count": 2,
        "reply_users_count": 2,
        "latest_reply": "1586333235.011400",
        "reply_users": [
            "U010AGDDEBZ",
            "UV85V64SD"
        ],
        "replies": [
            {
                "user": "U010AGDDEBZ",
                "ts": "1586296333.011200"
            },
            {
                "user": "UV85V64SD",
                "ts": "1586333235.011400"
            }
        ],
        "subscribed": false
    },
    {
        "client_msg_id": "96f96f04-4732-4935-89a6-1aed5e8a51d7",
        "type": "message",
        "text": "and rathin if you could push to the main repo pleaaaase!",
        "user": "UV85V64SD",
        "ts": "1586295921.009600",
        "team": "TUU48M0T1",
        "user_team": "TUU48M0T1",
        "source_team": "TUU48M0T1",
        "user_profile": {
            "avatar_hash": "1e73a651bdfe",
            "image_72": "https:\/\/avatars.slack-edge.com\/2020-03-16\/1004297548853_1e73a651bdfef2c41501_72.jpg",
            "first_name": "Marc",
            "real_name": "Marc Santolini",
            "display_name": "Marc Santolini - JOGL CoFounder \/ CSO",
            "team": "TUU48M0T1",
            "name": "marc.santolini",
            "is_restricted": false,
            "is_ultra_restricted": false
        },
        "blocks": [
            {
                "type": "rich_text",
                "block_id": "DIGTB",
                "elements": [
                    {
                        "type": "rich_text_section",
                        "elements": [
                            {
                                "type": "text",
                                "text": "and rathin if you could push to the main repo pleaaaase!"
                            }
                        ]
                    }
                ]
            }
        ]
    },
    {
        "client_msg_id": "cb2adcbe-c658-4abd-84d7-a367a5b86e91",
        "type": "message",
        "text": "in particular if you can save the dataframes you have generated in a reusable form",
        "user": "UV85V64SD",
        "ts": "1586296002.010100",
        "team": "TUU48M0T1",
        "user_team": "TUU48M0T1",
        "source_team": "TUU48M0T1",
        "user_profile": {
            "avatar_hash": "1e73a651bdfe",
            "image_72": "https:\/\/avatars.slack-edge.com\/2020-03-16\/1004297548853_1e73a651bdfef2c41501_72.jpg",
            "first_name": "Marc",
            "real_name": "Marc Santolini",
            "display_name": "Marc Santolini - JOGL CoFounder \/ CSO",
            "team": "TUU48M0T1",
            "name": "marc.santolini",
            "is_restricted": false,
            "is_ultra_restricted": false
        },
        "blocks": [
            {
                "type": "rich_text",
                "block_id": "6Pum",
                "elements": [
                    {
                        "type": "rich_text_section",
                        "elements": [
                            {
                                "type": "text",
                                "text": "in particular if you can save the dataframes you have generated in a reusable form"
                            }
                        ]
                    }
                ]
            }
        ]
    },
    {
        "client_msg_id": "e16db430-2e95-49a2-9dba-4bda0843f5e3",
        "type": "message",
        "text": "like csv or tsv",
        "user": "UV85V64SD",
        "ts": "1586296006.010300",
        "team": "TUU48M0T1",
        "user_team": "TUU48M0T1",
        "source_team": "TUU48M0T1",
        "user_profile": {
            "avatar_hash": "1e73a651bdfe",
            "image_72": "https:\/\/avatars.slack-edge.com\/2020-03-16\/1004297548853_1e73a651bdfef2c41501_72.jpg",
            "first_name": "Marc",
            "real_name": "Marc Santolini",
            "display_name": "Marc Santolini - JOGL CoFounder \/ CSO",
            "team": "TUU48M0T1",
            "name": "marc.santolini",
            "is_restricted": false,
            "is_ultra_restricted": false
        },
        "blocks": [
            {
                "type": "rich_text",
                "block_id": "bv1XP",
                "elements": [
                    {
                        "type": "rich_text_section",
                        "elements": [
                            {
                                "type": "text",
                                "text": "like csv or tsv"
                            }
                        ]
                    }
                ]
            }
        ]
    },
    {
        "client_msg_id": "aabe036a-2bd7-4d2e-9cdc-cfac57c57a7a",
        "type": "message",
        "text": "would be great!",
        "user": "UV85V64SD",
        "ts": "1586296008.010500",
        "team": "TUU48M0T1",
        "user_team": "TUU48M0T1",
        "source_team": "TUU48M0T1",
        "user_profile": {
            "avatar_hash": "1e73a651bdfe",
            "image_72": "https:\/\/avatars.slack-edge.com\/2020-03-16\/1004297548853_1e73a651bdfef2c41501_72.jpg",
            "first_name": "Marc",
            "real_name": "Marc Santolini",
            "display_name": "Marc Santolini - JOGL CoFounder \/ CSO",
            "team": "TUU48M0T1",
            "name": "marc.santolini",
            "is_restricted": false,
            "is_ultra_restricted": false
        },
        "blocks": [
            {
                "type": "rich_text",
                "block_id": "5fPV",
                "elements": [
                    {
                        "type": "rich_text_section",
                        "elements": [
                            {
                                "type": "text",
                                "text": "would be great!"
                            }
                        ]
                    }
                ]
            }
        ]
    },
    {
        "client_msg_id": "10a898c1-e743-4eeb-9d84-44db7dd9ab86",
        "type": "message",
        "text": "It doesn't seem to be apparent in the json data. But I'm not sure if users have left. I'll look at some other sources on how the API stores information to look at this <@U0101DKUALV>",
        "user": "U010AGDDEBZ",
        "ts": "1586296192.010700",
        "team": "TUU48M0T1",
        "user_team": "TUU48M0T1",
        "source_team": "TUU48M0T1",
        "user_profile": {
            "avatar_hash": "a1cf28a8adcc",
            "image_72": "https:\/\/avatars.slack-edge.com\/2020-03-22\/1017122430308_a1cf28a8adcc052e8332_72.png",
            "first_name": "Rathin",
            "real_name": "Rathin Jeyaram",
            "display_name": "Rathin Jeyaram",
            "team": "TUU48M0T1",
            "name": "jeyaram.rathin",
            "is_restricted": false,
            "is_ultra_restricted": false
        },
        "blocks": [
            {
                "type": "rich_text",
                "block_id": "RYx",
                "elements": [
                    {
                        "type": "rich_text_section",
                        "elements": [
                            {
                                "type": "text",
                                "text": "It doesn't seem to be apparent in the json data. But I'm not sure if users have left. I'll look at some other sources on how the API stores information to look at this "
                            },
                            {
                                "type": "user",
                                "user_id": "U0101DKUALV"
                            }
                        ]
                    }
                ]
            }
        ],
        "thread_ts": "1586279213.006100",
        "parent_user_id": "U0101DKUALV",
        "reactions": [
            {
                "name": "+1",
                "users": [
                    "U0101DKUALV"
                ],
                "count": 1
            }
        ]
    },
    {
        "client_msg_id": "3c8708c6-3420-4ec8-a643-871749233a52",
        "type": "message",
        "text": "Thanks <@UV85V64SD>",
        "user": "U010AGDDEBZ",
        "ts": "1586296244.011000",
        "team": "TUU48M0T1",
        "user_team": "TUU48M0T1",
        "source_team": "TUU48M0T1",
        "user_profile": {
            "avatar_hash": "a1cf28a8adcc",
            "image_72": "https:\/\/avatars.slack-edge.com\/2020-03-22\/1017122430308_a1cf28a8adcc052e8332_72.png",
            "first_name": "Rathin",
            "real_name": "Rathin Jeyaram",
            "display_name": "Rathin Jeyaram",
            "team": "TUU48M0T1",
            "name": "jeyaram.rathin",
            "is_restricted": false,
            "is_ultra_restricted": false
        },
        "blocks": [
            {
                "type": "rich_text",
                "block_id": "99tb2",
                "elements": [
                    {
                        "type": "rich_text_section",
                        "elements": [
                            {
                                "type": "text",
                                "text": "Thanks "
                            },
                            {
                                "type": "user",
                                "user_id": "UV85V64SD"
                            }
                        ]
                    }
                ]
            }
        ],
        "thread_ts": "1586294442.007100",
        "parent_user_id": "UV85V64SD"
    },
    {
        "client_msg_id": "c902a719-97b0-411f-a63f-7e4d06415afe",
        "type": "message",
        "text": "I have a dataframe on the timezones on users. But the issue it is not for all (minus some 40 users). I'll push the .CSV file along with the other code",
        "user": "U010AGDDEBZ",
        "ts": "1586296333.011200",
        "team": "TUU48M0T1",
        "user_team": "TUU48M0T1",
        "source_team": "TUU48M0T1",
        "user_profile": {
            "avatar_hash": "a1cf28a8adcc",
            "image_72": "https:\/\/avatars.slack-edge.com\/2020-03-22\/1017122430308_a1cf28a8adcc052e8332_72.png",
            "first_name": "Rathin",
            "real_name": "Rathin Jeyaram",
            "display_name": "Rathin Jeyaram",
            "team": "TUU48M0T1",
            "name": "jeyaram.rathin",
            "is_restricted": false,
            "is_ultra_restricted": false
        },
        "blocks": [
            {
                "type": "rich_text",
                "block_id": "u2O",
                "elements": [
                    {
                        "type": "rich_text_section",
                        "elements": [
                            {
                                "type": "text",
                                "text": "I have a dataframe on the timezones on users. But the issue it is not for all (minus some 40 users). I'll push the .CSV file along with the other code"
                            }
                        ]
                    }
                ]
            }
        ],
        "thread_ts": "1586295794.009200",
        "parent_user_id": "UV85V64SD"
    }
]