[
    {
        "client_msg_id": "09bef44e-d45b-45f7-9046-5da70ffd5bb1",
        "type": "message",
        "text": "wow <@U010RE1NDCG>!",
        "user": "UV85V64SD",
        "ts": "1585730666.026800",
        "team": "TUU48M0T1",
        "user_team": "TUU48M0T1",
        "source_team": "TUU48M0T1",
        "user_profile": {
            "avatar_hash": "1e73a651bdfe",
            "image_72": "https:\/\/avatars.slack-edge.com\/2020-03-16\/1004297548853_1e73a651bdfef2c41501_72.jpg",
            "first_name": "Marc",
            "real_name": "Marc Santolini",
            "display_name": "Marc Santolini - JOGL CoFounder \/ CSO",
            "team": "TUU48M0T1",
            "name": "marc.santolini",
            "is_restricted": false,
            "is_ultra_restricted": false
        },
        "blocks": [
            {
                "type": "rich_text",
                "block_id": "pyvl",
                "elements": [
                    {
                        "type": "rich_text_section",
                        "elements": [
                            {
                                "type": "text",
                                "text": "wow "
                            },
                            {
                                "type": "user",
                                "user_id": "U010RE1NDCG"
                            },
                            {
                                "type": "text",
                                "text": "!"
                            }
                        ]
                    }
                ]
            }
        ]
    },
    {
        "client_msg_id": "186fc210-466c-4316-8050-3bc6acce75a0",
        "type": "message",
        "text": "I added some updates in the issue mentioned above. If you want to look at the changes i made, its' here: <https:\/\/github.com\/prashnts\/teamchatviz\/tree\/adaption>\n\nI will fix few more issues and then i think we can plug in slack api keys to get some nice viz",
        "user": "U010RE1NDCG",
        "ts": "1585751151.029300",
        "team": "TUU48M0T1",
        "user_team": "TUU48M0T1",
        "source_team": "TUU48M0T1",
        "user_profile": {
            "avatar_hash": "9b536de47814",
            "image_72": "https:\/\/avatars.slack-edge.com\/2020-03-27\/1033593346022_9b536de4781429680ea1_72.jpg",
            "first_name": "",
            "real_name": "Prashant Sinha",
            "display_name": "",
            "team": "TUU48M0T1",
            "name": "prashant",
            "is_restricted": false,
            "is_ultra_restricted": false
        },
        "blocks": [
            {
                "type": "rich_text",
                "block_id": "XZhUr",
                "elements": [
                    {
                        "type": "rich_text_section",
                        "elements": [
                            {
                                "type": "text",
                                "text": "I added some updates in the issue mentioned above. If you want to look at the changes i made, its' here: "
                            },
                            {
                                "type": "link",
                                "url": "https:\/\/github.com\/prashnts\/teamchatviz\/tree\/adaption"
                            },
                            {
                                "type": "text",
                                "text": "\n\nI will fix few more issues and then i think we can plug in slack api keys to get some nice viz"
                            }
                        ]
                    }
                ]
            }
        ],
        "thread_ts": "1585751151.029300",
        "reply_count": 1,
        "reply_users_count": 1,
        "latest_reply": "1585905989.032700",
        "reply_users": [
            "U010B412MF1"
        ],
        "replies": [
            {
                "user": "U010B412MF1",
                "ts": "1585905989.032700"
            }
        ],
        "subscribed": false,
        "reactions": [
            {
                "name": "+1",
                "users": [
                    "U010B412MF1"
                ],
                "count": 1
            }
        ]
    },
    {
        "type": "message",
        "text": "got some more things working. couldnt get to load opencovid slack though. i think an admin user must sign in, cuz now i see that slack api is raising `slack_webapi_platform_error`  when i try to login with my account <@UVC9WMA7N> (more details on gitlab tomorrow. nodejs is annoyingly painful to debug.)",
        "files": [
            {
                "id": "F010VUEUK3L",
                "created": 1585776138,
                "timestamp": 1585776138,
                "name": "Snip 2020-04-01 at 23.07.16.png",
                "title": "Snip 2020-04-01 at 23.07.16.png",
                "mimetype": "image\/png",
                "filetype": "png",
                "pretty_type": "PNG",
                "user": "U010RE1NDCG",
                "editable": false,
                "size": 388708,
                "mode": "hosted",
                "is_external": false,
                "external_type": "",
                "is_public": true,
                "public_url_shared": false,
                "display_as_bot": false,
                "username": "",
                "url_private": "https:\/\/files.slack.com\/files-pri\/TUU48M0T1-F010VUEUK3L\/snip_2020-04-01_at_23.07.16.png?t=xoxe-980144714919-1106606678066-1105227127893-6f722bb664235052954ad46852628b64",
                "url_private_download": "https:\/\/files.slack.com\/files-pri\/TUU48M0T1-F010VUEUK3L\/download\/snip_2020-04-01_at_23.07.16.png?t=xoxe-980144714919-1106606678066-1105227127893-6f722bb664235052954ad46852628b64",
                "thumb_64": "https:\/\/files.slack.com\/files-tmb\/TUU48M0T1-F010VUEUK3L-7938c1a4c0\/snip_2020-04-01_at_23.07.16_64.png?t=xoxe-980144714919-1106606678066-1105227127893-6f722bb664235052954ad46852628b64",
                "thumb_80": "https:\/\/files.slack.com\/files-tmb\/TUU48M0T1-F010VUEUK3L-7938c1a4c0\/snip_2020-04-01_at_23.07.16_80.png?t=xoxe-980144714919-1106606678066-1105227127893-6f722bb664235052954ad46852628b64",
                "thumb_360": "https:\/\/files.slack.com\/files-tmb\/TUU48M0T1-F010VUEUK3L-7938c1a4c0\/snip_2020-04-01_at_23.07.16_360.png?t=xoxe-980144714919-1106606678066-1105227127893-6f722bb664235052954ad46852628b64",
                "thumb_360_w": 360,
                "thumb_360_h": 270,
                "thumb_480": "https:\/\/files.slack.com\/files-tmb\/TUU48M0T1-F010VUEUK3L-7938c1a4c0\/snip_2020-04-01_at_23.07.16_480.png?t=xoxe-980144714919-1106606678066-1105227127893-6f722bb664235052954ad46852628b64",
                "thumb_480_w": 480,
                "thumb_480_h": 360,
                "thumb_160": "https:\/\/files.slack.com\/files-tmb\/TUU48M0T1-F010VUEUK3L-7938c1a4c0\/snip_2020-04-01_at_23.07.16_160.png?t=xoxe-980144714919-1106606678066-1105227127893-6f722bb664235052954ad46852628b64",
                "thumb_720": "https:\/\/files.slack.com\/files-tmb\/TUU48M0T1-F010VUEUK3L-7938c1a4c0\/snip_2020-04-01_at_23.07.16_720.png?t=xoxe-980144714919-1106606678066-1105227127893-6f722bb664235052954ad46852628b64",
                "thumb_720_w": 720,
                "thumb_720_h": 539,
                "thumb_800": "https:\/\/files.slack.com\/files-tmb\/TUU48M0T1-F010VUEUK3L-7938c1a4c0\/snip_2020-04-01_at_23.07.16_800.png?t=xoxe-980144714919-1106606678066-1105227127893-6f722bb664235052954ad46852628b64",
                "thumb_800_w": 800,
                "thumb_800_h": 599,
                "thumb_960": "https:\/\/files.slack.com\/files-tmb\/TUU48M0T1-F010VUEUK3L-7938c1a4c0\/snip_2020-04-01_at_23.07.16_960.png?t=xoxe-980144714919-1106606678066-1105227127893-6f722bb664235052954ad46852628b64",
                "thumb_960_w": 960,
                "thumb_960_h": 719,
                "thumb_1024": "https:\/\/files.slack.com\/files-tmb\/TUU48M0T1-F010VUEUK3L-7938c1a4c0\/snip_2020-04-01_at_23.07.16_1024.png?t=xoxe-980144714919-1106606678066-1105227127893-6f722bb664235052954ad46852628b64",
                "thumb_1024_w": 1024,
                "thumb_1024_h": 767,
                "image_exif_rotation": 1,
                "original_w": 2742,
                "original_h": 2054,
                "thumb_tiny": "AwAjADC2bOH+6f8Avo0n2OH+5\/48as0GgCv9kh\/un\/vo0fZIe4P\/AH0anUkjkYpaAK\/2OD+6f++jQLSA9j\/30asUUAFFFFABiiiigAooooAQ0gJzStTR1FAD6KKKACiiigD\/2Q==",
                "permalink": "https:\/\/open-covid19.slack.com\/files\/U010RE1NDCG\/F010VUEUK3L\/snip_2020-04-01_at_23.07.16.png",
                "permalink_public": "https:\/\/slack-files.com\/TUU48M0T1-F010VUEUK3L-eb769754bb",
                "is_starred": false,
                "has_rich_preview": false
            },
            {
                "id": "F010VUEUKBL",
                "created": 1585776138,
                "timestamp": 1585776138,
                "name": "Snip 2020-04-01 at 23.07.22.png",
                "title": "Snip 2020-04-01 at 23.07.22.png",
                "mimetype": "image\/png",
                "filetype": "png",
                "pretty_type": "PNG",
                "user": "U010RE1NDCG",
                "editable": false,
                "size": 398204,
                "mode": "hosted",
                "is_external": false,
                "external_type": "",
                "is_public": true,
                "public_url_shared": false,
                "display_as_bot": false,
                "username": "",
                "url_private": "https:\/\/files.slack.com\/files-pri\/TUU48M0T1-F010VUEUKBL\/snip_2020-04-01_at_23.07.22.png?t=xoxe-980144714919-1106606678066-1105227127893-6f722bb664235052954ad46852628b64",
                "url_private_download": "https:\/\/files.slack.com\/files-pri\/TUU48M0T1-F010VUEUKBL\/download\/snip_2020-04-01_at_23.07.22.png?t=xoxe-980144714919-1106606678066-1105227127893-6f722bb664235052954ad46852628b64",
                "thumb_64": "https:\/\/files.slack.com\/files-tmb\/TUU48M0T1-F010VUEUKBL-0e9f1d156a\/snip_2020-04-01_at_23.07.22_64.png?t=xoxe-980144714919-1106606678066-1105227127893-6f722bb664235052954ad46852628b64",
                "thumb_80": "https:\/\/files.slack.com\/files-tmb\/TUU48M0T1-F010VUEUKBL-0e9f1d156a\/snip_2020-04-01_at_23.07.22_80.png?t=xoxe-980144714919-1106606678066-1105227127893-6f722bb664235052954ad46852628b64",
                "thumb_360": "https:\/\/files.slack.com\/files-tmb\/TUU48M0T1-F010VUEUKBL-0e9f1d156a\/snip_2020-04-01_at_23.07.22_360.png?t=xoxe-980144714919-1106606678066-1105227127893-6f722bb664235052954ad46852628b64",
                "thumb_360_w": 360,
                "thumb_360_h": 270,
                "thumb_480": "https:\/\/files.slack.com\/files-tmb\/TUU48M0T1-F010VUEUKBL-0e9f1d156a\/snip_2020-04-01_at_23.07.22_480.png?t=xoxe-980144714919-1106606678066-1105227127893-6f722bb664235052954ad46852628b64",
                "thumb_480_w": 480,
                "thumb_480_h": 360,
                "thumb_160": "https:\/\/files.slack.com\/files-tmb\/TUU48M0T1-F010VUEUKBL-0e9f1d156a\/snip_2020-04-01_at_23.07.22_160.png?t=xoxe-980144714919-1106606678066-1105227127893-6f722bb664235052954ad46852628b64",
                "thumb_720": "https:\/\/files.slack.com\/files-tmb\/TUU48M0T1-F010VUEUKBL-0e9f1d156a\/snip_2020-04-01_at_23.07.22_720.png?t=xoxe-980144714919-1106606678066-1105227127893-6f722bb664235052954ad46852628b64",
                "thumb_720_w": 720,
                "thumb_720_h": 539,
                "thumb_800": "https:\/\/files.slack.com\/files-tmb\/TUU48M0T1-F010VUEUKBL-0e9f1d156a\/snip_2020-04-01_at_23.07.22_800.png?t=xoxe-980144714919-1106606678066-1105227127893-6f722bb664235052954ad46852628b64",
                "thumb_800_w": 800,
                "thumb_800_h": 599,
                "thumb_960": "https:\/\/files.slack.com\/files-tmb\/TUU48M0T1-F010VUEUKBL-0e9f1d156a\/snip_2020-04-01_at_23.07.22_960.png?t=xoxe-980144714919-1106606678066-1105227127893-6f722bb664235052954ad46852628b64",
                "thumb_960_w": 960,
                "thumb_960_h": 719,
                "thumb_1024": "https:\/\/files.slack.com\/files-tmb\/TUU48M0T1-F010VUEUKBL-0e9f1d156a\/snip_2020-04-01_at_23.07.22_1024.png?t=xoxe-980144714919-1106606678066-1105227127893-6f722bb664235052954ad46852628b64",
                "thumb_1024_w": 1024,
                "thumb_1024_h": 767,
                "image_exif_rotation": 1,
                "original_w": 2742,
                "original_h": 2054,
                "thumb_tiny": "AwAjADC2bOH+6fxY0n2OH+5\/48as0jnapJoAg+yQ\/wB0\/wDfRo+yQ9wf++jThLjrk0vnD0NOxPMhn2OD+6f++jQLSA9j\/wB9Gka8RWI2txUsMolUsARg45pWGmmSUyX\/AFZp9Ml\/1ZoB7Feo\/KP\/AD0f86koqzG5Vk\/1jfWrlj\/qW\/3qpyf6xvrVyx\/1Lf71JjhuWDSZzStTR1FSbDsD0FGB6ClooATav90flQAAOBilooA\/\/9k=",
                "permalink": "https:\/\/open-covid19.slack.com\/files\/U010RE1NDCG\/F010VUEUKBL\/snip_2020-04-01_at_23.07.22.png",
                "permalink_public": "https:\/\/slack-files.com\/TUU48M0T1-F010VUEUKBL-bc9910db97",
                "is_starred": false,
                "has_rich_preview": false
            }
        ],
        "upload": true,
        "blocks": [
            {
                "type": "rich_text",
                "block_id": "XpOfp",
                "elements": [
                    {
                        "type": "rich_text_section",
                        "elements": [
                            {
                                "type": "text",
                                "text": "got some more things working. couldnt get to load opencovid slack though. i think an admin user must sign in, cuz now i see that slack api is raising "
                            },
                            {
                                "type": "text",
                                "text": "slack_webapi_platform_error",
                                "style": {
                                    "code": true
                                }
                            },
                            {
                                "type": "text",
                                "text": "  when i try to login with my account "
                            },
                            {
                                "type": "user",
                                "user_id": "UVC9WMA7N"
                            },
                            {
                                "type": "text",
                                "text": " (more details on gitlab tomorrow. nodejs is annoyingly painful to debug.)"
                            }
                        ]
                    }
                ]
            }
        ],
        "user": "U010RE1NDCG",
        "ts": "1585776145.029400",
        "client_msg_id": "4b2acefe-0f33-47ad-a9b7-5747b0b65ab5",
        "thread_ts": "1585776145.029400",
        "reply_count": 3,
        "reply_users_count": 2,
        "latest_reply": "1586077583.000600",
        "reply_users": [
            "U010B412MF1",
            "U010RE1NDCG"
        ],
        "replies": [
            {
                "user": "U010B412MF1",
                "ts": "1586075755.000200"
            },
            {
                "user": "U010RE1NDCG",
                "ts": "1586077417.000400"
            },
            {
                "user": "U010B412MF1",
                "ts": "1586077583.000600"
            }
        ],
        "subscribed": false,
        "reactions": [
            {
                "name": "earth_africa",
                "users": [
                    "U010B412MF1"
                ],
                "count": 1
            }
        ]
    }
]