[
    {
        "client_msg_id": "20914bbb-2b1a-4fbf-ac5e-bc1767d5cb4a",
        "type": "message",
        "text": "Hi <@U010RE1NDCG>, \nDo you need to synchronise on Tuesday or is it too soon?",
        "user": "U010B412MF1",
        "ts": "1586075755.000200",
        "team": "TUU48M0T1",
        "user_team": "TUU48M0T1",
        "source_team": "TUU48M0T1",
        "user_profile": {
            "avatar_hash": "218d963a797f",
            "image_72": "https:\/\/avatars.slack-edge.com\/2020-03-19\/1013072792629_218d963a797fbf4410c0_72.png",
            "first_name": "",
            "real_name": "liu",
            "display_name": "liu",
            "team": "TUU48M0T1",
            "name": "liubov.tupikina",
            "is_restricted": false,
            "is_ultra_restricted": false
        },
        "blocks": [
            {
                "type": "rich_text",
                "block_id": "UCQBD",
                "elements": [
                    {
                        "type": "rich_text_section",
                        "elements": [
                            {
                                "type": "text",
                                "text": "Hi "
                            },
                            {
                                "type": "user",
                                "user_id": "U010RE1NDCG"
                            },
                            {
                                "type": "text",
                                "text": ", \nDo you need to synchronise on Tuesday or is it too soon?"
                            }
                        ]
                    }
                ]
            }
        ],
        "thread_ts": "1585776145.029400",
        "parent_user_id": "U010RE1NDCG"
    },
    {
        "client_msg_id": "C4C6A2C1-A80F-4596-90A0-31179BBCA817",
        "type": "message",
        "text": "Hey, syncronising on Tuesday would be great yeah. That gives me today and tomorrow ",
        "user": "U010RE1NDCG",
        "ts": "1586077417.000400",
        "team": "TUU48M0T1",
        "user_team": "TUU48M0T1",
        "source_team": "TUU48M0T1",
        "user_profile": {
            "avatar_hash": "9b536de47814",
            "image_72": "https:\/\/avatars.slack-edge.com\/2020-03-27\/1033593346022_9b536de4781429680ea1_72.jpg",
            "first_name": "",
            "real_name": "Prashant Sinha",
            "display_name": "",
            "team": "TUU48M0T1",
            "name": "prashant",
            "is_restricted": false,
            "is_ultra_restricted": false
        },
        "thread_ts": "1585776145.029400",
        "parent_user_id": "U010RE1NDCG"
    },
    {
        "client_msg_id": "19ce6611-4c0d-470a-a679-a2b037a0cd9f",
        "type": "message",
        "text": "I mean usually we have weekly meetings on Tuesday at 6pm ...",
        "user": "U010B412MF1",
        "ts": "1586077583.000600",
        "team": "TUU48M0T1",
        "user_team": "TUU48M0T1",
        "source_team": "TUU48M0T1",
        "user_profile": {
            "avatar_hash": "218d963a797f",
            "image_72": "https:\/\/avatars.slack-edge.com\/2020-03-19\/1013072792629_218d963a797fbf4410c0_72.png",
            "first_name": "",
            "real_name": "liu",
            "display_name": "liu",
            "team": "TUU48M0T1",
            "name": "liubov.tupikina",
            "is_restricted": false,
            "is_ultra_restricted": false
        },
        "blocks": [
            {
                "type": "rich_text",
                "block_id": "QSTL",
                "elements": [
                    {
                        "type": "rich_text_section",
                        "elements": [
                            {
                                "type": "text",
                                "text": "I mean usually we have weekly meetings on Tuesday at 6pm ..."
                            }
                        ]
                    }
                ]
            }
        ],
        "thread_ts": "1585776145.029400",
        "parent_user_id": "U010RE1NDCG"
    },
    {
        "client_msg_id": "742a38d9-cb58-4020-9ca8-aae57e867b22",
        "type": "message",
        "text": "Hey everyone,\nThe link to the zoom meeting on Tuesday 6pm - 6h30 pm\n\n<https:\/\/www.google.com\/url?q=https%3A%2F%2Fzoom.us%2Fj%2F191378727%3Fpwd%3DN2Y0cEdaYUlldHVJbG5OVFhkMXlQUT09&amp;sa=D&amp;ust=1586536637535000&amp;usg=AFQjCNGLPLRIPtxlQUgwc9teI8Mhwb-3pA>\nEveryone is welcome!!\n\nAnd yes, it is zoom meeting finally :birthday::fire::sparkles:",
        "user": "U010B412MF1",
        "ts": "1586122698.002200",
        "team": "TUU48M0T1",
        "user_team": "TUU48M0T1",
        "source_team": "TUU48M0T1",
        "user_profile": {
            "avatar_hash": "218d963a797f",
            "image_72": "https:\/\/avatars.slack-edge.com\/2020-03-19\/1013072792629_218d963a797fbf4410c0_72.png",
            "first_name": "",
            "real_name": "liu",
            "display_name": "liu",
            "team": "TUU48M0T1",
            "name": "liubov.tupikina",
            "is_restricted": false,
            "is_ultra_restricted": false
        },
        "edited": {
            "user": "U010B412MF1",
            "ts": "1586196569.000000"
        },
        "blocks": [
            {
                "type": "rich_text",
                "block_id": "Ijs",
                "elements": [
                    {
                        "type": "rich_text_section",
                        "elements": [
                            {
                                "type": "text",
                                "text": "Hey everyone,\nThe link to the zoom meeting on Tuesday 6pm - 6h30 pm\n\n"
                            },
                            {
                                "type": "link",
                                "url": "https:\/\/www.google.com\/url?q=https%3A%2F%2Fzoom.us%2Fj%2F191378727%3Fpwd%3DN2Y0cEdaYUlldHVJbG5OVFhkMXlQUT09&sa=D&ust=1586536637535000&usg=AFQjCNGLPLRIPtxlQUgwc9teI8Mhwb-3pA"
                            },
                            {
                                "type": "text",
                                "text": "\nEveryone is welcome!!\n\nAnd yes, it is zoom meeting finally "
                            },
                            {
                                "type": "emoji",
                                "name": "birthday"
                            },
                            {
                                "type": "emoji",
                                "name": "fire"
                            },
                            {
                                "type": "emoji",
                                "name": "sparkles"
                            }
                        ]
                    }
                ]
            }
        ]
    }
]