<?xml version="1.0" encoding="UTF-8"?>
<graphml xmlns="http://graphml.graphdrawing.org/xmlns"
         xmlns:xsi="http://www.w3.org/2001/XMLSchema-instance"
         xsi:schemaLocation="http://graphml.graphdrawing.org/xmlns
         http://graphml.graphdrawing.org/xmlns/1.0/graphml.xsd">
<!-- Created by igraph -->
  <key id="e_weight" for="edge" attr.name="weight" attr.type="double"/>
  <graph id="G" edgedefault="directed">
    <node id="n0">
    </node>
    <node id="n1">
    </node>
    <edge source="n0" target="n0">
      <data key="e_weight">58</data>
    </edge>
    <edge source="n0" target="n1">
      <data key="e_weight">12</data>
    </edge>
    <edge source="n1" target="n0">
      <data key="e_weight">12</data>
    </edge>
    <edge source="n1" target="n1">
      <data key="e_weight">866</data>
    </edge>
  </graph>
</graphml>
