[
    {
        "type": "message",
        "subtype": "channel_join",
        "ts": "1584778874.000200",
        "user": "U0108DWH5NH",
        "text": "<@U0108DWH5NH> has joined the channel"
    },
    {
        "client_msg_id": "1766ce89-f224-45ff-ba73-1e090eaa3eab",
        "type": "message",
        "text": "Hello! What time is the Hardware Team Call today?",
        "user": "U0106PLV8PJ",
        "ts": "1584796232.000900",
        "team": "TUU48M0T1",
        "user_team": "TUU48M0T1",
        "source_team": "TUU48M0T1",
        "user_profile": {
            "avatar_hash": "g2cfc1aee243",
            "image_72": "https:\/\/secure.gravatar.com\/avatar\/2cfc1aee24305a18a647efef16d68e02.jpg?s=72&d=https%3A%2F%2Fa.slack-edge.com%2Fdf10d%2Fimg%2Favatars%2Fava_0012-72.png",
            "first_name": "",
            "real_name": "Rupin Chheda",
            "display_name": "",
            "team": "TUU48M0T1",
            "name": "rupin.chheda",
            "is_restricted": false,
            "is_ultra_restricted": false
        },
        "blocks": [
            {
                "type": "rich_text",
                "block_id": "HAj+",
                "elements": [
                    {
                        "type": "rich_text_section",
                        "elements": [
                            {
                                "type": "text",
                                "text": "Hello! What time is the Hardware Team Call today?"
                            }
                        ]
                    }
                ]
            }
        ]
    },
    {
        "client_msg_id": "fca1a61b-16d2-4754-8a19-bd2b64b7cea9",
        "type": "message",
        "text": "7PM Paris time?",
        "user": "U0106PLV8PJ",
        "ts": "1584796240.001200",
        "team": "TUU48M0T1",
        "user_team": "TUU48M0T1",
        "source_team": "TUU48M0T1",
        "user_profile": {
            "avatar_hash": "g2cfc1aee243",
            "image_72": "https:\/\/secure.gravatar.com\/avatar\/2cfc1aee24305a18a647efef16d68e02.jpg?s=72&d=https%3A%2F%2Fa.slack-edge.com%2Fdf10d%2Fimg%2Favatars%2Fava_0012-72.png",
            "first_name": "",
            "real_name": "Rupin Chheda",
            "display_name": "",
            "team": "TUU48M0T1",
            "name": "rupin.chheda",
            "is_restricted": false,
            "is_ultra_restricted": false
        },
        "blocks": [
            {
                "type": "rich_text",
                "block_id": "EROaf",
                "elements": [
                    {
                        "type": "rich_text_section",
                        "elements": [
                            {
                                "type": "text",
                                "text": "7PM Paris time?"
                            }
                        ]
                    }
                ]
            }
        ]
    },
    {
        "client_msg_id": "fcbef042-a12e-4654-a6d9-900c085cde8f",
        "type": "message",
        "text": "Yes, that's correct.",
        "user": "UVADMLUB0",
        "ts": "1584811373.001400",
        "team": "TUU48M0T1",
        "user_team": "TUU48M0T1",
        "source_team": "TUU48M0T1",
        "user_profile": {
            "avatar_hash": "14179705705a",
            "image_72": "https:\/\/avatars.slack-edge.com\/2020-03-11\/981468022482_14179705705a94b3db16_72.jpg",
            "first_name": "Bill",
            "real_name": "Bill Slavin",
            "display_name": "Bill Slavin- Executive Director, Indie Lab",
            "team": "TUU48M0T1",
            "name": "bill",
            "is_restricted": false,
            "is_ultra_restricted": false
        },
        "blocks": [
            {
                "type": "rich_text",
                "block_id": "J=zk",
                "elements": [
                    {
                        "type": "rich_text_section",
                        "elements": [
                            {
                                "type": "text",
                                "text": "Yes, that's correct."
                            }
                        ]
                    }
                ]
            }
        ]
    },
    {
        "type": "message",
        "text": "",
        "files": [
            {
                "id": "F010H1U03PA",
                "created": 1584820194,
                "timestamp": 1584820194,
                "name": "O2 Budget",
                "title": "O2 Budget",
                "mimetype": "application\/vnd.google-apps.spreadsheet",
                "filetype": "gsheet",
                "pretty_type": "GSuite Spreadsheet",
                "user": "UVADMLUB0",
                "editable": false,
                "size": 124179,
                "mode": "external",
                "is_external": true,
                "external_type": "gdrive",
                "is_public": true,
                "public_url_shared": false,
                "display_as_bot": false,
                "username": "",
                "url_private": "https:\/\/docs.google.com\/spreadsheets\/d\/1ej1c1Uv9czZ30jSucVv20ZePXrlXtcd0IcUXOlsgmk0\/edit?usp=drive_web",
                "thumb_64": "https:\/\/a.slack-edge.com\/80588\/img\/files\/gsheet_64.png",
                "thumb_360": "https:\/\/a.slack-edge.com\/80588\/img\/files\/gsheet_360.png",
                "thumb_360_w": 360,
                "thumb_360_h": 167,
                "permalink": "https:\/\/open-covid19.slack.com\/files\/UVADMLUB0\/F010H1U03PA\/o2_budget",
                "is_starred": false,
                "external_id": "1ej1c1Uv9czZ30jSucVv20ZePXrlXtcd0IcUXOlsgmk0",
                "external_url": "https:\/\/docs.google.com\/spreadsheets\/d\/1ej1c1Uv9czZ30jSucVv20ZePXrlXtcd0IcUXOlsgmk0\/edit?usp=drive_web",
                "has_rich_preview": true
            }
        ],
        "upload": false,
        "user": "UVADMLUB0",
        "display_as_bot": false,
        "ts": "1584820194.001500"
    },
    {
        "type": "message",
        "text": "",
        "files": [
            {
                "id": "F0105HLASBD",
                "created": 1584820509,
                "timestamp": 1584820509,
                "name": "Calculations",
                "title": "Calculations",
                "mimetype": "application\/vnd.google-apps.spreadsheet",
                "filetype": "gsheet",
                "pretty_type": "GSuite Spreadsheet",
                "user": "UVADMLUB0",
                "editable": false,
                "size": 66033,
                "mode": "external",
                "is_external": true,
                "external_type": "gdrive",
                "is_public": true,
                "public_url_shared": false,
                "display_as_bot": false,
                "username": "",
                "url_private": "https:\/\/docs.google.com\/spreadsheets\/d\/1zQa3rsguNnevSKEWEOfdJCfzA983ezIX9YSybQGmnTc\/edit?usp=drive_web",
                "thumb_64": "https:\/\/a.slack-edge.com\/80588\/img\/files\/gsheet_64.png",
                "thumb_360": "https:\/\/a.slack-edge.com\/80588\/img\/files\/gsheet_360.png",
                "thumb_360_w": 360,
                "thumb_360_h": 167,
                "permalink": "https:\/\/open-covid19.slack.com\/files\/UVADMLUB0\/F0105HLASBD\/calculations",
                "is_starred": false,
                "external_id": "1zQa3rsguNnevSKEWEOfdJCfzA983ezIX9YSybQGmnTc",
                "external_url": "https:\/\/docs.google.com\/spreadsheets\/d\/1zQa3rsguNnevSKEWEOfdJCfzA983ezIX9YSybQGmnTc\/edit?usp=drive_web",
                "has_rich_preview": true
            }
        ],
        "upload": false,
        "user": "UVADMLUB0",
        "display_as_bot": false,
        "ts": "1584820510.001900"
    },
    {
        "type": "message",
        "text": "",
        "files": [
            {
                "id": "F010489U3NW",
                "created": 1584820649,
                "timestamp": 1584820649,
                "name": "Portable Oxygen Device-Presentation.pdf",
                "title": "Portable Oxygen Device-Presentation.pdf",
                "mimetype": "application\/pdf",
                "filetype": "pdf",
                "pretty_type": "PDF",
                "user": "UVADMLUB0",
                "editable": false,
                "size": 768539,
                "mode": "external",
                "is_external": true,
                "external_type": "gdrive",
                "is_public": true,
                "public_url_shared": false,
                "display_as_bot": false,
                "username": "",
                "url_private": "https:\/\/drive.google.com\/file\/d\/1Xq7YW7nJut4rjfaB0akwgZdMovGyryNC\/view?usp=drive_web",
                "thumb_64": "https:\/\/files.slack.com\/files-tmb\/TUU48M0T1-F010489U3NW-9f110f0a86\/portable_oxygen_device-presentation_64.png?t=xoxe-980144714919-1106606678066-1105227127893-6f722bb664235052954ad46852628b64",
                "thumb_80": "https:\/\/files.slack.com\/files-tmb\/TUU48M0T1-F010489U3NW-9f110f0a86\/portable_oxygen_device-presentation_80.png?t=xoxe-980144714919-1106606678066-1105227127893-6f722bb664235052954ad46852628b64",
                "thumb_360": "https:\/\/files.slack.com\/files-tmb\/TUU48M0T1-F010489U3NW-9f110f0a86\/portable_oxygen_device-presentation_360.png?t=xoxe-980144714919-1106606678066-1105227127893-6f722bb664235052954ad46852628b64",
                "thumb_360_w": 360,
                "thumb_360_h": 278,
                "thumb_480": "https:\/\/files.slack.com\/files-tmb\/TUU48M0T1-F010489U3NW-9f110f0a86\/portable_oxygen_device-presentation_480.png?t=xoxe-980144714919-1106606678066-1105227127893-6f722bb664235052954ad46852628b64",
                "thumb_480_w": 480,
                "thumb_480_h": 371,
                "thumb_160": "https:\/\/files.slack.com\/files-tmb\/TUU48M0T1-F010489U3NW-9f110f0a86\/portable_oxygen_device-presentation_160.png?t=xoxe-980144714919-1106606678066-1105227127893-6f722bb664235052954ad46852628b64",
                "thumb_720": "https:\/\/files.slack.com\/files-tmb\/TUU48M0T1-F010489U3NW-9f110f0a86\/portable_oxygen_device-presentation_720.png?t=xoxe-980144714919-1106606678066-1105227127893-6f722bb664235052954ad46852628b64",
                "thumb_720_w": 720,
                "thumb_720_h": 556,
                "thumb_800": "https:\/\/files.slack.com\/files-tmb\/TUU48M0T1-F010489U3NW-9f110f0a86\/portable_oxygen_device-presentation_800.png?t=xoxe-980144714919-1106606678066-1105227127893-6f722bb664235052954ad46852628b64",
                "thumb_800_w": 800,
                "thumb_800_h": 618,
                "thumb_960": "https:\/\/files.slack.com\/files-tmb\/TUU48M0T1-F010489U3NW-9f110f0a86\/portable_oxygen_device-presentation_960.png?t=xoxe-980144714919-1106606678066-1105227127893-6f722bb664235052954ad46852628b64",
                "thumb_960_w": 960,
                "thumb_960_h": 742,
                "image_exif_rotation": 1,
                "original_w": 1024,
                "original_h": 791,
                "thumb_tiny": "AwAlADDQZiGwKUH1NQtKpuWiGdwGTUdxcCJec9fSqsBcorIF7P8A89cf8Ao+2z5\/1v8A45T5GBr0VkNe3AHEoJ9NlSWV5NNcqjsCpz29qORgXJjhjgDdWZJBcStuMf5GtSRdz9f0oWP3\/QUlKwGaLebAGyQY9GFNNvdZOFbHuRWt5XT5v0FKYge\/6CnzsDH+z3X91v8AvoVNY200d0ruhCjPOfatHyh6\/oKcq7e+fwo52AFATmlAApaKgAooooAKKKKAP\/\/Z",
                "permalink": "https:\/\/open-covid19.slack.com\/files\/UVADMLUB0\/F010489U3NW\/portable_oxygen_device-presentation.pdf",
                "is_starred": false,
                "external_id": "1Xq7YW7nJut4rjfaB0akwgZdMovGyryNC",
                "external_url": "https:\/\/drive.google.com\/file\/d\/1Xq7YW7nJut4rjfaB0akwgZdMovGyryNC\/view?usp=drive_web",
                "has_rich_preview": true
            }
        ],
        "upload": false,
        "user": "UVADMLUB0",
        "display_as_bot": false,
        "ts": "1584820651.002200"
    },
    {
        "type": "message",
        "text": "",
        "files": [
            {
                "id": "F010705UQL9",
                "created": 1584820672,
                "timestamp": 1584820672,
                "name": "Presentation.pdf",
                "title": "Presentation.pdf",
                "mimetype": "application\/pdf",
                "filetype": "pdf",
                "pretty_type": "PDF",
                "user": "UVADMLUB0",
                "editable": false,
                "size": 145990,
                "mode": "external",
                "is_external": true,
                "external_type": "gdrive",
                "is_public": true,
                "public_url_shared": false,
                "display_as_bot": false,
                "username": "",
                "url_private": "https:\/\/drive.google.com\/file\/d\/1hv_pQISZArsqfdPxc3Qa9_EohMu37tMP\/view?usp=drive_web",
                "thumb_64": "https:\/\/files.slack.com\/files-tmb\/TUU48M0T1-F010705UQL9-7f5d51e779\/presentation_64.png?t=xoxe-980144714919-1106606678066-1105227127893-6f722bb664235052954ad46852628b64",
                "thumb_80": "https:\/\/files.slack.com\/files-tmb\/TUU48M0T1-F010705UQL9-7f5d51e779\/presentation_80.png?t=xoxe-980144714919-1106606678066-1105227127893-6f722bb664235052954ad46852628b64",
                "thumb_360": "https:\/\/files.slack.com\/files-tmb\/TUU48M0T1-F010705UQL9-7f5d51e779\/presentation_360.png?t=xoxe-980144714919-1106606678066-1105227127893-6f722bb664235052954ad46852628b64",
                "thumb_360_w": 360,
                "thumb_360_h": 270,
                "thumb_480": "https:\/\/files.slack.com\/files-tmb\/TUU48M0T1-F010705UQL9-7f5d51e779\/presentation_480.png?t=xoxe-980144714919-1106606678066-1105227127893-6f722bb664235052954ad46852628b64",
                "thumb_480_w": 480,
                "thumb_480_h": 360,
                "thumb_160": "https:\/\/files.slack.com\/files-tmb\/TUU48M0T1-F010705UQL9-7f5d51e779\/presentation_160.png?t=xoxe-980144714919-1106606678066-1105227127893-6f722bb664235052954ad46852628b64",
                "thumb_720": "https:\/\/files.slack.com\/files-tmb\/TUU48M0T1-F010705UQL9-7f5d51e779\/presentation_720.png?t=xoxe-980144714919-1106606678066-1105227127893-6f722bb664235052954ad46852628b64",
                "thumb_720_w": 720,
                "thumb_720_h": 539,
                "thumb_800": "https:\/\/files.slack.com\/files-tmb\/TUU48M0T1-F010705UQL9-7f5d51e779\/presentation_800.png?t=xoxe-980144714919-1106606678066-1105227127893-6f722bb664235052954ad46852628b64",
                "thumb_800_w": 800,
                "thumb_800_h": 599,
                "thumb_960": "https:\/\/files.slack.com\/files-tmb\/TUU48M0T1-F010705UQL9-7f5d51e779\/presentation_960.png?t=xoxe-980144714919-1106606678066-1105227127893-6f722bb664235052954ad46852628b64",
                "thumb_960_w": 960,
                "thumb_960_h": 719,
                "image_exif_rotation": 1,
                "original_w": 1024,
                "original_h": 767,
                "thumb_tiny": "AwAjADC+3DdTRlc9W6dM05lBbr2pu0YB9vwoAUqQepPPTNIBkd8\/7xpcg53DA9aPdjz3zQADBPfB\/wBrrSjGRtOfxoAOcnP0o98njqAOtAABznoc80cN69xRjJPHU+mKUdTg8UAIOBnHXnmkwcY4I6+uaUDkHH09qXA6Dt78igBPYDAPXmlHPTpSdO+AOuaUDkZ6gdcUAA7\/AFpcYoHeigBMDGPWloooARPuig9vrQn3RQe31oBn\/9k=",
                "permalink": "https:\/\/open-covid19.slack.com\/files\/UVADMLUB0\/F010705UQL9\/presentation.pdf",
                "is_starred": false,
                "external_id": "1hv_pQISZArsqfdPxc3Qa9_EohMu37tMP",
                "external_url": "https:\/\/drive.google.com\/file\/d\/1hv_pQISZArsqfdPxc3Qa9_EohMu37tMP\/view?usp=drive_web",
                "has_rich_preview": true
            }
        ],
        "upload": false,
        "user": "UVADMLUB0",
        "display_as_bot": false,
        "ts": "1584820675.002500"
    },
    {
        "type": "message",
        "text": "",
        "files": [
            {
                "id": "F010K88NEUE",
                "created": 1584820849,
                "timestamp": 1584820849,
                "name": "PINGXIANG Xingfeng-Quotation for Oxygen Molecular Sieve.2020.3.18.pdf",
                "title": "PINGXIANG Xingfeng-Quotation for Oxygen Molecular Sieve.2020.3.18.pdf",
                "mimetype": "application\/pdf",
                "filetype": "pdf",
                "pretty_type": "PDF",
                "user": "UVADMLUB0",
                "editable": false,
                "size": 205508,
                "mode": "external",
                "is_external": true,
                "external_type": "gdrive",
                "is_public": true,
                "public_url_shared": false,
                "display_as_bot": false,
                "username": "",
                "url_private": "https:\/\/drive.google.com\/file\/d\/11XWNcy22ObtAO4N85xLKQBNmCb30XsL8\/view?usp=drive_web",
                "thumb_64": "https:\/\/files.slack.com\/files-tmb\/TUU48M0T1-F010K88NEUE-6b1b626e26\/pingxiang_xingfeng-quotation_for_oxygen_molecular_sieve.2020.3.18_64.png?t=xoxe-980144714919-1106606678066-1105227127893-6f722bb664235052954ad46852628b64",
                "thumb_80": "https:\/\/files.slack.com\/files-tmb\/TUU48M0T1-F010K88NEUE-6b1b626e26\/pingxiang_xingfeng-quotation_for_oxygen_molecular_sieve.2020.3.18_80.png?t=xoxe-980144714919-1106606678066-1105227127893-6f722bb664235052954ad46852628b64",
                "thumb_360": "https:\/\/files.slack.com\/files-tmb\/TUU48M0T1-F010K88NEUE-6b1b626e26\/pingxiang_xingfeng-quotation_for_oxygen_molecular_sieve.2020.3.18_360.png?t=xoxe-980144714919-1106606678066-1105227127893-6f722bb664235052954ad46852628b64",
                "thumb_360_w": 254,
                "thumb_360_h": 360,
                "thumb_480": "https:\/\/files.slack.com\/files-tmb\/TUU48M0T1-F010K88NEUE-6b1b626e26\/pingxiang_xingfeng-quotation_for_oxygen_molecular_sieve.2020.3.18_480.png?t=xoxe-980144714919-1106606678066-1105227127893-6f722bb664235052954ad46852628b64",
                "thumb_480_w": 339,
                "thumb_480_h": 480,
                "thumb_160": "https:\/\/files.slack.com\/files-tmb\/TUU48M0T1-F010K88NEUE-6b1b626e26\/pingxiang_xingfeng-quotation_for_oxygen_molecular_sieve.2020.3.18_160.png?t=xoxe-980144714919-1106606678066-1105227127893-6f722bb664235052954ad46852628b64",
                "thumb_720": "https:\/\/files.slack.com\/files-tmb\/TUU48M0T1-F010K88NEUE-6b1b626e26\/pingxiang_xingfeng-quotation_for_oxygen_molecular_sieve.2020.3.18_720.png?t=xoxe-980144714919-1106606678066-1105227127893-6f722bb664235052954ad46852628b64",
                "thumb_720_w": 508,
                "thumb_720_h": 720,
                "thumb_800": "https:\/\/files.slack.com\/files-tmb\/TUU48M0T1-F010K88NEUE-6b1b626e26\/pingxiang_xingfeng-quotation_for_oxygen_molecular_sieve.2020.3.18_800.png?t=xoxe-980144714919-1106606678066-1105227127893-6f722bb664235052954ad46852628b64",
                "thumb_800_w": 800,
                "thumb_800_h": 1133,
                "thumb_960": "https:\/\/files.slack.com\/files-tmb\/TUU48M0T1-F010K88NEUE-6b1b626e26\/pingxiang_xingfeng-quotation_for_oxygen_molecular_sieve.2020.3.18_960.png?t=xoxe-980144714919-1106606678066-1105227127893-6f722bb664235052954ad46852628b64",
                "thumb_960_w": 678,
                "thumb_960_h": 960,
                "thumb_1024": "https:\/\/files.slack.com\/files-tmb\/TUU48M0T1-F010K88NEUE-6b1b626e26\/pingxiang_xingfeng-quotation_for_oxygen_molecular_sieve.2020.3.18_1024.png?t=xoxe-980144714919-1106606678066-1105227127893-6f722bb664235052954ad46852628b64",
                "thumb_1024_w": 723,
                "thumb_1024_h": 1024,
                "image_exif_rotation": 1,
                "original_w": 1024,
                "original_h": 1450,
                "thumb_tiny": "AwAwACG+8SPw\/IzUZtYh\/BmpSDuJpd2ByKd2KyIfs0PQrilFtB\/cBqQHPIHWlHA6Gi7CyI\/ssP8AzzFH2WH\/AJ5ipqKLsLIazLkg01lDIVBx70MBvOTS4J5H8qQxEUooXOcdzTufajBxkn9KaHGcc\/lQBJRRRQAhUE5oC46E0wzIP4l\/OgzKP4l\/OiwXH+2aaI1B6Uiyb\/u7T+NO5PagLjqKKKAP\/9k=",
                "permalink": "https:\/\/open-covid19.slack.com\/files\/UVADMLUB0\/F010K88NEUE\/pingxiang_xingfeng-quotation_for_oxygen_molecular_sieve.2020.3.18.pdf",
                "is_starred": false,
                "external_id": "11XWNcy22ObtAO4N85xLKQBNmCb30XsL8",
                "external_url": "https:\/\/drive.google.com\/file\/d\/11XWNcy22ObtAO4N85xLKQBNmCb30XsL8\/view?usp=drive_web",
                "has_rich_preview": true
            }
        ],
        "upload": false,
        "user": "UVADMLUB0",
        "display_as_bot": false,
        "ts": "1584820856.002800"
    },
    {
        "type": "message",
        "text": "",
        "files": [
            {
                "id": "F0105HQCD0T",
                "created": 1584820885,
                "timestamp": 1584820885,
                "name": "Quotation of molecular sieve for oxygen concentration -20200318.pdf",
                "title": "Quotation of molecular sieve for oxygen concentration -20200318.pdf",
                "mimetype": "application\/pdf",
                "filetype": "pdf",
                "pretty_type": "PDF",
                "user": "UVADMLUB0",
                "editable": false,
                "size": 89211,
                "mode": "external",
                "is_external": true,
                "external_type": "gdrive",
                "is_public": true,
                "public_url_shared": false,
                "display_as_bot": false,
                "username": "",
                "url_private": "https:\/\/drive.google.com\/file\/d\/1pd3Hm-kAsb4iAVyr5LaWm1Si91TBwxMW\/view?usp=drive_web",
                "thumb_64": "https:\/\/files.slack.com\/files-tmb\/TUU48M0T1-F0105HQCD0T-91ff5b47af\/quotation_of_molecular_sieve_for_oxygen_concentration_-20200318_64.png?t=xoxe-980144714919-1106606678066-1105227127893-6f722bb664235052954ad46852628b64",
                "thumb_80": "https:\/\/files.slack.com\/files-tmb\/TUU48M0T1-F0105HQCD0T-91ff5b47af\/quotation_of_molecular_sieve_for_oxygen_concentration_-20200318_80.png?t=xoxe-980144714919-1106606678066-1105227127893-6f722bb664235052954ad46852628b64",
                "thumb_360": "https:\/\/files.slack.com\/files-tmb\/TUU48M0T1-F0105HQCD0T-91ff5b47af\/quotation_of_molecular_sieve_for_oxygen_concentration_-20200318_360.png?t=xoxe-980144714919-1106606678066-1105227127893-6f722bb664235052954ad46852628b64",
                "thumb_360_w": 255,
                "thumb_360_h": 360,
                "thumb_480": "https:\/\/files.slack.com\/files-tmb\/TUU48M0T1-F0105HQCD0T-91ff5b47af\/quotation_of_molecular_sieve_for_oxygen_concentration_-20200318_480.png?t=xoxe-980144714919-1106606678066-1105227127893-6f722bb664235052954ad46852628b64",
                "thumb_480_w": 339,
                "thumb_480_h": 480,
                "thumb_160": "https:\/\/files.slack.com\/files-tmb\/TUU48M0T1-F0105HQCD0T-91ff5b47af\/quotation_of_molecular_sieve_for_oxygen_concentration_-20200318_160.png?t=xoxe-980144714919-1106606678066-1105227127893-6f722bb664235052954ad46852628b64",
                "thumb_720": "https:\/\/files.slack.com\/files-tmb\/TUU48M0T1-F0105HQCD0T-91ff5b47af\/quotation_of_molecular_sieve_for_oxygen_concentration_-20200318_720.png?t=xoxe-980144714919-1106606678066-1105227127893-6f722bb664235052954ad46852628b64",
                "thumb_720_w": 509,
                "thumb_720_h": 720,
                "thumb_800": "https:\/\/files.slack.com\/files-tmb\/TUU48M0T1-F0105HQCD0T-91ff5b47af\/quotation_of_molecular_sieve_for_oxygen_concentration_-20200318_800.png?t=xoxe-980144714919-1106606678066-1105227127893-6f722bb664235052954ad46852628b64",
                "thumb_800_w": 800,
                "thumb_800_h": 1131,
                "thumb_960": "https:\/\/files.slack.com\/files-tmb\/TUU48M0T1-F0105HQCD0T-91ff5b47af\/quotation_of_molecular_sieve_for_oxygen_concentration_-20200318_960.png?t=xoxe-980144714919-1106606678066-1105227127893-6f722bb664235052954ad46852628b64",
                "thumb_960_w": 679,
                "thumb_960_h": 960,
                "thumb_1024": "https:\/\/files.slack.com\/files-tmb\/TUU48M0T1-F0105HQCD0T-91ff5b47af\/quotation_of_molecular_sieve_for_oxygen_concentration_-20200318_1024.png?t=xoxe-980144714919-1106606678066-1105227127893-6f722bb664235052954ad46852628b64",
                "thumb_1024_w": 724,
                "thumb_1024_h": 1024,
                "image_exif_rotation": 1,
                "original_w": 1024,
                "original_h": 1448,
                "thumb_tiny": "AwAwACHRYsGHIx+tN3t6CnMecc0hUkDBx9RQAm9vQU5Wz1poBBIJyPYU8DA4oAWiiigBD16UZPpQeuKTHuKAEPc45pw\/zzRj3FAGKAFooooAQjnoDRj2FLRQA0A\/3RTqKKACiiigD\/\/Z",
                "permalink": "https:\/\/open-covid19.slack.com\/files\/UVADMLUB0\/F0105HQCD0T\/quotation_of_molecular_sieve_for_oxygen_concentration_-20200318.pdf",
                "is_starred": false,
                "external_id": "1pd3Hm-kAsb4iAVyr5LaWm1Si91TBwxMW",
                "external_url": "https:\/\/drive.google.com\/file\/d\/1pd3Hm-kAsb4iAVyr5LaWm1Si91TBwxMW\/view?usp=drive_web",
                "has_rich_preview": true
            }
        ],
        "upload": false,
        "user": "UVADMLUB0",
        "display_as_bot": false,
        "ts": "1584820888.003100"
    },
    {
        "client_msg_id": "8a8dad07-8728-4b4f-9349-fb8029849a9c",
        "type": "message",
        "text": "<!channel> these are some of the material resources we've complied for creating an O2 generator here.  Also note some of the online resources such as this link where we started: <http:\/\/homemadeliquidnitrogen.com\/PSA\/index.html>",
        "user": "UVADMLUB0",
        "ts": "1584821593.004500",
        "team": "TUU48M0T1",
        "user_team": "TUU48M0T1",
        "source_team": "TUU48M0T1",
        "user_profile": {
            "avatar_hash": "14179705705a",
            "image_72": "https:\/\/avatars.slack-edge.com\/2020-03-11\/981468022482_14179705705a94b3db16_72.jpg",
            "first_name": "Bill",
            "real_name": "Bill Slavin",
            "display_name": "Bill Slavin- Executive Director, Indie Lab",
            "team": "TUU48M0T1",
            "name": "bill",
            "is_restricted": false,
            "is_ultra_restricted": false
        },
        "blocks": [
            {
                "type": "rich_text",
                "block_id": "LNt",
                "elements": [
                    {
                        "type": "rich_text_section",
                        "elements": [
                            {
                                "type": "broadcast",
                                "range": "channel"
                            },
                            {
                                "type": "text",
                                "text": " these are some of the material resources we've complied for creating an O2 generator here.  Also note some of the online resources such as this link where we started: "
                            },
                            {
                                "type": "link",
                                "url": "http:\/\/homemadeliquidnitrogen.com\/PSA\/index.html"
                            }
                        ]
                    }
                ]
            }
        ]
    },
    {
        "type": "message",
        "text": "",
        "files": [
            {
                "id": "F010H2BQXJL",
                "created": 1584821965,
                "timestamp": 1584821965,
                "name": "PSA02 XP.pdf",
                "title": "PSA02 XP.pdf",
                "mimetype": "application\/pdf",
                "filetype": "pdf",
                "pretty_type": "PDF",
                "user": "UVADMLUB0",
                "editable": false,
                "size": 114230,
                "mode": "external",
                "is_external": true,
                "external_type": "gdrive",
                "is_public": true,
                "public_url_shared": false,
                "display_as_bot": false,
                "username": "",
                "url_private": "https:\/\/drive.google.com\/file\/d\/12RDgnUQdE-__DZlfiLXKMfIG72BombO5\/view?usp=drive_web",
                "thumb_64": "https:\/\/files.slack.com\/files-tmb\/TUU48M0T1-F010H2BQXJL-909b8d2c28\/psa02_xp_64.png?t=xoxe-980144714919-1106606678066-1105227127893-6f722bb664235052954ad46852628b64",
                "thumb_80": "https:\/\/files.slack.com\/files-tmb\/TUU48M0T1-F010H2BQXJL-909b8d2c28\/psa02_xp_80.png?t=xoxe-980144714919-1106606678066-1105227127893-6f722bb664235052954ad46852628b64",
                "thumb_360": "https:\/\/files.slack.com\/files-tmb\/TUU48M0T1-F010H2BQXJL-909b8d2c28\/psa02_xp_360.png?t=xoxe-980144714919-1106606678066-1105227127893-6f722bb664235052954ad46852628b64",
                "thumb_360_w": 278,
                "thumb_360_h": 360,
                "thumb_480": "https:\/\/files.slack.com\/files-tmb\/TUU48M0T1-F010H2BQXJL-909b8d2c28\/psa02_xp_480.png?t=xoxe-980144714919-1106606678066-1105227127893-6f722bb664235052954ad46852628b64",
                "thumb_480_w": 371,
                "thumb_480_h": 480,
                "thumb_160": "https:\/\/files.slack.com\/files-tmb\/TUU48M0T1-F010H2BQXJL-909b8d2c28\/psa02_xp_160.png?t=xoxe-980144714919-1106606678066-1105227127893-6f722bb664235052954ad46852628b64",
                "thumb_720": "https:\/\/files.slack.com\/files-tmb\/TUU48M0T1-F010H2BQXJL-909b8d2c28\/psa02_xp_720.png?t=xoxe-980144714919-1106606678066-1105227127893-6f722bb664235052954ad46852628b64",
                "thumb_720_w": 556,
                "thumb_720_h": 720,
                "thumb_800": "https:\/\/files.slack.com\/files-tmb\/TUU48M0T1-F010H2BQXJL-909b8d2c28\/psa02_xp_800.png?t=xoxe-980144714919-1106606678066-1105227127893-6f722bb664235052954ad46852628b64",
                "thumb_800_w": 800,
                "thumb_800_h": 1035,
                "thumb_960": "https:\/\/files.slack.com\/files-tmb\/TUU48M0T1-F010H2BQXJL-909b8d2c28\/psa02_xp_960.png?t=xoxe-980144714919-1106606678066-1105227127893-6f722bb664235052954ad46852628b64",
                "thumb_960_w": 742,
                "thumb_960_h": 960,
                "thumb_1024": "https:\/\/files.slack.com\/files-tmb\/TUU48M0T1-F010H2BQXJL-909b8d2c28\/psa02_xp_1024.png?t=xoxe-980144714919-1106606678066-1105227127893-6f722bb664235052954ad46852628b64",
                "thumb_1024_w": 791,
                "thumb_1024_h": 1024,
                "image_exif_rotation": 1,
                "original_w": 1024,
                "original_h": 1325,
                "thumb_tiny": "AwAwACUEDgEeV19RzSfZn\/55mtFs7hil+f2q+YjkRm\/ZpP8Ank1KLd\/+eLVoMSCKTeaXMHIUCkvAKsvtnFJ5b+j\/APfX\/wBepbu2lmlDIoIwOpqD7BP\/AHF\/Oi5agu5qOOhpoA\/yac\/QU3HtUgOIH6UgFBIGMg9KAR60APooHSigBCMnt+VG38PpQc7qCcDpQA1+tKM4pc57GgkhflXJ9KAFooHSigD\/2Q==",
                "permalink": "https:\/\/open-covid19.slack.com\/files\/UVADMLUB0\/F010H2BQXJL\/psa02_xp.pdf",
                "is_starred": false,
                "external_id": "12RDgnUQdE-__DZlfiLXKMfIG72BombO5",
                "external_url": "https:\/\/drive.google.com\/file\/d\/12RDgnUQdE-__DZlfiLXKMfIG72BombO5\/view?usp=drive_web",
                "has_rich_preview": true
            }
        ],
        "upload": false,
        "user": "UVADMLUB0",
        "display_as_bot": false,
        "ts": "1584821969.005400"
    },
    {
        "type": "message",
        "text": "",
        "files": [
            {
                "id": "F0105J13WHH",
                "created": 1584821971,
                "timestamp": 1584821971,
                "name": "OXYSIV MDX adsorbent.pdf",
                "title": "OXYSIV MDX adsorbent.pdf",
                "mimetype": "application\/pdf",
                "filetype": "pdf",
                "pretty_type": "PDF",
                "user": "UVADMLUB0",
                "editable": false,
                "size": 112469,
                "mode": "external",
                "is_external": true,
                "external_type": "gdrive",
                "is_public": true,
                "public_url_shared": false,
                "display_as_bot": false,
                "username": "",
                "url_private": "https:\/\/drive.google.com\/file\/d\/1pgFZRfwrsQzYATr-iag3t4SaG5ajgPjl\/view?usp=drive_web",
                "thumb_64": "https:\/\/files.slack.com\/files-tmb\/TUU48M0T1-F0105J13WHH-01c5f14246\/oxysiv_mdx_adsorbent_64.png?t=xoxe-980144714919-1106606678066-1105227127893-6f722bb664235052954ad46852628b64",
                "thumb_80": "https:\/\/files.slack.com\/files-tmb\/TUU48M0T1-F0105J13WHH-01c5f14246\/oxysiv_mdx_adsorbent_80.png?t=xoxe-980144714919-1106606678066-1105227127893-6f722bb664235052954ad46852628b64",
                "thumb_360": "https:\/\/files.slack.com\/files-tmb\/TUU48M0T1-F0105J13WHH-01c5f14246\/oxysiv_mdx_adsorbent_360.png?t=xoxe-980144714919-1106606678066-1105227127893-6f722bb664235052954ad46852628b64",
                "thumb_360_w": 278,
                "thumb_360_h": 360,
                "thumb_480": "https:\/\/files.slack.com\/files-tmb\/TUU48M0T1-F0105J13WHH-01c5f14246\/oxysiv_mdx_adsorbent_480.png?t=xoxe-980144714919-1106606678066-1105227127893-6f722bb664235052954ad46852628b64",
                "thumb_480_w": 371,
                "thumb_480_h": 480,
                "thumb_160": "https:\/\/files.slack.com\/files-tmb\/TUU48M0T1-F0105J13WHH-01c5f14246\/oxysiv_mdx_adsorbent_160.png?t=xoxe-980144714919-1106606678066-1105227127893-6f722bb664235052954ad46852628b64",
                "thumb_720": "https:\/\/files.slack.com\/files-tmb\/TUU48M0T1-F0105J13WHH-01c5f14246\/oxysiv_mdx_adsorbent_720.png?t=xoxe-980144714919-1106606678066-1105227127893-6f722bb664235052954ad46852628b64",
                "thumb_720_w": 556,
                "thumb_720_h": 720,
                "thumb_800": "https:\/\/files.slack.com\/files-tmb\/TUU48M0T1-F0105J13WHH-01c5f14246\/oxysiv_mdx_adsorbent_800.png?t=xoxe-980144714919-1106606678066-1105227127893-6f722bb664235052954ad46852628b64",
                "thumb_800_w": 800,
                "thumb_800_h": 1035,
                "thumb_960": "https:\/\/files.slack.com\/files-tmb\/TUU48M0T1-F0105J13WHH-01c5f14246\/oxysiv_mdx_adsorbent_960.png?t=xoxe-980144714919-1106606678066-1105227127893-6f722bb664235052954ad46852628b64",
                "thumb_960_w": 742,
                "thumb_960_h": 960,
                "thumb_1024": "https:\/\/files.slack.com\/files-tmb\/TUU48M0T1-F0105J13WHH-01c5f14246\/oxysiv_mdx_adsorbent_1024.png?t=xoxe-980144714919-1106606678066-1105227127893-6f722bb664235052954ad46852628b64",
                "thumb_1024_w": 791,
                "thumb_1024_h": 1024,
                "image_exif_rotation": 1,
                "original_w": 1024,
                "original_h": 1325,
                "thumb_tiny": "AwAwACUEDgEeV19RzSfZn\/55mtFzgik3mr5iORGf9nk\/55NSi3f\/AJ4tWjnp\/jRz2NLmDkM4pLwCrL7ZxSeW\/o\/\/AH1\/9epbu1lmlDKoIxjOcVB9gn\/uL+dFy1BdzVIBPNNIA6ClYgEA0bh6\/pUgNbtj0oAbtmlbnmlHI6CgBRnHNLRRQA1lJNJs96cc7qCcDpQAAYGKWkz7GgkgZC5PpmgBaKB0ooA\/\/9k=",
                "permalink": "https:\/\/open-covid19.slack.com\/files\/UVADMLUB0\/F0105J13WHH\/oxysiv_mdx_adsorbent.pdf",
                "is_starred": false,
                "external_id": "1pgFZRfwrsQzYATr-iag3t4SaG5ajgPjl",
                "external_url": "https:\/\/drive.google.com\/file\/d\/1pgFZRfwrsQzYATr-iag3t4SaG5ajgPjl\/view?usp=drive_web",
                "has_rich_preview": true
            }
        ],
        "upload": false,
        "user": "UVADMLUB0",
        "display_as_bot": false,
        "ts": "1584821976.005700",
        "thread_ts": "1584821976.005700",
        "reply_count": 1,
        "reply_users_count": 1,
        "latest_reply": "1584822553.008000",
        "reply_users": [
            "UVADMLUB0"
        ],
        "replies": [
            {
                "user": "UVADMLUB0",
                "ts": "1584822553.008000"
            }
        ],
        "subscribed": false
    },
    {
        "type": "message",
        "text": "",
        "files": [
            {
                "id": "F010K8KTQH4",
                "created": 1584821979,
                "timestamp": 1584821979,
                "name": "OXYSIV 5XP adsorbent.pdf",
                "title": "OXYSIV 5XP adsorbent.pdf",
                "mimetype": "application\/pdf",
                "filetype": "pdf",
                "pretty_type": "PDF",
                "user": "UVADMLUB0",
                "editable": false,
                "size": 107784,
                "mode": "external",
                "is_external": true,
                "external_type": "gdrive",
                "is_public": true,
                "public_url_shared": false,
                "display_as_bot": false,
                "username": "",
                "url_private": "https:\/\/drive.google.com\/file\/d\/1WxB46BJL9iPVVKSLrJlQQMC89CZt-l4R\/view?usp=drive_web",
                "thumb_64": "https:\/\/files.slack.com\/files-tmb\/TUU48M0T1-F010K8KTQH4-8c1380a34a\/oxysiv_5xp_adsorbent_64.png?t=xoxe-980144714919-1106606678066-1105227127893-6f722bb664235052954ad46852628b64",
                "thumb_80": "https:\/\/files.slack.com\/files-tmb\/TUU48M0T1-F010K8KTQH4-8c1380a34a\/oxysiv_5xp_adsorbent_80.png?t=xoxe-980144714919-1106606678066-1105227127893-6f722bb664235052954ad46852628b64",
                "thumb_360": "https:\/\/files.slack.com\/files-tmb\/TUU48M0T1-F010K8KTQH4-8c1380a34a\/oxysiv_5xp_adsorbent_360.png?t=xoxe-980144714919-1106606678066-1105227127893-6f722bb664235052954ad46852628b64",
                "thumb_360_w": 278,
                "thumb_360_h": 360,
                "thumb_480": "https:\/\/files.slack.com\/files-tmb\/TUU48M0T1-F010K8KTQH4-8c1380a34a\/oxysiv_5xp_adsorbent_480.png?t=xoxe-980144714919-1106606678066-1105227127893-6f722bb664235052954ad46852628b64",
                "thumb_480_w": 371,
                "thumb_480_h": 480,
                "thumb_160": "https:\/\/files.slack.com\/files-tmb\/TUU48M0T1-F010K8KTQH4-8c1380a34a\/oxysiv_5xp_adsorbent_160.png?t=xoxe-980144714919-1106606678066-1105227127893-6f722bb664235052954ad46852628b64",
                "thumb_720": "https:\/\/files.slack.com\/files-tmb\/TUU48M0T1-F010K8KTQH4-8c1380a34a\/oxysiv_5xp_adsorbent_720.png?t=xoxe-980144714919-1106606678066-1105227127893-6f722bb664235052954ad46852628b64",
                "thumb_720_w": 556,
                "thumb_720_h": 720,
                "thumb_800": "https:\/\/files.slack.com\/files-tmb\/TUU48M0T1-F010K8KTQH4-8c1380a34a\/oxysiv_5xp_adsorbent_800.png?t=xoxe-980144714919-1106606678066-1105227127893-6f722bb664235052954ad46852628b64",
                "thumb_800_w": 800,
                "thumb_800_h": 1035,
                "thumb_960": "https:\/\/files.slack.com\/files-tmb\/TUU48M0T1-F010K8KTQH4-8c1380a34a\/oxysiv_5xp_adsorbent_960.png?t=xoxe-980144714919-1106606678066-1105227127893-6f722bb664235052954ad46852628b64",
                "thumb_960_w": 742,
                "thumb_960_h": 960,
                "thumb_1024": "https:\/\/files.slack.com\/files-tmb\/TUU48M0T1-F010K8KTQH4-8c1380a34a\/oxysiv_5xp_adsorbent_1024.png?t=xoxe-980144714919-1106606678066-1105227127893-6f722bb664235052954ad46852628b64",
                "thumb_1024_w": 791,
                "thumb_1024_h": 1024,
                "image_exif_rotation": 1,
                "original_w": 1024,
                "original_h": 1325,
                "thumb_tiny": "AwAwACUEDgEeV19RzSfZn\/55mtF85GKNzen6VfMRyIzvs8n\/ADyalFu\/\/PFq0CTxzQGPqKXMHIZ5SXgFWX2zik8t\/R\/++v8A69S3dtLNKGRQRjGc1B9gn\/uL+YouWoLuab9RQM+ppWGSKXHHAxUgNPbP8qUEAf8A1qUjNKBgUAFFFFABRSHO6gnA6UALRSZ9jQSQMhcn0zQAtFA6UUAf\/9k=",
                "permalink": "https:\/\/open-covid19.slack.com\/files\/UVADMLUB0\/F010K8KTQH4\/oxysiv_5xp_adsorbent.pdf",
                "is_starred": false,
                "external_id": "1WxB46BJL9iPVVKSLrJlQQMC89CZt-l4R",
                "external_url": "https:\/\/drive.google.com\/file\/d\/1WxB46BJL9iPVVKSLrJlQQMC89CZt-l4R\/view?usp=drive_web",
                "has_rich_preview": true
            }
        ],
        "upload": false,
        "user": "UVADMLUB0",
        "display_as_bot": false,
        "ts": "1584821986.006100"
    },
    {
        "client_msg_id": "b3cb34f7-d1d1-4bad-aae6-66438e342acd",
        "type": "message",
        "text": "Oxysiv MDX is for small systems while PSA02 is for industrial size systems.",
        "user": "UVADMLUB0",
        "ts": "1584822020.006900",
        "team": "TUU48M0T1",
        "user_team": "TUU48M0T1",
        "source_team": "TUU48M0T1",
        "user_profile": {
            "avatar_hash": "14179705705a",
            "image_72": "https:\/\/avatars.slack-edge.com\/2020-03-11\/981468022482_14179705705a94b3db16_72.jpg",
            "first_name": "Bill",
            "real_name": "Bill Slavin",
            "display_name": "Bill Slavin- Executive Director, Indie Lab",
            "team": "TUU48M0T1",
            "name": "bill",
            "is_restricted": false,
            "is_ultra_restricted": false
        },
        "blocks": [
            {
                "type": "rich_text",
                "block_id": "UsTLF",
                "elements": [
                    {
                        "type": "rich_text_section",
                        "elements": [
                            {
                                "type": "text",
                                "text": "Oxysiv MDX is for small systems while PSA02 is for industrial size systems."
                            }
                        ]
                    }
                ]
            }
        ]
    },
    {
        "client_msg_id": "97eb5ab6-bd87-4602-85c8-423d78638295",
        "type": "message",
        "text": "20 kg ($184.52\/kg) or 110 kg drums ($176.16\/kg)",
        "user": "UVADMLUB0",
        "ts": "1584822553.008000",
        "team": "TUU48M0T1",
        "user_team": "TUU48M0T1",
        "source_team": "TUU48M0T1",
        "user_profile": {
            "avatar_hash": "14179705705a",
            "image_72": "https:\/\/avatars.slack-edge.com\/2020-03-11\/981468022482_14179705705a94b3db16_72.jpg",
            "first_name": "Bill",
            "real_name": "Bill Slavin",
            "display_name": "Bill Slavin- Executive Director, Indie Lab",
            "team": "TUU48M0T1",
            "name": "bill",
            "is_restricted": false,
            "is_ultra_restricted": false
        },
        "blocks": [
            {
                "type": "rich_text",
                "block_id": "os67C",
                "elements": [
                    {
                        "type": "rich_text_section",
                        "elements": [
                            {
                                "type": "text",
                                "text": "20 kg ($184.52\/kg) or 110 kg drums ($176.16\/kg)"
                            }
                        ]
                    }
                ]
            }
        ],
        "thread_ts": "1584821976.005700",
        "parent_user_id": "UVADMLUB0"
    }
]