[
    {
        "client_msg_id": "94bbc6d9-93be-464d-9e82-12a62964d040",
        "type": "message",
        "text": "I just updated my project, I am trying a new material, its the halyard sterilization wraps.....<https:\/\/app.jogl.io\/project\/173>",
        "user": "U010Q3G4MDF",
        "ts": "1586286560.001000",
        "team": "TUU48M0T1",
        "user_team": "TUU48M0T1",
        "source_team": "TUU48M0T1",
        "user_profile": {
            "avatar_hash": "6491cecebbee",
            "image_72": "https:\/\/avatars.slack-edge.com\/2020-04-01\/1029339031538_6491cecebbeeed99b757_72.png",
            "first_name": "Angela",
            "real_name": "Angela Peebles",
            "display_name": "Angela Peebles",
            "team": "TUU48M0T1",
            "name": "angelapeebles2018",
            "is_restricted": false,
            "is_ultra_restricted": false
        },
        "attachments": [
            {
                "title": "JOGL - Just One Giant Lab",
                "title_link": "https:\/\/app.jogl.io\/project\/173",
                "text": "JOGL helps sync humanity onto solving our most important social &amp; environmental problems using open science, responsible innovation &amp; continuous learning.",
                "fallback": "JOGL - Just One Giant Lab",
                "thumb_url": "https:\/\/app.jogl.io\/planet.jpg",
                "from_url": "https:\/\/app.jogl.io\/project\/173",
                "thumb_width": 2049,
                "thumb_height": 1011,
                "service_icon": "https:\/\/app.jogl.io\/favicon.ico",
                "service_name": "app.jogl.io",
                "id": 1,
                "original_url": "https:\/\/app.jogl.io\/project\/173"
            }
        ],
        "blocks": [
            {
                "type": "rich_text",
                "block_id": "=wfj",
                "elements": [
                    {
                        "type": "rich_text_section",
                        "elements": [
                            {
                                "type": "text",
                                "text": "I just updated my project, I am trying a new material, its the halyard sterilization wraps....."
                            },
                            {
                                "type": "link",
                                "url": "https:\/\/app.jogl.io\/project\/173"
                            }
                        ]
                    }
                ]
            }
        ]
    },
    {
        "type": "message",
        "subtype": "channel_join",
        "ts": "1586296866.001300",
        "user": "U0106NJNM17",
        "text": "<@U0106NJNM17> has joined the channel"
    },
    {
        "client_msg_id": "2EBD2EEF-79BC-42A2-9017-81A3EB170FAF",
        "type": "message",
        "text": "Here are the results of the tests made on different textile associations in France by DGA (Ministry of Defense)",
        "user": "U0106NJNM17",
        "ts": "1586296915.002700",
        "team": "TUU48M0T1",
        "user_team": "TUU48M0T1",
        "source_team": "TUU48M0T1",
        "user_profile": {
            "avatar_hash": "gc09b413a2fb",
            "image_72": "https:\/\/secure.gravatar.com\/avatar\/c09b413a2fb05b3c1097e14a64b9092c.jpg?s=72&d=https%3A%2F%2Fa.slack-edge.com%2Fdf10d%2Fimg%2Favatars%2Fava_0000-72.png",
            "first_name": "",
            "real_name": "Guillaume Tassin",
            "display_name": "",
            "team": "TUU48M0T1",
            "name": "guillaume.tassin",
            "is_restricted": false,
            "is_ultra_restricted": false
        },
        "blocks": [
            {
                "type": "rich_text",
                "block_id": "nc8Ox",
                "elements": [
                    {
                        "type": "rich_text_section",
                        "elements": [
                            {
                                "type": "text",
                                "text": "Here are the results of the tests made on different textile associations in France by DGA (Ministry of Defense)"
                            }
                        ]
                    }
                ]
            }
        ]
    },
    {
        "type": "message",
        "text": "",
        "files": [
            {
                "id": "F011KG2J23T",
                "created": 1586296938,
                "timestamp": 1586296938,
                "name": "BASE-DE-DONNEES-MATIERES-SUR-RESULTATS-ANTI-PROJECTIONS-1eravril2020.pdf",
                "title": "BASE-DE-DONNEES-MATIERES-SUR-RESULTATS-ANTI-PROJECTIONS-1eravril2020",
                "mimetype": "application\/pdf",
                "filetype": "pdf",
                "pretty_type": "PDF",
                "user": "U0106NJNM17",
                "editable": false,
                "size": 126300,
                "mode": "hosted",
                "is_external": false,
                "external_type": "",
                "is_public": true,
                "public_url_shared": false,
                "display_as_bot": false,
                "username": "",
                "url_private": "https:\/\/files.slack.com\/files-pri\/TUU48M0T1-F011KG2J23T\/base-de-donnees-matieres-sur-resultats-anti-projections-1eravril2020.pdf?t=xoxe-980144714919-1106606678066-1105227127893-6f722bb664235052954ad46852628b64",
                "url_private_download": "https:\/\/files.slack.com\/files-pri\/TUU48M0T1-F011KG2J23T\/download\/base-de-donnees-matieres-sur-resultats-anti-projections-1eravril2020.pdf?t=xoxe-980144714919-1106606678066-1105227127893-6f722bb664235052954ad46852628b64",
                "thumb_pdf": "https:\/\/files.slack.com\/files-tmb\/TUU48M0T1-F011KG2J23T-01f0187b96\/base-de-donnees-matieres-sur-resultats-anti-projections-1eravril2020_thumb_pdf.png?t=xoxe-980144714919-1106606678066-1105227127893-6f722bb664235052954ad46852628b64",
                "thumb_pdf_w": 909,
                "thumb_pdf_h": 1286,
                "permalink": "https:\/\/open-covid19.slack.com\/files\/U0106NJNM17\/F011KG2J23T\/base-de-donnees-matieres-sur-resultats-anti-projections-1eravril2020.pdf",
                "permalink_public": "https:\/\/slack-files.com\/TUU48M0T1-F011KG2J23T-e823c419e5",
                "is_starred": false,
                "has_rich_preview": false
            }
        ],
        "upload": true,
        "blocks": [
            {
                "type": "rich_text",
                "block_id": "Ge7",
                "elements": []
            }
        ],
        "user": "U0106NJNM17",
        "display_as_bot": false,
        "ts": "1586296940.002800",
        "client_msg_id": "01C1108C-3206-4C10-8B37-EA10A36AD1E0"
    }
]