[
    {
        "type": "message",
        "subtype": "channel_join",
        "ts": "1588100375.000200",
        "user": "U011B6VLM2A",
        "text": "<@U011B6VLM2A> has joined the channel"
    },
    {
        "client_msg_id": "eba4cada-9594-4184-880b-2a4853b7ee4c",
        "type": "message",
        "text": "Hi <!channel> - I’m working on the coordination team and we’re implementing a new Slack tool: User Groups. We’ll have a Project Leads user group that will have all project leads from every OpenCovid19 project so that they can be easily contacted.\n<@U010Q3G4MDF> - can I include you in this user group as the project lead for this channel\/project?",
        "user": "U011B6VLM2A",
        "ts": "1588100443.001500",
        "team": "TUU48M0T1",
        "user_team": "TUU48M0T1",
        "source_team": "TUU48M0T1",
        "user_profile": {
            "avatar_hash": "4231dc598cfc",
            "image_72": "https:\/\/avatars.slack-edge.com\/2020-04-02\/1044784558839_4231dc598cfc2e59c4c4_72.jpg",
            "first_name": "Alix",
            "real_name": "Alix Mains",
            "display_name": "Alix Mains - JOGL Coordinator",
            "team": "TUU48M0T1",
            "name": "alixhmains",
            "is_restricted": false,
            "is_ultra_restricted": false
        },
        "blocks": [
            {
                "type": "rich_text",
                "block_id": "vb21",
                "elements": [
                    {
                        "type": "rich_text_section",
                        "elements": [
                            {
                                "type": "text",
                                "text": "Hi "
                            },
                            {
                                "type": "broadcast",
                                "range": "channel"
                            },
                            {
                                "type": "text",
                                "text": " - I’m working on the coordination team and we’re implementing a new Slack tool: User Groups. We’ll have a Project Leads user group that will have all project leads from every OpenCovid19 project so that they can be easily contacted.\n"
                            },
                            {
                                "type": "user",
                                "user_id": "U010Q3G4MDF"
                            },
                            {
                                "type": "text",
                                "text": " - can I include you in this user group as the project lead for this channel\/project?"
                            }
                        ]
                    }
                ]
            }
        ]
    },
    {
        "client_msg_id": "9f1a163a-a4eb-4d73-a70a-c0cb2ffbf9a8",
        "type": "message",
        "text": "Hi <@U011B6VLM2A> of course!",
        "user": "U010Q3G4MDF",
        "ts": "1588101161.002100",
        "team": "TUU48M0T1",
        "user_team": "TUU48M0T1",
        "source_team": "TUU48M0T1",
        "user_profile": {
            "avatar_hash": "6491cecebbee",
            "image_72": "https:\/\/avatars.slack-edge.com\/2020-04-01\/1029339031538_6491cecebbeeed99b757_72.png",
            "first_name": "Angela",
            "real_name": "Angela Peebles",
            "display_name": "Angela Peebles",
            "team": "TUU48M0T1",
            "name": "angelapeebles2018",
            "is_restricted": false,
            "is_ultra_restricted": false
        },
        "blocks": [
            {
                "type": "rich_text",
                "block_id": "GIl",
                "elements": [
                    {
                        "type": "rich_text_section",
                        "elements": [
                            {
                                "type": "text",
                                "text": "Hi "
                            },
                            {
                                "type": "user",
                                "user_id": "U011B6VLM2A"
                            },
                            {
                                "type": "text",
                                "text": " of course!"
                            }
                        ]
                    }
                ]
            }
        ],
        "reactions": [
            {
                "name": "pray",
                "users": [
                    "U011B6VLM2A"
                ],
                "count": 1
            }
        ]
    }
]