[
    {
        "type": "message",
        "subtype": "channel_join",
        "ts": "1585835977.000200",
        "user": "U010Q3G4MDF",
        "text": "<@U010Q3G4MDF> has joined the channel"
    },
    {
        "type": "message",
        "subtype": "channel_purpose",
        "ts": "1585835978.000300",
        "user": "U010Q3G4MDF",
        "text": "<@U010Q3G4MDF> set the channel purpose: discussion, observations, feedback on my 3plyNWPPmask project",
        "purpose": "discussion, observations, feedback on my 3plyNWPPmask project"
    },
    {
        "client_msg_id": "1ca8a5ba-32e4-46ff-9bfc-1129f6a7e783",
        "type": "message",
        "text": "this is the link to my project, feedback would be appreciated....<https:\/\/app.jogl.io\/project\/173|#3plyNWPPmask> :mask:",
        "user": "U010Q3G4MDF",
        "ts": "1585840769.001100",
        "team": "TUU48M0T1",
        "user_team": "TUU48M0T1",
        "source_team": "TUU48M0T1",
        "user_profile": {
            "avatar_hash": "6491cecebbee",
            "image_72": "https:\/\/avatars.slack-edge.com\/2020-04-01\/1029339031538_6491cecebbeeed99b757_72.png",
            "first_name": "Angela",
            "real_name": "Angela Peebles",
            "display_name": "Angela Peebles",
            "team": "TUU48M0T1",
            "name": "angelapeebles2018",
            "is_restricted": false,
            "is_ultra_restricted": false
        },
        "attachments": [
            {
                "title": "JOGL - Just One Giant Lab",
                "title_link": "https:\/\/app.jogl.io\/project\/173",
                "text": "JOGL helps sync humanity onto solving our most important social &amp; environmental problems using open science, responsible innovation &amp; continuous learning.",
                "fallback": "JOGL - Just One Giant Lab",
                "thumb_url": "https:\/\/app.jogl.io\/planet.jpg",
                "from_url": "https:\/\/app.jogl.io\/project\/173",
                "thumb_width": 2049,
                "thumb_height": 1011,
                "service_icon": "https:\/\/app.jogl.io\/favicon.ico",
                "service_name": "app.jogl.io",
                "id": 1,
                "original_url": "https:\/\/app.jogl.io\/project\/173"
            }
        ],
        "blocks": [
            {
                "type": "rich_text",
                "block_id": "L0F0",
                "elements": [
                    {
                        "type": "rich_text_section",
                        "elements": [
                            {
                                "type": "text",
                                "text": "this is the link to my project, feedback would be appreciated...."
                            },
                            {
                                "type": "link",
                                "url": "https:\/\/app.jogl.io\/project\/173",
                                "text": "#3plyNWPPmask"
                            },
                            {
                                "type": "text",
                                "text": " "
                            },
                            {
                                "type": "emoji",
                                "name": "mask"
                            }
                        ]
                    }
                ]
            }
        ]
    }
]