[
    {
        "type": "message",
        "text": "",
        "user": "U01081Y0TBP",
        "ts": "1585499977.001200",
        "team": "TUU48M0T1",
        "user_team": "TUU48M0T1",
        "source_team": "TUU48M0T1",
        "user_profile": {
            "avatar_hash": "60ec5b47107a",
            "image_72": "https:\/\/avatars.slack-edge.com\/2020-03-18\/995274181218_60ec5b47107a3bd2ca7d_72.jpg",
            "first_name": "Peter",
            "real_name": "Peter Kooren",
            "display_name": "Peter Kooren",
            "team": "TUU48M0T1",
            "name": "peterkooren",
            "is_restricted": false,
            "is_ultra_restricted": false
        },
        "attachments": [
            {
                "fallback": "[March 29th, 2020 6:34 PM] peterkooren: Reminder:\nDear all! *@everyone*\nNow it is time to review the face protection designs together!\nWe need as much reviews as possible. Deadline: tonight 20:00 CET (1,5hr left)! Please use this\nsurvey link and follow the instructions: \n<https:\/\/docs.google.com\/forms\/d\/e\/1FAIpQLSfZc1hxgx2-ObcqODuML4OEQNrw2TEtxdbOu75x_upr5fUeVw\/viewform| https:\/\/docs.google.com\/forms\/d\/e\/1FAIpQLSfZc1hxgx2ObcqODuML4OEQNrw2TEtxdbOu75x_upr5fUeVw\/viewform>\nDon’t hesitate to share the form around you,\nespecially to experts. \nThanks to you we have gathered more than 50\nopen source designs for Face Masks and Face Shields!!  :raised_hands:\nWe’ll share the results openly in upcoming days with everyone. Let’s go!!",
                "ts": "1585499662.087700",
                "author_id": "U01081Y0TBP",
                "author_subname": "Peter Kooren",
                "channel_id": "C0104ANKV4L",
                "channel_name": "proj-mask-team",
                "is_msg_unfurl": true,
                "text": "Reminder:\nDear all! *@everyone*\nNow it is time to review the face protection designs together!\nWe need as much reviews as possible. Deadline: tonight 20:00 CET (1,5hr left)! Please use this\nsurvey link and follow the instructions: \n<https:\/\/docs.google.com\/forms\/d\/e\/1FAIpQLSfZc1hxgx2-ObcqODuML4OEQNrw2TEtxdbOu75x_upr5fUeVw\/viewform| https:\/\/docs.google.com\/forms\/d\/e\/1FAIpQLSfZc1hxgx2ObcqODuML4OEQNrw2TEtxdbOu75x_upr5fUeVw\/viewform>\nDon’t hesitate to share the form around you,\nespecially to experts. \nThanks to you we have gathered more than 50\nopen source designs for Face Masks and Face Shields!!  :raised_hands:\nWe’ll share the results openly in upcoming days with everyone. Let’s go!!",
                "author_name": "Peter Kooren",
                "author_link": "https:\/\/open-covid19.slack.com\/team\/U01081Y0TBP",
                "author_icon": "https:\/\/avatars.slack-edge.com\/2020-03-18\/995274181218_60ec5b47107a3bd2ca7d_48.jpg",
                "mrkdwn_in": [
                    "text"
                ],
                "color": "D0D0D0",
                "from_url": "https:\/\/open-covid19.slack.com\/archives\/C0104ANKV4L\/p1585499662087700",
                "is_share": true,
                "footer": "Posted in #proj-mask-team"
            }
        ]
    },
    {
        "client_msg_id": "EFB364FA-FB5F-47DA-81EE-457E1BC2D428",
        "type": "message",
        "text": "@everyone is anyone working on a project to teach citizens to make their own masks or tools?",
        "user": "UVA5NGLMS",
        "ts": "1585529561.001500",
        "team": "TUU48M0T1",
        "user_team": "TUU48M0T1",
        "source_team": "TUU48M0T1",
        "user_profile": {
            "avatar_hash": "746bd9c6967b",
            "image_72": "https:\/\/avatars.slack-edge.com\/2020-03-14\/1000626975765_746bd9c6967ba8f03cb7_72.png",
            "first_name": "Justice",
            "real_name": "Justice T Walker",
            "display_name": "Just Ice",
            "team": "TUU48M0T1",
            "name": "justicew",
            "is_restricted": false,
            "is_ultra_restricted": false
        },
        "blocks": [
            {
                "type": "rich_text",
                "block_id": "xNJkP",
                "elements": [
                    {
                        "type": "rich_text_section",
                        "elements": [
                            {
                                "type": "text",
                                "text": "@everyone is anyone working on a project to teach citizens to make their own masks or tools?"
                            }
                        ]
                    }
                ]
            }
        ],
        "reactions": [
            {
                "name": "heart",
                "users": [
                    "UV8AZ6ABC"
                ],
                "count": 1
            }
        ]
    }
]