[
    {
        "type": "message",
        "subtype": "channel_name",
        "ts": "1585689038.002600",
        "user": "UV02WET96",
        "text": "<@UV02WET96> has renamed the channel from \"chlg-prevent-team\" to \"chlg-prevent\"",
        "old_name": "chlg-prevent-team",
        "name": "chlg-prevent"
    },
    {
        "type": "message",
        "subtype": "channel_name",
        "ts": "1585689076.002700",
        "user": "UV02WET96",
        "text": "<@UV02WET96> has renamed the channel from \"chlg-prevent\" to \"chlg-prevention\"",
        "old_name": "chlg-prevent",
        "name": "chlg-prevention"
    },
    {
        "client_msg_id": "f63aba3c-7e4a-4ac8-8a90-4f567d2e0cca",
        "type": "message",
        "text": ":face_with_monocle::muscle:Hi *<!channel>*! I hope you are doing well! \n*Who, among you, would have the time and energy to sit once a week as a Challenge Ambassador at a general meeting?* \nThis meeting would gather weekly ambassadors of each working groups (<https:\/\/docs.google.com\/document\/d\/1qWtQqIMKxFDwFB6XVelH6ST_2iHtrml3UL7iyW2HqVk\/edit#|see governance 0.2>) in order to:\n• Communicate updates, news, and stage of advancement of each working group and needs for collaboration\n• When applicable, take decisions on how to move forward together \n• Identify sore spots and address them\n• Learn from each others’ experience and expertise",
        "user": "UV9V03C8Y",
        "ts": "1585690615.003000",
        "team": "TUU48M0T1",
        "user_team": "TUU48M0T1",
        "source_team": "TUU48M0T1",
        "user_profile": {
            "avatar_hash": "177697fb7b8f",
            "image_72": "https:\/\/avatars.slack-edge.com\/2020-03-12\/996126178096_177697fb7b8ffa57649c_72.jpg",
            "first_name": "Camille",
            "real_name": "Camille Masselot - JOGL Program coordinator",
            "display_name": "Camille Masselot - JOGL coordinator",
            "team": "TUU48M0T1",
            "name": "masselot.camille",
            "is_restricted": false,
            "is_ultra_restricted": false
        },
        "blocks": [
            {
                "type": "rich_text",
                "block_id": "omzb",
                "elements": [
                    {
                        "type": "rich_text_section",
                        "elements": [
                            {
                                "type": "emoji",
                                "name": "face_with_monocle"
                            },
                            {
                                "type": "emoji",
                                "name": "muscle"
                            },
                            {
                                "type": "text",
                                "text": "Hi "
                            },
                            {
                                "type": "broadcast",
                                "range": "channel",
                                "style": {
                                    "bold": true
                                }
                            },
                            {
                                "type": "text",
                                "text": "! I hope you are doing well! \n"
                            },
                            {
                                "type": "text",
                                "text": "Who, among you, would have the time and energy to sit once a week as a Challenge Ambassador at a general meeting? ",
                                "style": {
                                    "bold": true
                                }
                            },
                            {
                                "type": "text",
                                "text": "\nThis meeting would gather weekly ambassadors of each working groups ("
                            },
                            {
                                "type": "link",
                                "url": "https:\/\/docs.google.com\/document\/d\/1qWtQqIMKxFDwFB6XVelH6ST_2iHtrml3UL7iyW2HqVk\/edit#",
                                "text": "see governance 0.2"
                            },
                            {
                                "type": "text",
                                "text": ") in order to:\n"
                            }
                        ]
                    },
                    {
                        "type": "rich_text_list",
                        "elements": [
                            {
                                "type": "rich_text_section",
                                "elements": [
                                    {
                                        "type": "text",
                                        "text": "Communicate updates, news, and stage of advancement of each working group and needs for collaboration"
                                    }
                                ]
                            },
                            {
                                "type": "rich_text_section",
                                "elements": [
                                    {
                                        "type": "text",
                                        "text": "When applicable, take decisions on how to move forward together "
                                    }
                                ]
                            },
                            {
                                "type": "rich_text_section",
                                "elements": [
                                    {
                                        "type": "text",
                                        "text": "Identify sore spots and address them"
                                    }
                                ]
                            },
                            {
                                "type": "rich_text_section",
                                "elements": [
                                    {
                                        "type": "text",
                                        "text": "Learn from each others’ experience and expertise"
                                    }
                                ]
                            }
                        ],
                        "style": "bullet",
                        "indent": 0
                    }
                ]
            }
        ]
    },
    {
        "client_msg_id": "f4052dc0-659c-4c5b-8ca4-118ff21b4050",
        "type": "message",
        "text": "Also, I would be happy to hear about how you guys organize internally. If anyone has a 15 minutes slot in the next few days for a chat, please DM me :slightly_smiling_face:.",
        "user": "UV9V03C8Y",
        "ts": "1585690628.003300",
        "team": "TUU48M0T1",
        "user_team": "TUU48M0T1",
        "source_team": "TUU48M0T1",
        "user_profile": {
            "avatar_hash": "177697fb7b8f",
            "image_72": "https:\/\/avatars.slack-edge.com\/2020-03-12\/996126178096_177697fb7b8ffa57649c_72.jpg",
            "first_name": "Camille",
            "real_name": "Camille Masselot - JOGL Program coordinator",
            "display_name": "Camille Masselot - JOGL coordinator",
            "team": "TUU48M0T1",
            "name": "masselot.camille",
            "is_restricted": false,
            "is_ultra_restricted": false
        },
        "blocks": [
            {
                "type": "rich_text",
                "block_id": "\/dIA1",
                "elements": [
                    {
                        "type": "rich_text_section",
                        "elements": [
                            {
                                "type": "text",
                                "text": "Also, I would be happy to hear about how you guys organize internally. If anyone has a 15 minutes slot in the next few days for a chat, please DM me "
                            },
                            {
                                "type": "emoji",
                                "name": "slightly_smiling_face"
                            },
                            {
                                "type": "text",
                                "text": "."
                            }
                        ]
                    }
                ]
            }
        ]
    }
]