[
    {
        "type": "message",
        "subtype": "channel_topic",
        "ts": "1587666790.015600",
        "user": "U011B6VLM2A",
        "text": "<@U011B6VLM2A> set the channel topic: Find all essential documents pinned to this channel. These documents will help you navigate this initiative and collaborate efficiently. Point of contact: <@UV9V03C8Y>",
        "topic": "Find all essential documents pinned to this channel. These documents will help you navigate this initiative and collaborate efficiently. Point of contact: <@UV9V03C8Y>"
    }
]