[
    {
        "client_msg_id": "958d13d1-780c-4955-946d-336b96bf1a7e",
        "type": "message",
        "text": "Thanks <@U011RGC6KQR> — all links have been fixed!",
        "user": "U011B6VLM2A",
        "ts": "1588148210.024900",
        "team": "TUU48M0T1",
        "user_team": "TUU48M0T1",
        "source_team": "TUU48M0T1",
        "user_profile": {
            "avatar_hash": "4231dc598cfc",
            "image_72": "https:\/\/avatars.slack-edge.com\/2020-04-02\/1044784558839_4231dc598cfc2e59c4c4_72.jpg",
            "first_name": "Alix",
            "real_name": "Alix Mains",
            "display_name": "Alix Mains - JOGL Coordinator",
            "team": "TUU48M0T1",
            "name": "alixhmains",
            "is_restricted": false,
            "is_ultra_restricted": false
        },
        "blocks": [
            {
                "type": "rich_text",
                "block_id": "JPoFf",
                "elements": [
                    {
                        "type": "rich_text_section",
                        "elements": [
                            {
                                "type": "text",
                                "text": "Thanks "
                            },
                            {
                                "type": "user",
                                "user_id": "U011RGC6KQR"
                            },
                            {
                                "type": "text",
                                "text": " — all links have been fixed!"
                            }
                        ]
                    }
                ]
            }
        ],
        "thread_ts": "1588091661.023800",
        "parent_user_id": "U011RGC6KQR"
    },
    {
        "type": "message",
        "subtype": "channel_join",
        "ts": "1588182055.027200",
        "user": "U012YDF5XEG",
        "text": "<@U012YDF5XEG> has joined the channel",
        "inviter": "UV02WET96"
    }
]