[
    {
        "type": "message",
        "text": ":thinking_face: *Community Leads roles:* Passionate about helping solve the coronavirus pandemic but not the technical type? You can volunteer to organize the community behind the scenes! Take a look here to find out more: <https:\/\/docs.google.com\/presentation\/d\/1thCQUQO4hn6bce6NCEt1C24bivCkPEGSdHE3HFofO-0\/edit?usp=sharing>",
        "files": [
            {
                "id": "F013A2R7HEE",
                "created": 1588934903,
                "timestamp": 1588934903,
                "name": "OpenCovid19 internship recruitment - External",
                "title": "OpenCovid19 Community Leads - Public",
                "mimetype": "application\/vnd.google-apps.presentation",
                "filetype": "gpres",
                "pretty_type": "GSuite Presentation",
                "user": "U011B6VLM2A",
                "editable": false,
                "size": 4608,
                "mode": "external",
                "is_external": true,
                "external_type": "gdrive",
                "is_public": true,
                "public_url_shared": false,
                "display_as_bot": false,
                "username": "",
                "url_private": "https:\/\/docs.google.com\/presentation\/d\/1thCQUQO4hn6bce6NCEt1C24bivCkPEGSdHE3HFofO-0\/edit#slide=id.g772e9f3c17_0_96",
                "thumb_64": "https:\/\/files.slack.com\/files-tmb\/TUU48M0T1-F013A2R7HEE-6691df9e9c\/opencovid19_internship_recruitment_-_external_64.png?t=xoxe-980144714919-1133254701825-1120841107731-daf595b5a7d6c9028b0b02a925032e36",
                "thumb_80": "https:\/\/files.slack.com\/files-tmb\/TUU48M0T1-F013A2R7HEE-6691df9e9c\/opencovid19_internship_recruitment_-_external_80.png?t=xoxe-980144714919-1133254701825-1120841107731-daf595b5a7d6c9028b0b02a925032e36",
                "thumb_360": "https:\/\/files.slack.com\/files-tmb\/TUU48M0T1-F013A2R7HEE-6691df9e9c\/opencovid19_internship_recruitment_-_external_360.png?t=xoxe-980144714919-1133254701825-1120841107731-daf595b5a7d6c9028b0b02a925032e36",
                "thumb_360_w": 360,
                "thumb_360_h": 203,
                "thumb_480": "https:\/\/files.slack.com\/files-tmb\/TUU48M0T1-F013A2R7HEE-6691df9e9c\/opencovid19_internship_recruitment_-_external_480.png?t=xoxe-980144714919-1133254701825-1120841107731-daf595b5a7d6c9028b0b02a925032e36",
                "thumb_480_w": 480,
                "thumb_480_h": 270,
                "thumb_160": "https:\/\/files.slack.com\/files-tmb\/TUU48M0T1-F013A2R7HEE-6691df9e9c\/opencovid19_internship_recruitment_-_external_160.png?t=xoxe-980144714919-1133254701825-1120841107731-daf595b5a7d6c9028b0b02a925032e36",
                "thumb_720": "https:\/\/files.slack.com\/files-tmb\/TUU48M0T1-F013A2R7HEE-6691df9e9c\/opencovid19_internship_recruitment_-_external_720.png?t=xoxe-980144714919-1133254701825-1120841107731-daf595b5a7d6c9028b0b02a925032e36",
                "thumb_720_w": 720,
                "thumb_720_h": 405,
                "thumb_800": "https:\/\/files.slack.com\/files-tmb\/TUU48M0T1-F013A2R7HEE-6691df9e9c\/opencovid19_internship_recruitment_-_external_800.png?t=xoxe-980144714919-1133254701825-1120841107731-daf595b5a7d6c9028b0b02a925032e36",
                "thumb_800_w": 800,
                "thumb_800_h": 450,
                "image_exif_rotation": 1,
                "original_w": 800,
                "original_h": 450,
                "thumb_tiny": "AwAbADDTzRmo5Iy5ztU\/Wm+Uf7kf60ATUVCsbLyqoD9TUq7sfPjPtQBHPOIFBYE5PYVIrblBHQ0ybITIj8w+lSAY6UANyaMmkooAXJoyaSigBcmgMc0lGAKAP\/\/Z",
                "permalink": "https:\/\/open-covid19.slack.com\/files\/U011B6VLM2A\/F013A2R7HEE\/opencovid19_internship_recruitment_-_external",
                "is_starred": false,
                "external_id": "1thCQUQO4hn6bce6NCEt1C24bivCkPEGSdHE3HFofO-0",
                "external_url": "https:\/\/docs.google.com\/presentation\/d\/1thCQUQO4hn6bce6NCEt1C24bivCkPEGSdHE3HFofO-0\/edit#slide=id.g772e9f3c17_0_96",
                "has_rich_preview": true
            }
        ],
        "upload": false,
        "blocks": [
            {
                "type": "rich_text",
                "block_id": "ZGcKO",
                "elements": [
                    {
                        "type": "rich_text_section",
                        "elements": [
                            {
                                "type": "emoji",
                                "name": "thinking_face"
                            },
                            {
                                "type": "text",
                                "text": " "
                            },
                            {
                                "type": "text",
                                "text": "Community Leads roles:",
                                "style": {
                                    "bold": true
                                }
                            },
                            {
                                "type": "text",
                                "text": " Passionate about helping solve the coronavirus pandemic but not the technical type? You can volunteer to organize the community behind the scenes! Take a look here to find out more: "
                            },
                            {
                                "type": "link",
                                "url": "https:\/\/docs.google.com\/presentation\/d\/1thCQUQO4hn6bce6NCEt1C24bivCkPEGSdHE3HFofO-0\/edit?usp=sharing"
                            }
                        ]
                    }
                ]
            }
        ],
        "user": "U011B6VLM2A",
        "display_as_bot": false,
        "x_files": [
            "F013A2R7HEE"
        ],
        "ts": "1588939054.050300",
        "edited": {
            "user": "U011B6VLM2A",
            "ts": "1588939131.000000"
        },
        "client_msg_id": "5e2dcbac-74aa-449c-999c-3c0b46a0d6f1",
        "reactions": [
            {
                "name": "+1",
                "users": [
                    "UUWPKNE2E",
                    "UV2SC7ZE3"
                ],
                "count": 2
            }
        ]
    }
]