[
    {
        "type": "message",
        "subtype": "channel_join",
        "ts": "1583714885.000200",
        "user": "UV1G2M821",
        "text": "<@UV1G2M821> has joined the channel"
    },
    {
        "type": "message",
        "subtype": "channel_join",
        "ts": "1583714889.000400",
        "user": "UV13874FN",
        "text": "<@UV13874FN> has joined the channel"
    },
    {
        "type": "message",
        "subtype": "channel_join",
        "ts": "1583714902.000600",
        "user": "UUUEFQW8N",
        "text": "<@UUUEFQW8N> has joined the channel"
    },
    {
        "type": "message",
        "subtype": "channel_purpose",
        "ts": "1583714911.000700",
        "user": "UV1G2M821",
        "text": "<@UV1G2M821> set the channel purpose: Reproduce SHERLOCK detection method for SARS-CoV-2 sequences",
        "purpose": "Reproduce SHERLOCK detection method for SARS-CoV-2 sequences"
    },
    {
        "type": "message",
        "subtype": "channel_join",
        "ts": "1583714923.000900",
        "user": "UUPFF4TC3",
        "text": "<@UUPFF4TC3> has joined the channel",
        "inviter": "UUUEFQW8N"
    },
    {
        "type": "message",
        "subtype": "channel_join",
        "ts": "1583714924.001100",
        "user": "UV0QTJCMT",
        "text": "<@UV0QTJCMT> has joined the channel",
        "inviter": "UUUEFQW8N"
    },
    {
        "type": "message",
        "subtype": "channel_join",
        "ts": "1583714924.001300",
        "user": "UV2SC7ZE3",
        "text": "<@UV2SC7ZE3> has joined the channel",
        "inviter": "UUUEFQW8N"
    },
    {
        "type": "message",
        "subtype": "channel_join",
        "ts": "1583714931.001500",
        "user": "UUS2G6N6M",
        "text": "<@UUS2G6N6M> has joined the channel",
        "inviter": "UUUEFQW8N"
    }
]