<?xml version="1.0" encoding="UTF-8"?>
<graphml xmlns="http://graphml.graphdrawing.org/xmlns"
         xmlns:xsi="http://www.w3.org/2001/XMLSchema-instance"
         xsi:schemaLocation="http://graphml.graphdrawing.org/xmlns
         http://graphml.graphdrawing.org/xmlns/1.0/graphml.xsd">
<!-- Created by igraph -->
  <key id="v_name" for="node" attr.name="name" attr.type="string"/>
  <key id="e_weight" for="edge" attr.name="weight" attr.type="double"/>
  <graph id="G" edgedefault="undirected">
    <node id="n0">
      <data key="v_name">Boardgame</data>
    </node>
    <node id="n1">
      <data key="v_name">HERApp</data>
    </node>
    <node id="n2">
      <data key="v_name">TwitterVac</data>
    </node>
    <node id="n3">
      <data key="v_name">VaEsGa</data>
    </node>
    <node id="n4">
      <data key="v_name">VaccineDataDump</data>
    </node>
    <node id="n5">
      <data key="v_name">vaxtrends</data>
    </node>
    <node id="n6">
      <data key="v_name">greg001</data>
    </node>
    <node id="n7">
      <data key="v_name">Hulkbooster</data>
    </node>
    <node id="n8">
      <data key="v_name">HarmonizeVaccination</data>
    </node>
    <node id="n9">
      <data key="v_name">metaimmune</data>
    </node>
    <node id="n10">
      <data key="v_name">biloba</data>
    </node>
    <node id="n11">
      <data key="v_name">WakuSenshi</data>
    </node>
    <node id="n12">
      <data key="v_name">Crawler</data>
    </node>
    <node id="n13">
      <data key="v_name">PassItOn</data>
    </node>
    <node id="n14">
      <data key="v_name">GoViral</data>
    </node>
    <node id="n15">
      <data key="v_name">mva</data>
    </node>
    <node id="n16">
      <data key="v_name">VaccRiskAssess</data>
    </node>
    <node id="n17">
      <data key="v_name">VaxTopics</data>
    </node>
    <node id="n18">
      <data key="v_name">VaxAdministrationOnSocialMedia</data>
    </node>
    <node id="n19">
      <data key="v_name">VaxHesitancyOnSocialMedia</data>
    </node>
    <node id="n20">
      <data key="v_name">committopromotevaccination</data>
    </node>
    <node id="n21">
      <data key="v_name">tb</data>
    </node>
    <edge source="n1" target="n4">
      <data key="e_weight">1</data>
    </edge>
    <edge source="n1" target="n5">
      <data key="e_weight">2</data>
    </edge>
    <edge source="n1" target="n8">
      <data key="e_weight">1</data>
    </edge>
    <edge source="n1" target="n2">
      <data key="e_weight">1</data>
    </edge>
    <edge source="n1" target="n17">
      <data key="e_weight">1</data>
    </edge>
    <edge source="n2" target="n5">
      <data key="e_weight">1</data>
    </edge>
    <edge source="n2" target="n17">
      <data key="e_weight">2</data>
    </edge>
    <edge source="n2" target="n18">
      <data key="e_weight">1</data>
    </edge>
    <edge source="n2" target="n19">
      <data key="e_weight">1</data>
    </edge>
    <edge source="n2" target="n6">
      <data key="e_weight">1</data>
    </edge>
    <edge source="n4" target="n5">
      <data key="e_weight">4</data>
    </edge>
    <edge source="n4" target="n8">
      <data key="e_weight">1</data>
    </edge>
    <edge source="n4" target="n21">
      <data key="e_weight">3</data>
    </edge>
    <edge source="n4" target="n16">
      <data key="e_weight">2</data>
    </edge>
    <edge source="n5" target="n8">
      <data key="e_weight">1</data>
    </edge>
    <edge source="n5" target="n17">
      <data key="e_weight">1</data>
    </edge>
    <edge source="n5" target="n21">
      <data key="e_weight">2</data>
    </edge>
    <edge source="n5" target="n16">
      <data key="e_weight">1</data>
    </edge>
    <edge source="n7" target="n16">
      <data key="e_weight">1</data>
    </edge>
    <edge source="n7" target="n21">
      <data key="e_weight">2</data>
    </edge>
    <edge source="n7" target="n10">
      <data key="e_weight">1</data>
    </edge>
    <edge source="n10" target="n21">
      <data key="e_weight">1</data>
    </edge>
    <edge source="n13" target="n20">
      <data key="e_weight">1</data>
    </edge>
    <edge source="n16" target="n21">
      <data key="e_weight">2</data>
    </edge>
    <edge source="n17" target="n18">
      <data key="e_weight">1</data>
    </edge>
    <edge source="n17" target="n19">
      <data key="e_weight">1</data>
    </edge>
    <edge source="n18" target="n19">
      <data key="e_weight">1</data>
    </edge>
  </graph>
</graphml>
