[
    {
        "type": "message",
        "subtype": "thread_broadcast",
        "text": "Is this spreadsheet stored somewhere in the OpenCovid19 folder?",
        "user": "UV2SC7ZE3",
        "ts": "1584986727.139500",
        "thread_ts": "1584732289.132600",
        "root": {
            "type": "message",
            "text": "<!channel> -- if all the designers here could fill out this spreadsheet with the design-related resources you have, that would be amazing!",
            "user": "UV0QTJCMT",
            "ts": "1584732289.132600",
            "team": "TUU48M0T1",
            "attachments": [
                {
                    "fallback": "[March 20th, 2020 12:21 PM] info: Hi <@UV0QTJCMT> I'm not sure if this will suit since it's quite simplistic.\n<https:\/\/docs.google.com\/spreadsheets\/d\/13uTe6dx3aMl9mXV5tpcynuv0fBLRorzHaWELYhCTPP0\/edit?usp=sharing>",
                    "ts": "1584732114.131300",
                    "author_id": "U0103LPAWQ4",
                    "author_subname": "Bre",
                    "channel_id": "C0102DVT3HV",
                    "channel_name": "prgm-design-team",
                    "is_msg_unfurl": true,
                    "is_reply_unfurl": true,
                    "text": "Hi <@UV0QTJCMT> I'm not sure if this will suit since it's quite simplistic.\n<https:\/\/docs.google.com\/spreadsheets\/d\/13uTe6dx3aMl9mXV5tpcynuv0fBLRorzHaWELYhCTPP0\/edit?usp=sharing>",
                    "author_name": "Bre",
                    "author_link": "https:\/\/open-covid19.slack.com\/team\/U0103LPAWQ4",
                    "author_icon": "https:\/\/avatars.slack-edge.com\/2020-03-17\/1004213082549_7b345029e8137cbdc6b0_48.jpg",
                    "mrkdwn_in": [
                        "text"
                    ],
                    "color": "D0D0D0",
                    "from_url": "https:\/\/open-covid19.slack.com\/archives\/C0102DVT3HV\/p1584732114131300?thread_ts=1584494263094200&cid=C0102DVT3HV",
                    "is_share": true,
                    "footer": "From a thread in #prgm-design-team"
                }
            ],
            "blocks": [
                {
                    "type": "rich_text",
                    "block_id": "\/5ZJ",
                    "elements": [
                        {
                            "type": "rich_text_section",
                            "elements": [
                                {
                                    "type": "broadcast",
                                    "range": "channel"
                                },
                                {
                                    "type": "text",
                                    "text": " -- if all the designers here could fill out this spreadsheet with the design-related resources you have, that would be amazing!"
                                }
                            ]
                        }
                    ]
                }
            ],
            "thread_ts": "1584732289.132600",
            "reply_count": 7,
            "reply_users_count": 3,
            "latest_reply": "1585005590.141300",
            "reply_users": [
                "UV2SC7ZE3",
                "UV0QTJCMT",
                "U0103LPAWQ4"
            ],
            "subscribed": false
        },
        "blocks": [
            {
                "type": "rich_text",
                "block_id": "w3Hu=",
                "elements": [
                    {
                        "type": "rich_text_section",
                        "elements": [
                            {
                                "type": "text",
                                "text": "Is this spreadsheet stored somewhere in the OpenCovid19 folder?"
                            }
                        ]
                    }
                ]
            }
        ],
        "client_msg_id": "46b2040a-c3cb-4c37-9fd0-5634a59cff0f"
    },
    {
        "client_msg_id": "AB6C29D2-1346-4DA6-8383-B2967892CA91",
        "type": "message",
        "text": "<@UV2SC7ZE3> it might be in the design folder? ",
        "user": "UV0QTJCMT",
        "ts": "1584987500.140200",
        "team": "TUU48M0T1",
        "user_team": "TUU48M0T1",
        "source_team": "TUU48M0T1",
        "user_profile": {
            "avatar_hash": "06a6ae8f69d1",
            "image_72": "https:\/\/avatars.slack-edge.com\/2020-04-13\/1060635499315_06a6ae8f69d18f1ad464_72.png",
            "first_name": "Katherine",
            "real_name": "Katherine Holo",
            "display_name": "Kat Holo - Co-Organizer of OpenCOVID19",
            "team": "TUU48M0T1",
            "name": "katherineh245",
            "is_restricted": false,
            "is_ultra_restricted": false
        },
        "blocks": [
            {
                "type": "rich_text",
                "block_id": "c\/sS",
                "elements": [
                    {
                        "type": "rich_text_section",
                        "elements": [
                            {
                                "type": "user",
                                "user_id": "UV2SC7ZE3"
                            },
                            {
                                "type": "text",
                                "text": " it might be in the design folder? "
                            }
                        ]
                    }
                ]
            }
        ],
        "thread_ts": "1584732289.132600",
        "parent_user_id": "UV0QTJCMT"
    },
    {
        "client_msg_id": "5fd99d14-2a9a-4432-bc29-6eebee8861c9",
        "type": "message",
        "text": "don't see it",
        "user": "UV2SC7ZE3",
        "ts": "1584987534.140400",
        "team": "TUU48M0T1",
        "user_team": "TUU48M0T1",
        "source_team": "TUU48M0T1",
        "user_profile": {
            "avatar_hash": "d28dd0d076e8",
            "image_72": "https:\/\/avatars.slack-edge.com\/2020-03-14\/987873094258_d28dd0d076e8fa9a8409_72.png",
            "first_name": "David",
            "real_name": "David Lu",
            "display_name": "David Lu",
            "team": "TUU48M0T1",
            "name": "ludavidyi",
            "is_restricted": false,
            "is_ultra_restricted": false
        },
        "edited": {
            "user": "UV2SC7ZE3",
            "ts": "1584987540.000000"
        },
        "blocks": [
            {
                "type": "rich_text",
                "block_id": "fljk",
                "elements": [
                    {
                        "type": "rich_text_section",
                        "elements": [
                            {
                                "type": "text",
                                "text": "don't see it"
                            }
                        ]
                    }
                ]
            }
        ],
        "thread_ts": "1584732289.132600",
        "parent_user_id": "UV0QTJCMT"
    },
    {
        "client_msg_id": "e67a61c4-d668-41e8-a8c3-e728d94db3e0",
        "type": "message",
        "text": "<@U0103LPAWQ4> were you able to get edit access to the folder?",
        "user": "UV2SC7ZE3",
        "ts": "1584987627.140700",
        "team": "TUU48M0T1",
        "user_team": "TUU48M0T1",
        "source_team": "TUU48M0T1",
        "user_profile": {
            "avatar_hash": "d28dd0d076e8",
            "image_72": "https:\/\/avatars.slack-edge.com\/2020-03-14\/987873094258_d28dd0d076e8fa9a8409_72.png",
            "first_name": "David",
            "real_name": "David Lu",
            "display_name": "David Lu",
            "team": "TUU48M0T1",
            "name": "ludavidyi",
            "is_restricted": false,
            "is_ultra_restricted": false
        },
        "blocks": [
            {
                "type": "rich_text",
                "block_id": "pHwuB",
                "elements": [
                    {
                        "type": "rich_text_section",
                        "elements": [
                            {
                                "type": "user",
                                "user_id": "U0103LPAWQ4"
                            },
                            {
                                "type": "text",
                                "text": " were you able to get edit access to the folder?"
                            }
                        ]
                    }
                ]
            }
        ],
        "thread_ts": "1584732289.132600",
        "parent_user_id": "UV0QTJCMT"
    },
    {
        "client_msg_id": "75f20675-578d-4090-b62b-2f5908781193",
        "type": "message",
        "text": "Hi. I was granted access. I will place it there this morning (Aus).",
        "user": "U0103LPAWQ4",
        "ts": "1585001849.140900",
        "team": "TUU48M0T1",
        "user_team": "TUU48M0T1",
        "source_team": "TUU48M0T1",
        "user_profile": {
            "avatar_hash": "7b345029e813",
            "image_72": "https:\/\/avatars.slack-edge.com\/2020-03-17\/1004213082549_7b345029e8137cbdc6b0_72.jpg",
            "first_name": "Bre",
            "real_name": "Bre",
            "display_name": "Bre",
            "team": "TUU48M0T1",
            "name": "info",
            "is_restricted": false,
            "is_ultra_restricted": false
        },
        "blocks": [
            {
                "type": "rich_text",
                "block_id": "1EfU",
                "elements": [
                    {
                        "type": "rich_text_section",
                        "elements": [
                            {
                                "type": "text",
                                "text": "Hi. I was granted access. I will place it there this morning (Aus)."
                            }
                        ]
                    }
                ]
            }
        ],
        "thread_ts": "1584732289.132600",
        "parent_user_id": "UV0QTJCMT"
    },
    {
        "client_msg_id": "f09fb76e-b5ec-4342-b160-fd8154e44aac",
        "type": "message",
        "text": "Sorted. I created a Design folder and added the spreadsheet to it.",
        "user": "U0103LPAWQ4",
        "ts": "1585003031.141100",
        "team": "TUU48M0T1",
        "user_team": "TUU48M0T1",
        "source_team": "TUU48M0T1",
        "user_profile": {
            "avatar_hash": "7b345029e813",
            "image_72": "https:\/\/avatars.slack-edge.com\/2020-03-17\/1004213082549_7b345029e8137cbdc6b0_72.jpg",
            "first_name": "Bre",
            "real_name": "Bre",
            "display_name": "Bre",
            "team": "TUU48M0T1",
            "name": "info",
            "is_restricted": false,
            "is_ultra_restricted": false
        },
        "blocks": [
            {
                "type": "rich_text",
                "block_id": "lJc",
                "elements": [
                    {
                        "type": "rich_text_section",
                        "elements": [
                            {
                                "type": "text",
                                "text": "Sorted. I created a Design folder and added the spreadsheet to it."
                            }
                        ]
                    }
                ]
            }
        ],
        "thread_ts": "1584732289.132600",
        "parent_user_id": "UV0QTJCMT",
        "reactions": [
            {
                "name": "+1::skin-tone-4",
                "users": [
                    "U0103LPAWQ4"
                ],
                "count": 1
            }
        ]
    },
    {
        "client_msg_id": "d0176ef8-fcce-45dc-ae87-6246f8a1bcf4",
        "type": "message",
        "text": "Thanks!",
        "user": "UV2SC7ZE3",
        "ts": "1585005590.141300",
        "team": "TUU48M0T1",
        "user_team": "TUU48M0T1",
        "source_team": "TUU48M0T1",
        "user_profile": {
            "avatar_hash": "d28dd0d076e8",
            "image_72": "https:\/\/avatars.slack-edge.com\/2020-03-14\/987873094258_d28dd0d076e8fa9a8409_72.png",
            "first_name": "David",
            "real_name": "David Lu",
            "display_name": "David Lu",
            "team": "TUU48M0T1",
            "name": "ludavidyi",
            "is_restricted": false,
            "is_ultra_restricted": false
        },
        "blocks": [
            {
                "type": "rich_text",
                "block_id": "y0NX5",
                "elements": [
                    {
                        "type": "rich_text_section",
                        "elements": [
                            {
                                "type": "text",
                                "text": "Thanks!"
                            }
                        ]
                    }
                ]
            }
        ],
        "thread_ts": "1584732289.132600",
        "parent_user_id": "UV0QTJCMT"
    }
]