[
    {
        "client_msg_id": "a08519ff-c388-405e-bcb3-d05c8d37e9cf",
        "type": "message",
        "text": "Hi everyone, great to meet you all here. Are there any projects that require design work? How can I participate?",
        "user": "U011JHWPRRB",
        "ts": "1586543391.093000",
        "team": "TUU48M0T1",
        "user_team": "TUU48M0T1",
        "source_team": "TUU48M0T1",
        "user_profile": {
            "avatar_hash": "ge14ecbe8772",
            "image_72": "https:\/\/secure.gravatar.com\/avatar\/e14ecbe877252f73899c21b7f5f761fa.jpg?s=72&d=https%3A%2F%2Fa.slack-edge.com%2Fdf10d%2Fimg%2Favatars%2Fava_0021-72.png",
            "first_name": "",
            "real_name": "Swetha Ram",
            "display_name": "",
            "team": "TUU48M0T1",
            "name": "swetha.ramaswamy123",
            "is_restricted": false,
            "is_ultra_restricted": false
        },
        "blocks": [
            {
                "type": "rich_text",
                "block_id": "e\/2",
                "elements": [
                    {
                        "type": "rich_text_section",
                        "elements": [
                            {
                                "type": "text",
                                "text": "Hi everyone, great to meet you all here. Are there any projects that require design work? How can I participate?"
                            }
                        ]
                    }
                ]
            }
        ],
        "thread_ts": "1586543391.093000",
        "reply_count": 1,
        "reply_users_count": 1,
        "latest_reply": "1586617221.093200",
        "reply_users": [
            "UV02WET96"
        ],
        "replies": [
            {
                "user": "UV02WET96",
                "ts": "1586617221.093200"
            }
        ],
        "subscribed": false
    }
]