[
    {
        "type": "message",
        "text": "",
        "files": [
            {
                "id": "FV9M18Y0J",
                "created": 1584533218,
                "timestamp": 1584533218,
                "name": "c73e70a8-1416-4a64-b96d-88536a660c69_1584496012471.png",
                "title": "c73e70a8-1416-4a64-b96d-88536a660c69_1584496012471.png",
                "mimetype": "image\/png",
                "filetype": "png",
                "pretty_type": "PNG",
                "user": "UV0FQT2QL",
                "editable": false,
                "size": 238066,
                "mode": "hosted",
                "is_external": false,
                "external_type": "",
                "is_public": true,
                "public_url_shared": false,
                "display_as_bot": false,
                "username": "",
                "url_private": "https:\/\/files.slack.com\/files-pri\/TUU48M0T1-FV9M18Y0J\/c73e70a8-1416-4a64-b96d-88536a660c69_1584496012471.png?t=xoxe-980144714919-1133254701825-1120841107731-daf595b5a7d6c9028b0b02a925032e36",
                "url_private_download": "https:\/\/files.slack.com\/files-pri\/TUU48M0T1-FV9M18Y0J\/download\/c73e70a8-1416-4a64-b96d-88536a660c69_1584496012471.png?t=xoxe-980144714919-1133254701825-1120841107731-daf595b5a7d6c9028b0b02a925032e36",
                "thumb_64": "https:\/\/files.slack.com\/files-tmb\/TUU48M0T1-FV9M18Y0J-de625af549\/c73e70a8-1416-4a64-b96d-88536a660c69_1584496012471_64.png?t=xoxe-980144714919-1133254701825-1120841107731-daf595b5a7d6c9028b0b02a925032e36",
                "thumb_80": "https:\/\/files.slack.com\/files-tmb\/TUU48M0T1-FV9M18Y0J-de625af549\/c73e70a8-1416-4a64-b96d-88536a660c69_1584496012471_80.png?t=xoxe-980144714919-1133254701825-1120841107731-daf595b5a7d6c9028b0b02a925032e36",
                "thumb_360": "https:\/\/files.slack.com\/files-tmb\/TUU48M0T1-FV9M18Y0J-de625af549\/c73e70a8-1416-4a64-b96d-88536a660c69_1584496012471_360.png?t=xoxe-980144714919-1133254701825-1120841107731-daf595b5a7d6c9028b0b02a925032e36",
                "thumb_360_w": 360,
                "thumb_360_h": 270,
                "thumb_480": "https:\/\/files.slack.com\/files-tmb\/TUU48M0T1-FV9M18Y0J-de625af549\/c73e70a8-1416-4a64-b96d-88536a660c69_1584496012471_480.png?t=xoxe-980144714919-1133254701825-1120841107731-daf595b5a7d6c9028b0b02a925032e36",
                "thumb_480_w": 480,
                "thumb_480_h": 360,
                "thumb_160": "https:\/\/files.slack.com\/files-tmb\/TUU48M0T1-FV9M18Y0J-de625af549\/c73e70a8-1416-4a64-b96d-88536a660c69_1584496012471_160.png?t=xoxe-980144714919-1133254701825-1120841107731-daf595b5a7d6c9028b0b02a925032e36",
                "thumb_720": "https:\/\/files.slack.com\/files-tmb\/TUU48M0T1-FV9M18Y0J-de625af549\/c73e70a8-1416-4a64-b96d-88536a660c69_1584496012471_720.png?t=xoxe-980144714919-1133254701825-1120841107731-daf595b5a7d6c9028b0b02a925032e36",
                "thumb_720_w": 720,
                "thumb_720_h": 540,
                "thumb_800": "https:\/\/files.slack.com\/files-tmb\/TUU48M0T1-FV9M18Y0J-de625af549\/c73e70a8-1416-4a64-b96d-88536a660c69_1584496012471_800.png?t=xoxe-980144714919-1133254701825-1120841107731-daf595b5a7d6c9028b0b02a925032e36",
                "thumb_800_w": 800,
                "thumb_800_h": 600,
                "thumb_960": "https:\/\/files.slack.com\/files-tmb\/TUU48M0T1-FV9M18Y0J-de625af549\/c73e70a8-1416-4a64-b96d-88536a660c69_1584496012471_960.png?t=xoxe-980144714919-1133254701825-1120841107731-daf595b5a7d6c9028b0b02a925032e36",
                "thumb_960_w": 960,
                "thumb_960_h": 720,
                "thumb_1024": "https:\/\/files.slack.com\/files-tmb\/TUU48M0T1-FV9M18Y0J-de625af549\/c73e70a8-1416-4a64-b96d-88536a660c69_1584496012471_1024.png?t=xoxe-980144714919-1133254701825-1120841107731-daf595b5a7d6c9028b0b02a925032e36",
                "thumb_1024_w": 1024,
                "thumb_1024_h": 768,
                "image_exif_rotation": 1,
                "original_w": 4000,
                "original_h": 3000,
                "thumb_tiny": "AwAkADDTopHOFOKTheS3HvQA6ik3L\/eH50bhjORigBaKYWO8HjGDzn6U\/OaAGlcjBY\/pTG+9gvjHrT9p\/vGgpkYLGgBu2P1H50YTOd3fpnvSmJTjOeKXYO2R9KAGYBOFI\/OnqpA5Y0CMDOCeaNv+0350AOooooAKKKKACiiigD\/\/2Q==",
                "permalink": "https:\/\/open-covid19.slack.com\/files\/UV0FQT2QL\/FV9M18Y0J\/c73e70a8-1416-4a64-b96d-88536a660c69_1584496012471.png",
                "permalink_public": "https:\/\/slack-files.com\/TUU48M0T1-FV9M18Y0J-dec457ff91",
                "is_starred": false,
                "has_rich_preview": false
            }
        ],
        "upload": true,
        "user": "UV0FQT2QL",
        "display_as_bot": false,
        "ts": "1584533231.095300",
        "client_msg_id": "5ebdb753-0b7c-4ad2-8dc2-4bce57690a58"
    },
    {
        "type": "message",
        "text": "",
        "files": [
            {
                "id": "F010AASHB5M",
                "created": 1584533235,
                "timestamp": 1584533235,
                "name": "20200317_214549_1584496012105.png",
                "title": "20200317_214549_1584496012105.png",
                "mimetype": "image\/png",
                "filetype": "png",
                "pretty_type": "PNG",
                "user": "UV0FQT2QL",
                "editable": false,
                "size": 371636,
                "mode": "hosted",
                "is_external": false,
                "external_type": "",
                "is_public": true,
                "public_url_shared": false,
                "display_as_bot": false,
                "username": "",
                "url_private": "https:\/\/files.slack.com\/files-pri\/TUU48M0T1-F010AASHB5M\/20200317_214549_1584496012105.png?t=xoxe-980144714919-1133254701825-1120841107731-daf595b5a7d6c9028b0b02a925032e36",
                "url_private_download": "https:\/\/files.slack.com\/files-pri\/TUU48M0T1-F010AASHB5M\/download\/20200317_214549_1584496012105.png?t=xoxe-980144714919-1133254701825-1120841107731-daf595b5a7d6c9028b0b02a925032e36",
                "thumb_64": "https:\/\/files.slack.com\/files-tmb\/TUU48M0T1-F010AASHB5M-1eaa452542\/20200317_214549_1584496012105_64.png?t=xoxe-980144714919-1133254701825-1120841107731-daf595b5a7d6c9028b0b02a925032e36",
                "thumb_80": "https:\/\/files.slack.com\/files-tmb\/TUU48M0T1-F010AASHB5M-1eaa452542\/20200317_214549_1584496012105_80.png?t=xoxe-980144714919-1133254701825-1120841107731-daf595b5a7d6c9028b0b02a925032e36",
                "thumb_360": "https:\/\/files.slack.com\/files-tmb\/TUU48M0T1-F010AASHB5M-1eaa452542\/20200317_214549_1584496012105_360.png?t=xoxe-980144714919-1133254701825-1120841107731-daf595b5a7d6c9028b0b02a925032e36",
                "thumb_360_w": 360,
                "thumb_360_h": 299,
                "thumb_480": "https:\/\/files.slack.com\/files-tmb\/TUU48M0T1-F010AASHB5M-1eaa452542\/20200317_214549_1584496012105_480.png?t=xoxe-980144714919-1133254701825-1120841107731-daf595b5a7d6c9028b0b02a925032e36",
                "thumb_480_w": 480,
                "thumb_480_h": 399,
                "thumb_160": "https:\/\/files.slack.com\/files-tmb\/TUU48M0T1-F010AASHB5M-1eaa452542\/20200317_214549_1584496012105_160.png?t=xoxe-980144714919-1133254701825-1120841107731-daf595b5a7d6c9028b0b02a925032e36",
                "thumb_720": "https:\/\/files.slack.com\/files-tmb\/TUU48M0T1-F010AASHB5M-1eaa452542\/20200317_214549_1584496012105_720.png?t=xoxe-980144714919-1133254701825-1120841107731-daf595b5a7d6c9028b0b02a925032e36",
                "thumb_720_w": 720,
                "thumb_720_h": 598,
                "thumb_800": "https:\/\/files.slack.com\/files-tmb\/TUU48M0T1-F010AASHB5M-1eaa452542\/20200317_214549_1584496012105_800.png?t=xoxe-980144714919-1133254701825-1120841107731-daf595b5a7d6c9028b0b02a925032e36",
                "thumb_800_w": 800,
                "thumb_800_h": 665,
                "thumb_960": "https:\/\/files.slack.com\/files-tmb\/TUU48M0T1-F010AASHB5M-1eaa452542\/20200317_214549_1584496012105_960.png?t=xoxe-980144714919-1133254701825-1120841107731-daf595b5a7d6c9028b0b02a925032e36",
                "thumb_960_w": 960,
                "thumb_960_h": 797,
                "thumb_1024": "https:\/\/files.slack.com\/files-tmb\/TUU48M0T1-F010AASHB5M-1eaa452542\/20200317_214549_1584496012105_1024.png?t=xoxe-980144714919-1133254701825-1120841107731-daf595b5a7d6c9028b0b02a925032e36",
                "thumb_1024_w": 1024,
                "thumb_1024_h": 851,
                "image_exif_rotation": 1,
                "original_w": 3018,
                "original_h": 2507,
                "thumb_tiny": "AwAnADDTopGYL1IGeOaqFfJcGVSctxIGOfxFAFykLKASSBjrVJRKscZY\/LuDZz3J6UjOWNyM8EEj8OKdgLxIBAJ5PSlqCQ5Nu3q38xU9IBskayoUboarW8Mb\/PudgpwAxq3VC0nSKNlYMWLZwBmmBYuWjjhCtnGRjHXimuIwRHtLfKScHsetMKm5uCQPkVcDcPWo+rR+YWGAUYj2oETMo+WMNJIQNwwQMVYj\/wBWv3un8XWqxkGweaGV9vysBgmp4C5hUyfexzQMkooopAFFFFABRRRQB\/\/Z",
                "permalink": "https:\/\/open-covid19.slack.com\/files\/UV0FQT2QL\/F010AASHB5M\/20200317_214549_1584496012105.png",
                "permalink_public": "https:\/\/slack-files.com\/TUU48M0T1-F010AASHB5M-ecd37ed338",
                "is_starred": false,
                "has_rich_preview": false
            }
        ],
        "upload": true,
        "user": "UV0FQT2QL",
        "display_as_bot": false,
        "ts": "1584533242.095600",
        "client_msg_id": "be267264-aa33-47a7-8178-a9ae4466c972",
        "reactions": [
            {
                "name": "mask-parrot",
                "users": [
                    "UV7CJF9SN"
                ],
                "count": 1
            }
        ]
    },
    {
        "type": "message",
        "text": "",
        "files": [
            {
                "id": "F01081D6J5S",
                "created": 1584533246,
                "timestamp": 1584533246,
                "name": "0e524cd6-3122-437a-81c3-ad75c479faad_1584496011359_01.jpeg",
                "title": "0e524cd6-3122-437a-81c3-ad75c479faad_1584496011359_01.jpeg",
                "mimetype": "image\/jpeg",
                "filetype": "jpg",
                "pretty_type": "JPEG",
                "user": "UV0FQT2QL",
                "editable": false,
                "size": 87836,
                "mode": "hosted",
                "is_external": false,
                "external_type": "",
                "is_public": true,
                "public_url_shared": false,
                "display_as_bot": false,
                "username": "",
                "url_private": "https:\/\/files.slack.com\/files-pri\/TUU48M0T1-F01081D6J5S\/0e524cd6-3122-437a-81c3-ad75c479faad_1584496011359_01.jpeg?t=xoxe-980144714919-1133254701825-1120841107731-daf595b5a7d6c9028b0b02a925032e36",
                "url_private_download": "https:\/\/files.slack.com\/files-pri\/TUU48M0T1-F01081D6J5S\/download\/0e524cd6-3122-437a-81c3-ad75c479faad_1584496011359_01.jpeg?t=xoxe-980144714919-1133254701825-1120841107731-daf595b5a7d6c9028b0b02a925032e36",
                "thumb_64": "https:\/\/files.slack.com\/files-tmb\/TUU48M0T1-F01081D6J5S-cd94b881f1\/0e524cd6-3122-437a-81c3-ad75c479faad_1584496011359_01_64.jpg?t=xoxe-980144714919-1133254701825-1120841107731-daf595b5a7d6c9028b0b02a925032e36",
                "thumb_80": "https:\/\/files.slack.com\/files-tmb\/TUU48M0T1-F01081D6J5S-cd94b881f1\/0e524cd6-3122-437a-81c3-ad75c479faad_1584496011359_01_80.jpg?t=xoxe-980144714919-1133254701825-1120841107731-daf595b5a7d6c9028b0b02a925032e36",
                "thumb_360": "https:\/\/files.slack.com\/files-tmb\/TUU48M0T1-F01081D6J5S-cd94b881f1\/0e524cd6-3122-437a-81c3-ad75c479faad_1584496011359_01_360.jpg?t=xoxe-980144714919-1133254701825-1120841107731-daf595b5a7d6c9028b0b02a925032e36",
                "thumb_360_w": 360,
                "thumb_360_h": 270,
                "thumb_480": "https:\/\/files.slack.com\/files-tmb\/TUU48M0T1-F01081D6J5S-cd94b881f1\/0e524cd6-3122-437a-81c3-ad75c479faad_1584496011359_01_480.jpg?t=xoxe-980144714919-1133254701825-1120841107731-daf595b5a7d6c9028b0b02a925032e36",
                "thumb_480_w": 480,
                "thumb_480_h": 360,
                "thumb_160": "https:\/\/files.slack.com\/files-tmb\/TUU48M0T1-F01081D6J5S-cd94b881f1\/0e524cd6-3122-437a-81c3-ad75c479faad_1584496011359_01_160.jpg?t=xoxe-980144714919-1133254701825-1120841107731-daf595b5a7d6c9028b0b02a925032e36",
                "thumb_720": "https:\/\/files.slack.com\/files-tmb\/TUU48M0T1-F01081D6J5S-cd94b881f1\/0e524cd6-3122-437a-81c3-ad75c479faad_1584496011359_01_720.jpg?t=xoxe-980144714919-1133254701825-1120841107731-daf595b5a7d6c9028b0b02a925032e36",
                "thumb_720_w": 720,
                "thumb_720_h": 540,
                "thumb_800": "https:\/\/files.slack.com\/files-tmb\/TUU48M0T1-F01081D6J5S-cd94b881f1\/0e524cd6-3122-437a-81c3-ad75c479faad_1584496011359_01_800.jpg?t=xoxe-980144714919-1133254701825-1120841107731-daf595b5a7d6c9028b0b02a925032e36",
                "thumb_800_w": 800,
                "thumb_800_h": 600,
                "thumb_960": "https:\/\/files.slack.com\/files-tmb\/TUU48M0T1-F01081D6J5S-cd94b881f1\/0e524cd6-3122-437a-81c3-ad75c479faad_1584496011359_01_960.jpg?t=xoxe-980144714919-1133254701825-1120841107731-daf595b5a7d6c9028b0b02a925032e36",
                "thumb_960_w": 960,
                "thumb_960_h": 720,
                "thumb_1024": "https:\/\/files.slack.com\/files-tmb\/TUU48M0T1-F01081D6J5S-cd94b881f1\/0e524cd6-3122-437a-81c3-ad75c479faad_1584496011359_01_1024.jpg?t=xoxe-980144714919-1133254701825-1120841107731-daf595b5a7d6c9028b0b02a925032e36",
                "thumb_1024_w": 1024,
                "thumb_1024_h": 768,
                "image_exif_rotation": 1,
                "original_w": 1440,
                "original_h": 1080,
                "thumb_tiny": "AwAkADDTprSIhwzKCfU06qyMqoSy7pHJyP8APagCUzRqpZmwAdvPrTt6gE7hgdapOQwZtvyknj0JXimsCPMTqzEdPanYDQDAsQDyOtLVeBwZGJIyyqfrxVikAySTywMAsx6KO9V2ZTLiWMf7RBOOmce9TSI\/mK8e0kAjDVE9vIxY7gdw6e\/f+VMBxeAOX2\/MpxkD\/PpSM4BJWEZ+8d1Ri1kAY5z7Z6n1\/nUwicqw3YDA5U8nOMdaAGCRFwzRLkYA2joMZqWGbzT0xxn9cf0prW+c\/NjP+GP6U6GERZ5yWoAlooopAFFFFABRRRQB\/9k=",
                "permalink": "https:\/\/open-covid19.slack.com\/files\/UV0FQT2QL\/F01081D6J5S\/0e524cd6-3122-437a-81c3-ad75c479faad_1584496011359_01.jpeg",
                "permalink_public": "https:\/\/slack-files.com\/TUU48M0T1-F01081D6J5S-3f9cfc08f6",
                "is_starred": false,
                "has_rich_preview": false
            }
        ],
        "upload": true,
        "user": "UV0FQT2QL",
        "display_as_bot": false,
        "ts": "1584533250.096100",
        "client_msg_id": "11c12569-4e34-4344-a06c-050524fad7fb"
    },
    {
        "type": "message",
        "text": "",
        "files": [
            {
                "id": "F0108FBG0ER",
                "created": 1584533252,
                "timestamp": 1584533252,
                "name": "86af53eb-65a0-4fd4-9992-69caa0793c36_1584495985498_01.png",
                "title": "86af53eb-65a0-4fd4-9992-69caa0793c36_1584495985498_01.png",
                "mimetype": "image\/png",
                "filetype": "png",
                "pretty_type": "PNG",
                "user": "UV0FQT2QL",
                "editable": false,
                "size": 269265,
                "mode": "hosted",
                "is_external": false,
                "external_type": "",
                "is_public": true,
                "public_url_shared": false,
                "display_as_bot": false,
                "username": "",
                "url_private": "https:\/\/files.slack.com\/files-pri\/TUU48M0T1-F0108FBG0ER\/86af53eb-65a0-4fd4-9992-69caa0793c36_1584495985498_01.png?t=xoxe-980144714919-1133254701825-1120841107731-daf595b5a7d6c9028b0b02a925032e36",
                "url_private_download": "https:\/\/files.slack.com\/files-pri\/TUU48M0T1-F0108FBG0ER\/download\/86af53eb-65a0-4fd4-9992-69caa0793c36_1584495985498_01.png?t=xoxe-980144714919-1133254701825-1120841107731-daf595b5a7d6c9028b0b02a925032e36",
                "thumb_64": "https:\/\/files.slack.com\/files-tmb\/TUU48M0T1-F0108FBG0ER-3f054b0eb1\/86af53eb-65a0-4fd4-9992-69caa0793c36_1584495985498_01_64.png?t=xoxe-980144714919-1133254701825-1120841107731-daf595b5a7d6c9028b0b02a925032e36",
                "thumb_80": "https:\/\/files.slack.com\/files-tmb\/TUU48M0T1-F0108FBG0ER-3f054b0eb1\/86af53eb-65a0-4fd4-9992-69caa0793c36_1584495985498_01_80.png?t=xoxe-980144714919-1133254701825-1120841107731-daf595b5a7d6c9028b0b02a925032e36",
                "thumb_360": "https:\/\/files.slack.com\/files-tmb\/TUU48M0T1-F0108FBG0ER-3f054b0eb1\/86af53eb-65a0-4fd4-9992-69caa0793c36_1584495985498_01_360.png?t=xoxe-980144714919-1133254701825-1120841107731-daf595b5a7d6c9028b0b02a925032e36",
                "thumb_360_w": 360,
                "thumb_360_h": 270,
                "thumb_480": "https:\/\/files.slack.com\/files-tmb\/TUU48M0T1-F0108FBG0ER-3f054b0eb1\/86af53eb-65a0-4fd4-9992-69caa0793c36_1584495985498_01_480.png?t=xoxe-980144714919-1133254701825-1120841107731-daf595b5a7d6c9028b0b02a925032e36",
                "thumb_480_w": 480,
                "thumb_480_h": 360,
                "thumb_160": "https:\/\/files.slack.com\/files-tmb\/TUU48M0T1-F0108FBG0ER-3f054b0eb1\/86af53eb-65a0-4fd4-9992-69caa0793c36_1584495985498_01_160.png?t=xoxe-980144714919-1133254701825-1120841107731-daf595b5a7d6c9028b0b02a925032e36",
                "thumb_720": "https:\/\/files.slack.com\/files-tmb\/TUU48M0T1-F0108FBG0ER-3f054b0eb1\/86af53eb-65a0-4fd4-9992-69caa0793c36_1584495985498_01_720.png?t=xoxe-980144714919-1133254701825-1120841107731-daf595b5a7d6c9028b0b02a925032e36",
                "thumb_720_w": 720,
                "thumb_720_h": 540,
                "thumb_800": "https:\/\/files.slack.com\/files-tmb\/TUU48M0T1-F0108FBG0ER-3f054b0eb1\/86af53eb-65a0-4fd4-9992-69caa0793c36_1584495985498_01_800.png?t=xoxe-980144714919-1133254701825-1120841107731-daf595b5a7d6c9028b0b02a925032e36",
                "thumb_800_w": 800,
                "thumb_800_h": 600,
                "thumb_960": "https:\/\/files.slack.com\/files-tmb\/TUU48M0T1-F0108FBG0ER-3f054b0eb1\/86af53eb-65a0-4fd4-9992-69caa0793c36_1584495985498_01_960.png?t=xoxe-980144714919-1133254701825-1120841107731-daf595b5a7d6c9028b0b02a925032e36",
                "thumb_960_w": 960,
                "thumb_960_h": 720,
                "thumb_1024": "https:\/\/files.slack.com\/files-tmb\/TUU48M0T1-F0108FBG0ER-3f054b0eb1\/86af53eb-65a0-4fd4-9992-69caa0793c36_1584495985498_01_1024.png?t=xoxe-980144714919-1133254701825-1120841107731-daf595b5a7d6c9028b0b02a925032e36",
                "thumb_1024_w": 1024,
                "thumb_1024_h": 768,
                "image_exif_rotation": 1,
                "original_w": 4000,
                "original_h": 3000,
                "thumb_tiny": "AwAkADBaKB1o69BWpxWCijFFABRSgcUlA2gyPSlGPT8qTPtRn2oGmLk0ZPpzRuOc0ZoHfzD3OaCR6UbuAMUmfYUCbCiiimSFFFFABRRRQB\/\/2Q==",
                "permalink": "https:\/\/open-covid19.slack.com\/files\/UV0FQT2QL\/F0108FBG0ER\/86af53eb-65a0-4fd4-9992-69caa0793c36_1584495985498_01.png",
                "permalink_public": "https:\/\/slack-files.com\/TUU48M0T1-F0108FBG0ER-9c099cc239",
                "is_starred": false,
                "has_rich_preview": false
            }
        ],
        "upload": true,
        "user": "UV0FQT2QL",
        "display_as_bot": false,
        "ts": "1584533258.096600",
        "client_msg_id": "97479e4a-1bb8-40cc-a816-14bad5c61809"
    },
    {
        "client_msg_id": "43efb3b1-1c2a-4d48-9eeb-102988fe7d8f",
        "type": "message",
        "text": "These graphics are original art designed for these initiatives",
        "user": "UV0FQT2QL",
        "ts": "1584533267.097200",
        "team": "TUU48M0T1",
        "user_team": "TUU48M0T1",
        "source_team": "TUU48M0T1",
        "user_profile": {
            "avatar_hash": "75f46697d2ad",
            "image_72": "https:\/\/avatars.slack-edge.com\/2020-03-07\/986957273572_75f46697d2ad18fdd4cd_72.jpg",
            "first_name": "Rachel",
            "real_name": "Rachel Andrex",
            "display_name": "Rachel",
            "team": "TUU48M0T1",
            "name": "rachelandrex",
            "is_restricted": false,
            "is_ultra_restricted": false
        }
    },
    {
        "type": "message",
        "text": "",
        "files": [
            {
                "id": "F0108ET6HS4",
                "created": 1584533263,
                "timestamp": 1584533263,
                "name": "6095fdb0-4b17-451e-8b0e-58d907dac032_1584495984796.jpeg",
                "title": "6095fdb0-4b17-451e-8b0e-58d907dac032_1584495984796.jpeg",
                "mimetype": "image\/jpeg",
                "filetype": "jpg",
                "pretty_type": "JPEG",
                "user": "UV0FQT2QL",
                "editable": false,
                "size": 114328,
                "mode": "hosted",
                "is_external": false,
                "external_type": "",
                "is_public": true,
                "public_url_shared": false,
                "display_as_bot": false,
                "username": "",
                "url_private": "https:\/\/files.slack.com\/files-pri\/TUU48M0T1-F0108ET6HS4\/6095fdb0-4b17-451e-8b0e-58d907dac032_1584495984796.jpeg?t=xoxe-980144714919-1133254701825-1120841107731-daf595b5a7d6c9028b0b02a925032e36",
                "url_private_download": "https:\/\/files.slack.com\/files-pri\/TUU48M0T1-F0108ET6HS4\/download\/6095fdb0-4b17-451e-8b0e-58d907dac032_1584495984796.jpeg?t=xoxe-980144714919-1133254701825-1120841107731-daf595b5a7d6c9028b0b02a925032e36",
                "thumb_64": "https:\/\/files.slack.com\/files-tmb\/TUU48M0T1-F0108ET6HS4-6bf8c8cf68\/6095fdb0-4b17-451e-8b0e-58d907dac032_1584495984796_64.jpg?t=xoxe-980144714919-1133254701825-1120841107731-daf595b5a7d6c9028b0b02a925032e36",
                "thumb_80": "https:\/\/files.slack.com\/files-tmb\/TUU48M0T1-F0108ET6HS4-6bf8c8cf68\/6095fdb0-4b17-451e-8b0e-58d907dac032_1584495984796_80.jpg?t=xoxe-980144714919-1133254701825-1120841107731-daf595b5a7d6c9028b0b02a925032e36",
                "thumb_360": "https:\/\/files.slack.com\/files-tmb\/TUU48M0T1-F0108ET6HS4-6bf8c8cf68\/6095fdb0-4b17-451e-8b0e-58d907dac032_1584495984796_360.jpg?t=xoxe-980144714919-1133254701825-1120841107731-daf595b5a7d6c9028b0b02a925032e36",
                "thumb_360_w": 360,
                "thumb_360_h": 270,
                "thumb_480": "https:\/\/files.slack.com\/files-tmb\/TUU48M0T1-F0108ET6HS4-6bf8c8cf68\/6095fdb0-4b17-451e-8b0e-58d907dac032_1584495984796_480.jpg?t=xoxe-980144714919-1133254701825-1120841107731-daf595b5a7d6c9028b0b02a925032e36",
                "thumb_480_w": 480,
                "thumb_480_h": 360,
                "thumb_160": "https:\/\/files.slack.com\/files-tmb\/TUU48M0T1-F0108ET6HS4-6bf8c8cf68\/6095fdb0-4b17-451e-8b0e-58d907dac032_1584495984796_160.jpg?t=xoxe-980144714919-1133254701825-1120841107731-daf595b5a7d6c9028b0b02a925032e36",
                "thumb_720": "https:\/\/files.slack.com\/files-tmb\/TUU48M0T1-F0108ET6HS4-6bf8c8cf68\/6095fdb0-4b17-451e-8b0e-58d907dac032_1584495984796_720.jpg?t=xoxe-980144714919-1133254701825-1120841107731-daf595b5a7d6c9028b0b02a925032e36",
                "thumb_720_w": 720,
                "thumb_720_h": 540,
                "thumb_800": "https:\/\/files.slack.com\/files-tmb\/TUU48M0T1-F0108ET6HS4-6bf8c8cf68\/6095fdb0-4b17-451e-8b0e-58d907dac032_1584495984796_800.jpg?t=xoxe-980144714919-1133254701825-1120841107731-daf595b5a7d6c9028b0b02a925032e36",
                "thumb_800_w": 800,
                "thumb_800_h": 600,
                "thumb_960": "https:\/\/files.slack.com\/files-tmb\/TUU48M0T1-F0108ET6HS4-6bf8c8cf68\/6095fdb0-4b17-451e-8b0e-58d907dac032_1584495984796_960.jpg?t=xoxe-980144714919-1133254701825-1120841107731-daf595b5a7d6c9028b0b02a925032e36",
                "thumb_960_w": 960,
                "thumb_960_h": 720,
                "thumb_1024": "https:\/\/files.slack.com\/files-tmb\/TUU48M0T1-F0108ET6HS4-6bf8c8cf68\/6095fdb0-4b17-451e-8b0e-58d907dac032_1584495984796_1024.jpg?t=xoxe-980144714919-1133254701825-1120841107731-daf595b5a7d6c9028b0b02a925032e36",
                "thumb_1024_w": 1024,
                "thumb_1024_h": 768,
                "image_exif_rotation": 1,
                "original_w": 1440,
                "original_h": 1080,
                "thumb_tiny": "AwAkADCML605Y2blVJ+gpOlTOGLgKwVFAwf896p2MFdjPKckKq5JGfwpoVuBg5PSrSggqN3zcc+oDc05cExv0VQf1o5tSlDQo7TgEjg9DSgYqaVCI1ABwrN\/Ooc042WrJlroKiFyckBR1J7VOqt5eYnPsCBn\/wCtUMbJsKPuAJByKmSZFAG08H9O1Ta+pSaQ0JKUCbvlYdCaVU4AMpx90Yp5uYyQOnvjp7VD5qAqcZKkcjjvnpTugsSFGOQsjYOc5PXtUUsXl9884\/TNOW4xj5c4\/wAaSWQyEcdKduYTsiOkpaSnLchDTRQaKzNgpy0lKtNbky2P\/9k=",
                "permalink": "https:\/\/open-covid19.slack.com\/files\/UV0FQT2QL\/F0108ET6HS4\/6095fdb0-4b17-451e-8b0e-58d907dac032_1584495984796.jpeg",
                "permalink_public": "https:\/\/slack-files.com\/TUU48M0T1-F0108ET6HS4-c30aa3f76d",
                "is_starred": false,
                "has_rich_preview": false
            }
        ],
        "upload": true,
        "user": "UV0FQT2QL",
        "display_as_bot": false,
        "ts": "1584533270.097300",
        "client_msg_id": "74b323e8-ba5d-4d40-8025-5d7f1a96d80c"
    },
    {
        "type": "message",
        "text": "",
        "files": [
            {
                "id": "FVCCS53KK",
                "created": 1584533274,
                "timestamp": 1584533274,
                "name": "20200317_214605_1584495983655.png",
                "title": "20200317_214605_1584495983655.png",
                "mimetype": "image\/png",
                "filetype": "png",
                "pretty_type": "PNG",
                "user": "UV0FQT2QL",
                "editable": false,
                "size": 365551,
                "mode": "hosted",
                "is_external": false,
                "external_type": "",
                "is_public": true,
                "public_url_shared": false,
                "display_as_bot": false,
                "username": "",
                "url_private": "https:\/\/files.slack.com\/files-pri\/TUU48M0T1-FVCCS53KK\/20200317_214605_1584495983655.png?t=xoxe-980144714919-1133254701825-1120841107731-daf595b5a7d6c9028b0b02a925032e36",
                "url_private_download": "https:\/\/files.slack.com\/files-pri\/TUU48M0T1-FVCCS53KK\/download\/20200317_214605_1584495983655.png?t=xoxe-980144714919-1133254701825-1120841107731-daf595b5a7d6c9028b0b02a925032e36",
                "thumb_64": "https:\/\/files.slack.com\/files-tmb\/TUU48M0T1-FVCCS53KK-216b8aeb92\/20200317_214605_1584495983655_64.png?t=xoxe-980144714919-1133254701825-1120841107731-daf595b5a7d6c9028b0b02a925032e36",
                "thumb_80": "https:\/\/files.slack.com\/files-tmb\/TUU48M0T1-FVCCS53KK-216b8aeb92\/20200317_214605_1584495983655_80.png?t=xoxe-980144714919-1133254701825-1120841107731-daf595b5a7d6c9028b0b02a925032e36",
                "thumb_360": "https:\/\/files.slack.com\/files-tmb\/TUU48M0T1-FVCCS53KK-216b8aeb92\/20200317_214605_1584495983655_360.png?t=xoxe-980144714919-1133254701825-1120841107731-daf595b5a7d6c9028b0b02a925032e36",
                "thumb_360_w": 360,
                "thumb_360_h": 298,
                "thumb_480": "https:\/\/files.slack.com\/files-tmb\/TUU48M0T1-FVCCS53KK-216b8aeb92\/20200317_214605_1584495983655_480.png?t=xoxe-980144714919-1133254701825-1120841107731-daf595b5a7d6c9028b0b02a925032e36",
                "thumb_480_w": 480,
                "thumb_480_h": 397,
                "thumb_160": "https:\/\/files.slack.com\/files-tmb\/TUU48M0T1-FVCCS53KK-216b8aeb92\/20200317_214605_1584495983655_160.png?t=xoxe-980144714919-1133254701825-1120841107731-daf595b5a7d6c9028b0b02a925032e36",
                "thumb_720": "https:\/\/files.slack.com\/files-tmb\/TUU48M0T1-FVCCS53KK-216b8aeb92\/20200317_214605_1584495983655_720.png?t=xoxe-980144714919-1133254701825-1120841107731-daf595b5a7d6c9028b0b02a925032e36",
                "thumb_720_w": 720,
                "thumb_720_h": 596,
                "thumb_800": "https:\/\/files.slack.com\/files-tmb\/TUU48M0T1-FVCCS53KK-216b8aeb92\/20200317_214605_1584495983655_800.png?t=xoxe-980144714919-1133254701825-1120841107731-daf595b5a7d6c9028b0b02a925032e36",
                "thumb_800_w": 800,
                "thumb_800_h": 662,
                "thumb_960": "https:\/\/files.slack.com\/files-tmb\/TUU48M0T1-FVCCS53KK-216b8aeb92\/20200317_214605_1584495983655_960.png?t=xoxe-980144714919-1133254701825-1120841107731-daf595b5a7d6c9028b0b02a925032e36",
                "thumb_960_w": 960,
                "thumb_960_h": 795,
                "thumb_1024": "https:\/\/files.slack.com\/files-tmb\/TUU48M0T1-FVCCS53KK-216b8aeb92\/20200317_214605_1584495983655_1024.png?t=xoxe-980144714919-1133254701825-1120841107731-daf595b5a7d6c9028b0b02a925032e36",
                "thumb_1024_w": 1024,
                "thumb_1024_h": 848,
                "image_exif_rotation": 1,
                "original_w": 2978,
                "original_h": 2466,
                "thumb_tiny": "AwAnADCxRSEgYycZ4FVyvlFQyg56MOtB0FmkLAA5PTrVdVZRHk\/KCMfjTdxIm9+R+dAFokAgE8npS1E5+aI+\/wDSpaAGyIrrhulRQxowDjcfTJ6VM33T9KrQSqke0hic9hQBLMyoqqc9RjFIwXOzaTheTntTdpmlZv4QMDIpvUruyOMHHtQMkKjIUbmwM\/e6VKv3R1\/HrUJb5fnBDY4IFSxlig3daQh1FFFABRRRQAUUUUAf\/9k=",
                "permalink": "https:\/\/open-covid19.slack.com\/files\/UV0FQT2QL\/FVCCS53KK\/20200317_214605_1584495983655.png",
                "permalink_public": "https:\/\/slack-files.com\/TUU48M0T1-FVCCS53KK-be72e704d5",
                "is_starred": false,
                "has_rich_preview": false
            }
        ],
        "upload": true,
        "user": "UV0FQT2QL",
        "display_as_bot": false,
        "ts": "1584533284.097800",
        "client_msg_id": "1cf390f5-b7d7-48a4-a564-6abbdac66438",
        "thread_ts": "1584533284.097800",
        "reply_count": 9,
        "reply_users_count": 2,
        "latest_reply": "1584536593.100600",
        "reply_users": [
            "UV7CJF9SN",
            "UV0FQT2QL"
        ],
        "replies": [
            {
                "user": "UV7CJF9SN",
                "ts": "1584533301.098500"
            },
            {
                "user": "UV0FQT2QL",
                "ts": "1584533331.099200"
            },
            {
                "user": "UV7CJF9SN",
                "ts": "1584533342.099400"
            },
            {
                "user": "UV0FQT2QL",
                "ts": "1584533344.099600"
            },
            {
                "user": "UV7CJF9SN",
                "ts": "1584533413.099800"
            },
            {
                "user": "UV0FQT2QL",
                "ts": "1584533427.100000"
            },
            {
                "user": "UV7CJF9SN",
                "ts": "1584533456.100200"
            },
            {
                "user": "UV0FQT2QL",
                "ts": "1584533497.100400"
            },
            {
                "user": "UV7CJF9SN",
                "ts": "1584536593.100600"
            }
        ],
        "subscribed": false
    },
    {
        "client_msg_id": "22deca16-f033-48d6-a45d-c27040420fdf",
        "type": "message",
        "text": "Can you do this in Blue?",
        "user": "UV7CJF9SN",
        "ts": "1584533301.098500",
        "team": "TUU48M0T1",
        "user_team": "TUU48M0T1",
        "source_team": "TUU48M0T1",
        "user_profile": {
            "avatar_hash": "d98498755dde",
            "image_72": "https:\/\/avatars.slack-edge.com\/2020-03-18\/1011059157527_d98498755dde6739a981_72.png",
            "first_name": "Zaza",
            "real_name": "Zaza Soriano",
            "display_name": "Zaza Soriano",
            "team": "TUU48M0T1",
            "name": "scuzy89",
            "is_restricted": false,
            "is_ultra_restricted": false
        },
        "blocks": [
            {
                "type": "rich_text",
                "block_id": "+CyT",
                "elements": [
                    {
                        "type": "rich_text_section",
                        "elements": [
                            {
                                "type": "text",
                                "text": "Can you do this in Blue?"
                            }
                        ]
                    }
                ]
            }
        ],
        "thread_ts": "1584533284.097800",
        "parent_user_id": "UV0FQT2QL"
    },
    {
        "client_msg_id": "ffcad91f-0c98-49df-9591-3d8371ed7f5e",
        "type": "message",
        "text": "Feel free to share and use as content for banners.",
        "user": "UV0FQT2QL",
        "ts": "1584533302.098700",
        "team": "TUU48M0T1",
        "user_team": "TUU48M0T1",
        "source_team": "TUU48M0T1",
        "user_profile": {
            "avatar_hash": "75f46697d2ad",
            "image_72": "https:\/\/avatars.slack-edge.com\/2020-03-07\/986957273572_75f46697d2ad18fdd4cd_72.jpg",
            "first_name": "Rachel",
            "real_name": "Rachel Andrex",
            "display_name": "Rachel",
            "team": "TUU48M0T1",
            "name": "rachelandrex",
            "is_restricted": false,
            "is_ultra_restricted": false
        }
    },
    {
        "client_msg_id": "09ea7e6d-34d2-4573-9939-003edb63f6f6",
        "type": "message",
        "text": "They are drawings",
        "user": "UV0FQT2QL",
        "ts": "1584533315.099000",
        "team": "TUU48M0T1",
        "user_team": "TUU48M0T1",
        "source_team": "TUU48M0T1",
        "user_profile": {
            "avatar_hash": "75f46697d2ad",
            "image_72": "https:\/\/avatars.slack-edge.com\/2020-03-07\/986957273572_75f46697d2ad18fdd4cd_72.jpg",
            "first_name": "Rachel",
            "real_name": "Rachel Andrex",
            "display_name": "Rachel",
            "team": "TUU48M0T1",
            "name": "rachelandrex",
            "is_restricted": false,
            "is_ultra_restricted": false
        },
        "reactions": [
            {
                "name": "heart",
                "users": [
                    "UV7CJF9SN"
                ],
                "count": 1
            }
        ]
    },
    {
        "client_msg_id": "71db2590-adc9-468b-8f71-e7c84ad8866f",
        "type": "message",
        "text": "Feel free to edit, the Artis gives all rights of use",
        "user": "UV0FQT2QL",
        "ts": "1584533331.099200",
        "team": "TUU48M0T1",
        "user_team": "TUU48M0T1",
        "source_team": "TUU48M0T1",
        "user_profile": {
            "avatar_hash": "75f46697d2ad",
            "image_72": "https:\/\/avatars.slack-edge.com\/2020-03-07\/986957273572_75f46697d2ad18fdd4cd_72.jpg",
            "first_name": "Rachel",
            "real_name": "Rachel Andrex",
            "display_name": "Rachel",
            "team": "TUU48M0T1",
            "name": "rachelandrex",
            "is_restricted": false,
            "is_ultra_restricted": false
        },
        "thread_ts": "1584533284.097800",
        "parent_user_id": "UV0FQT2QL"
    },
    {
        "client_msg_id": "66e46e3f-603a-4556-9396-280ce1b87410",
        "type": "message",
        "text": "Cool",
        "user": "UV7CJF9SN",
        "ts": "1584533342.099400",
        "team": "TUU48M0T1",
        "user_team": "TUU48M0T1",
        "source_team": "TUU48M0T1",
        "user_profile": {
            "avatar_hash": "d98498755dde",
            "image_72": "https:\/\/avatars.slack-edge.com\/2020-03-18\/1011059157527_d98498755dde6739a981_72.png",
            "first_name": "Zaza",
            "real_name": "Zaza Soriano",
            "display_name": "Zaza Soriano",
            "team": "TUU48M0T1",
            "name": "scuzy89",
            "is_restricted": false,
            "is_ultra_restricted": false
        },
        "blocks": [
            {
                "type": "rich_text",
                "block_id": "tdDO",
                "elements": [
                    {
                        "type": "rich_text_section",
                        "elements": [
                            {
                                "type": "text",
                                "text": "Cool"
                            }
                        ]
                    }
                ]
            }
        ],
        "thread_ts": "1584533284.097800",
        "parent_user_id": "UV0FQT2QL"
    },
    {
        "client_msg_id": "dc1b78c0-76cc-4353-8cbf-35397271d83d",
        "type": "message",
        "text": "Or get a graphics designer to digital edit",
        "user": "UV0FQT2QL",
        "ts": "1584533344.099600",
        "team": "TUU48M0T1",
        "user_team": "TUU48M0T1",
        "source_team": "TUU48M0T1",
        "user_profile": {
            "avatar_hash": "75f46697d2ad",
            "image_72": "https:\/\/avatars.slack-edge.com\/2020-03-07\/986957273572_75f46697d2ad18fdd4cd_72.jpg",
            "first_name": "Rachel",
            "real_name": "Rachel Andrex",
            "display_name": "Rachel",
            "team": "TUU48M0T1",
            "name": "rachelandrex",
            "is_restricted": false,
            "is_ultra_restricted": false
        },
        "thread_ts": "1584533284.097800",
        "parent_user_id": "UV0FQT2QL"
    },
    {
        "client_msg_id": "8ef066eb-b2d2-4e6c-9ba7-c0f2bd0ca030",
        "type": "message",
        "text": "Want me to turn them into ia files?",
        "user": "UV7CJF9SN",
        "ts": "1584533413.099800",
        "team": "TUU48M0T1",
        "user_team": "TUU48M0T1",
        "source_team": "TUU48M0T1",
        "user_profile": {
            "avatar_hash": "d98498755dde",
            "image_72": "https:\/\/avatars.slack-edge.com\/2020-03-18\/1011059157527_d98498755dde6739a981_72.png",
            "first_name": "Zaza",
            "real_name": "Zaza Soriano",
            "display_name": "Zaza Soriano",
            "team": "TUU48M0T1",
            "name": "scuzy89",
            "is_restricted": false,
            "is_ultra_restricted": false
        },
        "blocks": [
            {
                "type": "rich_text",
                "block_id": "Bjuj",
                "elements": [
                    {
                        "type": "rich_text_section",
                        "elements": [
                            {
                                "type": "text",
                                "text": "Want me to turn them into ia files?"
                            }
                        ]
                    }
                ]
            }
        ],
        "thread_ts": "1584533284.097800",
        "parent_user_id": "UV0FQT2QL"
    },
    {
        "client_msg_id": "a2ab2987-320e-4028-830c-b402e0733120",
        "type": "message",
        "text": "Yes please. I have little slack experience",
        "user": "UV0FQT2QL",
        "ts": "1584533427.100000",
        "team": "TUU48M0T1",
        "user_team": "TUU48M0T1",
        "source_team": "TUU48M0T1",
        "user_profile": {
            "avatar_hash": "75f46697d2ad",
            "image_72": "https:\/\/avatars.slack-edge.com\/2020-03-07\/986957273572_75f46697d2ad18fdd4cd_72.jpg",
            "first_name": "Rachel",
            "real_name": "Rachel Andrex",
            "display_name": "Rachel",
            "team": "TUU48M0T1",
            "name": "rachelandrex",
            "is_restricted": false,
            "is_ultra_restricted": false
        },
        "thread_ts": "1584533284.097800",
        "parent_user_id": "UV0FQT2QL"
    },
    {
        "client_msg_id": "d376b46b-2571-4531-8878-ef63fdaa9edd",
        "type": "message",
        "text": "kk",
        "user": "UV7CJF9SN",
        "ts": "1584533456.100200",
        "team": "TUU48M0T1",
        "user_team": "TUU48M0T1",
        "source_team": "TUU48M0T1",
        "user_profile": {
            "avatar_hash": "d98498755dde",
            "image_72": "https:\/\/avatars.slack-edge.com\/2020-03-18\/1011059157527_d98498755dde6739a981_72.png",
            "first_name": "Zaza",
            "real_name": "Zaza Soriano",
            "display_name": "Zaza Soriano",
            "team": "TUU48M0T1",
            "name": "scuzy89",
            "is_restricted": false,
            "is_ultra_restricted": false
        },
        "blocks": [
            {
                "type": "rich_text",
                "block_id": "ZMa",
                "elements": [
                    {
                        "type": "rich_text_section",
                        "elements": [
                            {
                                "type": "text",
                                "text": "kk"
                            }
                        ]
                    }
                ]
            }
        ],
        "thread_ts": "1584533284.097800",
        "parent_user_id": "UV0FQT2QL"
    },
    {
        "client_msg_id": "73ab7700-4273-426c-9d69-175a6caa9a7c",
        "type": "message",
        "text": "Also she can do word art by request. Making some graphics as well to be clip art without licensing restrictions",
        "user": "UV0FQT2QL",
        "ts": "1584533497.100400",
        "team": "TUU48M0T1",
        "user_team": "TUU48M0T1",
        "source_team": "TUU48M0T1",
        "user_profile": {
            "avatar_hash": "75f46697d2ad",
            "image_72": "https:\/\/avatars.slack-edge.com\/2020-03-07\/986957273572_75f46697d2ad18fdd4cd_72.jpg",
            "first_name": "Rachel",
            "real_name": "Rachel Andrex",
            "display_name": "Rachel",
            "team": "TUU48M0T1",
            "name": "rachelandrex",
            "is_restricted": false,
            "is_ultra_restricted": false
        },
        "thread_ts": "1584533284.097800",
        "parent_user_id": "UV0FQT2QL"
    },
    {
        "type": "message",
        "text": "it's kinda big, so not sure we should do the rest. plus, I realized.. if you have illustrator.. you can easily do this yourself. :)",
        "files": [
            {
                "id": "F0108599GKE",
                "created": 1584536587,
                "timestamp": 1584536587,
                "name": "20200317_214605_1584495983655.ai",
                "title": "20200317_214605_1584495983655.ai",
                "mimetype": "application\/illustrator",
                "filetype": "ai",
                "pretty_type": "Illustrator File",
                "user": "UV7CJF9SN",
                "editable": false,
                "size": 1338470,
                "mode": "hosted",
                "is_external": false,
                "external_type": "",
                "is_public": true,
                "public_url_shared": false,
                "display_as_bot": false,
                "username": "",
                "url_private": "https:\/\/files.slack.com\/files-pri\/TUU48M0T1-F0108599GKE\/20200317_214605_1584495983655.ai?t=xoxe-980144714919-1133254701825-1120841107731-daf595b5a7d6c9028b0b02a925032e36",
                "url_private_download": "https:\/\/files.slack.com\/files-pri\/TUU48M0T1-F0108599GKE\/download\/20200317_214605_1584495983655.ai?t=xoxe-980144714919-1133254701825-1120841107731-daf595b5a7d6c9028b0b02a925032e36",
                "thumb_pdf": "https:\/\/files.slack.com\/files-tmb\/TUU48M0T1-F0108599GKE-2181328d76\/20200317_214605_1584495983655_thumb_pdf.png?t=xoxe-980144714919-1133254701825-1120841107731-daf595b5a7d6c9028b0b02a925032e36",
                "thumb_pdf_w": 4550,
                "thumb_pdf_h": 3768,
                "permalink": "https:\/\/open-covid19.slack.com\/files\/UV7CJF9SN\/F0108599GKE\/20200317_214605_1584495983655.ai",
                "permalink_public": "https:\/\/slack-files.com\/TUU48M0T1-F0108599GKE-7cb3ed73de",
                "is_starred": false,
                "has_rich_preview": false
            }
        ],
        "upload": true,
        "blocks": [
            {
                "type": "rich_text",
                "block_id": "1jELU",
                "elements": [
                    {
                        "type": "rich_text_section",
                        "elements": [
                            {
                                "type": "text",
                                "text": "it's kinda big, so not sure we should do the rest. plus, I realized.. if you have illustrator.. you can easily do this yourself. :)"
                            }
                        ]
                    }
                ]
            }
        ],
        "user": "UV7CJF9SN",
        "display_as_bot": false,
        "ts": "1584536593.100600",
        "client_msg_id": "207c7aa2-0298-4587-8916-d3619e321513",
        "thread_ts": "1584533284.097800",
        "parent_user_id": "UV0FQT2QL"
    },
    {
        "client_msg_id": "b92f5b92-ecdb-45df-8c5c-4a33d6fb5ad0",
        "type": "message",
        "text": "Great, thank you everybody, the designs are amazing ! Just a note : when we’ll be posting, Twitter is little annoying since it has one and only one format for images which is : 1024×512 pixels or ratio 16:9",
        "user": "U01019BQXM3",
        "ts": "1584537052.102900",
        "team": "TUU48M0T1",
        "user_team": "TUU48M0T1",
        "source_team": "TUU48M0T1",
        "user_profile": {
            "avatar_hash": "7e0f35d8cc55",
            "image_72": "https:\/\/avatars.slack-edge.com\/2020-03-15\/988667349730_7e0f35d8cc556cd89565_72.jpg",
            "first_name": "Marc",
            "real_name": "Marc Bokobza",
            "display_name": "Marc Bokobza",
            "team": "TUU48M0T1",
            "name": "marcbokobza1",
            "is_restricted": false,
            "is_ultra_restricted": false
        },
        "blocks": [
            {
                "type": "rich_text",
                "block_id": "6LtMO",
                "elements": [
                    {
                        "type": "rich_text_section",
                        "elements": [
                            {
                                "type": "text",
                                "text": "Great, thank you everybody, the designs are amazing ! Just a note : when we’ll be posting, Twitter is little annoying since it has one and only one format for images which is : 1024×512 pixels or ratio 16:9"
                            }
                        ]
                    }
                ]
            }
        ]
    },
    {
        "client_msg_id": "4c469b20-0e68-4d67-8b96-40c841f3f28c",
        "type": "message",
        "text": "For other socials - Facebook , the current formats are perfecto",
        "user": "U01019BQXM3",
        "ts": "1584537082.103400",
        "team": "TUU48M0T1",
        "user_team": "TUU48M0T1",
        "source_team": "TUU48M0T1",
        "user_profile": {
            "avatar_hash": "7e0f35d8cc55",
            "image_72": "https:\/\/avatars.slack-edge.com\/2020-03-15\/988667349730_7e0f35d8cc556cd89565_72.jpg",
            "first_name": "Marc",
            "real_name": "Marc Bokobza",
            "display_name": "Marc Bokobza",
            "team": "TUU48M0T1",
            "name": "marcbokobza1",
            "is_restricted": false,
            "is_ultra_restricted": false
        },
        "blocks": [
            {
                "type": "rich_text",
                "block_id": "XFTOz",
                "elements": [
                    {
                        "type": "rich_text_section",
                        "elements": [
                            {
                                "type": "text",
                                "text": "For other socials - Facebook , the current formats are perfecto"
                            }
                        ]
                    }
                ]
            }
        ]
    },
    {
        "client_msg_id": "6c93299c-b840-4344-8ffb-7526d72ea590",
        "type": "message",
        "text": "is there a way to pin a document containing ratios for social media posts?",
        "user": "U0101DKUALV",
        "ts": "1584549904.104100",
        "team": "TUU48M0T1",
        "user_team": "TUU48M0T1",
        "source_team": "TUU48M0T1",
        "user_profile": {
            "avatar_hash": "b0aee06ed3e5",
            "image_72": "https:\/\/avatars.slack-edge.com\/2020-04-22\/1072886325190_b0aee06ed3e501ebdf56_72.png",
            "first_name": "",
            "real_name": "Pauline Chane",
            "display_name": "Pauline Chane",
            "team": "TUU48M0T1",
            "name": "pauline.chane",
            "is_restricted": false,
            "is_ultra_restricted": false
        },
        "blocks": [
            {
                "type": "rich_text",
                "block_id": "wus",
                "elements": [
                    {
                        "type": "rich_text_section",
                        "elements": [
                            {
                                "type": "text",
                                "text": "is there a way to pin a document containing ratios for social media posts?"
                            }
                        ]
                    }
                ]
            }
        ],
        "thread_ts": "1584549904.104100",
        "reply_count": 2,
        "reply_users_count": 2,
        "latest_reply": "1584552768.104700",
        "reply_users": [
            "UV2SC7ZE3",
            "U0101DKUALV"
        ],
        "replies": [
            {
                "user": "UV2SC7ZE3",
                "ts": "1584549992.104200"
            },
            {
                "user": "U0101DKUALV",
                "ts": "1584552768.104700"
            }
        ],
        "subscribed": false
    },
    {
        "client_msg_id": "e360bb13-c392-4f43-a9a3-8bc98231ef0e",
        "type": "message",
        "text": "Hey Pauline, in the communications channel, there is a new document which will detail how to create social media posts. It will have information on image formatting.",
        "user": "UV2SC7ZE3",
        "ts": "1584549992.104200",
        "team": "TUU48M0T1",
        "user_team": "TUU48M0T1",
        "source_team": "TUU48M0T1",
        "user_profile": {
            "avatar_hash": "d28dd0d076e8",
            "image_72": "https:\/\/avatars.slack-edge.com\/2020-03-14\/987873094258_d28dd0d076e8fa9a8409_72.png",
            "first_name": "David",
            "real_name": "David Lu",
            "display_name": "David Lu",
            "team": "TUU48M0T1",
            "name": "ludavidyi",
            "is_restricted": false,
            "is_ultra_restricted": false
        },
        "blocks": [
            {
                "type": "rich_text",
                "block_id": "yCs2v",
                "elements": [
                    {
                        "type": "rich_text_section",
                        "elements": [
                            {
                                "type": "text",
                                "text": "Hey Pauline, in the communications channel, there is a new document which will detail how to create social media posts. It will have information on image formatting."
                            }
                        ]
                    }
                ]
            }
        ],
        "thread_ts": "1584549904.104100",
        "parent_user_id": "U0101DKUALV"
    },
    {
        "type": "message",
        "text": "Cross-post from <#CURG6ALTC|prgm-communications-team>",
        "user": "UV2SC7ZE3",
        "ts": "1584550028.104400",
        "team": "TUU48M0T1",
        "user_team": "TUU48M0T1",
        "source_team": "TUU48M0T1",
        "user_profile": {
            "avatar_hash": "d28dd0d076e8",
            "image_72": "https:\/\/avatars.slack-edge.com\/2020-03-14\/987873094258_d28dd0d076e8fa9a8409_72.png",
            "first_name": "David",
            "real_name": "David Lu",
            "display_name": "David Lu",
            "team": "TUU48M0T1",
            "name": "ludavidyi",
            "is_restricted": false,
            "is_ultra_restricted": false
        },
        "attachments": [
            {
                "fallback": "[March 17th, 2020 2:44 PM] ludavidyi: <!channel> Reminder: There will be a call this Thursday at 6:00 pm Central European Time. Hope you all can make it! Here is an agenda\/notes for that meeting: <https:\/\/docs.google.com\/document\/d\/18YYa_mWeKGCfJUyhOoB7HhD9qpf3OxjtgBjuObNCH4E\/edit#|https:\/\/docs.google.com\/document\/d\/18YYa_mWeKGCfJUyhOoB7HhD9qpf3OxjtgBjuObNCH4E\/edit#> . Feel free to add anything if you have ideas\/questions you want to talk about.\n\nOne of the high priority tasks on our list is to figure out how we will structure social media posting. I believe that allowing anybody to create a social media post, instead of having just a few people do it, aligns with JOGL's interests of involving everybody. That is why I think laying down a process for creating media posts is important. I started a document that will describe that process here: <https:\/\/docs.google.com\/document\/d\/1DrckucsfcHW_TuhZW1nJhV739U876kPIOdzP5garmSM\/edit#|https:\/\/docs.google.com\/document\/d\/1DrckucsfcHW_TuhZW1nJhV739U876kPIOdzP5garmSM\/edit#> . <@U01019BQXM3> and I have added some thoughts. Please add to it if you have any suggestions or questions. We can also talk about this at our meeting this Thursday.",
                "ts": "1584481491.068300",
                "author_id": "UV2SC7ZE3",
                "author_subname": "David Lu",
                "channel_id": "CURG6ALTC",
                "channel_name": "prgm-communications-team",
                "is_msg_unfurl": true,
                "is_thread_root_unfurl": true,
                "text": "<!channel> Reminder: There will be a call this Thursday at 6:00 pm Central European Time. Hope you all can make it! Here is an agenda\/notes for that meeting: <https:\/\/docs.google.com\/document\/d\/18YYa_mWeKGCfJUyhOoB7HhD9qpf3OxjtgBjuObNCH4E\/edit#|https:\/\/docs.google.com\/document\/d\/18YYa_mWeKGCfJUyhOoB7HhD9qpf3OxjtgBjuObNCH4E\/edit#> . Feel free to add anything if you have ideas\/questions you want to talk about.\n\nOne of the high priority tasks on our list is to figure out how we will structure social media posting. I believe that allowing anybody to create a social media post, instead of having just a few people do it, aligns with JOGL's interests of involving everybody. That is why I think laying down a process for creating media posts is important. I started a document that will describe that process here: <https:\/\/docs.google.com\/document\/d\/1DrckucsfcHW_TuhZW1nJhV739U876kPIOdzP5garmSM\/edit#|https:\/\/docs.google.com\/document\/d\/1DrckucsfcHW_TuhZW1nJhV739U876kPIOdzP5garmSM\/edit#> . <@U01019BQXM3> and I have added some thoughts. Please add to it if you have any suggestions or questions. We can also talk about this at our meeting this Thursday.",
                "author_name": "David Lu",
                "author_link": "https:\/\/jogl-covid-19.slack.com\/team\/UV2SC7ZE3",
                "author_icon": "https:\/\/avatars.slack-edge.com\/2020-03-14\/987873094258_d28dd0d076e8fa9a8409_48.png",
                "mrkdwn_in": [
                    "text"
                ],
                "color": "D0D0D0",
                "from_url": "https:\/\/jogl-covid-19.slack.com\/archives\/CURG6ALTC\/p1584481491068300?thread_ts=1584481491068300&cid=CURG6ALTC",
                "is_share": true,
                "footer": "Thread in #prgm-communications-team"
            }
        ],
        "blocks": [
            {
                "type": "rich_text",
                "block_id": "Deny",
                "elements": [
                    {
                        "type": "rich_text_section",
                        "elements": [
                            {
                                "type": "text",
                                "text": "Cross-post from "
                            },
                            {
                                "type": "channel",
                                "channel_id": "CURG6ALTC"
                            }
                        ]
                    }
                ]
            }
        ]
    },
    {
        "client_msg_id": "ed2a954f-71a6-4d8d-8f9d-dafafee4e655",
        "type": "message",
        "text": "Awesome!",
        "user": "U0101DKUALV",
        "ts": "1584552768.104700",
        "team": "TUU48M0T1",
        "user_team": "TUU48M0T1",
        "source_team": "TUU48M0T1",
        "user_profile": {
            "avatar_hash": "b0aee06ed3e5",
            "image_72": "https:\/\/avatars.slack-edge.com\/2020-04-22\/1072886325190_b0aee06ed3e501ebdf56_72.png",
            "first_name": "",
            "real_name": "Pauline Chane",
            "display_name": "Pauline Chane",
            "team": "TUU48M0T1",
            "name": "pauline.chane",
            "is_restricted": false,
            "is_ultra_restricted": false
        },
        "blocks": [
            {
                "type": "rich_text",
                "block_id": "RJWx",
                "elements": [
                    {
                        "type": "rich_text_section",
                        "elements": [
                            {
                                "type": "text",
                                "text": "Awesome!"
                            }
                        ]
                    }
                ]
            }
        ],
        "thread_ts": "1584549904.104100",
        "parent_user_id": "U0101DKUALV"
    },
    {
        "client_msg_id": "5a165407-3da6-4b45-a17a-ad1157f024bc",
        "type": "message",
        "text": "Hi guys\nGraphic Designer here - means I can simplify info - create visuals - and support with making info more accessible to anyone. Apart from that I can assist on other areas from an Antropology standpoint.\nMany thanks for having me\nDan",
        "user": "U010BM999V4",
        "ts": "1584553169.105200",
        "team": "TUU48M0T1",
        "user_team": "TUU48M0T1",
        "source_team": "TUU48M0T1",
        "user_profile": {
            "avatar_hash": "205e6e5268de",
            "image_72": "https:\/\/avatars.slack-edge.com\/2020-03-18\/1011381023911_205e6e5268de0d35b0fc_72.jpg",
            "first_name": "Dan",
            "real_name": "Dan Rodriguez",
            "display_name": "Dan Rodriguez",
            "team": "TUU48M0T1",
            "name": "dan.unicellular",
            "is_restricted": false,
            "is_ultra_restricted": false
        },
        "blocks": [
            {
                "type": "rich_text",
                "block_id": "F4E",
                "elements": [
                    {
                        "type": "rich_text_section",
                        "elements": [
                            {
                                "type": "text",
                                "text": "Hi guys\nGraphic Designer here - means I can simplify info - create visuals - and support with making info more accessible to anyone. Apart from that I can assist on other areas from an Antropology standpoint.\nMany thanks for having me\nDan"
                            }
                        ]
                    }
                ]
            }
        ],
        "reactions": [
            {
                "name": "wave",
                "users": [
                    "UV2SC7ZE3",
                    "U010BM999V4",
                    "UV8AZ6ABC"
                ],
                "count": 3
            }
        ]
    },
    {
        "client_msg_id": "07e570b6-d6c1-44c4-a084-980fa27ab485",
        "type": "message",
        "text": "Potential idea for a collab\/collective - it is currently on hiatus, but I used to submit some pieces for a small zine called Illustrated Research, where illustrators\/designers would submit pieces that visualized current research, often around a theme. It would be interesting to coordinate and do something similar for COVID-19 that we could also post on social media as well, giving us a regular flow of content on our internet presences.",
        "user": "U0101DKUALV",
        "ts": "1584553491.107800",
        "team": "TUU48M0T1",
        "user_team": "TUU48M0T1",
        "source_team": "TUU48M0T1",
        "user_profile": {
            "avatar_hash": "b0aee06ed3e5",
            "image_72": "https:\/\/avatars.slack-edge.com\/2020-04-22\/1072886325190_b0aee06ed3e501ebdf56_72.png",
            "first_name": "",
            "real_name": "Pauline Chane",
            "display_name": "Pauline Chane",
            "team": "TUU48M0T1",
            "name": "pauline.chane",
            "is_restricted": false,
            "is_ultra_restricted": false
        },
        "blocks": [
            {
                "type": "rich_text",
                "block_id": "OP4B",
                "elements": [
                    {
                        "type": "rich_text_section",
                        "elements": [
                            {
                                "type": "text",
                                "text": "Potential idea for a collab\/collective - it is currently on hiatus, but I used to submit some pieces for a small zine called Illustrated Research, where illustrators\/designers would submit pieces that visualized current research, often around a theme. It would be interesting to coordinate and do something similar for COVID-19 that we could also post on social media as well, giving us a regular flow of content on our internet presences."
                            }
                        ]
                    }
                ]
            }
        ],
        "thread_ts": "1584553491.107800",
        "reply_count": 3,
        "reply_users_count": 2,
        "latest_reply": "1584554336.108700",
        "reply_users": [
            "UV2SC7ZE3",
            "U0101DKUALV"
        ],
        "replies": [
            {
                "user": "UV2SC7ZE3",
                "ts": "1584553848.108100"
            },
            {
                "user": "UV2SC7ZE3",
                "ts": "1584554185.108500"
            },
            {
                "user": "U0101DKUALV",
                "ts": "1584554336.108700"
            }
        ],
        "subscribed": false,
        "reactions": [
            {
                "name": "100",
                "users": [
                    "UV2SC7ZE3"
                ],
                "count": 1
            }
        ]
    },
    {
        "client_msg_id": "65ab4116-e6e7-4190-9b30-c9b8252c1ede",
        "type": "message",
        "text": "I like that idea! Do you have any examples? I'd love to see some.",
        "user": "UV2SC7ZE3",
        "ts": "1584553848.108100",
        "team": "TUU48M0T1",
        "user_team": "TUU48M0T1",
        "source_team": "TUU48M0T1",
        "user_profile": {
            "avatar_hash": "d28dd0d076e8",
            "image_72": "https:\/\/avatars.slack-edge.com\/2020-03-14\/987873094258_d28dd0d076e8fa9a8409_72.png",
            "first_name": "David",
            "real_name": "David Lu",
            "display_name": "David Lu",
            "team": "TUU48M0T1",
            "name": "ludavidyi",
            "is_restricted": false,
            "is_ultra_restricted": false
        },
        "blocks": [
            {
                "type": "rich_text",
                "block_id": "Z0D",
                "elements": [
                    {
                        "type": "rich_text_section",
                        "elements": [
                            {
                                "type": "text",
                                "text": "I like that idea! Do you have any examples? I'd love to see some."
                            }
                        ]
                    }
                ]
            }
        ],
        "thread_ts": "1584553491.107800",
        "parent_user_id": "U0101DKUALV"
    },
    {
        "client_msg_id": "29d94dab-2d39-4152-866d-5891bd86d0f9",
        "type": "message",
        "text": "Is this the magazine you were referring to? <https:\/\/www.illustratedresearch.com\/about-1>",
        "user": "UV2SC7ZE3",
        "ts": "1584554185.108500",
        "team": "TUU48M0T1",
        "user_team": "TUU48M0T1",
        "source_team": "TUU48M0T1",
        "user_profile": {
            "avatar_hash": "d28dd0d076e8",
            "image_72": "https:\/\/avatars.slack-edge.com\/2020-03-14\/987873094258_d28dd0d076e8fa9a8409_72.png",
            "first_name": "David",
            "real_name": "David Lu",
            "display_name": "David Lu",
            "team": "TUU48M0T1",
            "name": "ludavidyi",
            "is_restricted": false,
            "is_ultra_restricted": false
        },
        "blocks": [
            {
                "type": "rich_text",
                "block_id": "l79KR",
                "elements": [
                    {
                        "type": "rich_text_section",
                        "elements": [
                            {
                                "type": "text",
                                "text": "Is this the magazine you were referring to? "
                            },
                            {
                                "type": "link",
                                "url": "https:\/\/www.illustratedresearch.com\/about-1"
                            }
                        ]
                    }
                ]
            }
        ],
        "thread_ts": "1584553491.107800",
        "parent_user_id": "U0101DKUALV"
    },
    {
        "client_msg_id": "49ca9b11-c23e-4a04-b855-dd2cd4011808",
        "type": "message",
        "text": "Yes! Unfortunately it looks like they are on hiatus -- I had recently contributed to an upcoming issue but have not heard back or been able to get in touch with them.",
        "user": "U0101DKUALV",
        "ts": "1584554336.108700",
        "team": "TUU48M0T1",
        "user_team": "TUU48M0T1",
        "source_team": "TUU48M0T1",
        "user_profile": {
            "avatar_hash": "b0aee06ed3e5",
            "image_72": "https:\/\/avatars.slack-edge.com\/2020-04-22\/1072886325190_b0aee06ed3e501ebdf56_72.png",
            "first_name": "",
            "real_name": "Pauline Chane",
            "display_name": "Pauline Chane",
            "team": "TUU48M0T1",
            "name": "pauline.chane",
            "is_restricted": false,
            "is_ultra_restricted": false
        },
        "blocks": [
            {
                "type": "rich_text",
                "block_id": "WTF",
                "elements": [
                    {
                        "type": "rich_text_section",
                        "elements": [
                            {
                                "type": "text",
                                "text": "Yes! Unfortunately it looks like they are on hiatus -- I had recently contributed to an upcoming issue but have not heard back or been able to get in touch with them."
                            }
                        ]
                    }
                ]
            }
        ],
        "thread_ts": "1584553491.107800",
        "parent_user_id": "U0101DKUALV"
    },
    {
        "client_msg_id": "3bb6ff41-f70a-40ca-89fa-d950f8ca682c",
        "type": "message",
        "text": "Hi my name is Aron Fischer I'm a designer been working on XD for UX\/UI happy to help for whatever needed!!",
        "user": "U010817B2AY",
        "ts": "1584575220.111600",
        "team": "TUU48M0T1",
        "user_team": "TUU48M0T1",
        "source_team": "TUU48M0T1",
        "user_profile": {
            "avatar_hash": "g6386739b5aa",
            "image_72": "https:\/\/secure.gravatar.com\/avatar\/6386739b5aa2d96bddca8d56bb828141.jpg?s=72&d=https%3A%2F%2Fa.slack-edge.com%2Fdf10d%2Fimg%2Favatars%2Fava_0019-72.png",
            "first_name": "",
            "real_name": "Aron Fischer",
            "display_name": "",
            "team": "TUU48M0T1",
            "name": "design",
            "is_restricted": false,
            "is_ultra_restricted": false
        },
        "blocks": [
            {
                "type": "rich_text",
                "block_id": "vQoO9",
                "elements": [
                    {
                        "type": "rich_text_section",
                        "elements": [
                            {
                                "type": "text",
                                "text": "Hi my name is Aron Fischer I'm a designer been working on XD for UX\/UI happy to help for whatever needed!!"
                            }
                        ]
                    }
                ]
            }
        ]
    },
    {
        "client_msg_id": "bc341266-6efd-4a71-b22f-f6b0b2f253d3",
        "type": "message",
        "text": "Photoshop illustrator...",
        "user": "U010817B2AY",
        "ts": "1584575269.112300",
        "team": "TUU48M0T1",
        "user_team": "TUU48M0T1",
        "source_team": "TUU48M0T1",
        "user_profile": {
            "avatar_hash": "g6386739b5aa",
            "image_72": "https:\/\/secure.gravatar.com\/avatar\/6386739b5aa2d96bddca8d56bb828141.jpg?s=72&d=https%3A%2F%2Fa.slack-edge.com%2Fdf10d%2Fimg%2Favatars%2Fava_0019-72.png",
            "first_name": "",
            "real_name": "Aron Fischer",
            "display_name": "",
            "team": "TUU48M0T1",
            "name": "design",
            "is_restricted": false,
            "is_ultra_restricted": false
        },
        "blocks": [
            {
                "type": "rich_text",
                "block_id": "Elxp",
                "elements": [
                    {
                        "type": "rich_text_section",
                        "elements": [
                            {
                                "type": "text",
                                "text": "Photoshop illustrator..."
                            }
                        ]
                    }
                ]
            }
        ]
    },
    {
        "client_msg_id": "02CB29A7-B24A-4759-B62C-6A364495FEF9",
        "type": "message",
        "text": "<!here> to whomever designed the banners used on the <http:\/\/app.jogl.io\/program\/opencovid19|app.jogl.io\/program\/opencovid19>, do you mind (if you haven’t already) upload the designs in high quality to the drive, including the virus icon and the program title with a transparent background (to put on other things)? also do you mind sharing which fonts and colors you used? ",
        "user": "UV0QTJCMT",
        "ts": "1584575885.115200",
        "team": "TUU48M0T1",
        "user_team": "TUU48M0T1",
        "source_team": "TUU48M0T1",
        "user_profile": {
            "avatar_hash": "06a6ae8f69d1",
            "image_72": "https:\/\/avatars.slack-edge.com\/2020-04-13\/1060635499315_06a6ae8f69d18f1ad464_72.png",
            "first_name": "Katherine",
            "real_name": "Katherine Holo",
            "display_name": "Kat Holo - Co-Organizer of OpenCOVID19",
            "team": "TUU48M0T1",
            "name": "katherineh245",
            "is_restricted": false,
            "is_ultra_restricted": false
        },
        "blocks": [
            {
                "type": "rich_text",
                "block_id": "9Ua",
                "elements": [
                    {
                        "type": "rich_text_section",
                        "elements": [
                            {
                                "type": "broadcast",
                                "range": "here"
                            },
                            {
                                "type": "text",
                                "text": " to whomever designed the banners used on the "
                            },
                            {
                                "type": "link",
                                "url": "http:\/\/app.jogl.io\/program\/opencovid19",
                                "text": "app.jogl.io\/program\/opencovid19"
                            },
                            {
                                "type": "text",
                                "text": ", do you mind (if you haven’t already) upload the designs in high quality to the drive, including the virus icon and the program title with a transparent background (to put on other things)? also do you mind sharing which fonts and colors you used? "
                            }
                        ]
                    }
                ]
            }
        ]
    },
    {
        "type": "message",
        "text": "Given you prefer white background, I've made adjustments in case they're needed <@UV0QTJCMT> <@UV02WET96>. Will upload to gdrive. If confirmed, I can export the virus pictogram, colors, and sizes for social media (eg. square) <@U01019BQXM3>. Font is Montserrat as suggested by Marc.",
        "files": [
            {
                "id": "F0100NGL9LZ",
                "created": 1584595356,
                "timestamp": 1584595356,
                "name": "jogl OpenCovid19 - banners - detection - white bg.png",
                "title": "jogl OpenCovid19 - banners - detection - white bg.png",
                "mimetype": "image\/png",
                "filetype": "png",
                "pretty_type": "PNG",
                "user": "UV0CX49QB",
                "editable": false,
                "size": 26624,
                "mode": "hosted",
                "is_external": false,
                "external_type": "",
                "is_public": true,
                "public_url_shared": false,
                "display_as_bot": false,
                "username": "",
                "url_private": "https:\/\/files.slack.com\/files-pri\/TUU48M0T1-F0100NGL9LZ\/jogl_opencovid19_-_banners_-_detection_-_white_bg.png?t=xoxe-980144714919-1133254701825-1120841107731-daf595b5a7d6c9028b0b02a925032e36",
                "url_private_download": "https:\/\/files.slack.com\/files-pri\/TUU48M0T1-F0100NGL9LZ\/download\/jogl_opencovid19_-_banners_-_detection_-_white_bg.png?t=xoxe-980144714919-1133254701825-1120841107731-daf595b5a7d6c9028b0b02a925032e36",
                "thumb_64": "https:\/\/files.slack.com\/files-tmb\/TUU48M0T1-F0100NGL9LZ-9857ae2b21\/jogl_opencovid19_-_banners_-_detection_-_white_bg_64.png?t=xoxe-980144714919-1133254701825-1120841107731-daf595b5a7d6c9028b0b02a925032e36",
                "thumb_80": "https:\/\/files.slack.com\/files-tmb\/TUU48M0T1-F0100NGL9LZ-9857ae2b21\/jogl_opencovid19_-_banners_-_detection_-_white_bg_80.png?t=xoxe-980144714919-1133254701825-1120841107731-daf595b5a7d6c9028b0b02a925032e36",
                "thumb_360": "https:\/\/files.slack.com\/files-tmb\/TUU48M0T1-F0100NGL9LZ-9857ae2b21\/jogl_opencovid19_-_banners_-_detection_-_white_bg_360.png?t=xoxe-980144714919-1133254701825-1120841107731-daf595b5a7d6c9028b0b02a925032e36",
                "thumb_360_w": 360,
                "thumb_360_h": 116,
                "thumb_480": "https:\/\/files.slack.com\/files-tmb\/TUU48M0T1-F0100NGL9LZ-9857ae2b21\/jogl_opencovid19_-_banners_-_detection_-_white_bg_480.png?t=xoxe-980144714919-1133254701825-1120841107731-daf595b5a7d6c9028b0b02a925032e36",
                "thumb_480_w": 480,
                "thumb_480_h": 155,
                "thumb_160": "https:\/\/files.slack.com\/files-tmb\/TUU48M0T1-F0100NGL9LZ-9857ae2b21\/jogl_opencovid19_-_banners_-_detection_-_white_bg_160.png?t=xoxe-980144714919-1133254701825-1120841107731-daf595b5a7d6c9028b0b02a925032e36",
                "thumb_720": "https:\/\/files.slack.com\/files-tmb\/TUU48M0T1-F0100NGL9LZ-9857ae2b21\/jogl_opencovid19_-_banners_-_detection_-_white_bg_720.png?t=xoxe-980144714919-1133254701825-1120841107731-daf595b5a7d6c9028b0b02a925032e36",
                "thumb_720_w": 720,
                "thumb_720_h": 233,
                "thumb_800": "https:\/\/files.slack.com\/files-tmb\/TUU48M0T1-F0100NGL9LZ-9857ae2b21\/jogl_opencovid19_-_banners_-_detection_-_white_bg_800.png?t=xoxe-980144714919-1133254701825-1120841107731-daf595b5a7d6c9028b0b02a925032e36",
                "thumb_800_w": 800,
                "thumb_800_h": 258,
                "thumb_960": "https:\/\/files.slack.com\/files-tmb\/TUU48M0T1-F0100NGL9LZ-9857ae2b21\/jogl_opencovid19_-_banners_-_detection_-_white_bg_960.png?t=xoxe-980144714919-1133254701825-1120841107731-daf595b5a7d6c9028b0b02a925032e36",
                "thumb_960_w": 960,
                "thumb_960_h": 310,
                "thumb_1024": "https:\/\/files.slack.com\/files-tmb\/TUU48M0T1-F0100NGL9LZ-9857ae2b21\/jogl_opencovid19_-_banners_-_detection_-_white_bg_1024.png?t=xoxe-980144714919-1133254701825-1120841107731-daf595b5a7d6c9028b0b02a925032e36",
                "thumb_1024_w": 1024,
                "thumb_1024_h": 331,
                "image_exif_rotation": 1,
                "original_w": 1238,
                "original_h": 400,
                "thumb_tiny": "AwAPADDToooPSgBshKjI\/KiMlhk\/lTdsnHzj8qXa\/wDfH5UDsPpAoHc\/nS0UCP\/Z",
                "permalink": "https:\/\/open-covid19.slack.com\/files\/UV0CX49QB\/F0100NGL9LZ\/jogl_opencovid19_-_banners_-_detection_-_white_bg.png",
                "permalink_public": "https:\/\/slack-files.com\/TUU48M0T1-F0100NGL9LZ-633ff33640",
                "is_starred": false,
                "has_rich_preview": false
            },
            {
                "id": "FVDAQ7K6F",
                "created": 1584595356,
                "timestamp": 1584595356,
                "name": "jogl OpenCovid19 - banners - main - dark bg.png",
                "title": "jogl OpenCovid19 - banners - main - dark bg.png",
                "mimetype": "image\/png",
                "filetype": "png",
                "pretty_type": "PNG",
                "user": "UV0CX49QB",
                "editable": false,
                "size": 47922,
                "mode": "hosted",
                "is_external": false,
                "external_type": "",
                "is_public": true,
                "public_url_shared": false,
                "display_as_bot": false,
                "username": "",
                "url_private": "https:\/\/files.slack.com\/files-pri\/TUU48M0T1-FVDAQ7K6F\/jogl_opencovid19_-_banners_-_main_-_dark_bg.png?t=xoxe-980144714919-1133254701825-1120841107731-daf595b5a7d6c9028b0b02a925032e36",
                "url_private_download": "https:\/\/files.slack.com\/files-pri\/TUU48M0T1-FVDAQ7K6F\/download\/jogl_opencovid19_-_banners_-_main_-_dark_bg.png?t=xoxe-980144714919-1133254701825-1120841107731-daf595b5a7d6c9028b0b02a925032e36",
                "thumb_64": "https:\/\/files.slack.com\/files-tmb\/TUU48M0T1-FVDAQ7K6F-f7cd1c2cfe\/jogl_opencovid19_-_banners_-_main_-_dark_bg_64.png?t=xoxe-980144714919-1133254701825-1120841107731-daf595b5a7d6c9028b0b02a925032e36",
                "thumb_80": "https:\/\/files.slack.com\/files-tmb\/TUU48M0T1-FVDAQ7K6F-f7cd1c2cfe\/jogl_opencovid19_-_banners_-_main_-_dark_bg_80.png?t=xoxe-980144714919-1133254701825-1120841107731-daf595b5a7d6c9028b0b02a925032e36",
                "thumb_360": "https:\/\/files.slack.com\/files-tmb\/TUU48M0T1-FVDAQ7K6F-f7cd1c2cfe\/jogl_opencovid19_-_banners_-_main_-_dark_bg_360.png?t=xoxe-980144714919-1133254701825-1120841107731-daf595b5a7d6c9028b0b02a925032e36",
                "thumb_360_w": 360,
                "thumb_360_h": 116,
                "thumb_480": "https:\/\/files.slack.com\/files-tmb\/TUU48M0T1-FVDAQ7K6F-f7cd1c2cfe\/jogl_opencovid19_-_banners_-_main_-_dark_bg_480.png?t=xoxe-980144714919-1133254701825-1120841107731-daf595b5a7d6c9028b0b02a925032e36",
                "thumb_480_w": 480,
                "thumb_480_h": 155,
                "thumb_160": "https:\/\/files.slack.com\/files-tmb\/TUU48M0T1-FVDAQ7K6F-f7cd1c2cfe\/jogl_opencovid19_-_banners_-_main_-_dark_bg_160.png?t=xoxe-980144714919-1133254701825-1120841107731-daf595b5a7d6c9028b0b02a925032e36",
                "thumb_720": "https:\/\/files.slack.com\/files-tmb\/TUU48M0T1-FVDAQ7K6F-f7cd1c2cfe\/jogl_opencovid19_-_banners_-_main_-_dark_bg_720.png?t=xoxe-980144714919-1133254701825-1120841107731-daf595b5a7d6c9028b0b02a925032e36",
                "thumb_720_w": 720,
                "thumb_720_h": 233,
                "thumb_800": "https:\/\/files.slack.com\/files-tmb\/TUU48M0T1-FVDAQ7K6F-f7cd1c2cfe\/jogl_opencovid19_-_banners_-_main_-_dark_bg_800.png?t=xoxe-980144714919-1133254701825-1120841107731-daf595b5a7d6c9028b0b02a925032e36",
                "thumb_800_w": 800,
                "thumb_800_h": 258,
                "thumb_960": "https:\/\/files.slack.com\/files-tmb\/TUU48M0T1-FVDAQ7K6F-f7cd1c2cfe\/jogl_opencovid19_-_banners_-_main_-_dark_bg_960.png?t=xoxe-980144714919-1133254701825-1120841107731-daf595b5a7d6c9028b0b02a925032e36",
                "thumb_960_w": 960,
                "thumb_960_h": 310,
                "thumb_1024": "https:\/\/files.slack.com\/files-tmb\/TUU48M0T1-FVDAQ7K6F-f7cd1c2cfe\/jogl_opencovid19_-_banners_-_main_-_dark_bg_1024.png?t=xoxe-980144714919-1133254701825-1120841107731-daf595b5a7d6c9028b0b02a925032e36",
                "thumb_1024_w": 1024,
                "thumb_1024_h": 331,
                "image_exif_rotation": 1,
                "original_w": 1238,
                "original_h": 400,
                "thumb_tiny": "AwAPADCnUix5TcWx2HFR09ZGVcAAj3FUJW6imCQfw\/jR5Mn92mEliSTyaM0AOeJ0XLAY+tMpSc0lAH\/\/2Q==",
                "permalink": "https:\/\/open-covid19.slack.com\/files\/UV0CX49QB\/FVDAQ7K6F\/jogl_opencovid19_-_banners_-_main_-_dark_bg.png",
                "permalink_public": "https:\/\/slack-files.com\/TUU48M0T1-FVDAQ7K6F-bcdd57f1b7",
                "is_starred": false,
                "has_rich_preview": false
            },
            {
                "id": "F0100NGL941",
                "created": 1584595356,
                "timestamp": 1584595356,
                "name": "jogl OpenCovid19 - banners - main - white bg.png",
                "title": "jogl OpenCovid19 - banners - main - white bg.png",
                "mimetype": "image\/png",
                "filetype": "png",
                "pretty_type": "PNG",
                "user": "UV0CX49QB",
                "editable": false,
                "size": 47568,
                "mode": "hosted",
                "is_external": false,
                "external_type": "",
                "is_public": true,
                "public_url_shared": false,
                "display_as_bot": false,
                "username": "",
                "url_private": "https:\/\/files.slack.com\/files-pri\/TUU48M0T1-F0100NGL941\/jogl_opencovid19_-_banners_-_main_-_white_bg.png?t=xoxe-980144714919-1133254701825-1120841107731-daf595b5a7d6c9028b0b02a925032e36",
                "url_private_download": "https:\/\/files.slack.com\/files-pri\/TUU48M0T1-F0100NGL941\/download\/jogl_opencovid19_-_banners_-_main_-_white_bg.png?t=xoxe-980144714919-1133254701825-1120841107731-daf595b5a7d6c9028b0b02a925032e36",
                "thumb_64": "https:\/\/files.slack.com\/files-tmb\/TUU48M0T1-F0100NGL941-d1369b52fd\/jogl_opencovid19_-_banners_-_main_-_white_bg_64.png?t=xoxe-980144714919-1133254701825-1120841107731-daf595b5a7d6c9028b0b02a925032e36",
                "thumb_80": "https:\/\/files.slack.com\/files-tmb\/TUU48M0T1-F0100NGL941-d1369b52fd\/jogl_opencovid19_-_banners_-_main_-_white_bg_80.png?t=xoxe-980144714919-1133254701825-1120841107731-daf595b5a7d6c9028b0b02a925032e36",
                "thumb_360": "https:\/\/files.slack.com\/files-tmb\/TUU48M0T1-F0100NGL941-d1369b52fd\/jogl_opencovid19_-_banners_-_main_-_white_bg_360.png?t=xoxe-980144714919-1133254701825-1120841107731-daf595b5a7d6c9028b0b02a925032e36",
                "thumb_360_w": 360,
                "thumb_360_h": 116,
                "thumb_480": "https:\/\/files.slack.com\/files-tmb\/TUU48M0T1-F0100NGL941-d1369b52fd\/jogl_opencovid19_-_banners_-_main_-_white_bg_480.png?t=xoxe-980144714919-1133254701825-1120841107731-daf595b5a7d6c9028b0b02a925032e36",
                "thumb_480_w": 480,
                "thumb_480_h": 155,
                "thumb_160": "https:\/\/files.slack.com\/files-tmb\/TUU48M0T1-F0100NGL941-d1369b52fd\/jogl_opencovid19_-_banners_-_main_-_white_bg_160.png?t=xoxe-980144714919-1133254701825-1120841107731-daf595b5a7d6c9028b0b02a925032e36",
                "thumb_720": "https:\/\/files.slack.com\/files-tmb\/TUU48M0T1-F0100NGL941-d1369b52fd\/jogl_opencovid19_-_banners_-_main_-_white_bg_720.png?t=xoxe-980144714919-1133254701825-1120841107731-daf595b5a7d6c9028b0b02a925032e36",
                "thumb_720_w": 720,
                "thumb_720_h": 233,
                "thumb_800": "https:\/\/files.slack.com\/files-tmb\/TUU48M0T1-F0100NGL941-d1369b52fd\/jogl_opencovid19_-_banners_-_main_-_white_bg_800.png?t=xoxe-980144714919-1133254701825-1120841107731-daf595b5a7d6c9028b0b02a925032e36",
                "thumb_800_w": 800,
                "thumb_800_h": 258,
                "thumb_960": "https:\/\/files.slack.com\/files-tmb\/TUU48M0T1-F0100NGL941-d1369b52fd\/jogl_opencovid19_-_banners_-_main_-_white_bg_960.png?t=xoxe-980144714919-1133254701825-1120841107731-daf595b5a7d6c9028b0b02a925032e36",
                "thumb_960_w": 960,
                "thumb_960_h": 310,
                "thumb_1024": "https:\/\/files.slack.com\/files-tmb\/TUU48M0T1-F0100NGL941-d1369b52fd\/jogl_opencovid19_-_banners_-_main_-_white_bg_1024.png?t=xoxe-980144714919-1133254701825-1120841107731-daf595b5a7d6c9028b0b02a925032e36",
                "thumb_1024_w": 1024,
                "thumb_1024_h": 331,
                "image_exif_rotation": 1,
                "original_w": 1238,
                "original_h": 400,
                "thumb_tiny": "AwAPADDTqKWdYmAI6+9S0x4VkILZ4oAQTxn+L8KPOj\/vU8KFGAOBSFMnqR9KAEWVHbCnn6U+kVcHqT9aWgD\/2Q==",
                "permalink": "https:\/\/open-covid19.slack.com\/files\/UV0CX49QB\/F0100NGL941\/jogl_opencovid19_-_banners_-_main_-_white_bg.png",
                "permalink_public": "https:\/\/slack-files.com\/TUU48M0T1-F0100NGL941-db086705b2",
                "is_starred": false,
                "has_rich_preview": false
            },
            {
                "id": "F010AB29JSY",
                "created": 1584595356,
                "timestamp": 1584595356,
                "name": "jogl OpenCovid19 - banners - prevention - white bg.png",
                "title": "jogl OpenCovid19 - banners - prevention - white bg.png",
                "mimetype": "image\/png",
                "filetype": "png",
                "pretty_type": "PNG",
                "user": "UV0CX49QB",
                "editable": false,
                "size": 23493,
                "mode": "hosted",
                "is_external": false,
                "external_type": "",
                "is_public": true,
                "public_url_shared": false,
                "display_as_bot": false,
                "username": "",
                "url_private": "https:\/\/files.slack.com\/files-pri\/TUU48M0T1-F010AB29JSY\/jogl_opencovid19_-_banners_-_prevention_-_white_bg.png?t=xoxe-980144714919-1133254701825-1120841107731-daf595b5a7d6c9028b0b02a925032e36",
                "url_private_download": "https:\/\/files.slack.com\/files-pri\/TUU48M0T1-F010AB29JSY\/download\/jogl_opencovid19_-_banners_-_prevention_-_white_bg.png?t=xoxe-980144714919-1133254701825-1120841107731-daf595b5a7d6c9028b0b02a925032e36",
                "thumb_64": "https:\/\/files.slack.com\/files-tmb\/TUU48M0T1-F010AB29JSY-651143c893\/jogl_opencovid19_-_banners_-_prevention_-_white_bg_64.png?t=xoxe-980144714919-1133254701825-1120841107731-daf595b5a7d6c9028b0b02a925032e36",
                "thumb_80": "https:\/\/files.slack.com\/files-tmb\/TUU48M0T1-F010AB29JSY-651143c893\/jogl_opencovid19_-_banners_-_prevention_-_white_bg_80.png?t=xoxe-980144714919-1133254701825-1120841107731-daf595b5a7d6c9028b0b02a925032e36",
                "thumb_360": "https:\/\/files.slack.com\/files-tmb\/TUU48M0T1-F010AB29JSY-651143c893\/jogl_opencovid19_-_banners_-_prevention_-_white_bg_360.png?t=xoxe-980144714919-1133254701825-1120841107731-daf595b5a7d6c9028b0b02a925032e36",
                "thumb_360_w": 360,
                "thumb_360_h": 116,
                "thumb_480": "https:\/\/files.slack.com\/files-tmb\/TUU48M0T1-F010AB29JSY-651143c893\/jogl_opencovid19_-_banners_-_prevention_-_white_bg_480.png?t=xoxe-980144714919-1133254701825-1120841107731-daf595b5a7d6c9028b0b02a925032e36",
                "thumb_480_w": 480,
                "thumb_480_h": 155,
                "thumb_160": "https:\/\/files.slack.com\/files-tmb\/TUU48M0T1-F010AB29JSY-651143c893\/jogl_opencovid19_-_banners_-_prevention_-_white_bg_160.png?t=xoxe-980144714919-1133254701825-1120841107731-daf595b5a7d6c9028b0b02a925032e36",
                "thumb_720": "https:\/\/files.slack.com\/files-tmb\/TUU48M0T1-F010AB29JSY-651143c893\/jogl_opencovid19_-_banners_-_prevention_-_white_bg_720.png?t=xoxe-980144714919-1133254701825-1120841107731-daf595b5a7d6c9028b0b02a925032e36",
                "thumb_720_w": 720,
                "thumb_720_h": 233,
                "thumb_800": "https:\/\/files.slack.com\/files-tmb\/TUU48M0T1-F010AB29JSY-651143c893\/jogl_opencovid19_-_banners_-_prevention_-_white_bg_800.png?t=xoxe-980144714919-1133254701825-1120841107731-daf595b5a7d6c9028b0b02a925032e36",
                "thumb_800_w": 800,
                "thumb_800_h": 258,
                "thumb_960": "https:\/\/files.slack.com\/files-tmb\/TUU48M0T1-F010AB29JSY-651143c893\/jogl_opencovid19_-_banners_-_prevention_-_white_bg_960.png?t=xoxe-980144714919-1133254701825-1120841107731-daf595b5a7d6c9028b0b02a925032e36",
                "thumb_960_w": 960,
                "thumb_960_h": 310,
                "thumb_1024": "https:\/\/files.slack.com\/files-tmb\/TUU48M0T1-F010AB29JSY-651143c893\/jogl_opencovid19_-_banners_-_prevention_-_white_bg_1024.png?t=xoxe-980144714919-1133254701825-1120841107731-daf595b5a7d6c9028b0b02a925032e36",
                "thumb_1024_w": 1024,
                "thumb_1024_h": 331,
                "image_exif_rotation": 1,
                "original_w": 1238,
                "original_h": 400,
                "thumb_tiny": "AwAPADDToopDkg4ODQAjsVQkDOKI2LICRg+lJh\/7w\/KjD\/3h+VK2t7hcfSBQO5\/OlGcc9aKYH\/\/Z",
                "permalink": "https:\/\/open-covid19.slack.com\/files\/UV0CX49QB\/F010AB29JSY\/jogl_opencovid19_-_banners_-_prevention_-_white_bg.png",
                "permalink_public": "https:\/\/slack-files.com\/TUU48M0T1-F010AB29JSY-ea43d8fb0f",
                "is_starred": false,
                "has_rich_preview": false
            },
            {
                "id": "F010AB29N6Q",
                "created": 1584595356,
                "timestamp": 1584595356,
                "name": "jogl OpenCovid19 - banners - treatment - white bg.png",
                "title": "jogl OpenCovid19 - banners - treatment - white bg.png",
                "mimetype": "image\/png",
                "filetype": "png",
                "pretty_type": "PNG",
                "user": "UV0CX49QB",
                "editable": false,
                "size": 19007,
                "mode": "hosted",
                "is_external": false,
                "external_type": "",
                "is_public": true,
                "public_url_shared": false,
                "display_as_bot": false,
                "username": "",
                "url_private": "https:\/\/files.slack.com\/files-pri\/TUU48M0T1-F010AB29N6Q\/jogl_opencovid19_-_banners_-_treatment_-_white_bg.png?t=xoxe-980144714919-1133254701825-1120841107731-daf595b5a7d6c9028b0b02a925032e36",
                "url_private_download": "https:\/\/files.slack.com\/files-pri\/TUU48M0T1-F010AB29N6Q\/download\/jogl_opencovid19_-_banners_-_treatment_-_white_bg.png?t=xoxe-980144714919-1133254701825-1120841107731-daf595b5a7d6c9028b0b02a925032e36",
                "thumb_64": "https:\/\/files.slack.com\/files-tmb\/TUU48M0T1-F010AB29N6Q-1dcb6e2593\/jogl_opencovid19_-_banners_-_treatment_-_white_bg_64.png?t=xoxe-980144714919-1133254701825-1120841107731-daf595b5a7d6c9028b0b02a925032e36",
                "thumb_80": "https:\/\/files.slack.com\/files-tmb\/TUU48M0T1-F010AB29N6Q-1dcb6e2593\/jogl_opencovid19_-_banners_-_treatment_-_white_bg_80.png?t=xoxe-980144714919-1133254701825-1120841107731-daf595b5a7d6c9028b0b02a925032e36",
                "thumb_360": "https:\/\/files.slack.com\/files-tmb\/TUU48M0T1-F010AB29N6Q-1dcb6e2593\/jogl_opencovid19_-_banners_-_treatment_-_white_bg_360.png?t=xoxe-980144714919-1133254701825-1120841107731-daf595b5a7d6c9028b0b02a925032e36",
                "thumb_360_w": 360,
                "thumb_360_h": 116,
                "thumb_480": "https:\/\/files.slack.com\/files-tmb\/TUU48M0T1-F010AB29N6Q-1dcb6e2593\/jogl_opencovid19_-_banners_-_treatment_-_white_bg_480.png?t=xoxe-980144714919-1133254701825-1120841107731-daf595b5a7d6c9028b0b02a925032e36",
                "thumb_480_w": 480,
                "thumb_480_h": 155,
                "thumb_160": "https:\/\/files.slack.com\/files-tmb\/TUU48M0T1-F010AB29N6Q-1dcb6e2593\/jogl_opencovid19_-_banners_-_treatment_-_white_bg_160.png?t=xoxe-980144714919-1133254701825-1120841107731-daf595b5a7d6c9028b0b02a925032e36",
                "thumb_720": "https:\/\/files.slack.com\/files-tmb\/TUU48M0T1-F010AB29N6Q-1dcb6e2593\/jogl_opencovid19_-_banners_-_treatment_-_white_bg_720.png?t=xoxe-980144714919-1133254701825-1120841107731-daf595b5a7d6c9028b0b02a925032e36",
                "thumb_720_w": 720,
                "thumb_720_h": 233,
                "thumb_800": "https:\/\/files.slack.com\/files-tmb\/TUU48M0T1-F010AB29N6Q-1dcb6e2593\/jogl_opencovid19_-_banners_-_treatment_-_white_bg_800.png?t=xoxe-980144714919-1133254701825-1120841107731-daf595b5a7d6c9028b0b02a925032e36",
                "thumb_800_w": 800,
                "thumb_800_h": 258,
                "thumb_960": "https:\/\/files.slack.com\/files-tmb\/TUU48M0T1-F010AB29N6Q-1dcb6e2593\/jogl_opencovid19_-_banners_-_treatment_-_white_bg_960.png?t=xoxe-980144714919-1133254701825-1120841107731-daf595b5a7d6c9028b0b02a925032e36",
                "thumb_960_w": 960,
                "thumb_960_h": 310,
                "thumb_1024": "https:\/\/files.slack.com\/files-tmb\/TUU48M0T1-F010AB29N6Q-1dcb6e2593\/jogl_opencovid19_-_banners_-_treatment_-_white_bg_1024.png?t=xoxe-980144714919-1133254701825-1120841107731-daf595b5a7d6c9028b0b02a925032e36",
                "thumb_1024_w": 1024,
                "thumb_1024_h": 331,
                "image_exif_rotation": 1,
                "original_w": 1238,
                "original_h": 400,
                "thumb_tiny": "AwAPADDToooPSgBshIjJU4I9s0RkmMFjkn2xRh\/7w\/KjD\/3h+VADqQKB3P50o6c0UAf\/2Q==",
                "permalink": "https:\/\/open-covid19.slack.com\/files\/UV0CX49QB\/F010AB29N6Q\/jogl_opencovid19_-_banners_-_treatment_-_white_bg.png",
                "permalink_public": "https:\/\/slack-files.com\/TUU48M0T1-F010AB29N6Q-fc812dd153",
                "is_starred": false,
                "has_rich_preview": false
            }
        ],
        "upload": true,
        "blocks": [
            {
                "type": "rich_text",
                "block_id": "hSn",
                "elements": [
                    {
                        "type": "rich_text_section",
                        "elements": [
                            {
                                "type": "text",
                                "text": "Given you prefer white background, I've made adjustments in case they're needed "
                            },
                            {
                                "type": "user",
                                "user_id": "UV0QTJCMT"
                            },
                            {
                                "type": "text",
                                "text": " "
                            },
                            {
                                "type": "user",
                                "user_id": "UV02WET96"
                            },
                            {
                                "type": "text",
                                "text": ". Will upload to gdrive. If confirmed, I can export the virus pictogram, colors, and sizes for social media (eg. square) "
                            },
                            {
                                "type": "user",
                                "user_id": "U01019BQXM3"
                            },
                            {
                                "type": "text",
                                "text": ". Font is Montserrat as suggested by Marc."
                            }
                        ]
                    }
                ]
            }
        ],
        "user": "UV0CX49QB",
        "ts": "1584595361.115400",
        "edited": {
            "user": "UV0CX49QB",
            "ts": "1584636477.000000"
        },
        "client_msg_id": "8f1ba15c-d4e3-4257-8aa0-ed44eb15b94f",
        "thread_ts": "1584470069.087700",
        "parent_user_id": "UV0QTJCMT",
        "subtype": "thread_broadcast",
        "root": {
            "client_msg_id": "2cbb00d0-457a-4852-a05c-f3fb879f0cc1",
            "type": "message",
            "text": "<@UV6PMT2DQ> and <@UV0CX49QB> could you possibly coordinate your two banner\/logo designs? i really love the bold colors, the icons, fonts, and layout of david's but really like marie's virus \"dynamic\" design  as the overall program logo and the virus icon in the O of COVID is really cool. would this work?",
            "user": "UV0QTJCMT",
            "ts": "1584470069.087700",
            "team": "TUU48M0T1",
            "blocks": [
                {
                    "type": "rich_text",
                    "block_id": "Y8d",
                    "elements": [
                        {
                            "type": "rich_text_section",
                            "elements": [
                                {
                                    "type": "user",
                                    "user_id": "UV6PMT2DQ"
                                },
                                {
                                    "type": "text",
                                    "text": " and "
                                },
                                {
                                    "type": "user",
                                    "user_id": "UV0CX49QB"
                                },
                                {
                                    "type": "text",
                                    "text": " could you possibly coordinate your two banner\/logo designs? i really love the bold colors, the icons, fonts, and layout of david's but really like marie's virus \"dynamic\" design  as the overall program logo and the virus icon in the O of COVID is really cool. would this work?"
                                }
                            ]
                        }
                    ]
                }
            ],
            "thread_ts": "1584470069.087700",
            "reply_count": 5,
            "reply_users_count": 3,
            "latest_reply": "1584595361.115400",
            "reply_users": [
                "UV0CX49QB",
                "UV02WET96",
                "UV0QTJCMT"
            ],
            "subscribed": false
        },
        "reactions": [
            {
                "name": "100",
                "users": [
                    "UV2SC7ZE3"
                ],
                "count": 1
            },
            {
                "name": "+1",
                "users": [
                    "UV02WET96"
                ],
                "count": 1
            }
        ]
    }
]