[
    {
        "type": "message",
        "text": "",
        "files": [
            {
                "id": "F0110J3T456",
                "created": 1585552338,
                "timestamp": 1585552338,
                "name": "Image from iOS.jpg",
                "title": "Image from iOS",
                "mimetype": "image\/jpeg",
                "filetype": "jpg",
                "pretty_type": "JPEG",
                "user": "U01072UT127",
                "editable": false,
                "size": 283893,
                "mode": "hosted",
                "is_external": false,
                "external_type": "",
                "is_public": true,
                "public_url_shared": false,
                "display_as_bot": false,
                "username": "",
                "url_private": "https:\/\/files.slack.com\/files-pri\/TUU48M0T1-F0110J3T456\/image_from_ios.jpg?t=xoxe-980144714919-1133254701825-1120841107731-daf595b5a7d6c9028b0b02a925032e36",
                "url_private_download": "https:\/\/files.slack.com\/files-pri\/TUU48M0T1-F0110J3T456\/download\/image_from_ios.jpg?t=xoxe-980144714919-1133254701825-1120841107731-daf595b5a7d6c9028b0b02a925032e36",
                "thumb_64": "https:\/\/files.slack.com\/files-tmb\/TUU48M0T1-F0110J3T456-65e9006da1\/image_from_ios_64.jpg?t=xoxe-980144714919-1133254701825-1120841107731-daf595b5a7d6c9028b0b02a925032e36",
                "thumb_80": "https:\/\/files.slack.com\/files-tmb\/TUU48M0T1-F0110J3T456-65e9006da1\/image_from_ios_80.jpg?t=xoxe-980144714919-1133254701825-1120841107731-daf595b5a7d6c9028b0b02a925032e36",
                "thumb_360": "https:\/\/files.slack.com\/files-tmb\/TUU48M0T1-F0110J3T456-65e9006da1\/image_from_ios_360.jpg?t=xoxe-980144714919-1133254701825-1120841107731-daf595b5a7d6c9028b0b02a925032e36",
                "thumb_360_w": 360,
                "thumb_360_h": 100,
                "thumb_480": "https:\/\/files.slack.com\/files-tmb\/TUU48M0T1-F0110J3T456-65e9006da1\/image_from_ios_480.jpg?t=xoxe-980144714919-1133254701825-1120841107731-daf595b5a7d6c9028b0b02a925032e36",
                "thumb_480_w": 480,
                "thumb_480_h": 133,
                "thumb_160": "https:\/\/files.slack.com\/files-tmb\/TUU48M0T1-F0110J3T456-65e9006da1\/image_from_ios_160.jpg?t=xoxe-980144714919-1133254701825-1120841107731-daf595b5a7d6c9028b0b02a925032e36",
                "thumb_720": "https:\/\/files.slack.com\/files-tmb\/TUU48M0T1-F0110J3T456-65e9006da1\/image_from_ios_720.jpg?t=xoxe-980144714919-1133254701825-1120841107731-daf595b5a7d6c9028b0b02a925032e36",
                "thumb_720_w": 720,
                "thumb_720_h": 200,
                "thumb_800": "https:\/\/files.slack.com\/files-tmb\/TUU48M0T1-F0110J3T456-65e9006da1\/image_from_ios_800.jpg?t=xoxe-980144714919-1133254701825-1120841107731-daf595b5a7d6c9028b0b02a925032e36",
                "thumb_800_w": 800,
                "thumb_800_h": 222,
                "thumb_960": "https:\/\/files.slack.com\/files-tmb\/TUU48M0T1-F0110J3T456-65e9006da1\/image_from_ios_960.jpg?t=xoxe-980144714919-1133254701825-1120841107731-daf595b5a7d6c9028b0b02a925032e36",
                "thumb_960_w": 960,
                "thumb_960_h": 267,
                "thumb_1024": "https:\/\/files.slack.com\/files-tmb\/TUU48M0T1-F0110J3T456-65e9006da1\/image_from_ios_1024.jpg?t=xoxe-980144714919-1133254701825-1120841107731-daf595b5a7d6c9028b0b02a925032e36",
                "thumb_1024_w": 1024,
                "thumb_1024_h": 285,
                "image_exif_rotation": 1,
                "original_w": 3336,
                "original_h": 927,
                "thumb_tiny": "AwANADBp04427l+uw\/40n9nsVxuA9yhrUKfNnj8qr9LgR4Xr1A\/GgCr\/AGYx43ge+w0v9msRt3r9dhrSC4OePypAmGzx+VAGb\/Zxb5dwHvsP+NH9mM3G9RjvtrRWMK2ePwFOC4OePyoA\/9k=",
                "permalink": "https:\/\/open-covid19.slack.com\/files\/U01072UT127\/F0110J3T456\/image_from_ios.jpg",
                "permalink_public": "https:\/\/slack-files.com\/TUU48M0T1-F0110J3T456-c3c31c9f81",
                "is_starred": false,
                "has_rich_preview": false
            }
        ],
        "upload": true,
        "user": "U01072UT127",
        "display_as_bot": false,
        "upload_reply_to": "FE42933C-4831-4825-8443-F1F518FDAF75",
        "ts": "1585552344.058200",
        "thread_ts": "1585428921.036100",
        "parent_user_id": "U01072UT127"
    },
    {
        "client_msg_id": "271e08d5-a7e7-44f5-9f5e-d61a3b2585f1",
        "type": "message",
        "text": "<@UV6PMT2DQ> Thanks for those! I've used them for our LinkedIn page here <https:\/\/www.linkedin.com\/company\/OpenCovid19>\nI've desecrated the first design by squeezing it together so that you could see everything in 1128*191px, sorry... I guess adding more transparent pixels to each side would have made more sense but I didn't know how to do it quickly in cs2",
        "user": "U010APQC76J",
        "ts": "1585579710.059700",
        "team": "TUU48M0T1",
        "user_team": "TUU48M0T1",
        "source_team": "TUU48M0T1",
        "user_profile": {
            "avatar_hash": "751a8e7a94a5",
            "image_72": "https:\/\/avatars.slack-edge.com\/2020-03-25\/1026091401893_751a8e7a94a519bfd1d7_72.jpg",
            "first_name": "Hans",
            "real_name": "Hans Pfalzgraf",
            "display_name": "Hans P",
            "team": "TUU48M0T1",
            "name": "h.pfalzgraf",
            "is_restricted": false,
            "is_ultra_restricted": false
        },
        "blocks": [
            {
                "type": "rich_text",
                "block_id": "3e89M",
                "elements": [
                    {
                        "type": "rich_text_section",
                        "elements": [
                            {
                                "type": "user",
                                "user_id": "UV6PMT2DQ"
                            },
                            {
                                "type": "text",
                                "text": " Thanks for those! I've used them for our LinkedIn page here "
                            },
                            {
                                "type": "link",
                                "url": "https:\/\/www.linkedin.com\/company\/OpenCovid19"
                            },
                            {
                                "type": "text",
                                "text": "\nI've desecrated the first design by squeezing it together so that you could see everything in 1128*191px, sorry... I guess adding more transparent pixels to each side would have made more sense but I didn't know how to do it quickly in cs2"
                            }
                        ]
                    }
                ]
            }
        ],
        "thread_ts": "1584632770.118100",
        "parent_user_id": "UV6PMT2DQ"
    },
    {
        "client_msg_id": "d28e523b-1a27-45f9-8b34-32447cbfcfdd",
        "type": "message",
        "text": "Hi everybody concerning the Banner of the OpenCovid19, we are making a LinkedIn version of it .. but its not the same format - We need a 1524x396",
        "user": "U01019BQXM3",
        "ts": "1585587151.061100",
        "team": "TUU48M0T1",
        "user_team": "TUU48M0T1",
        "source_team": "TUU48M0T1",
        "user_profile": {
            "avatar_hash": "7e0f35d8cc55",
            "image_72": "https:\/\/avatars.slack-edge.com\/2020-03-15\/988667349730_7e0f35d8cc556cd89565_72.jpg",
            "first_name": "Marc",
            "real_name": "Marc Bokobza",
            "display_name": "Marc Bokobza",
            "team": "TUU48M0T1",
            "name": "marcbokobza1",
            "is_restricted": false,
            "is_ultra_restricted": false
        },
        "blocks": [
            {
                "type": "rich_text",
                "block_id": "JE9t",
                "elements": [
                    {
                        "type": "rich_text_section",
                        "elements": [
                            {
                                "type": "text",
                                "text": "Hi everybody concerning the Banner of the OpenCovid19, we are making a LinkedIn version of it .. but its not the same format - We need a 1524x396"
                            }
                        ]
                    }
                ]
            }
        ],
        "thread_ts": "1585587151.061100",
        "reply_count": 3,
        "reply_users_count": 2,
        "latest_reply": "1585599488.063700",
        "reply_users": [
            "UVCS0865Q",
            "U01019BQXM3"
        ],
        "replies": [
            {
                "user": "UVCS0865Q",
                "ts": "1585590208.061500"
            },
            {
                "user": "UVCS0865Q",
                "ts": "1585590254.062000"
            },
            {
                "user": "U01019BQXM3",
                "ts": "1585599488.063700"
            }
        ],
        "subscribed": false,
        "reactions": [
            {
                "name": "+1",
                "users": [
                    "UVCS0865Q"
                ],
                "count": 1
            }
        ]
    },
    {
        "type": "message",
        "text": "Does someone know how to reformat that one in 1584x396 ?",
        "files": [
            {
                "id": "F01122RGNTS",
                "created": 1585587239,
                "timestamp": 1585587239,
                "name": "89912717_113448156946949_5530800094829346816_o.png",
                "title": "89912717_113448156946949_5530800094829346816_o.png",
                "mimetype": "image\/png",
                "filetype": "png",
                "pretty_type": "PNG",
                "user": "U01019BQXM3",
                "editable": false,
                "size": 209691,
                "mode": "hosted",
                "is_external": false,
                "external_type": "",
                "is_public": true,
                "public_url_shared": false,
                "display_as_bot": false,
                "username": "",
                "url_private": "https:\/\/files.slack.com\/files-pri\/TUU48M0T1-F01122RGNTS\/89912717_113448156946949_5530800094829346816_o.png?t=xoxe-980144714919-1133254701825-1120841107731-daf595b5a7d6c9028b0b02a925032e36",
                "url_private_download": "https:\/\/files.slack.com\/files-pri\/TUU48M0T1-F01122RGNTS\/download\/89912717_113448156946949_5530800094829346816_o.png?t=xoxe-980144714919-1133254701825-1120841107731-daf595b5a7d6c9028b0b02a925032e36",
                "thumb_64": "https:\/\/files.slack.com\/files-tmb\/TUU48M0T1-F01122RGNTS-e35f9ea997\/89912717_113448156946949_5530800094829346816_o_64.png?t=xoxe-980144714919-1133254701825-1120841107731-daf595b5a7d6c9028b0b02a925032e36",
                "thumb_80": "https:\/\/files.slack.com\/files-tmb\/TUU48M0T1-F01122RGNTS-e35f9ea997\/89912717_113448156946949_5530800094829346816_o_80.png?t=xoxe-980144714919-1133254701825-1120841107731-daf595b5a7d6c9028b0b02a925032e36",
                "thumb_360": "https:\/\/files.slack.com\/files-tmb\/TUU48M0T1-F01122RGNTS-e35f9ea997\/89912717_113448156946949_5530800094829346816_o_360.png?t=xoxe-980144714919-1133254701825-1120841107731-daf595b5a7d6c9028b0b02a925032e36",
                "thumb_360_w": 360,
                "thumb_360_h": 115,
                "thumb_480": "https:\/\/files.slack.com\/files-tmb\/TUU48M0T1-F01122RGNTS-e35f9ea997\/89912717_113448156946949_5530800094829346816_o_480.png?t=xoxe-980144714919-1133254701825-1120841107731-daf595b5a7d6c9028b0b02a925032e36",
                "thumb_480_w": 480,
                "thumb_480_h": 154,
                "thumb_160": "https:\/\/files.slack.com\/files-tmb\/TUU48M0T1-F01122RGNTS-e35f9ea997\/89912717_113448156946949_5530800094829346816_o_160.png?t=xoxe-980144714919-1133254701825-1120841107731-daf595b5a7d6c9028b0b02a925032e36",
                "thumb_720": "https:\/\/files.slack.com\/files-tmb\/TUU48M0T1-F01122RGNTS-e35f9ea997\/89912717_113448156946949_5530800094829346816_o_720.png?t=xoxe-980144714919-1133254701825-1120841107731-daf595b5a7d6c9028b0b02a925032e36",
                "thumb_720_w": 720,
                "thumb_720_h": 230,
                "thumb_800": "https:\/\/files.slack.com\/files-tmb\/TUU48M0T1-F01122RGNTS-e35f9ea997\/89912717_113448156946949_5530800094829346816_o_800.png?t=xoxe-980144714919-1133254701825-1120841107731-daf595b5a7d6c9028b0b02a925032e36",
                "thumb_800_w": 800,
                "thumb_800_h": 256,
                "thumb_960": "https:\/\/files.slack.com\/files-tmb\/TUU48M0T1-F01122RGNTS-e35f9ea997\/89912717_113448156946949_5530800094829346816_o_960.png?t=xoxe-980144714919-1133254701825-1120841107731-daf595b5a7d6c9028b0b02a925032e36",
                "thumb_960_w": 960,
                "thumb_960_h": 307,
                "thumb_1024": "https:\/\/files.slack.com\/files-tmb\/TUU48M0T1-F01122RGNTS-e35f9ea997\/89912717_113448156946949_5530800094829346816_o_1024.png?t=xoxe-980144714919-1133254701825-1120841107731-daf595b5a7d6c9028b0b02a925032e36",
                "thumb_1024_w": 1024,
                "thumb_1024_h": 328,
                "image_exif_rotation": 1,
                "original_w": 3619,
                "original_h": 1158,
                "thumb_tiny": "AwAPADDTqJZ1aYxg\/MOvFO81PX9KZuiDbgBu+lOzAUXERzhuhx0NOMyD+Kk81KQyoe1FmA4Soeh746U+og8Y7kfnTvNT1\/SizA\/\/2Q==",
                "permalink": "https:\/\/open-covid19.slack.com\/files\/U01019BQXM3\/F01122RGNTS\/89912717_113448156946949_5530800094829346816_o.png",
                "permalink_public": "https:\/\/slack-files.com\/TUU48M0T1-F01122RGNTS-fc4b61a3e5",
                "is_starred": false,
                "has_rich_preview": false
            }
        ],
        "upload": true,
        "blocks": [
            {
                "type": "rich_text",
                "block_id": "hQo",
                "elements": [
                    {
                        "type": "rich_text_section",
                        "elements": [
                            {
                                "type": "text",
                                "text": "Does someone know how to reformat that one in 1584x396 ?"
                            }
                        ]
                    }
                ]
            }
        ],
        "user": "U01019BQXM3",
        "display_as_bot": false,
        "ts": "1585587245.061200",
        "client_msg_id": "66a5a05b-8979-4c4c-b176-ff311804a24f"
    },
    {
        "type": "message",
        "text": "",
        "files": [
            {
                "id": "F01147TEX9V",
                "created": 1585590198,
                "timestamp": 1585590198,
                "name": "open_covid_linkedin.png",
                "title": "open_covid_linkedin.png",
                "mimetype": "image\/png",
                "filetype": "png",
                "pretty_type": "PNG",
                "user": "UVCS0865Q",
                "editable": false,
                "size": 79345,
                "mode": "hosted",
                "is_external": false,
                "external_type": "",
                "is_public": true,
                "public_url_shared": false,
                "display_as_bot": false,
                "username": "",
                "url_private": "https:\/\/files.slack.com\/files-pri\/TUU48M0T1-F01147TEX9V\/open_covid_linkedin.png?t=xoxe-980144714919-1133254701825-1120841107731-daf595b5a7d6c9028b0b02a925032e36",
                "url_private_download": "https:\/\/files.slack.com\/files-pri\/TUU48M0T1-F01147TEX9V\/download\/open_covid_linkedin.png?t=xoxe-980144714919-1133254701825-1120841107731-daf595b5a7d6c9028b0b02a925032e36",
                "thumb_64": "https:\/\/files.slack.com\/files-tmb\/TUU48M0T1-F01147TEX9V-8c68628873\/open_covid_linkedin_64.png?t=xoxe-980144714919-1133254701825-1120841107731-daf595b5a7d6c9028b0b02a925032e36",
                "thumb_80": "https:\/\/files.slack.com\/files-tmb\/TUU48M0T1-F01147TEX9V-8c68628873\/open_covid_linkedin_80.png?t=xoxe-980144714919-1133254701825-1120841107731-daf595b5a7d6c9028b0b02a925032e36",
                "thumb_360": "https:\/\/files.slack.com\/files-tmb\/TUU48M0T1-F01147TEX9V-8c68628873\/open_covid_linkedin_360.png?t=xoxe-980144714919-1133254701825-1120841107731-daf595b5a7d6c9028b0b02a925032e36",
                "thumb_360_w": 360,
                "thumb_360_h": 94,
                "thumb_480": "https:\/\/files.slack.com\/files-tmb\/TUU48M0T1-F01147TEX9V-8c68628873\/open_covid_linkedin_480.png?t=xoxe-980144714919-1133254701825-1120841107731-daf595b5a7d6c9028b0b02a925032e36",
                "thumb_480_w": 480,
                "thumb_480_h": 125,
                "thumb_160": "https:\/\/files.slack.com\/files-tmb\/TUU48M0T1-F01147TEX9V-8c68628873\/open_covid_linkedin_160.png?t=xoxe-980144714919-1133254701825-1120841107731-daf595b5a7d6c9028b0b02a925032e36",
                "thumb_720": "https:\/\/files.slack.com\/files-tmb\/TUU48M0T1-F01147TEX9V-8c68628873\/open_covid_linkedin_720.png?t=xoxe-980144714919-1133254701825-1120841107731-daf595b5a7d6c9028b0b02a925032e36",
                "thumb_720_w": 720,
                "thumb_720_h": 187,
                "thumb_800": "https:\/\/files.slack.com\/files-tmb\/TUU48M0T1-F01147TEX9V-8c68628873\/open_covid_linkedin_800.png?t=xoxe-980144714919-1133254701825-1120841107731-daf595b5a7d6c9028b0b02a925032e36",
                "thumb_800_w": 800,
                "thumb_800_h": 208,
                "thumb_960": "https:\/\/files.slack.com\/files-tmb\/TUU48M0T1-F01147TEX9V-8c68628873\/open_covid_linkedin_960.png?t=xoxe-980144714919-1133254701825-1120841107731-daf595b5a7d6c9028b0b02a925032e36",
                "thumb_960_w": 960,
                "thumb_960_h": 249,
                "thumb_1024": "https:\/\/files.slack.com\/files-tmb\/TUU48M0T1-F01147TEX9V-8c68628873\/open_covid_linkedin_1024.png?t=xoxe-980144714919-1133254701825-1120841107731-daf595b5a7d6c9028b0b02a925032e36",
                "thumb_1024_w": 1024,
                "thumb_1024_h": 266,
                "image_exif_rotation": 1,
                "original_w": 1524,
                "original_h": 396,
                "thumb_tiny": "AwAMADDTqKSUo6KFJ3HGfSmee3tR5zH0quVgSeYcn92\/HfjmlMmP4GqLzWo81vWjlYEyPuzwRTqr+cw9KPPb2o5WB\/\/Z",
                "permalink": "https:\/\/open-covid19.slack.com\/files\/UVCS0865Q\/F01147TEX9V\/open_covid_linkedin.png",
                "permalink_public": "https:\/\/slack-files.com\/TUU48M0T1-F01147TEX9V-6c7ee903ae",
                "is_starred": false,
                "has_rich_preview": false
            }
        ],
        "upload": true,
        "user": "UVCS0865Q",
        "display_as_bot": false,
        "ts": "1585590208.061500",
        "client_msg_id": "48cc7611-26c8-4f54-84c5-0c4615367ae2",
        "thread_ts": "1585587151.061100",
        "parent_user_id": "U01019BQXM3"
    },
    {
        "client_msg_id": "fe3c4962-175b-41f0-93c7-e3dae5f16bc3",
        "type": "message",
        "text": "Hey <@U01019BQXM3> I adjusted the file. And attached it above.",
        "user": "UVCS0865Q",
        "ts": "1585590254.062000",
        "team": "TUU48M0T1",
        "user_team": "TUU48M0T1",
        "source_team": "TUU48M0T1",
        "user_profile": {
            "avatar_hash": "02067676ba06",
            "image_72": "https:\/\/avatars.slack-edge.com\/2020-04-01\/1028835450754_02067676ba06735a0151_72.png",
            "first_name": "Karolina",
            "real_name": "Karolina",
            "display_name": "",
            "team": "TUU48M0T1",
            "name": "sulichkarolina",
            "is_restricted": false,
            "is_ultra_restricted": false
        },
        "blocks": [
            {
                "type": "rich_text",
                "block_id": "Qn9",
                "elements": [
                    {
                        "type": "rich_text_section",
                        "elements": [
                            {
                                "type": "text",
                                "text": "Hey "
                            },
                            {
                                "type": "user",
                                "user_id": "U01019BQXM3"
                            },
                            {
                                "type": "text",
                                "text": " I adjusted the file. And attached it above."
                            }
                        ]
                    }
                ]
            }
        ],
        "thread_ts": "1585587151.061100",
        "parent_user_id": "U01019BQXM3"
    },
    {
        "type": "message",
        "text": "Thanks for circling it out <@U01072UT127> and <@UV8T52QJ3>!\nI was working on refining it yesterday based on your feedback and I tried to combine both 1 & 2, while retaining more of 2.\nIt shows a speech bubble, with the speech regconition symbol inside it, which also represents the AI aspect of the app.\n\nWhich color best represents the work we do at Cough Checker?\nWe have: Bright blue, Light blue and Dark Blue.\n\nThank you!",
        "files": [
            {
                "id": "F01126V89B7",
                "created": 1585591308,
                "timestamp": 1585591308,
                "name": "Screen Shot 2020-03-30 at 10.59.24 AM.png",
                "title": "Screen Shot 2020-03-30 at 10.59.24 AM.png",
                "mimetype": "image\/png",
                "filetype": "png",
                "pretty_type": "PNG",
                "user": "U010HGKFDNE",
                "editable": false,
                "size": 137801,
                "mode": "hosted",
                "is_external": false,
                "external_type": "",
                "is_public": true,
                "public_url_shared": false,
                "display_as_bot": false,
                "username": "",
                "url_private": "https:\/\/files.slack.com\/files-pri\/TUU48M0T1-F01126V89B7\/screen_shot_2020-03-30_at_10.59.24_am.png?t=xoxe-980144714919-1133254701825-1120841107731-daf595b5a7d6c9028b0b02a925032e36",
                "url_private_download": "https:\/\/files.slack.com\/files-pri\/TUU48M0T1-F01126V89B7\/download\/screen_shot_2020-03-30_at_10.59.24_am.png?t=xoxe-980144714919-1133254701825-1120841107731-daf595b5a7d6c9028b0b02a925032e36",
                "thumb_64": "https:\/\/files.slack.com\/files-tmb\/TUU48M0T1-F01126V89B7-1e64b0643a\/screen_shot_2020-03-30_at_10.59.24_am_64.png?t=xoxe-980144714919-1133254701825-1120841107731-daf595b5a7d6c9028b0b02a925032e36",
                "thumb_80": "https:\/\/files.slack.com\/files-tmb\/TUU48M0T1-F01126V89B7-1e64b0643a\/screen_shot_2020-03-30_at_10.59.24_am_80.png?t=xoxe-980144714919-1133254701825-1120841107731-daf595b5a7d6c9028b0b02a925032e36",
                "thumb_360": "https:\/\/files.slack.com\/files-tmb\/TUU48M0T1-F01126V89B7-1e64b0643a\/screen_shot_2020-03-30_at_10.59.24_am_360.png?t=xoxe-980144714919-1133254701825-1120841107731-daf595b5a7d6c9028b0b02a925032e36",
                "thumb_360_w": 307,
                "thumb_360_h": 360,
                "thumb_480": "https:\/\/files.slack.com\/files-tmb\/TUU48M0T1-F01126V89B7-1e64b0643a\/screen_shot_2020-03-30_at_10.59.24_am_480.png?t=xoxe-980144714919-1133254701825-1120841107731-daf595b5a7d6c9028b0b02a925032e36",
                "thumb_480_w": 410,
                "thumb_480_h": 480,
                "thumb_160": "https:\/\/files.slack.com\/files-tmb\/TUU48M0T1-F01126V89B7-1e64b0643a\/screen_shot_2020-03-30_at_10.59.24_am_160.png?t=xoxe-980144714919-1133254701825-1120841107731-daf595b5a7d6c9028b0b02a925032e36",
                "thumb_720": "https:\/\/files.slack.com\/files-tmb\/TUU48M0T1-F01126V89B7-1e64b0643a\/screen_shot_2020-03-30_at_10.59.24_am_720.png?t=xoxe-980144714919-1133254701825-1120841107731-daf595b5a7d6c9028b0b02a925032e36",
                "thumb_720_w": 615,
                "thumb_720_h": 720,
                "thumb_800": "https:\/\/files.slack.com\/files-tmb\/TUU48M0T1-F01126V89B7-1e64b0643a\/screen_shot_2020-03-30_at_10.59.24_am_800.png?t=xoxe-980144714919-1133254701825-1120841107731-daf595b5a7d6c9028b0b02a925032e36",
                "thumb_800_w": 800,
                "thumb_800_h": 937,
                "thumb_960": "https:\/\/files.slack.com\/files-tmb\/TUU48M0T1-F01126V89B7-1e64b0643a\/screen_shot_2020-03-30_at_10.59.24_am_960.png?t=xoxe-980144714919-1133254701825-1120841107731-daf595b5a7d6c9028b0b02a925032e36",
                "thumb_960_w": 819,
                "thumb_960_h": 960,
                "thumb_1024": "https:\/\/files.slack.com\/files-tmb\/TUU48M0T1-F01126V89B7-1e64b0643a\/screen_shot_2020-03-30_at_10.59.24_am_1024.png?t=xoxe-980144714919-1133254701825-1120841107731-daf595b5a7d6c9028b0b02a925032e36",
                "thumb_1024_w": 874,
                "thumb_1024_h": 1024,
                "image_exif_rotation": 1,
                "original_w": 1072,
                "original_h": 1256,
                "thumb_tiny": "AwAwACjMpdpJAAOT2pAcGpUdRICTgZ7UwGeW\/wDcb8qQqV6gj61cE8YX\/WNn6f8A1v8AIprvBJjzJHOPbpSAqUUUUAaZ0kAEmfAH+z\/9emDTo2UkXHA6\/LWpIm+MrnGahWBwGyV5GKaSsIof2fEP+Xn\/AMcpyaYj523Gcdfl\/wDr1bNvIT1TH0pRDMudrqv0FAyr\/ZA\/57f+O\/8A16P7IH\/Pb\/x3\/wCvWnRSAZKWWJivXFQ28hZypYsMZ5qzRTvpYVio8rrMcsQQfu44xVuiihu4JBRRRSGf\/9k=",
                "permalink": "https:\/\/open-covid19.slack.com\/files\/U010HGKFDNE\/F01126V89B7\/screen_shot_2020-03-30_at_10.59.24_am.png",
                "permalink_public": "https:\/\/slack-files.com\/TUU48M0T1-F01126V89B7-345d5b7b40",
                "is_starred": false,
                "has_rich_preview": false
            },
            {
                "id": "F0114515S4W",
                "created": 1585591308,
                "timestamp": 1585591308,
                "name": "Screen Shot 2020-03-30 at 10.59.12 AM.png",
                "title": "Screen Shot 2020-03-30 at 10.59.12 AM.png",
                "mimetype": "image\/png",
                "filetype": "png",
                "pretty_type": "PNG",
                "user": "U010HGKFDNE",
                "editable": false,
                "size": 136087,
                "mode": "hosted",
                "is_external": false,
                "external_type": "",
                "is_public": true,
                "public_url_shared": false,
                "display_as_bot": false,
                "username": "",
                "url_private": "https:\/\/files.slack.com\/files-pri\/TUU48M0T1-F0114515S4W\/screen_shot_2020-03-30_at_10.59.12_am.png?t=xoxe-980144714919-1133254701825-1120841107731-daf595b5a7d6c9028b0b02a925032e36",
                "url_private_download": "https:\/\/files.slack.com\/files-pri\/TUU48M0T1-F0114515S4W\/download\/screen_shot_2020-03-30_at_10.59.12_am.png?t=xoxe-980144714919-1133254701825-1120841107731-daf595b5a7d6c9028b0b02a925032e36",
                "thumb_64": "https:\/\/files.slack.com\/files-tmb\/TUU48M0T1-F0114515S4W-ca3548b8c5\/screen_shot_2020-03-30_at_10.59.12_am_64.png?t=xoxe-980144714919-1133254701825-1120841107731-daf595b5a7d6c9028b0b02a925032e36",
                "thumb_80": "https:\/\/files.slack.com\/files-tmb\/TUU48M0T1-F0114515S4W-ca3548b8c5\/screen_shot_2020-03-30_at_10.59.12_am_80.png?t=xoxe-980144714919-1133254701825-1120841107731-daf595b5a7d6c9028b0b02a925032e36",
                "thumb_360": "https:\/\/files.slack.com\/files-tmb\/TUU48M0T1-F0114515S4W-ca3548b8c5\/screen_shot_2020-03-30_at_10.59.12_am_360.png?t=xoxe-980144714919-1133254701825-1120841107731-daf595b5a7d6c9028b0b02a925032e36",
                "thumb_360_w": 305,
                "thumb_360_h": 360,
                "thumb_480": "https:\/\/files.slack.com\/files-tmb\/TUU48M0T1-F0114515S4W-ca3548b8c5\/screen_shot_2020-03-30_at_10.59.12_am_480.png?t=xoxe-980144714919-1133254701825-1120841107731-daf595b5a7d6c9028b0b02a925032e36",
                "thumb_480_w": 406,
                "thumb_480_h": 480,
                "thumb_160": "https:\/\/files.slack.com\/files-tmb\/TUU48M0T1-F0114515S4W-ca3548b8c5\/screen_shot_2020-03-30_at_10.59.12_am_160.png?t=xoxe-980144714919-1133254701825-1120841107731-daf595b5a7d6c9028b0b02a925032e36",
                "thumb_720": "https:\/\/files.slack.com\/files-tmb\/TUU48M0T1-F0114515S4W-ca3548b8c5\/screen_shot_2020-03-30_at_10.59.12_am_720.png?t=xoxe-980144714919-1133254701825-1120841107731-daf595b5a7d6c9028b0b02a925032e36",
                "thumb_720_w": 609,
                "thumb_720_h": 720,
                "thumb_800": "https:\/\/files.slack.com\/files-tmb\/TUU48M0T1-F0114515S4W-ca3548b8c5\/screen_shot_2020-03-30_at_10.59.12_am_800.png?t=xoxe-980144714919-1133254701825-1120841107731-daf595b5a7d6c9028b0b02a925032e36",
                "thumb_800_w": 800,
                "thumb_800_h": 945,
                "thumb_960": "https:\/\/files.slack.com\/files-tmb\/TUU48M0T1-F0114515S4W-ca3548b8c5\/screen_shot_2020-03-30_at_10.59.12_am_960.png?t=xoxe-980144714919-1133254701825-1120841107731-daf595b5a7d6c9028b0b02a925032e36",
                "thumb_960_w": 812,
                "thumb_960_h": 960,
                "thumb_1024": "https:\/\/files.slack.com\/files-tmb\/TUU48M0T1-F0114515S4W-ca3548b8c5\/screen_shot_2020-03-30_at_10.59.12_am_1024.png?t=xoxe-980144714919-1133254701825-1120841107731-daf595b5a7d6c9028b0b02a925032e36",
                "thumb_1024_w": 867,
                "thumb_1024_h": 1024,
                "image_exif_rotation": 1,
                "original_w": 1068,
                "original_h": 1262,
                "thumb_tiny": "AwAwACjMpdrZAwcnoKEOG5qZZEDg5AGewoAi8t\/7jflSFSvUEfWrYnjC\/wCsbP0\/+t\/kUjyQSY8x3OPbpQBUooooA0zpKgZM5x\/u0n9mR7SfPOB\/s1psu5SKiMTFWGRyMUAZ\/wDZ8I\/5eP8AxynJpkb523Gcdflq2beTOcpj0xQIZlztdV+gpgVv7IH\/AD2P\/fNH9kD\/AJ7H\/vmtKikAjkhDjrUcTEsRkke9S0UAQszB+pznpU1FFABRRRQB\/9k=",
                "permalink": "https:\/\/open-covid19.slack.com\/files\/U010HGKFDNE\/F0114515S4W\/screen_shot_2020-03-30_at_10.59.12_am.png",
                "permalink_public": "https:\/\/slack-files.com\/TUU48M0T1-F0114515S4W-0258c3046a",
                "is_starred": false,
                "has_rich_preview": false
            },
            {
                "id": "F0114515SEA",
                "created": 1585591308,
                "timestamp": 1585591308,
                "name": "Screen Shot 2020-03-30 at 10.59.06 AM.png",
                "title": "Screen Shot 2020-03-30 at 10.59.06 AM.png",
                "mimetype": "image\/png",
                "filetype": "png",
                "pretty_type": "PNG",
                "user": "U010HGKFDNE",
                "editable": false,
                "size": 138298,
                "mode": "hosted",
                "is_external": false,
                "external_type": "",
                "is_public": true,
                "public_url_shared": false,
                "display_as_bot": false,
                "username": "",
                "url_private": "https:\/\/files.slack.com\/files-pri\/TUU48M0T1-F0114515SEA\/screen_shot_2020-03-30_at_10.59.06_am.png?t=xoxe-980144714919-1133254701825-1120841107731-daf595b5a7d6c9028b0b02a925032e36",
                "url_private_download": "https:\/\/files.slack.com\/files-pri\/TUU48M0T1-F0114515SEA\/download\/screen_shot_2020-03-30_at_10.59.06_am.png?t=xoxe-980144714919-1133254701825-1120841107731-daf595b5a7d6c9028b0b02a925032e36",
                "thumb_64": "https:\/\/files.slack.com\/files-tmb\/TUU48M0T1-F0114515SEA-9fb621dfe4\/screen_shot_2020-03-30_at_10.59.06_am_64.png?t=xoxe-980144714919-1133254701825-1120841107731-daf595b5a7d6c9028b0b02a925032e36",
                "thumb_80": "https:\/\/files.slack.com\/files-tmb\/TUU48M0T1-F0114515SEA-9fb621dfe4\/screen_shot_2020-03-30_at_10.59.06_am_80.png?t=xoxe-980144714919-1133254701825-1120841107731-daf595b5a7d6c9028b0b02a925032e36",
                "thumb_360": "https:\/\/files.slack.com\/files-tmb\/TUU48M0T1-F0114515SEA-9fb621dfe4\/screen_shot_2020-03-30_at_10.59.06_am_360.png?t=xoxe-980144714919-1133254701825-1120841107731-daf595b5a7d6c9028b0b02a925032e36",
                "thumb_360_w": 309,
                "thumb_360_h": 360,
                "thumb_480": "https:\/\/files.slack.com\/files-tmb\/TUU48M0T1-F0114515SEA-9fb621dfe4\/screen_shot_2020-03-30_at_10.59.06_am_480.png?t=xoxe-980144714919-1133254701825-1120841107731-daf595b5a7d6c9028b0b02a925032e36",
                "thumb_480_w": 412,
                "thumb_480_h": 480,
                "thumb_160": "https:\/\/files.slack.com\/files-tmb\/TUU48M0T1-F0114515SEA-9fb621dfe4\/screen_shot_2020-03-30_at_10.59.06_am_160.png?t=xoxe-980144714919-1133254701825-1120841107731-daf595b5a7d6c9028b0b02a925032e36",
                "thumb_720": "https:\/\/files.slack.com\/files-tmb\/TUU48M0T1-F0114515SEA-9fb621dfe4\/screen_shot_2020-03-30_at_10.59.06_am_720.png?t=xoxe-980144714919-1133254701825-1120841107731-daf595b5a7d6c9028b0b02a925032e36",
                "thumb_720_w": 618,
                "thumb_720_h": 720,
                "thumb_800": "https:\/\/files.slack.com\/files-tmb\/TUU48M0T1-F0114515SEA-9fb621dfe4\/screen_shot_2020-03-30_at_10.59.06_am_800.png?t=xoxe-980144714919-1133254701825-1120841107731-daf595b5a7d6c9028b0b02a925032e36",
                "thumb_800_w": 800,
                "thumb_800_h": 933,
                "thumb_960": "https:\/\/files.slack.com\/files-tmb\/TUU48M0T1-F0114515SEA-9fb621dfe4\/screen_shot_2020-03-30_at_10.59.06_am_960.png?t=xoxe-980144714919-1133254701825-1120841107731-daf595b5a7d6c9028b0b02a925032e36",
                "thumb_960_w": 824,
                "thumb_960_h": 960,
                "thumb_1024": "https:\/\/files.slack.com\/files-tmb\/TUU48M0T1-F0114515SEA-9fb621dfe4\/screen_shot_2020-03-30_at_10.59.06_am_1024.png?t=xoxe-980144714919-1133254701825-1120841107731-daf595b5a7d6c9028b0b02a925032e36",
                "thumb_1024_w": 878,
                "thumb_1024_h": 1024,
                "image_exif_rotation": 1,
                "original_w": 1074,
                "original_h": 1252,
                "thumb_tiny": "AwAwACnM604IWYKOSeKaDg09XAdSQSAc0AP+zSnoAfxpskLxjLDipftCY5jJ980faIz1iyfc9aAK1FKxBYkDAJ4FJQBu\/YLX\/nkPzNAsbQjIjH\/fRqaVS8TKvUiq0cTjf+7wCuMZ6mgB32G0\/wCeY\/76NKLG1PSMf99GozE+f9Vn8aciyxsSkXPTJPWmA77Ba\/8APIfmaPsFr\/zyH5mrCklQSMHHIpaQCMwVSzHAHWmRzLISBkEdiKc6h0KnoajigMb7i5bjGMUAK9wkbbTnjrgdKl61BJb73LByueoxUyjaoHoMUALRRRQB\/9k=",
                "permalink": "https:\/\/open-covid19.slack.com\/files\/U010HGKFDNE\/F0114515SEA\/screen_shot_2020-03-30_at_10.59.06_am.png",
                "permalink_public": "https:\/\/slack-files.com\/TUU48M0T1-F0114515SEA-ff8168d3c0",
                "is_starred": false,
                "has_rich_preview": false
            }
        ],
        "upload": true,
        "blocks": [
            {
                "type": "rich_text",
                "block_id": "jM\/O1",
                "elements": [
                    {
                        "type": "rich_text_section",
                        "elements": [
                            {
                                "type": "text",
                                "text": "Thanks for circling it out "
                            },
                            {
                                "type": "user",
                                "user_id": "U01072UT127"
                            },
                            {
                                "type": "text",
                                "text": " and "
                            },
                            {
                                "type": "user",
                                "user_id": "UV8T52QJ3"
                            },
                            {
                                "type": "text",
                                "text": "!\nI was working on refining it yesterday based on your feedback and I tried to combine both 1 & 2, while retaining more of 2.\nIt shows a speech bubble, with the speech regconition symbol inside it, which also represents the AI aspect of the app.\n\nWhich color best represents the work we do at Cough Checker?\nWe have: Bright blue, Light blue and Dark Blue.\n\nThank you!"
                            }
                        ]
                    }
                ]
            }
        ],
        "user": "U010HGKFDNE",
        "ts": "1585591313.062300",
        "client_msg_id": "d6b4aa50-e6e7-494e-b9bc-47b04ca1b9b5",
        "thread_ts": "1585428921.036100",
        "parent_user_id": "U01072UT127"
    },
    {
        "client_msg_id": "d5861b8d-28ce-4a81-8b7f-38f3303b9019",
        "type": "message",
        "text": "Bright blue is the one for me.",
        "user": "U01072UT127",
        "ts": "1585591598.063100",
        "team": "TUU48M0T1",
        "user_team": "TUU48M0T1",
        "source_team": "TUU48M0T1",
        "user_profile": {
            "avatar_hash": "65a47b12fd55",
            "image_72": "https:\/\/avatars.slack-edge.com\/2020-03-23\/1018603039072_65a47b12fd55dde2b3ca_72.jpg",
            "first_name": "David",
            "real_name": "David Suter",
            "display_name": "David Suter",
            "team": "TUU48M0T1",
            "name": "davidsuter01",
            "is_restricted": false,
            "is_ultra_restricted": false
        },
        "blocks": [
            {
                "type": "rich_text",
                "block_id": "wxk",
                "elements": [
                    {
                        "type": "rich_text_section",
                        "elements": [
                            {
                                "type": "text",
                                "text": "Bright blue is the one for me."
                            }
                        ]
                    }
                ]
            }
        ],
        "thread_ts": "1585428921.036100",
        "parent_user_id": "U01072UT127"
    },
    {
        "client_msg_id": "8e5be1ba-3bae-4ab0-ad79-9cac962c94cf",
        "type": "message",
        "text": "It looks great!",
        "user": "U01072UT127",
        "ts": "1585591607.063300",
        "team": "TUU48M0T1",
        "user_team": "TUU48M0T1",
        "source_team": "TUU48M0T1",
        "user_profile": {
            "avatar_hash": "65a47b12fd55",
            "image_72": "https:\/\/avatars.slack-edge.com\/2020-03-23\/1018603039072_65a47b12fd55dde2b3ca_72.jpg",
            "first_name": "David",
            "real_name": "David Suter",
            "display_name": "David Suter",
            "team": "TUU48M0T1",
            "name": "davidsuter01",
            "is_restricted": false,
            "is_ultra_restricted": false
        },
        "blocks": [
            {
                "type": "rich_text",
                "block_id": "Ezh",
                "elements": [
                    {
                        "type": "rich_text_section",
                        "elements": [
                            {
                                "type": "text",
                                "text": "It looks great!"
                            }
                        ]
                    }
                ]
            }
        ],
        "thread_ts": "1585428921.036100",
        "parent_user_id": "U01072UT127"
    },
    {
        "client_msg_id": "65563f46-f241-480b-9666-9ce193d7bbd7",
        "type": "message",
        "text": "Thank you !",
        "user": "U01019BQXM3",
        "ts": "1585599488.063700",
        "team": "TUU48M0T1",
        "user_team": "TUU48M0T1",
        "source_team": "TUU48M0T1",
        "user_profile": {
            "avatar_hash": "7e0f35d8cc55",
            "image_72": "https:\/\/avatars.slack-edge.com\/2020-03-15\/988667349730_7e0f35d8cc556cd89565_72.jpg",
            "first_name": "Marc",
            "real_name": "Marc Bokobza",
            "display_name": "Marc Bokobza",
            "team": "TUU48M0T1",
            "name": "marcbokobza1",
            "is_restricted": false,
            "is_ultra_restricted": false
        },
        "blocks": [
            {
                "type": "rich_text",
                "block_id": "+e3u",
                "elements": [
                    {
                        "type": "rich_text_section",
                        "elements": [
                            {
                                "type": "text",
                                "text": "Thank you !"
                            }
                        ]
                    }
                ]
            }
        ],
        "thread_ts": "1585587151.061100",
        "parent_user_id": "U01019BQXM3"
    },
    {
        "client_msg_id": "ae67da61-01cb-4b84-9238-6360fb42ae79",
        "type": "message",
        "text": "if someone can send me the original file I can edit it. PSD or whatever Adobe product you used to make it",
        "user": "U010Q3372P3",
        "ts": "1585604936.064400",
        "team": "TUU48M0T1",
        "user_team": "TUU48M0T1",
        "source_team": "TUU48M0T1",
        "user_profile": {
            "avatar_hash": "95066184973b",
            "image_72": "https:\/\/avatars.slack-edge.com\/2020-03-30\/1036274198128_95066184973b1de50d1a_72.png",
            "first_name": "Kathryn",
            "real_name": "Kathryn Rowe",
            "display_name": "Kathryn Rowe",
            "team": "TUU48M0T1",
            "name": "kathryn.rowe",
            "is_restricted": false,
            "is_ultra_restricted": false
        },
        "blocks": [
            {
                "type": "rich_text",
                "block_id": "ZKD",
                "elements": [
                    {
                        "type": "rich_text_section",
                        "elements": [
                            {
                                "type": "text",
                                "text": "if someone can send me the original file I can edit it. PSD or whatever Adobe product you used to make it"
                            }
                        ]
                    }
                ]
            }
        ]
    },
    {
        "client_msg_id": "2971ea97-5d42-423e-bf2d-c026663f07ce",
        "type": "message",
        "text": "I believe they were placed on the Drive folder by <@UV6PMT2DQ>",
        "user": "UVC9WMA7N",
        "ts": "1585606242.065000",
        "team": "TUU48M0T1",
        "user_team": "TUU48M0T1",
        "source_team": "TUU48M0T1",
        "user_profile": {
            "avatar_hash": "56d14d58ed53",
            "image_72": "https:\/\/avatars.slack-edge.com\/2020-03-13\/998337892660_56d14d58ed537e6e4654_72.png",
            "first_name": "Leo",
            "real_name": "Leo Blondel",
            "display_name": "Leo Blondel - JOGL CoFounder \/ CTO",
            "team": "TUU48M0T1",
            "name": "leo",
            "is_restricted": false,
            "is_ultra_restricted": false
        },
        "blocks": [
            {
                "type": "rich_text",
                "block_id": "VZ4",
                "elements": [
                    {
                        "type": "rich_text_section",
                        "elements": [
                            {
                                "type": "text",
                                "text": "I believe they were placed on the Drive folder by "
                            },
                            {
                                "type": "user",
                                "user_id": "UV6PMT2DQ"
                            }
                        ]
                    }
                ]
            }
        ]
    },
    {
        "client_msg_id": "393ad360-9604-44e7-bf75-9c5998011598",
        "type": "message",
        "text": "Otherwise <@UV6PMT2DQ> do you mind sharing them here ? :)",
        "user": "UVC9WMA7N",
        "ts": "1585606264.065700",
        "team": "TUU48M0T1",
        "user_team": "TUU48M0T1",
        "source_team": "TUU48M0T1",
        "user_profile": {
            "avatar_hash": "56d14d58ed53",
            "image_72": "https:\/\/avatars.slack-edge.com\/2020-03-13\/998337892660_56d14d58ed537e6e4654_72.png",
            "first_name": "Leo",
            "real_name": "Leo Blondel",
            "display_name": "Leo Blondel - JOGL CoFounder \/ CTO",
            "team": "TUU48M0T1",
            "name": "leo",
            "is_restricted": false,
            "is_ultra_restricted": false
        },
        "blocks": [
            {
                "type": "rich_text",
                "block_id": "unE",
                "elements": [
                    {
                        "type": "rich_text_section",
                        "elements": [
                            {
                                "type": "text",
                                "text": "Otherwise "
                            },
                            {
                                "type": "user",
                                "user_id": "UV6PMT2DQ"
                            },
                            {
                                "type": "text",
                                "text": " do you mind sharing them here ? :)"
                            }
                        ]
                    }
                ]
            }
        ]
    },
    {
        "type": "message",
        "text": "Hi all ! For sure <@UVC9WMA7N> ! Here is my Illustrator file, please feel free to adjust other sizes or create other formats",
        "files": [
            {
                "id": "F0112TZDT7S",
                "created": 1585608750,
                "timestamp": 1585608750,
                "name": "OpenCovid19 (banners).ai",
                "title": "OpenCovid19 (banners).ai",
                "mimetype": "application\/illustrator",
                "filetype": "ai",
                "pretty_type": "Illustrator File",
                "user": "UV6PMT2DQ",
                "editable": false,
                "size": 463150,
                "mode": "hosted",
                "is_external": false,
                "external_type": "",
                "is_public": true,
                "public_url_shared": false,
                "display_as_bot": false,
                "username": "",
                "url_private": "https:\/\/files.slack.com\/files-pri\/TUU48M0T1-F0112TZDT7S\/opencovid19__banners_.ai?t=xoxe-980144714919-1133254701825-1120841107731-daf595b5a7d6c9028b0b02a925032e36",
                "url_private_download": "https:\/\/files.slack.com\/files-pri\/TUU48M0T1-F0112TZDT7S\/download\/opencovid19__banners_.ai?t=xoxe-980144714919-1133254701825-1120841107731-daf595b5a7d6c9028b0b02a925032e36",
                "thumb_pdf": "https:\/\/files.slack.com\/files-tmb\/TUU48M0T1-F0112TZDT7S-b20708bac0\/opencovid19__banners__thumb_pdf.png?t=xoxe-980144714919-1133254701825-1120841107731-daf595b5a7d6c9028b0b02a925032e36",
                "thumb_pdf_w": 1891,
                "thumb_pdf_h": 611,
                "permalink": "https:\/\/open-covid19.slack.com\/files\/UV6PMT2DQ\/F0112TZDT7S\/opencovid19__banners_.ai",
                "permalink_public": "https:\/\/slack-files.com\/TUU48M0T1-F0112TZDT7S-07bfe349f8",
                "is_starred": false,
                "has_rich_preview": false
            }
        ],
        "upload": true,
        "blocks": [
            {
                "type": "rich_text",
                "block_id": "At6",
                "elements": [
                    {
                        "type": "rich_text_section",
                        "elements": [
                            {
                                "type": "text",
                                "text": "Hi all ! For sure "
                            },
                            {
                                "type": "user",
                                "user_id": "UVC9WMA7N"
                            },
                            {
                                "type": "text",
                                "text": " ! Here is my Illustrator file, please feel free to adjust other sizes or create other formats"
                            }
                        ]
                    }
                ]
            }
        ],
        "user": "UV6PMT2DQ",
        "display_as_bot": false,
        "ts": "1585608765.066800",
        "client_msg_id": "54441668-4323-4e3f-b370-6a39daa5e119",
        "reactions": [
            {
                "name": "heart",
                "users": [
                    "UV02WET96",
                    "U0103128G4D",
                    "UV0QTJCMT"
                ],
                "count": 3
            }
        ]
    },
    {
        "type": "message",
        "text": "Also for those who were asking about the font, I used \"Bagnard\" for the LOGO. On the banners for OpenCovid19, I tried to use the colours and gradients that are now part of JOGL identity, but for your projects you don't have to stick to this identity, it's just something that can help, I hope :slightly_smiling_face:",
        "files": [
            {
                "id": "F010RE6DSV9",
                "created": 1585608963,
                "timestamp": 1585608963,
                "name": "JOGL 30cm.png",
                "title": "JOGL 30cm.png",
                "mimetype": "image\/png",
                "filetype": "png",
                "pretty_type": "PNG",
                "user": "UV6PMT2DQ",
                "editable": false,
                "size": 246554,
                "mode": "hosted",
                "is_external": false,
                "external_type": "",
                "is_public": true,
                "public_url_shared": false,
                "display_as_bot": false,
                "username": "",
                "url_private": "https:\/\/files.slack.com\/files-pri\/TUU48M0T1-F010RE6DSV9\/jogl_30cm.png?t=xoxe-980144714919-1133254701825-1120841107731-daf595b5a7d6c9028b0b02a925032e36",
                "url_private_download": "https:\/\/files.slack.com\/files-pri\/TUU48M0T1-F010RE6DSV9\/download\/jogl_30cm.png?t=xoxe-980144714919-1133254701825-1120841107731-daf595b5a7d6c9028b0b02a925032e36",
                "thumb_64": "https:\/\/files.slack.com\/files-tmb\/TUU48M0T1-F010RE6DSV9-0b4d9edaeb\/jogl_30cm_64.png?t=xoxe-980144714919-1133254701825-1120841107731-daf595b5a7d6c9028b0b02a925032e36",
                "thumb_80": "https:\/\/files.slack.com\/files-tmb\/TUU48M0T1-F010RE6DSV9-0b4d9edaeb\/jogl_30cm_80.png?t=xoxe-980144714919-1133254701825-1120841107731-daf595b5a7d6c9028b0b02a925032e36",
                "thumb_360": "https:\/\/files.slack.com\/files-tmb\/TUU48M0T1-F010RE6DSV9-0b4d9edaeb\/jogl_30cm_360.png?t=xoxe-980144714919-1133254701825-1120841107731-daf595b5a7d6c9028b0b02a925032e36",
                "thumb_360_w": 274,
                "thumb_360_h": 360,
                "thumb_480": "https:\/\/files.slack.com\/files-tmb\/TUU48M0T1-F010RE6DSV9-0b4d9edaeb\/jogl_30cm_480.png?t=xoxe-980144714919-1133254701825-1120841107731-daf595b5a7d6c9028b0b02a925032e36",
                "thumb_480_w": 365,
                "thumb_480_h": 480,
                "thumb_160": "https:\/\/files.slack.com\/files-tmb\/TUU48M0T1-F010RE6DSV9-0b4d9edaeb\/jogl_30cm_160.png?t=xoxe-980144714919-1133254701825-1120841107731-daf595b5a7d6c9028b0b02a925032e36",
                "thumb_720": "https:\/\/files.slack.com\/files-tmb\/TUU48M0T1-F010RE6DSV9-0b4d9edaeb\/jogl_30cm_720.png?t=xoxe-980144714919-1133254701825-1120841107731-daf595b5a7d6c9028b0b02a925032e36",
                "thumb_720_w": 547,
                "thumb_720_h": 720,
                "thumb_800": "https:\/\/files.slack.com\/files-tmb\/TUU48M0T1-F010RE6DSV9-0b4d9edaeb\/jogl_30cm_800.png?t=xoxe-980144714919-1133254701825-1120841107731-daf595b5a7d6c9028b0b02a925032e36",
                "thumb_800_w": 800,
                "thumb_800_h": 1052,
                "thumb_960": "https:\/\/files.slack.com\/files-tmb\/TUU48M0T1-F010RE6DSV9-0b4d9edaeb\/jogl_30cm_960.png?t=xoxe-980144714919-1133254701825-1120841107731-daf595b5a7d6c9028b0b02a925032e36",
                "thumb_960_w": 730,
                "thumb_960_h": 960,
                "thumb_1024": "https:\/\/files.slack.com\/files-tmb\/TUU48M0T1-F010RE6DSV9-0b4d9edaeb\/jogl_30cm_1024.png?t=xoxe-980144714919-1133254701825-1120841107731-daf595b5a7d6c9028b0b02a925032e36",
                "thumb_1024_w": 779,
                "thumb_1024_h": 1024,
                "image_exif_rotation": 1,
                "original_w": 2667,
                "original_h": 3508,
                "thumb_tiny": "AwAwACTMooooAKKKKACiiigAAJIA6mphaTnpGahrStLncAGPNGo1YqGzuB1iao3idBl1IraEgkBHcVk3cvmSkD7q8U3ZaEp3IKKKKQwoBI6HFLgetGB60wHCaQHIY55\/WmUuB60YHr+lFgEooNFID\/\/Z",
                "permalink": "https:\/\/open-covid19.slack.com\/files\/UV6PMT2DQ\/F010RE6DSV9\/jogl_30cm.png",
                "permalink_public": "https:\/\/slack-files.com\/TUU48M0T1-F010RE6DSV9-0150400d03",
                "is_starred": false,
                "has_rich_preview": false
            }
        ],
        "upload": true,
        "blocks": [
            {
                "type": "rich_text",
                "block_id": "Ysn",
                "elements": [
                    {
                        "type": "rich_text_section",
                        "elements": [
                            {
                                "type": "text",
                                "text": "Also for those who were asking about the font, I used \"Bagnard\" for the LOGO. On the banners for OpenCovid19, I tried to use the colours and gradients that are now part of JOGL identity, but for your projects you don't have to stick to this identity, it's just something that can help, I hope "
                            },
                            {
                                "type": "emoji",
                                "name": "slightly_smiling_face"
                            }
                        ]
                    }
                ]
            }
        ],
        "user": "UV6PMT2DQ",
        "display_as_bot": false,
        "ts": "1585608974.067200",
        "client_msg_id": "6735d329-0548-4aad-b274-35baa916f434"
    },
    {
        "client_msg_id": "f731f4ec-0336-4562-ae5d-f19c299a3a01",
        "type": "message",
        "text": "thanks guys ! I used Bagnard as the typo for JOGL logo :wink:",
        "user": "UV6PMT2DQ",
        "ts": "1585609126.067500",
        "team": "TUU48M0T1",
        "user_team": "TUU48M0T1",
        "source_team": "TUU48M0T1",
        "user_profile": {
            "avatar_hash": "g5b8b36d07f1",
            "image_72": "https:\/\/secure.gravatar.com\/avatar\/5b8b36d07f1b244cddad15cc91148af0.jpg?s=72&d=https%3A%2F%2Fa.slack-edge.com%2Fdf10d%2Fimg%2Favatars%2Fava_0009-72.png",
            "first_name": "",
            "real_name": "Marie-Sarah Adenis",
            "display_name": "Marie-Sarah Adenis",
            "team": "TUU48M0T1",
            "name": "mariesarah.adenis",
            "is_restricted": false,
            "is_ultra_restricted": false
        },
        "blocks": [
            {
                "type": "rich_text",
                "block_id": "FYz",
                "elements": [
                    {
                        "type": "rich_text_section",
                        "elements": [
                            {
                                "type": "text",
                                "text": "thanks guys ! I used Bagnard as the typo for JOGL logo "
                            },
                            {
                                "type": "emoji",
                                "name": "wink"
                            }
                        ]
                    }
                ]
            }
        ],
        "thread_ts": "1585302438.018800",
        "parent_user_id": "UVABNG1A9"
    },
    {
        "client_msg_id": "953de573-91ea-4407-bd08-32c5b522e1cd",
        "type": "message",
        "text": "Hey <@U010HGKFDNE> impressive work with the logos!! I love them all! But the bright blue is the best for me :slightly_smiling_face: Do you have a GitHub account? If not tell me so I can help you to setup your first contribution to the Github repository. Otherwise can you upload or send me the SVG? I want to include this in the App assets",
        "user": "UV8T52QJ3",
        "ts": "1585623507.067900",
        "team": "TUU48M0T1",
        "user_team": "TUU48M0T1",
        "source_team": "TUU48M0T1",
        "user_profile": {
            "avatar_hash": "g96f14063d73",
            "image_72": "https:\/\/secure.gravatar.com\/avatar\/96f14063d73cc7867772731f881de414.jpg?s=72&d=https%3A%2F%2Fa.slack-edge.com%2Fdf10d%2Fimg%2Favatars%2Fava_0005-72.png",
            "first_name": "Hernán",
            "real_name": "Hernán Morales Durand",
            "display_name": "Hernán Morales Durand",
            "team": "TUU48M0T1",
            "name": "hernan.morales",
            "is_restricted": false,
            "is_ultra_restricted": false
        },
        "blocks": [
            {
                "type": "rich_text",
                "block_id": "Wd8",
                "elements": [
                    {
                        "type": "rich_text_section",
                        "elements": [
                            {
                                "type": "text",
                                "text": "Hey "
                            },
                            {
                                "type": "user",
                                "user_id": "U010HGKFDNE"
                            },
                            {
                                "type": "text",
                                "text": " impressive work with the logos!! I love them all! But the bright blue is the best for me "
                            },
                            {
                                "type": "emoji",
                                "name": "slightly_smiling_face"
                            },
                            {
                                "type": "text",
                                "text": " Do you have a GitHub account? If not tell me so I can help you to setup your first contribution to the Github repository. Otherwise can you upload or send me the SVG? I want to include this in the App assets"
                            }
                        ]
                    }
                ]
            }
        ],
        "thread_ts": "1585428921.036100",
        "parent_user_id": "U01072UT127"
    }
]