[
    {
        "client_msg_id": "f92781c0-86c9-4c55-8028-e7beb5502d1a",
        "type": "message",
        "text": "great idea!",
        "user": "UUWPKNE2E",
        "ts": "1584701417.127000",
        "team": "TUU48M0T1",
        "user_team": "TUU48M0T1",
        "source_team": "TUU48M0T1",
        "user_profile": {
            "avatar_hash": "f620efd9688e",
            "image_72": "https:\/\/avatars.slack-edge.com\/2020-03-12\/997456647751_f620efd9688ed753ecfc_72.jpg",
            "first_name": "Luca",
            "real_name": "Luca Haenel",
            "display_name": "Luca Haenel - JOGL Developer",
            "team": "TUU48M0T1",
            "name": "luca.haenel",
            "is_restricted": false,
            "is_ultra_restricted": false
        },
        "blocks": [
            {
                "type": "rich_text",
                "block_id": "5\/KEl",
                "elements": [
                    {
                        "type": "rich_text_section",
                        "elements": [
                            {
                                "type": "text",
                                "text": "great idea!"
                            }
                        ]
                    }
                ]
            }
        ],
        "thread_ts": "1584635813.123600",
        "parent_user_id": "UV76CQTB4"
    },
    {
        "client_msg_id": "BC6C5A03-218F-485C-B448-3B6CAC27C40E",
        "type": "message",
        "text": "<@UV02WET96>  yes! Should I do it under the covid umbrella or as a separate thing? ",
        "user": "UV76CQTB4",
        "ts": "1584723508.129200",
        "team": "TUU48M0T1",
        "user_team": "TUU48M0T1",
        "source_team": "TUU48M0T1",
        "user_profile": {
            "avatar_hash": "07668a20a751",
            "image_72": "https:\/\/avatars.slack-edge.com\/2020-03-17\/993297059666_07668a20a751afe52104_72.png",
            "first_name": "",
            "real_name": "Julie Legault",
            "display_name": "Julie Legault",
            "team": "TUU48M0T1",
            "name": "julie",
            "is_restricted": false,
            "is_ultra_restricted": false
        },
        "blocks": [
            {
                "type": "rich_text",
                "block_id": "paJ",
                "elements": [
                    {
                        "type": "rich_text_section",
                        "elements": [
                            {
                                "type": "user",
                                "user_id": "UV02WET96"
                            },
                            {
                                "type": "text",
                                "text": "  yes! Should I do it under the covid umbrella or as a separate thing? "
                            }
                        ]
                    }
                ]
            }
        ],
        "thread_ts": "1584635813.123600",
        "parent_user_id": "UV76CQTB4"
    },
    {
        "client_msg_id": "88a04509-a914-4e77-a75b-d6ac6c09234e",
        "type": "message",
        "text": "<@UV76CQTB4> it'd be great if you could put it under one the challenges for the opencovid19 program",
        "user": "UV0QTJCMT",
        "ts": "1584726798.129500",
        "team": "TUU48M0T1",
        "user_team": "TUU48M0T1",
        "source_team": "TUU48M0T1",
        "user_profile": {
            "avatar_hash": "06a6ae8f69d1",
            "image_72": "https:\/\/avatars.slack-edge.com\/2020-04-13\/1060635499315_06a6ae8f69d18f1ad464_72.png",
            "first_name": "Katherine",
            "real_name": "Katherine Holo",
            "display_name": "Kat Holo - Co-Organizer of OpenCOVID19",
            "team": "TUU48M0T1",
            "name": "katherineh245",
            "is_restricted": false,
            "is_ultra_restricted": false
        },
        "blocks": [
            {
                "type": "rich_text",
                "block_id": "DDo",
                "elements": [
                    {
                        "type": "rich_text_section",
                        "elements": [
                            {
                                "type": "user",
                                "user_id": "UV76CQTB4"
                            },
                            {
                                "type": "text",
                                "text": " it'd be great if you could put it under one the challenges for the opencovid19 program"
                            }
                        ]
                    }
                ]
            }
        ],
        "thread_ts": "1584635813.123600",
        "parent_user_id": "UV76CQTB4",
        "reactions": [
            {
                "name": "+1",
                "users": [
                    "UUWPKNE2E",
                    "UV76CQTB4"
                ],
                "count": 2
            }
        ]
    },
    {
        "client_msg_id": "be650a34-6456-4acb-a6fe-72ad83dc5983",
        "type": "message",
        "text": "The Prevention challenge would be the best I believe as you will be teaching kids about pandemic dynamics and good practices :slightly_smiling_face:",
        "user": "UV02WET96",
        "ts": "1584726992.129800",
        "team": "TUU48M0T1",
        "user_team": "TUU48M0T1",
        "source_team": "TUU48M0T1",
        "user_profile": {
            "avatar_hash": "a99c74a194f8",
            "image_72": "https:\/\/avatars.slack-edge.com\/2020-03-07\/975708504851_a99c74a194f86715ca7d_72.png",
            "first_name": "Thomas",
            "real_name": "Thomas Landrain",
            "display_name": "Thomas Landrain - JOGL CoFounder \/ CEO",
            "team": "TUU48M0T1",
            "name": "thomas",
            "is_restricted": false,
            "is_ultra_restricted": false
        },
        "edited": {
            "user": "UV02WET96",
            "ts": "1584727004.000000"
        },
        "blocks": [
            {
                "type": "rich_text",
                "block_id": "iAE",
                "elements": [
                    {
                        "type": "rich_text_section",
                        "elements": [
                            {
                                "type": "text",
                                "text": "The Prevention challenge would be the best I believe as you will be teaching kids about pandemic dynamics and good practices "
                            },
                            {
                                "type": "emoji",
                                "name": "slightly_smiling_face"
                            }
                        ]
                    }
                ]
            }
        ],
        "thread_ts": "1584635813.123600",
        "parent_user_id": "UV76CQTB4",
        "reactions": [
            {
                "name": "+1",
                "users": [
                    "UV0QTJCMT",
                    "UUWPKNE2E",
                    "UV76CQTB4"
                ],
                "count": 3
            }
        ]
    },
    {
        "client_msg_id": "313a8af1-ec85-4d6b-89bb-320e6d2f85ad",
        "type": "message",
        "text": "Done! <https:\/\/app.jogl.io\/project\/140>   I created a slack channel as well, tried to follow the naming conventions but let me know if I should modify before I announce it to others:  <#C01044Q28UB|proj-dev-edgame>",
        "user": "UV76CQTB4",
        "ts": "1584730468.130800",
        "team": "TUU48M0T1",
        "user_team": "TUU48M0T1",
        "source_team": "TUU48M0T1",
        "user_profile": {
            "avatar_hash": "07668a20a751",
            "image_72": "https:\/\/avatars.slack-edge.com\/2020-03-17\/993297059666_07668a20a751afe52104_72.png",
            "first_name": "",
            "real_name": "Julie Legault",
            "display_name": "Julie Legault",
            "team": "TUU48M0T1",
            "name": "julie",
            "is_restricted": false,
            "is_ultra_restricted": false
        },
        "attachments": [
            {
                "title": "JOGL - Just One Giant Lab",
                "title_link": "https:\/\/app.jogl.io\/project\/140",
                "text": "JOGL helps sync humanity onto solving our most important social &amp; environmental problems using open science, responsible innovation &amp; continuous learning.",
                "fallback": "JOGL - Just One Giant Lab",
                "thumb_url": "https:\/\/app.jogl.io\/planet.jpg",
                "from_url": "https:\/\/app.jogl.io\/project\/140",
                "thumb_width": 2049,
                "thumb_height": 1011,
                "service_icon": "https:\/\/app.jogl.io\/favicon.ico",
                "service_name": "app.jogl.io",
                "id": 1,
                "original_url": "https:\/\/app.jogl.io\/project\/140"
            }
        ],
        "blocks": [
            {
                "type": "rich_text",
                "block_id": "8cNuj",
                "elements": [
                    {
                        "type": "rich_text_section",
                        "elements": [
                            {
                                "type": "text",
                                "text": "Done! "
                            },
                            {
                                "type": "link",
                                "url": "https:\/\/app.jogl.io\/project\/140"
                            },
                            {
                                "type": "text",
                                "text": "   I created a slack channel as well, tried to follow the naming conventions but let me know if I should modify before I announce it to others:  "
                            },
                            {
                                "type": "channel",
                                "channel_id": "C01044Q28UB"
                            }
                        ]
                    }
                ]
            }
        ],
        "thread_ts": "1584635813.123600",
        "parent_user_id": "UV76CQTB4",
        "reactions": [
            {
                "name": "+1",
                "users": [
                    "UUWPKNE2E",
                    "UV0QTJCMT"
                ],
                "count": 2
            },
            {
                "name": "raised_hands",
                "users": [
                    "UV02WET96"
                ],
                "count": 1
            },
            {
                "name": "heart",
                "users": [
                    "UV02WET96"
                ],
                "count": 1
            }
        ]
    },
    {
        "client_msg_id": "ca1f14d4-0849-4a05-9e12-73c719d9f6b0",
        "type": "message",
        "text": "Hi <@UV0QTJCMT> I'm not sure if this will suit since it's quite simplistic.\n<https:\/\/docs.google.com\/spreadsheets\/d\/13uTe6dx3aMl9mXV5tpcynuv0fBLRorzHaWELYhCTPP0\/edit?usp=sharing>",
        "user": "U0103LPAWQ4",
        "ts": "1584732114.131300",
        "team": "TUU48M0T1",
        "user_team": "TUU48M0T1",
        "source_team": "TUU48M0T1",
        "user_profile": {
            "avatar_hash": "7b345029e813",
            "image_72": "https:\/\/avatars.slack-edge.com\/2020-03-17\/1004213082549_7b345029e8137cbdc6b0_72.jpg",
            "first_name": "Bre",
            "real_name": "Bre",
            "display_name": "Bre",
            "team": "TUU48M0T1",
            "name": "info",
            "is_restricted": false,
            "is_ultra_restricted": false
        },
        "blocks": [
            {
                "type": "rich_text",
                "block_id": "D7=",
                "elements": [
                    {
                        "type": "rich_text_section",
                        "elements": [
                            {
                                "type": "text",
                                "text": "Hi "
                            },
                            {
                                "type": "user",
                                "user_id": "UV0QTJCMT"
                            },
                            {
                                "type": "text",
                                "text": " I'm not sure if this will suit since it's quite simplistic.\n"
                            },
                            {
                                "type": "link",
                                "url": "https:\/\/docs.google.com\/spreadsheets\/d\/13uTe6dx3aMl9mXV5tpcynuv0fBLRorzHaWELYhCTPP0\/edit?usp=sharing"
                            }
                        ]
                    }
                ]
            }
        ],
        "thread_ts": "1584494263.094200",
        "parent_user_id": "U0103LPAWQ4"
    },
    {
        "client_msg_id": "d252441d-0314-4e33-b40b-71f2d0d0628d",
        "type": "message",
        "text": "<@U0103LPAWQ4> i think this is great! i'm changing the title so it's specifically for the design workgroup. there's a metastudy dev group trying to collect data on everyone's resources but this is a good place to start for this group",
        "user": "UV0QTJCMT",
        "ts": "1584732187.131600",
        "team": "TUU48M0T1",
        "user_team": "TUU48M0T1",
        "source_team": "TUU48M0T1",
        "user_profile": {
            "avatar_hash": "06a6ae8f69d1",
            "image_72": "https:\/\/avatars.slack-edge.com\/2020-04-13\/1060635499315_06a6ae8f69d18f1ad464_72.png",
            "first_name": "Katherine",
            "real_name": "Katherine Holo",
            "display_name": "Kat Holo - Co-Organizer of OpenCOVID19",
            "team": "TUU48M0T1",
            "name": "katherineh245",
            "is_restricted": false,
            "is_ultra_restricted": false
        },
        "edited": {
            "user": "UV0QTJCMT",
            "ts": "1584732201.000000"
        },
        "blocks": [
            {
                "type": "rich_text",
                "block_id": "td16",
                "elements": [
                    {
                        "type": "rich_text_section",
                        "elements": [
                            {
                                "type": "user",
                                "user_id": "U0103LPAWQ4"
                            },
                            {
                                "type": "text",
                                "text": " i think this is great! i'm changing the title so it's specifically for the design workgroup. there's a metastudy dev group trying to collect data on everyone's resources but this is a good place to start for this group"
                            }
                        ]
                    }
                ]
            }
        ],
        "thread_ts": "1584494263.094200",
        "parent_user_id": "U0103LPAWQ4"
    },
    {
        "client_msg_id": "94637094-72c1-444d-a793-2560ab219e0c",
        "type": "message",
        "text": "It's just Name, Country, and Design Resources.  Do you have a pre-existing format that I should use?",
        "user": "U0103LPAWQ4",
        "ts": "1584732191.131800",
        "team": "TUU48M0T1",
        "user_team": "TUU48M0T1",
        "source_team": "TUU48M0T1",
        "user_profile": {
            "avatar_hash": "7b345029e813",
            "image_72": "https:\/\/avatars.slack-edge.com\/2020-03-17\/1004213082549_7b345029e8137cbdc6b0_72.jpg",
            "first_name": "Bre",
            "real_name": "Bre",
            "display_name": "Bre",
            "team": "TUU48M0T1",
            "name": "info",
            "is_restricted": false,
            "is_ultra_restricted": false
        },
        "edited": {
            "user": "U0103LPAWQ4",
            "ts": "1584732207.000000"
        },
        "blocks": [
            {
                "type": "rich_text",
                "block_id": "5IRs",
                "elements": [
                    {
                        "type": "rich_text_section",
                        "elements": [
                            {
                                "type": "text",
                                "text": "It's just Name, Country, and Design Resources.  Do you have a pre-existing format that I should use?"
                            }
                        ]
                    }
                ]
            }
        ],
        "thread_ts": "1584494263.094200",
        "parent_user_id": "U0103LPAWQ4"
    },
    {
        "client_msg_id": "ceb146a3-4bbb-4882-b2e2-2f6db7949e46",
        "type": "message",
        "text": "Ok. Thanks.",
        "user": "U0103LPAWQ4",
        "ts": "1584732237.132200",
        "team": "TUU48M0T1",
        "user_team": "TUU48M0T1",
        "source_team": "TUU48M0T1",
        "user_profile": {
            "avatar_hash": "7b345029e813",
            "image_72": "https:\/\/avatars.slack-edge.com\/2020-03-17\/1004213082549_7b345029e8137cbdc6b0_72.jpg",
            "first_name": "Bre",
            "real_name": "Bre",
            "display_name": "Bre",
            "team": "TUU48M0T1",
            "name": "info",
            "is_restricted": false,
            "is_ultra_restricted": false
        },
        "blocks": [
            {
                "type": "rich_text",
                "block_id": "txj",
                "elements": [
                    {
                        "type": "rich_text_section",
                        "elements": [
                            {
                                "type": "text",
                                "text": "Ok. Thanks."
                            }
                        ]
                    }
                ]
            }
        ],
        "thread_ts": "1584494263.094200",
        "parent_user_id": "U0103LPAWQ4"
    },
    {
        "client_msg_id": "603da079-7350-4538-b7aa-62c643cd2e8a",
        "type": "message",
        "text": "i think this should work great for now :slightly_smiling_face:",
        "user": "UV0QTJCMT",
        "ts": "1584732251.132400",
        "team": "TUU48M0T1",
        "user_team": "TUU48M0T1",
        "source_team": "TUU48M0T1",
        "user_profile": {
            "avatar_hash": "06a6ae8f69d1",
            "image_72": "https:\/\/avatars.slack-edge.com\/2020-04-13\/1060635499315_06a6ae8f69d18f1ad464_72.png",
            "first_name": "Katherine",
            "real_name": "Katherine Holo",
            "display_name": "Kat Holo - Co-Organizer of OpenCOVID19",
            "team": "TUU48M0T1",
            "name": "katherineh245",
            "is_restricted": false,
            "is_ultra_restricted": false
        },
        "blocks": [
            {
                "type": "rich_text",
                "block_id": "f20g",
                "elements": [
                    {
                        "type": "rich_text_section",
                        "elements": [
                            {
                                "type": "text",
                                "text": "i think this should work great for now "
                            },
                            {
                                "type": "emoji",
                                "name": "slightly_smiling_face"
                            }
                        ]
                    }
                ]
            }
        ],
        "thread_ts": "1584494263.094200",
        "parent_user_id": "U0103LPAWQ4",
        "reactions": [
            {
                "name": "+1::skin-tone-4",
                "users": [
                    "U0103LPAWQ4"
                ],
                "count": 1
            }
        ]
    },
    {
        "type": "message",
        "text": "<!channel> -- if all the designers here could fill out this spreadsheet with the design-related resources you have, that would be amazing!",
        "user": "UV0QTJCMT",
        "ts": "1584732289.132600",
        "team": "TUU48M0T1",
        "user_team": "TUU48M0T1",
        "source_team": "TUU48M0T1",
        "user_profile": {
            "avatar_hash": "06a6ae8f69d1",
            "image_72": "https:\/\/avatars.slack-edge.com\/2020-04-13\/1060635499315_06a6ae8f69d18f1ad464_72.png",
            "first_name": "Katherine",
            "real_name": "Katherine Holo",
            "display_name": "Kat Holo - Co-Organizer of OpenCOVID19",
            "team": "TUU48M0T1",
            "name": "katherineh245",
            "is_restricted": false,
            "is_ultra_restricted": false
        },
        "attachments": [
            {
                "fallback": "[March 20th, 2020 12:21 PM] info: Hi <@UV0QTJCMT> I'm not sure if this will suit since it's quite simplistic.\n<https:\/\/docs.google.com\/spreadsheets\/d\/13uTe6dx3aMl9mXV5tpcynuv0fBLRorzHaWELYhCTPP0\/edit?usp=sharing>",
                "ts": "1584732114.131300",
                "author_id": "U0103LPAWQ4",
                "author_subname": "Bre",
                "channel_id": "C0102DVT3HV",
                "channel_name": "prgm-design-team",
                "is_msg_unfurl": true,
                "is_reply_unfurl": true,
                "text": "Hi <@UV0QTJCMT> I'm not sure if this will suit since it's quite simplistic.\n<https:\/\/docs.google.com\/spreadsheets\/d\/13uTe6dx3aMl9mXV5tpcynuv0fBLRorzHaWELYhCTPP0\/edit?usp=sharing>",
                "author_name": "Bre",
                "author_link": "https:\/\/open-covid19.slack.com\/team\/U0103LPAWQ4",
                "author_icon": "https:\/\/avatars.slack-edge.com\/2020-03-17\/1004213082549_7b345029e8137cbdc6b0_48.jpg",
                "mrkdwn_in": [
                    "text"
                ],
                "color": "D0D0D0",
                "from_url": "https:\/\/open-covid19.slack.com\/archives\/C0102DVT3HV\/p1584732114131300?thread_ts=1584494263094200&cid=C0102DVT3HV",
                "is_share": true,
                "footer": "From a thread in #prgm-design-team"
            }
        ],
        "blocks": [
            {
                "type": "rich_text",
                "block_id": "\/5ZJ",
                "elements": [
                    {
                        "type": "rich_text_section",
                        "elements": [
                            {
                                "type": "broadcast",
                                "range": "channel"
                            },
                            {
                                "type": "text",
                                "text": " -- if all the designers here could fill out this spreadsheet with the design-related resources you have, that would be amazing!"
                            }
                        ]
                    }
                ]
            }
        ],
        "thread_ts": "1584732289.132600",
        "reply_count": 7,
        "reply_users_count": 3,
        "latest_reply": "1585005590.141300",
        "reply_users": [
            "UV2SC7ZE3",
            "UV0QTJCMT",
            "U0103LPAWQ4"
        ],
        "replies": [
            {
                "user": "UV2SC7ZE3",
                "ts": "1584986727.139500"
            },
            {
                "user": "UV0QTJCMT",
                "ts": "1584987500.140200"
            },
            {
                "user": "UV2SC7ZE3",
                "ts": "1584987534.140400"
            },
            {
                "user": "UV2SC7ZE3",
                "ts": "1584987627.140700"
            },
            {
                "user": "U0103LPAWQ4",
                "ts": "1585001849.140900"
            },
            {
                "user": "U0103LPAWQ4",
                "ts": "1585003031.141100"
            },
            {
                "user": "UV2SC7ZE3",
                "ts": "1585005590.141300"
            }
        ],
        "subscribed": false
    },
    {
        "client_msg_id": "ea805ad1-3b09-4b9b-a7c5-242eca34186b",
        "type": "message",
        "text": "This is the format I used for the Resource entry\nPhotography:\nDesign &amp; Layout:\nVideo:\nIllustration:\n3D &amp; AR:\nSocial Media Software:",
        "user": "U0103LPAWQ4",
        "ts": "1584732330.132800",
        "team": "TUU48M0T1",
        "user_team": "TUU48M0T1",
        "source_team": "TUU48M0T1",
        "user_profile": {
            "avatar_hash": "7b345029e813",
            "image_72": "https:\/\/avatars.slack-edge.com\/2020-03-17\/1004213082549_7b345029e8137cbdc6b0_72.jpg",
            "first_name": "Bre",
            "real_name": "Bre",
            "display_name": "Bre",
            "team": "TUU48M0T1",
            "name": "info",
            "is_restricted": false,
            "is_ultra_restricted": false
        },
        "blocks": [
            {
                "type": "rich_text",
                "block_id": "jqu",
                "elements": [
                    {
                        "type": "rich_text_section",
                        "elements": [
                            {
                                "type": "text",
                                "text": "This is the format I used for the Resource entry\nPhotography:\nDesign & Layout:\nVideo:\nIllustration:\n3D & AR:\nSocial Media Software:"
                            }
                        ]
                    }
                ]
            }
        ],
        "thread_ts": "1584494263.094200",
        "parent_user_id": "U0103LPAWQ4"
    }
]