[
    {
        "client_msg_id": "efa61b3d-415d-473f-9d83-96cc6c6879d3",
        "type": "message",
        "text": "Hello everyone, I just started a project in JOGL <https:\/\/app.jogl.io\/project\/221?success=1> and would like to reach out to see if anyone can help. Race 2 Breathe is a platform bringing 3D printing companies and hospitals together to provide essential workers with face shields. The platform has delivered over 2000 shields in the Paris area and a USA initiative is now in the beginning stages. I need people to help reach out to companies in the US and on-board them onto the platform. Please message me if interested and I appreciate you all!",
        "user": "U010W4KTANM",
        "ts": "1587488562.005500",
        "team": "TUU48M0T1",
        "user_team": "TUU48M0T1",
        "source_team": "TUU48M0T1",
        "user_profile": {
            "avatar_hash": "5272265a95a9",
            "image_72": "https:\/\/avatars.slack-edge.com\/2020-04-07\/1052520458481_5272265a95a976c79c3e_72.jpg",
            "first_name": "",
            "real_name": "Sophie Lin",
            "display_name": "Sophie Lin",
            "team": "TUU48M0T1",
            "name": "sophie",
            "is_restricted": false,
            "is_ultra_restricted": false
        },
        "attachments": [
            {
                "title": "JOGL - Just One Giant Lab",
                "title_link": "https:\/\/app.jogl.io\/project\/221?success=1",
                "text": "JOGL helps sync humanity onto solving our most important social &amp; environmental problems using open science, responsible innovation &amp; continuous learning.",
                "fallback": "JOGL - Just One Giant Lab",
                "thumb_url": "https:\/\/app.jogl.io\/planet.jpg",
                "from_url": "https:\/\/app.jogl.io\/project\/221?success=1",
                "thumb_width": 2049,
                "thumb_height": 1011,
                "service_icon": "https:\/\/app.jogl.io\/favicon.ico",
                "service_name": "app.jogl.io",
                "id": 1,
                "original_url": "https:\/\/app.jogl.io\/project\/221?success=1"
            }
        ],
        "blocks": [
            {
                "type": "rich_text",
                "block_id": "+j0Uh",
                "elements": [
                    {
                        "type": "rich_text_section",
                        "elements": [
                            {
                                "type": "text",
                                "text": "Hello everyone, I just started a project in JOGL "
                            },
                            {
                                "type": "link",
                                "url": "https:\/\/app.jogl.io\/project\/221?success=1"
                            },
                            {
                                "type": "text",
                                "text": " and would like to reach out to see if anyone can help. Race 2 Breathe is a platform bringing 3D printing companies and hospitals together to provide essential workers with face shields. The platform has delivered over 2000 shields in the Paris area and a USA initiative is now in the beginning stages. I need people to help reach out to companies in the US and on-board them onto the platform. Please message me if interested and I appreciate you all!"
                            }
                        ]
                    }
                ]
            }
        ],
        "reactions": [
            {
                "name": "+1",
                "users": [
                    "UV02WET96"
                ],
                "count": 1
            }
        ]
    }
]