[
    {
        "type": "message",
        "subtype": "channel_join",
        "ts": "1584358200.006600",
        "user": "U01016B7KPY",
        "text": "<@U01016B7KPY> has joined the channel"
    },
    {
        "type": "message",
        "subtype": "channel_join",
        "ts": "1584359313.006800",
        "user": "UV4EY2049",
        "text": "<@UV4EY2049> has joined the channel"
    },
    {
        "type": "message",
        "subtype": "channel_join",
        "ts": "1584369899.007000",
        "user": "UV5EETE1Z",
        "text": "<@UV5EETE1Z> has joined the channel"
    },
    {
        "type": "message",
        "subtype": "channel_join",
        "ts": "1584375880.007200",
        "user": "U0102R22GNQ",
        "text": "<@U0102R22GNQ> has joined the channel"
    },
    {
        "type": "message",
        "subtype": "channel_join",
        "ts": "1584396706.007500",
        "user": "UVADMLUB0",
        "text": "<@UVADMLUB0> has joined the channel"
    },
    {
        "type": "message",
        "subtype": "channel_join",
        "ts": "1584403486.007700",
        "user": "U0106J51HN2",
        "text": "<@U0106J51HN2> has joined the channel"
    },
    {
        "client_msg_id": "710bbdd9-987e-4cf4-9b29-c8e5ef789739",
        "type": "message",
        "text": "Hello, what do we need to open a care center? testing lab?",
        "user": "U0106J51HN2",
        "ts": "1584403605.009100",
        "team": "TUU48M0T1",
        "user_team": "TUU48M0T1",
        "source_team": "TUU48M0T1",
        "user_profile": {
            "avatar_hash": "g96d9b387f30",
            "image_72": "https:\/\/secure.gravatar.com\/avatar\/96d9b387f306d5a2e8632b0f41de1616.jpg?s=72&d=https%3A%2F%2Fa.slack-edge.com%2Fdf10d%2Fimg%2Favatars%2Fava_0018-72.png",
            "first_name": "",
            "real_name": "Yann",
            "display_name": "Yann",
            "team": "TUU48M0T1",
            "name": "attie.yann",
            "is_restricted": false,
            "is_ultra_restricted": false
        },
        "blocks": [
            {
                "type": "rich_text",
                "block_id": "CR=qb",
                "elements": [
                    {
                        "type": "rich_text_section",
                        "elements": [
                            {
                                "type": "text",
                                "text": "Hello, what do we need to open a care center? testing lab?"
                            }
                        ]
                    }
                ]
            }
        ]
    },
    {
        "client_msg_id": "95a0a4d7-fc2e-4611-8400-da5359dc03aa",
        "type": "message",
        "text": "I am from Haïti and there are currently no solutions accessible to the public. I wish to help here however I can.",
        "user": "U0106J51HN2",
        "ts": "1584403637.009700",
        "team": "TUU48M0T1",
        "user_team": "TUU48M0T1",
        "source_team": "TUU48M0T1",
        "user_profile": {
            "avatar_hash": "g96d9b387f30",
            "image_72": "https:\/\/secure.gravatar.com\/avatar\/96d9b387f306d5a2e8632b0f41de1616.jpg?s=72&d=https%3A%2F%2Fa.slack-edge.com%2Fdf10d%2Fimg%2Favatars%2Fava_0018-72.png",
            "first_name": "",
            "real_name": "Yann",
            "display_name": "Yann",
            "team": "TUU48M0T1",
            "name": "attie.yann",
            "is_restricted": false,
            "is_ultra_restricted": false
        },
        "blocks": [
            {
                "type": "rich_text",
                "block_id": "ZRr",
                "elements": [
                    {
                        "type": "rich_text_section",
                        "elements": [
                            {
                                "type": "text",
                                "text": "I am from Haïti and there are currently no solutions accessible to the public. I wish to help here however I can."
                            }
                        ]
                    }
                ]
            }
        ],
        "thread_ts": "1584403637.009700",
        "reply_count": 1,
        "reply_users_count": 1,
        "latest_reply": "1585342470.001800",
        "reply_users": [
            "UV9V03C8Y"
        ],
        "replies": [
            {
                "user": "UV9V03C8Y",
                "ts": "1585342470.001800"
            }
        ],
        "subscribed": false
    },
    {
        "type": "message",
        "subtype": "channel_join",
        "ts": "1584417953.009900",
        "user": "UV76M0QQ3",
        "text": "<@UV76M0QQ3> has joined the channel"
    }
]