[
    {
        "type": "message",
        "subtype": "channel_name",
        "ts": "1585039281.000900",
        "user": "UV85V64SD",
        "text": "<@UV85V64SD> has renamed the channel from \"prgm-metastudy-recommendation-systems\" to \"prgm-metastudy-team-recommendation-system\"",
        "old_name": "prgm-metastudy-recommendation-systems",
        "name": "prgm-metastudy-team-recommendation-system"
    },
    {
        "client_msg_id": "f7982a34-2d3a-4150-8c9e-ebd02dab72eb",
        "type": "message",
        "text": "<!channel> putting here information from Pedro’s email",
        "user": "UV85V64SD",
        "ts": "1585039296.001200",
        "team": "TUU48M0T1",
        "user_team": "TUU48M0T1",
        "source_team": "TUU48M0T1",
        "user_profile": {
            "avatar_hash": "1e73a651bdfe",
            "image_72": "https:\/\/avatars.slack-edge.com\/2020-03-16\/1004297548853_1e73a651bdfef2c41501_72.jpg",
            "first_name": "Marc",
            "real_name": "Marc Santolini",
            "display_name": "Marc Santolini - JOGL CoFounder \/ CSO",
            "team": "TUU48M0T1",
            "name": "marc.santolini",
            "is_restricted": false,
            "is_ultra_restricted": false
        },
        "blocks": [
            {
                "type": "rich_text",
                "block_id": "hMYcF",
                "elements": [
                    {
                        "type": "rich_text_section",
                        "elements": [
                            {
                                "type": "broadcast",
                                "range": "channel"
                            },
                            {
                                "type": "text",
                                "text": " putting here information from Pedro’s email"
                            }
                        ]
                    }
                ]
            }
        ]
    },
    {
        "client_msg_id": "50607101-3e64-49dc-9d2e-ace84928bc19",
        "type": "message",
        "text": "1) The framework everyone’s adapting to is called Heterogeneous Information Network (HIN). It’s pretty simple, a graph with coloured nodes and edges to represent entities (users, projects, skills, locations, domains, ...) linked by different relations. It is simple, but effective, flexible, and has created a lot of cohesion and development. In my article there is a good formal presentation of what they are (Section 3). Else, there are plenty of articles, less formal, from the Recommender Systems community: <https:\/\/ieeexplore.ieee.org\/abstract\/document\/7536145>\nHIN is great because it mixes the collaborative part (user-item bipartite graph), and arbitrarily complex meta-data parts. It is also good for playing around, quickly building things that make sense based on some simple criteria \n\n2) Open HIN recommenders (recommendation that optimize for accuracy) live somewhere between production and research. A good one, very used, explainable, understandable, lightweight, is path-sim <http:\/\/citeseerx.ist.psu.edu\/viewdoc\/download?doi=10.1.1.227.9062&amp;rep=rep1&amp;type=pdf>\nA lot of other code that has come out with articles is available at: <https:\/\/github.com\/zhoushengisnoob\/HINE>\n\n3) In my code, <https:\/\/github.com\/pedroramaciotti\/HINPy>, I have implemented most of the “classic” RS (collaborative filtering, matrix factorization, etc), plus the building blocks of that allow something similar to pathsim, plus the so-called network diversity measures from the article, which is our proposal for quantifying all sorts of concentrations\/diversities that are happening in a HIN. In <https:\/\/github.com\/pedroramaciotti\/HINPy\/blob\/master\/examples\/recommender_systems_2.py>, there is a user [un]friendly example. At line 40 I tell the recommender that I want to mix three meta-paths using collaborative+meta-data on films for (actors on films, directors, and genres), equally 33% each. That gives for each user a relevance score of items that could be recommended. That example script is not yet ready to be included in the documentation, so let me know if you want to get it working.\n\nIf you want to try to use HINPy directly I can help you put together a recommender. It should be doable in a few lines once the input is in the format specified in the documentation.",
        "user": "UV85V64SD",
        "ts": "1585039298.001400",
        "team": "TUU48M0T1",
        "user_team": "TUU48M0T1",
        "source_team": "TUU48M0T1",
        "user_profile": {
            "avatar_hash": "1e73a651bdfe",
            "image_72": "https:\/\/avatars.slack-edge.com\/2020-03-16\/1004297548853_1e73a651bdfef2c41501_72.jpg",
            "first_name": "Marc",
            "real_name": "Marc Santolini",
            "display_name": "Marc Santolini - JOGL CoFounder \/ CSO",
            "team": "TUU48M0T1",
            "name": "marc.santolini",
            "is_restricted": false,
            "is_ultra_restricted": false
        },
        "attachments": [
            {
                "title": "A survey of heterogeneous information network analysis - IEEE Journals &amp; Magazine",
                "title_link": "https:\/\/ieeexplore.ieee.org\/abstract\/document\/7536145",
                "text": "Most real systems consist of a large number of interacting, multi-typed components, while most contemporary researches model them as homogeneous informatio",
                "fallback": "A survey of heterogeneous information network analysis - IEEE Journals &amp; Magazine",
                "from_url": "https:\/\/ieeexplore.ieee.org\/abstract\/document\/7536145",
                "service_icon": "https:\/\/ieeexplore.ieee.org\/favicon.ico",
                "service_name": "ieeexplore.ieee.org",
                "id": 1,
                "original_url": "https:\/\/ieeexplore.ieee.org\/abstract\/document\/7536145"
            }
        ],
        "blocks": [
            {
                "type": "rich_text",
                "block_id": "fV+\/",
                "elements": [
                    {
                        "type": "rich_text_section",
                        "elements": [
                            {
                                "type": "text",
                                "text": "1) The framework everyone’s adapting to is called Heterogeneous Information Network (HIN). It’s pretty simple, a graph with coloured nodes and edges to represent entities (users, projects, skills, locations, domains, ...) linked by different relations. It is simple, but effective, flexible, and has created a lot of cohesion and development. In my article there is a good formal presentation of what they are (Section 3). Else, there are plenty of articles, less formal, from the Recommender Systems community: "
                            },
                            {
                                "type": "link",
                                "url": "https:\/\/ieeexplore.ieee.org\/abstract\/document\/7536145"
                            },
                            {
                                "type": "text",
                                "text": "\nHIN is great because it mixes the collaborative part (user-item bipartite graph), and arbitrarily complex meta-data parts. It is also good for playing around, quickly building things that make sense based on some simple criteria \n\n2) Open HIN recommenders (recommendation that optimize for accuracy) live somewhere between production and research. A good one, very used, explainable, understandable, lightweight, is path-sim "
                            },
                            {
                                "type": "link",
                                "url": "http:\/\/citeseerx.ist.psu.edu\/viewdoc\/download?doi=10.1.1.227.9062&rep=rep1&type=pdf"
                            },
                            {
                                "type": "text",
                                "text": "\nA lot of other code that has come out with articles is available at: "
                            },
                            {
                                "type": "link",
                                "url": "https:\/\/github.com\/zhoushengisnoob\/HINE"
                            },
                            {
                                "type": "text",
                                "text": "\n\n3) In my code, "
                            },
                            {
                                "type": "link",
                                "url": "https:\/\/github.com\/pedroramaciotti\/HINPy"
                            },
                            {
                                "type": "text",
                                "text": ", I have implemented most of the “classic” RS (collaborative filtering, matrix factorization, etc), plus the building blocks of that allow something similar to pathsim, plus the so-called network diversity measures from the article, which is our proposal for quantifying all sorts of concentrations\/diversities that are happening in a HIN. In "
                            },
                            {
                                "type": "link",
                                "url": "https:\/\/github.com\/pedroramaciotti\/HINPy\/blob\/master\/examples\/recommender_systems_2.py"
                            },
                            {
                                "type": "text",
                                "text": ", there is a user [un]friendly example. At line 40 I tell the recommender that I want to mix three meta-paths using collaborative+meta-data on films for (actors on films, directors, and genres), equally 33% each. That gives for each user a relevance score of items that could be recommended. That example script is not yet ready to be included in the documentation, so let me know if you want to get it working.\n\nIf you want to try to use HINPy directly I can help you put together a recommender. It should be doable in a few lines once the input is in the format specified in the documentation."
                            }
                        ]
                    }
                ]
            }
        ]
    },
    {
        "client_msg_id": "d4738c62-033e-4a19-b79e-11eaeddb02af",
        "type": "message",
        "text": "<@U010734498S> this is supper useful! I’ll discuss this with <@UVC9WMA7N>. I think we need to  start implementing this as soon as possible. The first step will be to have data ready in the good format - once this is the case you can easily script something to plug in HINPy.",
        "user": "UV85V64SD",
        "ts": "1585039423.002600",
        "team": "TUU48M0T1",
        "user_team": "TUU48M0T1",
        "source_team": "TUU48M0T1",
        "user_profile": {
            "avatar_hash": "1e73a651bdfe",
            "image_72": "https:\/\/avatars.slack-edge.com\/2020-03-16\/1004297548853_1e73a651bdfef2c41501_72.jpg",
            "first_name": "Marc",
            "real_name": "Marc Santolini",
            "display_name": "Marc Santolini - JOGL CoFounder \/ CSO",
            "team": "TUU48M0T1",
            "name": "marc.santolini",
            "is_restricted": false,
            "is_ultra_restricted": false
        },
        "blocks": [
            {
                "type": "rich_text",
                "block_id": "KUCzI",
                "elements": [
                    {
                        "type": "rich_text_section",
                        "elements": [
                            {
                                "type": "user",
                                "user_id": "U010734498S"
                            },
                            {
                                "type": "text",
                                "text": " this is supper useful! I’ll discuss this with "
                            },
                            {
                                "type": "user",
                                "user_id": "UVC9WMA7N"
                            },
                            {
                                "type": "text",
                                "text": ". I think we need to  start implementing this as soon as possible. The first step will be to have data ready in the good format - once this is the case you can easily script something to plug in HINPy."
                            }
                        ]
                    }
                ]
            }
        ]
    },
    {
        "client_msg_id": "5c83d2fb-ee31-4763-9b00-7987a88ce28c",
        "type": "message",
        "text": "(another article, about PathSim, <http:\/\/vldb.org\/pvldb\/vol4\/p992-sun.pdf|vldb.org\/pvldb\/vol4\/p992-sun.pdf>)",
        "user": "UV85V64SD",
        "ts": "1585039919.003100",
        "team": "TUU48M0T1",
        "user_team": "TUU48M0T1",
        "source_team": "TUU48M0T1",
        "user_profile": {
            "avatar_hash": "1e73a651bdfe",
            "image_72": "https:\/\/avatars.slack-edge.com\/2020-03-16\/1004297548853_1e73a651bdfef2c41501_72.jpg",
            "first_name": "Marc",
            "real_name": "Marc Santolini",
            "display_name": "Marc Santolini - JOGL CoFounder \/ CSO",
            "team": "TUU48M0T1",
            "name": "marc.santolini",
            "is_restricted": false,
            "is_ultra_restricted": false
        },
        "blocks": [
            {
                "type": "rich_text",
                "block_id": "6bm",
                "elements": [
                    {
                        "type": "rich_text_section",
                        "elements": [
                            {
                                "type": "text",
                                "text": "(another article, about PathSim, "
                            },
                            {
                                "type": "link",
                                "url": "http:\/\/vldb.org\/pvldb\/vol4\/p992-sun.pdf",
                                "text": "vldb.org\/pvldb\/vol4\/p992-sun.pdf"
                            },
                            {
                                "type": "text",
                                "text": ")"
                            }
                        ]
                    }
                ]
            }
        ],
        "thread_ts": "1585039919.003100",
        "reply_count": 1,
        "reply_users_count": 1,
        "latest_reply": "1585050206.009800",
        "reply_users": [
            "UV85V64SD"
        ],
        "replies": [
            {
                "user": "UV85V64SD",
                "ts": "1585050206.009800"
            }
        ],
        "subscribed": false
    },
    {
        "client_msg_id": "9c6a82e5-bb15-4921-aaf3-7a29b1e457fc",
        "type": "message",
        "text": "Most studies rely on data that does not include what was recommended to users, because it is hard to stock. Thinking on future publications, it will be very interesting, if possible, to think of some data architecture that would allow for the storage of implicit and explicit signals (user saw, user clicked, etc.), but at the same time, what was presented to the user as recommendation at that particular time.",
        "user": "U010734498S",
        "ts": "1585049612.005400",
        "team": "TUU48M0T1",
        "user_team": "TUU48M0T1",
        "source_team": "TUU48M0T1",
        "user_profile": {
            "avatar_hash": "g85cae5734da",
            "image_72": "https:\/\/secure.gravatar.com\/avatar\/85cae5734dae69539dca99aa96ef691f.jpg?s=72&d=https%3A%2F%2Fa.slack-edge.com%2Fdf10d%2Fimg%2Favatars%2Fava_0011-72.png",
            "first_name": "",
            "real_name": "pedro ramaciotti",
            "display_name": "pedro ramaciotti",
            "team": "TUU48M0T1",
            "name": "pedro.ramaciotti",
            "is_restricted": false,
            "is_ultra_restricted": false
        },
        "blocks": [
            {
                "type": "rich_text",
                "block_id": "SOi",
                "elements": [
                    {
                        "type": "rich_text_section",
                        "elements": [
                            {
                                "type": "text",
                                "text": "Most studies rely on data that does not include what was recommended to users, because it is hard to stock. Thinking on future publications, it will be very interesting, if possible, to think of some data architecture that would allow for the storage of implicit and explicit signals (user saw, user clicked, etc.), but at the same time, what was presented to the user as recommendation at that particular time."
                            }
                        ]
                    }
                ]
            }
        ]
    },
    {
        "client_msg_id": "307a0ea7-9b97-4746-889c-2b87e9bd90a6",
        "type": "message",
        "text": "The portrait of the evolution of a community with those data is in itself already interesting.",
        "user": "U010734498S",
        "ts": "1585049652.006100",
        "team": "TUU48M0T1",
        "user_team": "TUU48M0T1",
        "source_team": "TUU48M0T1",
        "user_profile": {
            "avatar_hash": "g85cae5734da",
            "image_72": "https:\/\/secure.gravatar.com\/avatar\/85cae5734dae69539dca99aa96ef691f.jpg?s=72&d=https%3A%2F%2Fa.slack-edge.com%2Fdf10d%2Fimg%2Favatars%2Fava_0011-72.png",
            "first_name": "",
            "real_name": "pedro ramaciotti",
            "display_name": "pedro ramaciotti",
            "team": "TUU48M0T1",
            "name": "pedro.ramaciotti",
            "is_restricted": false,
            "is_ultra_restricted": false
        },
        "blocks": [
            {
                "type": "rich_text",
                "block_id": "tVbP",
                "elements": [
                    {
                        "type": "rich_text_section",
                        "elements": [
                            {
                                "type": "text",
                                "text": "The portrait of the evolution of a community with those data is in itself already interesting."
                            }
                        ]
                    }
                ]
            }
        ]
    },
    {
        "client_msg_id": "a5ee1092-2143-4f29-b3fc-2dab8fa46c4d",
        "type": "message",
        "text": "more so, naturally, in the context of problem solving, and not e-commerce or media content , which is the classic one",
        "user": "U010734498S",
        "ts": "1585049908.007000",
        "team": "TUU48M0T1",
        "user_team": "TUU48M0T1",
        "source_team": "TUU48M0T1",
        "user_profile": {
            "avatar_hash": "g85cae5734da",
            "image_72": "https:\/\/secure.gravatar.com\/avatar\/85cae5734dae69539dca99aa96ef691f.jpg?s=72&d=https%3A%2F%2Fa.slack-edge.com%2Fdf10d%2Fimg%2Favatars%2Fava_0011-72.png",
            "first_name": "",
            "real_name": "pedro ramaciotti",
            "display_name": "pedro ramaciotti",
            "team": "TUU48M0T1",
            "name": "pedro.ramaciotti",
            "is_restricted": false,
            "is_ultra_restricted": false
        },
        "blocks": [
            {
                "type": "rich_text",
                "block_id": "B94g",
                "elements": [
                    {
                        "type": "rich_text_section",
                        "elements": [
                            {
                                "type": "text",
                                "text": "more so, naturally, in the context of problem solving, and not e-commerce or media content , which is the classic one"
                            }
                        ]
                    }
                ]
            }
        ]
    },
    {
        "client_msg_id": "9aad047b-42c4-4db7-b70e-6194949e3111",
        "type": "message",
        "text": "using meta-path based recommendations, we can craft some common sense recommender, and put it work quickly",
        "user": "U010734498S",
        "ts": "1585049993.008000",
        "team": "TUU48M0T1",
        "user_team": "TUU48M0T1",
        "source_team": "TUU48M0T1",
        "user_profile": {
            "avatar_hash": "g85cae5734da",
            "image_72": "https:\/\/secure.gravatar.com\/avatar\/85cae5734dae69539dca99aa96ef691f.jpg?s=72&d=https%3A%2F%2Fa.slack-edge.com%2Fdf10d%2Fimg%2Favatars%2Fava_0011-72.png",
            "first_name": "",
            "real_name": "pedro ramaciotti",
            "display_name": "pedro ramaciotti",
            "team": "TUU48M0T1",
            "name": "pedro.ramaciotti",
            "is_restricted": false,
            "is_ultra_restricted": false
        },
        "blocks": [
            {
                "type": "rich_text",
                "block_id": "9w9P",
                "elements": [
                    {
                        "type": "rich_text_section",
                        "elements": [
                            {
                                "type": "text",
                                "text": "using meta-path based recommendations, we can craft some common sense recommender, and put it work quickly"
                            }
                        ]
                    }
                ]
            }
        ]
    },
    {
        "client_msg_id": "0bd417ee-2b7b-4b67-80d1-dd0445eaedc3",
        "type": "message",
        "text": "then, using network diversity measures, we can portrait the evolution of the recommended diversity, the available diversity, the *followed* diversity, produce quantitative comparisons between them, using all the semantically meaningful combination allowed by your data ontology",
        "user": "U010734498S",
        "ts": "1585050089.009700",
        "team": "TUU48M0T1",
        "user_team": "TUU48M0T1",
        "source_team": "TUU48M0T1",
        "user_profile": {
            "avatar_hash": "g85cae5734da",
            "image_72": "https:\/\/secure.gravatar.com\/avatar\/85cae5734dae69539dca99aa96ef691f.jpg?s=72&d=https%3A%2F%2Fa.slack-edge.com%2Fdf10d%2Fimg%2Favatars%2Fava_0011-72.png",
            "first_name": "",
            "real_name": "pedro ramaciotti",
            "display_name": "pedro ramaciotti",
            "team": "TUU48M0T1",
            "name": "pedro.ramaciotti",
            "is_restricted": false,
            "is_ultra_restricted": false
        },
        "blocks": [
            {
                "type": "rich_text",
                "block_id": "MaoY",
                "elements": [
                    {
                        "type": "rich_text_section",
                        "elements": [
                            {
                                "type": "text",
                                "text": "then, using network diversity measures, we can portrait the evolution of the recommended diversity, the available diversity, the "
                            },
                            {
                                "type": "text",
                                "text": "followed",
                                "style": {
                                    "bold": true
                                }
                            },
                            {
                                "type": "text",
                                "text": " diversity, produce quantitative comparisons between them, using all the semantically meaningful combination allowed by your data ontology"
                            }
                        ]
                    }
                ]
            }
        ]
    },
    {
        "client_msg_id": "67daefe3-5b4b-4ba5-bb56-c3237b042d48",
        "type": "message",
        "text": "(before answering the following <@U010734498S> and to keep track I also wanted to mention this literature about “Flash organisations” <https:\/\/hci.stanford.edu\/publications\/2017\/flashorgs\/flash-orgs-chi-2017.pdf>, do you know it? <@UVC9WMA7N> we might want to try to think more about this idea of role based team networks)",
        "user": "UV85V64SD",
        "ts": "1585050206.009800",
        "team": "TUU48M0T1",
        "user_team": "TUU48M0T1",
        "source_team": "TUU48M0T1",
        "user_profile": {
            "avatar_hash": "1e73a651bdfe",
            "image_72": "https:\/\/avatars.slack-edge.com\/2020-03-16\/1004297548853_1e73a651bdfef2c41501_72.jpg",
            "first_name": "Marc",
            "real_name": "Marc Santolini",
            "display_name": "Marc Santolini - JOGL CoFounder \/ CSO",
            "team": "TUU48M0T1",
            "name": "marc.santolini",
            "is_restricted": false,
            "is_ultra_restricted": false
        },
        "blocks": [
            {
                "type": "rich_text",
                "block_id": "7n3Y",
                "elements": [
                    {
                        "type": "rich_text_section",
                        "elements": [
                            {
                                "type": "text",
                                "text": "(before answering the following "
                            },
                            {
                                "type": "user",
                                "user_id": "U010734498S"
                            },
                            {
                                "type": "text",
                                "text": " and to keep track I also wanted to mention this literature about “Flash organisations” "
                            },
                            {
                                "type": "link",
                                "url": "https:\/\/hci.stanford.edu\/publications\/2017\/flashorgs\/flash-orgs-chi-2017.pdf"
                            },
                            {
                                "type": "text",
                                "text": ", do you know it? "
                            },
                            {
                                "type": "user",
                                "user_id": "UVC9WMA7N"
                            },
                            {
                                "type": "text",
                                "text": " we might want to try to think more about this idea of role based team networks)"
                            }
                        ]
                    }
                ]
            }
        ],
        "thread_ts": "1585039919.003100",
        "parent_user_id": "UV85V64SD"
    },
    {
        "client_msg_id": "382efec8-a2ca-408b-92f9-57c5ddffd15b",
        "type": "message",
        "text": "great",
        "user": "UV85V64SD",
        "ts": "1585050249.010100",
        "team": "TUU48M0T1",
        "user_team": "TUU48M0T1",
        "source_team": "TUU48M0T1",
        "user_profile": {
            "avatar_hash": "1e73a651bdfe",
            "image_72": "https:\/\/avatars.slack-edge.com\/2020-03-16\/1004297548853_1e73a651bdfef2c41501_72.jpg",
            "first_name": "Marc",
            "real_name": "Marc Santolini",
            "display_name": "Marc Santolini - JOGL CoFounder \/ CSO",
            "team": "TUU48M0T1",
            "name": "marc.santolini",
            "is_restricted": false,
            "is_ultra_restricted": false
        },
        "blocks": [
            {
                "type": "rich_text",
                "block_id": "cSF",
                "elements": [
                    {
                        "type": "rich_text_section",
                        "elements": [
                            {
                                "type": "text",
                                "text": "great"
                            }
                        ]
                    }
                ]
            }
        ]
    },
    {
        "client_msg_id": "7aca98ea-78ea-4682-8681-b302998c5a30",
        "type": "message",
        "text": "so we will need to build a guideline of what we have",
        "user": "UV85V64SD",
        "ts": "1585050268.010600",
        "team": "TUU48M0T1",
        "user_team": "TUU48M0T1",
        "source_team": "TUU48M0T1",
        "user_profile": {
            "avatar_hash": "1e73a651bdfe",
            "image_72": "https:\/\/avatars.slack-edge.com\/2020-03-16\/1004297548853_1e73a651bdfef2c41501_72.jpg",
            "first_name": "Marc",
            "real_name": "Marc Santolini",
            "display_name": "Marc Santolini - JOGL CoFounder \/ CSO",
            "team": "TUU48M0T1",
            "name": "marc.santolini",
            "is_restricted": false,
            "is_ultra_restricted": false
        },
        "blocks": [
            {
                "type": "rich_text",
                "block_id": "WsLO",
                "elements": [
                    {
                        "type": "rich_text_section",
                        "elements": [
                            {
                                "type": "text",
                                "text": "so we will need to build a guideline of what we have"
                            }
                        ]
                    }
                ]
            }
        ]
    },
    {
        "client_msg_id": "e6903ebe-829c-4ea5-a01e-8c24d3913fc9",
        "type": "message",
        "text": "but basically we do have all paths right now",
        "user": "UV85V64SD",
        "ts": "1585050278.011000",
        "team": "TUU48M0T1",
        "user_team": "TUU48M0T1",
        "source_team": "TUU48M0T1",
        "user_profile": {
            "avatar_hash": "1e73a651bdfe",
            "image_72": "https:\/\/avatars.slack-edge.com\/2020-03-16\/1004297548853_1e73a651bdfef2c41501_72.jpg",
            "first_name": "Marc",
            "real_name": "Marc Santolini",
            "display_name": "Marc Santolini - JOGL CoFounder \/ CSO",
            "team": "TUU48M0T1",
            "name": "marc.santolini",
            "is_restricted": false,
            "is_ultra_restricted": false
        },
        "blocks": [
            {
                "type": "rich_text",
                "block_id": "AbRf",
                "elements": [
                    {
                        "type": "rich_text_section",
                        "elements": [
                            {
                                "type": "text",
                                "text": "but basically we do have all paths right now"
                            }
                        ]
                    }
                ]
            }
        ]
    },
    {
        "client_msg_id": "5b26094d-06f5-49c1-be71-d12afdc76ae7",
        "type": "message",
        "text": "and a lot of metadata about people",
        "user": "UV85V64SD",
        "ts": "1585050284.011300",
        "team": "TUU48M0T1",
        "user_team": "TUU48M0T1",
        "source_team": "TUU48M0T1",
        "user_profile": {
            "avatar_hash": "1e73a651bdfe",
            "image_72": "https:\/\/avatars.slack-edge.com\/2020-03-16\/1004297548853_1e73a651bdfef2c41501_72.jpg",
            "first_name": "Marc",
            "real_name": "Marc Santolini",
            "display_name": "Marc Santolini - JOGL CoFounder \/ CSO",
            "team": "TUU48M0T1",
            "name": "marc.santolini",
            "is_restricted": false,
            "is_ultra_restricted": false
        },
        "blocks": [
            {
                "type": "rich_text",
                "block_id": "MEG",
                "elements": [
                    {
                        "type": "rich_text_section",
                        "elements": [
                            {
                                "type": "text",
                                "text": "and a lot of metadata about people"
                            }
                        ]
                    }
                ]
            }
        ]
    },
    {
        "client_msg_id": "78f39b11-fcbf-4dba-819b-e4c96f19e305",
        "type": "message",
        "text": "we need to\n1. build the pipeline to extract relevant paths or relevant infos\n2. pipe it into the rec system\n3. track not just the evolution of the community but some key performance indicators (i.e think of outcome of projects, or maybe sustainability \/ life time of a group…)",
        "user": "UV85V64SD",
        "ts": "1585050352.012700",
        "team": "TUU48M0T1",
        "user_team": "TUU48M0T1",
        "source_team": "TUU48M0T1",
        "user_profile": {
            "avatar_hash": "1e73a651bdfe",
            "image_72": "https:\/\/avatars.slack-edge.com\/2020-03-16\/1004297548853_1e73a651bdfef2c41501_72.jpg",
            "first_name": "Marc",
            "real_name": "Marc Santolini",
            "display_name": "Marc Santolini - JOGL CoFounder \/ CSO",
            "team": "TUU48M0T1",
            "name": "marc.santolini",
            "is_restricted": false,
            "is_ultra_restricted": false
        },
        "blocks": [
            {
                "type": "rich_text",
                "block_id": "Viv",
                "elements": [
                    {
                        "type": "rich_text_section",
                        "elements": [
                            {
                                "type": "text",
                                "text": "we need to\n"
                            }
                        ]
                    },
                    {
                        "type": "rich_text_list",
                        "elements": [
                            {
                                "type": "rich_text_section",
                                "elements": [
                                    {
                                        "type": "text",
                                        "text": "build the pipeline to extract relevant paths or relevant infos"
                                    }
                                ]
                            },
                            {
                                "type": "rich_text_section",
                                "elements": [
                                    {
                                        "type": "text",
                                        "text": "pipe it into the rec system"
                                    }
                                ]
                            },
                            {
                                "type": "rich_text_section",
                                "elements": [
                                    {
                                        "type": "text",
                                        "text": "track not just the evolution of the community but some key performance indicators (i.e think of outcome of projects, or maybe sustainability \/ life time of a group…)"
                                    }
                                ]
                            }
                        ],
                        "style": "ordered",
                        "indent": 0
                    }
                ]
            }
        ]
    },
    {
        "client_msg_id": "ad8e7e25-ae16-496a-b4b5-5f2acc011cde",
        "type": "message",
        "text": "In the spirit of point 3, and if it doesn't render the architecture of the system too cumbersome, there could be groups of users exposed to recommendations with different diversities. This is a hot topic in RS. While it is common sense that people follow recommendations to some degree, it has been difficult to produce clear experimental in-vivo results about the possibility of diversifying people's consumption.",
        "user": "U010734498S",
        "ts": "1585056391.015200",
        "team": "TUU48M0T1",
        "user_team": "TUU48M0T1",
        "source_team": "TUU48M0T1",
        "user_profile": {
            "avatar_hash": "g85cae5734da",
            "image_72": "https:\/\/secure.gravatar.com\/avatar\/85cae5734dae69539dca99aa96ef691f.jpg?s=72&d=https%3A%2F%2Fa.slack-edge.com%2Fdf10d%2Fimg%2Favatars%2Fava_0011-72.png",
            "first_name": "",
            "real_name": "pedro ramaciotti",
            "display_name": "pedro ramaciotti",
            "team": "TUU48M0T1",
            "name": "pedro.ramaciotti",
            "is_restricted": false,
            "is_ultra_restricted": false
        },
        "blocks": [
            {
                "type": "rich_text",
                "block_id": "\/iAU",
                "elements": [
                    {
                        "type": "rich_text_section",
                        "elements": [
                            {
                                "type": "text",
                                "text": "In the spirit of point 3, and if it doesn't render the architecture of the system too cumbersome, there could be groups of users exposed to recommendations with different diversities. This is a hot topic in RS. While it is common sense that people follow recommendations to some degree, it has been difficult to produce clear experimental in-vivo results about the possibility of diversifying people's consumption."
                            }
                        ]
                    }
                ]
            }
        ]
    },
    {
        "client_msg_id": "5f607d93-d2d4-489b-96d8-f38dc496eb61",
        "type": "message",
        "text": "great idea <@U010734498S> i like it",
        "user": "UV85V64SD",
        "ts": "1585057353.015500",
        "team": "TUU48M0T1",
        "user_team": "TUU48M0T1",
        "source_team": "TUU48M0T1",
        "user_profile": {
            "avatar_hash": "1e73a651bdfe",
            "image_72": "https:\/\/avatars.slack-edge.com\/2020-03-16\/1004297548853_1e73a651bdfef2c41501_72.jpg",
            "first_name": "Marc",
            "real_name": "Marc Santolini",
            "display_name": "Marc Santolini - JOGL CoFounder \/ CSO",
            "team": "TUU48M0T1",
            "name": "marc.santolini",
            "is_restricted": false,
            "is_ultra_restricted": false
        },
        "blocks": [
            {
                "type": "rich_text",
                "block_id": "18e",
                "elements": [
                    {
                        "type": "rich_text_section",
                        "elements": [
                            {
                                "type": "text",
                                "text": "great idea "
                            },
                            {
                                "type": "user",
                                "user_id": "U010734498S"
                            },
                            {
                                "type": "text",
                                "text": " i like it"
                            }
                        ]
                    }
                ]
            }
        ]
    },
    {
        "client_msg_id": "adfd6169-d1ec-4a89-b027-e99c438c0bb0",
        "type": "message",
        "text": "also i add <@UVB6ECTHR> who’s a postdoc with me (and you might know him from LIP6) who will help us work out with the link to the JOGL db",
        "user": "UV85V64SD",
        "ts": "1585057380.016200",
        "team": "TUU48M0T1",
        "user_team": "TUU48M0T1",
        "source_team": "TUU48M0T1",
        "user_profile": {
            "avatar_hash": "1e73a651bdfe",
            "image_72": "https:\/\/avatars.slack-edge.com\/2020-03-16\/1004297548853_1e73a651bdfef2c41501_72.jpg",
            "first_name": "Marc",
            "real_name": "Marc Santolini",
            "display_name": "Marc Santolini - JOGL CoFounder \/ CSO",
            "team": "TUU48M0T1",
            "name": "marc.santolini",
            "is_restricted": false,
            "is_ultra_restricted": false
        },
        "blocks": [
            {
                "type": "rich_text",
                "block_id": "5tt",
                "elements": [
                    {
                        "type": "rich_text_section",
                        "elements": [
                            {
                                "type": "text",
                                "text": "also i add "
                            },
                            {
                                "type": "user",
                                "user_id": "UVB6ECTHR"
                            },
                            {
                                "type": "text",
                                "text": " who’s a postdoc with me (and you might know him from LIP6) who will help us work out with the link to the JOGL db"
                            }
                        ]
                    }
                ]
            }
        ]
    },
    {
        "type": "message",
        "subtype": "channel_join",
        "ts": "1585057382.016400",
        "user": "UVB6ECTHR",
        "text": "<@UVB6ECTHR> has joined the channel",
        "inviter": "UV85V64SD"
    },
    {
        "type": "message",
        "subtype": "channel_join",
        "ts": "1585077843.016600",
        "user": "U010K92FMJT",
        "text": "<@U010K92FMJT> has joined the channel"
    }
]