[
    {
        "client_msg_id": "a796d0aa-ec9f-4805-a6d8-aeb5bbce1696",
        "type": "message",
        "text": "Good morning! <@UV85V64SD> I have a little PR as I skim the metastudy literature folder:  <https:\/\/gitlab.com\/JOGL\/metastudy\/-\/merge_requests\/8>",
        "user": "U01113Y1PLP",
        "ts": "1588666532.069400",
        "team": "TUU48M0T1",
        "user_team": "TUU48M0T1",
        "source_team": "TUU48M0T1",
        "user_profile": {
            "avatar_hash": "09f91663be3c",
            "image_72": "https:\/\/avatars.slack-edge.com\/2020-03-28\/1033063469301_09f91663be3c4c21e257_72.png",
            "first_name": "Luis",
            "real_name": "Luis Arias",
            "display_name": "Luis Arias",
            "team": "TUU48M0T1",
            "name": "luis603",
            "is_restricted": false,
            "is_ultra_restricted": false
        },
        "attachments": [
            {
                "service_name": "GitLab",
                "title": "Update augmented collective intelligence book (!8) · Merge Requests · Just One Giant Lab \/ Metastudy",
                "title_link": "https:\/\/gitlab.com\/JOGL\/metastudy\/-\/merge_requests\/8",
                "text": "This PR updates the Augmented Collective Intelligence book to the published version (7.4).",
                "fallback": "GitLab: Update augmented collective intelligence book (!8) · Merge Requests · Just One Giant Lab \/ Metastudy",
                "thumb_url": "https:\/\/assets.gitlab-static.net\/assets\/gitlab_logo-7ae504fe4f68fdebb3c2034e36621930cd36ea87924c11ff65dbcb8ed50dca58.png",
                "fields": [
                    {
                        "title": "Author",
                        "value": "Luis Arias",
                        "short": true
                    },
                    {
                        "title": "Assignee",
                        "value": "Luis Arias",
                        "short": true
                    }
                ],
                "from_url": "https:\/\/gitlab.com\/JOGL\/metastudy\/-\/merge_requests\/8",
                "thumb_width": 128,
                "thumb_height": 128,
                "service_icon": "https:\/\/assets.gitlab-static.net\/assets\/touch-icon-iphone-5a9cee0e8a51212e70b90c87c12f382c428870c0ff67d1eb034d884b78d2dae7.png",
                "id": 1,
                "original_url": "https:\/\/gitlab.com\/JOGL\/metastudy\/-\/merge_requests\/8"
            }
        ],
        "blocks": [
            {
                "type": "rich_text",
                "block_id": "vpL1",
                "elements": [
                    {
                        "type": "rich_text_section",
                        "elements": [
                            {
                                "type": "text",
                                "text": "Good morning! "
                            },
                            {
                                "type": "user",
                                "user_id": "UV85V64SD"
                            },
                            {
                                "type": "text",
                                "text": " I have a little PR as I skim the metastudy literature folder:  "
                            },
                            {
                                "type": "link",
                                "url": "https:\/\/gitlab.com\/JOGL\/metastudy\/-\/merge_requests\/8"
                            }
                        ]
                    }
                ]
            }
        ]
    },
    {
        "client_msg_id": "4ca68195-d58f-40b3-87dd-d9e6513ee8c7",
        "type": "message",
        "text": "<@U01113Y1PLP>\n\nI've finished the review, edits, testing, and documenting (partially)",
        "user": "UVC9WMA7N",
        "ts": "1588684643.070300",
        "team": "TUU48M0T1",
        "user_team": "TUU48M0T1",
        "source_team": "TUU48M0T1",
        "user_profile": {
            "avatar_hash": "56d14d58ed53",
            "image_72": "https:\/\/avatars.slack-edge.com\/2020-03-13\/998337892660_56d14d58ed537e6e4654_72.png",
            "first_name": "Leo",
            "real_name": "Leo Blondel",
            "display_name": "Leo Blondel - JOGL CoFounder \/ CTO",
            "team": "TUU48M0T1",
            "name": "leo",
            "is_restricted": false,
            "is_ultra_restricted": false
        },
        "blocks": [
            {
                "type": "rich_text",
                "block_id": "qSi",
                "elements": [
                    {
                        "type": "rich_text_section",
                        "elements": [
                            {
                                "type": "user",
                                "user_id": "U01113Y1PLP"
                            },
                            {
                                "type": "text",
                                "text": "\n\nI've finished the review, edits, testing, and documenting (partially)"
                            }
                        ]
                    }
                ]
            }
        ],
        "thread_ts": "1588684643.070300",
        "reply_count": 2,
        "reply_users_count": 2,
        "latest_reply": "1588686041.072400",
        "reply_users": [
            "UVC9WMA7N",
            "U01113Y1PLP"
        ],
        "replies": [
            {
                "user": "UVC9WMA7N",
                "ts": "1588685253.072200"
            },
            {
                "user": "U01113Y1PLP",
                "ts": "1588686041.072400"
            }
        ],
        "subscribed": false
    },
    {
        "client_msg_id": "ad1b04d4-0677-45a6-99b0-9fd7b22d9634",
        "type": "message",
        "text": "<https:\/\/gitlab.com\/JOGL\/jogl-recsys\/-\/merge_requests\/15>",
        "user": "UVC9WMA7N",
        "ts": "1588684643.070400",
        "team": "TUU48M0T1",
        "user_team": "TUU48M0T1",
        "source_team": "TUU48M0T1",
        "user_profile": {
            "avatar_hash": "56d14d58ed53",
            "image_72": "https:\/\/avatars.slack-edge.com\/2020-03-13\/998337892660_56d14d58ed537e6e4654_72.png",
            "first_name": "Leo",
            "real_name": "Leo Blondel",
            "display_name": "Leo Blondel - JOGL CoFounder \/ CTO",
            "team": "TUU48M0T1",
            "name": "leo",
            "is_restricted": false,
            "is_ultra_restricted": false
        },
        "attachments": [
            {
                "service_name": "GitLab",
                "title": "Feature\/betterdocker (!15) · Merge Requests · Just One Giant Lab \/ jogl-recsys",
                "title_link": "https:\/\/gitlab.com\/JOGL\/jogl-recsys\/-\/merge_requests\/15",
                "text": "slight Changes to the code architecture to make it more standardized and make the import of modules easier through the __init__.py files. Adding Documentation Adding example notebook Adding comments and...",
                "fallback": "GitLab: Feature\/betterdocker (!15) · Merge Requests · Just One Giant Lab \/ jogl-recsys",
                "thumb_url": "https:\/\/assets.gitlab-static.net\/assets\/gitlab_logo-7ae504fe4f68fdebb3c2034e36621930cd36ea87924c11ff65dbcb8ed50dca58.png",
                "fields": [
                    {
                        "title": "Author",
                        "value": "Xqua",
                        "short": true
                    }
                ],
                "from_url": "https:\/\/gitlab.com\/JOGL\/jogl-recsys\/-\/merge_requests\/15",
                "thumb_width": 128,
                "thumb_height": 128,
                "service_icon": "https:\/\/assets.gitlab-static.net\/assets\/touch-icon-iphone-5a9cee0e8a51212e70b90c87c12f382c428870c0ff67d1eb034d884b78d2dae7.png",
                "id": 1,
                "original_url": "https:\/\/gitlab.com\/JOGL\/jogl-recsys\/-\/merge_requests\/15"
            }
        ],
        "blocks": [
            {
                "type": "rich_text",
                "block_id": "2PDl",
                "elements": [
                    {
                        "type": "rich_text_section",
                        "elements": [
                            {
                                "type": "link",
                                "url": "https:\/\/gitlab.com\/JOGL\/jogl-recsys\/-\/merge_requests\/15"
                            }
                        ]
                    }
                ]
            }
        ]
    },
    {
        "client_msg_id": "bd5eed3f-7a52-45b7-a323-38bfd21a3074",
        "type": "message",
        "text": "<!channel> *Of interest to anyone who wants to play with the reccomender engine !*\n\nI created a Jupyter NB file to explain what the Heck anything does and how to make recommendations with the engine, including how to use the data stores etc !\n\nYou can find it here:\n\n<https:\/\/gitlab.com\/JOGL\/jogl-recsys\/-\/blob\/feature\/betterdocker\/jogl\/recsys\/samples\/Example_usage_of_recommender.ipynb>",
        "user": "UVC9WMA7N",
        "ts": "1588684742.072000",
        "team": "TUU48M0T1",
        "user_team": "TUU48M0T1",
        "source_team": "TUU48M0T1",
        "user_profile": {
            "avatar_hash": "56d14d58ed53",
            "image_72": "https:\/\/avatars.slack-edge.com\/2020-03-13\/998337892660_56d14d58ed537e6e4654_72.png",
            "first_name": "Leo",
            "real_name": "Leo Blondel",
            "display_name": "Leo Blondel - JOGL CoFounder \/ CTO",
            "team": "TUU48M0T1",
            "name": "leo",
            "is_restricted": false,
            "is_ultra_restricted": false
        },
        "attachments": [
            {
                "service_name": "GitLab",
                "title": "jogl\/recsys\/samples\/Example_usage_of_recommender.ipynb · feature\/betterdocker · Just One Giant Lab \/ jogl-recsys",
                "title_link": "https:\/\/gitlab.com\/JOGL\/jogl-recsys\/-\/blob\/feature\/betterdocker\/jogl\/recsys\/samples\/Example_usage_of_recommender.ipynb",
                "text": "Recommender system for the JOGL platform.",
                "fallback": "GitLab: jogl\/recsys\/samples\/Example_usage_of_recommender.ipynb · feature\/betterdocker · Just One Giant Lab \/ jogl-recsys",
                "thumb_url": "https:\/\/assets.gitlab-static.net\/assets\/gitlab_logo-7ae504fe4f68fdebb3c2034e36621930cd36ea87924c11ff65dbcb8ed50dca58.png",
                "from_url": "https:\/\/gitlab.com\/JOGL\/jogl-recsys\/-\/blob\/feature\/betterdocker\/jogl\/recsys\/samples\/Example_usage_of_recommender.ipynb",
                "thumb_width": 128,
                "thumb_height": 128,
                "service_icon": "https:\/\/assets.gitlab-static.net\/assets\/touch-icon-iphone-5a9cee0e8a51212e70b90c87c12f382c428870c0ff67d1eb034d884b78d2dae7.png",
                "id": 1,
                "original_url": "https:\/\/gitlab.com\/JOGL\/jogl-recsys\/-\/blob\/feature\/betterdocker\/jogl\/recsys\/samples\/Example_usage_of_recommender.ipynb"
            }
        ],
        "blocks": [
            {
                "type": "rich_text",
                "block_id": "dM=kZ",
                "elements": [
                    {
                        "type": "rich_text_section",
                        "elements": [
                            {
                                "type": "broadcast",
                                "range": "channel"
                            },
                            {
                                "type": "text",
                                "text": " "
                            },
                            {
                                "type": "text",
                                "text": "Of interest to anyone who wants to play with the reccomender engine !",
                                "style": {
                                    "bold": true
                                }
                            },
                            {
                                "type": "text",
                                "text": "\n\nI created a Jupyter NB file to explain what the Heck anything does and how to make recommendations with the engine, including how to use the data stores etc !\n\nYou can find it here:\n\n"
                            },
                            {
                                "type": "link",
                                "url": "https:\/\/gitlab.com\/JOGL\/jogl-recsys\/-\/blob\/feature\/betterdocker\/jogl\/recsys\/samples\/Example_usage_of_recommender.ipynb"
                            }
                        ]
                    }
                ]
            }
        ],
        "reactions": [
            {
                "name": "100",
                "users": [
                    "U01113Y1PLP"
                ],
                "count": 1
            }
        ]
    },
    {
        "client_msg_id": "08c936f5-9f91-47cc-9ab5-7082d44d439f",
        "type": "message",
        "text": "I'll leave it open for reviews until tmrw !",
        "user": "UVC9WMA7N",
        "ts": "1588685253.072200",
        "team": "TUU48M0T1",
        "user_team": "TUU48M0T1",
        "source_team": "TUU48M0T1",
        "user_profile": {
            "avatar_hash": "56d14d58ed53",
            "image_72": "https:\/\/avatars.slack-edge.com\/2020-03-13\/998337892660_56d14d58ed537e6e4654_72.png",
            "first_name": "Leo",
            "real_name": "Leo Blondel",
            "display_name": "Leo Blondel - JOGL CoFounder \/ CTO",
            "team": "TUU48M0T1",
            "name": "leo",
            "is_restricted": false,
            "is_ultra_restricted": false
        },
        "blocks": [
            {
                "type": "rich_text",
                "block_id": "nA2ZA",
                "elements": [
                    {
                        "type": "rich_text_section",
                        "elements": [
                            {
                                "type": "text",
                                "text": "I'll leave it open for reviews until tmrw !"
                            }
                        ]
                    }
                ]
            }
        ],
        "thread_ts": "1588684643.070300",
        "parent_user_id": "UVC9WMA7N"
    },
    {
        "client_msg_id": "c8433b36-0381-4d0f-b598-b3233cc07585",
        "type": "message",
        "text": "Ah cool, I'll jump in as soon as I have a moment.",
        "user": "U01113Y1PLP",
        "ts": "1588686041.072400",
        "team": "TUU48M0T1",
        "user_team": "TUU48M0T1",
        "source_team": "TUU48M0T1",
        "user_profile": {
            "avatar_hash": "09f91663be3c",
            "image_72": "https:\/\/avatars.slack-edge.com\/2020-03-28\/1033063469301_09f91663be3c4c21e257_72.png",
            "first_name": "Luis",
            "real_name": "Luis Arias",
            "display_name": "Luis Arias",
            "team": "TUU48M0T1",
            "name": "luis603",
            "is_restricted": false,
            "is_ultra_restricted": false
        },
        "blocks": [
            {
                "type": "rich_text",
                "block_id": "Oefn",
                "elements": [
                    {
                        "type": "rich_text_section",
                        "elements": [
                            {
                                "type": "text",
                                "text": "Ah cool, I'll jump in as soon as I have a moment."
                            }
                        ]
                    }
                ]
            }
        ],
        "thread_ts": "1588684643.070300",
        "parent_user_id": "UVC9WMA7N"
    },
    {
        "type": "message",
        "text": "",
        "files": [
            {
                "id": "F0133QEL90S",
                "created": 1588714332,
                "timestamp": 1588714332,
                "name": "image.png",
                "title": "image.png",
                "mimetype": "image\/png",
                "filetype": "png",
                "pretty_type": "PNG",
                "user": "UVC9WMA7N",
                "editable": false,
                "size": 49719,
                "mode": "hosted",
                "is_external": false,
                "external_type": "",
                "is_public": true,
                "public_url_shared": false,
                "display_as_bot": false,
                "username": "",
                "url_private": "https:\/\/files.slack.com\/files-pri\/TUU48M0T1-F0133QEL90S\/image.png?t=xoxe-980144714919-1106606678066-1105227127893-6f722bb664235052954ad46852628b64",
                "url_private_download": "https:\/\/files.slack.com\/files-pri\/TUU48M0T1-F0133QEL90S\/download\/image.png?t=xoxe-980144714919-1106606678066-1105227127893-6f722bb664235052954ad46852628b64",
                "thumb_64": "https:\/\/files.slack.com\/files-tmb\/TUU48M0T1-F0133QEL90S-64633a562d\/image_64.png?t=xoxe-980144714919-1106606678066-1105227127893-6f722bb664235052954ad46852628b64",
                "thumb_80": "https:\/\/files.slack.com\/files-tmb\/TUU48M0T1-F0133QEL90S-64633a562d\/image_80.png?t=xoxe-980144714919-1106606678066-1105227127893-6f722bb664235052954ad46852628b64",
                "thumb_360": "https:\/\/files.slack.com\/files-tmb\/TUU48M0T1-F0133QEL90S-64633a562d\/image_360.png?t=xoxe-980144714919-1106606678066-1105227127893-6f722bb664235052954ad46852628b64",
                "thumb_360_w": 360,
                "thumb_360_h": 63,
                "thumb_480": "https:\/\/files.slack.com\/files-tmb\/TUU48M0T1-F0133QEL90S-64633a562d\/image_480.png?t=xoxe-980144714919-1106606678066-1105227127893-6f722bb664235052954ad46852628b64",
                "thumb_480_w": 480,
                "thumb_480_h": 83,
                "thumb_160": "https:\/\/files.slack.com\/files-tmb\/TUU48M0T1-F0133QEL90S-64633a562d\/image_160.png?t=xoxe-980144714919-1106606678066-1105227127893-6f722bb664235052954ad46852628b64",
                "thumb_720": "https:\/\/files.slack.com\/files-tmb\/TUU48M0T1-F0133QEL90S-64633a562d\/image_720.png?t=xoxe-980144714919-1106606678066-1105227127893-6f722bb664235052954ad46852628b64",
                "thumb_720_w": 720,
                "thumb_720_h": 125,
                "thumb_800": "https:\/\/files.slack.com\/files-tmb\/TUU48M0T1-F0133QEL90S-64633a562d\/image_800.png?t=xoxe-980144714919-1106606678066-1105227127893-6f722bb664235052954ad46852628b64",
                "thumb_800_w": 800,
                "thumb_800_h": 139,
                "thumb_960": "https:\/\/files.slack.com\/files-tmb\/TUU48M0T1-F0133QEL90S-64633a562d\/image_960.png?t=xoxe-980144714919-1106606678066-1105227127893-6f722bb664235052954ad46852628b64",
                "thumb_960_w": 960,
                "thumb_960_h": 167,
                "thumb_1024": "https:\/\/files.slack.com\/files-tmb\/TUU48M0T1-F0133QEL90S-64633a562d\/image_1024.png?t=xoxe-980144714919-1106606678066-1105227127893-6f722bb664235052954ad46852628b64",
                "thumb_1024_w": 1024,
                "thumb_1024_h": 178,
                "original_w": 1213,
                "original_h": 211,
                "thumb_tiny": "AwAIADDNPWlpD1paGISkNLRSATmilopgf\/\/Z",
                "permalink": "https:\/\/open-covid19.slack.com\/files\/UVC9WMA7N\/F0133QEL90S\/image.png",
                "permalink_public": "https:\/\/slack-files.com\/TUU48M0T1-F0133QEL90S-c5c405b4f9",
                "is_starred": false,
                "has_rich_preview": false
            }
        ],
        "upload": true,
        "user": "UVC9WMA7N",
        "display_as_bot": false,
        "ts": "1588714335.072700",
        "client_msg_id": "d92e7792-25ab-4a8e-900a-145b7fbdb4ad"
    },
    {
        "type": "message",
        "text": "",
        "files": [
            {
                "id": "F013GDBU9CH",
                "created": 1588714352,
                "timestamp": 1588714352,
                "name": "RecSysUp.gif",
                "title": "RecSysUp.gif",
                "mimetype": "image\/gif",
                "filetype": "gif",
                "pretty_type": "GIF",
                "user": "UVC9WMA7N",
                "editable": false,
                "size": 4413031,
                "mode": "hosted",
                "is_external": false,
                "external_type": "",
                "is_public": true,
                "public_url_shared": false,
                "display_as_bot": false,
                "username": "",
                "url_private": "https:\/\/files.slack.com\/files-pri\/TUU48M0T1-F013GDBU9CH\/recsysup.gif?t=xoxe-980144714919-1106606678066-1105227127893-6f722bb664235052954ad46852628b64",
                "url_private_download": "https:\/\/files.slack.com\/files-pri\/TUU48M0T1-F013GDBU9CH\/download\/recsysup.gif?t=xoxe-980144714919-1106606678066-1105227127893-6f722bb664235052954ad46852628b64",
                "thumb_64": "https:\/\/files.slack.com\/files-tmb\/TUU48M0T1-F013GDBU9CH-45e66ffbd1\/recsysup_64.png?t=xoxe-980144714919-1106606678066-1105227127893-6f722bb664235052954ad46852628b64",
                "thumb_80": "https:\/\/files.slack.com\/files-tmb\/TUU48M0T1-F013GDBU9CH-45e66ffbd1\/recsysup_80.png?t=xoxe-980144714919-1106606678066-1105227127893-6f722bb664235052954ad46852628b64",
                "thumb_360": "https:\/\/files.slack.com\/files-tmb\/TUU48M0T1-F013GDBU9CH-45e66ffbd1\/recsysup_360.png?t=xoxe-980144714919-1106606678066-1105227127893-6f722bb664235052954ad46852628b64",
                "thumb_360_w": 360,
                "thumb_360_h": 210,
                "thumb_480": "https:\/\/files.slack.com\/files-tmb\/TUU48M0T1-F013GDBU9CH-45e66ffbd1\/recsysup_480.png?t=xoxe-980144714919-1106606678066-1105227127893-6f722bb664235052954ad46852628b64",
                "thumb_480_w": 480,
                "thumb_480_h": 281,
                "thumb_160": "https:\/\/files.slack.com\/files-tmb\/TUU48M0T1-F013GDBU9CH-45e66ffbd1\/recsysup_160.png?t=xoxe-980144714919-1106606678066-1105227127893-6f722bb664235052954ad46852628b64",
                "thumb_720": "https:\/\/files.slack.com\/files-tmb\/TUU48M0T1-F013GDBU9CH-45e66ffbd1\/recsysup_720.png?t=xoxe-980144714919-1106606678066-1105227127893-6f722bb664235052954ad46852628b64",
                "thumb_720_w": 720,
                "thumb_720_h": 421,
                "thumb_800": "https:\/\/files.slack.com\/files-tmb\/TUU48M0T1-F013GDBU9CH-45e66ffbd1\/recsysup_800.png?t=xoxe-980144714919-1106606678066-1105227127893-6f722bb664235052954ad46852628b64",
                "thumb_800_w": 800,
                "thumb_800_h": 468,
                "thumb_960": "https:\/\/files.slack.com\/files-tmb\/TUU48M0T1-F013GDBU9CH-45e66ffbd1\/recsysup_960.png?t=xoxe-980144714919-1106606678066-1105227127893-6f722bb664235052954ad46852628b64",
                "thumb_960_w": 960,
                "thumb_960_h": 561,
                "thumb_1024": "https:\/\/files.slack.com\/files-tmb\/TUU48M0T1-F013GDBU9CH-45e66ffbd1\/recsysup_1024.png?t=xoxe-980144714919-1106606678066-1105227127893-6f722bb664235052954ad46852628b64",
                "thumb_1024_w": 1024,
                "thumb_1024_h": 599,
                "thumb_360_gif": "https:\/\/files.slack.com\/files-tmb\/TUU48M0T1-F013GDBU9CH-45e66ffbd1\/recsysup_360.gif?t=xoxe-980144714919-1106606678066-1105227127893-6f722bb664235052954ad46852628b64",
                "thumb_480_gif": "https:\/\/files.slack.com\/files-tmb\/TUU48M0T1-F013GDBU9CH-45e66ffbd1\/recsysup_480.gif?t=xoxe-980144714919-1106606678066-1105227127893-6f722bb664235052954ad46852628b64",
                "original_w": 1507,
                "original_h": 881,
                "deanimate_gif": "https:\/\/files.slack.com\/files-tmb\/TUU48M0T1-F013GDBU9CH-45e66ffbd1\/recsysup_deanimate_gif.png?t=xoxe-980144714919-1106606678066-1105227127893-6f722bb664235052954ad46852628b64",
                "thumb_tiny": "AwAcADDRxS496WigBMe9GPelooATHvSbeepp1FABRRRQAUUUUAFFFFAH\/9k=",
                "permalink": "https:\/\/open-covid19.slack.com\/files\/UVC9WMA7N\/F013GDBU9CH\/recsysup.gif",
                "permalink_public": "https:\/\/slack-files.com\/TUU48M0T1-F013GDBU9CH-9bbdf706df",
                "is_starred": false,
                "has_rich_preview": false
            }
        ],
        "upload": true,
        "user": "UVC9WMA7N",
        "display_as_bot": false,
        "ts": "1588714356.073100",
        "client_msg_id": "c09ca37c-dfdb-46a3-8bbf-fe5ccfaab747"
    },
    {
        "client_msg_id": "68764928-4ca9-441c-9c3d-308c465e854a",
        "type": "message",
        "text": "RecSys done, tested, functional, CRON job once a day, could be higher",
        "user": "UVC9WMA7N",
        "ts": "1588714376.073800",
        "team": "TUU48M0T1",
        "user_team": "TUU48M0T1",
        "source_team": "TUU48M0T1",
        "user_profile": {
            "avatar_hash": "56d14d58ed53",
            "image_72": "https:\/\/avatars.slack-edge.com\/2020-03-13\/998337892660_56d14d58ed537e6e4654_72.png",
            "first_name": "Leo",
            "real_name": "Leo Blondel",
            "display_name": "Leo Blondel - JOGL CoFounder \/ CTO",
            "team": "TUU48M0T1",
            "name": "leo",
            "is_restricted": false,
            "is_ultra_restricted": false
        },
        "blocks": [
            {
                "type": "rich_text",
                "block_id": "89K",
                "elements": [
                    {
                        "type": "rich_text_section",
                        "elements": [
                            {
                                "type": "text",
                                "text": "RecSys done, tested, functional, CRON job once a day, could be higher"
                            }
                        ]
                    }
                ]
            }
        ],
        "reactions": [
            {
                "name": "exploding_head",
                "users": [
                    "U01113Y1PLP"
                ],
                "count": 1
            }
        ]
    },
    {
        "client_msg_id": "d2c77235-5219-4446-8c77-d543569d904a",
        "type": "message",
        "text": "Testing in Dev env starting in 30 min or so",
        "user": "UVC9WMA7N",
        "ts": "1588714389.074100",
        "team": "TUU48M0T1",
        "user_team": "TUU48M0T1",
        "source_team": "TUU48M0T1",
        "user_profile": {
            "avatar_hash": "56d14d58ed53",
            "image_72": "https:\/\/avatars.slack-edge.com\/2020-03-13\/998337892660_56d14d58ed537e6e4654_72.png",
            "first_name": "Leo",
            "real_name": "Leo Blondel",
            "display_name": "Leo Blondel - JOGL CoFounder \/ CTO",
            "team": "TUU48M0T1",
            "name": "leo",
            "is_restricted": false,
            "is_ultra_restricted": false
        },
        "blocks": [
            {
                "type": "rich_text",
                "block_id": "mAnCw",
                "elements": [
                    {
                        "type": "rich_text_section",
                        "elements": [
                            {
                                "type": "text",
                                "text": "Testing in Dev env starting in 30 min or so"
                            }
                        ]
                    }
                ]
            }
        ]
    },
    {
        "client_msg_id": "22252453-70a9-4216-a967-f6da97d7cac6",
        "type": "message",
        "text": "For anyone interested in what happened in the backend code to make this happen:\n\n<https:\/\/gitlab.com\/JOGL\/backend-v0.1\/-\/merge_requests\/20>",
        "user": "UVC9WMA7N",
        "ts": "1588714818.074500",
        "team": "TUU48M0T1",
        "user_team": "TUU48M0T1",
        "source_team": "TUU48M0T1",
        "user_profile": {
            "avatar_hash": "56d14d58ed53",
            "image_72": "https:\/\/avatars.slack-edge.com\/2020-03-13\/998337892660_56d14d58ed537e6e4654_72.png",
            "first_name": "Leo",
            "real_name": "Leo Blondel",
            "display_name": "Leo Blondel - JOGL CoFounder \/ CTO",
            "team": "TUU48M0T1",
            "name": "leo",
            "is_restricted": false,
            "is_ultra_restricted": false
        },
        "blocks": [
            {
                "type": "rich_text",
                "block_id": "\/Z\/hJ",
                "elements": [
                    {
                        "type": "rich_text_section",
                        "elements": [
                            {
                                "type": "text",
                                "text": "For anyone interested in what happened in the backend code to make this happen:\n\n"
                            },
                            {
                                "type": "link",
                                "url": "https:\/\/gitlab.com\/JOGL\/backend-v0.1\/-\/merge_requests\/20"
                            }
                        ]
                    }
                ]
            }
        ]
    }
]