[
    {
        "type": "message",
        "subtype": "channel_join",
        "ts": "1585219971.000600",
        "user": "UVABNG1A9",
        "text": "<@UVABNG1A9> has joined the channel"
    },
    {
        "type": "message",
        "subtype": "channel_join",
        "ts": "1585221451.001100",
        "user": "UV9V03C8Y",
        "text": "<@UV9V03C8Y> has joined the channel"
    },
    {
        "client_msg_id": "40d6e76b-ae5a-4504-a7f3-aa8cb6ee2375",
        "type": "message",
        "text": "If you have settled on an network-like ontology for the available data, I would be happy to discuss how to exploit it in a HIN RS. And if you have a dump file in HINPy format (something to test a prototype, &lt;10MB, for example), I can try put an example script over the weekend doing a simple semantic-based recommendation and maybe even some performance metrics (accuracy and diversity).",
        "user": "U010734498S",
        "ts": "1585221630.003500",
        "team": "TUU48M0T1",
        "user_team": "TUU48M0T1",
        "source_team": "TUU48M0T1",
        "user_profile": {
            "avatar_hash": "g85cae5734da",
            "image_72": "https:\/\/secure.gravatar.com\/avatar\/85cae5734dae69539dca99aa96ef691f.jpg?s=72&d=https%3A%2F%2Fa.slack-edge.com%2Fdf10d%2Fimg%2Favatars%2Fava_0011-72.png",
            "first_name": "",
            "real_name": "pedro ramaciotti",
            "display_name": "pedro ramaciotti",
            "team": "TUU48M0T1",
            "name": "pedro.ramaciotti",
            "is_restricted": false,
            "is_ultra_restricted": false
        },
        "blocks": [
            {
                "type": "rich_text",
                "block_id": "KTSCU",
                "elements": [
                    {
                        "type": "rich_text_section",
                        "elements": [
                            {
                                "type": "text",
                                "text": "If you have settled on an network-like ontology for the available data, I would be happy to discuss how to exploit it in a HIN RS. And if you have a dump file in HINPy format (something to test a prototype, <10MB, for example), I can try put an example script over the weekend doing a simple semantic-based recommendation and maybe even some performance metrics (accuracy and diversity)."
                            }
                        ]
                    }
                ]
            }
        ]
    },
    {
        "client_msg_id": "040c977c-7a6e-4fdd-8cc4-8a664010a3da",
        "type": "message",
        "text": "Hey <@U010734498S> you can check here <https:\/\/gitlab.com\/JOGL\/metastudy\/-\/tree\/master\/JOGL%20network>",
        "user": "UV85V64SD",
        "ts": "1585237250.003800",
        "team": "TUU48M0T1",
        "user_team": "TUU48M0T1",
        "source_team": "TUU48M0T1",
        "user_profile": {
            "avatar_hash": "1e73a651bdfe",
            "image_72": "https:\/\/avatars.slack-edge.com\/2020-03-16\/1004297548853_1e73a651bdfef2c41501_72.jpg",
            "first_name": "Marc",
            "real_name": "Marc Santolini",
            "display_name": "Marc Santolini - JOGL CoFounder \/ CSO",
            "team": "TUU48M0T1",
            "name": "marc.santolini",
            "is_restricted": false,
            "is_ultra_restricted": false
        },
        "attachments": [
            {
                "service_name": "GitLab",
                "title": "JOGL network · master · Just One Giant Lab \/ Metastudy",
                "title_link": "https:\/\/gitlab.com\/JOGL\/metastudy\/-\/tree\/master\/JOGL%20network",
                "text": "Metastudy of the OpenCovid community organisation and response",
                "fallback": "GitLab: JOGL network · master · Just One Giant Lab \/ Metastudy",
                "thumb_url": "https:\/\/assets.gitlab-static.net\/assets\/gitlab_logo-7ae504fe4f68fdebb3c2034e36621930cd36ea87924c11ff65dbcb8ed50dca58.png",
                "from_url": "https:\/\/gitlab.com\/JOGL\/metastudy\/-\/tree\/master\/JOGL%20network",
                "thumb_width": 128,
                "thumb_height": 128,
                "service_icon": "https:\/\/assets.gitlab-static.net\/assets\/touch-icon-iphone-5a9cee0e8a51212e70b90c87c12f382c428870c0ff67d1eb034d884b78d2dae7.png",
                "id": 1,
                "original_url": "https:\/\/gitlab.com\/JOGL\/metastudy\/-\/tree\/master\/JOGL%20network"
            }
        ],
        "blocks": [
            {
                "type": "rich_text",
                "block_id": "V3B",
                "elements": [
                    {
                        "type": "rich_text_section",
                        "elements": [
                            {
                                "type": "text",
                                "text": "Hey "
                            },
                            {
                                "type": "user",
                                "user_id": "U010734498S"
                            },
                            {
                                "type": "text",
                                "text": " you can check here "
                            },
                            {
                                "type": "link",
                                "url": "https:\/\/gitlab.com\/JOGL\/metastudy\/-\/tree\/master\/JOGL%20network"
                            }
                        ]
                    }
                ]
            }
        ]
    },
    {
        "client_msg_id": "aae7fe8c-240e-4e9b-aa68-556f8059e28d",
        "type": "message",
        "text": "there is a network with all ontologies of nodes and links",
        "user": "UV85V64SD",
        "ts": "1585237265.004200",
        "team": "TUU48M0T1",
        "user_team": "TUU48M0T1",
        "source_team": "TUU48M0T1",
        "user_profile": {
            "avatar_hash": "1e73a651bdfe",
            "image_72": "https:\/\/avatars.slack-edge.com\/2020-03-16\/1004297548853_1e73a651bdfef2c41501_72.jpg",
            "first_name": "Marc",
            "real_name": "Marc Santolini",
            "display_name": "Marc Santolini - JOGL CoFounder \/ CSO",
            "team": "TUU48M0T1",
            "name": "marc.santolini",
            "is_restricted": false,
            "is_ultra_restricted": false
        },
        "blocks": [
            {
                "type": "rich_text",
                "block_id": "kUR",
                "elements": [
                    {
                        "type": "rich_text_section",
                        "elements": [
                            {
                                "type": "text",
                                "text": "there is a network with all ontologies of nodes and links"
                            }
                        ]
                    }
                ]
            }
        ]
    },
    {
        "client_msg_id": "8fb44f93-e5a6-4324-ae71-7d1f282c5718",
        "type": "message",
        "text": "Great. I’ll check it out.",
        "user": "U010734498S",
        "ts": "1585238352.004800",
        "team": "TUU48M0T1",
        "user_team": "TUU48M0T1",
        "source_team": "TUU48M0T1",
        "user_profile": {
            "avatar_hash": "g85cae5734da",
            "image_72": "https:\/\/secure.gravatar.com\/avatar\/85cae5734dae69539dca99aa96ef691f.jpg?s=72&d=https%3A%2F%2Fa.slack-edge.com%2Fdf10d%2Fimg%2Favatars%2Fava_0011-72.png",
            "first_name": "",
            "real_name": "pedro ramaciotti",
            "display_name": "pedro ramaciotti",
            "team": "TUU48M0T1",
            "name": "pedro.ramaciotti",
            "is_restricted": false,
            "is_ultra_restricted": false
        },
        "blocks": [
            {
                "type": "rich_text",
                "block_id": "Ayj4",
                "elements": [
                    {
                        "type": "rich_text_section",
                        "elements": [
                            {
                                "type": "text",
                                "text": "Great. I’ll check it out."
                            }
                        ]
                    }
                ]
            }
        ]
    }
]