[
    {
        "type": "message",
        "text": "",
        "user": "UV85V64SD",
        "ts": "1588574337.023700",
        "team": "TUU48M0T1",
        "user_team": "TUU48M0T1",
        "source_team": "TUU48M0T1",
        "user_profile": {
            "avatar_hash": "1e73a651bdfe",
            "image_72": "https:\/\/avatars.slack-edge.com\/2020-03-16\/1004297548853_1e73a651bdfef2c41501_72.jpg",
            "first_name": "Marc",
            "real_name": "Marc Santolini",
            "display_name": "Marc Santolini - JOGL CoFounder \/ CSO",
            "team": "TUU48M0T1",
            "name": "marc.santolini",
            "is_restricted": false,
            "is_ultra_restricted": false
        },
        "attachments": [
            {
                "fallback": "[May 4th, 2020 8:38 AM] marc.santolini: hey <!channel> ! I have meetings until 6pm today so I will need to move the 5pm recsys meeting to 6pm. What I propose is the following:\n• we merge the recsys and slack meetings today, 6pm to 7pm CET here: <https:\/\/us02web.zoom.us\/j\/87110731777>\n• the goal of today’s meeting is to come to a close on technicalities: what is left to do on recsys, and what is left to do on dashboard building\n• beginning next week, I would like to shift to a more research-driven approach, with the idea to spend the next few months deciphering the processes that we have observed and quantified on the slack and JOGL, and conduct the recsys experiment. We will begin with journal clubs, with <@U010734498S> talking about recsys research, and <@U010B412MF1> talking about augmented collective intelligence.\n• see you later!",
                "ts": "1588574315.179000",
                "author_id": "UV85V64SD",
                "author_subname": "Marc Santolini",
                "channel_id": "CV48ZESEP",
                "channel_name": "prgm-metastudy-team",
                "is_msg_unfurl": true,
                "text": "hey <!channel> ! I have meetings until 6pm today so I will need to move the 5pm recsys meeting to 6pm. What I propose is the following:\n• we merge the recsys and slack meetings today, 6pm to 7pm CET here: <https:\/\/us02web.zoom.us\/j\/87110731777>\n• the goal of today’s meeting is to come to a close on technicalities: what is left to do on recsys, and what is left to do on dashboard building\n• beginning next week, I would like to shift to a more research-driven approach, with the idea to spend the next few months deciphering the processes that we have observed and quantified on the slack and JOGL, and conduct the recsys experiment. We will begin with journal clubs, with <@U010734498S> talking about recsys research, and <@U010B412MF1> talking about augmented collective intelligence.\n• see you later!",
                "author_name": "Marc Santolini",
                "author_link": "https:\/\/open-covid19.slack.com\/team\/UV85V64SD",
                "author_icon": "https:\/\/avatars.slack-edge.com\/2020-03-16\/1004297548853_1e73a651bdfef2c41501_48.jpg",
                "mrkdwn_in": [
                    "text"
                ],
                "color": "D0D0D0",
                "from_url": "https:\/\/open-covid19.slack.com\/archives\/CV48ZESEP\/p1588574315179000",
                "is_share": true,
                "footer": "Posted in #prgm-metastudy-team"
            }
        ],
        "reactions": [
            {
                "name": "+1",
                "users": [
                    "U01113Y1PLP"
                ],
                "count": 1
            }
        ]
    }
]