[
    {
        "type": "message",
        "subtype": "channel_join",
        "ts": "1586361238.000200",
        "user": "U0108UAAUQM",
        "text": "<@U0108UAAUQM> has joined the channel"
    },
    {
        "type": "message",
        "subtype": "channel_purpose",
        "ts": "1586361239.000300",
        "user": "U0108UAAUQM",
        "text": "<@U0108UAAUQM> set the channel purpose: Designing surveys and questionnaires to understand the JOGL\/OpenCOVID19 community.",
        "purpose": "Designing surveys and questionnaires to understand the JOGL\/OpenCOVID19 community."
    },
    {
        "type": "message",
        "subtype": "channel_join",
        "ts": "1586361285.000500",
        "user": "UV85V64SD",
        "text": "<@UV85V64SD> has joined the channel",
        "inviter": "U0108UAAUQM"
    },
    {
        "type": "message",
        "subtype": "channel_join",
        "ts": "1586361285.000700",
        "user": "UVABNG1A9",
        "text": "<@UVABNG1A9> has joined the channel",
        "inviter": "U0108UAAUQM"
    },
    {
        "type": "message",
        "subtype": "channel_join",
        "ts": "1586361286.000900",
        "user": "UVATPEW2W",
        "text": "<@UVATPEW2W> has joined the channel",
        "inviter": "U0108UAAUQM"
    },
    {
        "type": "message",
        "subtype": "channel_join",
        "ts": "1586361286.001100",
        "user": "U0101DKUALV",
        "text": "<@U0101DKUALV> has joined the channel",
        "inviter": "U0108UAAUQM"
    },
    {
        "type": "message",
        "subtype": "channel_join",
        "ts": "1586361286.001300",
        "user": "U010HTBUHS9",
        "text": "<@U010HTBUHS9> has joined the channel",
        "inviter": "U0108UAAUQM"
    },
    {
        "type": "message",
        "subtype": "channel_join",
        "ts": "1586361286.001500",
        "user": "UV8AZ6ABC",
        "text": "<@UV8AZ6ABC> has joined the channel",
        "inviter": "U0108UAAUQM"
    },
    {
        "client_msg_id": "ee9dc3a2-d9e8-4003-88db-9521386ce2ba",
        "type": "message",
        "text": "awesome <@U0108UAAUQM>",
        "user": "UV85V64SD",
        "ts": "1586361613.001700",
        "team": "TUU48M0T1",
        "user_team": "TUU48M0T1",
        "source_team": "TUU48M0T1",
        "user_profile": {
            "avatar_hash": "1e73a651bdfe",
            "image_72": "https:\/\/avatars.slack-edge.com\/2020-03-16\/1004297548853_1e73a651bdfef2c41501_72.jpg",
            "first_name": "Marc",
            "real_name": "Marc Santolini",
            "display_name": "Marc Santolini - JOGL CoFounder \/ CSO",
            "team": "TUU48M0T1",
            "name": "marc.santolini",
            "is_restricted": false,
            "is_ultra_restricted": false
        },
        "blocks": [
            {
                "type": "rich_text",
                "block_id": "XDcu",
                "elements": [
                    {
                        "type": "rich_text_section",
                        "elements": [
                            {
                                "type": "text",
                                "text": "awesome "
                            },
                            {
                                "type": "user",
                                "user_id": "U0108UAAUQM"
                            }
                        ]
                    }
                ]
            }
        ],
        "reactions": [
            {
                "name": "grinning",
                "users": [
                    "U010AGDDEBZ"
                ],
                "count": 1
            }
        ]
    },
    {
        "type": "message",
        "subtype": "channel_join",
        "ts": "1586361785.001900",
        "user": "U011B6VLM2A",
        "text": "<@U011B6VLM2A> has joined the channel",
        "inviter": "U0108UAAUQM"
    },
    {
        "type": "message",
        "subtype": "channel_join",
        "ts": "1586361786.002100",
        "user": "UV9V03C8Y",
        "text": "<@UV9V03C8Y> has joined the channel",
        "inviter": "U0108UAAUQM"
    },
    {
        "type": "message",
        "subtype": "channel_join",
        "ts": "1586361786.002300",
        "user": "UVC9WMA7N",
        "text": "<@UVC9WMA7N> has joined the channel",
        "inviter": "U0108UAAUQM"
    },
    {
        "type": "message",
        "subtype": "channel_join",
        "ts": "1586361786.002500",
        "user": "U010AGDDEBZ",
        "text": "<@U010AGDDEBZ> has joined the channel",
        "inviter": "U0108UAAUQM"
    },
    {
        "type": "message",
        "subtype": "channel_join",
        "ts": "1586361786.002700",
        "user": "UV02WET96",
        "text": "<@UV02WET96> has joined the channel",
        "inviter": "U0108UAAUQM"
    },
    {
        "type": "message",
        "subtype": "channel_join",
        "ts": "1586361799.002900",
        "user": "UV0QTJCMT",
        "text": "<@UV0QTJCMT> has joined the channel",
        "inviter": "U0108UAAUQM"
    },
    {
        "client_msg_id": "e2d2b6da-b8ba-44e4-8637-c39073a992c4",
        "type": "message",
        "text": "Hi everyone, pleasure to be here, thanks for adding me to the channel, <@U0108UAAUQM>. Most pertinent to this channel is a survey I’ll be creating tomorrow and Friday, which will be conducted next week with every project team and other working group. This survey will help us design an internal comms process for sharing workgroup painpoints.",
        "user": "U011B6VLM2A",
        "ts": "1586363107.004500",
        "team": "TUU48M0T1",
        "user_team": "TUU48M0T1",
        "source_team": "TUU48M0T1",
        "user_profile": {
            "avatar_hash": "4231dc598cfc",
            "image_72": "https:\/\/avatars.slack-edge.com\/2020-04-02\/1044784558839_4231dc598cfc2e59c4c4_72.jpg",
            "first_name": "Alix",
            "real_name": "Alix Mains",
            "display_name": "Alix Mains - JOGL Coordinator",
            "team": "TUU48M0T1",
            "name": "alixhmains",
            "is_restricted": false,
            "is_ultra_restricted": false
        },
        "blocks": [
            {
                "type": "rich_text",
                "block_id": "gEa0A",
                "elements": [
                    {
                        "type": "rich_text_section",
                        "elements": [
                            {
                                "type": "text",
                                "text": "Hi everyone, pleasure to be here, thanks for adding me to the channel, "
                            },
                            {
                                "type": "user",
                                "user_id": "U0108UAAUQM"
                            },
                            {
                                "type": "text",
                                "text": ". Most pertinent to this channel is a survey I’ll be creating tomorrow and Friday, which will be conducted next week with every project team and other working group. This survey will help us design an internal comms process for sharing workgroup painpoints."
                            }
                        ]
                    }
                ]
            }
        ],
        "reactions": [
            {
                "name": "heart",
                "users": [
                    "U0108UAAUQM"
                ],
                "count": 1
            }
        ]
    },
    {
        "client_msg_id": "bd53c5b4-549c-4278-8541-2e22e4384218",
        "type": "message",
        "text": "Sharing a (near) final draft of a community survey we’ve been working on.  <https:\/\/docs.google.com\/forms\/d\/1L4wR2_Fkwz1dqvbh5M6O0RP0hg8Ex-xvddpRFgHxnfw\/edit>",
        "user": "U0108UAAUQM",
        "ts": "1586363221.005800",
        "team": "TUU48M0T1",
        "user_team": "TUU48M0T1",
        "source_team": "TUU48M0T1",
        "user_profile": {
            "avatar_hash": "8c169aed81a4",
            "image_72": "https:\/\/avatars.slack-edge.com\/2020-03-25\/1026926917366_8c169aed81a4dabd872c_72.jpg",
            "first_name": "Robert",
            "real_name": "Robert Ward",
            "display_name": "Robbie Ward",
            "team": "TUU48M0T1",
            "name": "rward48",
            "is_restricted": false,
            "is_ultra_restricted": false
        },
        "blocks": [
            {
                "type": "rich_text",
                "block_id": "Dkj8",
                "elements": [
                    {
                        "type": "rich_text_section",
                        "elements": [
                            {
                                "type": "text",
                                "text": "Sharing a (near) final draft of a community survey we’ve been working on.  "
                            },
                            {
                                "type": "link",
                                "url": "https:\/\/docs.google.com\/forms\/d\/1L4wR2_Fkwz1dqvbh5M6O0RP0hg8Ex-xvddpRFgHxnfw\/edit"
                            }
                        ]
                    }
                ]
            }
        ]
    },
    {
        "client_msg_id": "7839c126-586a-4030-a782-f648ad3665d9",
        "type": "message",
        "text": "Thanks a lot <@U0108UAAUQM>! It's great! There is a massive need to synchronize on this topic. The communication and the governance teams has also been working on this process.\n\n*<@U0108UAAUQM> Would you be able to join a call about that today at 6PM UTC?* ",
        "user": "UV9V03C8Y",
        "ts": "1586366064.007900",
        "team": "TUU48M0T1",
        "user_team": "TUU48M0T1",
        "source_team": "TUU48M0T1",
        "user_profile": {
            "avatar_hash": "177697fb7b8f",
            "image_72": "https:\/\/avatars.slack-edge.com\/2020-03-12\/996126178096_177697fb7b8ffa57649c_72.jpg",
            "first_name": "Camille",
            "real_name": "Camille Masselot - JOGL Program coordinator",
            "display_name": "Camille Masselot - JOGL coordinator",
            "team": "TUU48M0T1",
            "name": "masselot.camille",
            "is_restricted": false,
            "is_ultra_restricted": false
        },
        "blocks": [
            {
                "type": "rich_text",
                "block_id": "LjmX",
                "elements": [
                    {
                        "type": "rich_text_section",
                        "elements": [
                            {
                                "type": "text",
                                "text": "Thanks a lot "
                            },
                            {
                                "type": "user",
                                "user_id": "U0108UAAUQM"
                            },
                            {
                                "type": "text",
                                "text": "! It's great! There is a massive need to synchronize on this topic. The communication and the governance teams has also been working on this process.\n\n"
                            },
                            {
                                "type": "user",
                                "user_id": "U0108UAAUQM",
                                "style": {
                                    "bold": true
                                }
                            },
                            {
                                "type": "text",
                                "text": " Would you be able to join a call about that today at 6PM UTC? ",
                                "style": {
                                    "bold": true
                                }
                            }
                        ]
                    }
                ]
            }
        ],
        "thread_ts": "1586366064.007900",
        "reply_count": 1,
        "reply_users_count": 1,
        "latest_reply": "1586366283.008000",
        "reply_users": [
            "U0108UAAUQM"
        ],
        "replies": [
            {
                "user": "U0108UAAUQM",
                "ts": "1586366283.008000"
            }
        ],
        "subscribed": false
    },
    {
        "client_msg_id": "771c258f-6fdc-40ae-9c85-b1a99d353091",
        "type": "message",
        "text": "Should be able to.  is there a meeting id\/call in for it?",
        "user": "U0108UAAUQM",
        "ts": "1586366283.008000",
        "team": "TUU48M0T1",
        "user_team": "TUU48M0T1",
        "source_team": "TUU48M0T1",
        "user_profile": {
            "avatar_hash": "8c169aed81a4",
            "image_72": "https:\/\/avatars.slack-edge.com\/2020-03-25\/1026926917366_8c169aed81a4dabd872c_72.jpg",
            "first_name": "Robert",
            "real_name": "Robert Ward",
            "display_name": "Robbie Ward",
            "team": "TUU48M0T1",
            "name": "rward48",
            "is_restricted": false,
            "is_ultra_restricted": false
        },
        "blocks": [
            {
                "type": "rich_text",
                "block_id": "B+IR",
                "elements": [
                    {
                        "type": "rich_text_section",
                        "elements": [
                            {
                                "type": "text",
                                "text": "Should be able to.  is there a meeting id\/call in for it?"
                            }
                        ]
                    }
                ]
            }
        ],
        "thread_ts": "1586366064.007900",
        "parent_user_id": "UV9V03C8Y"
    }
]