[
    {
        "client_msg_id": "d13d3a86-6b95-4208-88f6-a01dcb7b9643",
        "type": "message",
        "text": "oooooh yeah we did!! :smile: Such a great team effort!",
        "user": "U011B6VLM2A",
        "ts": "1588761407.025400",
        "team": "TUU48M0T1",
        "user_team": "TUU48M0T1",
        "source_team": "TUU48M0T1",
        "user_profile": {
            "avatar_hash": "4231dc598cfc",
            "image_72": "https:\/\/avatars.slack-edge.com\/2020-04-02\/1044784558839_4231dc598cfc2e59c4c4_72.jpg",
            "first_name": "Alix",
            "real_name": "Alix Mains",
            "display_name": "Alix Mains - JOGL Coordinator",
            "team": "TUU48M0T1",
            "name": "alixhmains",
            "is_restricted": false,
            "is_ultra_restricted": false
        },
        "blocks": [
            {
                "type": "rich_text",
                "block_id": "zWA=s",
                "elements": [
                    {
                        "type": "rich_text_section",
                        "elements": [
                            {
                                "type": "text",
                                "text": "oooooh yeah we did!! "
                            },
                            {
                                "type": "emoji",
                                "name": "smile"
                            },
                            {
                                "type": "text",
                                "text": " Such a great team effort!"
                            }
                        ]
                    }
                ]
            }
        ],
        "thread_ts": "1588708399.022100",
        "parent_user_id": "UV9V03C8Y"
    },
    {
        "client_msg_id": "aebef94b-d708-49fb-817e-d396c9b7fc03",
        "type": "message",
        "text": "<@UV9V03C8Y> — could you plz add this to the <#C01311KN2M6|billboard> ?",
        "user": "U011B6VLM2A",
        "ts": "1588761449.025900",
        "team": "TUU48M0T1",
        "user_team": "TUU48M0T1",
        "source_team": "TUU48M0T1",
        "user_profile": {
            "avatar_hash": "4231dc598cfc",
            "image_72": "https:\/\/avatars.slack-edge.com\/2020-04-02\/1044784558839_4231dc598cfc2e59c4c4_72.jpg",
            "first_name": "Alix",
            "real_name": "Alix Mains",
            "display_name": "Alix Mains - JOGL Coordinator",
            "team": "TUU48M0T1",
            "name": "alixhmains",
            "is_restricted": false,
            "is_ultra_restricted": false
        },
        "blocks": [
            {
                "type": "rich_text",
                "block_id": "XhosC",
                "elements": [
                    {
                        "type": "rich_text_section",
                        "elements": [
                            {
                                "type": "user",
                                "user_id": "UV9V03C8Y"
                            },
                            {
                                "type": "text",
                                "text": " — could you plz add this to the "
                            },
                            {
                                "type": "channel",
                                "channel_id": "C01311KN2M6"
                            },
                            {
                                "type": "text",
                                "text": " ?"
                            }
                        ]
                    }
                ]
            }
        ],
        "thread_ts": "1588708399.022100",
        "parent_user_id": "UV9V03C8Y"
    },
    {
        "client_msg_id": "b6520fe3-2172-4e73-9086-e04a352696f9",
        "type": "message",
        "text": "Took a look at this and it looks SO GOOD",
        "user": "U0101DKUALV",
        "ts": "1588780989.027300",
        "team": "TUU48M0T1",
        "user_team": "TUU48M0T1",
        "source_team": "TUU48M0T1",
        "user_profile": {
            "avatar_hash": "b0aee06ed3e5",
            "image_72": "https:\/\/avatars.slack-edge.com\/2020-04-22\/1072886325190_b0aee06ed3e501ebdf56_72.png",
            "first_name": "",
            "real_name": "Pauline Chane",
            "display_name": "Pauline Chane",
            "team": "TUU48M0T1",
            "name": "pauline.chane",
            "is_restricted": false,
            "is_ultra_restricted": false
        },
        "blocks": [
            {
                "type": "rich_text",
                "block_id": "3qxpA",
                "elements": [
                    {
                        "type": "rich_text_section",
                        "elements": [
                            {
                                "type": "text",
                                "text": "Took a look at this and it looks SO GOOD"
                            }
                        ]
                    }
                ]
            }
        ],
        "thread_ts": "1588708399.022100",
        "parent_user_id": "UV9V03C8Y"
    }
]