[
    {
        "type": "message",
        "subtype": "channel_join",
        "ts": "1586425206.000200",
        "user": "UV02WET96",
        "text": "<@UV02WET96> has joined the channel"
    },
    {
        "client_msg_id": "1F754ECF-44C9-44DC-96E7-A41B674EFA23",
        "type": "message",
        "text": "Hi <@U010BA2NL9E> \nWould you like to animate this challenge? ",
        "user": "UV02WET96",
        "ts": "1586425290.000900",
        "team": "TUU48M0T1",
        "user_team": "TUU48M0T1",
        "source_team": "TUU48M0T1",
        "user_profile": {
            "avatar_hash": "a99c74a194f8",
            "image_72": "https:\/\/avatars.slack-edge.com\/2020-03-07\/975708504851_a99c74a194f86715ca7d_72.png",
            "first_name": "Thomas",
            "real_name": "Thomas Landrain",
            "display_name": "Thomas Landrain - JOGL CoFounder \/ CEO",
            "team": "TUU48M0T1",
            "name": "thomas",
            "is_restricted": false,
            "is_ultra_restricted": false
        },
        "blocks": [
            {
                "type": "rich_text",
                "block_id": "mAuy",
                "elements": [
                    {
                        "type": "rich_text_section",
                        "elements": [
                            {
                                "type": "text",
                                "text": "Hi "
                            },
                            {
                                "type": "user",
                                "user_id": "U010BA2NL9E"
                            },
                            {
                                "type": "text",
                                "text": " \nWould you like to animate this challenge? "
                            }
                        ]
                    }
                ]
            }
        ],
        "thread_ts": "1586425290.000900",
        "reply_count": 3,
        "reply_users_count": 2,
        "latest_reply": "1586426248.002500",
        "reply_users": [
            "U010BA2NL9E",
            "UV02WET96"
        ],
        "replies": [
            {
                "user": "U010BA2NL9E",
                "ts": "1586425914.001000"
            },
            {
                "user": "UV02WET96",
                "ts": "1586425994.002200"
            },
            {
                "user": "U010BA2NL9E",
                "ts": "1586426248.002500"
            }
        ],
        "subscribed": false
    },
    {
        "client_msg_id": "1d4b4692-58d0-4a5a-9ae7-db7745f77e91",
        "type": "message",
        "text": "I'd rather see someone else leading the topic. From the articles it seems to me that there is a lot to understand on \"recovery\": define the concept, define when to report that a patient has recovered, monitor the reported figures, understand why there are more recoveries in some countries, understand what scars the virus leaves on patients that have \"recovered\".\n\nThose that have suffered more than mild symptoms, especially those that have spent days in an ICU, may be left with damage that may last from weeks to the rest of their lives.\n\nIt also will help to understand the price of \"herd immunity\" strategies. Letting the population get infected comes with a price, not only of high mortality, but also a part of the population may suffer various conditions for years to come.",
        "user": "U010BA2NL9E",
        "ts": "1586425914.001000",
        "team": "TUU48M0T1",
        "user_team": "TUU48M0T1",
        "source_team": "TUU48M0T1",
        "user_profile": {
            "avatar_hash": "g3fa100f8f14",
            "image_72": "https:\/\/secure.gravatar.com\/avatar\/3fa100f8f14fc86a0f2f58648b36d29e.jpg?s=72&d=https%3A%2F%2Fa.slack-edge.com%2Fdf10d%2Fimg%2Favatars%2Fava_0008-72.png",
            "first_name": "",
            "real_name": "Eduardo Garcia",
            "display_name": "Eduardo Garcia",
            "team": "TUU48M0T1",
            "name": "eduardo.garcia",
            "is_restricted": false,
            "is_ultra_restricted": false
        },
        "edited": {
            "user": "U010BA2NL9E",
            "ts": "1586426197.000000"
        },
        "blocks": [
            {
                "type": "rich_text",
                "block_id": "7Gw",
                "elements": [
                    {
                        "type": "rich_text_section",
                        "elements": [
                            {
                                "type": "text",
                                "text": "I'd rather see someone else leading the topic. From the articles it seems to me that there is a lot to understand on \"recovery\": define the concept, define when to report that a patient has recovered, monitor the reported figures, understand why there are more recoveries in some countries, understand what scars the virus leaves on patients that have \"recovered\".\n\nThose that have suffered more than mild symptoms, especially those that have spent days in an ICU, may be left with damage that may last from weeks to the rest of their lives.\n\nIt also will help to understand the price of \"herd immunity\" strategies. Letting the population get infected comes with a price, not only of high mortality, but also a part of the population may suffer various conditions for years to come."
                            }
                        ]
                    }
                ]
            }
        ],
        "thread_ts": "1586425290.000900",
        "parent_user_id": "UV02WET96"
    },
    {
        "client_msg_id": "B91D2FBD-30CF-48EF-A465-B89E56BFB0FF",
        "type": "message",
        "text": "Can you help find people to lead this challenge? It’s important that we have someone in charge.",
        "user": "UV02WET96",
        "ts": "1586425994.002200",
        "team": "TUU48M0T1",
        "user_team": "TUU48M0T1",
        "source_team": "TUU48M0T1",
        "user_profile": {
            "avatar_hash": "a99c74a194f8",
            "image_72": "https:\/\/avatars.slack-edge.com\/2020-03-07\/975708504851_a99c74a194f86715ca7d_72.png",
            "first_name": "Thomas",
            "real_name": "Thomas Landrain",
            "display_name": "Thomas Landrain - JOGL CoFounder \/ CEO",
            "team": "TUU48M0T1",
            "name": "thomas",
            "is_restricted": false,
            "is_ultra_restricted": false
        },
        "blocks": [
            {
                "type": "rich_text",
                "block_id": "yI=w",
                "elements": [
                    {
                        "type": "rich_text_section",
                        "elements": [
                            {
                                "type": "text",
                                "text": "Can you help find people to lead this challenge? It’s important that we have someone in charge."
                            }
                        ]
                    }
                ]
            }
        ],
        "thread_ts": "1586425290.000900",
        "parent_user_id": "UV02WET96"
    },
    {
        "client_msg_id": "d8ffdf0e-ec38-4d3e-a323-92f7f1365251",
        "type": "message",
        "text": "I'll try to bring it to the attention of other people.",
        "user": "U010BA2NL9E",
        "ts": "1586426248.002500",
        "team": "TUU48M0T1",
        "user_team": "TUU48M0T1",
        "source_team": "TUU48M0T1",
        "user_profile": {
            "avatar_hash": "g3fa100f8f14",
            "image_72": "https:\/\/secure.gravatar.com\/avatar\/3fa100f8f14fc86a0f2f58648b36d29e.jpg?s=72&d=https%3A%2F%2Fa.slack-edge.com%2Fdf10d%2Fimg%2Favatars%2Fava_0008-72.png",
            "first_name": "",
            "real_name": "Eduardo Garcia",
            "display_name": "Eduardo Garcia",
            "team": "TUU48M0T1",
            "name": "eduardo.garcia",
            "is_restricted": false,
            "is_ultra_restricted": false
        },
        "blocks": [
            {
                "type": "rich_text",
                "block_id": "2YD",
                "elements": [
                    {
                        "type": "rich_text_section",
                        "elements": [
                            {
                                "type": "text",
                                "text": "I'll try to bring it to the attention of other people."
                            }
                        ]
                    }
                ]
            }
        ],
        "thread_ts": "1586425290.000900",
        "parent_user_id": "UV02WET96",
        "reactions": [
            {
                "name": "+1",
                "users": [
                    "UV02WET96"
                ],
                "count": 1
            }
        ]
    },
    {
        "client_msg_id": "db51d77a-94a5-4739-b860-6981a7ec6815",
        "type": "message",
        "text": "<https:\/\/www.theverge.com\/2020\/4\/1\/21201045\/coronavirus-covid-19-recovery-isolation-contagious-cdc-data|https:\/\/www.theverge.com\/2020\/4\/1\/21201045\/coronavirus-covid-19-recovery-isolation-contagious-cdc-data>",
        "user": "U010BA2NL9E",
        "ts": "1586468690.001600",
        "team": "TUU48M0T1",
        "user_team": "TUU48M0T1",
        "source_team": "TUU48M0T1",
        "user_profile": {
            "avatar_hash": "g3fa100f8f14",
            "image_72": "https:\/\/secure.gravatar.com\/avatar\/3fa100f8f14fc86a0f2f58648b36d29e.jpg?s=72&d=https%3A%2F%2Fa.slack-edge.com%2Fdf10d%2Fimg%2Favatars%2Fava_0008-72.png",
            "first_name": "",
            "real_name": "Eduardo Garcia",
            "display_name": "Eduardo Garcia",
            "team": "TUU48M0T1",
            "name": "eduardo.garcia",
            "is_restricted": false,
            "is_ultra_restricted": false
        },
        "attachments": [
            {
                "service_name": "The Verge",
                "title": "After recovering, COVID-19 patients struggle to know when to stop isolating",
                "title_link": "https:\/\/www.theverge.com\/2020\/4\/1\/21201045\/coronavirus-covid-19-recovery-isolation-contagious-cdc-data",
                "text": "There’s not much data on how long someone stays contagious",
                "fallback": "The Verge: After recovering, COVID-19 patients struggle to know when to stop isolating",
                "image_url": "https:\/\/cdn.vox-cdn.com\/thumbor\/-RKMbcBwflGYIDXFIOIIcHBnurU=\/0x340:4752x2828\/fit-in\/1200x630\/cdn.vox-cdn.com\/uploads\/chorus_asset\/file\/19862721\/1208706287.jpg.jpg",
                "image_width": 478,
                "image_height": 250,
                "ts": 1585746000,
                "from_url": "https:\/\/www.theverge.com\/2020\/4\/1\/21201045\/coronavirus-covid-19-recovery-isolation-contagious-cdc-data",
                "image_bytes": 162905,
                "service_icon": "https:\/\/cdn.vox-cdn.com\/uploads\/chorus_asset\/file\/7395359\/ios-icon.0.png",
                "id": 1,
                "original_url": "https:\/\/www.theverge.com\/2020\/4\/1\/21201045\/coronavirus-covid-19-recovery-isolation-contagious-cdc-data"
            }
        ],
        "blocks": [
            {
                "type": "rich_text",
                "block_id": "r3Xe",
                "elements": [
                    {
                        "type": "rich_text_section",
                        "elements": [
                            {
                                "type": "link",
                                "url": "https:\/\/www.theverge.com\/2020\/4\/1\/21201045\/coronavirus-covid-19-recovery-isolation-contagious-cdc-data",
                                "text": "https:\/\/www.theverge.com\/2020\/4\/1\/21201045\/coronavirus-covid-19-recovery-isolation-contagious-cdc-data"
                            }
                        ]
                    }
                ]
            }
        ],
        "thread_ts": "1586344928.000500",
        "parent_user_id": "U010BA2NL9E"
    },
    {
        "client_msg_id": "01a7d9fa-140e-48e5-b7af-56a50d4c44d5",
        "type": "message",
        "text": "<https:\/\/www.birminghammail.co.uk\/news\/midlands-news\/coronavirus-patients-should-return-work-18061129|https:\/\/www.birminghammail.co.uk\/news\/midlands-news\/coronavirus-patients-should-return-work-18061129>",
        "user": "U010BA2NL9E",
        "ts": "1586468714.002000",
        "team": "TUU48M0T1",
        "user_team": "TUU48M0T1",
        "source_team": "TUU48M0T1",
        "user_profile": {
            "avatar_hash": "g3fa100f8f14",
            "image_72": "https:\/\/secure.gravatar.com\/avatar\/3fa100f8f14fc86a0f2f58648b36d29e.jpg?s=72&d=https%3A%2F%2Fa.slack-edge.com%2Fdf10d%2Fimg%2Favatars%2Fava_0008-72.png",
            "first_name": "",
            "real_name": "Eduardo Garcia",
            "display_name": "Eduardo Garcia",
            "team": "TUU48M0T1",
            "name": "eduardo.garcia",
            "is_restricted": false,
            "is_ultra_restricted": false
        },
        "attachments": [
            {
                "service_name": "birminghammail",
                "title": "When coronavirus patients should return to work after recovering",
                "title_link": "https:\/\/www.birminghammail.co.uk\/news\/midlands-news\/coronavirus-patients-should-return-work-18061129",
                "text": "Covid-19 patients who rush back to work could find themselves so exhausted they need to take further time off, a respiratory consultant has said",
                "fallback": "birminghammail: When coronavirus patients should return to work after recovering",
                "image_url": "https:\/\/i2-prod.birminghammail.co.uk\/incoming\/article17938724.ece\/ALTERNATES\/s1200\/0_251260731-1.jpg",
                "ts": 1586340149,
                "from_url": "https:\/\/www.birminghammail.co.uk\/news\/midlands-news\/coronavirus-patients-should-return-work-18061129",
                "image_width": 476,
                "image_height": 250,
                "image_bytes": 87068,
                "service_icon": "https:\/\/s2-prod.birminghammail.co.uk\/@trinitymirrordigital\/chameleon-branding\/publications\/birminghammail\/img\/favicon.e47376b99935918e.ico",
                "id": 1,
                "original_url": "https:\/\/www.birminghammail.co.uk\/news\/midlands-news\/coronavirus-patients-should-return-work-18061129"
            }
        ],
        "blocks": [
            {
                "type": "rich_text",
                "block_id": "Y\/QKm",
                "elements": [
                    {
                        "type": "rich_text_section",
                        "elements": [
                            {
                                "type": "link",
                                "url": "https:\/\/www.birminghammail.co.uk\/news\/midlands-news\/coronavirus-patients-should-return-work-18061129",
                                "text": "https:\/\/www.birminghammail.co.uk\/news\/midlands-news\/coronavirus-patients-should-return-work-18061129"
                            }
                        ]
                    }
                ]
            }
        ],
        "thread_ts": "1586344928.000500",
        "parent_user_id": "U010BA2NL9E"
    },
    {
        "client_msg_id": "f075a3ab-6cb6-43be-885e-b137fd95d35f",
        "type": "message",
        "text": "<https:\/\/www.weforum.org\/agenda\/2020\/03\/coronavirus-recovery-what-happens-after-covid19\/|https:\/\/www.weforum.org\/agenda\/2020\/03\/coronavirus-recovery-what-happens-after-covid19\/>",
        "user": "U010BA2NL9E",
        "ts": "1586468748.002400",
        "team": "TUU48M0T1",
        "user_team": "TUU48M0T1",
        "source_team": "TUU48M0T1",
        "user_profile": {
            "avatar_hash": "g3fa100f8f14",
            "image_72": "https:\/\/secure.gravatar.com\/avatar\/3fa100f8f14fc86a0f2f58648b36d29e.jpg?s=72&d=https%3A%2F%2Fa.slack-edge.com%2Fdf10d%2Fimg%2Favatars%2Fava_0008-72.png",
            "first_name": "",
            "real_name": "Eduardo Garcia",
            "display_name": "Eduardo Garcia",
            "team": "TUU48M0T1",
            "name": "eduardo.garcia",
            "is_restricted": false,
            "is_ultra_restricted": false
        },
        "attachments": [
            {
                "service_name": "World Economic Forum",
                "title": "What happens after you recover from coronavirus? 5 questions answered",
                "title_link": "https:\/\/www.weforum.org\/agenda\/2020\/03\/coronavirus-recovery-what-happens-after-covid19\/",
                "text": "How long does the virus stay in your body and can you catch it a second time? Here's what the scientists say.",
                "fallback": "World Economic Forum: What happens after you recover from coronavirus? 5 questions answered",
                "thumb_url": "https:\/\/assets.weforum.org\/article\/image\/responsive_medium_L7wDCoqUlPFbYMpFU0EU8pBJPwKks78dDS4mQSb3wgI.jpg",
                "from_url": "https:\/\/www.weforum.org\/agenda\/2020\/03\/coronavirus-recovery-what-happens-after-covid19\/",
                "thumb_width": 485,
                "thumb_height": 273,
                "service_icon": "https:\/\/www.weforum.org\/favicons\/apple-touch-icon.png?v=lk270KxwRj",
                "id": 1,
                "original_url": "https:\/\/www.weforum.org\/agenda\/2020\/03\/coronavirus-recovery-what-happens-after-covid19\/"
            }
        ],
        "blocks": [
            {
                "type": "rich_text",
                "block_id": "Fdon",
                "elements": [
                    {
                        "type": "rich_text_section",
                        "elements": [
                            {
                                "type": "link",
                                "url": "https:\/\/www.weforum.org\/agenda\/2020\/03\/coronavirus-recovery-what-happens-after-covid19\/",
                                "text": "https:\/\/www.weforum.org\/agenda\/2020\/03\/coronavirus-recovery-what-happens-after-covid19\/"
                            }
                        ]
                    }
                ]
            }
        ],
        "thread_ts": "1586344928.000500",
        "parent_user_id": "U010BA2NL9E"
    },
    {
        "client_msg_id": "fa6ff7d2-eb6d-48d8-9646-e5679e7db698",
        "type": "message",
        "text": "<https:\/\/www.cnn.com\/2020\/04\/04\/health\/recovery-coronavirus-tracking-data-explainer\/index.html|https:\/\/www.cnn.com\/2020\/04\/04\/health\/recovery-coronavirus-tracking-data-explainer\/index.html>",
        "user": "U010BA2NL9E",
        "ts": "1586468764.002800",
        "team": "TUU48M0T1",
        "user_team": "TUU48M0T1",
        "source_team": "TUU48M0T1",
        "user_profile": {
            "avatar_hash": "g3fa100f8f14",
            "image_72": "https:\/\/secure.gravatar.com\/avatar\/3fa100f8f14fc86a0f2f58648b36d29e.jpg?s=72&d=https%3A%2F%2Fa.slack-edge.com%2Fdf10d%2Fimg%2Favatars%2Fava_0008-72.png",
            "first_name": "",
            "real_name": "Eduardo Garcia",
            "display_name": "Eduardo Garcia",
            "team": "TUU48M0T1",
            "name": "eduardo.garcia",
            "is_restricted": false,
            "is_ultra_restricted": false
        },
        "attachments": [
            {
                "service_name": "CNN",
                "title": "Most people recover from Covid-19. Here's why it's hard to pinpoint exactly how many",
                "title_link": "https:\/\/www.cnn.com\/2020\/04\/04\/health\/recovery-coronavirus-tracking-data-explainer\/index.html",
                "text": "It's a question that many want answered: Exactly how many people recover from Covid-19?",
                "fallback": "CNN: Most people recover from Covid-19. Here's why it's hard to pinpoint exactly how many",
                "image_url": "https:\/\/cdn.cnn.com\/cnnnext\/dam\/assets\/200221130556-coronavirus-image-university-of-hong-kong-super-tease.jpg",
                "image_width": 444,
                "image_height": 250,
                "from_url": "https:\/\/www.cnn.com\/2020\/04\/04\/health\/recovery-coronavirus-tracking-data-explainer\/index.html",
                "image_bytes": 150742,
                "service_icon": "https:\/\/www.cnn.com\/favicon.ico",
                "id": 1,
                "original_url": "https:\/\/www.cnn.com\/2020\/04\/04\/health\/recovery-coronavirus-tracking-data-explainer\/index.html"
            }
        ],
        "blocks": [
            {
                "type": "rich_text",
                "block_id": "LOx",
                "elements": [
                    {
                        "type": "rich_text_section",
                        "elements": [
                            {
                                "type": "link",
                                "url": "https:\/\/www.cnn.com\/2020\/04\/04\/health\/recovery-coronavirus-tracking-data-explainer\/index.html",
                                "text": "https:\/\/www.cnn.com\/2020\/04\/04\/health\/recovery-coronavirus-tracking-data-explainer\/index.html"
                            }
                        ]
                    }
                ]
            }
        ],
        "thread_ts": "1586344928.000500",
        "parent_user_id": "U010BA2NL9E"
    },
    {
        "client_msg_id": "e4e7a36c-a6c8-4095-a52d-e13766994cd1",
        "type": "message",
        "text": "<https:\/\/www.dw.com\/en\/covid-19-recovered-patients-have-partially-reduced-lung-function\/a-52859671|https:\/\/www.dw.com\/en\/covid-19-recovered-patients-have-partially-reduced-lung-function\/a-52859671>",
        "user": "U010BA2NL9E",
        "ts": "1586468779.003200",
        "team": "TUU48M0T1",
        "user_team": "TUU48M0T1",
        "source_team": "TUU48M0T1",
        "user_profile": {
            "avatar_hash": "g3fa100f8f14",
            "image_72": "https:\/\/secure.gravatar.com\/avatar\/3fa100f8f14fc86a0f2f58648b36d29e.jpg?s=72&d=https%3A%2F%2Fa.slack-edge.com%2Fdf10d%2Fimg%2Favatars%2Fava_0008-72.png",
            "first_name": "",
            "real_name": "Eduardo Garcia",
            "display_name": "Eduardo Garcia",
            "team": "TUU48M0T1",
            "name": "eduardo.garcia",
            "is_restricted": false,
            "is_ultra_restricted": false
        },
        "attachments": [
            {
                "service_name": "DW.COM",
                "title": "COVID-19: Recovered patients have partially reduced lung function | DW | 20.03.2020",
                "title_link": "https:\/\/www.dw.com\/en\/covid-19-recovered-patients-have-partially-reduced-lung-function\/a-52859671",
                "text": "Chinese researchers have found fluid- or debris-filled sacs in the lungs of those who were infected by COVID-19. Scans suggest sustained organ damage.",
                "fallback": "DW.COM: COVID-19: Recovered patients have partially reduced lung function | DW | 20.03.2020",
                "image_url": "https:\/\/www.dw.com\/image\/52248529_304.jpg",
                "image_width": 444,
                "image_height": 250,
                "from_url": "https:\/\/www.dw.com\/en\/covid-19-recovered-patients-have-partially-reduced-lung-function\/a-52859671",
                "image_bytes": 35502,
                "service_icon": "https:\/\/www.dw.com\/favicon.png",
                "id": 1,
                "original_url": "https:\/\/www.dw.com\/en\/covid-19-recovered-patients-have-partially-reduced-lung-function\/a-52859671"
            }
        ],
        "blocks": [
            {
                "type": "rich_text",
                "block_id": "UoS",
                "elements": [
                    {
                        "type": "rich_text_section",
                        "elements": [
                            {
                                "type": "link",
                                "url": "https:\/\/www.dw.com\/en\/covid-19-recovered-patients-have-partially-reduced-lung-function\/a-52859671",
                                "text": "https:\/\/www.dw.com\/en\/covid-19-recovered-patients-have-partially-reduced-lung-function\/a-52859671"
                            }
                        ]
                    }
                ]
            }
        ],
        "thread_ts": "1586344928.000500",
        "parent_user_id": "U010BA2NL9E"
    },
    {
        "client_msg_id": "8f966daf-1a0d-4841-9a6f-18bd9f042961",
        "type": "message",
        "text": "<https:\/\/www.statista.com\/statistics\/1103227\/coronavirus-recoveries-in-europe\/|https:\/\/www.statista.com\/statistics\/1103227\/coronavirus-recoveries-in-europe\/>",
        "user": "U010BA2NL9E",
        "ts": "1586468798.003600",
        "team": "TUU48M0T1",
        "user_team": "TUU48M0T1",
        "source_team": "TUU48M0T1",
        "user_profile": {
            "avatar_hash": "g3fa100f8f14",
            "image_72": "https:\/\/secure.gravatar.com\/avatar\/3fa100f8f14fc86a0f2f58648b36d29e.jpg?s=72&d=https%3A%2F%2Fa.slack-edge.com%2Fdf10d%2Fimg%2Favatars%2Fava_0008-72.png",
            "first_name": "",
            "real_name": "Eduardo Garcia",
            "display_name": "Eduardo Garcia",
            "team": "TUU48M0T1",
            "name": "eduardo.garcia",
            "is_restricted": false,
            "is_ultra_restricted": false
        },
        "attachments": [
            {
                "service_name": "Statista",
                "title": "Coronavirus recoveries in Europe 2020 | Statista",
                "title_link": "https:\/\/www.statista.com\/statistics\/1103227\/coronavirus-recoveries-in-europe\/",
                "text": "As of April 9, 2020, over 172 thousand people who were diagnosed with the coronavirus (COVID-19) in Europe have recovered from the disease.",
                "fallback": "Statista: Coronavirus recoveries in Europe 2020 | Statista",
                "image_url": "https:\/\/cdn.statcdn.com\/Statistic\/1100000\/1103227-blank-355.png",
                "image_width": 351,
                "image_height": 250,
                "from_url": "https:\/\/www.statista.com\/statistics\/1103227\/coronavirus-recoveries-in-europe\/",
                "image_bytes": 270211,
                "service_icon": "https:\/\/cdn.statcdn.com\/static\/img\/openGraph-Statistic.png",
                "id": 1,
                "original_url": "https:\/\/www.statista.com\/statistics\/1103227\/coronavirus-recoveries-in-europe\/"
            }
        ],
        "blocks": [
            {
                "type": "rich_text",
                "block_id": "3F0",
                "elements": [
                    {
                        "type": "rich_text_section",
                        "elements": [
                            {
                                "type": "link",
                                "url": "https:\/\/www.statista.com\/statistics\/1103227\/coronavirus-recoveries-in-europe\/",
                                "text": "https:\/\/www.statista.com\/statistics\/1103227\/coronavirus-recoveries-in-europe\/"
                            }
                        ]
                    }
                ]
            }
        ],
        "thread_ts": "1586344928.000500",
        "parent_user_id": "U010BA2NL9E"
    },
    {
        "client_msg_id": "f5b5ffec-b096-491f-afc7-49ed79621869",
        "type": "message",
        "text": "<https:\/\/metro.co.uk\/2020\/04\/07\/doctor-reveals-breathing-technique-helped-jk-rowling-recover-coronavirus-12519409\/|https:\/\/metro.co.uk\/2020\/04\/07\/doctor-reveals-breathing-technique-helped-jk-rowling-recover-coronavirus-12519409\/>",
        "user": "U010BA2NL9E",
        "ts": "1586468838.004500",
        "team": "TUU48M0T1",
        "user_team": "TUU48M0T1",
        "source_team": "TUU48M0T1",
        "user_profile": {
            "avatar_hash": "g3fa100f8f14",
            "image_72": "https:\/\/secure.gravatar.com\/avatar\/3fa100f8f14fc86a0f2f58648b36d29e.jpg?s=72&d=https%3A%2F%2Fa.slack-edge.com%2Fdf10d%2Fimg%2Favatars%2Fava_0008-72.png",
            "first_name": "",
            "real_name": "Eduardo Garcia",
            "display_name": "Eduardo Garcia",
            "team": "TUU48M0T1",
            "name": "eduardo.garcia",
            "is_restricted": false,
            "is_ultra_restricted": false
        },
        "attachments": [
            {
                "service_name": "Metro",
                "title": "Doctor reveals breathing technique that helped JK Rowling's coronavirus recovery",
                "title_link": "https:\/\/metro.co.uk\/2020\/04\/07\/doctor-reveals-breathing-technique-helped-jk-rowling-recover-coronavirus-12519409\/",
                "text": "The technique is used every day in intensive care units but is very easy to do at home.",
                "fallback": "Metro: Doctor reveals breathing technique that helped JK Rowling's coronavirus recovery",
                "image_url": "https:\/\/metro.co.uk\/wp-content\/uploads\/2020\/04\/PRC_148579527.jpg?quality=90&strip=all&crop=0px%2C0px%2C1200px%2C630px&resize=1200%2C630",
                "image_width": 476,
                "image_height": 250,
                "ts": 1586244130,
                "from_url": "https:\/\/metro.co.uk\/2020\/04\/07\/doctor-reveals-breathing-technique-helped-jk-rowling-recover-coronavirus-12519409\/",
                "image_bytes": 85175,
                "service_icon": "https:\/\/metro.co.uk\/wp-content\/uploads\/2018\/05\/m-icon-black.png?w=180",
                "id": 1,
                "original_url": "https:\/\/metro.co.uk\/2020\/04\/07\/doctor-reveals-breathing-technique-helped-jk-rowling-recover-coronavirus-12519409\/"
            }
        ],
        "blocks": [
            {
                "type": "rich_text",
                "block_id": "yQgVE",
                "elements": [
                    {
                        "type": "rich_text_section",
                        "elements": [
                            {
                                "type": "link",
                                "url": "https:\/\/metro.co.uk\/2020\/04\/07\/doctor-reveals-breathing-technique-helped-jk-rowling-recover-coronavirus-12519409\/",
                                "text": "https:\/\/metro.co.uk\/2020\/04\/07\/doctor-reveals-breathing-technique-helped-jk-rowling-recover-coronavirus-12519409\/"
                            }
                        ]
                    }
                ]
            }
        ],
        "thread_ts": "1586344928.000500",
        "parent_user_id": "U010BA2NL9E"
    },
    {
        "client_msg_id": "6886a329-2b76-4df3-a9b4-80d2304a3bff",
        "type": "message",
        "text": "<https:\/\/theconversation.com\/what-does-recovered-from-coronavirus-mean-4-questions-answered-about-how-some-survive-and-what-happens-next-134883|https:\/\/theconversation.com\/what-does-recovered-from-coronavirus-mean-4-questions-answered-about-how-some-survive-and-what-happens-next-134883>",
        "user": "U010BA2NL9E",
        "ts": "1586468854.004900",
        "team": "TUU48M0T1",
        "user_team": "TUU48M0T1",
        "source_team": "TUU48M0T1",
        "user_profile": {
            "avatar_hash": "g3fa100f8f14",
            "image_72": "https:\/\/secure.gravatar.com\/avatar\/3fa100f8f14fc86a0f2f58648b36d29e.jpg?s=72&d=https%3A%2F%2Fa.slack-edge.com%2Fdf10d%2Fimg%2Favatars%2Fava_0008-72.png",
            "first_name": "",
            "real_name": "Eduardo Garcia",
            "display_name": "Eduardo Garcia",
            "team": "TUU48M0T1",
            "name": "eduardo.garcia",
            "is_restricted": false,
            "is_ultra_restricted": false
        },
        "attachments": [
            {
                "service_name": "The Conversation",
                "title": "What does 'recovered from coronavirus' mean? 4 questions answered about how some survive and what happens next",
                "title_link": "https:\/\/theconversation.com\/what-does-recovered-from-coronavirus-mean-4-questions-answered-about-how-some-survive-and-what-happens-next-134883",
                "text": "Officially, not that many people have recovered from the coronavirus. An epidemiologist explains what has to happen for a COVID-19 survivor to get a clean bill of health.",
                "fallback": "The Conversation: What does 'recovered from coronavirus' mean? 4 questions answered about how some survive and what happens next",
                "image_url": "https:\/\/images.theconversation.com\/files\/325779\/original\/file-20200406-51213-cwvlgt.jpg?ixlib=rb-1.1.0&rect=0%2C21%2C2277%2C1136&q=45&auto=format&w=1356&h=668&fit=crop",
                "from_url": "https:\/\/theconversation.com\/what-does-recovered-from-coronavirus-mean-4-questions-answered-about-how-some-survive-and-what-happens-next-134883",
                "image_width": 507,
                "image_height": 250,
                "image_bytes": 89124,
                "service_icon": "https:\/\/cdn.theconversation.com\/static\/tc\/@theconversation\/ui\/dist\/logos\/web-app-logo-114x114-827839977dc24988cadfa3bd6c814600.png",
                "id": 1,
                "original_url": "https:\/\/theconversation.com\/what-does-recovered-from-coronavirus-mean-4-questions-answered-about-how-some-survive-and-what-happens-next-134883"
            }
        ],
        "blocks": [
            {
                "type": "rich_text",
                "block_id": "pGdl",
                "elements": [
                    {
                        "type": "rich_text_section",
                        "elements": [
                            {
                                "type": "link",
                                "url": "https:\/\/theconversation.com\/what-does-recovered-from-coronavirus-mean-4-questions-answered-about-how-some-survive-and-what-happens-next-134883",
                                "text": "https:\/\/theconversation.com\/what-does-recovered-from-coronavirus-mean-4-questions-answered-about-how-some-survive-and-what-happens-next-134883"
                            }
                        ]
                    }
                ]
            }
        ],
        "thread_ts": "1586344928.000500",
        "parent_user_id": "U010BA2NL9E"
    },
    {
        "client_msg_id": "37570851-46f5-43ec-99d8-657582673289",
        "type": "message",
        "text": "<https:\/\/www.theweek.co.uk\/106568\/coronavirus-what-we-know-about-recovery|https:\/\/www.theweek.co.uk\/106568\/coronavirus-what-we-know-about-recovery>",
        "user": "U010BA2NL9E",
        "ts": "1586468874.005300",
        "team": "TUU48M0T1",
        "user_team": "TUU48M0T1",
        "source_team": "TUU48M0T1",
        "user_profile": {
            "avatar_hash": "g3fa100f8f14",
            "image_72": "https:\/\/secure.gravatar.com\/avatar\/3fa100f8f14fc86a0f2f58648b36d29e.jpg?s=72&d=https%3A%2F%2Fa.slack-edge.com%2Fdf10d%2Fimg%2Favatars%2Fava_0008-72.png",
            "first_name": "",
            "real_name": "Eduardo Garcia",
            "display_name": "Eduardo Garcia",
            "team": "TUU48M0T1",
            "name": "eduardo.garcia",
            "is_restricted": false,
            "is_ultra_restricted": false
        },
        "attachments": [
            {
                "service_name": "The Week UK",
                "title": "Coronavirus: what we know about recovery",
                "title_link": "https:\/\/www.theweek.co.uk\/106568\/coronavirus-what-we-know-about-recovery",
                "text": "Outcomes are worrying for those Covid-19 patients admitted to intensive care",
                "fallback": "The Week UK: Coronavirus: what we know about recovery",
                "image_url": "https:\/\/cdn2.theweek.co.uk\/sites\/theweek\/files\/2020\/03\/gettyimages-1215694786.jpg",
                "from_url": "https:\/\/www.theweek.co.uk\/106568\/coronavirus-what-we-know-about-recovery",
                "image_width": 444,
                "image_height": 250,
                "image_bytes": 202782,
                "service_icon": "https:\/\/cdn1.theweek.co.uk\/sites\/theweek\/themes\/theweek\/favicon.ico",
                "id": 1,
                "original_url": "https:\/\/www.theweek.co.uk\/106568\/coronavirus-what-we-know-about-recovery"
            }
        ],
        "blocks": [
            {
                "type": "rich_text",
                "block_id": "Kwl",
                "elements": [
                    {
                        "type": "rich_text_section",
                        "elements": [
                            {
                                "type": "link",
                                "url": "https:\/\/www.theweek.co.uk\/106568\/coronavirus-what-we-know-about-recovery",
                                "text": "https:\/\/www.theweek.co.uk\/106568\/coronavirus-what-we-know-about-recovery"
                            }
                        ]
                    }
                ]
            }
        ],
        "thread_ts": "1586344928.000500",
        "parent_user_id": "U010BA2NL9E"
    },
    {
        "client_msg_id": "b2155f29-16d6-47cf-8ce7-30baa1091e5f",
        "type": "message",
        "text": "<https:\/\/www.ncbi.nlm.nih.gov\/pmc\/articles\/PMC7102560\/|https:\/\/www.ncbi.nlm.nih.gov\/pmc\/articles\/PMC7102560\/>",
        "user": "U010BA2NL9E",
        "ts": "1586468924.006000",
        "team": "TUU48M0T1",
        "user_team": "TUU48M0T1",
        "source_team": "TUU48M0T1",
        "user_profile": {
            "avatar_hash": "g3fa100f8f14",
            "image_72": "https:\/\/secure.gravatar.com\/avatar\/3fa100f8f14fc86a0f2f58648b36d29e.jpg?s=72&d=https%3A%2F%2Fa.slack-edge.com%2Fdf10d%2Fimg%2Favatars%2Fava_0008-72.png",
            "first_name": "",
            "real_name": "Eduardo Garcia",
            "display_name": "Eduardo Garcia",
            "team": "TUU48M0T1",
            "name": "eduardo.garcia",
            "is_restricted": false,
            "is_ultra_restricted": false
        },
        "attachments": [
            {
                "service_name": "PubMed Central (PMC)",
                "title": "Clinical characteristics of severe acute respiratory syndrome coronavirus 2 reactivation",
                "title_link": "https:\/\/www.ncbi.nlm.nih.gov\/pmc\/articles\/PMC7102560\/",
                "text": "Previous studies on the pneumonia outbreak caused by the 2019 novel coronavirus disease (COVID-19) were based on information from the general population. However, limited data was available for severe acute respiratory syndrome coronavirus 2 (SARS-CoV-2) ...",
                "fallback": "PubMed Central (PMC): Clinical characteristics of severe acute respiratory syndrome coronavirus 2 reactivation",
                "thumb_url": "https:\/\/www.ncbi.nlm.nih.gov\/corehtml\/pmc\/pmcgifs\/pmc-logo-share.png",
                "from_url": "https:\/\/www.ncbi.nlm.nih.gov\/pmc\/articles\/PMC7102560\/",
                "thumb_width": 1200,
                "thumb_height": 630,
                "service_icon": "http:\/\/www.ncbi.nlm.nih.gov\/favicon.ico",
                "id": 1,
                "original_url": "https:\/\/www.ncbi.nlm.nih.gov\/pmc\/articles\/PMC7102560\/"
            }
        ],
        "blocks": [
            {
                "type": "rich_text",
                "block_id": "sma",
                "elements": [
                    {
                        "type": "rich_text_section",
                        "elements": [
                            {
                                "type": "link",
                                "url": "https:\/\/www.ncbi.nlm.nih.gov\/pmc\/articles\/PMC7102560\/",
                                "text": "https:\/\/www.ncbi.nlm.nih.gov\/pmc\/articles\/PMC7102560\/"
                            }
                        ]
                    }
                ]
            }
        ],
        "thread_ts": "1586344928.000500",
        "parent_user_id": "U010BA2NL9E"
    }
]