[
    {
        "client_msg_id": "2eb880c5-5b8e-40b8-98ae-e5c967bb3558",
        "type": "message",
        "text": "damn bro <@U8MNSEUSZ> i wasn’t trying to be controversial or anything, my bad :joy: (joking)",
        "user": "UULCKSR2R",
        "ts": "1584779170.015800",
        "team": "TUU48M0T1",
        "user_team": "T8MNSEUPP",
        "source_team": "T8MNSEUPP",
        "user_profile": {
            "avatar_hash": "gdb585e2fa64",
            "image_72": "https:\/\/secure.gravatar.com\/avatar\/db585e2fa64db6bc3fd7195bbdc993e8.jpg?s=72&d=https%3A%2F%2Fa.slack-edge.com%2Fdf10d%2Fimg%2Favatars%2Fava_0003-72.png",
            "first_name": "anoopdeep",
            "real_name": "anoop-biosentinelle",
            "display_name": "anoop-biosentinelle",
            "team": "T8MNSEUPP",
            "name": "anoopdeep",
            "is_restricted": true,
            "is_ultra_restricted": false
        },
        "blocks": [
            {
                "type": "rich_text",
                "block_id": "Z7yp",
                "elements": [
                    {
                        "type": "rich_text_section",
                        "elements": [
                            {
                                "type": "text",
                                "text": "damn bro "
                            },
                            {
                                "type": "user",
                                "user_id": "U8MNSEUSZ"
                            },
                            {
                                "type": "text",
                                "text": " i wasn’t trying to be controversial or anything, my bad "
                            },
                            {
                                "type": "emoji",
                                "name": "joy"
                            },
                            {
                                "type": "text",
                                "text": " (joking)"
                            }
                        ]
                    }
                ]
            }
        ],
        "thread_ts": "1584736347.009200",
        "parent_user_id": "U8MNSEUSZ"
    },
    {
        "client_msg_id": "169d57b4-bf42-4033-9a13-bcc29ef86364",
        "type": "message",
        "text": "parfait, merci! will help me not to ask redundant questions to the community",
        "user": "UULCKSR2R",
        "ts": "1584779309.017300",
        "team": "TUU48M0T1",
        "user_team": "T8MNSEUPP",
        "source_team": "T8MNSEUPP",
        "user_profile": {
            "avatar_hash": "gdb585e2fa64",
            "image_72": "https:\/\/secure.gravatar.com\/avatar\/db585e2fa64db6bc3fd7195bbdc993e8.jpg?s=72&d=https%3A%2F%2Fa.slack-edge.com%2Fdf10d%2Fimg%2Favatars%2Fava_0003-72.png",
            "first_name": "anoopdeep",
            "real_name": "anoop-biosentinelle",
            "display_name": "anoop-biosentinelle",
            "team": "T8MNSEUPP",
            "name": "anoopdeep",
            "is_restricted": true,
            "is_ultra_restricted": false
        },
        "blocks": [
            {
                "type": "rich_text",
                "block_id": "phT",
                "elements": [
                    {
                        "type": "rich_text_section",
                        "elements": [
                            {
                                "type": "text",
                                "text": "parfait, merci! will help me not to ask redundant questions to the community"
                            }
                        ]
                    }
                ]
            }
        ]
    },
    {
        "client_msg_id": "021E4163-6699-471A-B7D1-355B318422A2",
        "type": "message",
        "text": "hahah",
        "user": "U9DKGBDJT",
        "ts": "1584785302.017700",
        "team": "TUU48M0T1",
        "user_team": "T8MNSEUPP",
        "source_team": "T8MNSEUPP",
        "user_profile": {
            "avatar_hash": "893407ceabf5",
            "image_72": "https:\/\/avatars.slack-edge.com\/2018-02-21\/318589786788_893407ceabf5ea3b7f43_72.jpg",
            "first_name": "Marc",
            "real_name": "Marc Santolini",
            "display_name": "marc",
            "team": "T8MNSEUPP",
            "name": "marc.santolini",
            "is_restricted": false,
            "is_ultra_restricted": false
        },
        "blocks": [
            {
                "type": "rich_text",
                "block_id": "lVXK",
                "elements": [
                    {
                        "type": "rich_text_section",
                        "elements": [
                            {
                                "type": "text",
                                "text": "hahah"
                            }
                        ]
                    }
                ]
            }
        ],
        "thread_ts": "1584736347.009200",
        "parent_user_id": "U8MNSEUSZ"
    },
    {
        "client_msg_id": "CFEAF423-365C-4164-95C0-D17FF46F444E",
        "type": "message",
        "text": "it’s like the guy in complete meltdown “guys FUCK YOU and do your job!!!”",
        "user": "U9DKGBDJT",
        "ts": "1584785332.018600",
        "team": "TUU48M0T1",
        "user_team": "T8MNSEUPP",
        "source_team": "T8MNSEUPP",
        "user_profile": {
            "avatar_hash": "893407ceabf5",
            "image_72": "https:\/\/avatars.slack-edge.com\/2018-02-21\/318589786788_893407ceabf5ea3b7f43_72.jpg",
            "first_name": "Marc",
            "real_name": "Marc Santolini",
            "display_name": "marc",
            "team": "T8MNSEUPP",
            "name": "marc.santolini",
            "is_restricted": false,
            "is_ultra_restricted": false
        },
        "blocks": [
            {
                "type": "rich_text",
                "block_id": "UkY",
                "elements": [
                    {
                        "type": "rich_text_section",
                        "elements": [
                            {
                                "type": "text",
                                "text": "it’s like the guy in complete meltdown “guys FUCK YOU and do your job!!!”"
                            }
                        ]
                    }
                ]
            }
        ],
        "thread_ts": "1584736347.009200",
        "parent_user_id": "U8MNSEUSZ",
        "reactions": [
            {
                "name": "joy",
                "users": [
                    "U8MNSEUSZ",
                    "UF85XFWBS"
                ],
                "count": 2
            }
        ]
    },
    {
        "client_msg_id": "948EB1CF-6A58-44F3-AA48-51CA3277FFDF",
        "type": "message",
        "text": "we should get inspiration from their very simple on boarding text: <http:\/\/crowdfightcovid19.org\/|http:\/\/crowdfightcovid19.org\/>",
        "user": "U9DKGBDJT",
        "ts": "1584797370.019300",
        "team": "TUU48M0T1",
        "user_team": "T8MNSEUPP",
        "source_team": "T8MNSEUPP",
        "user_profile": {
            "avatar_hash": "893407ceabf5",
            "image_72": "https:\/\/avatars.slack-edge.com\/2018-02-21\/318589786788_893407ceabf5ea3b7f43_72.jpg",
            "first_name": "Marc",
            "real_name": "Marc Santolini",
            "display_name": "marc",
            "team": "T8MNSEUPP",
            "name": "marc.santolini",
            "is_restricted": false,
            "is_ultra_restricted": false
        },
        "attachments": [
            {
                "title": "Crowdfight COVID-19",
                "title_link": "http:\/\/crowdfightcovid19.org\/",
                "text": "An initiative to redirect scientific resources towards the fight against COVID-19",
                "fallback": "Crowdfight COVID-19",
                "from_url": "http:\/\/crowdfightcovid19.org\/",
                "service_icon": "https:\/\/www.mailerlite.com\/site\/themes\/new\/img\/favicons\/favicon-32x32.png",
                "service_name": "crowdfightcovid19.org",
                "id": 1,
                "original_url": "http:\/\/crowdfightcovid19.org\/"
            }
        ],
        "blocks": [
            {
                "type": "rich_text",
                "block_id": "IvCH",
                "elements": [
                    {
                        "type": "rich_text_section",
                        "elements": [
                            {
                                "type": "text",
                                "text": "we should get inspiration from their very simple on boarding text: "
                            },
                            {
                                "type": "link",
                                "url": "http:\/\/crowdfightcovid19.org\/",
                                "text": "http:\/\/crowdfightcovid19.org\/"
                            }
                        ]
                    }
                ]
            }
        ]
    },
    {
        "client_msg_id": "FE1E1DCF-1263-4FF4-983C-937A865EB7C3",
        "type": "message",
        "text": "most scientists in my community (network science) are sharing this now, it has a pretty clear message but not sure how it handles things afterwards.",
        "user": "U9DKGBDJT",
        "ts": "1584797399.020400",
        "team": "TUU48M0T1",
        "user_team": "T8MNSEUPP",
        "source_team": "T8MNSEUPP",
        "user_profile": {
            "avatar_hash": "893407ceabf5",
            "image_72": "https:\/\/avatars.slack-edge.com\/2018-02-21\/318589786788_893407ceabf5ea3b7f43_72.jpg",
            "first_name": "Marc",
            "real_name": "Marc Santolini",
            "display_name": "marc",
            "team": "T8MNSEUPP",
            "name": "marc.santolini",
            "is_restricted": false,
            "is_ultra_restricted": false
        },
        "blocks": [
            {
                "type": "rich_text",
                "block_id": "fCsN2",
                "elements": [
                    {
                        "type": "rich_text_section",
                        "elements": [
                            {
                                "type": "text",
                                "text": "most scientists in my community (network science) are sharing this now, it has a pretty clear message but not sure how it handles things afterwards."
                            }
                        ]
                    }
                ]
            }
        ]
    },
    {
        "client_msg_id": "9f6384e8-fda4-4283-bf74-6126c737568d",
        "type": "message",
        "text": "can you share the OpenCovid19 back at them? :grinning:",
        "user": "U8MNSEUSZ",
        "ts": "1584797903.020900",
        "team": "TUU48M0T1",
        "user_team": "T8MNSEUPP",
        "source_team": "T8MNSEUPP",
        "user_profile": {
            "avatar_hash": "18677dd89224",
            "image_72": "https:\/\/avatars.slack-edge.com\/2018-08-27\/423888599858_18677dd89224e4f049db_72.jpg",
            "first_name": "Thomas",
            "real_name": "Thomas Landrain",
            "display_name": "Thomas",
            "team": "T8MNSEUPP",
            "name": "thomas",
            "is_restricted": false,
            "is_ultra_restricted": false
        },
        "blocks": [
            {
                "type": "rich_text",
                "block_id": "oCJyL",
                "elements": [
                    {
                        "type": "rich_text_section",
                        "elements": [
                            {
                                "type": "text",
                                "text": "can you share the OpenCovid19 back at them? "
                            },
                            {
                                "type": "emoji",
                                "name": "grinning"
                            }
                        ]
                    }
                ]
            }
        ]
    },
    {
        "client_msg_id": "1b1f3475-8e26-45af-bc8a-cee9aa1dfbbf",
        "type": "message",
        "text": "but yes, very clear onboarding path!\nThis is how our future onboarding forms should look like",
        "user": "U8MNSEUSZ",
        "ts": "1584797997.021800",
        "team": "TUU48M0T1",
        "user_team": "T8MNSEUPP",
        "source_team": "T8MNSEUPP",
        "user_profile": {
            "avatar_hash": "18677dd89224",
            "image_72": "https:\/\/avatars.slack-edge.com\/2018-08-27\/423888599858_18677dd89224e4f049db_72.jpg",
            "first_name": "Thomas",
            "real_name": "Thomas Landrain",
            "display_name": "Thomas",
            "team": "T8MNSEUPP",
            "name": "thomas",
            "is_restricted": false,
            "is_ultra_restricted": false
        },
        "blocks": [
            {
                "type": "rich_text",
                "block_id": "jWI",
                "elements": [
                    {
                        "type": "rich_text_section",
                        "elements": [
                            {
                                "type": "text",
                                "text": "but yes, very clear onboarding path!\nThis is how our future onboarding forms should look like"
                            }
                        ]
                    }
                ]
            }
        ]
    },
    {
        "client_msg_id": "58041830-4f3b-44a7-99fd-8354cae553d7",
        "type": "message",
        "text": "Can you share this on the OpenCovid19 slack too?",
        "user": "U8MNSEUSZ",
        "ts": "1584798011.022100",
        "team": "TUU48M0T1",
        "user_team": "T8MNSEUPP",
        "source_team": "T8MNSEUPP",
        "user_profile": {
            "avatar_hash": "18677dd89224",
            "image_72": "https:\/\/avatars.slack-edge.com\/2018-08-27\/423888599858_18677dd89224e4f049db_72.jpg",
            "first_name": "Thomas",
            "real_name": "Thomas Landrain",
            "display_name": "Thomas",
            "team": "T8MNSEUPP",
            "name": "thomas",
            "is_restricted": false,
            "is_ultra_restricted": false
        },
        "blocks": [
            {
                "type": "rich_text",
                "block_id": "vsbu",
                "elements": [
                    {
                        "type": "rich_text_section",
                        "elements": [
                            {
                                "type": "text",
                                "text": "Can you share this on the OpenCovid19 slack too?"
                            }
                        ]
                    }
                ]
            }
        ]
    },
    {
        "client_msg_id": "11d125d8-84e6-468c-ae23-93183fb0e9ad",
        "type": "message",
        "text": "probably in the governance channel",
        "user": "U8MNSEUSZ",
        "ts": "1584798029.022400",
        "team": "TUU48M0T1",
        "user_team": "T8MNSEUPP",
        "source_team": "T8MNSEUPP",
        "user_profile": {
            "avatar_hash": "18677dd89224",
            "image_72": "https:\/\/avatars.slack-edge.com\/2018-08-27\/423888599858_18677dd89224e4f049db_72.jpg",
            "first_name": "Thomas",
            "real_name": "Thomas Landrain",
            "display_name": "Thomas",
            "team": "T8MNSEUPP",
            "name": "thomas",
            "is_restricted": false,
            "is_ultra_restricted": false
        },
        "blocks": [
            {
                "type": "rich_text",
                "block_id": "0tz",
                "elements": [
                    {
                        "type": "rich_text_section",
                        "elements": [
                            {
                                "type": "text",
                                "text": "probably in the governance channel"
                            }
                        ]
                    }
                ]
            }
        ]
    }
]