[
    {
        "client_msg_id": "59030D09-DC83-423E-8FD1-A1229CE6E1A5",
        "type": "message",
        "text": "<https:\/\/www.bbc.com\/news\/technology-52094193|https:\/\/www.bbc.com\/news\/technology-52094193>",
        "user": "U010GHT685A",
        "ts": "1585728035.022000",
        "team": "TUU48M0T1",
        "user_team": "TUU48M0T1",
        "source_team": "TUU48M0T1",
        "user_profile": {
            "avatar_hash": "g8b82eba32dc",
            "image_72": "https:\/\/secure.gravatar.com\/avatar\/8b82eba32dceb4a94f0d2f641621be24.jpg?s=72&d=https%3A%2F%2Fa.slack-edge.com%2Fdf10d%2Fimg%2Favatars%2Fava_0014-72.png",
            "first_name": "",
            "real_name": "Cody Kochmann",
            "display_name": "",
            "team": "TUU48M0T1",
            "name": "kochmanncody",
            "is_restricted": false,
            "is_ultra_restricted": false
        },
        "attachments": [
            {
                "service_name": "BBC News",
                "title": "Tech firm fixes broken ventilators from stockpile",
                "title_link": "https:\/\/www.bbc.com\/news\/technology-52094193",
                "text": "The 170 repaired machines had been in storage since the H5N1 bird flu outbreak of the mid-2000s.",
                "fallback": "BBC News: Tech firm fixes broken ventilators from stockpile",
                "image_url": "https:\/\/ichef.bbci.co.uk\/news\/1024\/branded_news\/14269\/production\/_111473528_431e4b98-185a-4bc7-a45c-1b00ce7e48b6.jpg",
                "from_url": "https:\/\/www.bbc.com\/news\/technology-52094193",
                "image_width": 444,
                "image_height": 250,
                "image_bytes": 76355,
                "service_icon": "https:\/\/static.bbc.co.uk\/news\/1.312.03569\/apple-touch-icon.png",
                "id": 1,
                "original_url": "https:\/\/www.bbc.com\/news\/technology-52094193"
            }
        ],
        "blocks": [
            {
                "type": "rich_text",
                "block_id": "uyBO",
                "elements": [
                    {
                        "type": "rich_text_section",
                        "elements": [
                            {
                                "type": "link",
                                "url": "https:\/\/www.bbc.com\/news\/technology-52094193",
                                "text": "https:\/\/www.bbc.com\/news\/technology-52094193"
                            }
                        ]
                    }
                ]
            }
        ]
    },
    {
        "client_msg_id": "8384B750-840A-47A5-8A84-4235B2084EFB",
        "type": "message",
        "text": "sketchy right to repair issues stemming from this",
        "user": "U010GHT685A",
        "ts": "1585728075.022700",
        "team": "TUU48M0T1",
        "user_team": "TUU48M0T1",
        "source_team": "TUU48M0T1",
        "user_profile": {
            "avatar_hash": "g8b82eba32dc",
            "image_72": "https:\/\/secure.gravatar.com\/avatar\/8b82eba32dceb4a94f0d2f641621be24.jpg?s=72&d=https%3A%2F%2Fa.slack-edge.com%2Fdf10d%2Fimg%2Favatars%2Fava_0014-72.png",
            "first_name": "",
            "real_name": "Cody Kochmann",
            "display_name": "",
            "team": "TUU48M0T1",
            "name": "kochmanncody",
            "is_restricted": false,
            "is_ultra_restricted": false
        },
        "blocks": [
            {
                "type": "rich_text",
                "block_id": "mH+I",
                "elements": [
                    {
                        "type": "rich_text_section",
                        "elements": [
                            {
                                "type": "text",
                                "text": "sketchy right to repair issues stemming from this"
                            }
                        ]
                    }
                ]
            }
        ]
    },
    {
        "client_msg_id": "eb0b6c6b-072f-4fe8-b19f-a49cb81503e9",
        "type": "message",
        "text": "Hey everyone, looking forward to our global community call. Pease use this agenda to indicate what you’d like to speak about during the call:\n<https:\/\/docs.google.com\/document\/d\/1H0v-5KD1eATfnkD1U_XnoxfCT-BLIKl7sD3-tL1lmMQ\/edit>\nThanks!",
        "user": "UV02WET96",
        "ts": "1585754488.022900",
        "team": "TUU48M0T1",
        "user_team": "TUU48M0T1",
        "source_team": "TUU48M0T1",
        "user_profile": {
            "avatar_hash": "a99c74a194f8",
            "image_72": "https:\/\/avatars.slack-edge.com\/2020-03-07\/975708504851_a99c74a194f86715ca7d_72.png",
            "first_name": "Thomas",
            "real_name": "Thomas Landrain",
            "display_name": "Thomas Landrain - JOGL CoFounder \/ CEO",
            "team": "TUU48M0T1",
            "name": "thomas",
            "is_restricted": false,
            "is_ultra_restricted": false
        },
        "blocks": [
            {
                "type": "rich_text",
                "block_id": "abChs",
                "elements": [
                    {
                        "type": "rich_text_section",
                        "elements": [
                            {
                                "type": "text",
                                "text": "Hey everyone, looking forward to our global community call. Pease use this agenda to indicate what you’d like to speak about during the call:\n"
                            },
                            {
                                "type": "link",
                                "url": "https:\/\/docs.google.com\/document\/d\/1H0v-5KD1eATfnkD1U_XnoxfCT-BLIKl7sD3-tL1lmMQ\/edit"
                            },
                            {
                                "type": "text",
                                "text": "\nThanks!"
                            }
                        ]
                    }
                ]
            }
        ]
    },
    {
        "client_msg_id": "9e946edd-6434-483f-a72b-da4eadf0414b",
        "type": "message",
        "text": "Hello all :slightly_smiling_face:",
        "user": "U010PN4GWPK",
        "ts": "1585775323.023500",
        "team": "TUU48M0T1",
        "user_team": "TUU48M0T1",
        "source_team": "TUU48M0T1",
        "user_profile": {
            "avatar_hash": "14d13b9be84d",
            "image_72": "https:\/\/avatars.slack-edge.com\/2020-04-01\/1029918745154_14d13b9be84d654b871f_72.png",
            "first_name": "",
            "real_name": "Intensify World",
            "display_name": "Intensify World",
            "team": "TUU48M0T1",
            "name": "lfad.eeic",
            "is_restricted": false,
            "is_ultra_restricted": false
        },
        "blocks": [
            {
                "type": "rich_text",
                "block_id": "iRZe",
                "elements": [
                    {
                        "type": "rich_text_section",
                        "elements": [
                            {
                                "type": "text",
                                "text": "Hello all "
                            },
                            {
                                "type": "emoji",
                                "name": "slightly_smiling_face"
                            }
                        ]
                    }
                ]
            }
        ],
        "reactions": [
            {
                "name": "wave",
                "users": [
                    "UV02WET96"
                ],
                "count": 1
            }
        ]
    }
]