[
    {
        "client_msg_id": "519c8c17-8ded-46e3-9c4b-7fab01b0e0a6",
        "type": "message",
        "text": "Hi, I'm looking for Arduino\/ESP8622 developers to build a bioreactor to make reagents essential for both for detection and treatments for SARS-COV2. ESP8622 is aame as Arduino but Wifi enabled which means C++, and some web (javascript) experience.\nA bioreactor allows growing of large quantities of bacteria , yeast or mammalian cells. Those can produce large quantities of enzymes like RT which is an enzyme used to generate complementary DNA (cDNA) from an RNA template, a process termed reverse transcription.\nThat is the first reagent used in the CDC used virus detection. There are some other reagents and pretty much all of the organic one them can be produced with the bioreactor.\nA bioreactor is a container with liquid inside (growth media+organisms) where we need to monitor and adjust temperature, Oxygen, PH and flow",
        "user": "U0103SR759U",
        "ts": "1584883211.015700",
        "team": "TUU48M0T1",
        "user_team": "TUU48M0T1",
        "source_team": "TUU48M0T1",
        "user_profile": {
            "avatar_hash": "g2694d379600",
            "image_72": "https:\/\/secure.gravatar.com\/avatar\/2694d3796008843d36d4b6ceff7f8660.jpg?s=72&d=https%3A%2F%2Fa.slack-edge.com%2Fdf10d%2Fimg%2Favatars%2Fava_0010-72.png",
            "first_name": "Adrian",
            "real_name": "Adrian Molecule",
            "display_name": "Adrian Molecule",
            "team": "TUU48M0T1",
            "name": "tada",
            "is_restricted": false,
            "is_ultra_restricted": false
        },
        "blocks": [
            {
                "type": "rich_text",
                "block_id": "+6Y",
                "elements": [
                    {
                        "type": "rich_text_section",
                        "elements": [
                            {
                                "type": "text",
                                "text": "Hi, I'm looking for Arduino\/ESP8622 developers to build a bioreactor to make reagents essential for both for detection and treatments for SARS-COV2. ESP8622 is aame as Arduino but Wifi enabled which means C++, and some web (javascript) experience.\nA bioreactor allows growing of large quantities of bacteria , yeast or mammalian cells. Those can produce large quantities of enzymes like RT which is an enzyme used to generate complementary DNA (cDNA) from an RNA template, a process termed reverse transcription.\nThat is the first reagent used in the CDC used virus detection. There are some other reagents and pretty much all of the organic one them can be produced with the bioreactor.\nA bioreactor is a container with liquid inside (growth media+organisms) where we need to monitor and adjust temperature, Oxygen, PH and flow"
                            }
                        ]
                    }
                ]
            }
        ],
        "thread_ts": "1584883211.015700",
        "reply_count": 14,
        "reply_users_count": 5,
        "latest_reply": "1585073353.028000",
        "reply_users": [
            "U0106PLV8PJ",
            "U010GQLQM0V",
            "U0103SR759U",
            "UV3URUKK5",
            "UVBEDFNPJ"
        ],
        "replies": [
            {
                "user": "U0106PLV8PJ",
                "ts": "1584883251.015800"
            },
            {
                "user": "U010GQLQM0V",
                "ts": "1584885045.016000"
            },
            {
                "user": "U0103SR759U",
                "ts": "1584894962.016500"
            },
            {
                "user": "U0103SR759U",
                "ts": "1584894971.016700"
            },
            {
                "user": "U0103SR759U",
                "ts": "1584895410.016900"
            },
            {
                "user": "U010GQLQM0V",
                "ts": "1584900057.017100"
            },
            {
                "user": "UV3URUKK5",
                "ts": "1584901768.017300"
            },
            {
                "user": "U0103SR759U",
                "ts": "1584909383.020600"
            },
            {
                "user": "UVBEDFNPJ",
                "ts": "1584911343.020800"
            },
            {
                "user": "UVBEDFNPJ",
                "ts": "1584929797.022800"
            },
            {
                "user": "U0103SR759U",
                "ts": "1584936227.023000"
            },
            {
                "user": "U0103SR759U",
                "ts": "1584936328.023200"
            },
            {
                "user": "U0103SR759U",
                "ts": "1585073277.027800"
            },
            {
                "user": "U0103SR759U",
                "ts": "1585073353.028000"
            }
        ],
        "subscribed": false
    },
    {
        "client_msg_id": "04fcc4b7-dd34-4e2c-8412-c76a6e5542dc",
        "type": "message",
        "text": "I am interested. I have a deep background in both these platforms.",
        "user": "U0106PLV8PJ",
        "ts": "1584883251.015800",
        "team": "TUU48M0T1",
        "user_team": "TUU48M0T1",
        "source_team": "TUU48M0T1",
        "user_profile": {
            "avatar_hash": "g2cfc1aee243",
            "image_72": "https:\/\/secure.gravatar.com\/avatar\/2cfc1aee24305a18a647efef16d68e02.jpg?s=72&d=https%3A%2F%2Fa.slack-edge.com%2Fdf10d%2Fimg%2Favatars%2Fava_0012-72.png",
            "first_name": "",
            "real_name": "Rupin Chheda",
            "display_name": "",
            "team": "TUU48M0T1",
            "name": "rupin.chheda",
            "is_restricted": false,
            "is_ultra_restricted": false
        },
        "blocks": [
            {
                "type": "rich_text",
                "block_id": "Ykz",
                "elements": [
                    {
                        "type": "rich_text_section",
                        "elements": [
                            {
                                "type": "text",
                                "text": "I am interested. I have a deep background in both these platforms."
                            }
                        ]
                    }
                ]
            }
        ],
        "thread_ts": "1584883211.015700",
        "parent_user_id": "U0103SR759U"
    },
    {
        "client_msg_id": "b951bd89-a5e2-4881-b631-1ad4002836d2",
        "type": "message",
        "text": "Hi, thanks for these explanations maybe you could add a project to <https:\/\/app.jogl.io\/program\/2#projects>, this will give him more visibility. And your need there: <https:\/\/app.jogl.io\/program\/2#needs>",
        "user": "U010GQLQM0V",
        "ts": "1584885045.016000",
        "team": "TUU48M0T1",
        "user_team": "TUU48M0T1",
        "source_team": "TUU48M0T1",
        "user_profile": {
            "avatar_hash": "1a0ce731f8ab",
            "image_72": "https:\/\/avatars.slack-edge.com\/2020-03-21\/1016842381781_1a0ce731f8abb8d59bc9_72.jpg",
            "first_name": "",
            "real_name": "Florian ROBERT",
            "display_name": "Florian ROBERT",
            "team": "TUU48M0T1",
            "name": "florian.robert",
            "is_restricted": false,
            "is_ultra_restricted": false
        },
        "attachments": [
            {
                "title": "JOGL - Just One Giant Lab",
                "title_link": "https:\/\/app.jogl.io\/program\/2#projects",
                "text": "JOGL helps sync humanity onto solving our most important social &amp; environmental problems using open science, responsible innovation &amp; continuous learning.",
                "fallback": "JOGL - Just One Giant Lab",
                "thumb_url": "https:\/\/app.jogl.io\/planet.jpg",
                "from_url": "https:\/\/app.jogl.io\/program\/2#projects",
                "thumb_width": 2049,
                "thumb_height": 1011,
                "service_icon": "https:\/\/app.jogl.io\/favicon.ico",
                "service_name": "app.jogl.io",
                "id": 1,
                "original_url": "https:\/\/app.jogl.io\/program\/2#projects"
            },
            {
                "title": "JOGL - Just One Giant Lab",
                "title_link": "https:\/\/app.jogl.io\/program\/2#needs",
                "text": "JOGL helps sync humanity onto solving our most important social &amp; environmental problems using open science, responsible innovation &amp; continuous learning.",
                "fallback": "JOGL - Just One Giant Lab",
                "thumb_url": "https:\/\/app.jogl.io\/planet.jpg",
                "from_url": "https:\/\/app.jogl.io\/program\/2#needs",
                "thumb_width": 2049,
                "thumb_height": 1011,
                "service_icon": "https:\/\/app.jogl.io\/favicon.ico",
                "service_name": "app.jogl.io",
                "id": 2,
                "original_url": "https:\/\/app.jogl.io\/program\/2#needs"
            }
        ],
        "blocks": [
            {
                "type": "rich_text",
                "block_id": "WQT",
                "elements": [
                    {
                        "type": "rich_text_section",
                        "elements": [
                            {
                                "type": "text",
                                "text": "Hi, thanks for these explanations maybe you could add a project to "
                            },
                            {
                                "type": "link",
                                "url": "https:\/\/app.jogl.io\/program\/2#projects"
                            },
                            {
                                "type": "text",
                                "text": ", this will give him more visibility. And your need there: "
                            },
                            {
                                "type": "link",
                                "url": "https:\/\/app.jogl.io\/program\/2#needs"
                            }
                        ]
                    }
                ]
            }
        ],
        "thread_ts": "1584883211.015700",
        "parent_user_id": "U0103SR759U"
    },
    {
        "client_msg_id": "fc837855-dc14-43c1-b3d9-9588c734c073",
        "type": "message",
        "text": "Smart suggestion. Done. It's called prgm-bioreactor",
        "user": "U0103SR759U",
        "ts": "1584894962.016500",
        "team": "TUU48M0T1",
        "user_team": "TUU48M0T1",
        "source_team": "TUU48M0T1",
        "user_profile": {
            "avatar_hash": "g2694d379600",
            "image_72": "https:\/\/secure.gravatar.com\/avatar\/2694d3796008843d36d4b6ceff7f8660.jpg?s=72&d=https%3A%2F%2Fa.slack-edge.com%2Fdf10d%2Fimg%2Favatars%2Fava_0010-72.png",
            "first_name": "Adrian",
            "real_name": "Adrian Molecule",
            "display_name": "Adrian Molecule",
            "team": "TUU48M0T1",
            "name": "tada",
            "is_restricted": false,
            "is_ultra_restricted": false
        },
        "blocks": [
            {
                "type": "rich_text",
                "block_id": "RlU",
                "elements": [
                    {
                        "type": "rich_text_section",
                        "elements": [
                            {
                                "type": "text",
                                "text": "Smart suggestion. Done. It's called prgm-bioreactor"
                            }
                        ]
                    }
                ]
            }
        ],
        "thread_ts": "1584883211.015700",
        "parent_user_id": "U0103SR759U"
    },
    {
        "client_msg_id": "f06e7da5-5dfc-4abd-b3b0-fa3dc41bbbd0",
        "type": "message",
        "text": "let's communicate in there.",
        "user": "U0103SR759U",
        "ts": "1584894971.016700",
        "team": "TUU48M0T1",
        "user_team": "TUU48M0T1",
        "source_team": "TUU48M0T1",
        "user_profile": {
            "avatar_hash": "g2694d379600",
            "image_72": "https:\/\/secure.gravatar.com\/avatar\/2694d3796008843d36d4b6ceff7f8660.jpg?s=72&d=https%3A%2F%2Fa.slack-edge.com%2Fdf10d%2Fimg%2Favatars%2Fava_0010-72.png",
            "first_name": "Adrian",
            "real_name": "Adrian Molecule",
            "display_name": "Adrian Molecule",
            "team": "TUU48M0T1",
            "name": "tada",
            "is_restricted": false,
            "is_ultra_restricted": false
        },
        "blocks": [
            {
                "type": "rich_text",
                "block_id": "wjPua",
                "elements": [
                    {
                        "type": "rich_text_section",
                        "elements": [
                            {
                                "type": "text",
                                "text": "let's communicate in there."
                            }
                        ]
                    }
                ]
            }
        ],
        "thread_ts": "1584883211.015700",
        "parent_user_id": "U0103SR759U"
    },
    {
        "client_msg_id": "b42b935e-7fa4-4283-a76c-0973514a7a11",
        "type": "message",
        "text": "I created a project from one of the links. Not clear how to create a need from the second link",
        "user": "U0103SR759U",
        "ts": "1584895410.016900",
        "team": "TUU48M0T1",
        "user_team": "TUU48M0T1",
        "source_team": "TUU48M0T1",
        "user_profile": {
            "avatar_hash": "g2694d379600",
            "image_72": "https:\/\/secure.gravatar.com\/avatar\/2694d3796008843d36d4b6ceff7f8660.jpg?s=72&d=https%3A%2F%2Fa.slack-edge.com%2Fdf10d%2Fimg%2Favatars%2Fava_0010-72.png",
            "first_name": "Adrian",
            "real_name": "Adrian Molecule",
            "display_name": "Adrian Molecule",
            "team": "TUU48M0T1",
            "name": "tada",
            "is_restricted": false,
            "is_ultra_restricted": false
        },
        "blocks": [
            {
                "type": "rich_text",
                "block_id": "uJK9D",
                "elements": [
                    {
                        "type": "rich_text_section",
                        "elements": [
                            {
                                "type": "text",
                                "text": "I created a project from one of the links. Not clear how to create a need from the second link"
                            }
                        ]
                    }
                ]
            }
        ],
        "thread_ts": "1584883211.015700",
        "parent_user_id": "U0103SR759U"
    },
    {
        "client_msg_id": "9a8e5f02-8357-4088-9712-9bb7f7760c8e",
        "type": "message",
        "text": "Maybe people Jogl <@UVC9WMA7N> could guide you",
        "user": "U010GQLQM0V",
        "ts": "1584900057.017100",
        "team": "TUU48M0T1",
        "user_team": "TUU48M0T1",
        "source_team": "TUU48M0T1",
        "user_profile": {
            "avatar_hash": "1a0ce731f8ab",
            "image_72": "https:\/\/avatars.slack-edge.com\/2020-03-21\/1016842381781_1a0ce731f8abb8d59bc9_72.jpg",
            "first_name": "",
            "real_name": "Florian ROBERT",
            "display_name": "Florian ROBERT",
            "team": "TUU48M0T1",
            "name": "florian.robert",
            "is_restricted": false,
            "is_ultra_restricted": false
        },
        "blocks": [
            {
                "type": "rich_text",
                "block_id": "GvI",
                "elements": [
                    {
                        "type": "rich_text_section",
                        "elements": [
                            {
                                "type": "text",
                                "text": "Maybe people Jogl "
                            },
                            {
                                "type": "user",
                                "user_id": "UVC9WMA7N"
                            },
                            {
                                "type": "text",
                                "text": " could guide you"
                            }
                        ]
                    }
                ]
            }
        ],
        "thread_ts": "1584883211.015700",
        "parent_user_id": "U0103SR759U"
    },
    {
        "client_msg_id": "100a756c-0881-4489-8262-40c32016e0f5",
        "type": "message",
        "text": "Do you know <https:\/\/openbioeconomy.org\/>? they have an entire research line about that and we have the luck of having <@UV1V637PU> from open bioeconomy here. Hackuarium (<http:\/\/wiki.hackuarium.ch\/w\/Main_Page>) have also a few designs of bioreactors you could learn from and you also have the president in this slack <@UV1A22N3W>.",
        "user": "UV3URUKK5",
        "ts": "1584901768.017300",
        "team": "TUU48M0T1",
        "user_team": "TUU48M0T1",
        "source_team": "TUU48M0T1",
        "user_profile": {
            "avatar_hash": "64c99c2ed974",
            "image_72": "https:\/\/avatars.slack-edge.com\/2020-03-15\/1000999702004_64c99c2ed97497e08ca9_72.jpg",
            "first_name": "",
            "real_name": "Francisco Javier Quero",
            "display_name": "Francisco Javier Quero",
            "team": "TUU48M0T1",
            "name": "franxi2953",
            "is_restricted": false,
            "is_ultra_restricted": false
        },
        "blocks": [
            {
                "type": "rich_text",
                "block_id": "7vL",
                "elements": [
                    {
                        "type": "rich_text_section",
                        "elements": [
                            {
                                "type": "text",
                                "text": "Do you know "
                            },
                            {
                                "type": "link",
                                "url": "https:\/\/openbioeconomy.org\/"
                            },
                            {
                                "type": "text",
                                "text": "? they have an entire research line about that and we have the luck of having "
                            },
                            {
                                "type": "user",
                                "user_id": "UV1V637PU"
                            },
                            {
                                "type": "text",
                                "text": " from open bioeconomy here. Hackuarium ("
                            },
                            {
                                "type": "link",
                                "url": "http:\/\/wiki.hackuarium.ch\/w\/Main_Page"
                            },
                            {
                                "type": "text",
                                "text": ") have also a few designs of bioreactors you could learn from and you also have the president in this slack "
                            },
                            {
                                "type": "user",
                                "user_id": "UV1A22N3W"
                            },
                            {
                                "type": "text",
                                "text": "."
                            }
                        ]
                    }
                ]
            }
        ],
        "thread_ts": "1584883211.015700",
        "parent_user_id": "U0103SR759U"
    },
    {
        "client_msg_id": "a67156fc-c329-412d-a7f9-bbd597b51118",
        "type": "message",
        "text": "Hi, I contacted my former employer, who is a injection mold manufacturer and plastic part manufacturer for manufacturing the open source mask. Can we get the design for the molded version finalized? After that I can get the price offer for the molds and parts and we can get the funding on this.",
        "user": "U0108DWH5NH",
        "ts": "1584905098.020500",
        "team": "TUU48M0T1",
        "user_team": "TUU48M0T1",
        "source_team": "TUU48M0T1",
        "user_profile": {
            "avatar_hash": "gd582b07cb4c",
            "image_72": "https:\/\/secure.gravatar.com\/avatar\/d582b07cb4cff8ecfdf7095f4f4eefc5.jpg?s=72&d=https%3A%2F%2Fa.slack-edge.com%2Fdf10d%2Fimg%2Favatars%2Fava_0025-72.png",
            "first_name": "",
            "real_name": "Juraj Marak",
            "display_name": "Juraj Marak",
            "team": "TUU48M0T1",
            "name": "kukulo2011",
            "is_restricted": false,
            "is_ultra_restricted": false
        },
        "blocks": [
            {
                "type": "rich_text",
                "block_id": "tpe",
                "elements": [
                    {
                        "type": "rich_text_section",
                        "elements": [
                            {
                                "type": "text",
                                "text": "Hi, I contacted my former employer, who is a injection mold manufacturer and plastic part manufacturer for manufacturing the open source mask. Can we get the design for the molded version finalized? After that I can get the price offer for the molds and parts and we can get the funding on this."
                            }
                        ]
                    }
                ]
            }
        ]
    },
    {
        "client_msg_id": "3726d40c-4fa0-4b40-a0c6-0e18ab04d5a9",
        "type": "message",
        "text": "Hi Francisco, Thank you for the information.\nWe certainly did some of that homework. This is not a project started because of the pandemic but much before that.\nI'm very aware of the fantastic work done by <@UV1V637PU> and Chiara and her team and many other designs done by other parties. Unfortunately most of those designs are not appropriate or not completed and they are not actively progressing. Jenny's lab is crucial and has it's hands full executing on the free reagents so I don't think they would have the band width to work to finalize the project. Cheap reagent protocols are crucial for most projects in here so that's where Jenny's contribution is paramount.\nAlso there are significant differences in the design.",
        "user": "U0103SR759U",
        "ts": "1584909383.020600",
        "team": "TUU48M0T1",
        "user_team": "TUU48M0T1",
        "source_team": "TUU48M0T1",
        "user_profile": {
            "avatar_hash": "g2694d379600",
            "image_72": "https:\/\/secure.gravatar.com\/avatar\/2694d3796008843d36d4b6ceff7f8660.jpg?s=72&d=https%3A%2F%2Fa.slack-edge.com%2Fdf10d%2Fimg%2Favatars%2Fava_0010-72.png",
            "first_name": "Adrian",
            "real_name": "Adrian Molecule",
            "display_name": "Adrian Molecule",
            "team": "TUU48M0T1",
            "name": "tada",
            "is_restricted": false,
            "is_ultra_restricted": false
        },
        "blocks": [
            {
                "type": "rich_text",
                "block_id": "9lpZ",
                "elements": [
                    {
                        "type": "rich_text_section",
                        "elements": [
                            {
                                "type": "text",
                                "text": "Hi Francisco, Thank you for the information.\nWe certainly did some of that homework. This is not a project started because of the pandemic but much before that.\nI'm very aware of the fantastic work done by "
                            },
                            {
                                "type": "user",
                                "user_id": "UV1V637PU"
                            },
                            {
                                "type": "text",
                                "text": " and Chiara and her team and many other designs done by other parties. Unfortunately most of those designs are not appropriate or not completed and they are not actively progressing. Jenny's lab is crucial and has it's hands full executing on the free reagents so I don't think they would have the band width to work to finalize the project. Cheap reagent protocols are crucial for most projects in here so that's where Jenny's contribution is paramount.\nAlso there are significant differences in the design."
                            }
                        ]
                    }
                ]
            }
        ],
        "thread_ts": "1584883211.015700",
        "parent_user_id": "U0103SR759U"
    },
    {
        "client_msg_id": "8179258f-5665-42bb-a798-ebea44b6bbd2",
        "type": "message",
        "text": "Hi,\n\nI can help design and\/or review hardware (schematics \/ pcb layout) for devices.  We also have in-house PCB assembly for small-medium volumes depending on complexity.\n\nI think you meant ESP8266, are you also considering the ESP32?\n\nIf there's a new channel created for this, post here. Thanks",
        "user": "UVBEDFNPJ",
        "ts": "1584911343.020800",
        "team": "TUU48M0T1",
        "user_team": "TUU48M0T1",
        "source_team": "TUU48M0T1",
        "user_profile": {
            "avatar_hash": "g283f55a73d8",
            "image_72": "https:\/\/secure.gravatar.com\/avatar\/283f55a73d87c092accdfe6d3073482d.jpg?s=72&d=https%3A%2F%2Fa.slack-edge.com%2Fdf10d%2Fimg%2Favatars%2Fava_0009-72.png",
            "first_name": "",
            "real_name": "Brent Picasso",
            "display_name": "Brent Picasso",
            "team": "TUU48M0T1",
            "name": "brent",
            "is_restricted": false,
            "is_ultra_restricted": false
        },
        "blocks": [
            {
                "type": "rich_text",
                "block_id": "O7U",
                "elements": [
                    {
                        "type": "rich_text_section",
                        "elements": [
                            {
                                "type": "text",
                                "text": "Hi,\n\nI can help design and\/or review hardware (schematics \/ pcb layout) for devices.  We also have in-house PCB assembly for small-medium volumes depending on complexity.\n\nI think you meant ESP8266, are you also considering the ESP32?\n\nIf there's a new channel created for this, post here. Thanks"
                            }
                        ]
                    }
                ]
            }
        ],
        "thread_ts": "1584883211.015700",
        "parent_user_id": "U0103SR759U"
    },
    {
        "client_msg_id": "251173c7-7675-4765-95b7-fae9bfccd6a4",
        "type": "message",
        "text": "This was shared recently, and discussed as 'open hardware' - but I'm not seeing where any of the hardware files are shared. <http:\/\/linuxgizmos.com\/open-source-beaglebone-based-diagnostics-computer-to-add-covid-19-testing\/>\n\nLooking for options for us to help build PCBs \/ etc. for testing equipment, ventilators or similar.",
        "user": "UVBEDFNPJ",
        "ts": "1584911460.022000",
        "team": "TUU48M0T1",
        "user_team": "TUU48M0T1",
        "source_team": "TUU48M0T1",
        "user_profile": {
            "avatar_hash": "g283f55a73d8",
            "image_72": "https:\/\/secure.gravatar.com\/avatar\/283f55a73d87c092accdfe6d3073482d.jpg?s=72&d=https%3A%2F%2Fa.slack-edge.com%2Fdf10d%2Fimg%2Favatars%2Fava_0009-72.png",
            "first_name": "",
            "real_name": "Brent Picasso",
            "display_name": "Brent Picasso",
            "team": "TUU48M0T1",
            "name": "brent",
            "is_restricted": false,
            "is_ultra_restricted": false
        },
        "attachments": [
            {
                "service_name": "LinuxGizmos.com",
                "title": "Open source, BeagleBone-based diagnostics computer to add Covid-19 testing",
                "title_link": "http:\/\/linuxgizmos.com\/open-source-beaglebone-based-diagnostics-computer-to-add-covid-19-testing\/",
                "text": "Chai is prepping a Coronavirus Environmental Testing Kit for its open source, BeagleBone-based Open qPCR system. The kit can test surfaces for Covid-19 from swab samples and return results within the hour.",
                "fallback": "LinuxGizmos.com: Open source, BeagleBone-based diagnostics computer to add Covid-19 testing",
                "thumb_url": "http:\/\/linuxgizmos.com\/files\/chai_openqpcr-thm.jpg",
                "ts": 1584462714,
                "from_url": "http:\/\/linuxgizmos.com\/open-source-beaglebone-based-diagnostics-computer-to-add-covid-19-testing\/",
                "thumb_width": 125,
                "thumb_height": 100,
                "service_icon": "http:\/\/linuxgizmos.com\/favicon.ico",
                "id": 1,
                "original_url": "http:\/\/linuxgizmos.com\/open-source-beaglebone-based-diagnostics-computer-to-add-covid-19-testing\/"
            }
        ],
        "blocks": [
            {
                "type": "rich_text",
                "block_id": "K4n",
                "elements": [
                    {
                        "type": "rich_text_section",
                        "elements": [
                            {
                                "type": "text",
                                "text": "This was shared recently, and discussed as 'open hardware' - but I'm not seeing where any of the hardware files are shared. "
                            },
                            {
                                "type": "link",
                                "url": "http:\/\/linuxgizmos.com\/open-source-beaglebone-based-diagnostics-computer-to-add-covid-19-testing\/"
                            },
                            {
                                "type": "text",
                                "text": "\n\nLooking for options for us to help build PCBs \/ etc. for testing equipment, ventilators or similar."
                            }
                        ]
                    }
                ]
            }
        ]
    },
    {
        "type": "message",
        "subtype": "channel_join",
        "ts": "1584920690.022400",
        "user": "U010HTBUHS9",
        "text": "<@U010HTBUHS9> has joined the channel",
        "inviter": "UV02WET96"
    },
    {
        "client_msg_id": "6e9449dd-1d52-4dbf-823d-ca1b19884ee1",
        "type": "message",
        "text": "<@U0103SR759U> I could not find the link to the project on the JOGL site - was it created?  If you have a separate slack channel, please add me to that as well. Thanks!",
        "user": "UVBEDFNPJ",
        "ts": "1584929797.022800",
        "team": "TUU48M0T1",
        "user_team": "TUU48M0T1",
        "source_team": "TUU48M0T1",
        "user_profile": {
            "avatar_hash": "g283f55a73d8",
            "image_72": "https:\/\/secure.gravatar.com\/avatar\/283f55a73d87c092accdfe6d3073482d.jpg?s=72&d=https%3A%2F%2Fa.slack-edge.com%2Fdf10d%2Fimg%2Favatars%2Fava_0009-72.png",
            "first_name": "",
            "real_name": "Brent Picasso",
            "display_name": "Brent Picasso",
            "team": "TUU48M0T1",
            "name": "brent",
            "is_restricted": false,
            "is_ultra_restricted": false
        },
        "blocks": [
            {
                "type": "rich_text",
                "block_id": "0yX",
                "elements": [
                    {
                        "type": "rich_text_section",
                        "elements": [
                            {
                                "type": "user",
                                "user_id": "U0103SR759U"
                            },
                            {
                                "type": "text",
                                "text": " I could not find the link to the project on the JOGL site - was it created?  If you have a separate slack channel, please add me to that as well. Thanks!"
                            }
                        ]
                    }
                ]
            }
        ],
        "thread_ts": "1584883211.015700",
        "parent_user_id": "U0103SR759U"
    },
    {
        "client_msg_id": "38d28723-f843-4ee6-a145-de9ecdbb3103",
        "type": "message",
        "text": "prj-bioreactor",
        "user": "U0103SR759U",
        "ts": "1584936227.023000",
        "team": "TUU48M0T1",
        "user_team": "TUU48M0T1",
        "source_team": "TUU48M0T1",
        "user_profile": {
            "avatar_hash": "g2694d379600",
            "image_72": "https:\/\/secure.gravatar.com\/avatar\/2694d3796008843d36d4b6ceff7f8660.jpg?s=72&d=https%3A%2F%2Fa.slack-edge.com%2Fdf10d%2Fimg%2Favatars%2Fava_0010-72.png",
            "first_name": "Adrian",
            "real_name": "Adrian Molecule",
            "display_name": "Adrian Molecule",
            "team": "TUU48M0T1",
            "name": "tada",
            "is_restricted": false,
            "is_ultra_restricted": false
        },
        "blocks": [
            {
                "type": "rich_text",
                "block_id": "0IY",
                "elements": [
                    {
                        "type": "rich_text_section",
                        "elements": [
                            {
                                "type": "text",
                                "text": "prj-bioreactor"
                            }
                        ]
                    }
                ]
            }
        ],
        "thread_ts": "1584883211.015700",
        "parent_user_id": "U0103SR759U"
    },
    {
        "client_msg_id": "09d89ced-25fc-42af-b113-2887e53e8d08",
        "type": "message",
        "text": "it has <https:\/\/join.slack.com\/t\/bioreactorthi-1h35662\/shared_invite\/zt-d0o2x5g6-rElluC8xXfRvwwSGK6__PQ|t>he slack link too and yes I meant ESP8266. I would consider anything compatible. I'm using  a D1 mini clone with the board setting for NodeMCU.",
        "user": "U0103SR759U",
        "ts": "1584936328.023200",
        "team": "TUU48M0T1",
        "user_team": "TUU48M0T1",
        "source_team": "TUU48M0T1",
        "user_profile": {
            "avatar_hash": "g2694d379600",
            "image_72": "https:\/\/secure.gravatar.com\/avatar\/2694d3796008843d36d4b6ceff7f8660.jpg?s=72&d=https%3A%2F%2Fa.slack-edge.com%2Fdf10d%2Fimg%2Favatars%2Fava_0010-72.png",
            "first_name": "Adrian",
            "real_name": "Adrian Molecule",
            "display_name": "Adrian Molecule",
            "team": "TUU48M0T1",
            "name": "tada",
            "is_restricted": false,
            "is_ultra_restricted": false
        },
        "blocks": [
            {
                "type": "rich_text",
                "block_id": "sAkzp",
                "elements": [
                    {
                        "type": "rich_text_section",
                        "elements": [
                            {
                                "type": "text",
                                "text": "it has "
                            },
                            {
                                "type": "link",
                                "url": "https:\/\/join.slack.com\/t\/bioreactorthi-1h35662\/shared_invite\/zt-d0o2x5g6-rElluC8xXfRvwwSGK6__PQ",
                                "text": "t"
                            },
                            {
                                "type": "text",
                                "text": "he slack link too and yes I meant ESP8266. I would consider anything compatible. I'm using  a D1 mini clone with the board setting for NodeMCU."
                            }
                        ]
                    }
                ]
            }
        ],
        "thread_ts": "1584883211.015700",
        "parent_user_id": "U0103SR759U"
    }
]