[
    {
        "type": "message",
        "text": "<!channel> ",
        "user": "UV0QTJCMT",
        "ts": "1585072836.027700",
        "team": "TUU48M0T1",
        "user_team": "TUU48M0T1",
        "source_team": "TUU48M0T1",
        "user_profile": {
            "avatar_hash": "06a6ae8f69d1",
            "image_72": "https:\/\/avatars.slack-edge.com\/2020-04-13\/1060635499315_06a6ae8f69d18f1ad464_72.png",
            "first_name": "Katherine",
            "real_name": "Katherine Holo",
            "display_name": "Kat Holo - Co-Organizer of OpenCOVID19",
            "team": "TUU48M0T1",
            "name": "katherineh245",
            "is_restricted": false,
            "is_ultra_restricted": false
        },
        "attachments": [
            {
                "fallback": "[March 24th, 2020 11:00 AM] katherineh245: @channel here’s the zoom link for our call at 7pm CET: <https:\/\/zoom.us\/j\/7804345815|https:\/\/zoom.us\/j\/7804345815>",
                "ts": "1585072810.265800",
                "author_id": "UV0QTJCMT",
                "author_subname": "Katherine Holo",
                "channel_id": "C0104ANKV4L",
                "channel_name": "proj-mask-team",
                "is_msg_unfurl": true,
                "text": "@channel here’s the zoom link for our call at 7pm CET: <https:\/\/zoom.us\/j\/7804345815|https:\/\/zoom.us\/j\/7804345815>",
                "author_name": "Katherine Holo",
                "author_link": "https:\/\/open-covid19.slack.com\/team\/UV0QTJCMT",
                "author_icon": "https:\/\/avatars.slack-edge.com\/2020-03-06\/986844736421_11e3deb6d1a949327ddd_48.png",
                "mrkdwn_in": [
                    "text"
                ],
                "color": "D0D0D0",
                "from_url": "https:\/\/open-covid19.slack.com\/archives\/C0104ANKV4L\/p1585072810265800",
                "is_share": true,
                "footer": "Posted in #proj-mask-team"
            }
        ]
    },
    {
        "client_msg_id": "8eb390db-b1ab-45da-a6c0-d396269b23af",
        "type": "message",
        "text": "hi <@UVBEDFNPJ> Could you please join the project slack channel at <https:\/\/join.slack.com\/t\/prj-bioreactor\/shared_invite\/zt-d0o2x5g6-rElluC8xXfRvwwSGK6__PQ>?",
        "user": "U0103SR759U",
        "ts": "1585073277.027800",
        "team": "TUU48M0T1",
        "user_team": "TUU48M0T1",
        "source_team": "TUU48M0T1",
        "user_profile": {
            "avatar_hash": "g2694d379600",
            "image_72": "https:\/\/secure.gravatar.com\/avatar\/2694d3796008843d36d4b6ceff7f8660.jpg?s=72&d=https%3A%2F%2Fa.slack-edge.com%2Fdf10d%2Fimg%2Favatars%2Fava_0010-72.png",
            "first_name": "Adrian",
            "real_name": "Adrian Molecule",
            "display_name": "Adrian Molecule",
            "team": "TUU48M0T1",
            "name": "tada",
            "is_restricted": false,
            "is_ultra_restricted": false
        },
        "blocks": [
            {
                "type": "rich_text",
                "block_id": "4F7l",
                "elements": [
                    {
                        "type": "rich_text_section",
                        "elements": [
                            {
                                "type": "text",
                                "text": "hi "
                            },
                            {
                                "type": "user",
                                "user_id": "UVBEDFNPJ"
                            },
                            {
                                "type": "text",
                                "text": " Could you please join the project slack channel at "
                            },
                            {
                                "type": "link",
                                "url": "https:\/\/join.slack.com\/t\/prj-bioreactor\/shared_invite\/zt-d0o2x5g6-rElluC8xXfRvwwSGK6__PQ"
                            },
                            {
                                "type": "text",
                                "text": "?"
                            }
                        ]
                    }
                ]
            }
        ],
        "thread_ts": "1584883211.015700",
        "parent_user_id": "U0103SR759U"
    },
    {
        "client_msg_id": "c914130f-e33d-4561-a40f-7e09a2cba9e5",
        "type": "message",
        "text": "It ould be great if you coud help with the schematics especially the review part. I've been filling grant application documents and I hope to finish them... Paperwork !!",
        "user": "U0103SR759U",
        "ts": "1585073353.028000",
        "team": "TUU48M0T1",
        "user_team": "TUU48M0T1",
        "source_team": "TUU48M0T1",
        "user_profile": {
            "avatar_hash": "g2694d379600",
            "image_72": "https:\/\/secure.gravatar.com\/avatar\/2694d3796008843d36d4b6ceff7f8660.jpg?s=72&d=https%3A%2F%2Fa.slack-edge.com%2Fdf10d%2Fimg%2Favatars%2Fava_0010-72.png",
            "first_name": "Adrian",
            "real_name": "Adrian Molecule",
            "display_name": "Adrian Molecule",
            "team": "TUU48M0T1",
            "name": "tada",
            "is_restricted": false,
            "is_ultra_restricted": false
        },
        "blocks": [
            {
                "type": "rich_text",
                "block_id": "1Gim+",
                "elements": [
                    {
                        "type": "rich_text_section",
                        "elements": [
                            {
                                "type": "text",
                                "text": "It ould be great if you coud help with the schematics especially the review part. I've been filling grant application documents and I hope to finish them... Paperwork !!"
                            }
                        ]
                    }
                ]
            }
        ],
        "thread_ts": "1584883211.015700",
        "parent_user_id": "U0103SR759U"
    },
    {
        "client_msg_id": "3f1e0512-420b-43e6-9193-3f3dfd2a932b",
        "type": "message",
        "text": "<@UV2P3AQEN> <@U01081Y0TBP> <@UV02WET96> <@UV87UQ37A> Quick summary of thoughts on the request to the metastudy group:  I think we are looking for reps from four categories\n1.  USERS:   Medical personnel, physicians, nurses, etc.\n2.    MANUFACTURERS:  Plasitcs, Textiles, Metalforming\n3.  LOGISTICS\/DISTRIBUTORS:   People who do shipping or bulk volume operations that get things made here to the people who get them there\n4.  SCIENTISTS:  In this case specifically aerosol scientists and biosafety\n\nAnyone else?  Any clarificatinos needed?",
        "user": "U010HTBUHS9",
        "ts": "1585079126.029700",
        "team": "TUU48M0T1",
        "user_team": "TUU48M0T1",
        "source_team": "TUU48M0T1",
        "user_profile": {
            "avatar_hash": "e7bdbebff0d9",
            "image_72": "https:\/\/avatars.slack-edge.com\/2020-03-22\/1017951251813_e7bdbebff0d9ad1e8f12_72.jpg",
            "first_name": "",
            "real_name": "Adam Arabian",
            "display_name": "Adam Arabian",
            "team": "TUU48M0T1",
            "name": "adam.arabian",
            "is_restricted": false,
            "is_ultra_restricted": false
        },
        "blocks": [
            {
                "type": "rich_text",
                "block_id": "J++",
                "elements": [
                    {
                        "type": "rich_text_section",
                        "elements": [
                            {
                                "type": "user",
                                "user_id": "UV2P3AQEN"
                            },
                            {
                                "type": "text",
                                "text": " "
                            },
                            {
                                "type": "user",
                                "user_id": "U01081Y0TBP"
                            },
                            {
                                "type": "text",
                                "text": " "
                            },
                            {
                                "type": "user",
                                "user_id": "UV02WET96"
                            },
                            {
                                "type": "text",
                                "text": " "
                            },
                            {
                                "type": "user",
                                "user_id": "UV87UQ37A"
                            },
                            {
                                "type": "text",
                                "text": " Quick summary of thoughts on the request to the metastudy group:  I think we are looking for reps from four categories\n"
                            }
                        ]
                    },
                    {
                        "type": "rich_text_list",
                        "elements": [
                            {
                                "type": "rich_text_section",
                                "elements": [
                                    {
                                        "type": "text",
                                        "text": " USERS:   Medical personnel, physicians, nurses, etc."
                                    }
                                ]
                            }
                        ],
                        "style": "ordered",
                        "indent": 0
                    },
                    {
                        "type": "rich_text_section",
                        "elements": [
                            {
                                "type": "text",
                                "text": "2.    MANUFACTURERS:  Plasitcs, Textiles, Metalforming\n3.  LOGISTICS\/DISTRIBUTORS:   People who do shipping or bulk volume operations that get things made here to the people who get them there\n4.  SCIENTISTS:  In this case specifically aerosol scientists and biosafety\n\nAnyone else?  Any clarificatinos needed?"
                            }
                        ]
                    }
                ]
            }
        ]
    },
    {
        "client_msg_id": "267c9a07-7c34-411d-acb7-2c2d3f072d62",
        "type": "message",
        "text": "<https:\/\/www.linkedin.com\/posts\/timhoreman_corona-coronavirus-cocreation-activity-6645969467434164224-fx38>",
        "user": "U01081Y0TBP",
        "ts": "1585079988.029900",
        "team": "TUU48M0T1",
        "user_team": "TUU48M0T1",
        "source_team": "TUU48M0T1",
        "user_profile": {
            "avatar_hash": "60ec5b47107a",
            "image_72": "https:\/\/avatars.slack-edge.com\/2020-03-18\/995274181218_60ec5b47107a3bd2ca7d_72.jpg",
            "first_name": "Peter",
            "real_name": "Peter Kooren",
            "display_name": "Peter Kooren",
            "team": "TUU48M0T1",
            "name": "peterkooren",
            "is_restricted": false,
            "is_ultra_restricted": false
        },
        "attachments": [
            {
                "title": "Dr. Ir. Tim Horeman on LinkedIn: #corona #coronavirus #cocreation | 36 comments",
                "title_link": "https:\/\/www.linkedin.com\/posts\/timhoreman_corona-coronavirus-cocreation-activity-6645969467434164224-fx38",
                "text": "Great work here at TU-Delft. As many try to sterilize mouth pieces and face masks or to create alternatives for breathing filters we found that it remains... 36 comments on LinkedIn",
                "fallback": "Dr. Ir. Tim Horeman on LinkedIn: #corona #coronavirus #cocreation | 36 comments",
                "image_url": "https:\/\/media-exp1.licdn.com\/dms\/image\/C4E22AQECKzuVkb-H9w\/feedshare-shrink_2048_1536\/0?e=1588204800&v=beta&t=8ejec8gkMr4Vglp2ySR8enKX6NRw8-U2j5tVa9kIqyU",
                "from_url": "https:\/\/www.linkedin.com\/posts\/timhoreman_corona-coronavirus-cocreation-activity-6645969467434164224-fx38",
                "image_width": 457,
                "image_height": 250,
                "image_bytes": 145569,
                "service_icon": "https:\/\/static-exp1.licdn.com\/scds\/common\/u\/images\/logos\/favicons\/v1\/favicon.ico",
                "service_name": "linkedin.com",
                "id": 1,
                "original_url": "https:\/\/www.linkedin.com\/posts\/timhoreman_corona-coronavirus-cocreation-activity-6645969467434164224-fx38"
            }
        ],
        "blocks": [
            {
                "type": "rich_text",
                "block_id": "+DI",
                "elements": [
                    {
                        "type": "rich_text_section",
                        "elements": [
                            {
                                "type": "link",
                                "url": "https:\/\/www.linkedin.com\/posts\/timhoreman_corona-coronavirus-cocreation-activity-6645969467434164224-fx38"
                            }
                        ]
                    }
                ]
            }
        ],
        "thread_ts": "1585079988.029900",
        "reply_count": 2,
        "reply_users_count": 2,
        "latest_reply": "1585259812.015600",
        "reply_users": [
            "U01081Y0TBP",
            "UV02WET96"
        ],
        "replies": [
            {
                "user": "U01081Y0TBP",
                "ts": "1585248369.015200"
            },
            {
                "user": "UV02WET96",
                "ts": "1585259812.015600"
            }
        ],
        "subscribed": false
    },
    {
        "type": "message",
        "text": "here's a general idea of how the consensus model can be leveraged in meetings and for project proposal approvals. I don't think we need to have consensus to proceed on our work, necessarily, but it's a good model to generate transparency and gather community input",
        "files": [
            {
                "id": "F010PAUPE6Q",
                "created": 1585083860,
                "timestamp": 1585083860,
                "name": "Screen Shot 2020-03-24 at 5.01.29 PM.png",
                "title": "Screen Shot 2020-03-24 at 5.01.29 PM.png",
                "mimetype": "image\/png",
                "filetype": "png",
                "pretty_type": "PNG",
                "user": "UV87UQ37A",
                "editable": false,
                "size": 61815,
                "mode": "hosted",
                "is_external": false,
                "external_type": "",
                "is_public": true,
                "public_url_shared": false,
                "display_as_bot": false,
                "username": "",
                "url_private": "https:\/\/files.slack.com\/files-pri\/TUU48M0T1-F010PAUPE6Q\/screen_shot_2020-03-24_at_5.01.29_pm.png?t=xoxe-980144714919-1133254701825-1120841107731-daf595b5a7d6c9028b0b02a925032e36",
                "url_private_download": "https:\/\/files.slack.com\/files-pri\/TUU48M0T1-F010PAUPE6Q\/download\/screen_shot_2020-03-24_at_5.01.29_pm.png?t=xoxe-980144714919-1133254701825-1120841107731-daf595b5a7d6c9028b0b02a925032e36",
                "thumb_64": "https:\/\/files.slack.com\/files-tmb\/TUU48M0T1-F010PAUPE6Q-9a563626f4\/screen_shot_2020-03-24_at_5.01.29_pm_64.png?t=xoxe-980144714919-1133254701825-1120841107731-daf595b5a7d6c9028b0b02a925032e36",
                "thumb_80": "https:\/\/files.slack.com\/files-tmb\/TUU48M0T1-F010PAUPE6Q-9a563626f4\/screen_shot_2020-03-24_at_5.01.29_pm_80.png?t=xoxe-980144714919-1133254701825-1120841107731-daf595b5a7d6c9028b0b02a925032e36",
                "thumb_360": "https:\/\/files.slack.com\/files-tmb\/TUU48M0T1-F010PAUPE6Q-9a563626f4\/screen_shot_2020-03-24_at_5.01.29_pm_360.png?t=xoxe-980144714919-1133254701825-1120841107731-daf595b5a7d6c9028b0b02a925032e36",
                "thumb_360_w": 282,
                "thumb_360_h": 360,
                "thumb_480": "https:\/\/files.slack.com\/files-tmb\/TUU48M0T1-F010PAUPE6Q-9a563626f4\/screen_shot_2020-03-24_at_5.01.29_pm_480.png?t=xoxe-980144714919-1133254701825-1120841107731-daf595b5a7d6c9028b0b02a925032e36",
                "thumb_480_w": 376,
                "thumb_480_h": 480,
                "thumb_160": "https:\/\/files.slack.com\/files-tmb\/TUU48M0T1-F010PAUPE6Q-9a563626f4\/screen_shot_2020-03-24_at_5.01.29_pm_160.png?t=xoxe-980144714919-1133254701825-1120841107731-daf595b5a7d6c9028b0b02a925032e36",
                "image_exif_rotation": 1,
                "original_w": 465,
                "original_h": 593,
                "thumb_tiny": "AwAwACVszv8AaXHmEDce\/ApJS6bcO\/I7mp5Y4DK5bzM55wRTfKg6fvfzFZXR1prQSV38uHBb7nrURZ\/Vv++qtSJDsjzvxt4xio9kH\/TT8xQ2hRatsTWDFg+SeMdTmrdQWqoobZu5xnJqetFsYT+IpSI\/msQhPPpSOsjnPlsPwq07EBiO1MRmyQxz0rlc1qWpsjdGKx\/K3C+lR+W3ZG\/KrbkgDBxTQx9c05TVxKbEtVKhsgj6ip6ZHnBySfrT63g7xRnJ3dyq9zGJGQqxOccd6b58cfHluufpUTo4uXbYxGT0FMaNwgVUc85yVxUOK7GXNItvOm1CVY5GRimfaYx\/A9Ryxvsi+RuF7CovLk\/55t+RocV2BzkaEEiyA7QRj1qWqtirKr7lI5HUVarSKsi07rU\/\/9k=",
                "permalink": "https:\/\/open-covid19.slack.com\/files\/UV87UQ37A\/F010PAUPE6Q\/screen_shot_2020-03-24_at_5.01.29_pm.png",
                "permalink_public": "https:\/\/slack-files.com\/TUU48M0T1-F010PAUPE6Q-83d3878c35",
                "is_starred": false,
                "has_rich_preview": false
            }
        ],
        "upload": true,
        "blocks": [
            {
                "type": "rich_text",
                "block_id": "HKME",
                "elements": [
                    {
                        "type": "rich_text_section",
                        "elements": [
                            {
                                "type": "text",
                                "text": "here's a general idea of how the consensus model can be leveraged in meetings and for project proposal approvals. I don't think we need to have consensus to proceed on our work, necessarily, but it's a good model to generate transparency and gather community input"
                            }
                        ]
                    }
                ]
            }
        ],
        "user": "UV87UQ37A",
        "display_as_bot": false,
        "ts": "1585083864.030300",
        "client_msg_id": "87eb557d-3a4d-42f2-82b3-8e8bd5c10092",
        "reactions": [
            {
                "name": "+1",
                "users": [
                    "U010HTBUHS9",
                    "UVADMLUB0"
                ],
                "count": 2
            }
        ]
    },
    {
        "client_msg_id": "873cf6ee-66eb-4240-9398-af99f0950bd6",
        "type": "message",
        "text": "Hearing from academic labs that there’s a shortage of flocked swabs (like these <https:\/\/www.bd.com\/en-us\/offerings\/capabilities\/specimen-collection\/swab-based-specimen-collection\/bd-flocked-swabs>) for clinical sample collection, and for mock sample collection during diagnostic assay development. Anyone have ideas about how to source or manufacture these?",
        "user": "UUNGFHSV8",
        "ts": "1585094078.035200",
        "team": "TUU48M0T1",
        "user_team": "TUU48M0T1",
        "source_team": "TUU48M0T1",
        "user_profile": {
            "avatar_hash": "1c55ee32397a",
            "image_72": "https:\/\/avatars.slack-edge.com\/2020-03-07\/987349161984_1c55ee32397a85a87ec4_72.png",
            "first_name": "Isaac",
            "real_name": "Isaac Larkin",
            "display_name": "Isaac Larkin",
            "team": "TUU48M0T1",
            "name": "eyesmo",
            "is_restricted": false,
            "is_ultra_restricted": false
        },
        "attachments": [
            {
                "title": "BD flocked swabs",
                "title_link": "https:\/\/www.bd.com\/en-us\/offerings\/capabilities\/specimen-collection\/swab-based-specimen-collection\/bd-flocked-swabs",
                "text": "Learn about BD flocked swabs.",
                "fallback": "BD flocked swabs",
                "thumb_url": "https:\/\/www.bd.com\/assets\/images\/our-products\/swab-specimen-collection\/flocked-swabs_RC_DS_CT_0816-0014.png",
                "from_url": "https:\/\/www.bd.com\/en-us\/offerings\/capabilities\/specimen-collection\/swab-based-specimen-collection\/bd-flocked-swabs",
                "thumb_width": 748,
                "thumb_height": 400,
                "service_name": "bd.com",
                "id": 1,
                "original_url": "https:\/\/www.bd.com\/en-us\/offerings\/capabilities\/specimen-collection\/swab-based-specimen-collection\/bd-flocked-swabs"
            }
        ],
        "blocks": [
            {
                "type": "rich_text",
                "block_id": "d42X",
                "elements": [
                    {
                        "type": "rich_text_section",
                        "elements": [
                            {
                                "type": "text",
                                "text": "Hearing from academic labs that there’s a shortage of flocked swabs (like these "
                            },
                            {
                                "type": "link",
                                "url": "https:\/\/www.bd.com\/en-us\/offerings\/capabilities\/specimen-collection\/swab-based-specimen-collection\/bd-flocked-swabs"
                            },
                            {
                                "type": "text",
                                "text": ") for clinical sample collection, and for mock sample collection during diagnostic assay development. Anyone have ideas about how to source or manufacture these?"
                            }
                        ]
                    }
                ]
            }
        ]
    },
    {
        "client_msg_id": "a4ce456a-a956-41b5-86bc-294c830f4ccb",
        "type": "message",
        "text": "<@U01081Y0TBP> <@UV2P3AQEN> <@U010HTBUHS9> <@UV8FL0JCA>\nHere is what I’ve come up with for the randomised survey for the reviewing of face mask designs. (let me know what you think)\n--&gt; <https:\/\/docs.google.com\/forms\/d\/e\/1FAIpQLSfZc1hxgx2-ObcqODuML4OEQNrw2TEtxdbOu75x_upr5fUeVw\/viewform>\n\nIt would be great to separate in the list of designs to separate the Surgeon masks, the semi-rigid masks and the face shields (i’ve made a fixed copy here that we’ll be using as a reference for the survey)\n--&gt; <https:\/\/docs.google.com\/spreadsheets\/d\/1KB2pSCzR5AXonBOf7qSWS1CZN3wd8IdtIf6E9wVOd20\/edit#gid=0>",
        "user": "UV02WET96",
        "ts": "1585094264.038300",
        "team": "TUU48M0T1",
        "user_team": "TUU48M0T1",
        "source_team": "TUU48M0T1",
        "user_profile": {
            "avatar_hash": "a99c74a194f8",
            "image_72": "https:\/\/avatars.slack-edge.com\/2020-03-07\/975708504851_a99c74a194f86715ca7d_72.png",
            "first_name": "Thomas",
            "real_name": "Thomas Landrain",
            "display_name": "Thomas Landrain - JOGL CoFounder \/ CEO",
            "team": "TUU48M0T1",
            "name": "thomas",
            "is_restricted": false,
            "is_ultra_restricted": false
        },
        "blocks": [
            {
                "type": "rich_text",
                "block_id": "ua1l",
                "elements": [
                    {
                        "type": "rich_text_section",
                        "elements": [
                            {
                                "type": "user",
                                "user_id": "U01081Y0TBP"
                            },
                            {
                                "type": "text",
                                "text": " "
                            },
                            {
                                "type": "user",
                                "user_id": "UV2P3AQEN"
                            },
                            {
                                "type": "text",
                                "text": " "
                            },
                            {
                                "type": "user",
                                "user_id": "U010HTBUHS9"
                            },
                            {
                                "type": "text",
                                "text": " "
                            },
                            {
                                "type": "user",
                                "user_id": "UV8FL0JCA"
                            },
                            {
                                "type": "text",
                                "text": "\nHere is what I’ve come up with for the randomised survey for the reviewing of face mask designs. (let me know what you think)\n--> "
                            },
                            {
                                "type": "link",
                                "url": "https:\/\/docs.google.com\/forms\/d\/e\/1FAIpQLSfZc1hxgx2-ObcqODuML4OEQNrw2TEtxdbOu75x_upr5fUeVw\/viewform"
                            },
                            {
                                "type": "text",
                                "text": "\n\nIt would be great to separate in the list of designs to separate the Surgeon masks, the semi-rigid masks and the face shields (i’ve made a fixed copy here that we’ll be using as a reference for the survey)\n--> "
                            },
                            {
                                "type": "link",
                                "url": "https:\/\/docs.google.com\/spreadsheets\/d\/1KB2pSCzR5AXonBOf7qSWS1CZN3wd8IdtIf6E9wVOd20\/edit#gid=0"
                            }
                        ]
                    }
                ]
            }
        ],
        "thread_ts": "1585094264.038300",
        "reply_count": 21,
        "reply_users_count": 5,
        "latest_reply": "1585159989.003500",
        "reply_users": [
            "U010HTBUHS9",
            "UV02WET96",
            "UV2P3AQEN",
            "U01081Y0TBP",
            "UV8FL0JCA"
        ],
        "replies": [
            {
                "user": "U010HTBUHS9",
                "ts": "1585094385.040000"
            },
            {
                "user": "U010HTBUHS9",
                "ts": "1585094453.040200"
            },
            {
                "user": "UV02WET96",
                "ts": "1585094523.040500"
            },
            {
                "user": "U010HTBUHS9",
                "ts": "1585094551.040800"
            },
            {
                "user": "UV02WET96",
                "ts": "1585094575.041000"
            },
            {
                "user": "UV02WET96",
                "ts": "1585094671.041200"
            },
            {
                "user": "UV02WET96",
                "ts": "1585094684.041400"
            },
            {
                "user": "U010HTBUHS9",
                "ts": "1585094791.041600"
            },
            {
                "user": "UV2P3AQEN",
                "ts": "1585095397.041800"
            },
            {
                "user": "U01081Y0TBP",
                "ts": "1585119945.000300"
            },
            {
                "user": "U01081Y0TBP",
                "ts": "1585137039.000500"
            },
            {
                "user": "U010HTBUHS9",
                "ts": "1585139735.000800"
            },
            {
                "user": "U010HTBUHS9",
                "ts": "1585141092.001000"
            },
            {
                "user": "UV2P3AQEN",
                "ts": "1585147590.001400"
            },
            {
                "user": "UV8FL0JCA",
                "ts": "1585147881.001600"
            },
            {
                "user": "UV2P3AQEN",
                "ts": "1585148234.001800"
            },
            {
                "user": "UV8FL0JCA",
                "ts": "1585156193.002100"
            },
            {
                "user": "U010HTBUHS9",
                "ts": "1585158766.002600"
            },
            {
                "user": "UV2P3AQEN",
                "ts": "1585158840.002800"
            },
            {
                "user": "UV8FL0JCA",
                "ts": "1585159951.003200"
            },
            {
                "user": "UV8FL0JCA",
                "ts": "1585159989.003500"
            }
        ],
        "subscribed": false
    },
    {
        "client_msg_id": "55f388e9-f0fd-43ed-8c13-e21a1ed07663",
        "type": "message",
        "text": "That was super duper fast!  <@UV02WET96> Nice work!  <@UV2P3AQEN> and I talked about separating the designs out but decided that in the interest of speed we should maybe go ahead and just keep them all jumbled together and then sort them out before going to the expert review process but happy to be talked out of that.",
        "user": "U010HTBUHS9",
        "ts": "1585094385.040000",
        "team": "TUU48M0T1",
        "user_team": "TUU48M0T1",
        "source_team": "TUU48M0T1",
        "user_profile": {
            "avatar_hash": "e7bdbebff0d9",
            "image_72": "https:\/\/avatars.slack-edge.com\/2020-03-22\/1017951251813_e7bdbebff0d9ad1e8f12_72.jpg",
            "first_name": "",
            "real_name": "Adam Arabian",
            "display_name": "Adam Arabian",
            "team": "TUU48M0T1",
            "name": "adam.arabian",
            "is_restricted": false,
            "is_ultra_restricted": false
        },
        "blocks": [
            {
                "type": "rich_text",
                "block_id": "UM1jV",
                "elements": [
                    {
                        "type": "rich_text_section",
                        "elements": [
                            {
                                "type": "text",
                                "text": "That was super duper fast!  "
                            },
                            {
                                "type": "user",
                                "user_id": "UV02WET96"
                            },
                            {
                                "type": "text",
                                "text": " Nice work!  "
                            },
                            {
                                "type": "user",
                                "user_id": "UV2P3AQEN"
                            },
                            {
                                "type": "text",
                                "text": " and I talked about separating the designs out but decided that in the interest of speed we should maybe go ahead and just keep them all jumbled together and then sort them out before going to the expert review process but happy to be talked out of that."
                            }
                        ]
                    }
                ]
            }
        ],
        "thread_ts": "1585094264.038300",
        "parent_user_id": "UV02WET96"
    },
    {
        "client_msg_id": "f438b222-0769-47d7-a3e0-fbdf2a944efd",
        "type": "message",
        "text": "<@UV02WET96> two comments on the survey:  1) at the top can we define what we mean by each of those criteria like:\n*Effective:  How effective do you think this design will be at doing its designed job?*\netc.\nAlso can you put a link to the spreadsheet at the top so people can find it easily?",
        "user": "U010HTBUHS9",
        "ts": "1585094453.040200",
        "team": "TUU48M0T1",
        "user_team": "TUU48M0T1",
        "source_team": "TUU48M0T1",
        "user_profile": {
            "avatar_hash": "e7bdbebff0d9",
            "image_72": "https:\/\/avatars.slack-edge.com\/2020-03-22\/1017951251813_e7bdbebff0d9ad1e8f12_72.jpg",
            "first_name": "",
            "real_name": "Adam Arabian",
            "display_name": "Adam Arabian",
            "team": "TUU48M0T1",
            "name": "adam.arabian",
            "is_restricted": false,
            "is_ultra_restricted": false
        },
        "edited": {
            "user": "U010HTBUHS9",
            "ts": "1585094490.000000"
        },
        "blocks": [
            {
                "type": "rich_text",
                "block_id": "ht27",
                "elements": [
                    {
                        "type": "rich_text_section",
                        "elements": [
                            {
                                "type": "user",
                                "user_id": "UV02WET96"
                            },
                            {
                                "type": "text",
                                "text": " two comments on the survey:  1) at the top can we define what we mean by each of those criteria like:\n"
                            },
                            {
                                "type": "text",
                                "text": "Effective:  How effective do you think this design will be at doing its designed job?",
                                "style": {
                                    "bold": true
                                }
                            },
                            {
                                "type": "text",
                                "text": "\netc.\nAlso can you put a link to the spreadsheet at the top so people can find it easily?"
                            }
                        ]
                    }
                ]
            }
        ],
        "thread_ts": "1585094264.038300",
        "parent_user_id": "UV02WET96"
    },
    {
        "client_msg_id": "fdcbbcf3-c71d-466b-955e-6904d64481af",
        "type": "message",
        "text": "Very good point! Would you be able to do that? I’ll have to hit the off button for today :slightly_smiling_face:\nHere is the link to the master copy of the survey\n<https:\/\/docs.google.com\/forms\/d\/1M2033cqZDVozrGSMJlq8WqKPlSi3PUDswqZuqGyJx5A\/edit>",
        "user": "UV02WET96",
        "ts": "1585094523.040500",
        "team": "TUU48M0T1",
        "user_team": "TUU48M0T1",
        "source_team": "TUU48M0T1",
        "user_profile": {
            "avatar_hash": "a99c74a194f8",
            "image_72": "https:\/\/avatars.slack-edge.com\/2020-03-07\/975708504851_a99c74a194f86715ca7d_72.png",
            "first_name": "Thomas",
            "real_name": "Thomas Landrain",
            "display_name": "Thomas Landrain - JOGL CoFounder \/ CEO",
            "team": "TUU48M0T1",
            "name": "thomas",
            "is_restricted": false,
            "is_ultra_restricted": false
        },
        "blocks": [
            {
                "type": "rich_text",
                "block_id": "frR",
                "elements": [
                    {
                        "type": "rich_text_section",
                        "elements": [
                            {
                                "type": "text",
                                "text": "Very good point! Would you be able to do that? I’ll have to hit the off button for today "
                            },
                            {
                                "type": "emoji",
                                "name": "slightly_smiling_face"
                            },
                            {
                                "type": "text",
                                "text": "\nHere is the link to the master copy of the survey\n"
                            },
                            {
                                "type": "link",
                                "url": "https:\/\/docs.google.com\/forms\/d\/1M2033cqZDVozrGSMJlq8WqKPlSi3PUDswqZuqGyJx5A\/edit"
                            }
                        ]
                    }
                ]
            }
        ],
        "thread_ts": "1585094264.038300",
        "parent_user_id": "UV02WET96"
    },
    {
        "client_msg_id": "b8df820c-3e36-47bf-a555-08e0dade85e7",
        "type": "message",
        "text": "Just requested edit access...",
        "user": "U010HTBUHS9",
        "ts": "1585094551.040800",
        "team": "TUU48M0T1",
        "user_team": "TUU48M0T1",
        "source_team": "TUU48M0T1",
        "user_profile": {
            "avatar_hash": "e7bdbebff0d9",
            "image_72": "https:\/\/avatars.slack-edge.com\/2020-03-22\/1017951251813_e7bdbebff0d9ad1e8f12_72.jpg",
            "first_name": "",
            "real_name": "Adam Arabian",
            "display_name": "Adam Arabian",
            "team": "TUU48M0T1",
            "name": "adam.arabian",
            "is_restricted": false,
            "is_ultra_restricted": false
        },
        "blocks": [
            {
                "type": "rich_text",
                "block_id": "bw5",
                "elements": [
                    {
                        "type": "rich_text_section",
                        "elements": [
                            {
                                "type": "text",
                                "text": "Just requested edit access..."
                            }
                        ]
                    }
                ]
            }
        ],
        "thread_ts": "1585094264.038300",
        "parent_user_id": "UV02WET96"
    },
    {
        "client_msg_id": "93f0b4d6-703d-4090-9eb9-ca2c8acb8b39",
        "type": "message",
        "text": "ok",
        "user": "UV02WET96",
        "ts": "1585094575.041000",
        "team": "TUU48M0T1",
        "user_team": "TUU48M0T1",
        "source_team": "TUU48M0T1",
        "user_profile": {
            "avatar_hash": "a99c74a194f8",
            "image_72": "https:\/\/avatars.slack-edge.com\/2020-03-07\/975708504851_a99c74a194f86715ca7d_72.png",
            "first_name": "Thomas",
            "real_name": "Thomas Landrain",
            "display_name": "Thomas Landrain - JOGL CoFounder \/ CEO",
            "team": "TUU48M0T1",
            "name": "thomas",
            "is_restricted": false,
            "is_ultra_restricted": false
        },
        "blocks": [
            {
                "type": "rich_text",
                "block_id": "Q+l",
                "elements": [
                    {
                        "type": "rich_text_section",
                        "elements": [
                            {
                                "type": "text",
                                "text": "ok"
                            }
                        ]
                    }
                ]
            }
        ],
        "thread_ts": "1585094264.038300",
        "parent_user_id": "UV02WET96"
    },
    {
        "client_msg_id": "c147b439-6015-4eba-8431-7d9dd7f9556e",
        "type": "message",
        "text": "in order to access the drive, put your email address in this list: <https:\/\/groups.google.com\/a\/community.bio\/forum\/#!forum\/covid19-jogl\/join>",
        "user": "UV02WET96",
        "ts": "1585094671.041200",
        "team": "TUU48M0T1",
        "user_team": "TUU48M0T1",
        "source_team": "TUU48M0T1",
        "user_profile": {
            "avatar_hash": "a99c74a194f8",
            "image_72": "https:\/\/avatars.slack-edge.com\/2020-03-07\/975708504851_a99c74a194f86715ca7d_72.png",
            "first_name": "Thomas",
            "real_name": "Thomas Landrain",
            "display_name": "Thomas Landrain - JOGL CoFounder \/ CEO",
            "team": "TUU48M0T1",
            "name": "thomas",
            "is_restricted": false,
            "is_ultra_restricted": false
        },
        "blocks": [
            {
                "type": "rich_text",
                "block_id": "KBN",
                "elements": [
                    {
                        "type": "rich_text_section",
                        "elements": [
                            {
                                "type": "text",
                                "text": "in order to access the drive, put your email address in this list: "
                            },
                            {
                                "type": "link",
                                "url": "https:\/\/groups.google.com\/a\/community.bio\/forum\/#!forum\/covid19-jogl\/join"
                            }
                        ]
                    }
                ]
            }
        ],
        "thread_ts": "1585094264.038300",
        "parent_user_id": "UV02WET96"
    },
    {
        "client_msg_id": "8a1004c3-4503-48f5-92bd-1e394256176e",
        "type": "message",
        "text": "thank you Adam!",
        "user": "UV02WET96",
        "ts": "1585094684.041400",
        "team": "TUU48M0T1",
        "user_team": "TUU48M0T1",
        "source_team": "TUU48M0T1",
        "user_profile": {
            "avatar_hash": "a99c74a194f8",
            "image_72": "https:\/\/avatars.slack-edge.com\/2020-03-07\/975708504851_a99c74a194f86715ca7d_72.png",
            "first_name": "Thomas",
            "real_name": "Thomas Landrain",
            "display_name": "Thomas Landrain - JOGL CoFounder \/ CEO",
            "team": "TUU48M0T1",
            "name": "thomas",
            "is_restricted": false,
            "is_ultra_restricted": false
        },
        "blocks": [
            {
                "type": "rich_text",
                "block_id": "MNq\/",
                "elements": [
                    {
                        "type": "rich_text_section",
                        "elements": [
                            {
                                "type": "text",
                                "text": "thank you Adam!"
                            }
                        ]
                    }
                ]
            }
        ],
        "thread_ts": "1585094264.038300",
        "parent_user_id": "UV02WET96"
    },
    {
        "client_msg_id": "734595e2-cef2-4df8-884c-22e85d5c13a2",
        "type": "message",
        "text": "Grr... now it says I have to join the group (application pending - probably another button for you to push) before I can add my email address.",
        "user": "U010HTBUHS9",
        "ts": "1585094791.041600",
        "team": "TUU48M0T1",
        "user_team": "TUU48M0T1",
        "source_team": "TUU48M0T1",
        "user_profile": {
            "avatar_hash": "e7bdbebff0d9",
            "image_72": "https:\/\/avatars.slack-edge.com\/2020-03-22\/1017951251813_e7bdbebff0d9ad1e8f12_72.jpg",
            "first_name": "",
            "real_name": "Adam Arabian",
            "display_name": "Adam Arabian",
            "team": "TUU48M0T1",
            "name": "adam.arabian",
            "is_restricted": false,
            "is_ultra_restricted": false
        },
        "blocks": [
            {
                "type": "rich_text",
                "block_id": "Z5x",
                "elements": [
                    {
                        "type": "rich_text_section",
                        "elements": [
                            {
                                "type": "text",
                                "text": "Grr... now it says I have to join the group (application pending - probably another button for you to push) before I can add my email address."
                            }
                        ]
                    }
                ]
            }
        ],
        "thread_ts": "1585094264.038300",
        "parent_user_id": "UV02WET96"
    },
    {
        "client_msg_id": "509ea0c7-4b01-4f67-a15b-b0fdbb4176e3",
        "type": "message",
        "text": "Great! In the meantime I erased all duplicates and gave an overall tidy-up. I'll take it up again in the morning.",
        "user": "UV2P3AQEN",
        "ts": "1585095397.041800",
        "team": "TUU48M0T1",
        "user_team": "TUU48M0T1",
        "source_team": "TUU48M0T1",
        "user_profile": {
            "avatar_hash": "82d977ce9645",
            "image_72": "https:\/\/avatars.slack-edge.com\/2020-03-16\/1003452392327_82d977ce9645ebc30917_72.jpg",
            "first_name": "Antonio",
            "real_name": "Antonio Mangiapane",
            "display_name": "Antonio Mangiapane",
            "team": "TUU48M0T1",
            "name": "antonio.mangiapane29",
            "is_restricted": false,
            "is_ultra_restricted": false
        },
        "blocks": [
            {
                "type": "rich_text",
                "block_id": "\/mj",
                "elements": [
                    {
                        "type": "rich_text_section",
                        "elements": [
                            {
                                "type": "text",
                                "text": "Great! In the meantime I erased all duplicates and gave an overall tidy-up. I'll take it up again in the morning."
                            }
                        ]
                    }
                ]
            }
        ],
        "thread_ts": "1585094264.038300",
        "parent_user_id": "UV02WET96"
    }
]