[
    {
        "type": "message",
        "text": "<https:\/\/docs.google.com\/document\/d\/1K-84xp1x8JgFzRq6sYKfeTf5YyMWZdFs2uX9BkaPJvE\/edit?usp=sharing|https:\/\/docs.google.com\/document\/d\/1K-84xp1x8JgFzRq6sYKfeTf5YyMWZdFs2uX9BkaPJvE\/edit?usp=sharing >Minutes from the recent meeting. Tried to parse and make sense as best as I can, hopefully didn't miss anything or misinterpret anything. I also can't seem to get access into the folders for this Slack, so if anyone  has guidance on where to put this,it would be much appreciated! Comments are enabled.",
        "files": [
            {
                "id": "F01042EJJ7K",
                "created": 1584696343,
                "timestamp": 1584696343,
                "name": "2020.03",
                "title": "2020.03.19 iNeedALab meeting minutes",
                "mimetype": "application\/vnd.google-apps.document",
                "filetype": "gdoc",
                "pretty_type": "GSuite Document",
                "user": "U0101DKUALV",
                "editable": false,
                "size": 4635,
                "mode": "external",
                "is_external": true,
                "external_type": "gdrive",
                "is_public": true,
                "public_url_shared": false,
                "display_as_bot": false,
                "username": "",
                "url_private": "https:\/\/docs.google.com\/document\/d\/1K-84xp1x8JgFzRq6sYKfeTf5YyMWZdFs2uX9BkaPJvE\/edit?usp=sharing",
                "thumb_64": "https:\/\/files.slack.com\/files-tmb\/TUU48M0T1-F01042EJJ7K-4f31286176\/2020.03_64.png?t=xoxe-980144714919-1133254701825-1120841107731-daf595b5a7d6c9028b0b02a925032e36",
                "thumb_80": "https:\/\/files.slack.com\/files-tmb\/TUU48M0T1-F01042EJJ7K-4f31286176\/2020.03_80.png?t=xoxe-980144714919-1133254701825-1120841107731-daf595b5a7d6c9028b0b02a925032e36",
                "thumb_360": "https:\/\/files.slack.com\/files-tmb\/TUU48M0T1-F01042EJJ7K-4f31286176\/2020.03_360.png?t=xoxe-980144714919-1133254701825-1120841107731-daf595b5a7d6c9028b0b02a925032e36",
                "thumb_360_w": 278,
                "thumb_360_h": 360,
                "thumb_480": "https:\/\/files.slack.com\/files-tmb\/TUU48M0T1-F01042EJJ7K-4f31286176\/2020.03_480.png?t=xoxe-980144714919-1133254701825-1120841107731-daf595b5a7d6c9028b0b02a925032e36",
                "thumb_480_w": 371,
                "thumb_480_h": 480,
                "thumb_160": "https:\/\/files.slack.com\/files-tmb\/TUU48M0T1-F01042EJJ7K-4f31286176\/2020.03_160.png?t=xoxe-980144714919-1133254701825-1120841107731-daf595b5a7d6c9028b0b02a925032e36",
                "thumb_720": "https:\/\/files.slack.com\/files-tmb\/TUU48M0T1-F01042EJJ7K-4f31286176\/2020.03_720.png?t=xoxe-980144714919-1133254701825-1120841107731-daf595b5a7d6c9028b0b02a925032e36",
                "thumb_720_w": 557,
                "thumb_720_h": 720,
                "thumb_800": "https:\/\/files.slack.com\/files-tmb\/TUU48M0T1-F01042EJJ7K-4f31286176\/2020.03_800.png?t=xoxe-980144714919-1133254701825-1120841107731-daf595b5a7d6c9028b0b02a925032e36",
                "thumb_800_w": 800,
                "thumb_800_h": 1035,
                "thumb_960": "https:\/\/files.slack.com\/files-tmb\/TUU48M0T1-F01042EJJ7K-4f31286176\/2020.03_960.png?t=xoxe-980144714919-1133254701825-1120841107731-daf595b5a7d6c9028b0b02a925032e36",
                "thumb_960_w": 742,
                "thumb_960_h": 960,
                "thumb_1024": "https:\/\/files.slack.com\/files-tmb\/TUU48M0T1-F01042EJJ7K-4f31286176\/2020.03_1024.png?t=xoxe-980144714919-1133254701825-1120841107731-daf595b5a7d6c9028b0b02a925032e36",
                "thumb_1024_w": 791,
                "thumb_1024_h": 1024,
                "image_exif_rotation": 1,
                "original_w": 800,
                "original_h": 1035,
                "thumb_tiny": "AwAwACXSY4oBJ7frSP2oDcd6AHCik3ex\/Kjd9fyoAWiiigBD0NNz7mnNnHXFNz70AGf9qgEeufxoz70Dr1oAfRRRQAjdDTPy\/KpDyKbt9zQAY\/zijn1\/Sjb7ml2+5oAWiiigD\/\/Z",
                "permalink": "https:\/\/open-covid19.slack.com\/files\/U0101DKUALV\/F01042EJJ7K\/2020.03",
                "is_starred": false,
                "external_id": "1K-84xp1x8JgFzRq6sYKfeTf5YyMWZdFs2uX9BkaPJvE",
                "external_url": "https:\/\/docs.google.com\/document\/d\/1K-84xp1x8JgFzRq6sYKfeTf5YyMWZdFs2uX9BkaPJvE\/edit?usp=sharing",
                "has_rich_preview": true
            }
        ],
        "upload": false,
        "blocks": [
            {
                "type": "rich_text",
                "block_id": "PC6",
                "elements": [
                    {
                        "type": "rich_text_section",
                        "elements": [
                            {
                                "type": "link",
                                "url": "https:\/\/docs.google.com\/document\/d\/1K-84xp1x8JgFzRq6sYKfeTf5YyMWZdFs2uX9BkaPJvE\/edit?usp=sharing",
                                "text": "https:\/\/docs.google.com\/document\/d\/1K-84xp1x8JgFzRq6sYKfeTf5YyMWZdFs2uX9BkaPJvE\/edit?usp=sharing "
                            },
                            {
                                "type": "text",
                                "text": "Minutes from the recent meeting. Tried to parse and make sense as best as I can, hopefully didn't miss anything or misinterpret anything. I also can't seem to get access into the folders for this Slack, so if anyone  has guidance on where to put this,it would be much appreciated! Comments are enabled."
                            }
                        ]
                    }
                ]
            }
        ],
        "user": "U0101DKUALV",
        "display_as_bot": false,
        "x_files": [
            "F01042EJJ7K"
        ],
        "ts": "1584696640.015100",
        "client_msg_id": "e6f4bcd6-03e2-4000-9c0f-5fafe8badad0",
        "thread_ts": "1584696640.015100",
        "reply_count": 1,
        "reply_users_count": 1,
        "latest_reply": "1584706653.015600",
        "reply_users": [
            "UVC9WMA7N"
        ],
        "replies": [
            {
                "user": "UVC9WMA7N",
                "ts": "1584706653.015600"
            }
        ],
        "subscribed": false
    },
    {
        "client_msg_id": "d083f1de-8786-4083-a539-7c50b2f6e3b5",
        "type": "message",
        "text": "this looks great !",
        "user": "UVC9WMA7N",
        "ts": "1584706653.015600",
        "team": "TUU48M0T1",
        "user_team": "TUU48M0T1",
        "source_team": "TUU48M0T1",
        "user_profile": {
            "avatar_hash": "56d14d58ed53",
            "image_72": "https:\/\/avatars.slack-edge.com\/2020-03-13\/998337892660_56d14d58ed537e6e4654_72.png",
            "first_name": "Leo",
            "real_name": "Leo Blondel",
            "display_name": "Leo Blondel - JOGL CoFounder \/ CTO",
            "team": "TUU48M0T1",
            "name": "leo",
            "is_restricted": false,
            "is_ultra_restricted": false
        },
        "blocks": [
            {
                "type": "rich_text",
                "block_id": "r7Pkm",
                "elements": [
                    {
                        "type": "rich_text_section",
                        "elements": [
                            {
                                "type": "text",
                                "text": "this looks great !"
                            }
                        ]
                    }
                ]
            }
        ],
        "thread_ts": "1584696640.015100",
        "parent_user_id": "U0101DKUALV"
    },
    {
        "client_msg_id": "3e875f1e-4651-41eb-aa38-f650d3fee9d5",
        "type": "message",
        "text": "did you guys <@UVABQCS3G> succeeded at getting the API infos ?",
        "user": "UVC9WMA7N",
        "ts": "1584708484.016100",
        "team": "TUU48M0T1",
        "user_team": "TUU48M0T1",
        "source_team": "TUU48M0T1",
        "user_profile": {
            "avatar_hash": "56d14d58ed53",
            "image_72": "https:\/\/avatars.slack-edge.com\/2020-03-13\/998337892660_56d14d58ed537e6e4654_72.png",
            "first_name": "Leo",
            "real_name": "Leo Blondel",
            "display_name": "Leo Blondel - JOGL CoFounder \/ CTO",
            "team": "TUU48M0T1",
            "name": "leo",
            "is_restricted": false,
            "is_ultra_restricted": false
        },
        "blocks": [
            {
                "type": "rich_text",
                "block_id": "dQCCj",
                "elements": [
                    {
                        "type": "rich_text_section",
                        "elements": [
                            {
                                "type": "text",
                                "text": "did you guys "
                            },
                            {
                                "type": "user",
                                "user_id": "UVABQCS3G"
                            },
                            {
                                "type": "text",
                                "text": " succeeded at getting the API infos ?"
                            }
                        ]
                    }
                ]
            }
        ]
    },
    {
        "client_msg_id": "3e9b2c7c-4e04-4e8f-8e54-34e872bb133d",
        "type": "message",
        "text": "Also, sharing this here as well: API documentation\n\n<https:\/\/documenter.getpostman.com\/view\/8688524\/SWE84xMg?version=latest>",
        "user": "UVC9WMA7N",
        "ts": "1584708513.016400",
        "team": "TUU48M0T1",
        "user_team": "TUU48M0T1",
        "source_team": "TUU48M0T1",
        "user_profile": {
            "avatar_hash": "56d14d58ed53",
            "image_72": "https:\/\/avatars.slack-edge.com\/2020-03-13\/998337892660_56d14d58ed537e6e4654_72.png",
            "first_name": "Leo",
            "real_name": "Leo Blondel",
            "display_name": "Leo Blondel - JOGL CoFounder \/ CTO",
            "team": "TUU48M0T1",
            "name": "leo",
            "is_restricted": false,
            "is_ultra_restricted": false
        },
        "attachments": [
            {
                "title": "JOGL API V0.1",
                "title_link": "https:\/\/documenter.getpostman.com\/view\/8688524\/SWE84xMg?version=latest",
                "text": "Jogl api calls for testing",
                "fallback": "JOGL API V0.1",
                "thumb_url": "https:\/\/res.cloudinary.com\/postman\/image\/upload\/w_152,h_56,c_fit,f_auto,t_team_logo\/v1\/team\/768118b36f06c94b0306958b980558e6915839447e859fe16906e29d683976f0",
                "from_url": "https:\/\/documenter.getpostman.com\/view\/8688524\/SWE84xMg?version=latest",
                "thumb_width": 304,
                "thumb_height": 112,
                "service_icon": "https:\/\/documenter.getpostman.com\/favicon.ico",
                "service_name": "documenter.getpostman.com",
                "id": 1,
                "original_url": "https:\/\/documenter.getpostman.com\/view\/8688524\/SWE84xMg?version=latest"
            }
        ],
        "blocks": [
            {
                "type": "rich_text",
                "block_id": "LjI",
                "elements": [
                    {
                        "type": "rich_text_section",
                        "elements": [
                            {
                                "type": "text",
                                "text": "Also, sharing this here as well: API documentation\n\n"
                            },
                            {
                                "type": "link",
                                "url": "https:\/\/documenter.getpostman.com\/view\/8688524\/SWE84xMg?version=latest"
                            }
                        ]
                    }
                ]
            }
        ]
    },
    {
        "type": "message",
        "subtype": "channel_join",
        "ts": "1584732859.016800",
        "user": "U010F2PUXRS",
        "text": "<@U010F2PUXRS> has joined the channel"
    },
    {
        "client_msg_id": "7a5657e2-32df-40c4-bfcc-d312f9ef0d7d",
        "type": "message",
        "text": "I have not yet integrated the web app with the JOGL API. I will likely have time this weekend to do this, but if anyone who wants to do it right now, pull requests are welcome! :slightly_smiling_face:",
        "user": "UVABQCS3G",
        "ts": "1584733124.018100",
        "team": "TUU48M0T1",
        "user_team": "TUU48M0T1",
        "source_team": "TUU48M0T1",
        "user_profile": {
            "avatar_hash": "8fc52900576a",
            "image_72": "https:\/\/avatars.slack-edge.com\/2020-03-11\/994194688704_8fc52900576a30ffbbce_72.jpg",
            "first_name": "Jan",
            "real_name": "Jan Van Bruggen",
            "display_name": "",
            "team": "TUU48M0T1",
            "name": "jancvanbruggen",
            "is_restricted": false,
            "is_ultra_restricted": false
        },
        "blocks": [
            {
                "type": "rich_text",
                "block_id": "inKL",
                "elements": [
                    {
                        "type": "rich_text_section",
                        "elements": [
                            {
                                "type": "text",
                                "text": "I have not yet integrated the web app with the JOGL API. I will likely have time this weekend to do this, but if anyone who wants to do it right now, pull requests are welcome! "
                            },
                            {
                                "type": "emoji",
                                "name": "slightly_smiling_face"
                            }
                        ]
                    }
                ]
            }
        ],
        "thread_ts": "1584733124.018100",
        "reply_count": 1,
        "reply_users_count": 1,
        "latest_reply": "1584734424.018800",
        "reply_users": [
            "UVC9WMA7N"
        ],
        "replies": [
            {
                "user": "UVC9WMA7N",
                "ts": "1584734424.018800"
            }
        ],
        "subscribed": false
    },
    {
        "client_msg_id": "cbe07d0e-f9d3-4e54-829b-eea830e59c65",
        "type": "message",
        "text": "(For context, we need to switch the app's data source from a Google Sheet to the JOGL API)",
        "user": "UVABQCS3G",
        "ts": "1584733153.018600",
        "team": "TUU48M0T1",
        "user_team": "TUU48M0T1",
        "source_team": "TUU48M0T1",
        "user_profile": {
            "avatar_hash": "8fc52900576a",
            "image_72": "https:\/\/avatars.slack-edge.com\/2020-03-11\/994194688704_8fc52900576a30ffbbce_72.jpg",
            "first_name": "Jan",
            "real_name": "Jan Van Bruggen",
            "display_name": "",
            "team": "TUU48M0T1",
            "name": "jancvanbruggen",
            "is_restricted": false,
            "is_ultra_restricted": false
        },
        "blocks": [
            {
                "type": "rich_text",
                "block_id": "bdH",
                "elements": [
                    {
                        "type": "rich_text_section",
                        "elements": [
                            {
                                "type": "text",
                                "text": "(For context, we need to switch the app's data source from a Google Sheet to the JOGL API)"
                            }
                        ]
                    }
                ]
            }
        ]
    },
    {
        "client_msg_id": "447231d6-4f8f-4a3a-800a-8fd9d301ad17",
        "type": "message",
        "text": "and I am reachable if you have question about the API !",
        "user": "UVC9WMA7N",
        "ts": "1584734424.018800",
        "team": "TUU48M0T1",
        "user_team": "TUU48M0T1",
        "source_team": "TUU48M0T1",
        "user_profile": {
            "avatar_hash": "56d14d58ed53",
            "image_72": "https:\/\/avatars.slack-edge.com\/2020-03-13\/998337892660_56d14d58ed537e6e4654_72.png",
            "first_name": "Leo",
            "real_name": "Leo Blondel",
            "display_name": "Leo Blondel - JOGL CoFounder \/ CTO",
            "team": "TUU48M0T1",
            "name": "leo",
            "is_restricted": false,
            "is_ultra_restricted": false
        },
        "blocks": [
            {
                "type": "rich_text",
                "block_id": "IfZ",
                "elements": [
                    {
                        "type": "rich_text_section",
                        "elements": [
                            {
                                "type": "text",
                                "text": "and I am reachable if you have question about the API !"
                            }
                        ]
                    }
                ]
            }
        ],
        "thread_ts": "1584733124.018100",
        "parent_user_id": "UVABQCS3G",
        "reactions": [
            {
                "name": "+1",
                "users": [
                    "UVABQCS3G"
                ],
                "count": 1
            }
        ]
    },
    {
        "type": "message",
        "subtype": "channel_join",
        "ts": "1584746019.019200",
        "user": "UV8PAEN3C",
        "text": "<@UV8PAEN3C> has joined the channel"
    }
]