[
    {
        "type": "message",
        "subtype": "channel_join",
        "ts": "1585505755.000200",
        "user": "U010Z4GHYGG",
        "text": "<@U010Z4GHYGG> has joined the channel"
    },
    {
        "type": "message",
        "subtype": "channel_purpose",
        "ts": "1585505756.000300",
        "user": "U010Z4GHYGG",
        "text": "<@U010Z4GHYGG> set the channel purpose: reflect on the viability of using survivor antibodies in critical patients as a means of right-now treatment and draft of deployment",
        "purpose": "reflect on the viability of using survivor antibodies in critical patients as a means of right-now treatment and draft of deployment"
    },
    {
        "client_msg_id": "008bdc96-da86-4c95-9dcb-92472a9924fc",
        "type": "message",
        "text": "Bienvenidos a todos. That's a welcome to everyone in my mother tongue",
        "user": "U010Z4GHYGG",
        "ts": "1585505987.002100",
        "team": "TUU48M0T1",
        "user_team": "TUU48M0T1",
        "source_team": "TUU48M0T1",
        "user_profile": {
            "avatar_hash": "g07901c8853b",
            "image_72": "https:\/\/secure.gravatar.com\/avatar\/07901c8853bb936aaf913b30f8af6cbf.jpg?s=72&d=https%3A%2F%2Fa.slack-edge.com%2Fdf10d%2Fimg%2Favatars%2Fava_0009-72.png",
            "first_name": "",
            "real_name": "Juanpe",
            "display_name": "Juanpe",
            "team": "TUU48M0T1",
            "name": "juanperivas",
            "is_restricted": false,
            "is_ultra_restricted": false
        },
        "blocks": [
            {
                "type": "rich_text",
                "block_id": "8iSB",
                "elements": [
                    {
                        "type": "rich_text_section",
                        "elements": [
                            {
                                "type": "text",
                                "text": "Bienvenidos a todos. That's a welcome to everyone in my mother tongue"
                            }
                        ]
                    }
                ]
            }
        ]
    },
    {
        "client_msg_id": "70acd403-1a03-4c02-8cee-c46355238547",
        "type": "message",
        "text": "Here is a bunch of questions I'm reflecting on to frame the possibillity of using survivor blood as a treatment",
        "user": "U010Z4GHYGG",
        "ts": "1585506084.003800",
        "team": "TUU48M0T1",
        "user_team": "TUU48M0T1",
        "source_team": "TUU48M0T1",
        "user_profile": {
            "avatar_hash": "g07901c8853b",
            "image_72": "https:\/\/secure.gravatar.com\/avatar\/07901c8853bb936aaf913b30f8af6cbf.jpg?s=72&d=https%3A%2F%2Fa.slack-edge.com%2Fdf10d%2Fimg%2Favatars%2Fava_0009-72.png",
            "first_name": "",
            "real_name": "Juanpe",
            "display_name": "Juanpe",
            "team": "TUU48M0T1",
            "name": "juanperivas",
            "is_restricted": false,
            "is_ultra_restricted": false
        },
        "blocks": [
            {
                "type": "rich_text",
                "block_id": "nGa",
                "elements": [
                    {
                        "type": "rich_text_section",
                        "elements": [
                            {
                                "type": "text",
                                "text": "Here is a bunch of questions I'm reflecting on to frame the possibillity of using survivor blood as a treatment"
                            }
                        ]
                    }
                ]
            }
        ]
    },
    {
        "client_msg_id": "6e0eee8f-263b-4a3a-8656-959c1dc5b303",
        "type": "message",
        "text": "(I beg your pardon for my naming innacuracies)",
        "user": "U010Z4GHYGG",
        "ts": "1585506174.004900",
        "team": "TUU48M0T1",
        "user_team": "TUU48M0T1",
        "source_team": "TUU48M0T1",
        "user_profile": {
            "avatar_hash": "g07901c8853b",
            "image_72": "https:\/\/secure.gravatar.com\/avatar\/07901c8853bb936aaf913b30f8af6cbf.jpg?s=72&d=https%3A%2F%2Fa.slack-edge.com%2Fdf10d%2Fimg%2Favatars%2Fava_0009-72.png",
            "first_name": "",
            "real_name": "Juanpe",
            "display_name": "Juanpe",
            "team": "TUU48M0T1",
            "name": "juanperivas",
            "is_restricted": false,
            "is_ultra_restricted": false
        },
        "blocks": [
            {
                "type": "rich_text",
                "block_id": "gElN",
                "elements": [
                    {
                        "type": "rich_text_section",
                        "elements": [
                            {
                                "type": "text",
                                "text": "(I beg your pardon for my naming innacuracies)"
                            }
                        ]
                    }
                ]
            }
        ]
    },
    {
        "client_msg_id": "58688bfd-82ac-48a0-b8c8-ec00248e297f",
        "type": "message",
        "text": "always inviting you to formulate new questions or reformulate them",
        "user": "U010Z4GHYGG",
        "ts": "1585506214.005500",
        "team": "TUU48M0T1",
        "user_team": "TUU48M0T1",
        "source_team": "TUU48M0T1",
        "user_profile": {
            "avatar_hash": "g07901c8853b",
            "image_72": "https:\/\/secure.gravatar.com\/avatar\/07901c8853bb936aaf913b30f8af6cbf.jpg?s=72&d=https%3A%2F%2Fa.slack-edge.com%2Fdf10d%2Fimg%2Favatars%2Fava_0009-72.png",
            "first_name": "",
            "real_name": "Juanpe",
            "display_name": "Juanpe",
            "team": "TUU48M0T1",
            "name": "juanperivas",
            "is_restricted": false,
            "is_ultra_restricted": false
        },
        "blocks": [
            {
                "type": "rich_text",
                "block_id": "CF60U",
                "elements": [
                    {
                        "type": "rich_text_section",
                        "elements": [
                            {
                                "type": "text",
                                "text": "always inviting you to formulate new questions or reformulate them"
                            }
                        ]
                    }
                ]
            }
        ]
    },
    {
        "client_msg_id": "ee142906-3007-4148-a775-bb81c3eb6106",
        "type": "message",
        "text": "&gt; questions",
        "user": "U010Z4GHYGG",
        "ts": "1585506229.005800",
        "team": "TUU48M0T1",
        "user_team": "TUU48M0T1",
        "source_team": "TUU48M0T1",
        "user_profile": {
            "avatar_hash": "g07901c8853b",
            "image_72": "https:\/\/secure.gravatar.com\/avatar\/07901c8853bb936aaf913b30f8af6cbf.jpg?s=72&d=https%3A%2F%2Fa.slack-edge.com%2Fdf10d%2Fimg%2Favatars%2Fava_0009-72.png",
            "first_name": "",
            "real_name": "Juanpe",
            "display_name": "Juanpe",
            "team": "TUU48M0T1",
            "name": "juanperivas",
            "is_restricted": false,
            "is_ultra_restricted": false
        },
        "blocks": [
            {
                "type": "rich_text",
                "block_id": "hI0",
                "elements": [
                    {
                        "type": "rich_text_quote",
                        "elements": [
                            {
                                "type": "text",
                                "text": "questions"
                            }
                        ]
                    }
                ]
            }
        ]
    },
    {
        "client_msg_id": "fc39b4cb-10bb-4f5f-b6ff-ff9719314fb5",
        "type": "message",
        "text": "&gt; is the serum of a survivor of the covid19 useful as a treatment?",
        "user": "U010Z4GHYGG",
        "ts": "1585506273.006500",
        "team": "TUU48M0T1",
        "user_team": "TUU48M0T1",
        "source_team": "TUU48M0T1",
        "user_profile": {
            "avatar_hash": "g07901c8853b",
            "image_72": "https:\/\/secure.gravatar.com\/avatar\/07901c8853bb936aaf913b30f8af6cbf.jpg?s=72&d=https%3A%2F%2Fa.slack-edge.com%2Fdf10d%2Fimg%2Favatars%2Fava_0009-72.png",
            "first_name": "",
            "real_name": "Juanpe",
            "display_name": "Juanpe",
            "team": "TUU48M0T1",
            "name": "juanperivas",
            "is_restricted": false,
            "is_ultra_restricted": false
        },
        "blocks": [
            {
                "type": "rich_text",
                "block_id": "OPlUr",
                "elements": [
                    {
                        "type": "rich_text_quote",
                        "elements": [
                            {
                                "type": "text",
                                "text": "is the serum of a survivor of the covid19 useful as a treatment?"
                            }
                        ]
                    }
                ]
            }
        ]
    },
    {
        "client_msg_id": "1986c96f-cf6b-42a5-a49d-965e8db574bc",
        "type": "message",
        "text": "&gt; in which quantity so as to heal one person?\n",
        "user": "U010Z4GHYGG",
        "ts": "1585506452.007800",
        "team": "TUU48M0T1",
        "user_team": "TUU48M0T1",
        "source_team": "TUU48M0T1",
        "user_profile": {
            "avatar_hash": "g07901c8853b",
            "image_72": "https:\/\/secure.gravatar.com\/avatar\/07901c8853bb936aaf913b30f8af6cbf.jpg?s=72&d=https%3A%2F%2Fa.slack-edge.com%2Fdf10d%2Fimg%2Favatars%2Fava_0009-72.png",
            "first_name": "",
            "real_name": "Juanpe",
            "display_name": "Juanpe",
            "team": "TUU48M0T1",
            "name": "juanperivas",
            "is_restricted": false,
            "is_ultra_restricted": false
        },
        "blocks": [
            {
                "type": "rich_text",
                "block_id": "GyC",
                "elements": [
                    {
                        "type": "rich_text_quote",
                        "elements": [
                            {
                                "type": "text",
                                "text": "in which quantity so as to heal one person?"
                            }
                        ]
                    },
                    {
                        "type": "rich_text_section",
                        "elements": []
                    }
                ]
            }
        ]
    },
    {
        "client_msg_id": "562d34ed-7f65-4f9d-9574-f655580e967a",
        "type": "message",
        "text": "&gt; regarding the impact of the infection in a person, may a possible classification be: 1) deadly 2) bearable 3) asymptomatic?",
        "user": "U010Z4GHYGG",
        "ts": "1585506986.010400",
        "team": "TUU48M0T1",
        "user_team": "TUU48M0T1",
        "source_team": "TUU48M0T1",
        "user_profile": {
            "avatar_hash": "g07901c8853b",
            "image_72": "https:\/\/secure.gravatar.com\/avatar\/07901c8853bb936aaf913b30f8af6cbf.jpg?s=72&d=https%3A%2F%2Fa.slack-edge.com%2Fdf10d%2Fimg%2Favatars%2Fava_0009-72.png",
            "first_name": "",
            "real_name": "Juanpe",
            "display_name": "Juanpe",
            "team": "TUU48M0T1",
            "name": "juanperivas",
            "is_restricted": false,
            "is_ultra_restricted": false
        },
        "blocks": [
            {
                "type": "rich_text",
                "block_id": "+VC",
                "elements": [
                    {
                        "type": "rich_text_quote",
                        "elements": [
                            {
                                "type": "text",
                                "text": "regarding the impact of the infection in a person, may a possible classification be: 1) deadly 2) bearable 3) asymptomatic?"
                            }
                        ]
                    }
                ]
            }
        ]
    },
    {
        "client_msg_id": "a9cff5eb-5c79-483e-bce3-1ccf7bd23658",
        "type": "message",
        "text": "in a given area, how many people do we estimate in the deadly impact?",
        "user": "U010Z4GHYGG",
        "ts": "1585507314.012800",
        "team": "TUU48M0T1",
        "user_team": "TUU48M0T1",
        "source_team": "TUU48M0T1",
        "user_profile": {
            "avatar_hash": "g07901c8853b",
            "image_72": "https:\/\/secure.gravatar.com\/avatar\/07901c8853bb936aaf913b30f8af6cbf.jpg?s=72&d=https%3A%2F%2Fa.slack-edge.com%2Fdf10d%2Fimg%2Favatars%2Fava_0009-72.png",
            "first_name": "",
            "real_name": "Juanpe",
            "display_name": "Juanpe",
            "team": "TUU48M0T1",
            "name": "juanperivas",
            "is_restricted": false,
            "is_ultra_restricted": false
        },
        "blocks": [
            {
                "type": "rich_text",
                "block_id": "GR=U7",
                "elements": [
                    {
                        "type": "rich_text_section",
                        "elements": [
                            {
                                "type": "text",
                                "text": "in a given area, how many people do we estimate in the deadly impact?"
                            }
                        ]
                    }
                ]
            }
        ]
    },
    {
        "client_msg_id": "54df591e-08f8-490c-97f1-c7a876fdcfe0",
        "type": "message",
        "text": "what if we use the survivor's blood in the 'deadly'?",
        "user": "U010Z4GHYGG",
        "ts": "1585507356.013400",
        "team": "TUU48M0T1",
        "user_team": "TUU48M0T1",
        "source_team": "TUU48M0T1",
        "user_profile": {
            "avatar_hash": "g07901c8853b",
            "image_72": "https:\/\/secure.gravatar.com\/avatar\/07901c8853bb936aaf913b30f8af6cbf.jpg?s=72&d=https%3A%2F%2Fa.slack-edge.com%2Fdf10d%2Fimg%2Favatars%2Fava_0009-72.png",
            "first_name": "",
            "real_name": "Juanpe",
            "display_name": "Juanpe",
            "team": "TUU48M0T1",
            "name": "juanperivas",
            "is_restricted": false,
            "is_ultra_restricted": false
        },
        "blocks": [
            {
                "type": "rich_text",
                "block_id": "uLv",
                "elements": [
                    {
                        "type": "rich_text_section",
                        "elements": [
                            {
                                "type": "text",
                                "text": "what if we use the survivor's blood in the 'deadly'?"
                            }
                        ]
                    }
                ]
            }
        ]
    },
    {
        "client_msg_id": "6272994f-dcfa-46aa-a125-3a52e1590aa1",
        "type": "message",
        "text": "is the blood of the 'deadly' recovered by this means useful?",
        "user": "U010Z4GHYGG",
        "ts": "1585507544.015200",
        "team": "TUU48M0T1",
        "user_team": "TUU48M0T1",
        "source_team": "TUU48M0T1",
        "user_profile": {
            "avatar_hash": "g07901c8853b",
            "image_72": "https:\/\/secure.gravatar.com\/avatar\/07901c8853bb936aaf913b30f8af6cbf.jpg?s=72&d=https%3A%2F%2Fa.slack-edge.com%2Fdf10d%2Fimg%2Favatars%2Fava_0009-72.png",
            "first_name": "",
            "real_name": "Juanpe",
            "display_name": "Juanpe",
            "team": "TUU48M0T1",
            "name": "juanperivas",
            "is_restricted": false,
            "is_ultra_restricted": false
        },
        "blocks": [
            {
                "type": "rich_text",
                "block_id": "tu=DO",
                "elements": [
                    {
                        "type": "rich_text_section",
                        "elements": [
                            {
                                "type": "text",
                                "text": "is the blood of the 'deadly' recovered by this means useful?"
                            }
                        ]
                    }
                ]
            }
        ]
    },
    {
        "client_msg_id": "ee639ebc-ba00-40e0-8bc5-e6d662f01e73",
        "type": "message",
        "text": "in other words, do 'deadly' recipients heal? and is their serum useful to others?",
        "user": "U010Z4GHYGG",
        "ts": "1585507656.016500",
        "team": "TUU48M0T1",
        "user_team": "TUU48M0T1",
        "source_team": "TUU48M0T1",
        "user_profile": {
            "avatar_hash": "g07901c8853b",
            "image_72": "https:\/\/secure.gravatar.com\/avatar\/07901c8853bb936aaf913b30f8af6cbf.jpg?s=72&d=https%3A%2F%2Fa.slack-edge.com%2Fdf10d%2Fimg%2Favatars%2Fava_0009-72.png",
            "first_name": "",
            "real_name": "Juanpe",
            "display_name": "Juanpe",
            "team": "TUU48M0T1",
            "name": "juanperivas",
            "is_restricted": false,
            "is_ultra_restricted": false
        },
        "blocks": [
            {
                "type": "rich_text",
                "block_id": "siR",
                "elements": [
                    {
                        "type": "rich_text_section",
                        "elements": [
                            {
                                "type": "text",
                                "text": "in other words, do 'deadly' recipients heal? and is their serum useful to others?"
                            }
                        ]
                    }
                ]
            }
        ]
    },
    {
        "client_msg_id": "67ddccb3-3204-481b-9c30-b4146c688e1b",
        "type": "message",
        "text": "a link from wikipedia: <https:\/\/en.wikipedia.org\/wiki\/Antiserum>",
        "user": "U010Z4GHYGG",
        "ts": "1585507733.017200",
        "team": "TUU48M0T1",
        "user_team": "TUU48M0T1",
        "source_team": "TUU48M0T1",
        "user_profile": {
            "avatar_hash": "g07901c8853b",
            "image_72": "https:\/\/secure.gravatar.com\/avatar\/07901c8853bb936aaf913b30f8af6cbf.jpg?s=72&d=https%3A%2F%2Fa.slack-edge.com%2Fdf10d%2Fimg%2Favatars%2Fava_0009-72.png",
            "first_name": "",
            "real_name": "Juanpe",
            "display_name": "Juanpe",
            "team": "TUU48M0T1",
            "name": "juanperivas",
            "is_restricted": false,
            "is_ultra_restricted": false
        },
        "attachments": [
            {
                "title": "Antiserum",
                "title_link": "https:\/\/en.wikipedia.org\/wiki\/Antiserum",
                "from_url": "https:\/\/en.wikipedia.org\/wiki\/Antiserum",
                "author_name": "Wikipedia",
                "author_link": "https:\/\/en.wikipedia.org\/",
                "text": "Antiserum is human or nonhuman blood serum containing monoclonal or polyclonal antibodies that is used to spread passive immunity to many diseases. For example, convalescent serum, passive antibody transfusion from a previous human survivor, used to be the only known effective treatment for Ebola infection with a high success rate of 7 out 8 patients surviving.Antisera are widely used in diagnostic virology laboratories. The most common use of antiserum in humans is as antitoxin or antivenom to treat envenomation.\nSerum therapy, also known as serotherapy, describes the treatment of infectious disease using the serum of animals that have been immunized against the specific organisms or their product, to which the disease is supposedly referable.",
                "fallback": "wikipedia: Antiserum",
                "service_icon": "https:\/\/a.slack-edge.com\/80588\/img\/unfurl_icons\/wikipedia.png",
                "id": 1,
                "original_url": "https:\/\/en.wikipedia.org\/wiki\/Antiserum"
            }
        ],
        "blocks": [
            {
                "type": "rich_text",
                "block_id": "GFk16",
                "elements": [
                    {
                        "type": "rich_text_section",
                        "elements": [
                            {
                                "type": "text",
                                "text": "a link from wikipedia: "
                            },
                            {
                                "type": "link",
                                "url": "https:\/\/en.wikipedia.org\/wiki\/Antiserum"
                            }
                        ]
                    }
                ]
            }
        ]
    }
]