[
    {
        "type": "message",
        "subtype": "channel_join",
        "ts": "1586549380.000200",
        "user": "U011XCJJ7KK",
        "text": "<@U011XCJJ7KK> has joined the channel"
    },
    {
        "type": "message",
        "subtype": "channel_purpose",
        "ts": "1586549381.000300",
        "user": "U011XCJJ7KK",
        "text": "<@U011XCJJ7KK> set the channel purpose: This project is about building a face mask for zoo animals to protect them from getting infected with the Coronavirus.",
        "purpose": "This project is about building a face mask for zoo animals to protect them from getting infected with the Coronavirus."
    },
    {
        "type": "message",
        "subtype": "channel_purpose",
        "ts": "1586549492.000400",
        "user": "U011XCJJ7KK",
        "text": "<@U011XCJJ7KK> set the channel purpose: This project is about building a face mask for zoo animals to protect them from getting infected with the Coronavirus. For more information please visit <https:\/\/solve.mit.edu\/challenges\/health-security-pandemics\/solutions\/21752>",
        "purpose": "This project is about building a face mask for zoo animals to protect them from getting infected with the Coronavirus. For more information please visit <https:\/\/solve.mit.edu\/challenges\/health-security-pandemics\/solutions\/21752>"
    },
    {
        "type": "message",
        "text": "According to the recent reports, “a four year old female Malayan tiger at the Bronx Zoo has tested positive for the Coronavirus. The tiger, named Nadia, is believed to be the first known case of an animal infected with Covid-19 in the U.S.A. The Bronx Zoo, in New York City, says the test result was confirmed by the National Veterinary Services Laboratory in Iowa. Nadia, along with six other big cats, is thought to have been infected by an asymptomatic zoo keeper. The cats started showing symptoms, including a dry cough, late last month after exposure to the employee, who has not been identified.” This is a very serious issue because not only the animals bring additional transmission traits to us but also if the virus attacked endangered animals, their species will be wiped out because they do not have conscious behavioral changes that will enable them protect themselves like we do. So we need to develop a mechanism that will disrupt the transmission line from animals to animals and animals to humans as soon as possible before things get out of control. \nThis project is about building a face mask for zoo animals to protect them from getting infected with the Coronavirus. This mask design has a conical shape that uses the neck of the animals as an anchor to support the mask structure. In order to protect them from direct air flow into their mouth, nose and eyes which is the main means of transmission of the Coronavirus, the conical shaped mask have two detachable covers installed at the larger diameter end of the conical shaped mask. The two detachable covers have holes to allow air flow for them to breath but since the hole are aligned in an offset position; there will not be any direct air flow in to the mask and out of the mask. This will be efficient in preventing the virus as good as our masks we use to protect ourselves. The smaller diameter end of the mask has a belt structure that is used to tighten or loosen the mask based on the diameter of the neck of the animals and since the mask is made of completely transparent material, there will not be any discomfort in their vision 360 degree.",
        "files": [
            {
                "id": "F011JUW3PGE",
                "created": 1586549587,
                "timestamp": 1586549587,
                "name": "mai.JPG",
                "title": "mai.JPG",
                "mimetype": "image\/jpeg",
                "filetype": "jpg",
                "pretty_type": "JPEG",
                "user": "U011XCJJ7KK",
                "editable": false,
                "size": 8408,
                "mode": "hosted",
                "is_external": false,
                "external_type": "",
                "is_public": true,
                "public_url_shared": false,
                "display_as_bot": false,
                "username": "",
                "url_private": "https:\/\/files.slack.com\/files-pri\/TUU48M0T1-F011JUW3PGE\/mai.jpg?t=xoxe-980144714919-1133254701825-1120841107731-daf595b5a7d6c9028b0b02a925032e36",
                "url_private_download": "https:\/\/files.slack.com\/files-pri\/TUU48M0T1-F011JUW3PGE\/download\/mai.jpg?t=xoxe-980144714919-1133254701825-1120841107731-daf595b5a7d6c9028b0b02a925032e36",
                "thumb_64": "https:\/\/files.slack.com\/files-tmb\/TUU48M0T1-F011JUW3PGE-0595e77daa\/mai_64.jpg?t=xoxe-980144714919-1133254701825-1120841107731-daf595b5a7d6c9028b0b02a925032e36",
                "thumb_80": "https:\/\/files.slack.com\/files-tmb\/TUU48M0T1-F011JUW3PGE-0595e77daa\/mai_80.jpg?t=xoxe-980144714919-1133254701825-1120841107731-daf595b5a7d6c9028b0b02a925032e36",
                "thumb_360": "https:\/\/files.slack.com\/files-tmb\/TUU48M0T1-F011JUW3PGE-0595e77daa\/mai_360.jpg?t=xoxe-980144714919-1133254701825-1120841107731-daf595b5a7d6c9028b0b02a925032e36",
                "thumb_360_w": 360,
                "thumb_360_h": 209,
                "thumb_480": "https:\/\/files.slack.com\/files-tmb\/TUU48M0T1-F011JUW3PGE-0595e77daa\/mai_480.jpg?t=xoxe-980144714919-1133254701825-1120841107731-daf595b5a7d6c9028b0b02a925032e36",
                "thumb_480_w": 480,
                "thumb_480_h": 279,
                "thumb_160": "https:\/\/files.slack.com\/files-tmb\/TUU48M0T1-F011JUW3PGE-0595e77daa\/mai_160.jpg?t=xoxe-980144714919-1133254701825-1120841107731-daf595b5a7d6c9028b0b02a925032e36",
                "thumb_720": "https:\/\/files.slack.com\/files-tmb\/TUU48M0T1-F011JUW3PGE-0595e77daa\/mai_720.jpg?t=xoxe-980144714919-1133254701825-1120841107731-daf595b5a7d6c9028b0b02a925032e36",
                "thumb_720_w": 720,
                "thumb_720_h": 419,
                "thumb_800": "https:\/\/files.slack.com\/files-tmb\/TUU48M0T1-F011JUW3PGE-0595e77daa\/mai_800.jpg?t=xoxe-980144714919-1133254701825-1120841107731-daf595b5a7d6c9028b0b02a925032e36",
                "thumb_800_w": 800,
                "thumb_800_h": 465,
                "image_exif_rotation": 1,
                "original_w": 886,
                "original_h": 515,
                "thumb_tiny": "AwAbADC9to21JijFAELMFHAzUXmNnt+VOJHI79KZigCWNt\/BHIp+2o4B85+lWMUALRRRQBWlQq5PY01ck4AzVugADoMUAMjTYvuetPoooA\/\/2Q==",
                "permalink": "https:\/\/open-covid19.slack.com\/files\/U011XCJJ7KK\/F011JUW3PGE\/mai.jpg",
                "permalink_public": "https:\/\/slack-files.com\/TUU48M0T1-F011JUW3PGE-23fba159fa",
                "is_starred": false,
                "has_rich_preview": false
            },
            {
                "id": "F011LPJJGH0",
                "created": 1586549591,
                "timestamp": 1586549591,
                "name": "2.JPG",
                "title": "2.JPG",
                "mimetype": "image\/jpeg",
                "filetype": "jpg",
                "pretty_type": "JPEG",
                "user": "U011XCJJ7KK",
                "editable": false,
                "size": 6320,
                "mode": "hosted",
                "is_external": false,
                "external_type": "",
                "is_public": true,
                "public_url_shared": false,
                "display_as_bot": false,
                "username": "",
                "url_private": "https:\/\/files.slack.com\/files-pri\/TUU48M0T1-F011LPJJGH0\/2.jpg?t=xoxe-980144714919-1133254701825-1120841107731-daf595b5a7d6c9028b0b02a925032e36",
                "url_private_download": "https:\/\/files.slack.com\/files-pri\/TUU48M0T1-F011LPJJGH0\/download\/2.jpg?t=xoxe-980144714919-1133254701825-1120841107731-daf595b5a7d6c9028b0b02a925032e36",
                "thumb_64": "https:\/\/files.slack.com\/files-tmb\/TUU48M0T1-F011LPJJGH0-dd385024e3\/2_64.jpg?t=xoxe-980144714919-1133254701825-1120841107731-daf595b5a7d6c9028b0b02a925032e36",
                "thumb_80": "https:\/\/files.slack.com\/files-tmb\/TUU48M0T1-F011LPJJGH0-dd385024e3\/2_80.jpg?t=xoxe-980144714919-1133254701825-1120841107731-daf595b5a7d6c9028b0b02a925032e36",
                "thumb_360": "https:\/\/files.slack.com\/files-tmb\/TUU48M0T1-F011LPJJGH0-dd385024e3\/2_360.jpg?t=xoxe-980144714919-1133254701825-1120841107731-daf595b5a7d6c9028b0b02a925032e36",
                "thumb_360_w": 360,
                "thumb_360_h": 238,
                "thumb_480": "https:\/\/files.slack.com\/files-tmb\/TUU48M0T1-F011LPJJGH0-dd385024e3\/2_480.jpg?t=xoxe-980144714919-1133254701825-1120841107731-daf595b5a7d6c9028b0b02a925032e36",
                "thumb_480_w": 480,
                "thumb_480_h": 318,
                "thumb_160": "https:\/\/files.slack.com\/files-tmb\/TUU48M0T1-F011LPJJGH0-dd385024e3\/2_160.jpg?t=xoxe-980144714919-1133254701825-1120841107731-daf595b5a7d6c9028b0b02a925032e36",
                "thumb_720": "https:\/\/files.slack.com\/files-tmb\/TUU48M0T1-F011LPJJGH0-dd385024e3\/2_720.jpg?t=xoxe-980144714919-1133254701825-1120841107731-daf595b5a7d6c9028b0b02a925032e36",
                "thumb_720_w": 720,
                "thumb_720_h": 476,
                "thumb_800": "https:\/\/files.slack.com\/files-tmb\/TUU48M0T1-F011LPJJGH0-dd385024e3\/2_800.jpg?t=xoxe-980144714919-1133254701825-1120841107731-daf595b5a7d6c9028b0b02a925032e36",
                "thumb_800_w": 800,
                "thumb_800_h": 529,
                "image_exif_rotation": 1,
                "original_w": 854,
                "original_h": 565,
                "thumb_tiny": "AwAfADC7to21JigjigCI4Xqabu9qeqjaSe9NxQAowelLtojHzVJigB1FFFAEAGOPSl69alZQfrSBB35oARF70+iigD\/\/2Q==",
                "permalink": "https:\/\/open-covid19.slack.com\/files\/U011XCJJ7KK\/F011LPJJGH0\/2.jpg",
                "permalink_public": "https:\/\/slack-files.com\/TUU48M0T1-F011LPJJGH0-c36a62850a",
                "is_starred": false,
                "has_rich_preview": false
            },
            {
                "id": "F011NRNR345",
                "created": 1586549594,
                "timestamp": 1586549594,
                "name": "1.JPG",
                "title": "1.JPG",
                "mimetype": "image\/jpeg",
                "filetype": "jpg",
                "pretty_type": "JPEG",
                "user": "U011XCJJ7KK",
                "editable": false,
                "size": 7235,
                "mode": "hosted",
                "is_external": false,
                "external_type": "",
                "is_public": true,
                "public_url_shared": false,
                "display_as_bot": false,
                "username": "",
                "url_private": "https:\/\/files.slack.com\/files-pri\/TUU48M0T1-F011NRNR345\/1.jpg?t=xoxe-980144714919-1133254701825-1120841107731-daf595b5a7d6c9028b0b02a925032e36",
                "url_private_download": "https:\/\/files.slack.com\/files-pri\/TUU48M0T1-F011NRNR345\/download\/1.jpg?t=xoxe-980144714919-1133254701825-1120841107731-daf595b5a7d6c9028b0b02a925032e36",
                "thumb_64": "https:\/\/files.slack.com\/files-tmb\/TUU48M0T1-F011NRNR345-2b4548ea28\/1_64.jpg?t=xoxe-980144714919-1133254701825-1120841107731-daf595b5a7d6c9028b0b02a925032e36",
                "thumb_80": "https:\/\/files.slack.com\/files-tmb\/TUU48M0T1-F011NRNR345-2b4548ea28\/1_80.jpg?t=xoxe-980144714919-1133254701825-1120841107731-daf595b5a7d6c9028b0b02a925032e36",
                "thumb_360": "https:\/\/files.slack.com\/files-tmb\/TUU48M0T1-F011NRNR345-2b4548ea28\/1_360.jpg?t=xoxe-980144714919-1133254701825-1120841107731-daf595b5a7d6c9028b0b02a925032e36",
                "thumb_360_w": 360,
                "thumb_360_h": 247,
                "thumb_480": "https:\/\/files.slack.com\/files-tmb\/TUU48M0T1-F011NRNR345-2b4548ea28\/1_480.jpg?t=xoxe-980144714919-1133254701825-1120841107731-daf595b5a7d6c9028b0b02a925032e36",
                "thumb_480_w": 480,
                "thumb_480_h": 329,
                "thumb_160": "https:\/\/files.slack.com\/files-tmb\/TUU48M0T1-F011NRNR345-2b4548ea28\/1_160.jpg?t=xoxe-980144714919-1133254701825-1120841107731-daf595b5a7d6c9028b0b02a925032e36",
                "thumb_720": "https:\/\/files.slack.com\/files-tmb\/TUU48M0T1-F011NRNR345-2b4548ea28\/1_720.jpg?t=xoxe-980144714919-1133254701825-1120841107731-daf595b5a7d6c9028b0b02a925032e36",
                "thumb_720_w": 720,
                "thumb_720_h": 494,
                "image_exif_rotation": 1,
                "original_w": 759,
                "original_h": 521,
                "thumb_tiny": "AwAgADC9ijFPxSMMKaAI2Kr1phkPYD8adjgk0zFAD0YMcHg0\/FQgcirOKAHUEZGKKKAKo6UvWpXjycrTRE3figBEXL+wqekVQowKWgD\/2Q==",
                "permalink": "https:\/\/open-covid19.slack.com\/files\/U011XCJJ7KK\/F011NRNR345\/1.jpg",
                "permalink_public": "https:\/\/slack-files.com\/TUU48M0T1-F011NRNR345-a1f137f33c",
                "is_starred": false,
                "has_rich_preview": false
            },
            {
                "id": "F011CFEMRBR",
                "created": 1586549595,
                "timestamp": 1586549595,
                "name": "3.JPG",
                "title": "3.JPG",
                "mimetype": "image\/jpeg",
                "filetype": "jpg",
                "pretty_type": "JPEG",
                "user": "U011XCJJ7KK",
                "editable": false,
                "size": 8051,
                "mode": "hosted",
                "is_external": false,
                "external_type": "",
                "is_public": true,
                "public_url_shared": false,
                "display_as_bot": false,
                "username": "",
                "url_private": "https:\/\/files.slack.com\/files-pri\/TUU48M0T1-F011CFEMRBR\/3.jpg?t=xoxe-980144714919-1133254701825-1120841107731-daf595b5a7d6c9028b0b02a925032e36",
                "url_private_download": "https:\/\/files.slack.com\/files-pri\/TUU48M0T1-F011CFEMRBR\/download\/3.jpg?t=xoxe-980144714919-1133254701825-1120841107731-daf595b5a7d6c9028b0b02a925032e36",
                "thumb_64": "https:\/\/files.slack.com\/files-tmb\/TUU48M0T1-F011CFEMRBR-b0f8a30334\/3_64.jpg?t=xoxe-980144714919-1133254701825-1120841107731-daf595b5a7d6c9028b0b02a925032e36",
                "thumb_80": "https:\/\/files.slack.com\/files-tmb\/TUU48M0T1-F011CFEMRBR-b0f8a30334\/3_80.jpg?t=xoxe-980144714919-1133254701825-1120841107731-daf595b5a7d6c9028b0b02a925032e36",
                "thumb_360": "https:\/\/files.slack.com\/files-tmb\/TUU48M0T1-F011CFEMRBR-b0f8a30334\/3_360.jpg?t=xoxe-980144714919-1133254701825-1120841107731-daf595b5a7d6c9028b0b02a925032e36",
                "thumb_360_w": 360,
                "thumb_360_h": 226,
                "thumb_480": "https:\/\/files.slack.com\/files-tmb\/TUU48M0T1-F011CFEMRBR-b0f8a30334\/3_480.jpg?t=xoxe-980144714919-1133254701825-1120841107731-daf595b5a7d6c9028b0b02a925032e36",
                "thumb_480_w": 480,
                "thumb_480_h": 301,
                "thumb_160": "https:\/\/files.slack.com\/files-tmb\/TUU48M0T1-F011CFEMRBR-b0f8a30334\/3_160.jpg?t=xoxe-980144714919-1133254701825-1120841107731-daf595b5a7d6c9028b0b02a925032e36",
                "thumb_720": "https:\/\/files.slack.com\/files-tmb\/TUU48M0T1-F011CFEMRBR-b0f8a30334\/3_720.jpg?t=xoxe-980144714919-1133254701825-1120841107731-daf595b5a7d6c9028b0b02a925032e36",
                "thumb_720_w": 720,
                "thumb_720_h": 451,
                "thumb_800": "https:\/\/files.slack.com\/files-tmb\/TUU48M0T1-F011CFEMRBR-b0f8a30334\/3_800.jpg?t=xoxe-980144714919-1133254701825-1120841107731-daf595b5a7d6c9028b0b02a925032e36",
                "thumb_800_w": 800,
                "thumb_800_h": 501,
                "image_exif_rotation": 1,
                "original_w": 846,
                "original_h": 530,
                "thumb_tiny": "AwAeADC9toxipMVFPwoHrQBE0vPyj8TSCVu+DTkAxSOBuoAlQhxkUu2o4eJMetWMUALUcy5TI7VJRQBTzjpRVhoVJyOKQQAHkk0ANgXLbuwqegAAYFFAH\/\/Z",
                "permalink": "https:\/\/open-covid19.slack.com\/files\/U011XCJJ7KK\/F011CFEMRBR\/3.jpg",
                "permalink_public": "https:\/\/slack-files.com\/TUU48M0T1-F011CFEMRBR-7e411bef39",
                "is_starred": false,
                "has_rich_preview": false
            }
        ],
        "upload": true,
        "blocks": [
            {
                "type": "rich_text",
                "block_id": "XVDq",
                "elements": [
                    {
                        "type": "rich_text_section",
                        "elements": [
                            {
                                "type": "text",
                                "text": "According to the recent reports, “a four year old female Malayan tiger at the Bronx Zoo has tested positive for the Coronavirus. The tiger, named Nadia, is believed to be the first known case of an animal infected with Covid-19 in the U.S.A. The Bronx Zoo, in New York City, says the test result was confirmed by the National Veterinary Services Laboratory in Iowa. Nadia, along with six other big cats, is thought to have been infected by an asymptomatic zoo keeper. The cats started showing symptoms, including a dry cough, late last month after exposure to the employee, who has not been identified.” This is a very serious issue because not only the animals bring additional transmission traits to us but also if the virus attacked endangered animals, their species will be wiped out because they do not have conscious behavioral changes that will enable them protect themselves like we do. So we need to develop a mechanism that will disrupt the transmission line from animals to animals and animals to humans as soon as possible before things get out of control. \nThis project is about building a face mask for zoo animals to protect them from getting infected with the Coronavirus. This mask design has a conical shape that uses the neck of the animals as an anchor to support the mask structure. In order to protect them from direct air flow into their mouth, nose and eyes which is the main means of transmission of the Coronavirus, the conical shaped mask have two detachable covers installed at the larger diameter end of the conical shaped mask. The two detachable covers have holes to allow air flow for them to breath but since the hole are aligned in an offset position; there will not be any direct air flow in to the mask and out of the mask. This will be efficient in preventing the virus as good as our masks we use to protect ourselves. The smaller diameter end of the mask has a belt structure that is used to tighten or loosen the mask based on the diameter of the neck of the animals and since the mask is made of completely transparent material, there will not be any discomfort in their vision 360 degree."
                            }
                        ]
                    }
                ]
            }
        ],
        "user": "U011XCJJ7KK",
        "ts": "1586549612.000500",
        "client_msg_id": "8fafad2a-0a18-411e-9a0c-025305339422"
    }
]