[
    {
        "client_msg_id": "9b68c5fe-4791-4538-a5f2-9bc99c04678c",
        "type": "message",
        "text": "Beautilful sketch ! Looks more and more as a very hard discussed model.\nDiameter sensor directly on the box is a real new idea that I do like ! :+1:",
        "user": "U010U9EHR7T",
        "ts": "1587367288.089100",
        "team": "TUU48M0T1",
        "user_team": "TUU48M0T1",
        "source_team": "TUU48M0T1",
        "user_profile": {
            "avatar_hash": "g36ea42e25d9",
            "image_72": "https:\/\/secure.gravatar.com\/avatar\/ad392afd49098e1505b10c168f27050d.jpg?s=72&d=https%3A%2F%2Fa.slack-edge.com%2Fdf10d%2Fimg%2Favatars%2Fava_0004-72.png",
            "first_name": "Jean-Loup",
            "real_name": "Jean-Loup DUBREUCQ",
            "display_name": "jldubreucq",
            "team": "TUU48M0T1",
            "name": "jlmd.jogl",
            "is_restricted": false,
            "is_ultra_restricted": false
        },
        "blocks": [
            {
                "type": "rich_text",
                "block_id": "934Bt",
                "elements": [
                    {
                        "type": "rich_text_section",
                        "elements": [
                            {
                                "type": "text",
                                "text": "Beautilful sketch ! Looks more and more as a very hard discussed model.\nDiameter sensor directly on the box is a real new idea that I do like ! "
                            },
                            {
                                "type": "emoji",
                                "name": "+1"
                            }
                        ]
                    }
                ]
            }
        ],
        "thread_ts": "1587328251.084600",
        "parent_user_id": "U01081Y0TBP"
    },
    {
        "client_msg_id": "563b8ade-07e6-4a89-8d54-8ac946e46ce7",
        "type": "message",
        "text": "<@U01188XCK19> Hi Arthur ! Do you think you will be able to add some kind of external watchdog on the Smoothieboard ? For medical device and the security attached to them, it could be important !",
        "user": "U010U9EHR7T",
        "ts": "1587367632.090600",
        "team": "TUU48M0T1",
        "user_team": "TUU48M0T1",
        "source_team": "TUU48M0T1",
        "user_profile": {
            "avatar_hash": "g36ea42e25d9",
            "image_72": "https:\/\/secure.gravatar.com\/avatar\/ad392afd49098e1505b10c168f27050d.jpg?s=72&d=https%3A%2F%2Fa.slack-edge.com%2Fdf10d%2Fimg%2Favatars%2Fava_0004-72.png",
            "first_name": "Jean-Loup",
            "real_name": "Jean-Loup DUBREUCQ",
            "display_name": "jldubreucq",
            "team": "TUU48M0T1",
            "name": "jlmd.jogl",
            "is_restricted": false,
            "is_ultra_restricted": false
        },
        "edited": {
            "user": "U010U9EHR7T",
            "ts": "1587367696.000000"
        },
        "blocks": [
            {
                "type": "rich_text",
                "block_id": "HeR",
                "elements": [
                    {
                        "type": "rich_text_section",
                        "elements": [
                            {
                                "type": "user",
                                "user_id": "U01188XCK19"
                            },
                            {
                                "type": "text",
                                "text": " Hi Arthur ! Do you think you will be able to add some kind of external watchdog on the Smoothieboard ? For medical device and the security attached to them, it could be important !"
                            }
                        ]
                    }
                ]
            }
        ]
    },
    {
        "client_msg_id": "ebf6728d-9bf6-46e5-a949-8eab38ea3395",
        "type": "message",
        "text": "we have an internal watchdog to monitor the code. we could add an external watchdog depends on the specs etc. definitely can be done",
        "user": "U01188XCK19",
        "ts": "1587369053.091300",
        "team": "TUU48M0T1",
        "user_team": "TUU48M0T1",
        "source_team": "TUU48M0T1",
        "user_profile": {
            "avatar_hash": "gd85edfb45fa",
            "image_72": "https:\/\/secure.gravatar.com\/avatar\/d85edfb45fa87b47ea33da26228d07dd.jpg?s=72&d=https%3A%2F%2Fa.slack-edge.com%2Fdf10d%2Fimg%2Favatars%2Fava_0011-72.png",
            "first_name": "",
            "real_name": "wolf arthur",
            "display_name": "wolf arthur",
            "team": "TUU48M0T1",
            "name": "wolf.arthur",
            "is_restricted": false,
            "is_ultra_restricted": false
        },
        "blocks": [
            {
                "type": "rich_text",
                "block_id": "G4Tj",
                "elements": [
                    {
                        "type": "rich_text_section",
                        "elements": [
                            {
                                "type": "text",
                                "text": "we have an internal watchdog to monitor the code. we could add an external watchdog depends on the specs etc. definitely can be done"
                            }
                        ]
                    }
                ]
            }
        ]
    },
    {
        "client_msg_id": "caf2f453-ae65-4c1c-bc59-0df306825532",
        "type": "message",
        "text": "OK !",
        "user": "U010U9EHR7T",
        "ts": "1587369208.091600",
        "team": "TUU48M0T1",
        "user_team": "TUU48M0T1",
        "source_team": "TUU48M0T1",
        "user_profile": {
            "avatar_hash": "g36ea42e25d9",
            "image_72": "https:\/\/secure.gravatar.com\/avatar\/ad392afd49098e1505b10c168f27050d.jpg?s=72&d=https%3A%2F%2Fa.slack-edge.com%2Fdf10d%2Fimg%2Favatars%2Fava_0004-72.png",
            "first_name": "Jean-Loup",
            "real_name": "Jean-Loup DUBREUCQ",
            "display_name": "jldubreucq",
            "team": "TUU48M0T1",
            "name": "jlmd.jogl",
            "is_restricted": false,
            "is_ultra_restricted": false
        },
        "blocks": [
            {
                "type": "rich_text",
                "block_id": "Os1",
                "elements": [
                    {
                        "type": "rich_text_section",
                        "elements": [
                            {
                                "type": "text",
                                "text": "OK !"
                            }
                        ]
                    }
                ]
            }
        ]
    },
    {
        "client_msg_id": "3dd48861-11ed-407b-83de-441573001803",
        "type": "message",
        "text": "Thanks! I gave it some more thoughts and",
        "user": "U01081Y0TBP",
        "ts": "1587393464.092400",
        "team": "TUU48M0T1",
        "user_team": "TUU48M0T1",
        "source_team": "TUU48M0T1",
        "user_profile": {
            "avatar_hash": "60ec5b47107a",
            "image_72": "https:\/\/avatars.slack-edge.com\/2020-03-18\/995274181218_60ec5b47107a3bd2ca7d_72.jpg",
            "first_name": "Peter",
            "real_name": "Peter Kooren",
            "display_name": "Peter Kooren",
            "team": "TUU48M0T1",
            "name": "peterkooren",
            "is_restricted": false,
            "is_ultra_restricted": false
        },
        "blocks": [
            {
                "type": "rich_text",
                "block_id": "c6=jH",
                "elements": [
                    {
                        "type": "rich_text_section",
                        "elements": [
                            {
                                "type": "text",
                                "text": "Thanks! I gave it some more thoughts and"
                            }
                        ]
                    }
                ]
            }
        ],
        "thread_ts": "1587328251.084600",
        "parent_user_id": "U01081Y0TBP"
    },
    {
        "client_msg_id": "716357f3-3298-4767-9e3c-c54c1cde751a",
        "type": "message",
        "text": "..I believe the spindle\/nut should be non lubricated and with the spindle not corrosion sensitive. Maybe this is already the case in <@U0119U5N3T3> and <@U0126EXGWQY> their designs.",
        "user": "U01081Y0TBP",
        "ts": "1587393630.092600",
        "team": "TUU48M0T1",
        "user_team": "TUU48M0T1",
        "source_team": "TUU48M0T1",
        "user_profile": {
            "avatar_hash": "60ec5b47107a",
            "image_72": "https:\/\/avatars.slack-edge.com\/2020-03-18\/995274181218_60ec5b47107a3bd2ca7d_72.jpg",
            "first_name": "Peter",
            "real_name": "Peter Kooren",
            "display_name": "Peter Kooren",
            "team": "TUU48M0T1",
            "name": "peterkooren",
            "is_restricted": false,
            "is_ultra_restricted": false
        },
        "blocks": [
            {
                "type": "rich_text",
                "block_id": "sOh",
                "elements": [
                    {
                        "type": "rich_text_section",
                        "elements": [
                            {
                                "type": "text",
                                "text": "..I believe the spindle\/nut should be non lubricated and with the spindle not corrosion sensitive. Maybe this is already the case in "
                            },
                            {
                                "type": "user",
                                "user_id": "U0119U5N3T3"
                            },
                            {
                                "type": "text",
                                "text": " and "
                            },
                            {
                                "type": "user",
                                "user_id": "U0126EXGWQY"
                            },
                            {
                                "type": "text",
                                "text": " their designs."
                            }
                        ]
                    }
                ]
            }
        ],
        "thread_ts": "1587328251.084600",
        "parent_user_id": "U01081Y0TBP"
    },
    {
        "client_msg_id": "1cfa89b2-01ca-4b24-9444-bebbb0affd19",
        "type": "message",
        "text": "I think we must add an external watchdog !",
        "user": "U010U9EHR7T",
        "ts": "1587394049.093200",
        "team": "TUU48M0T1",
        "user_team": "TUU48M0T1",
        "source_team": "TUU48M0T1",
        "user_profile": {
            "avatar_hash": "g36ea42e25d9",
            "image_72": "https:\/\/secure.gravatar.com\/avatar\/ad392afd49098e1505b10c168f27050d.jpg?s=72&d=https%3A%2F%2Fa.slack-edge.com%2Fdf10d%2Fimg%2Favatars%2Fava_0004-72.png",
            "first_name": "Jean-Loup",
            "real_name": "Jean-Loup DUBREUCQ",
            "display_name": "jldubreucq",
            "team": "TUU48M0T1",
            "name": "jlmd.jogl",
            "is_restricted": false,
            "is_ultra_restricted": false
        },
        "blocks": [
            {
                "type": "rich_text",
                "block_id": "T4zv9",
                "elements": [
                    {
                        "type": "rich_text_section",
                        "elements": [
                            {
                                "type": "text",
                                "text": "I think we must add an external watchdog !"
                            }
                        ]
                    }
                ]
            }
        ]
    },
    {
        "client_msg_id": "14739cd4-6c44-40c4-b693-5d6523f1c1f7",
        "type": "message",
        "text": "<@U0119U5N3T3> Can you publish design v1 ?",
        "user": "U010U9EHR7T",
        "ts": "1587394647.093900",
        "team": "TUU48M0T1",
        "user_team": "TUU48M0T1",
        "source_team": "TUU48M0T1",
        "user_profile": {
            "avatar_hash": "g36ea42e25d9",
            "image_72": "https:\/\/secure.gravatar.com\/avatar\/ad392afd49098e1505b10c168f27050d.jpg?s=72&d=https%3A%2F%2Fa.slack-edge.com%2Fdf10d%2Fimg%2Favatars%2Fava_0004-72.png",
            "first_name": "Jean-Loup",
            "real_name": "Jean-Loup DUBREUCQ",
            "display_name": "jldubreucq",
            "team": "TUU48M0T1",
            "name": "jlmd.jogl",
            "is_restricted": false,
            "is_ultra_restricted": false
        },
        "blocks": [
            {
                "type": "rich_text",
                "block_id": "Eu=",
                "elements": [
                    {
                        "type": "rich_text_section",
                        "elements": [
                            {
                                "type": "user",
                                "user_id": "U0119U5N3T3"
                            },
                            {
                                "type": "text",
                                "text": " Can you publish design v1 ?"
                            }
                        ]
                    }
                ]
            }
        ]
    },
    {
        "client_msg_id": "348cc125-dc87-4fc6-a69d-e38c97cc0c5a",
        "type": "message",
        "text": "I suggest the syringe to be placed on top of the box !",
        "user": "U010U9EHR7T",
        "ts": "1587394704.094000",
        "team": "TUU48M0T1",
        "user_team": "TUU48M0T1",
        "source_team": "TUU48M0T1",
        "user_profile": {
            "avatar_hash": "g36ea42e25d9",
            "image_72": "https:\/\/secure.gravatar.com\/avatar\/ad392afd49098e1505b10c168f27050d.jpg?s=72&d=https%3A%2F%2Fa.slack-edge.com%2Fdf10d%2Fimg%2Favatars%2Fava_0004-72.png",
            "first_name": "Jean-Loup",
            "real_name": "Jean-Loup DUBREUCQ",
            "display_name": "jldubreucq",
            "team": "TUU48M0T1",
            "name": "jlmd.jogl",
            "is_restricted": false,
            "is_ultra_restricted": false
        },
        "blocks": [
            {
                "type": "rich_text",
                "block_id": "jKvTf",
                "elements": [
                    {
                        "type": "rich_text_section",
                        "elements": [
                            {
                                "type": "text",
                                "text": "I suggest the syringe to be placed on top of the box !"
                            }
                        ]
                    }
                ]
            }
        ],
        "thread_ts": "1587328251.084600",
        "parent_user_id": "U01081Y0TBP"
    },
    {
        "client_msg_id": "af3a958d-2fde-4a23-a9a4-6be0d2dabe63",
        "type": "message",
        "text": "Interesting. Could you motivate that? My consideration was that the stack of 5 pumps togethers requires less height, when the syringe is in front. And it is very accessible",
        "user": "U01081Y0TBP",
        "ts": "1587396144.094400",
        "team": "TUU48M0T1",
        "user_team": "TUU48M0T1",
        "source_team": "TUU48M0T1",
        "user_profile": {
            "avatar_hash": "60ec5b47107a",
            "image_72": "https:\/\/avatars.slack-edge.com\/2020-03-18\/995274181218_60ec5b47107a3bd2ca7d_72.jpg",
            "first_name": "Peter",
            "real_name": "Peter Kooren",
            "display_name": "Peter Kooren",
            "team": "TUU48M0T1",
            "name": "peterkooren",
            "is_restricted": false,
            "is_ultra_restricted": false
        },
        "edited": {
            "user": "U01081Y0TBP",
            "ts": "1587396159.000000"
        },
        "blocks": [
            {
                "type": "rich_text",
                "block_id": "wXCAc",
                "elements": [
                    {
                        "type": "rich_text_section",
                        "elements": [
                            {
                                "type": "text",
                                "text": "Interesting. Could you motivate that? My consideration was that the stack of 5 pumps togethers requires less height, when the syringe is in front. And it is very accessible"
                            }
                        ]
                    }
                ]
            }
        ],
        "thread_ts": "1587328251.084600",
        "parent_user_id": "U01081Y0TBP"
    },
    {
        "client_msg_id": "d4c87fa5-1712-47c4-9db9-04e0aaa915e9",
        "type": "message",
        "text": "The front panel being the command panel, good accessibility is a key point in my opinion !",
        "user": "U010U9EHR7T",
        "ts": "1587396323.094700",
        "team": "TUU48M0T1",
        "user_team": "TUU48M0T1",
        "source_team": "TUU48M0T1",
        "user_profile": {
            "avatar_hash": "g36ea42e25d9",
            "image_72": "https:\/\/secure.gravatar.com\/avatar\/ad392afd49098e1505b10c168f27050d.jpg?s=72&d=https%3A%2F%2Fa.slack-edge.com%2Fdf10d%2Fimg%2Favatars%2Fava_0004-72.png",
            "first_name": "Jean-Loup",
            "real_name": "Jean-Loup DUBREUCQ",
            "display_name": "jldubreucq",
            "team": "TUU48M0T1",
            "name": "jlmd.jogl",
            "is_restricted": false,
            "is_ultra_restricted": false
        },
        "blocks": [
            {
                "type": "rich_text",
                "block_id": "MBL5",
                "elements": [
                    {
                        "type": "rich_text_section",
                        "elements": [
                            {
                                "type": "text",
                                "text": "The front panel being the command panel, good accessibility is a key point in my opinion !"
                            }
                        ]
                    }
                ]
            }
        ],
        "thread_ts": "1587328251.084600",
        "parent_user_id": "U01081Y0TBP"
    },
    {
        "type": "message",
        "subtype": "channel_purpose",
        "ts": "1587396328.094900",
        "user": "U01081Y0TBP",
        "text": "<@U01081Y0TBP> set the channel purpose: Development and supply of low-flexibility high-reliability pumps for a specific fixed need (food intake)",
        "purpose": "Development and supply of low-flexibility high-reliability pumps for a specific fixed need (food intake)"
    },
    {
        "client_msg_id": "68e68f63-93fc-48b4-9611-3166f860c12f",
        "type": "message",
        "text": "I understood this front panel is not the command panel. There will be one central box with main controller and lcd, and than several pump units (as in the sketch)",
        "user": "U01081Y0TBP",
        "ts": "1587396397.095000",
        "team": "TUU48M0T1",
        "user_team": "TUU48M0T1",
        "source_team": "TUU48M0T1",
        "user_profile": {
            "avatar_hash": "60ec5b47107a",
            "image_72": "https:\/\/avatars.slack-edge.com\/2020-03-18\/995274181218_60ec5b47107a3bd2ca7d_72.jpg",
            "first_name": "Peter",
            "real_name": "Peter Kooren",
            "display_name": "Peter Kooren",
            "team": "TUU48M0T1",
            "name": "peterkooren",
            "is_restricted": false,
            "is_ultra_restricted": false
        },
        "edited": {
            "user": "U01081Y0TBP",
            "ts": "1587396419.000000"
        },
        "blocks": [
            {
                "type": "rich_text",
                "block_id": "AvQic",
                "elements": [
                    {
                        "type": "rich_text_section",
                        "elements": [
                            {
                                "type": "text",
                                "text": "I understood this front panel is not the command panel. There will be one central box with main controller and lcd, and than several pump units (as in the sketch)"
                            }
                        ]
                    }
                ]
            }
        ],
        "thread_ts": "1587328251.084600",
        "parent_user_id": "U01081Y0TBP"
    },
    {
        "client_msg_id": "bb01d9fd-660a-4af9-8449-9c6f02313385",
        "type": "message",
        "text": "According to the description of the channel and to a lot of contribution, I’m not sure that the final decision on this point is so clear !",
        "user": "U010U9EHR7T",
        "ts": "1587396555.095300",
        "team": "TUU48M0T1",
        "user_team": "TUU48M0T1",
        "source_team": "TUU48M0T1",
        "user_profile": {
            "avatar_hash": "g36ea42e25d9",
            "image_72": "https:\/\/secure.gravatar.com\/avatar\/ad392afd49098e1505b10c168f27050d.jpg?s=72&d=https%3A%2F%2Fa.slack-edge.com%2Fdf10d%2Fimg%2Favatars%2Fava_0004-72.png",
            "first_name": "Jean-Loup",
            "real_name": "Jean-Loup DUBREUCQ",
            "display_name": "jldubreucq",
            "team": "TUU48M0T1",
            "name": "jlmd.jogl",
            "is_restricted": false,
            "is_ultra_restricted": false
        },
        "blocks": [
            {
                "type": "rich_text",
                "block_id": "g91",
                "elements": [
                    {
                        "type": "rich_text_section",
                        "elements": [
                            {
                                "type": "text",
                                "text": "According to the description of the channel and to a lot of contribution, I’m not sure that the final decision on this point is so clear !"
                            }
                        ]
                    }
                ]
            }
        ],
        "thread_ts": "1587328251.084600",
        "parent_user_id": "U01081Y0TBP"
    },
    {
        "type": "message",
        "text": "Might be, yes. This is what I envisioned",
        "files": [
            {
                "id": "F01260MJ135",
                "created": 1587396788,
                "timestamp": 1587396788,
                "name": "image.png",
                "title": "image.png",
                "mimetype": "image\/png",
                "filetype": "png",
                "pretty_type": "PNG",
                "user": "U01081Y0TBP",
                "editable": false,
                "size": 35938,
                "mode": "hosted",
                "is_external": false,
                "external_type": "",
                "is_public": true,
                "public_url_shared": false,
                "display_as_bot": false,
                "username": "",
                "url_private": "https:\/\/files.slack.com\/files-pri\/TUU48M0T1-F01260MJ135\/image.png?t=xoxe-980144714919-1133254701825-1120841107731-daf595b5a7d6c9028b0b02a925032e36",
                "url_private_download": "https:\/\/files.slack.com\/files-pri\/TUU48M0T1-F01260MJ135\/download\/image.png?t=xoxe-980144714919-1133254701825-1120841107731-daf595b5a7d6c9028b0b02a925032e36",
                "thumb_64": "https:\/\/files.slack.com\/files-tmb\/TUU48M0T1-F01260MJ135-07634d1b3c\/image_64.png?t=xoxe-980144714919-1133254701825-1120841107731-daf595b5a7d6c9028b0b02a925032e36",
                "thumb_80": "https:\/\/files.slack.com\/files-tmb\/TUU48M0T1-F01260MJ135-07634d1b3c\/image_80.png?t=xoxe-980144714919-1133254701825-1120841107731-daf595b5a7d6c9028b0b02a925032e36",
                "thumb_360": "https:\/\/files.slack.com\/files-tmb\/TUU48M0T1-F01260MJ135-07634d1b3c\/image_360.png?t=xoxe-980144714919-1133254701825-1120841107731-daf595b5a7d6c9028b0b02a925032e36",
                "thumb_360_w": 157,
                "thumb_360_h": 360,
                "thumb_480": "https:\/\/files.slack.com\/files-tmb\/TUU48M0T1-F01260MJ135-07634d1b3c\/image_480.png?t=xoxe-980144714919-1133254701825-1120841107731-daf595b5a7d6c9028b0b02a925032e36",
                "thumb_480_w": 210,
                "thumb_480_h": 480,
                "thumb_160": "https:\/\/files.slack.com\/files-tmb\/TUU48M0T1-F01260MJ135-07634d1b3c\/image_160.png?t=xoxe-980144714919-1133254701825-1120841107731-daf595b5a7d6c9028b0b02a925032e36",
                "original_w": 287,
                "original_h": 657,
                "thumb_tiny": "AwAwABTSY4Un0FVorzzJQuwjd69qsucISPSq0UjFhk9T\/douBaooooAa\/wBxvpVWH7y\/X3q5SD7zUWAWiiigApB95qCSOgzSAnJ+U80AOooFFAH\/2Q==",
                "permalink": "https:\/\/open-covid19.slack.com\/files\/U01081Y0TBP\/F01260MJ135\/image.png",
                "permalink_public": "https:\/\/slack-files.com\/TUU48M0T1-F01260MJ135-2c6af51fbc",
                "is_starred": false,
                "has_rich_preview": false
            }
        ],
        "upload": true,
        "blocks": [
            {
                "type": "rich_text",
                "block_id": "\/JQXP",
                "elements": [
                    {
                        "type": "rich_text_section",
                        "elements": [
                            {
                                "type": "text",
                                "text": "Might be, yes. This is what I envisioned"
                            }
                        ]
                    }
                ]
            }
        ],
        "user": "U01081Y0TBP",
        "display_as_bot": false,
        "ts": "1587396790.095500",
        "client_msg_id": "7d33b7ba-f9cc-46b7-a3bb-9a219983b1b9",
        "thread_ts": "1587328251.084600",
        "parent_user_id": "U01081Y0TBP"
    },
    {
        "type": "message",
        "subtype": "channel_topic",
        "ts": "1587396945.095900",
        "user": "U01081Y0TBP",
        "text": "<@U01081Y0TBP> set the channel topic: Development and supply of low-flexibility high-reliability pumps for a specific fixed need (food intake).",
        "topic": "Development and supply of low-flexibility high-reliability pumps for a specific fixed need (food intake)."
    },
    {
        "type": "message",
        "subtype": "channel_purpose",
        "ts": "1587396951.096000",
        "user": "U01081Y0TBP",
        "text": "<@U01081Y0TBP> set the channel purpose: Syringe pusher group. Link to the machine spec: <https:\/\/cutt.ly\/PtK3yI7> , Bill Of Materials: <https:\/\/cutt.ly\/ktK3iQK>",
        "purpose": "Syringe pusher group. Link to the machine spec: <https:\/\/cutt.ly\/PtK3yI7> , Bill Of Materials: <https:\/\/cutt.ly\/ktK3iQK>"
    },
    {
        "type": "message",
        "subtype": "thread_broadcast",
        "text": "Yes, I know it was the original idea, but I don’t think it’s a good idea, and I think it’s based on a bad reason!\nWe should come back to the main channel to talk about it !",
        "user": "U010U9EHR7T",
        "ts": "1587397224.096100",
        "thread_ts": "1587328251.084600",
        "root": {
            "type": "message",
            "text": "<@U0119U5N3T3> this is what i meant yesterday with motor and drive shaft inversion. The stepper is inside an enclosure with the sensors, cabling and such. The syringe is in front and outside of the enclosure. Apologies for the very quick and dirty sketch",
            "files": [
                {
                    "id": "F0122QLJPHT",
                    "created": 1587328246,
                    "timestamp": 1587328246,
                    "name": "20200419_222819.jpg",
                    "title": "Image from Android",
                    "mimetype": "image\/jpeg",
                    "filetype": "jpg",
                    "pretty_type": "JPEG",
                    "user": "U01081Y0TBP",
                    "editable": false,
                    "size": 367926,
                    "mode": "hosted",
                    "is_external": false,
                    "external_type": "",
                    "is_public": true,
                    "public_url_shared": false,
                    "display_as_bot": false,
                    "username": "",
                    "url_private": "https:\/\/files.slack.com\/files-pri\/TUU48M0T1-F0122QLJPHT\/20200419_222819.jpg?t=xoxe-980144714919-1133254701825-1120841107731-daf595b5a7d6c9028b0b02a925032e36",
                    "url_private_download": "https:\/\/files.slack.com\/files-pri\/TUU48M0T1-F0122QLJPHT\/download\/20200419_222819.jpg?t=xoxe-980144714919-1133254701825-1120841107731-daf595b5a7d6c9028b0b02a925032e36",
                    "thumb_64": "https:\/\/files.slack.com\/files-tmb\/TUU48M0T1-F0122QLJPHT-8abf34af87\/20200419_222819_64.jpg?t=xoxe-980144714919-1133254701825-1120841107731-daf595b5a7d6c9028b0b02a925032e36",
                    "thumb_80": "https:\/\/files.slack.com\/files-tmb\/TUU48M0T1-F0122QLJPHT-8abf34af87\/20200419_222819_80.jpg?t=xoxe-980144714919-1133254701825-1120841107731-daf595b5a7d6c9028b0b02a925032e36",
                    "thumb_360": "https:\/\/files.slack.com\/files-tmb\/TUU48M0T1-F0122QLJPHT-8abf34af87\/20200419_222819_360.jpg?t=xoxe-980144714919-1133254701825-1120841107731-daf595b5a7d6c9028b0b02a925032e36",
                    "thumb_360_w": 360,
                    "thumb_360_h": 270,
                    "thumb_480": "https:\/\/files.slack.com\/files-tmb\/TUU48M0T1-F0122QLJPHT-8abf34af87\/20200419_222819_480.jpg?t=xoxe-980144714919-1133254701825-1120841107731-daf595b5a7d6c9028b0b02a925032e36",
                    "thumb_480_w": 480,
                    "thumb_480_h": 360,
                    "thumb_160": "https:\/\/files.slack.com\/files-tmb\/TUU48M0T1-F0122QLJPHT-8abf34af87\/20200419_222819_160.jpg?t=xoxe-980144714919-1133254701825-1120841107731-daf595b5a7d6c9028b0b02a925032e36",
                    "thumb_720": "https:\/\/files.slack.com\/files-tmb\/TUU48M0T1-F0122QLJPHT-8abf34af87\/20200419_222819_720.jpg?t=xoxe-980144714919-1133254701825-1120841107731-daf595b5a7d6c9028b0b02a925032e36",
                    "thumb_720_w": 720,
                    "thumb_720_h": 540,
                    "thumb_800": "https:\/\/files.slack.com\/files-tmb\/TUU48M0T1-F0122QLJPHT-8abf34af87\/20200419_222819_800.jpg?t=xoxe-980144714919-1133254701825-1120841107731-daf595b5a7d6c9028b0b02a925032e36",
                    "thumb_800_w": 800,
                    "thumb_800_h": 600,
                    "thumb_960": "https:\/\/files.slack.com\/files-tmb\/TUU48M0T1-F0122QLJPHT-8abf34af87\/20200419_222819_960.jpg?t=xoxe-980144714919-1133254701825-1120841107731-daf595b5a7d6c9028b0b02a925032e36",
                    "thumb_960_w": 960,
                    "thumb_960_h": 720,
                    "thumb_1024": "https:\/\/files.slack.com\/files-tmb\/TUU48M0T1-F0122QLJPHT-8abf34af87\/20200419_222819_1024.jpg?t=xoxe-980144714919-1133254701825-1120841107731-daf595b5a7d6c9028b0b02a925032e36",
                    "thumb_1024_w": 1024,
                    "thumb_1024_h": 768,
                    "original_w": 4032,
                    "original_h": 3024,
                    "thumb_tiny": "AwAkADC5S02ikMdRSE4FGaAFopM0ZoAbmlpmaXNAD6TvSZozQAhPzcUtGaSgBtLSUUALRRRQAUUUlAH\/2Q==",
                    "permalink": "https:\/\/open-covid19.slack.com\/files\/U01081Y0TBP\/F0122QLJPHT\/20200419_222819.jpg",
                    "permalink_public": "https:\/\/slack-files.com\/TUU48M0T1-F0122QLJPHT-28c295c1f3",
                    "is_starred": false,
                    "has_rich_preview": false
                }
            ],
            "upload": true,
            "blocks": [
                {
                    "type": "rich_text",
                    "block_id": "z0MpZ",
                    "elements": [
                        {
                            "type": "rich_text_section",
                            "elements": [
                                {
                                    "type": "user",
                                    "user_id": "U0119U5N3T3"
                                },
                                {
                                    "type": "text",
                                    "text": " this is what i meant yesterday with motor and drive shaft inversion. The stepper is inside an enclosure with the sensors, cabling and such. The syringe is in front and outside of the enclosure. Apologies for the very quick and dirty sketch"
                                }
                            ]
                        }
                    ]
                }
            ],
            "user": "U01081Y0TBP",
            "display_as_bot": false,
            "ts": "1587328251.084600",
            "edited": {
                "user": "U01081Y0TBP",
                "ts": "1587371874.000000"
            },
            "client_msg_id": "0b49cb22-6344-4f63-b88c-641d72d95efb",
            "thread_ts": "1587328251.084600",
            "reply_count": 33,
            "reply_users_count": 6,
            "latest_reply": "1587591340.193000",
            "reply_users": [
                "U0119U5N3T3",
                "U01081Y0TBP",
                "U010B4EJG2C",
                "U01188XCK19",
                "U010U9EHR7T",
                "U0117TTQP18"
            ],
            "subscribed": false
        },
        "blocks": [
            {
                "type": "rich_text",
                "block_id": "gXq",
                "elements": [
                    {
                        "type": "rich_text_section",
                        "elements": [
                            {
                                "type": "text",
                                "text": "Yes, I know it was the original idea, but I don’t think it’s a good idea, and I think it’s based on a bad reason!\nWe should come back to the main channel to talk about it !"
                            }
                        ]
                    }
                ]
            }
        ],
        "client_msg_id": "b78fb266-ce58-4b9d-95e5-eba97370dabc"
    },
    {
        "client_msg_id": "1C3F4AD1-018C-4D6D-BD12-F610BF5ED506",
        "type": "message",
        "text": "Spindle nut is steel +brass",
        "user": "U0119U5N3T3",
        "ts": "1587399842.096700",
        "team": "TUU48M0T1",
        "user_team": "TUU48M0T1",
        "source_team": "TUU48M0T1",
        "user_profile": {
            "avatar_hash": "b3b38b63650e",
            "image_72": "https:\/\/avatars.slack-edge.com\/2020-04-04\/1047354985190_b3b38b63650e809885b3_72.jpg",
            "first_name": "",
            "real_name": "Sina Booeshaghi",
            "display_name": "Sina Booeshaghi",
            "team": "TUU48M0T1",
            "name": "abooesha",
            "is_restricted": false,
            "is_ultra_restricted": false
        },
        "thread_ts": "1587328251.084600",
        "parent_user_id": "U01081Y0TBP"
    },
    {
        "client_msg_id": "2D6C0870-51B1-4816-A8B2-E50D5BAC3C61",
        "type": "message",
        "text": "I’ll put out v1 very shortly ",
        "user": "U0119U5N3T3",
        "ts": "1587399853.097100",
        "team": "TUU48M0T1",
        "user_team": "TUU48M0T1",
        "source_team": "TUU48M0T1",
        "user_profile": {
            "avatar_hash": "b3b38b63650e",
            "image_72": "https:\/\/avatars.slack-edge.com\/2020-04-04\/1047354985190_b3b38b63650e809885b3_72.jpg",
            "first_name": "",
            "real_name": "Sina Booeshaghi",
            "display_name": "Sina Booeshaghi",
            "team": "TUU48M0T1",
            "name": "abooesha",
            "is_restricted": false,
            "is_ultra_restricted": false
        }
    },
    {
        "client_msg_id": "0fb0cfbe-efd9-4642-913d-f6688b603744",
        "type": "message",
        "text": "OK !",
        "user": "U010U9EHR7T",
        "ts": "1587399978.097300",
        "team": "TUU48M0T1",
        "user_team": "TUU48M0T1",
        "source_team": "TUU48M0T1",
        "user_profile": {
            "avatar_hash": "g36ea42e25d9",
            "image_72": "https:\/\/secure.gravatar.com\/avatar\/ad392afd49098e1505b10c168f27050d.jpg?s=72&d=https%3A%2F%2Fa.slack-edge.com%2Fdf10d%2Fimg%2Favatars%2Fava_0004-72.png",
            "first_name": "Jean-Loup",
            "real_name": "Jean-Loup DUBREUCQ",
            "display_name": "jldubreucq",
            "team": "TUU48M0T1",
            "name": "jlmd.jogl",
            "is_restricted": false,
            "is_ultra_restricted": false
        },
        "blocks": [
            {
                "type": "rich_text",
                "block_id": "4Dy",
                "elements": [
                    {
                        "type": "rich_text_section",
                        "elements": [
                            {
                                "type": "text",
                                "text": "OK !"
                            }
                        ]
                    }
                ]
            }
        ]
    },
    {
        "client_msg_id": "1ad180d0-7a5b-4b74-b551-0dc7b381ace3",
        "type": "message",
        "text": "hi <!channel> if you are contributing to this project, please join the project on JOGL here: <https:\/\/app.jogl.io\/project\/185>\nThanks!",
        "user": "UV02WET96",
        "ts": "1587400084.098100",
        "team": "TUU48M0T1",
        "user_team": "TUU48M0T1",
        "source_team": "TUU48M0T1",
        "user_profile": {
            "avatar_hash": "a99c74a194f8",
            "image_72": "https:\/\/avatars.slack-edge.com\/2020-03-07\/975708504851_a99c74a194f86715ca7d_72.png",
            "first_name": "Thomas",
            "real_name": "Thomas Landrain",
            "display_name": "Thomas Landrain - JOGL CoFounder \/ CEO",
            "team": "TUU48M0T1",
            "name": "thomas",
            "is_restricted": false,
            "is_ultra_restricted": false
        },
        "attachments": [
            {
                "title": "JOGL - Just One Giant Lab",
                "title_link": "https:\/\/app.jogl.io\/project\/185",
                "text": "JOGL helps sync humanity onto solving our most important social &amp; environmental problems using open science, responsible innovation &amp; continuous learning.",
                "fallback": "JOGL - Just One Giant Lab",
                "thumb_url": "https:\/\/app.jogl.io\/planet.jpg",
                "from_url": "https:\/\/app.jogl.io\/project\/185",
                "thumb_width": 2049,
                "thumb_height": 1011,
                "service_icon": "https:\/\/app.jogl.io\/favicon.ico",
                "service_name": "app.jogl.io",
                "id": 1,
                "original_url": "https:\/\/app.jogl.io\/project\/185"
            }
        ],
        "blocks": [
            {
                "type": "rich_text",
                "block_id": "5uS",
                "elements": [
                    {
                        "type": "rich_text_section",
                        "elements": [
                            {
                                "type": "text",
                                "text": "hi "
                            },
                            {
                                "type": "broadcast",
                                "range": "channel"
                            },
                            {
                                "type": "text",
                                "text": " if you are contributing to this project, please join the project on JOGL here: "
                            },
                            {
                                "type": "link",
                                "url": "https:\/\/app.jogl.io\/project\/185"
                            },
                            {
                                "type": "text",
                                "text": "\nThanks!"
                            }
                        ]
                    }
                ]
            }
        ],
        "thread_ts": "1587400084.098100",
        "reply_count": 1,
        "reply_users_count": 1,
        "latest_reply": "1587401303.099100",
        "reply_users": [
            "U01188XCK19"
        ],
        "replies": [
            {
                "user": "U01188XCK19",
                "ts": "1587401303.099100"
            }
        ],
        "subscribed": false
    },
    {
        "client_msg_id": "7fd60643-1cc4-44ff-80b9-72d8695a1889",
        "type": "message",
        "text": "<@UV02WET96> Already done !",
        "user": "U010U9EHR7T",
        "ts": "1587400190.098500",
        "team": "TUU48M0T1",
        "user_team": "TUU48M0T1",
        "source_team": "TUU48M0T1",
        "user_profile": {
            "avatar_hash": "g36ea42e25d9",
            "image_72": "https:\/\/secure.gravatar.com\/avatar\/ad392afd49098e1505b10c168f27050d.jpg?s=72&d=https%3A%2F%2Fa.slack-edge.com%2Fdf10d%2Fimg%2Favatars%2Fava_0004-72.png",
            "first_name": "Jean-Loup",
            "real_name": "Jean-Loup DUBREUCQ",
            "display_name": "jldubreucq",
            "team": "TUU48M0T1",
            "name": "jlmd.jogl",
            "is_restricted": false,
            "is_ultra_restricted": false
        },
        "blocks": [
            {
                "type": "rich_text",
                "block_id": "Nq23",
                "elements": [
                    {
                        "type": "rich_text_section",
                        "elements": [
                            {
                                "type": "user",
                                "user_id": "UV02WET96"
                            },
                            {
                                "type": "text",
                                "text": " Already done !"
                            }
                        ]
                    }
                ]
            }
        ],
        "reactions": [
            {
                "name": "raised_hands",
                "users": [
                    "UV02WET96"
                ],
                "count": 1
            }
        ]
    },
    {
        "client_msg_id": "77fa6e0f-c073-4c38-a0bb-47f4c085e42c",
        "type": "message",
        "text": "Stainless steel?",
        "user": "U01081Y0TBP",
        "ts": "1587400766.098700",
        "team": "TUU48M0T1",
        "user_team": "TUU48M0T1",
        "source_team": "TUU48M0T1",
        "user_profile": {
            "avatar_hash": "60ec5b47107a",
            "image_72": "https:\/\/avatars.slack-edge.com\/2020-03-18\/995274181218_60ec5b47107a3bd2ca7d_72.jpg",
            "first_name": "Peter",
            "real_name": "Peter Kooren",
            "display_name": "Peter Kooren",
            "team": "TUU48M0T1",
            "name": "peterkooren",
            "is_restricted": false,
            "is_ultra_restricted": false
        },
        "blocks": [
            {
                "type": "rich_text",
                "block_id": "dPS",
                "elements": [
                    {
                        "type": "rich_text_section",
                        "elements": [
                            {
                                "type": "text",
                                "text": "Stainless steel?"
                            }
                        ]
                    }
                ]
            }
        ],
        "thread_ts": "1587328251.084600",
        "parent_user_id": "U01081Y0TBP"
    },
    {
        "client_msg_id": "5fc999b7-4ac7-4ff3-ac6a-c287f3a309d7",
        "type": "message",
        "text": "Brass needs lubrication, right?",
        "user": "U01081Y0TBP",
        "ts": "1587400928.098900",
        "team": "TUU48M0T1",
        "user_team": "TUU48M0T1",
        "source_team": "TUU48M0T1",
        "user_profile": {
            "avatar_hash": "60ec5b47107a",
            "image_72": "https:\/\/avatars.slack-edge.com\/2020-03-18\/995274181218_60ec5b47107a3bd2ca7d_72.jpg",
            "first_name": "Peter",
            "real_name": "Peter Kooren",
            "display_name": "Peter Kooren",
            "team": "TUU48M0T1",
            "name": "peterkooren",
            "is_restricted": false,
            "is_ultra_restricted": false
        },
        "blocks": [
            {
                "type": "rich_text",
                "block_id": "DXS",
                "elements": [
                    {
                        "type": "rich_text_section",
                        "elements": [
                            {
                                "type": "text",
                                "text": "Brass needs lubrication, right?"
                            }
                        ]
                    }
                ]
            }
        ],
        "thread_ts": "1587328251.084600",
        "parent_user_id": "U01081Y0TBP"
    },
    {
        "client_msg_id": "4b4292c7-7626-4eda-8d1b-9392ca715eb8",
        "type": "message",
        "text": "just did it",
        "user": "U01188XCK19",
        "ts": "1587401303.099100",
        "team": "TUU48M0T1",
        "user_team": "TUU48M0T1",
        "source_team": "TUU48M0T1",
        "user_profile": {
            "avatar_hash": "gd85edfb45fa",
            "image_72": "https:\/\/secure.gravatar.com\/avatar\/d85edfb45fa87b47ea33da26228d07dd.jpg?s=72&d=https%3A%2F%2Fa.slack-edge.com%2Fdf10d%2Fimg%2Favatars%2Fava_0011-72.png",
            "first_name": "",
            "real_name": "wolf arthur",
            "display_name": "wolf arthur",
            "team": "TUU48M0T1",
            "name": "wolf.arthur",
            "is_restricted": false,
            "is_ultra_restricted": false
        },
        "blocks": [
            {
                "type": "rich_text",
                "block_id": "C6T5K",
                "elements": [
                    {
                        "type": "rich_text_section",
                        "elements": [
                            {
                                "type": "text",
                                "text": "just did it"
                            }
                        ]
                    }
                ]
            }
        ],
        "thread_ts": "1587400084.098100",
        "parent_user_id": "UV02WET96",
        "reactions": [
            {
                "name": "raised_hands",
                "users": [
                    "UV02WET96"
                ],
                "count": 1
            }
        ]
    },
    {
        "client_msg_id": "bc654825-0407-4672-9c30-115c5f8cbb44",
        "type": "message",
        "text": "<@U011KG47FMW> I agree. It is a funny period where some projects will provide stop gap measures. They might become irrelevant post covid but that should be understood and accepted.",
        "user": "U0103SR759U",
        "ts": "1587401963.099300",
        "team": "TUU48M0T1",
        "user_team": "TUU48M0T1",
        "source_team": "TUU48M0T1",
        "user_profile": {
            "avatar_hash": "g2694d379600",
            "image_72": "https:\/\/secure.gravatar.com\/avatar\/2694d3796008843d36d4b6ceff7f8660.jpg?s=72&d=https%3A%2F%2Fa.slack-edge.com%2Fdf10d%2Fimg%2Favatars%2Fava_0010-72.png",
            "first_name": "Adrian",
            "real_name": "Adrian Molecule",
            "display_name": "Adrian Molecule",
            "team": "TUU48M0T1",
            "name": "tada",
            "is_restricted": false,
            "is_ultra_restricted": false
        },
        "blocks": [
            {
                "type": "rich_text",
                "block_id": "o+M",
                "elements": [
                    {
                        "type": "rich_text_section",
                        "elements": [
                            {
                                "type": "user",
                                "user_id": "U011KG47FMW"
                            },
                            {
                                "type": "text",
                                "text": " I agree. It is a funny period where some projects will provide stop gap measures. They might become irrelevant post covid but that should be understood and accepted."
                            }
                        ]
                    }
                ]
            }
        ],
        "thread_ts": "1587295284.017900",
        "parent_user_id": "U011W4N3XU4"
    },
    {
        "client_msg_id": "EEFB868D-55A9-479A-BD15-4C26B3067DCD",
        "type": "message",
        "text": "Stainless Steel yes",
        "user": "U0119U5N3T3",
        "ts": "1587402723.100000",
        "team": "TUU48M0T1",
        "user_team": "TUU48M0T1",
        "source_team": "TUU48M0T1",
        "user_profile": {
            "avatar_hash": "b3b38b63650e",
            "image_72": "https:\/\/avatars.slack-edge.com\/2020-04-04\/1047354985190_b3b38b63650e809885b3_72.jpg",
            "first_name": "",
            "real_name": "Sina Booeshaghi",
            "display_name": "Sina Booeshaghi",
            "team": "TUU48M0T1",
            "name": "abooesha",
            "is_restricted": false,
            "is_ultra_restricted": false
        },
        "thread_ts": "1587328251.084600",
        "parent_user_id": "U01081Y0TBP"
    },
    {
        "client_msg_id": "E0ED3739-FECF-4532-BB93-F027DD7F8019",
        "type": "message",
        "text": "I don’t think brass does",
        "user": "U0119U5N3T3",
        "ts": "1587402727.100400",
        "team": "TUU48M0T1",
        "user_team": "TUU48M0T1",
        "source_team": "TUU48M0T1",
        "user_profile": {
            "avatar_hash": "b3b38b63650e",
            "image_72": "https:\/\/avatars.slack-edge.com\/2020-04-04\/1047354985190_b3b38b63650e809885b3_72.jpg",
            "first_name": "",
            "real_name": "Sina Booeshaghi",
            "display_name": "Sina Booeshaghi",
            "team": "TUU48M0T1",
            "name": "abooesha",
            "is_restricted": false,
            "is_ultra_restricted": false
        },
        "thread_ts": "1587328251.084600",
        "parent_user_id": "U01081Y0TBP"
    },
    {
        "client_msg_id": "70835B37-31F0-49B8-A203-6214A1674985",
        "type": "message",
        "text": "It’s quite a soft metal",
        "user": "U0119U5N3T3",
        "ts": "1587402731.100700",
        "team": "TUU48M0T1",
        "user_team": "TUU48M0T1",
        "source_team": "TUU48M0T1",
        "user_profile": {
            "avatar_hash": "b3b38b63650e",
            "image_72": "https:\/\/avatars.slack-edge.com\/2020-04-04\/1047354985190_b3b38b63650e809885b3_72.jpg",
            "first_name": "",
            "real_name": "Sina Booeshaghi",
            "display_name": "Sina Booeshaghi",
            "team": "TUU48M0T1",
            "name": "abooesha",
            "is_restricted": false,
            "is_ultra_restricted": false
        },
        "thread_ts": "1587328251.084600",
        "parent_user_id": "U01081Y0TBP"
    },
    {
        "client_msg_id": "A6A7FEA1-A7F0-440F-85CA-8434284AEBB8",
        "type": "message",
        "text": "And has a “self lubricating “ property",
        "user": "U0119U5N3T3",
        "ts": "1587402744.101200",
        "team": "TUU48M0T1",
        "user_team": "TUU48M0T1",
        "source_team": "TUU48M0T1",
        "user_profile": {
            "avatar_hash": "b3b38b63650e",
            "image_72": "https:\/\/avatars.slack-edge.com\/2020-04-04\/1047354985190_b3b38b63650e809885b3_72.jpg",
            "first_name": "",
            "real_name": "Sina Booeshaghi",
            "display_name": "Sina Booeshaghi",
            "team": "TUU48M0T1",
            "name": "abooesha",
            "is_restricted": false,
            "is_ultra_restricted": false
        },
        "thread_ts": "1587328251.084600",
        "parent_user_id": "U01081Y0TBP"
    },
    {
        "client_msg_id": "600f30af-c73d-46f5-b30b-7a21600cf460",
        "type": "message",
        "text": "This is an essential point !\nWe at JOGL are here to support anyone (who follows the community guidelines and Open source principles)\n\nIf there were 3 syringe projects on JOGL we would\n1. Try to put them in touch, \n2. Try to coordinate collaborations\n3. If they still want independences, support both equally",
        "user": "UVC9WMA7N",
        "ts": "1587402867.101500",
        "team": "TUU48M0T1",
        "user_team": "TUU48M0T1",
        "source_team": "TUU48M0T1",
        "user_profile": {
            "avatar_hash": "56d14d58ed53",
            "image_72": "https:\/\/avatars.slack-edge.com\/2020-03-13\/998337892660_56d14d58ed537e6e4654_72.png",
            "first_name": "Leo",
            "real_name": "Leo Blondel",
            "display_name": "Leo Blondel - JOGL CoFounder \/ CTO",
            "team": "TUU48M0T1",
            "name": "leo",
            "is_restricted": false,
            "is_ultra_restricted": false
        },
        "blocks": [
            {
                "type": "rich_text",
                "block_id": "Ap1",
                "elements": [
                    {
                        "type": "rich_text_section",
                        "elements": [
                            {
                                "type": "text",
                                "text": "This is an essential point !\nWe at JOGL are here to support anyone (who follows the community guidelines and Open source principles)\n\nIf there were 3 syringe projects on JOGL we would\n"
                            }
                        ]
                    },
                    {
                        "type": "rich_text_list",
                        "elements": [
                            {
                                "type": "rich_text_section",
                                "elements": [
                                    {
                                        "type": "text",
                                        "text": "Try to put them in touch, "
                                    }
                                ]
                            },
                            {
                                "type": "rich_text_section",
                                "elements": [
                                    {
                                        "type": "text",
                                        "text": "Try to coordinate collaborations"
                                    }
                                ]
                            },
                            {
                                "type": "rich_text_section",
                                "elements": [
                                    {
                                        "type": "text",
                                        "text": "If they still want independences, support both equally"
                                    }
                                ]
                            }
                        ],
                        "style": "ordered",
                        "indent": 0
                    }
                ]
            }
        ],
        "thread_ts": "1587296638.041100",
        "parent_user_id": "UV02WET96",
        "reactions": [
            {
                "name": "+1",
                "users": [
                    "UV02WET96"
                ],
                "count": 1
            }
        ]
    },
    {
        "client_msg_id": "0d02e19b-ec62-4ac5-8a2e-5581b5a2f3b6",
        "type": "message",
        "text": "Then it would be great",
        "user": "U01081Y0TBP",
        "ts": "1587405097.101800",
        "team": "TUU48M0T1",
        "user_team": "TUU48M0T1",
        "source_team": "TUU48M0T1",
        "user_profile": {
            "avatar_hash": "60ec5b47107a",
            "image_72": "https:\/\/avatars.slack-edge.com\/2020-03-18\/995274181218_60ec5b47107a3bd2ca7d_72.jpg",
            "first_name": "Peter",
            "real_name": "Peter Kooren",
            "display_name": "Peter Kooren",
            "team": "TUU48M0T1",
            "name": "peterkooren",
            "is_restricted": false,
            "is_ultra_restricted": false
        },
        "blocks": [
            {
                "type": "rich_text",
                "block_id": "TgOV",
                "elements": [
                    {
                        "type": "rich_text_section",
                        "elements": [
                            {
                                "type": "text",
                                "text": "Then it would be great"
                            }
                        ]
                    }
                ]
            }
        ],
        "thread_ts": "1587328251.084600",
        "parent_user_id": "U01081Y0TBP"
    },
    {
        "client_msg_id": "C70B360E-BC4C-4F00-8462-F28401D17255",
        "type": "message",
        "text": "I’m 30 min late to meeting today",
        "user": "U0119U5N3T3",
        "ts": "1587408132.102300",
        "team": "TUU48M0T1",
        "user_team": "TUU48M0T1",
        "source_team": "TUU48M0T1",
        "user_profile": {
            "avatar_hash": "b3b38b63650e",
            "image_72": "https:\/\/avatars.slack-edge.com\/2020-04-04\/1047354985190_b3b38b63650e809885b3_72.jpg",
            "first_name": "",
            "real_name": "Sina Booeshaghi",
            "display_name": "Sina Booeshaghi",
            "team": "TUU48M0T1",
            "name": "abooesha",
            "is_restricted": false,
            "is_ultra_restricted": false
        }
    },
    {
        "type": "message",
        "text": "I'm reading the article posted by <@U01081Y0TBP> a few days ago on SPS safety features. Do we already have the clamps and grippers shown here to prevent siphoning?",
        "files": [
            {
                "id": "F0124U4D2NR",
                "created": 1587408834,
                "timestamp": 1587408834,
                "name": "Sagentia.png",
                "title": "Sagentia.png",
                "mimetype": "image\/png",
                "filetype": "png",
                "pretty_type": "PNG",
                "user": "U010UF6AXMF",
                "editable": false,
                "size": 232319,
                "mode": "hosted",
                "is_external": false,
                "external_type": "",
                "is_public": true,
                "public_url_shared": false,
                "display_as_bot": false,
                "username": "",
                "url_private": "https:\/\/files.slack.com\/files-pri\/TUU48M0T1-F0124U4D2NR\/sagentia.png?t=xoxe-980144714919-1133254701825-1120841107731-daf595b5a7d6c9028b0b02a925032e36",
                "url_private_download": "https:\/\/files.slack.com\/files-pri\/TUU48M0T1-F0124U4D2NR\/download\/sagentia.png?t=xoxe-980144714919-1133254701825-1120841107731-daf595b5a7d6c9028b0b02a925032e36",
                "thumb_64": "https:\/\/files.slack.com\/files-tmb\/TUU48M0T1-F0124U4D2NR-8522243a7a\/sagentia_64.png?t=xoxe-980144714919-1133254701825-1120841107731-daf595b5a7d6c9028b0b02a925032e36",
                "thumb_80": "https:\/\/files.slack.com\/files-tmb\/TUU48M0T1-F0124U4D2NR-8522243a7a\/sagentia_80.png?t=xoxe-980144714919-1133254701825-1120841107731-daf595b5a7d6c9028b0b02a925032e36",
                "thumb_360": "https:\/\/files.slack.com\/files-tmb\/TUU48M0T1-F0124U4D2NR-8522243a7a\/sagentia_360.png?t=xoxe-980144714919-1133254701825-1120841107731-daf595b5a7d6c9028b0b02a925032e36",
                "thumb_360_w": 360,
                "thumb_360_h": 190,
                "thumb_480": "https:\/\/files.slack.com\/files-tmb\/TUU48M0T1-F0124U4D2NR-8522243a7a\/sagentia_480.png?t=xoxe-980144714919-1133254701825-1120841107731-daf595b5a7d6c9028b0b02a925032e36",
                "thumb_480_w": 480,
                "thumb_480_h": 254,
                "thumb_160": "https:\/\/files.slack.com\/files-tmb\/TUU48M0T1-F0124U4D2NR-8522243a7a\/sagentia_160.png?t=xoxe-980144714919-1133254701825-1120841107731-daf595b5a7d6c9028b0b02a925032e36",
                "thumb_720": "https:\/\/files.slack.com\/files-tmb\/TUU48M0T1-F0124U4D2NR-8522243a7a\/sagentia_720.png?t=xoxe-980144714919-1133254701825-1120841107731-daf595b5a7d6c9028b0b02a925032e36",
                "thumb_720_w": 720,
                "thumb_720_h": 381,
                "thumb_800": "https:\/\/files.slack.com\/files-tmb\/TUU48M0T1-F0124U4D2NR-8522243a7a\/sagentia_800.png?t=xoxe-980144714919-1133254701825-1120841107731-daf595b5a7d6c9028b0b02a925032e36",
                "thumb_800_w": 800,
                "thumb_800_h": 423,
                "thumb_960": "https:\/\/files.slack.com\/files-tmb\/TUU48M0T1-F0124U4D2NR-8522243a7a\/sagentia_960.png?t=xoxe-980144714919-1133254701825-1120841107731-daf595b5a7d6c9028b0b02a925032e36",
                "thumb_960_w": 960,
                "thumb_960_h": 507,
                "image_exif_rotation": 1,
                "original_w": 965,
                "original_h": 510,
                "thumb_tiny": "AwAZADDS5pT70U1s44oAXI9aXI9ajLY9KXdnigB9Jmhegpe9ABR+NRH+tLH1NADyBnOKMD0paD0oAOKKaOop1AH\/2Q==",
                "permalink": "https:\/\/open-covid19.slack.com\/files\/U010UF6AXMF\/F0124U4D2NR\/sagentia.png",
                "permalink_public": "https:\/\/slack-files.com\/TUU48M0T1-F0124U4D2NR-9f6089d873",
                "is_starred": false,
                "has_rich_preview": false
            }
        ],
        "upload": true,
        "blocks": [
            {
                "type": "rich_text",
                "block_id": "Bi9RI",
                "elements": [
                    {
                        "type": "rich_text_section",
                        "elements": [
                            {
                                "type": "text",
                                "text": "I'm reading the article posted by "
                            },
                            {
                                "type": "user",
                                "user_id": "U01081Y0TBP"
                            },
                            {
                                "type": "text",
                                "text": " a few days ago on SPS safety features. Do we already have the clamps and grippers shown here to prevent siphoning?"
                            }
                        ]
                    }
                ]
            }
        ],
        "user": "U010UF6AXMF",
        "display_as_bot": false,
        "ts": "1587408837.103100",
        "client_msg_id": "edbd0af5-97fc-4fb3-959d-d931a8060101",
        "thread_ts": "1587408837.103100",
        "reply_count": 1,
        "reply_users_count": 1,
        "latest_reply": "1587409183.105700",
        "reply_users": [
            "U0119U5N3T3"
        ],
        "replies": [
            {
                "user": "U0119U5N3T3",
                "ts": "1587409183.105700"
            }
        ],
        "subscribed": false
    },
    {
        "client_msg_id": "A31E2480-60B1-4C4A-ADEE-206B3B7FE603",
        "type": "message",
        "text": "A very old request I wrote about ... ;-)",
        "user": "U010U9EHR7T",
        "ts": "1587409056.104300",
        "team": "TUU48M0T1",
        "user_team": "TUU48M0T1",
        "source_team": "TUU48M0T1",
        "user_profile": {
            "avatar_hash": "g36ea42e25d9",
            "image_72": "https:\/\/secure.gravatar.com\/avatar\/ad392afd49098e1505b10c168f27050d.jpg?s=72&d=https%3A%2F%2Fa.slack-edge.com%2Fdf10d%2Fimg%2Favatars%2Fava_0004-72.png",
            "first_name": "Jean-Loup",
            "real_name": "Jean-Loup DUBREUCQ",
            "display_name": "jldubreucq",
            "team": "TUU48M0T1",
            "name": "jlmd.jogl",
            "is_restricted": false,
            "is_ultra_restricted": false
        },
        "edited": {
            "user": "U010U9EHR7T",
            "ts": "1587409098.000000"
        },
        "blocks": [
            {
                "type": "rich_text",
                "block_id": "CMl1",
                "elements": [
                    {
                        "type": "rich_text_section",
                        "elements": [
                            {
                                "type": "text",
                                "text": "A very old request I wrote about ... ;-)"
                            }
                        ]
                    }
                ]
            }
        ],
        "reactions": [
            {
                "name": "+1",
                "users": [
                    "U010UF6AXMF"
                ],
                "count": 1
            }
        ]
    },
    {
        "client_msg_id": "826a2a41-30a1-421d-884c-4221d44e8d3b",
        "type": "message",
        "text": "Cool. I wrote it as a req in our spec. I'm going through the rest of the article to capture other recommandations.",
        "user": "U010UF6AXMF",
        "ts": "1587409147.105600",
        "team": "TUU48M0T1",
        "user_team": "TUU48M0T1",
        "source_team": "TUU48M0T1",
        "user_profile": {
            "avatar_hash": "g5248b59fec0",
            "image_72": "https:\/\/secure.gravatar.com\/avatar\/5248b59fec06db7591dc8d9d10879432.jpg?s=72&d=https%3A%2F%2Fa.slack-edge.com%2Fdf10d%2Fimg%2Favatars%2Fava_0020-72.png",
            "first_name": "",
            "real_name": "Charley",
            "display_name": "Charley",
            "team": "TUU48M0T1",
            "name": "charleypaulus",
            "is_restricted": false,
            "is_ultra_restricted": false
        },
        "blocks": [
            {
                "type": "rich_text",
                "block_id": "47fQ",
                "elements": [
                    {
                        "type": "rich_text_section",
                        "elements": [
                            {
                                "type": "text",
                                "text": "Cool. I wrote it as a req in our spec. I'm going through the rest of the article to capture other recommandations."
                            }
                        ]
                    }
                ]
            }
        ]
    },
    {
        "client_msg_id": "f6d13c81-a003-4dbd-960e-c56229aaa0f1",
        "type": "message",
        "text": "yes",
        "user": "U0119U5N3T3",
        "ts": "1587409183.105700",
        "team": "TUU48M0T1",
        "user_team": "TUU48M0T1",
        "source_team": "TUU48M0T1",
        "user_profile": {
            "avatar_hash": "b3b38b63650e",
            "image_72": "https:\/\/avatars.slack-edge.com\/2020-04-04\/1047354985190_b3b38b63650e809885b3_72.jpg",
            "first_name": "",
            "real_name": "Sina Booeshaghi",
            "display_name": "Sina Booeshaghi",
            "team": "TUU48M0T1",
            "name": "abooesha",
            "is_restricted": false,
            "is_ultra_restricted": false
        },
        "blocks": [
            {
                "type": "rich_text",
                "block_id": "Adqu",
                "elements": [
                    {
                        "type": "rich_text_section",
                        "elements": [
                            {
                                "type": "text",
                                "text": "yes"
                            }
                        ]
                    }
                ]
            }
        ],
        "thread_ts": "1587408837.103100",
        "parent_user_id": "U010UF6AXMF"
    },
    {
        "client_msg_id": "C7203AE0-16A6-4B69-AC0E-84DB3A9BF8B7",
        "type": "message",
        "text": "Meeting today ?",
        "user": "U010U9EHR7T",
        "ts": "1587409536.106400",
        "team": "TUU48M0T1",
        "user_team": "TUU48M0T1",
        "source_team": "TUU48M0T1",
        "user_profile": {
            "avatar_hash": "g36ea42e25d9",
            "image_72": "https:\/\/secure.gravatar.com\/avatar\/ad392afd49098e1505b10c168f27050d.jpg?s=72&d=https%3A%2F%2Fa.slack-edge.com%2Fdf10d%2Fimg%2Favatars%2Fava_0004-72.png",
            "first_name": "Jean-Loup",
            "real_name": "Jean-Loup DUBREUCQ",
            "display_name": "jldubreucq",
            "team": "TUU48M0T1",
            "name": "jlmd.jogl",
            "is_restricted": false,
            "is_ultra_restricted": false
        },
        "blocks": [
            {
                "type": "rich_text",
                "block_id": "2gz",
                "elements": [
                    {
                        "type": "rich_text_section",
                        "elements": [
                            {
                                "type": "text",
                                "text": "Meeting today ?"
                            }
                        ]
                    }
                ]
            }
        ]
    },
    {
        "client_msg_id": "7D1EE4B3-EE91-4F59-8968-EEEAE83B617C",
        "type": "message",
        "text": "Sorry, I must connect to another meeting ! I’ll try to be back later !",
        "user": "U010U9EHR7T",
        "ts": "1587410234.108400",
        "team": "TUU48M0T1",
        "user_team": "TUU48M0T1",
        "source_team": "TUU48M0T1",
        "user_profile": {
            "avatar_hash": "g36ea42e25d9",
            "image_72": "https:\/\/secure.gravatar.com\/avatar\/ad392afd49098e1505b10c168f27050d.jpg?s=72&d=https%3A%2F%2Fa.slack-edge.com%2Fdf10d%2Fimg%2Favatars%2Fava_0004-72.png",
            "first_name": "Jean-Loup",
            "real_name": "Jean-Loup DUBREUCQ",
            "display_name": "jldubreucq",
            "team": "TUU48M0T1",
            "name": "jlmd.jogl",
            "is_restricted": false,
            "is_ultra_restricted": false
        },
        "blocks": [
            {
                "type": "rich_text",
                "block_id": "p2Nzj",
                "elements": [
                    {
                        "type": "rich_text_section",
                        "elements": [
                            {
                                "type": "text",
                                "text": "Sorry, I must connect to another meeting ! I’ll try to be back later !"
                            }
                        ]
                    }
                ]
            }
        ]
    },
    {
        "type": "message",
        "subtype": "bot_message",
        "text": "abooesha has started a meeting",
        "ts": "1587410737.108600",
        "bot_id": "B0104LYRTBR",
        "blocks": [
            {
                "type": "call",
                "call_id": "R012CH1MA20",
                "block_id": "jPPY",
                "api_decoration_available": false,
                "call": {
                    "v1": {
                        "id": "R012CH1MA20",
                        "app_id": "A5GE9BMQC",
                        "app_icon_urls": {
                            "image_32": "https:\/\/slack-files2.s3-us-west-2.amazonaws.com\/avatars\/2017-09-21\/245295805989_06e77af1bfb8e3c81d4d_32.png",
                            "image_36": "https:\/\/slack-files2.s3-us-west-2.amazonaws.com\/avatars\/2017-09-21\/245295805989_06e77af1bfb8e3c81d4d_36.png",
                            "image_48": "https:\/\/slack-files2.s3-us-west-2.amazonaws.com\/avatars\/2017-09-21\/245295805989_06e77af1bfb8e3c81d4d_48.png",
                            "image_64": "https:\/\/slack-files2.s3-us-west-2.amazonaws.com\/avatars\/2017-09-21\/245295805989_06e77af1bfb8e3c81d4d_64.png",
                            "image_72": "https:\/\/slack-files2.s3-us-west-2.amazonaws.com\/avatars\/2017-09-21\/245295805989_06e77af1bfb8e3c81d4d_72.png",
                            "image_96": "https:\/\/slack-files2.s3-us-west-2.amazonaws.com\/avatars\/2017-09-21\/245295805989_06e77af1bfb8e3c81d4d_96.png",
                            "image_128": "https:\/\/slack-files2.s3-us-west-2.amazonaws.com\/avatars\/2017-09-21\/245295805989_06e77af1bfb8e3c81d4d_128.png",
                            "image_192": "https:\/\/slack-files2.s3-us-west-2.amazonaws.com\/avatars\/2017-09-21\/245295805989_06e77af1bfb8e3c81d4d_192.png",
                            "image_512": "https:\/\/slack-files2.s3-us-west-2.amazonaws.com\/avatars\/2017-09-21\/245295805989_06e77af1bfb8e3c81d4d_512.png",
                            "image_1024": "https:\/\/slack-files2.s3-us-west-2.amazonaws.com\/avatars\/2017-09-21\/245295805989_06e77af1bfb8e3c81d4d_1024.png",
                            "image_original": "https:\/\/slack-files2.s3-us-west-2.amazonaws.com\/avatars\/2017-09-21\/245295805989_06e77af1bfb8e3c81d4d_original.png"
                        },
                        "date_start": 1587410737,
                        "active_participants": [],
                        "all_participants": [
                            {
                                "slack_id": "U0119U5N3T3"
                            },
                            {
                                "external_id": "16779264",
                                "avatar_url": "",
                                "display_name": "gauthier"
                            },
                            {
                                "external_id": "16780288",
                                "avatar_url": "",
                                "display_name": "Peter"
                            },
                            {
                                "external_id": "16781312",
                                "avatar_url": "",
                                "display_name": "Chetan"
                            },
                            {
                                "external_id": "mZ5ABupdSXmhBL16ZAhQ7w",
                                "avatar_url": "",
                                "display_name": "Christian CHABRERIE"
                            },
                            {
                                "external_id": "16783360",
                                "avatar_url": "",
                                "display_name": "3368****842"
                            },
                            {
                                "external_id": "16784384",
                                "avatar_url": "",
                                "display_name": "Guillaume Tassin"
                            },
                            {
                                "external_id": "16785408",
                                "avatar_url": "",
                                "display_name": "jlmd"
                            },
                            {
                                "external_id": "16786432",
                                "avatar_url": "",
                                "display_name": "3368****842"
                            }
                        ],
                        "display_id": "916-4190-8553",
                        "join_url": "https:\/\/applications.zoom.us\/event\/callback\/slack\/91641908553?startUrl=N9U1pgb7fmOGClZrwYUqwftbMWH6apyirX8CMclKDODv0WXSNJg5drtjELcY5o9D_SlV_yo&state=JIM1sxSsGCjHURhL8bN218wECj32M83-qzFYa6oNWKuWjXLdJdOxL7DWDvX9B5XkgNwYDb94KsZIm1UuuGqUlZjl0QOw1NVl_m15DGSfq5EYo87ZwMjl3Y8GBeO247sLsr8l1-AJRzzm88eQDLsEf765yJf-A84xbaFqfXjnsjZRhmWLZtZgDiFbLe7yoJBG9feS2CTY8E2vSw3XSc0a0av_NwpmiBdt1-pJiHtD0E9fKeKdce1NuF-UHVpvESTLk7_vw0-smg",
                        "name": "Zoom meeting started by abooesha",
                        "created_by": "U0104LYS2J3",
                        "date_end": 1587410797,
                        "channels": [
                            "C011AQ00L5V"
                        ],
                        "is_dm_call": false,
                        "was_rejected": false,
                        "was_missed": false,
                        "was_accepted": false,
                        "has_ended": true
                    }
                }
            }
        ]
    },
    {
        "client_msg_id": "1e558035-21b3-4b9b-b2e6-b184db6815f0",
        "type": "message",
        "text": "<!channel> meeting",
        "user": "U0119U5N3T3",
        "ts": "1587410817.109000",
        "team": "TUU48M0T1",
        "user_team": "TUU48M0T1",
        "source_team": "TUU48M0T1",
        "user_profile": {
            "avatar_hash": "b3b38b63650e",
            "image_72": "https:\/\/avatars.slack-edge.com\/2020-04-04\/1047354985190_b3b38b63650e809885b3_72.jpg",
            "first_name": "",
            "real_name": "Sina Booeshaghi",
            "display_name": "Sina Booeshaghi",
            "team": "TUU48M0T1",
            "name": "abooesha",
            "is_restricted": false,
            "is_ultra_restricted": false
        },
        "blocks": [
            {
                "type": "rich_text",
                "block_id": "swctr",
                "elements": [
                    {
                        "type": "rich_text_section",
                        "elements": [
                            {
                                "type": "broadcast",
                                "range": "channel"
                            },
                            {
                                "type": "text",
                                "text": " meeting"
                            }
                        ]
                    }
                ]
            }
        ]
    },
    {
        "client_msg_id": "198eeeda-ba69-4e9c-9bc5-f227012679bd",
        "type": "message",
        "text": "sorry won;t make it",
        "user": "U011PEVETMJ",
        "ts": "1587410888.109500",
        "team": "TUU48M0T1",
        "user_team": "TUU48M0T1",
        "source_team": "TUU48M0T1",
        "user_profile": {
            "avatar_hash": "gc2e840a8d7e",
            "image_72": "https:\/\/secure.gravatar.com\/avatar\/c2e840a8d7eff65ae86868046ee3d5e4.jpg?s=72&d=https%3A%2F%2Fa.slack-edge.com%2Fdf10d%2Fimg%2Favatars%2Fava_0020-72.png",
            "first_name": "",
            "real_name": "Chiu Chau Roboman",
            "display_name": "Chiu Chau Roboman",
            "team": "TUU48M0T1",
            "name": "cchau2010",
            "is_restricted": false,
            "is_ultra_restricted": false
        },
        "blocks": [
            {
                "type": "rich_text",
                "block_id": "jzA",
                "elements": [
                    {
                        "type": "rich_text_section",
                        "elements": [
                            {
                                "type": "text",
                                "text": "sorry won;t make it"
                            }
                        ]
                    }
                ]
            }
        ]
    },
    {
        "type": "message",
        "text": "Variant for higher resource countries (first to elaborate, later one a variant with only one controller\/gui for all pumps):",
        "files": [
            {
                "id": "F011RMV1JCX",
                "created": 1587412498,
                "timestamp": 1587412498,
                "name": "image.png",
                "title": "image.png",
                "mimetype": "image\/png",
                "filetype": "png",
                "pretty_type": "PNG",
                "user": "U01081Y0TBP",
                "editable": false,
                "size": 31297,
                "mode": "hosted",
                "is_external": false,
                "external_type": "",
                "is_public": true,
                "public_url_shared": false,
                "display_as_bot": false,
                "username": "",
                "url_private": "https:\/\/files.slack.com\/files-pri\/TUU48M0T1-F011RMV1JCX\/image.png?t=xoxe-980144714919-1133254701825-1120841107731-daf595b5a7d6c9028b0b02a925032e36",
                "url_private_download": "https:\/\/files.slack.com\/files-pri\/TUU48M0T1-F011RMV1JCX\/download\/image.png?t=xoxe-980144714919-1133254701825-1120841107731-daf595b5a7d6c9028b0b02a925032e36",
                "thumb_64": "https:\/\/files.slack.com\/files-tmb\/TUU48M0T1-F011RMV1JCX-e3da7d18bb\/image_64.png?t=xoxe-980144714919-1133254701825-1120841107731-daf595b5a7d6c9028b0b02a925032e36",
                "thumb_80": "https:\/\/files.slack.com\/files-tmb\/TUU48M0T1-F011RMV1JCX-e3da7d18bb\/image_80.png?t=xoxe-980144714919-1133254701825-1120841107731-daf595b5a7d6c9028b0b02a925032e36",
                "thumb_360": "https:\/\/files.slack.com\/files-tmb\/TUU48M0T1-F011RMV1JCX-e3da7d18bb\/image_360.png?t=xoxe-980144714919-1133254701825-1120841107731-daf595b5a7d6c9028b0b02a925032e36",
                "thumb_360_w": 150,
                "thumb_360_h": 360,
                "thumb_480": "https:\/\/files.slack.com\/files-tmb\/TUU48M0T1-F011RMV1JCX-e3da7d18bb\/image_480.png?t=xoxe-980144714919-1133254701825-1120841107731-daf595b5a7d6c9028b0b02a925032e36",
                "thumb_480_w": 200,
                "thumb_480_h": 480,
                "thumb_160": "https:\/\/files.slack.com\/files-tmb\/TUU48M0T1-F011RMV1JCX-e3da7d18bb\/image_160.png?t=xoxe-980144714919-1133254701825-1120841107731-daf595b5a7d6c9028b0b02a925032e36",
                "original_w": 211,
                "original_h": 506,
                "thumb_tiny": "AwAwABTRlJEbFSFOOCaqwPM0wDyoy9wKszAGFtylhjoO9U7XYLgbYnU+pzxTWwF+iiikA187GwcHHX0qnCH84ZnVhnoD1q8QCCD0NV47WNZNyjGDxTWwFiiiikAUi9\/rQTjsTSAkZ+U9aAHUUUUAf\/\/Z",
                "permalink": "https:\/\/open-covid19.slack.com\/files\/U01081Y0TBP\/F011RMV1JCX\/image.png",
                "permalink_public": "https:\/\/slack-files.com\/TUU48M0T1-F011RMV1JCX-889865e050",
                "is_starred": false,
                "has_rich_preview": false
            }
        ],
        "upload": true,
        "blocks": [
            {
                "type": "rich_text",
                "block_id": "heEoT",
                "elements": [
                    {
                        "type": "rich_text_section",
                        "elements": [
                            {
                                "type": "text",
                                "text": "Variant for higher resource countries (first to elaborate, later one a variant with only one controller\/gui for all pumps):"
                            }
                        ]
                    }
                ]
            }
        ],
        "user": "U01081Y0TBP",
        "display_as_bot": false,
        "ts": "1587412499.110700",
        "edited": {
            "user": "U01081Y0TBP",
            "ts": "1587414914.000000"
        },
        "client_msg_id": "b3dedc48-19de-49e7-a9b7-31eaf57c4187"
    }
]