[
    {
        "type": "message",
        "subtype": "channel_join",
        "ts": "1585989507.013600",
        "user": "U011ARP8MRU",
        "text": "<@U011ARP8MRU> has joined the channel"
    },
    {
        "client_msg_id": "cce7d07d-bb12-40db-913d-b19c737df07f",
        "type": "message",
        "text": "I can help with any changes you need to the software",
        "user": "U011ARP8MRU",
        "ts": "1585990889.014100",
        "team": "TUU48M0T1",
        "user_team": "TUU48M0T1",
        "source_team": "TUU48M0T1",
        "user_profile": {
            "avatar_hash": "10e517b2a81d",
            "image_72": "https:\/\/avatars.slack-edge.com\/2020-04-05\/1044068223073_10e517b2a81d99669419_72.jpg",
            "first_name": "",
            "real_name": "Alex Flint",
            "display_name": "",
            "team": "TUU48M0T1",
            "name": "alex.flint",
            "is_restricted": false,
            "is_ultra_restricted": false
        },
        "blocks": [
            {
                "type": "rich_text",
                "block_id": "==kx",
                "elements": [
                    {
                        "type": "rich_text_section",
                        "elements": [
                            {
                                "type": "text",
                                "text": "I can help with any changes you need to the software"
                            }
                        ]
                    }
                ]
            }
        ]
    },
    {
        "client_msg_id": "84e389a9-3551-4850-9a02-b0ab12b14eaf",
        "type": "message",
        "text": "I got the pump software running locally (though I don't have a pump to test it out with)",
        "user": "U011ARP8MRU",
        "ts": "1585990919.015000",
        "team": "TUU48M0T1",
        "user_team": "TUU48M0T1",
        "source_team": "TUU48M0T1",
        "user_profile": {
            "avatar_hash": "10e517b2a81d",
            "image_72": "https:\/\/avatars.slack-edge.com\/2020-04-05\/1044068223073_10e517b2a81d99669419_72.jpg",
            "first_name": "",
            "real_name": "Alex Flint",
            "display_name": "",
            "team": "TUU48M0T1",
            "name": "alex.flint",
            "is_restricted": false,
            "is_ultra_restricted": false
        },
        "blocks": [
            {
                "type": "rich_text",
                "block_id": "M8fc",
                "elements": [
                    {
                        "type": "rich_text_section",
                        "elements": [
                            {
                                "type": "text",
                                "text": "I got the pump software running locally (though I don't have a pump to test it out with)"
                            }
                        ]
                    }
                ]
            }
        ]
    },
    {
        "type": "message",
        "text": "",
        "files": [
            {
                "id": "F0114RLKLMR",
                "created": 1585990925,
                "timestamp": 1585990925,
                "name": "Screenshot 2020-04-04 at 5.01.06 AM.png",
                "title": "Screenshot 2020-04-04 at 5.01.06 AM.png",
                "mimetype": "image\/png",
                "filetype": "png",
                "pretty_type": "PNG",
                "user": "U011ARP8MRU",
                "editable": false,
                "size": 326499,
                "mode": "hosted",
                "is_external": false,
                "external_type": "",
                "is_public": true,
                "public_url_shared": false,
                "display_as_bot": false,
                "username": "",
                "url_private": "https:\/\/files.slack.com\/files-pri\/TUU48M0T1-F0114RLKLMR\/screenshot_2020-04-04_at_5.01.06_am.png?t=xoxe-980144714919-1133254701825-1120841107731-daf595b5a7d6c9028b0b02a925032e36",
                "url_private_download": "https:\/\/files.slack.com\/files-pri\/TUU48M0T1-F0114RLKLMR\/download\/screenshot_2020-04-04_at_5.01.06_am.png?t=xoxe-980144714919-1133254701825-1120841107731-daf595b5a7d6c9028b0b02a925032e36",
                "thumb_64": "https:\/\/files.slack.com\/files-tmb\/TUU48M0T1-F0114RLKLMR-c235326c32\/screenshot_2020-04-04_at_5.01.06_am_64.png?t=xoxe-980144714919-1133254701825-1120841107731-daf595b5a7d6c9028b0b02a925032e36",
                "thumb_80": "https:\/\/files.slack.com\/files-tmb\/TUU48M0T1-F0114RLKLMR-c235326c32\/screenshot_2020-04-04_at_5.01.06_am_80.png?t=xoxe-980144714919-1133254701825-1120841107731-daf595b5a7d6c9028b0b02a925032e36",
                "thumb_360": "https:\/\/files.slack.com\/files-tmb\/TUU48M0T1-F0114RLKLMR-c235326c32\/screenshot_2020-04-04_at_5.01.06_am_360.png?t=xoxe-980144714919-1133254701825-1120841107731-daf595b5a7d6c9028b0b02a925032e36",
                "thumb_360_w": 360,
                "thumb_360_h": 240,
                "thumb_480": "https:\/\/files.slack.com\/files-tmb\/TUU48M0T1-F0114RLKLMR-c235326c32\/screenshot_2020-04-04_at_5.01.06_am_480.png?t=xoxe-980144714919-1133254701825-1120841107731-daf595b5a7d6c9028b0b02a925032e36",
                "thumb_480_w": 480,
                "thumb_480_h": 320,
                "thumb_160": "https:\/\/files.slack.com\/files-tmb\/TUU48M0T1-F0114RLKLMR-c235326c32\/screenshot_2020-04-04_at_5.01.06_am_160.png?t=xoxe-980144714919-1133254701825-1120841107731-daf595b5a7d6c9028b0b02a925032e36",
                "thumb_720": "https:\/\/files.slack.com\/files-tmb\/TUU48M0T1-F0114RLKLMR-c235326c32\/screenshot_2020-04-04_at_5.01.06_am_720.png?t=xoxe-980144714919-1133254701825-1120841107731-daf595b5a7d6c9028b0b02a925032e36",
                "thumb_720_w": 720,
                "thumb_720_h": 480,
                "thumb_800": "https:\/\/files.slack.com\/files-tmb\/TUU48M0T1-F0114RLKLMR-c235326c32\/screenshot_2020-04-04_at_5.01.06_am_800.png?t=xoxe-980144714919-1133254701825-1120841107731-daf595b5a7d6c9028b0b02a925032e36",
                "thumb_800_w": 800,
                "thumb_800_h": 533,
                "thumb_960": "https:\/\/files.slack.com\/files-tmb\/TUU48M0T1-F0114RLKLMR-c235326c32\/screenshot_2020-04-04_at_5.01.06_am_960.png?t=xoxe-980144714919-1133254701825-1120841107731-daf595b5a7d6c9028b0b02a925032e36",
                "thumb_960_w": 960,
                "thumb_960_h": 640,
                "thumb_1024": "https:\/\/files.slack.com\/files-tmb\/TUU48M0T1-F0114RLKLMR-c235326c32\/screenshot_2020-04-04_at_5.01.06_am_1024.png?t=xoxe-980144714919-1133254701825-1120841107731-daf595b5a7d6c9028b0b02a925032e36",
                "thumb_1024_w": 1024,
                "thumb_1024_h": 683,
                "image_exif_rotation": 1,
                "original_w": 2400,
                "original_h": 1600,
                "thumb_tiny": "AwAgADBLm6mjuHVXwoPAwKm2XhAIuEGfb\/61VLz\/AI+pPrWqnKqPYUAVfLvf+fhPy\/8ArUeVe\/8APwn\/AHz\/APWq3jj6H1pcYJxQBTMd6AT9oTgZ6f8A1qhsrqaW5VHfKkHjArRk\/wBW30NZOm\/8fifQ\/wAqAEvf+PqXp1rWTlQD0wKx7lw9w7Lkgnim+dL2kf8A76oA3MDikAxWLvuAM+Y+P96hpJ1ODI\/\/AH1QBsvnY3ptNZWm\/wDH4n0P8qh82b\/no\/8A31UlkwiuFd+FANAH\/9k=",
                "permalink": "https:\/\/open-covid19.slack.com\/files\/U011ARP8MRU\/F0114RLKLMR\/screenshot_2020-04-04_at_5.01.06_am.png",
                "permalink_public": "https:\/\/slack-files.com\/TUU48M0T1-F0114RLKLMR-c32fa46aaf",
                "is_starred": false,
                "has_rich_preview": false
            }
        ],
        "upload": true,
        "user": "U011ARP8MRU",
        "display_as_bot": false,
        "ts": "1585990938.015100",
        "client_msg_id": "eb9379da-ccfc-494f-8ccf-4963175013b4"
    },
    {
        "client_msg_id": "BB448276-C2D2-4752-82CE-BF295D135F03",
        "type": "message",
        "text": "This is great <@U011ARP8MRU>! Thanks!\nThe goal here would be to have a very simplistic interface that could be controlled by a few knobs and a visualization on a small monitor attached to each syringe pump. Ideally no computer involved, except arduino\/raspberry pie style. \n<@U011CCCTPFF> could you ask what key parameters should be controlled by the knobs? (Speed\/time\/frequency\/?)",
        "user": "UV02WET96",
        "ts": "1585992331.020400",
        "team": "TUU48M0T1",
        "user_team": "TUU48M0T1",
        "source_team": "TUU48M0T1",
        "user_profile": {
            "avatar_hash": "a99c74a194f8",
            "image_72": "https:\/\/avatars.slack-edge.com\/2020-03-07\/975708504851_a99c74a194f86715ca7d_72.png",
            "first_name": "Thomas",
            "real_name": "Thomas Landrain",
            "display_name": "Thomas Landrain - JOGL CoFounder \/ CEO",
            "team": "TUU48M0T1",
            "name": "thomas",
            "is_restricted": false,
            "is_ultra_restricted": false
        },
        "blocks": [
            {
                "type": "rich_text",
                "block_id": "UHk",
                "elements": [
                    {
                        "type": "rich_text_section",
                        "elements": [
                            {
                                "type": "text",
                                "text": "This is great "
                            },
                            {
                                "type": "user",
                                "user_id": "U011ARP8MRU"
                            },
                            {
                                "type": "text",
                                "text": "! Thanks!\nThe goal here would be to have a very simplistic interface that could be controlled by a few knobs and a visualization on a small monitor attached to each syringe pump. Ideally no computer involved, except arduino\/raspberry pie style. \n"
                            },
                            {
                                "type": "user",
                                "user_id": "U011CCCTPFF"
                            },
                            {
                                "type": "text",
                                "text": " could you ask what key parameters should be controlled by the knobs? (Speed\/time\/frequency\/?)"
                            }
                        ]
                    }
                ]
            }
        ],
        "thread_ts": "1585992331.020400",
        "reply_count": 11,
        "reply_users_count": 6,
        "latest_reply": "1586080405.065200",
        "reply_users": [
            "U010B4EJG2C",
            "UV02WET96",
            "U010Q1JH9FT",
            "U010GHT685A",
            "U011CCCTPFF",
            "U011ARP8MRU"
        ],
        "replies": [
            {
                "user": "U010B4EJG2C",
                "ts": "1585993234.020500"
            },
            {
                "user": "UV02WET96",
                "ts": "1586004315.023100"
            },
            {
                "user": "U010Q1JH9FT",
                "ts": "1586005368.026700"
            },
            {
                "user": "UV02WET96",
                "ts": "1586005486.027300"
            },
            {
                "user": "U010GHT685A",
                "ts": "1586030508.048400"
            },
            {
                "user": "U010B4EJG2C",
                "ts": "1586038674.048700"
            },
            {
                "user": "U010GHT685A",
                "ts": "1586052487.056500"
            },
            {
                "user": "U011CCCTPFF",
                "ts": "1586070052.060700"
            },
            {
                "user": "U011ARP8MRU",
                "ts": "1586073336.063400"
            },
            {
                "user": "U010B4EJG2C",
                "ts": "1586075156.064900"
            },
            {
                "user": "U011CCCTPFF",
                "ts": "1586080405.065200"
            }
        ],
        "subscribed": false
    },
    {
        "type": "message",
        "text": "How about this Arduino based 3D-priter board? It already has the motor controller, LCD, rotary encoder, buzzer. I am using it for Breezy. I think it could fit the syringe pump too. And it is <https:\/\/www.ebay.com\/itm\/3D-Printer-Kits-RAMPS-1-4-Mega2560-12864-LCD-Controller-A4988-for-Arduino-Reprap\/164126495596?hash=item2636b3936c:g:fo8AAOSwLydeb0Zo|incredibly cheap>.",
        "files": [
            {
                "id": "F011931B4E5",
                "created": 1585993220,
                "timestamp": 1585993220,
                "name": "image.png",
                "title": "image.png",
                "mimetype": "image\/png",
                "filetype": "png",
                "pretty_type": "PNG",
                "user": "U010B4EJG2C",
                "editable": false,
                "size": 2151759,
                "mode": "hosted",
                "is_external": false,
                "external_type": "",
                "is_public": true,
                "public_url_shared": false,
                "display_as_bot": false,
                "username": "",
                "url_private": "https:\/\/files.slack.com\/files-pri\/TUU48M0T1-F011931B4E5\/image.png?t=xoxe-980144714919-1133254701825-1120841107731-daf595b5a7d6c9028b0b02a925032e36",
                "url_private_download": "https:\/\/files.slack.com\/files-pri\/TUU48M0T1-F011931B4E5\/download\/image.png?t=xoxe-980144714919-1133254701825-1120841107731-daf595b5a7d6c9028b0b02a925032e36",
                "thumb_64": "https:\/\/files.slack.com\/files-tmb\/TUU48M0T1-F011931B4E5-3d7391fcd6\/image_64.png?t=xoxe-980144714919-1133254701825-1120841107731-daf595b5a7d6c9028b0b02a925032e36",
                "thumb_80": "https:\/\/files.slack.com\/files-tmb\/TUU48M0T1-F011931B4E5-3d7391fcd6\/image_80.png?t=xoxe-980144714919-1133254701825-1120841107731-daf595b5a7d6c9028b0b02a925032e36",
                "thumb_360": "https:\/\/files.slack.com\/files-tmb\/TUU48M0T1-F011931B4E5-3d7391fcd6\/image_360.png?t=xoxe-980144714919-1133254701825-1120841107731-daf595b5a7d6c9028b0b02a925032e36",
                "thumb_360_w": 360,
                "thumb_360_h": 231,
                "thumb_480": "https:\/\/files.slack.com\/files-tmb\/TUU48M0T1-F011931B4E5-3d7391fcd6\/image_480.png?t=xoxe-980144714919-1133254701825-1120841107731-daf595b5a7d6c9028b0b02a925032e36",
                "thumb_480_w": 480,
                "thumb_480_h": 308,
                "thumb_160": "https:\/\/files.slack.com\/files-tmb\/TUU48M0T1-F011931B4E5-3d7391fcd6\/image_160.png?t=xoxe-980144714919-1133254701825-1120841107731-daf595b5a7d6c9028b0b02a925032e36",
                "thumb_720": "https:\/\/files.slack.com\/files-tmb\/TUU48M0T1-F011931B4E5-3d7391fcd6\/image_720.png?t=xoxe-980144714919-1133254701825-1120841107731-daf595b5a7d6c9028b0b02a925032e36",
                "thumb_720_w": 720,
                "thumb_720_h": 461,
                "thumb_800": "https:\/\/files.slack.com\/files-tmb\/TUU48M0T1-F011931B4E5-3d7391fcd6\/image_800.png?t=xoxe-980144714919-1133254701825-1120841107731-daf595b5a7d6c9028b0b02a925032e36",
                "thumb_800_w": 800,
                "thumb_800_h": 513,
                "thumb_960": "https:\/\/files.slack.com\/files-tmb\/TUU48M0T1-F011931B4E5-3d7391fcd6\/image_960.png?t=xoxe-980144714919-1133254701825-1120841107731-daf595b5a7d6c9028b0b02a925032e36",
                "thumb_960_w": 960,
                "thumb_960_h": 615,
                "thumb_1024": "https:\/\/files.slack.com\/files-tmb\/TUU48M0T1-F011931B4E5-3d7391fcd6\/image_1024.png?t=xoxe-980144714919-1133254701825-1120841107731-daf595b5a7d6c9028b0b02a925032e36",
                "thumb_1024_w": 1024,
                "thumb_1024_h": 656,
                "image_exif_rotation": 1,
                "original_w": 1408,
                "original_h": 902,
                "thumb_tiny": "AwAeADBSQVqPatRYbZnPfpTcnaBuUe\/epsVcnKKKYUXI+tRqCjqzMQOuRzirAx5aHYGYjJJNNRE2M2E5z0BwKPLHpT9\/\/TMf99VIuGjY7cEe9OUWtRKSGMg596Z5K+lWGAPFNC4PXIqLlEM6nylwef6VIVbYm1c\/LTyobrT1OMD8KqMrMTVyvtkHVD+lTQq3lvlSKkYDuKYiqjMRnLD14q3UurMnlP\/Z",
                "permalink": "https:\/\/open-covid19.slack.com\/files\/U010B4EJG2C\/F011931B4E5\/image.png",
                "permalink_public": "https:\/\/slack-files.com\/TUU48M0T1-F011931B4E5-a1955d583a",
                "is_starred": false,
                "has_rich_preview": false
            }
        ],
        "upload": true,
        "blocks": [
            {
                "type": "rich_text",
                "block_id": "yTFw",
                "elements": [
                    {
                        "type": "rich_text_section",
                        "elements": [
                            {
                                "type": "text",
                                "text": "How about this Arduino based 3D-priter board? It already has the motor controller, LCD, rotary encoder, buzzer. I am using it for Breezy. I think it could fit the syringe pump too. And it is "
                            },
                            {
                                "type": "link",
                                "url": "https:\/\/www.ebay.com\/itm\/3D-Printer-Kits-RAMPS-1-4-Mega2560-12864-LCD-Controller-A4988-for-Arduino-Reprap\/164126495596?hash=item2636b3936c:g:fo8AAOSwLydeb0Zo",
                                "text": "incredibly cheap"
                            },
                            {
                                "type": "text",
                                "text": "."
                            }
                        ]
                    }
                ]
            }
        ],
        "user": "U010B4EJG2C",
        "display_as_bot": false,
        "ts": "1585993234.020500",
        "client_msg_id": "dd2f3a3b-2286-4f12-bc1b-4ff081a18e4c",
        "thread_ts": "1585992331.020400",
        "parent_user_id": "UV02WET96"
    },
    {
        "client_msg_id": "3955e38a-28f8-486a-a907-05cc940af769",
        "type": "message",
        "text": "Epita will be joining the syringe pump effort",
        "user": "U010Q1JH9FT",
        "ts": "1585997276.021800",
        "team": "TUU48M0T1",
        "user_team": "TUU48M0T1",
        "source_team": "TUU48M0T1",
        "user_profile": {
            "avatar_hash": "g6f87c6ca5a4",
            "image_72": "https:\/\/secure.gravatar.com\/avatar\/6f87c6ca5a4f6d039b292db7e6e3aa28.jpg?s=72&d=https%3A%2F%2Fa.slack-edge.com%2Fdf10d%2Fimg%2Favatars%2Fava_0017-72.png",
            "first_name": "Philippe",
            "real_name": "Philippe Cochin",
            "display_name": "Philippe Cochin - COVID3D",
            "team": "TUU48M0T1",
            "name": "philippe.cochin",
            "is_restricted": false,
            "is_ultra_restricted": false
        },
        "blocks": [
            {
                "type": "rich_text",
                "block_id": "yWE",
                "elements": [
                    {
                        "type": "rich_text_section",
                        "elements": [
                            {
                                "type": "text",
                                "text": "Epita will be joining the syringe pump effort"
                            }
                        ]
                    }
                ]
            }
        ],
        "thread_ts": "1585997276.021800",
        "reply_count": 2,
        "reply_users_count": 2,
        "latest_reply": "1586005387.026900",
        "reply_users": [
            "UV02WET96",
            "U010Q1JH9FT"
        ],
        "replies": [
            {
                "user": "UV02WET96",
                "ts": "1586004332.023400"
            },
            {
                "user": "U010Q1JH9FT",
                "ts": "1586005387.026900"
            }
        ],
        "subscribed": false,
        "reactions": [
            {
                "name": "+1",
                "users": [
                    "UV02WET96"
                ],
                "count": 1
            }
        ]
    },
    {
        "type": "message",
        "text": "Classical stacked hospital syringe pump",
        "files": [
            {
                "id": "F0114UL8V6X",
                "created": 1586002209,
                "timestamp": 1586002209,
                "name": "IMG_92161[3518].jpg",
                "title": "IMG_92161[3518].jpg",
                "mimetype": "image\/jpeg",
                "filetype": "jpg",
                "pretty_type": "JPEG",
                "user": "U010Q1JH9FT",
                "editable": false,
                "size": 214167,
                "mode": "hosted",
                "is_external": false,
                "external_type": "",
                "is_public": true,
                "public_url_shared": false,
                "display_as_bot": false,
                "username": "",
                "url_private": "https:\/\/files.slack.com\/files-pri\/TUU48M0T1-F0114UL8V6X\/img_92161_3518_.jpg?t=xoxe-980144714919-1133254701825-1120841107731-daf595b5a7d6c9028b0b02a925032e36",
                "url_private_download": "https:\/\/files.slack.com\/files-pri\/TUU48M0T1-F0114UL8V6X\/download\/img_92161_3518_.jpg?t=xoxe-980144714919-1133254701825-1120841107731-daf595b5a7d6c9028b0b02a925032e36",
                "thumb_64": "https:\/\/files.slack.com\/files-tmb\/TUU48M0T1-F0114UL8V6X-6c3a176f06\/img_92161_3518__64.jpg?t=xoxe-980144714919-1133254701825-1120841107731-daf595b5a7d6c9028b0b02a925032e36",
                "thumb_80": "https:\/\/files.slack.com\/files-tmb\/TUU48M0T1-F0114UL8V6X-6c3a176f06\/img_92161_3518__80.jpg?t=xoxe-980144714919-1133254701825-1120841107731-daf595b5a7d6c9028b0b02a925032e36",
                "thumb_360": "https:\/\/files.slack.com\/files-tmb\/TUU48M0T1-F0114UL8V6X-6c3a176f06\/img_92161_3518__360.jpg?t=xoxe-980144714919-1133254701825-1120841107731-daf595b5a7d6c9028b0b02a925032e36",
                "thumb_360_w": 270,
                "thumb_360_h": 360,
                "thumb_480": "https:\/\/files.slack.com\/files-tmb\/TUU48M0T1-F0114UL8V6X-6c3a176f06\/img_92161_3518__480.jpg?t=xoxe-980144714919-1133254701825-1120841107731-daf595b5a7d6c9028b0b02a925032e36",
                "thumb_480_w": 360,
                "thumb_480_h": 480,
                "thumb_160": "https:\/\/files.slack.com\/files-tmb\/TUU48M0T1-F0114UL8V6X-6c3a176f06\/img_92161_3518__160.jpg?t=xoxe-980144714919-1133254701825-1120841107731-daf595b5a7d6c9028b0b02a925032e36",
                "thumb_720": "https:\/\/files.slack.com\/files-tmb\/TUU48M0T1-F0114UL8V6X-6c3a176f06\/img_92161_3518__720.jpg?t=xoxe-980144714919-1133254701825-1120841107731-daf595b5a7d6c9028b0b02a925032e36",
                "thumb_720_w": 540,
                "thumb_720_h": 720,
                "thumb_800": "https:\/\/files.slack.com\/files-tmb\/TUU48M0T1-F0114UL8V6X-6c3a176f06\/img_92161_3518__800.jpg?t=xoxe-980144714919-1133254701825-1120841107731-daf595b5a7d6c9028b0b02a925032e36",
                "thumb_800_w": 800,
                "thumb_800_h": 1067,
                "thumb_960": "https:\/\/files.slack.com\/files-tmb\/TUU48M0T1-F0114UL8V6X-6c3a176f06\/img_92161_3518__960.jpg?t=xoxe-980144714919-1133254701825-1120841107731-daf595b5a7d6c9028b0b02a925032e36",
                "thumb_960_w": 720,
                "thumb_960_h": 960,
                "thumb_1024": "https:\/\/files.slack.com\/files-tmb\/TUU48M0T1-F0114UL8V6X-6c3a176f06\/img_92161_3518__1024.jpg?t=xoxe-980144714919-1133254701825-1120841107731-daf595b5a7d6c9028b0b02a925032e36",
                "thumb_1024_w": 768,
                "thumb_1024_h": 1024,
                "image_exif_rotation": 1,
                "original_w": 960,
                "original_h": 1280,
                "thumb_tiny": "AwAwACS1TSSG4\/GgsBTGbIPbikMcm7zpeRjeOMe1OMx3qq44\/WoAwMm4scEg8dOKRmIcnv2oEDIzOxJHXuaTy29R+dSgq4BOM0bU9vzoAQmkB5oFFAxmeeTn8MUrFdmf4h\/KkBDc7unHXNGRgg9qEIUYxx0paYGA4w34Ubx6NQBLjj61A2UYscnHpTlkYgdqDQMjaRwfvcemKUZ3H0NN5LkEcetOwd4wfl9KAHYNLg07ijigR\/\/Z",
                "permalink": "https:\/\/open-covid19.slack.com\/files\/U010Q1JH9FT\/F0114UL8V6X\/img_92161_3518_.jpg",
                "permalink_public": "https:\/\/slack-files.com\/TUU48M0T1-F0114UL8V6X-1315a8f43f",
                "is_starred": false,
                "has_rich_preview": false
            }
        ],
        "upload": true,
        "blocks": [
            {
                "type": "rich_text",
                "block_id": "Bhc8K",
                "elements": [
                    {
                        "type": "rich_text_section",
                        "elements": [
                            {
                                "type": "text",
                                "text": "Classical stacked hospital syringe pump"
                            }
                        ]
                    }
                ]
            }
        ],
        "user": "U010Q1JH9FT",
        "display_as_bot": false,
        "ts": "1586002216.022300",
        "edited": {
            "user": "U010Q1JH9FT",
            "ts": "1586002232.000000"
        },
        "client_msg_id": "56e387e1-5742-4961-acc3-1f90e7aea734",
        "reactions": [
            {
                "name": "+1",
                "users": [
                    "UV02WET96"
                ],
                "count": 1
            }
        ]
    },
    {
        "type": "message",
        "subtype": "channel_join",
        "ts": "1586003514.022900",
        "user": "U010UF6AXMF",
        "text": "<@U010UF6AXMF> has joined the channel"
    },
    {
        "client_msg_id": "a2b1a55b-4027-4320-a504-f308ea38f08e",
        "type": "message",
        "text": "looks great <@U010B4EJG2C>!",
        "user": "UV02WET96",
        "ts": "1586004315.023100",
        "team": "TUU48M0T1",
        "user_team": "TUU48M0T1",
        "source_team": "TUU48M0T1",
        "user_profile": {
            "avatar_hash": "a99c74a194f8",
            "image_72": "https:\/\/avatars.slack-edge.com\/2020-03-07\/975708504851_a99c74a194f86715ca7d_72.png",
            "first_name": "Thomas",
            "real_name": "Thomas Landrain",
            "display_name": "Thomas Landrain - JOGL CoFounder \/ CEO",
            "team": "TUU48M0T1",
            "name": "thomas",
            "is_restricted": false,
            "is_ultra_restricted": false
        },
        "blocks": [
            {
                "type": "rich_text",
                "block_id": "7\/H",
                "elements": [
                    {
                        "type": "rich_text_section",
                        "elements": [
                            {
                                "type": "text",
                                "text": "looks great "
                            },
                            {
                                "type": "user",
                                "user_id": "U010B4EJG2C"
                            },
                            {
                                "type": "text",
                                "text": "!"
                            }
                        ]
                    }
                ]
            }
        ],
        "thread_ts": "1585992331.020400",
        "parent_user_id": "UV02WET96"
    },
    {
        "client_msg_id": "a3956246-f3a9-4215-bcb0-fd145001dcea",
        "type": "message",
        "text": "This is great! Can you invite then here?",
        "user": "UV02WET96",
        "ts": "1586004332.023400",
        "team": "TUU48M0T1",
        "user_team": "TUU48M0T1",
        "source_team": "TUU48M0T1",
        "user_profile": {
            "avatar_hash": "a99c74a194f8",
            "image_72": "https:\/\/avatars.slack-edge.com\/2020-03-07\/975708504851_a99c74a194f86715ca7d_72.png",
            "first_name": "Thomas",
            "real_name": "Thomas Landrain",
            "display_name": "Thomas Landrain - JOGL CoFounder \/ CEO",
            "team": "TUU48M0T1",
            "name": "thomas",
            "is_restricted": false,
            "is_ultra_restricted": false
        },
        "blocks": [
            {
                "type": "rich_text",
                "block_id": "LV5U\/",
                "elements": [
                    {
                        "type": "rich_text_section",
                        "elements": [
                            {
                                "type": "text",
                                "text": "This is great! Can you invite then here?"
                            }
                        ]
                    }
                ]
            }
        ],
        "thread_ts": "1585997276.021800",
        "parent_user_id": "U010Q1JH9FT"
    },
    {
        "client_msg_id": "aa08e044-afb1-4185-a800-3a8983dc9b3a",
        "type": "message",
        "text": "Christian (EPITA) was suggesting we use 2+ syringe with the same NEMA17 since NEMA17 might become scarce : <https:\/\/www.appropedia.org\/Open-source_syringe_pump>",
        "user": "U010Q1JH9FT",
        "ts": "1586004802.025900",
        "team": "TUU48M0T1",
        "user_team": "TUU48M0T1",
        "source_team": "TUU48M0T1",
        "user_profile": {
            "avatar_hash": "g6f87c6ca5a4",
            "image_72": "https:\/\/secure.gravatar.com\/avatar\/6f87c6ca5a4f6d039b292db7e6e3aa28.jpg?s=72&d=https%3A%2F%2Fa.slack-edge.com%2Fdf10d%2Fimg%2Favatars%2Fava_0017-72.png",
            "first_name": "Philippe",
            "real_name": "Philippe Cochin",
            "display_name": "Philippe Cochin - COVID3D",
            "team": "TUU48M0T1",
            "name": "philippe.cochin",
            "is_restricted": false,
            "is_ultra_restricted": false
        },
        "edited": {
            "user": "U010Q1JH9FT",
            "ts": "1586005519.000000"
        },
        "blocks": [
            {
                "type": "rich_text",
                "block_id": "3RrB",
                "elements": [
                    {
                        "type": "rich_text_section",
                        "elements": [
                            {
                                "type": "text",
                                "text": "Christian (EPITA) was suggesting we use 2+ syringe with the same NEMA17 since NEMA17 might become scarce : "
                            },
                            {
                                "type": "link",
                                "url": "https:\/\/www.appropedia.org\/Open-source_syringe_pump"
                            }
                        ]
                    }
                ]
            }
        ]
    },
    {
        "client_msg_id": "668f7da5-0257-4464-a91a-5e76140a6926",
        "type": "message",
        "text": "Could work, also discussion about using some Arduino BLE with controls from a cellphone.",
        "user": "U010Q1JH9FT",
        "ts": "1586005368.026700",
        "team": "TUU48M0T1",
        "user_team": "TUU48M0T1",
        "source_team": "TUU48M0T1",
        "user_profile": {
            "avatar_hash": "g6f87c6ca5a4",
            "image_72": "https:\/\/secure.gravatar.com\/avatar\/6f87c6ca5a4f6d039b292db7e6e3aa28.jpg?s=72&d=https%3A%2F%2Fa.slack-edge.com%2Fdf10d%2Fimg%2Favatars%2Fava_0017-72.png",
            "first_name": "Philippe",
            "real_name": "Philippe Cochin",
            "display_name": "Philippe Cochin - COVID3D",
            "team": "TUU48M0T1",
            "name": "philippe.cochin",
            "is_restricted": false,
            "is_ultra_restricted": false
        },
        "blocks": [
            {
                "type": "rich_text",
                "block_id": "Coz",
                "elements": [
                    {
                        "type": "rich_text_section",
                        "elements": [
                            {
                                "type": "text",
                                "text": "Could work, also discussion about using some Arduino BLE with controls from a cellphone."
                            }
                        ]
                    }
                ]
            }
        ],
        "thread_ts": "1585992331.020400",
        "parent_user_id": "UV02WET96"
    },
    {
        "client_msg_id": "47e070fa-eaab-4dfe-9284-f919adcecfea",
        "type": "message",
        "text": "Just did",
        "user": "U010Q1JH9FT",
        "ts": "1586005387.026900",
        "team": "TUU48M0T1",
        "user_team": "TUU48M0T1",
        "source_team": "TUU48M0T1",
        "user_profile": {
            "avatar_hash": "g6f87c6ca5a4",
            "image_72": "https:\/\/secure.gravatar.com\/avatar\/6f87c6ca5a4f6d039b292db7e6e3aa28.jpg?s=72&d=https%3A%2F%2Fa.slack-edge.com%2Fdf10d%2Fimg%2Favatars%2Fava_0017-72.png",
            "first_name": "Philippe",
            "real_name": "Philippe Cochin",
            "display_name": "Philippe Cochin - COVID3D",
            "team": "TUU48M0T1",
            "name": "philippe.cochin",
            "is_restricted": false,
            "is_ultra_restricted": false
        },
        "blocks": [
            {
                "type": "rich_text",
                "block_id": "C5hg",
                "elements": [
                    {
                        "type": "rich_text_section",
                        "elements": [
                            {
                                "type": "text",
                                "text": "Just did"
                            }
                        ]
                    }
                ]
            }
        ],
        "thread_ts": "1585997276.021800",
        "parent_user_id": "U010Q1JH9FT",
        "reactions": [
            {
                "name": "+1",
                "users": [
                    "UV02WET96"
                ],
                "count": 1
            }
        ]
    },
    {
        "client_msg_id": "71e523ff-a77d-4c86-86f4-e263adac4e1e",
        "type": "message",
        "text": "I’d say cellphones are to be banned as they could run out of battery",
        "user": "UV02WET96",
        "ts": "1586005486.027300",
        "team": "TUU48M0T1",
        "user_team": "TUU48M0T1",
        "source_team": "TUU48M0T1",
        "user_profile": {
            "avatar_hash": "a99c74a194f8",
            "image_72": "https:\/\/avatars.slack-edge.com\/2020-03-07\/975708504851_a99c74a194f86715ca7d_72.png",
            "first_name": "Thomas",
            "real_name": "Thomas Landrain",
            "display_name": "Thomas Landrain - JOGL CoFounder \/ CEO",
            "team": "TUU48M0T1",
            "name": "thomas",
            "is_restricted": false,
            "is_ultra_restricted": false
        },
        "blocks": [
            {
                "type": "rich_text",
                "block_id": "qQW",
                "elements": [
                    {
                        "type": "rich_text_section",
                        "elements": [
                            {
                                "type": "text",
                                "text": "I’d say cellphones are to be banned as they could run out of battery"
                            }
                        ]
                    }
                ]
            }
        ],
        "thread_ts": "1585992331.020400",
        "parent_user_id": "UV02WET96"
    },
    {
        "client_msg_id": "79e2fea4-2173-4073-8b15-bf46caa67716",
        "type": "message",
        "text": "Another discussion in on the base, the poseidon takes a long time to print with its base. The base could be laser cut like the CETIM Model which would save time.",
        "user": "U010Q1JH9FT",
        "ts": "1586005612.029200",
        "team": "TUU48M0T1",
        "user_team": "TUU48M0T1",
        "source_team": "TUU48M0T1",
        "user_profile": {
            "avatar_hash": "g6f87c6ca5a4",
            "image_72": "https:\/\/secure.gravatar.com\/avatar\/6f87c6ca5a4f6d039b292db7e6e3aa28.jpg?s=72&d=https%3A%2F%2Fa.slack-edge.com%2Fdf10d%2Fimg%2Favatars%2Fava_0017-72.png",
            "first_name": "Philippe",
            "real_name": "Philippe Cochin",
            "display_name": "Philippe Cochin - COVID3D",
            "team": "TUU48M0T1",
            "name": "philippe.cochin",
            "is_restricted": false,
            "is_ultra_restricted": false
        },
        "blocks": [
            {
                "type": "rich_text",
                "block_id": "Nfu",
                "elements": [
                    {
                        "type": "rich_text_section",
                        "elements": [
                            {
                                "type": "text",
                                "text": "Another discussion in on the base, the poseidon takes a long time to print with its base. The base could be laser cut like the CETIM Model which would save time."
                            }
                        ]
                    }
                ]
            }
        ],
        "thread_ts": "1586005612.029200",
        "reply_count": 4,
        "reply_users_count": 2,
        "latest_reply": "1586029161.043700",
        "reply_users": [
            "U010B4EJG2C",
            "U010Q1JH9FT"
        ],
        "replies": [
            {
                "user": "U010B4EJG2C",
                "ts": "1586007886.033000"
            },
            {
                "user": "U010B4EJG2C",
                "ts": "1586007905.033200"
            },
            {
                "user": "U010Q1JH9FT",
                "ts": "1586026816.043500"
            },
            {
                "user": "U010B4EJG2C",
                "ts": "1586029161.043700"
            }
        ],
        "subscribed": false,
        "reactions": [
            {
                "name": "+1",
                "users": [
                    "U01081Y0TBP"
                ],
                "count": 1
            }
        ]
    },
    {
        "type": "message",
        "text": "CETIM prototype",
        "files": [
            {
                "id": "F011D3DSQ3Y",
                "created": 1586005683,
                "timestamp": 1586005683,
                "name": "cetim.png",
                "title": "cetim.png",
                "mimetype": "image\/png",
                "filetype": "png",
                "pretty_type": "PNG",
                "user": "U010Q1JH9FT",
                "editable": false,
                "size": 139111,
                "mode": "hosted",
                "is_external": false,
                "external_type": "",
                "is_public": true,
                "public_url_shared": false,
                "display_as_bot": false,
                "username": "",
                "url_private": "https:\/\/files.slack.com\/files-pri\/TUU48M0T1-F011D3DSQ3Y\/cetim.png?t=xoxe-980144714919-1133254701825-1120841107731-daf595b5a7d6c9028b0b02a925032e36",
                "url_private_download": "https:\/\/files.slack.com\/files-pri\/TUU48M0T1-F011D3DSQ3Y\/download\/cetim.png?t=xoxe-980144714919-1133254701825-1120841107731-daf595b5a7d6c9028b0b02a925032e36",
                "thumb_64": "https:\/\/files.slack.com\/files-tmb\/TUU48M0T1-F011D3DSQ3Y-a9bc1bc3d4\/cetim_64.png?t=xoxe-980144714919-1133254701825-1120841107731-daf595b5a7d6c9028b0b02a925032e36",
                "thumb_80": "https:\/\/files.slack.com\/files-tmb\/TUU48M0T1-F011D3DSQ3Y-a9bc1bc3d4\/cetim_80.png?t=xoxe-980144714919-1133254701825-1120841107731-daf595b5a7d6c9028b0b02a925032e36",
                "thumb_360": "https:\/\/files.slack.com\/files-tmb\/TUU48M0T1-F011D3DSQ3Y-a9bc1bc3d4\/cetim_360.png?t=xoxe-980144714919-1133254701825-1120841107731-daf595b5a7d6c9028b0b02a925032e36",
                "thumb_360_w": 360,
                "thumb_360_h": 282,
                "thumb_480": "https:\/\/files.slack.com\/files-tmb\/TUU48M0T1-F011D3DSQ3Y-a9bc1bc3d4\/cetim_480.png?t=xoxe-980144714919-1133254701825-1120841107731-daf595b5a7d6c9028b0b02a925032e36",
                "thumb_480_w": 480,
                "thumb_480_h": 376,
                "thumb_160": "https:\/\/files.slack.com\/files-tmb\/TUU48M0T1-F011D3DSQ3Y-a9bc1bc3d4\/cetim_160.png?t=xoxe-980144714919-1133254701825-1120841107731-daf595b5a7d6c9028b0b02a925032e36",
                "thumb_720": "https:\/\/files.slack.com\/files-tmb\/TUU48M0T1-F011D3DSQ3Y-a9bc1bc3d4\/cetim_720.png?t=xoxe-980144714919-1133254701825-1120841107731-daf595b5a7d6c9028b0b02a925032e36",
                "thumb_720_w": 720,
                "thumb_720_h": 565,
                "thumb_800": "https:\/\/files.slack.com\/files-tmb\/TUU48M0T1-F011D3DSQ3Y-a9bc1bc3d4\/cetim_800.png?t=xoxe-980144714919-1133254701825-1120841107731-daf595b5a7d6c9028b0b02a925032e36",
                "thumb_800_w": 800,
                "thumb_800_h": 627,
                "thumb_960": "https:\/\/files.slack.com\/files-tmb\/TUU48M0T1-F011D3DSQ3Y-a9bc1bc3d4\/cetim_960.png?t=xoxe-980144714919-1133254701825-1120841107731-daf595b5a7d6c9028b0b02a925032e36",
                "thumb_960_w": 960,
                "thumb_960_h": 753,
                "thumb_1024": "https:\/\/files.slack.com\/files-tmb\/TUU48M0T1-F011D3DSQ3Y-a9bc1bc3d4\/cetim_1024.png?t=xoxe-980144714919-1133254701825-1120841107731-daf595b5a7d6c9028b0b02a925032e36",
                "thumb_1024_w": 1024,
                "thumb_1024_h": 803,
                "image_exif_rotation": 1,
                "original_w": 1062,
                "original_h": 833,
                "thumb_tiny": "AwAlADDSJxUbXCqwX170l022AkYP1qBW\/dlSucdKTYmy7RVVfMbDKeB\/CasI+4DPDelMY6iiigBHRXUqwyDUE8TeSyoMjsKsUUAVYkcDIbHtTnl2qdy8+lTsoPPQ+tVriI4L85A6joaaSFsMFxIJOoKdif8AGraPvQMKyrmRtq\/3f5VPp8ztJ5ecpjP0pXuCNCiiigYUUUUAJsXBG0YPUY602OJIhiNQo9qfRQB\/\/9k=",
                "permalink": "https:\/\/open-covid19.slack.com\/files\/U010Q1JH9FT\/F011D3DSQ3Y\/cetim.png",
                "permalink_public": "https:\/\/slack-files.com\/TUU48M0T1-F011D3DSQ3Y-b1fb218783",
                "is_starred": false,
                "has_rich_preview": false
            }
        ],
        "upload": true,
        "blocks": [
            {
                "type": "rich_text",
                "block_id": "V1Q",
                "elements": [
                    {
                        "type": "rich_text_section",
                        "elements": [
                            {
                                "type": "text",
                                "text": "CETIM prototype"
                            }
                        ]
                    }
                ]
            }
        ],
        "user": "U010Q1JH9FT",
        "display_as_bot": false,
        "ts": "1586005689.029300",
        "client_msg_id": "1ddf48f2-c0e8-4812-9317-4bb98be88e50"
    },
    {
        "client_msg_id": "0d170340-b7d6-4571-8bb1-85111e6bb095",
        "type": "message",
        "text": "The problems we currently encounter are:\n• detecting blocking, overpressure or endstop: A solution would be to monitor current spikes with <https:\/\/www.trinamic.com\/technology\/adv-technologies\/stallguard\/>\n• what is the optimal electronics setup according to mass availability and ease of use",
        "user": "U010Q1JH9FT",
        "ts": "1586005961.032900",
        "team": "TUU48M0T1",
        "user_team": "TUU48M0T1",
        "source_team": "TUU48M0T1",
        "user_profile": {
            "avatar_hash": "g6f87c6ca5a4",
            "image_72": "https:\/\/secure.gravatar.com\/avatar\/6f87c6ca5a4f6d039b292db7e6e3aa28.jpg?s=72&d=https%3A%2F%2Fa.slack-edge.com%2Fdf10d%2Fimg%2Favatars%2Fava_0017-72.png",
            "first_name": "Philippe",
            "real_name": "Philippe Cochin",
            "display_name": "Philippe Cochin - COVID3D",
            "team": "TUU48M0T1",
            "name": "philippe.cochin",
            "is_restricted": false,
            "is_ultra_restricted": false
        },
        "blocks": [
            {
                "type": "rich_text",
                "block_id": "8sht",
                "elements": [
                    {
                        "type": "rich_text_section",
                        "elements": [
                            {
                                "type": "text",
                                "text": "The problems we currently encounter are:\n"
                            }
                        ]
                    },
                    {
                        "type": "rich_text_list",
                        "elements": [
                            {
                                "type": "rich_text_section",
                                "elements": [
                                    {
                                        "type": "text",
                                        "text": "detecting blocking, overpressure or endstop: A solution would be to monitor current spikes with "
                                    },
                                    {
                                        "type": "link",
                                        "url": "https:\/\/www.trinamic.com\/technology\/adv-technologies\/stallguard\/"
                                    }
                                ]
                            },
                            {
                                "type": "rich_text_section",
                                "elements": [
                                    {
                                        "type": "text",
                                        "text": "what is the optimal electronics setup according to mass availability and ease of use"
                                    }
                                ]
                            }
                        ],
                        "style": "bullet",
                        "indent": 0
                    }
                ]
            }
        ]
    },
    {
        "client_msg_id": "8e436529-4a3b-42f1-a54f-86ee9ccc84d2",
        "type": "message",
        "text": "Not printing the base is a good idea IMO. This model looks like it fits just one particular syringe type. Is it true?",
        "user": "U010B4EJG2C",
        "ts": "1586007886.033000",
        "team": "TUU48M0T1",
        "user_team": "TUU48M0T1",
        "source_team": "TUU48M0T1",
        "user_profile": {
            "avatar_hash": "5c9626d7b328",
            "image_72": "https:\/\/avatars.slack-edge.com\/2020-03-19\/1011171782821_5c9626d7b328e5dc84ea_72.jpg",
            "first_name": "Adam",
            "real_name": "Adam Krovina",
            "display_name": "Adam Krovina",
            "team": "TUU48M0T1",
            "name": "adam",
            "is_restricted": false,
            "is_ultra_restricted": false
        },
        "blocks": [
            {
                "type": "rich_text",
                "block_id": "t0z9g",
                "elements": [
                    {
                        "type": "rich_text_section",
                        "elements": [
                            {
                                "type": "text",
                                "text": "Not printing the base is a good idea IMO. This model looks like it fits just one particular syringe type. Is it true?"
                            }
                        ]
                    }
                ]
            }
        ],
        "thread_ts": "1586005612.029200",
        "parent_user_id": "U010Q1JH9FT"
    },
    {
        "client_msg_id": "e47024aa-37de-4c95-8f5f-82f8a55841f8",
        "type": "message",
        "text": "The trinamic drivers are a good selection",
        "user": "U010B4EJG2C",
        "ts": "1586007905.033200",
        "team": "TUU48M0T1",
        "user_team": "TUU48M0T1",
        "source_team": "TUU48M0T1",
        "user_profile": {
            "avatar_hash": "5c9626d7b328",
            "image_72": "https:\/\/avatars.slack-edge.com\/2020-03-19\/1011171782821_5c9626d7b328e5dc84ea_72.jpg",
            "first_name": "Adam",
            "real_name": "Adam Krovina",
            "display_name": "Adam Krovina",
            "team": "TUU48M0T1",
            "name": "adam",
            "is_restricted": false,
            "is_ultra_restricted": false
        },
        "blocks": [
            {
                "type": "rich_text",
                "block_id": "eHoNU",
                "elements": [
                    {
                        "type": "rich_text_section",
                        "elements": [
                            {
                                "type": "text",
                                "text": "The trinamic drivers are a good selection"
                            }
                        ]
                    }
                ]
            }
        ],
        "thread_ts": "1586005612.029200",
        "parent_user_id": "U010Q1JH9FT",
        "reactions": [
            {
                "name": "+1",
                "users": [
                    "U01081Y0TBP",
                    "U010Q1JH9FT"
                ],
                "count": 2
            }
        ]
    },
    {
        "type": "message",
        "subtype": "channel_join",
        "ts": "1586011428.033500",
        "user": "U011KG47FMW",
        "text": "<@U011KG47FMW> has joined the channel",
        "inviter": "UV02WET96"
    },
    {
        "client_msg_id": "3f630ec4-e995-4b66-b236-5ce973e6f2aa",
        "type": "message",
        "text": "Here is a syringe pump manual to get an idea: <https:\/\/www.proximos.ch\/wp-content\/uploads\/2017\/08\/2308_nu_agiliat_injectomat_fre.pdf>",
        "user": "U010Q1JH9FT",
        "ts": "1586013283.033900",
        "team": "TUU48M0T1",
        "user_team": "TUU48M0T1",
        "source_team": "TUU48M0T1",
        "user_profile": {
            "avatar_hash": "g6f87c6ca5a4",
            "image_72": "https:\/\/secure.gravatar.com\/avatar\/6f87c6ca5a4f6d039b292db7e6e3aa28.jpg?s=72&d=https%3A%2F%2Fa.slack-edge.com%2Fdf10d%2Fimg%2Favatars%2Fava_0017-72.png",
            "first_name": "Philippe",
            "real_name": "Philippe Cochin",
            "display_name": "Philippe Cochin - COVID3D",
            "team": "TUU48M0T1",
            "name": "philippe.cochin",
            "is_restricted": false,
            "is_ultra_restricted": false
        },
        "blocks": [
            {
                "type": "rich_text",
                "block_id": "N4d",
                "elements": [
                    {
                        "type": "rich_text_section",
                        "elements": [
                            {
                                "type": "text",
                                "text": "Here is a syringe pump manual to get an idea: "
                            },
                            {
                                "type": "link",
                                "url": "https:\/\/www.proximos.ch\/wp-content\/uploads\/2017\/08\/2308_nu_agiliat_injectomat_fre.pdf"
                            }
                        ]
                    }
                ]
            }
        ]
    },
    {
        "type": "message",
        "subtype": "channel_join",
        "ts": "1586020204.034100",
        "user": "U011K8F9WBS",
        "text": "<@U011K8F9WBS> has joined the channel"
    },
    {
        "client_msg_id": "2657bb84-74b1-47ae-8a30-a9bd384d44cf",
        "type": "message",
        "text": "Is the rotary encoder necessary for extra safety? Or could we count steps? Assuming the stepper is strong enough and does not slip. Maybe a switch for referencing at startup",
        "user": "U01081Y0TBP",
        "ts": "1586021184.037300",
        "team": "TUU48M0T1",
        "user_team": "TUU48M0T1",
        "source_team": "TUU48M0T1",
        "user_profile": {
            "avatar_hash": "60ec5b47107a",
            "image_72": "https:\/\/avatars.slack-edge.com\/2020-03-18\/995274181218_60ec5b47107a3bd2ca7d_72.jpg",
            "first_name": "Peter",
            "real_name": "Peter Kooren",
            "display_name": "Peter Kooren",
            "team": "TUU48M0T1",
            "name": "peterkooren",
            "is_restricted": false,
            "is_ultra_restricted": false
        },
        "edited": {
            "user": "U01081Y0TBP",
            "ts": "1586021520.000000"
        },
        "blocks": [
            {
                "type": "rich_text",
                "block_id": "8WC",
                "elements": [
                    {
                        "type": "rich_text_section",
                        "elements": [
                            {
                                "type": "text",
                                "text": "Is the rotary encoder necessary for extra safety? Or could we count steps? Assuming the stepper is strong enough and does not slip. Maybe a switch for referencing at startup"
                            }
                        ]
                    }
                ]
            }
        ]
    },
    {
        "client_msg_id": "29785442-6561-4ceb-99f8-474346693267",
        "type": "message",
        "text": "Intro. I am a biomechanical engineer with 12yrs of experience developing medical devices, such as blood analysers, orthotics and surgical handheld instruments",
        "user": "U01081Y0TBP",
        "ts": "1586021415.040300",
        "team": "TUU48M0T1",
        "user_team": "TUU48M0T1",
        "source_team": "TUU48M0T1",
        "user_profile": {
            "avatar_hash": "60ec5b47107a",
            "image_72": "https:\/\/avatars.slack-edge.com\/2020-03-18\/995274181218_60ec5b47107a3bd2ca7d_72.jpg",
            "first_name": "Peter",
            "real_name": "Peter Kooren",
            "display_name": "Peter Kooren",
            "team": "TUU48M0T1",
            "name": "peterkooren",
            "is_restricted": false,
            "is_ultra_restricted": false
        },
        "blocks": [
            {
                "type": "rich_text",
                "block_id": "mE0P",
                "elements": [
                    {
                        "type": "rich_text_section",
                        "elements": [
                            {
                                "type": "text",
                                "text": "Intro. I am a biomechanical engineer with 12yrs of experience developing medical devices, such as blood analysers, orthotics and surgical handheld instruments"
                            }
                        ]
                    }
                ]
            }
        ],
        "reactions": [
            {
                "name": "raised_hands",
                "users": [
                    "UV02WET96"
                ],
                "count": 1
            }
        ]
    },
    {
        "type": "message",
        "subtype": "channel_join",
        "ts": "1586021557.040900",
        "user": "U011D62HLBG",
        "text": "<@U011D62HLBG> has joined the channel",
        "inviter": "U011KG47FMW"
    },
    {
        "client_msg_id": "52155970-E20E-45FA-A216-E8B7E9117C3B",
        "type": "message",
        "text": "I think the closer we can get to an actual syringe pump the better ",
        "user": "UV02WET96",
        "ts": "1586021938.041500",
        "team": "TUU48M0T1",
        "user_team": "TUU48M0T1",
        "source_team": "TUU48M0T1",
        "user_profile": {
            "avatar_hash": "a99c74a194f8",
            "image_72": "https:\/\/avatars.slack-edge.com\/2020-03-07\/975708504851_a99c74a194f86715ca7d_72.png",
            "first_name": "Thomas",
            "real_name": "Thomas Landrain",
            "display_name": "Thomas Landrain - JOGL CoFounder \/ CEO",
            "team": "TUU48M0T1",
            "name": "thomas",
            "is_restricted": false,
            "is_ultra_restricted": false
        },
        "blocks": [
            {
                "type": "rich_text",
                "block_id": "HwH6a",
                "elements": [
                    {
                        "type": "rich_text_section",
                        "elements": [
                            {
                                "type": "text",
                                "text": "I think the closer we can get to an actual syringe pump the better "
                            }
                        ]
                    }
                ]
            }
        ]
    },
    {
        "client_msg_id": "27876939-31f9-4bdb-b581-e79494ac1094",
        "type": "message",
        "text": "An interesting idea would be current sensing to detect blocking, overpressure and to act as endstop: <https:\/\/www.trinamic.com\/technology\/adv-technologies\/stallguard\/>",
        "user": "U010Q1JH9FT",
        "ts": "1586023747.042900",
        "team": "TUU48M0T1",
        "user_team": "TUU48M0T1",
        "source_team": "TUU48M0T1",
        "user_profile": {
            "avatar_hash": "g6f87c6ca5a4",
            "image_72": "https:\/\/secure.gravatar.com\/avatar\/6f87c6ca5a4f6d039b292db7e6e3aa28.jpg?s=72&d=https%3A%2F%2Fa.slack-edge.com%2Fdf10d%2Fimg%2Favatars%2Fava_0017-72.png",
            "first_name": "Philippe",
            "real_name": "Philippe Cochin",
            "display_name": "Philippe Cochin - COVID3D",
            "team": "TUU48M0T1",
            "name": "philippe.cochin",
            "is_restricted": false,
            "is_ultra_restricted": false
        },
        "blocks": [
            {
                "type": "rich_text",
                "block_id": "han",
                "elements": [
                    {
                        "type": "rich_text_section",
                        "elements": [
                            {
                                "type": "text",
                                "text": "An interesting idea would be current sensing to detect blocking, overpressure and to act as endstop: "
                            },
                            {
                                "type": "link",
                                "url": "https:\/\/www.trinamic.com\/technology\/adv-technologies\/stallguard\/"
                            }
                        ]
                    }
                ]
            }
        ],
        "thread_ts": "1586023747.042900",
        "reply_count": 1,
        "reply_users_count": 1,
        "latest_reply": "1586024654.043000",
        "reply_users": [
            "U010B4EJG2C"
        ],
        "replies": [
            {
                "user": "U010B4EJG2C",
                "ts": "1586024654.043000"
            }
        ],
        "subscribed": false
    },
    {
        "client_msg_id": "4386049a-f0e6-4105-90ac-ae0ad4d4bf9f",
        "type": "message",
        "text": "Prusa printers already use the TMC feedback instead of endstops. It is definitely a good idea. Less mechanical parts to fail.",
        "user": "U010B4EJG2C",
        "ts": "1586024654.043000",
        "team": "TUU48M0T1",
        "user_team": "TUU48M0T1",
        "source_team": "TUU48M0T1",
        "user_profile": {
            "avatar_hash": "5c9626d7b328",
            "image_72": "https:\/\/avatars.slack-edge.com\/2020-03-19\/1011171782821_5c9626d7b328e5dc84ea_72.jpg",
            "first_name": "Adam",
            "real_name": "Adam Krovina",
            "display_name": "Adam Krovina",
            "team": "TUU48M0T1",
            "name": "adam",
            "is_restricted": false,
            "is_ultra_restricted": false
        },
        "blocks": [
            {
                "type": "rich_text",
                "block_id": "iDK",
                "elements": [
                    {
                        "type": "rich_text_section",
                        "elements": [
                            {
                                "type": "text",
                                "text": "Prusa printers already use the TMC feedback instead of endstops. It is definitely a good idea. Less mechanical parts to fail."
                            }
                        ]
                    }
                ]
            }
        ],
        "thread_ts": "1586023747.042900",
        "parent_user_id": "U010Q1JH9FT"
    },
    {
        "client_msg_id": "189ce1a4-42e8-4020-9fa2-03bc3b45becf",
        "type": "message",
        "text": "Yup not sure if this is a desirable trait to avoid human error or a problem",
        "user": "U010Q1JH9FT",
        "ts": "1586026816.043500",
        "team": "TUU48M0T1",
        "user_team": "TUU48M0T1",
        "source_team": "TUU48M0T1",
        "user_profile": {
            "avatar_hash": "g6f87c6ca5a4",
            "image_72": "https:\/\/secure.gravatar.com\/avatar\/6f87c6ca5a4f6d039b292db7e6e3aa28.jpg?s=72&d=https%3A%2F%2Fa.slack-edge.com%2Fdf10d%2Fimg%2Favatars%2Fava_0017-72.png",
            "first_name": "Philippe",
            "real_name": "Philippe Cochin",
            "display_name": "Philippe Cochin - COVID3D",
            "team": "TUU48M0T1",
            "name": "philippe.cochin",
            "is_restricted": false,
            "is_ultra_restricted": false
        },
        "blocks": [
            {
                "type": "rich_text",
                "block_id": "ZLgZL",
                "elements": [
                    {
                        "type": "rich_text_section",
                        "elements": [
                            {
                                "type": "text",
                                "text": "Yup not sure if this is a desirable trait to avoid human error or a problem"
                            }
                        ]
                    }
                ]
            }
        ],
        "thread_ts": "1586005612.029200",
        "parent_user_id": "U010Q1JH9FT"
    },
    {
        "client_msg_id": "28e282bd-764c-411e-ac15-e87700f10c0f",
        "type": "message",
        "text": "Well, I'd expect soon complaints, if only one syringe model fits. The piston area of a syringe should be configurable. The best to prevent human error would be the ability to store several types being used and clearly identify them (i.e. by total volume). I don't know, if the piston sizes are standardized internationally (there are some ISO standards, haven't read them).",
        "user": "U010B4EJG2C",
        "ts": "1586029161.043700",
        "team": "TUU48M0T1",
        "user_team": "TUU48M0T1",
        "source_team": "TUU48M0T1",
        "user_profile": {
            "avatar_hash": "5c9626d7b328",
            "image_72": "https:\/\/avatars.slack-edge.com\/2020-03-19\/1011171782821_5c9626d7b328e5dc84ea_72.jpg",
            "first_name": "Adam",
            "real_name": "Adam Krovina",
            "display_name": "Adam Krovina",
            "team": "TUU48M0T1",
            "name": "adam",
            "is_restricted": false,
            "is_ultra_restricted": false
        },
        "blocks": [
            {
                "type": "rich_text",
                "block_id": "D9L",
                "elements": [
                    {
                        "type": "rich_text_section",
                        "elements": [
                            {
                                "type": "text",
                                "text": "Well, I'd expect soon complaints, if only one syringe model fits. The piston area of a syringe should be configurable. The best to prevent human error would be the ability to store several types being used and clearly identify them (i.e. by total volume). I don't know, if the piston sizes are standardized internationally (there are some ISO standards, haven't read them)."
                            }
                        ]
                    }
                ]
            }
        ],
        "thread_ts": "1586005612.029200",
        "parent_user_id": "U010Q1JH9FT"
    },
    {
        "type": "message",
        "subtype": "thread_broadcast",
        "text": "As someone who watched multiple projects at NASA fail because new engineers assume raspberry pis and arduinos are built for high reliability, I strongly advise you look into more serious\/reliable options.\n\nPis and arduinos are designed to be cheap and their seemingly ignorable flaws will become far less ignorable if you start putting them in medical equipment.",
        "user": "U010GHT685A",
        "ts": "1586030508.048400",
        "thread_ts": "1585992331.020400",
        "root": {
            "client_msg_id": "BB448276-C2D2-4752-82CE-BF295D135F03",
            "type": "message",
            "text": "This is great <@U011ARP8MRU>! Thanks!\nThe goal here would be to have a very simplistic interface that could be controlled by a few knobs and a visualization on a small monitor attached to each syringe pump. Ideally no computer involved, except arduino\/raspberry pie style. \n<@U011CCCTPFF> could you ask what key parameters should be controlled by the knobs? (Speed\/time\/frequency\/?)",
            "user": "UV02WET96",
            "ts": "1585992331.020400",
            "team": "TUU48M0T1",
            "blocks": [
                {
                    "type": "rich_text",
                    "block_id": "UHk",
                    "elements": [
                        {
                            "type": "rich_text_section",
                            "elements": [
                                {
                                    "type": "text",
                                    "text": "This is great "
                                },
                                {
                                    "type": "user",
                                    "user_id": "U011ARP8MRU"
                                },
                                {
                                    "type": "text",
                                    "text": "! Thanks!\nThe goal here would be to have a very simplistic interface that could be controlled by a few knobs and a visualization on a small monitor attached to each syringe pump. Ideally no computer involved, except arduino\/raspberry pie style. \n"
                                },
                                {
                                    "type": "user",
                                    "user_id": "U011CCCTPFF"
                                },
                                {
                                    "type": "text",
                                    "text": " could you ask what key parameters should be controlled by the knobs? (Speed\/time\/frequency\/?)"
                                }
                            ]
                        }
                    ]
                }
            ],
            "thread_ts": "1585992331.020400",
            "reply_count": 11,
            "reply_users_count": 6,
            "latest_reply": "1586080405.065200",
            "reply_users": [
                "U010B4EJG2C",
                "UV02WET96",
                "U010Q1JH9FT",
                "U010GHT685A",
                "U011CCCTPFF",
                "U011ARP8MRU"
            ],
            "subscribed": false
        },
        "blocks": [
            {
                "type": "rich_text",
                "block_id": "E3q",
                "elements": [
                    {
                        "type": "rich_text_section",
                        "elements": [
                            {
                                "type": "text",
                                "text": "As someone who watched multiple projects at NASA fail because new engineers assume raspberry pis and arduinos are built for high reliability, I strongly advise you look into more serious\/reliable options.\n\nPis and arduinos are designed to be cheap and their seemingly ignorable flaws will become far less ignorable if you start putting them in medical equipment."
                            }
                        ]
                    }
                ]
            }
        ],
        "client_msg_id": "ED24A2AC-AC91-46B2-8873-973802A79B76",
        "reactions": [
            {
                "name": "+1",
                "users": [
                    "UV02WET96"
                ],
                "count": 1
            }
        ]
    },
    {
        "client_msg_id": "b3298deb-a951-4161-9b09-f1440c78abec",
        "type": "message",
        "text": "I think the AVR MCU (heart of Arduino) itself is a reliable industrial controller. Cannot be compared to Raspberry PI and it's overall complexity. Don't blame a platform, if it is not used (programmed, EMC...) properly.",
        "user": "U010B4EJG2C",
        "ts": "1586038674.048700",
        "team": "TUU48M0T1",
        "user_team": "TUU48M0T1",
        "source_team": "TUU48M0T1",
        "user_profile": {
            "avatar_hash": "5c9626d7b328",
            "image_72": "https:\/\/avatars.slack-edge.com\/2020-03-19\/1011171782821_5c9626d7b328e5dc84ea_72.jpg",
            "first_name": "Adam",
            "real_name": "Adam Krovina",
            "display_name": "Adam Krovina",
            "team": "TUU48M0T1",
            "name": "adam",
            "is_restricted": false,
            "is_ultra_restricted": false
        },
        "blocks": [
            {
                "type": "rich_text",
                "block_id": "47wtw",
                "elements": [
                    {
                        "type": "rich_text_section",
                        "elements": [
                            {
                                "type": "text",
                                "text": "I think the AVR MCU (heart of Arduino) itself is a reliable industrial controller. Cannot be compared to Raspberry PI and it's overall complexity. Don't blame a platform, if it is not used (programmed, EMC...) properly."
                            }
                        ]
                    }
                ]
            }
        ],
        "thread_ts": "1585992331.020400",
        "parent_user_id": "UV02WET96",
        "reactions": [
            {
                "name": "+1",
                "users": [
                    "UV02WET96"
                ],
                "count": 1
            }
        ]
    },
    {
        "client_msg_id": "18AFDEBB-911A-4F71-932B-218E7DFBF023",
        "type": "message",
        "text": "that controller isnt the only thing that needs to operate correctly for that board to work right. I heard the same argument from a team deciding to strap it to a radio receiver to find out the value of quality assurance for well soldered boards.\n\nIf we are talking purely in a vacuum chamber only measuring the individual components of the boards, sure you can give them a badge of approval. \n\nas a fully integrated single board system, arduino cannot economically afford to put it through the level of quality assurance tests other enterprise manufactures actually put things through because they dont have expensive clients to satisfy like militaries and satellite companies who will hand over billions to ensure things will not fail",
        "user": "U010GHT685A",
        "ts": "1586052487.056500",
        "team": "TUU48M0T1",
        "user_team": "TUU48M0T1",
        "source_team": "TUU48M0T1",
        "user_profile": {
            "avatar_hash": "g8b82eba32dc",
            "image_72": "https:\/\/secure.gravatar.com\/avatar\/8b82eba32dceb4a94f0d2f641621be24.jpg?s=72&d=https%3A%2F%2Fa.slack-edge.com%2Fdf10d%2Fimg%2Favatars%2Fava_0014-72.png",
            "first_name": "",
            "real_name": "Cody Kochmann",
            "display_name": "",
            "team": "TUU48M0T1",
            "name": "kochmanncody",
            "is_restricted": false,
            "is_ultra_restricted": false
        },
        "edited": {
            "user": "U010GHT685A",
            "ts": "1586052673.000000"
        },
        "blocks": [
            {
                "type": "rich_text",
                "block_id": "M6+K",
                "elements": [
                    {
                        "type": "rich_text_section",
                        "elements": [
                            {
                                "type": "text",
                                "text": "that controller isnt the only thing that needs to operate correctly for that board to work right. I heard the same argument from a team deciding to strap it to a radio receiver to find out the value of quality assurance for well soldered boards.\n\nIf we are talking purely in a vacuum chamber only measuring the individual components of the boards, sure you can give them a badge of approval. \n\nas a fully integrated single board system, arduino cannot economically afford to put it through the level of quality assurance tests other enterprise manufactures actually put things through because they dont have expensive clients to satisfy like militaries and satellite companies who will hand over billions to ensure things will not fail"
                            }
                        ]
                    }
                ]
            }
        ],
        "thread_ts": "1585992331.020400",
        "parent_user_id": "UV02WET96",
        "reactions": [
            {
                "name": "+1",
                "users": [
                    "U01181TG37X"
                ],
                "count": 1
            }
        ]
    },
    {
        "client_msg_id": "837da11c-8dbb-42c0-a71f-f1caf57496f6",
        "type": "message",
        "text": "Hi all, my name is Sina and I developed the Poseidon syringe pump, originally intended to be used for Microfluidics. I just spoke with <@U011KG47FMW> briefly but am new to this project. From my end, I have improved the software for the poseidon system (will release it within a day) but never envisioned that it would be used in a clinical setting.",
        "user": "U0119U5N3T3",
        "ts": "1586061953.059200",
        "team": "TUU48M0T1",
        "user_team": "TUU48M0T1",
        "source_team": "TUU48M0T1",
        "user_profile": {
            "avatar_hash": "b3b38b63650e",
            "image_72": "https:\/\/avatars.slack-edge.com\/2020-04-04\/1047354985190_b3b38b63650e809885b3_72.jpg",
            "first_name": "",
            "real_name": "Sina Booeshaghi",
            "display_name": "Sina Booeshaghi",
            "team": "TUU48M0T1",
            "name": "abooesha",
            "is_restricted": false,
            "is_ultra_restricted": false
        },
        "blocks": [
            {
                "type": "rich_text",
                "block_id": "F+Y",
                "elements": [
                    {
                        "type": "rich_text_section",
                        "elements": [
                            {
                                "type": "text",
                                "text": "Hi all, my name is Sina and I developed the Poseidon syringe pump, originally intended to be used for Microfluidics. I just spoke with "
                            },
                            {
                                "type": "user",
                                "user_id": "U011KG47FMW"
                            },
                            {
                                "type": "text",
                                "text": " briefly but am new to this project. From my end, I have improved the software for the poseidon system (will release it within a day) but never envisioned that it would be used in a clinical setting."
                            }
                        ]
                    }
                ]
            }
        ],
        "reactions": [
            {
                "name": "wave",
                "users": [
                    "UV02WET96"
                ],
                "count": 1
            }
        ]
    },
    {
        "client_msg_id": "94cb0050-8216-4cba-a62b-f5ffa59c20cc",
        "type": "message",
        "text": "I am happy to help but I need more communication about what the needs are.",
        "user": "U0119U5N3T3",
        "ts": "1586064631.060100",
        "team": "TUU48M0T1",
        "user_team": "TUU48M0T1",
        "source_team": "TUU48M0T1",
        "user_profile": {
            "avatar_hash": "b3b38b63650e",
            "image_72": "https:\/\/avatars.slack-edge.com\/2020-04-04\/1047354985190_b3b38b63650e809885b3_72.jpg",
            "first_name": "",
            "real_name": "Sina Booeshaghi",
            "display_name": "Sina Booeshaghi",
            "team": "TUU48M0T1",
            "name": "abooesha",
            "is_restricted": false,
            "is_ultra_restricted": false
        },
        "blocks": [
            {
                "type": "rich_text",
                "block_id": "32IOo",
                "elements": [
                    {
                        "type": "rich_text_section",
                        "elements": [
                            {
                                "type": "text",
                                "text": "I am happy to help but I need more communication about what the needs are."
                            }
                        ]
                    }
                ]
            }
        ],
        "reactions": [
            {
                "name": "100",
                "users": [
                    "UV02WET96"
                ],
                "count": 1
            }
        ]
    },
    {
        "client_msg_id": "d8d19f95-2415-435c-9385-b3fd3d5fe946",
        "type": "message",
        "text": "I am curious to know why not go with more established solutions, ie <http:\/\/www.syringepump.com\/>",
        "user": "U0119U5N3T3",
        "ts": "1586065001.060500",
        "team": "TUU48M0T1",
        "user_team": "TUU48M0T1",
        "source_team": "TUU48M0T1",
        "user_profile": {
            "avatar_hash": "b3b38b63650e",
            "image_72": "https:\/\/avatars.slack-edge.com\/2020-04-04\/1047354985190_b3b38b63650e809885b3_72.jpg",
            "first_name": "",
            "real_name": "Sina Booeshaghi",
            "display_name": "Sina Booeshaghi",
            "team": "TUU48M0T1",
            "name": "abooesha",
            "is_restricted": false,
            "is_ultra_restricted": false
        },
        "attachments": [
            {
                "title": "Syringe Pumps - Peristaltic Pumps - Advanced Precise and Programmable - SyringePump.com",
                "title_link": "http:\/\/www.syringepump.com\/",
                "text": "Laboratory syringe pumps for precise infusion and withdrawal with advanced programming and automation. Along with computer interface capabilities. For applications involving research, laboratory and industrial uses.",
                "fallback": "Syringe Pumps - Peristaltic Pumps - Advanced Precise and Programmable - SyringePump.com",
                "from_url": "http:\/\/www.syringepump.com\/",
                "service_icon": "http:\/\/www.syringepump.com\/favicon.ico",
                "service_name": "syringepump.com",
                "id": 1,
                "original_url": "http:\/\/www.syringepump.com\/"
            }
        ],
        "blocks": [
            {
                "type": "rich_text",
                "block_id": "BBQz4",
                "elements": [
                    {
                        "type": "rich_text_section",
                        "elements": [
                            {
                                "type": "text",
                                "text": "I am curious to know why not go with more established solutions, ie "
                            },
                            {
                                "type": "link",
                                "url": "http:\/\/www.syringepump.com\/"
                            }
                        ]
                    }
                ]
            }
        ],
        "thread_ts": "1586065001.060500",
        "reply_count": 1,
        "reply_users_count": 1,
        "latest_reply": "1586083091.068100",
        "reply_users": [
            "UV02WET96"
        ],
        "replies": [
            {
                "user": "UV02WET96",
                "ts": "1586083091.068100"
            }
        ],
        "subscribed": false
    }
]