[
    {
        "client_msg_id": "fbfa50fa-9e92-4553-be92-6fd5cd6f2d75",
        "type": "message",
        "text": "<@U0117TTQP18> I don't know if it's set or not ( I'll ask ), but the board is being used on tens of thousands of lasers, 3D printers, and cnc mills in the world without skipped steps, including at very low speeds, so I really wouldn't worry about it.",
        "user": "U01188XCK19",
        "ts": "1587625713.208700",
        "team": "TUU48M0T1",
        "user_team": "TUU48M0T1",
        "source_team": "TUU48M0T1",
        "user_profile": {
            "avatar_hash": "gd85edfb45fa",
            "image_72": "https:\/\/secure.gravatar.com\/avatar\/d85edfb45fa87b47ea33da26228d07dd.jpg?s=72&d=https%3A%2F%2Fa.slack-edge.com%2Fdf10d%2Fimg%2Favatars%2Fava_0011-72.png",
            "first_name": "",
            "real_name": "wolf arthur",
            "display_name": "wolf arthur",
            "team": "TUU48M0T1",
            "name": "wolf.arthur",
            "is_restricted": false,
            "is_ultra_restricted": false
        },
        "blocks": [
            {
                "type": "rich_text",
                "block_id": "d+h",
                "elements": [
                    {
                        "type": "rich_text_section",
                        "elements": [
                            {
                                "type": "user",
                                "user_id": "U0117TTQP18"
                            },
                            {
                                "type": "text",
                                "text": " I don't know if it's set or not ( I'll ask ), but the board is being used on tens of thousands of lasers, 3D printers, and cnc mills in the world without skipped steps, including at very low speeds, so I really wouldn't worry about it."
                            }
                        ]
                    }
                ]
            }
        ]
    },
    {
        "client_msg_id": "cb4e1661-9976-4b53-b290-5688f1a724d4",
        "type": "message",
        "text": "<@UV02WET96> Hi Thomas,\nDo you prefer an additional sheet for detailed costs ?",
        "user": "U010U9EHR7T",
        "ts": "1587626576.208900",
        "team": "TUU48M0T1",
        "user_team": "TUU48M0T1",
        "source_team": "TUU48M0T1",
        "user_profile": {
            "avatar_hash": "g36ea42e25d9",
            "image_72": "https:\/\/secure.gravatar.com\/avatar\/ad392afd49098e1505b10c168f27050d.jpg?s=72&d=https%3A%2F%2Fa.slack-edge.com%2Fdf10d%2Fimg%2Favatars%2Fava_0004-72.png",
            "first_name": "Jean-Loup",
            "real_name": "Jean-Loup DUBREUCQ",
            "display_name": "jldubreucq",
            "team": "TUU48M0T1",
            "name": "jlmd.jogl",
            "is_restricted": false,
            "is_ultra_restricted": false
        },
        "blocks": [
            {
                "type": "rich_text",
                "block_id": "unA",
                "elements": [
                    {
                        "type": "rich_text_section",
                        "elements": [
                            {
                                "type": "user",
                                "user_id": "UV02WET96"
                            },
                            {
                                "type": "text",
                                "text": " Hi Thomas,\nDo you prefer an additional sheet for detailed costs ?"
                            }
                        ]
                    }
                ]
            }
        ],
        "thread_ts": "1587582424.177700",
        "parent_user_id": "UV02WET96"
    },
    {
        "client_msg_id": "8682c465-e97c-4244-b066-8d1d8afd54dc",
        "type": "message",
        "text": "A closed loop design should help to avoid any risk !",
        "user": "U010U9EHR7T",
        "ts": "1587627086.209100",
        "team": "TUU48M0T1",
        "user_team": "TUU48M0T1",
        "source_team": "TUU48M0T1",
        "user_profile": {
            "avatar_hash": "g36ea42e25d9",
            "image_72": "https:\/\/secure.gravatar.com\/avatar\/ad392afd49098e1505b10c168f27050d.jpg?s=72&d=https%3A%2F%2Fa.slack-edge.com%2Fdf10d%2Fimg%2Favatars%2Fava_0004-72.png",
            "first_name": "Jean-Loup",
            "real_name": "Jean-Loup DUBREUCQ",
            "display_name": "jldubreucq",
            "team": "TUU48M0T1",
            "name": "jlmd.jogl",
            "is_restricted": false,
            "is_ultra_restricted": false
        },
        "blocks": [
            {
                "type": "rich_text",
                "block_id": "Sg6X",
                "elements": [
                    {
                        "type": "rich_text_section",
                        "elements": [
                            {
                                "type": "text",
                                "text": "A closed loop design should help to avoid any risk !"
                            }
                        ]
                    }
                ]
            }
        ],
        "thread_ts": "1587593402.202900",
        "parent_user_id": "U0117TTQP18"
    },
    {
        "client_msg_id": "735B991D-18C4-4B5F-9BB2-97016505A0CC",
        "type": "message",
        "text": "<@U010U9EHR7T> On which part are you working ? 2000 is too much, what do you need now?",
        "user": "UV02WET96",
        "ts": "1587635153.211900",
        "team": "TUU48M0T1",
        "user_team": "TUU48M0T1",
        "source_team": "TUU48M0T1",
        "user_profile": {
            "avatar_hash": "a99c74a194f8",
            "image_72": "https:\/\/avatars.slack-edge.com\/2020-03-07\/975708504851_a99c74a194f86715ca7d_72.png",
            "first_name": "Thomas",
            "real_name": "Thomas Landrain",
            "display_name": "Thomas Landrain - JOGL CoFounder \/ CEO",
            "team": "TUU48M0T1",
            "name": "thomas",
            "is_restricted": false,
            "is_ultra_restricted": false
        },
        "blocks": [
            {
                "type": "rich_text",
                "block_id": "Bpcl\/",
                "elements": [
                    {
                        "type": "rich_text_section",
                        "elements": [
                            {
                                "type": "user",
                                "user_id": "U010U9EHR7T"
                            },
                            {
                                "type": "text",
                                "text": " On which part are you working ? 2000 is too much, what do you need now?"
                            }
                        ]
                    }
                ]
            }
        ],
        "thread_ts": "1587582424.177700",
        "parent_user_id": "UV02WET96"
    },
    {
        "client_msg_id": "2b9f5245-13be-401a-807b-afea2dab4ecf",
        "type": "message",
        "text": "<@U01081Y0TBP> Hi Peter ! Good work !\nDon’t you think that mass centering would be better if the syringe unit was moved above the control unit ?",
        "user": "U010U9EHR7T",
        "ts": "1587650092.212900",
        "team": "TUU48M0T1",
        "user_team": "TUU48M0T1",
        "source_team": "TUU48M0T1",
        "user_profile": {
            "avatar_hash": "g36ea42e25d9",
            "image_72": "https:\/\/secure.gravatar.com\/avatar\/ad392afd49098e1505b10c168f27050d.jpg?s=72&d=https%3A%2F%2Fa.slack-edge.com%2Fdf10d%2Fimg%2Favatars%2Fava_0004-72.png",
            "first_name": "Jean-Loup",
            "real_name": "Jean-Loup DUBREUCQ",
            "display_name": "jldubreucq",
            "team": "TUU48M0T1",
            "name": "jlmd.jogl",
            "is_restricted": false,
            "is_ultra_restricted": false
        },
        "blocks": [
            {
                "type": "rich_text",
                "block_id": "FcbGB",
                "elements": [
                    {
                        "type": "rich_text_section",
                        "elements": [
                            {
                                "type": "user",
                                "user_id": "U01081Y0TBP"
                            },
                            {
                                "type": "text",
                                "text": " Hi Peter ! Good work !\nDon’t you think that mass centering would be better if the syringe unit was moved above the control unit ?"
                            }
                        ]
                    }
                ]
            }
        ],
        "thread_ts": "1587593370.202700",
        "parent_user_id": "U01081Y0TBP"
    },
    {
        "client_msg_id": "4d33c1ac-f5d3-48a7-9215-26e12cda6680",
        "type": "message",
        "text": "And I do like the option : 1 control unit for each syringe unit ! :wink:",
        "user": "U010U9EHR7T",
        "ts": "1587650312.213100",
        "team": "TUU48M0T1",
        "user_team": "TUU48M0T1",
        "source_team": "TUU48M0T1",
        "user_profile": {
            "avatar_hash": "g36ea42e25d9",
            "image_72": "https:\/\/secure.gravatar.com\/avatar\/ad392afd49098e1505b10c168f27050d.jpg?s=72&d=https%3A%2F%2Fa.slack-edge.com%2Fdf10d%2Fimg%2Favatars%2Fava_0004-72.png",
            "first_name": "Jean-Loup",
            "real_name": "Jean-Loup DUBREUCQ",
            "display_name": "jldubreucq",
            "team": "TUU48M0T1",
            "name": "jlmd.jogl",
            "is_restricted": false,
            "is_ultra_restricted": false
        },
        "blocks": [
            {
                "type": "rich_text",
                "block_id": "Lqc",
                "elements": [
                    {
                        "type": "rich_text_section",
                        "elements": [
                            {
                                "type": "text",
                                "text": "And I do like the option : 1 control unit for each syringe unit ! "
                            },
                            {
                                "type": "emoji",
                                "name": "wink"
                            }
                        ]
                    }
                ]
            }
        ],
        "thread_ts": "1587593370.202700",
        "parent_user_id": "U01081Y0TBP"
    },
    {
        "client_msg_id": "c97610d8-fcea-4725-bba4-ebb4c89d2079",
        "type": "message",
        "text": "Yes, mass centering is a good idea. This could also be done by shifting the unit to the left in the image. I have put the syringe in front, to save height of a single unit. Otherwise, when there would be six, the user needs to reach up or down very far. When I have time I will model your idea to see how far down or up the user needs to reach.",
        "user": "U01081Y0TBP",
        "ts": "1587650611.214300",
        "team": "TUU48M0T1",
        "user_team": "TUU48M0T1",
        "source_team": "TUU48M0T1",
        "user_profile": {
            "avatar_hash": "60ec5b47107a",
            "image_72": "https:\/\/avatars.slack-edge.com\/2020-03-18\/995274181218_60ec5b47107a3bd2ca7d_72.jpg",
            "first_name": "Peter",
            "real_name": "Peter Kooren",
            "display_name": "Peter Kooren",
            "team": "TUU48M0T1",
            "name": "peterkooren",
            "is_restricted": false,
            "is_ultra_restricted": false
        },
        "blocks": [
            {
                "type": "rich_text",
                "block_id": "xhrU=",
                "elements": [
                    {
                        "type": "rich_text_section",
                        "elements": [
                            {
                                "type": "text",
                                "text": "Yes, mass centering is a good idea. This could also be done by shifting the unit to the left in the image. I have put the syringe in front, to save height of a single unit. Otherwise, when there would be six, the user needs to reach up or down very far. When I have time I will model your idea to see how far down or up the user needs to reach."
                            }
                        ]
                    }
                ]
            }
        ],
        "thread_ts": "1587593370.202700",
        "parent_user_id": "U01081Y0TBP"
    },
    {
        "client_msg_id": "acf90c45-6902-40cd-bb05-b6de981e82b8",
        "type": "message",
        "text": "This morning, I asked some COVID-19 unit heads to check the actual number of syringe pumps used in their various departments. Waiting their answers !",
        "user": "U010U9EHR7T",
        "ts": "1587650753.215200",
        "team": "TUU48M0T1",
        "user_team": "TUU48M0T1",
        "source_team": "TUU48M0T1",
        "user_profile": {
            "avatar_hash": "g36ea42e25d9",
            "image_72": "https:\/\/secure.gravatar.com\/avatar\/ad392afd49098e1505b10c168f27050d.jpg?s=72&d=https%3A%2F%2Fa.slack-edge.com%2Fdf10d%2Fimg%2Favatars%2Fava_0004-72.png",
            "first_name": "Jean-Loup",
            "real_name": "Jean-Loup DUBREUCQ",
            "display_name": "jldubreucq",
            "team": "TUU48M0T1",
            "name": "jlmd.jogl",
            "is_restricted": false,
            "is_ultra_restricted": false
        },
        "blocks": [
            {
                "type": "rich_text",
                "block_id": "2N9Qe",
                "elements": [
                    {
                        "type": "rich_text_section",
                        "elements": [
                            {
                                "type": "text",
                                "text": "This morning, I asked some COVID-19 unit heads to check the actual number of syringe pumps used in their various departments. Waiting their answers !"
                            }
                        ]
                    }
                ]
            }
        ]
    },
    {
        "client_msg_id": "ebedae88-e082-45c8-9518-7ef505acd264",
        "type": "message",
        "text": "Remember that the pump should not be placed too high or too low relative to the level of the patient’s heart!",
        "user": "U010U9EHR7T",
        "ts": "1587650904.215300",
        "team": "TUU48M0T1",
        "user_team": "TUU48M0T1",
        "source_team": "TUU48M0T1",
        "user_profile": {
            "avatar_hash": "g36ea42e25d9",
            "image_72": "https:\/\/secure.gravatar.com\/avatar\/ad392afd49098e1505b10c168f27050d.jpg?s=72&d=https%3A%2F%2Fa.slack-edge.com%2Fdf10d%2Fimg%2Favatars%2Fava_0004-72.png",
            "first_name": "Jean-Loup",
            "real_name": "Jean-Loup DUBREUCQ",
            "display_name": "jldubreucq",
            "team": "TUU48M0T1",
            "name": "jlmd.jogl",
            "is_restricted": false,
            "is_ultra_restricted": false
        },
        "blocks": [
            {
                "type": "rich_text",
                "block_id": "4wqA",
                "elements": [
                    {
                        "type": "rich_text_section",
                        "elements": [
                            {
                                "type": "text",
                                "text": "Remember that the pump should not be placed too high or too low relative to the level of the patient’s heart!"
                            }
                        ]
                    }
                ]
            }
        ],
        "thread_ts": "1587593370.202700",
        "parent_user_id": "U01081Y0TBP",
        "reactions": [
            {
                "name": "+1",
                "users": [
                    "U01081Y0TBP"
                ],
                "count": 1
            }
        ]
    },
    {
        "client_msg_id": "9d9e9385-f260-4839-a65d-58962a9fd198",
        "type": "message",
        "text": "I meant : per patient ...",
        "user": "U010U9EHR7T",
        "ts": "1587651081.215800",
        "team": "TUU48M0T1",
        "user_team": "TUU48M0T1",
        "source_team": "TUU48M0T1",
        "user_profile": {
            "avatar_hash": "g36ea42e25d9",
            "image_72": "https:\/\/secure.gravatar.com\/avatar\/ad392afd49098e1505b10c168f27050d.jpg?s=72&d=https%3A%2F%2Fa.slack-edge.com%2Fdf10d%2Fimg%2Favatars%2Fava_0004-72.png",
            "first_name": "Jean-Loup",
            "real_name": "Jean-Loup DUBREUCQ",
            "display_name": "jldubreucq",
            "team": "TUU48M0T1",
            "name": "jlmd.jogl",
            "is_restricted": false,
            "is_ultra_restricted": false
        },
        "blocks": [
            {
                "type": "rich_text",
                "block_id": "lsb",
                "elements": [
                    {
                        "type": "rich_text_section",
                        "elements": [
                            {
                                "type": "text",
                                "text": "I meant : per patient ..."
                            }
                        ]
                    }
                ]
            }
        ],
        "reactions": [
            {
                "name": "+1",
                "users": [
                    "U010B4EJG2C"
                ],
                "count": 1
            }
        ]
    },
    {
        "client_msg_id": "2280B152-518F-4597-B32C-7D53CCCA55A3",
        "type": "message",
        "text": "The answer is 4.5 on average",
        "user": "U0119U5N3T3",
        "ts": "1587662927.216600",
        "team": "TUU48M0T1",
        "user_team": "TUU48M0T1",
        "source_team": "TUU48M0T1",
        "user_profile": {
            "avatar_hash": "b3b38b63650e",
            "image_72": "https:\/\/avatars.slack-edge.com\/2020-04-04\/1047354985190_b3b38b63650e809885b3_72.jpg",
            "first_name": "",
            "real_name": "Sina Booeshaghi",
            "display_name": "Sina Booeshaghi",
            "team": "TUU48M0T1",
            "name": "abooesha",
            "is_restricted": false,
            "is_ultra_restricted": false
        },
        "thread_ts": "1587662927.216600",
        "reply_count": 8,
        "reply_users_count": 4,
        "latest_reply": "1587754752.232200",
        "reply_users": [
            "U01081Y0TBP",
            "U0119U5N3T3",
            "U010U9EHR7T",
            "U0106NJNM17"
        ],
        "replies": [
            {
                "user": "U01081Y0TBP",
                "ts": "1587664996.216700"
            },
            {
                "user": "U0119U5N3T3",
                "ts": "1587665051.217100"
            },
            {
                "user": "U010U9EHR7T",
                "ts": "1587665160.217300"
            },
            {
                "user": "U0119U5N3T3",
                "ts": "1587666659.217800"
            },
            {
                "user": "U0119U5N3T3",
                "ts": "1587666664.218200"
            },
            {
                "user": "U0106NJNM17",
                "ts": "1587678250.225800"
            },
            {
                "user": "U0106NJNM17",
                "ts": "1587678290.226600"
            },
            {
                "user": "U010U9EHR7T",
                "ts": "1587754752.232200"
            }
        ],
        "subscribed": false
    },
    {
        "client_msg_id": "b2fcd922-a63e-42d9-ae36-0342fdd82bb3",
        "type": "message",
        "text": "In Paris or elsewhere?",
        "user": "U01081Y0TBP",
        "ts": "1587664996.216700",
        "team": "TUU48M0T1",
        "user_team": "TUU48M0T1",
        "source_team": "TUU48M0T1",
        "user_profile": {
            "avatar_hash": "60ec5b47107a",
            "image_72": "https:\/\/avatars.slack-edge.com\/2020-03-18\/995274181218_60ec5b47107a3bd2ca7d_72.jpg",
            "first_name": "Peter",
            "real_name": "Peter Kooren",
            "display_name": "Peter Kooren",
            "team": "TUU48M0T1",
            "name": "peterkooren",
            "is_restricted": false,
            "is_ultra_restricted": false
        },
        "blocks": [
            {
                "type": "rich_text",
                "block_id": "hHe",
                "elements": [
                    {
                        "type": "rich_text_section",
                        "elements": [
                            {
                                "type": "text",
                                "text": "In Paris or elsewhere?"
                            }
                        ]
                    }
                ]
            }
        ],
        "thread_ts": "1587662927.216600",
        "parent_user_id": "U0119U5N3T3"
    },
    {
        "client_msg_id": "dd7fbe13-9fa3-4e72-a38e-6fb6f5a1da48",
        "type": "message",
        "text": "let me find the citation",
        "user": "U0119U5N3T3",
        "ts": "1587665051.217100",
        "team": "TUU48M0T1",
        "user_team": "TUU48M0T1",
        "source_team": "TUU48M0T1",
        "user_profile": {
            "avatar_hash": "b3b38b63650e",
            "image_72": "https:\/\/avatars.slack-edge.com\/2020-04-04\/1047354985190_b3b38b63650e809885b3_72.jpg",
            "first_name": "",
            "real_name": "Sina Booeshaghi",
            "display_name": "Sina Booeshaghi",
            "team": "TUU48M0T1",
            "name": "abooesha",
            "is_restricted": false,
            "is_ultra_restricted": false
        },
        "blocks": [
            {
                "type": "rich_text",
                "block_id": "0m+wa",
                "elements": [
                    {
                        "type": "rich_text_section",
                        "elements": [
                            {
                                "type": "text",
                                "text": "let me find the citation"
                            }
                        ]
                    }
                ]
            }
        ],
        "thread_ts": "1587662927.216600",
        "parent_user_id": "U0119U5N3T3"
    },
    {
        "client_msg_id": "b26203fa-5229-433c-9bf5-86438be41d17",
        "type": "message",
        "text": ":+1:",
        "user": "U010U9EHR7T",
        "ts": "1587665160.217300",
        "team": "TUU48M0T1",
        "user_team": "TUU48M0T1",
        "source_team": "TUU48M0T1",
        "user_profile": {
            "avatar_hash": "g36ea42e25d9",
            "image_72": "https:\/\/secure.gravatar.com\/avatar\/ad392afd49098e1505b10c168f27050d.jpg?s=72&d=https%3A%2F%2Fa.slack-edge.com%2Fdf10d%2Fimg%2Favatars%2Fava_0004-72.png",
            "first_name": "Jean-Loup",
            "real_name": "Jean-Loup DUBREUCQ",
            "display_name": "jldubreucq",
            "team": "TUU48M0T1",
            "name": "jlmd.jogl",
            "is_restricted": false,
            "is_ultra_restricted": false
        },
        "blocks": [
            {
                "type": "rich_text",
                "block_id": "Sg2e",
                "elements": [
                    {
                        "type": "rich_text_section",
                        "elements": [
                            {
                                "type": "emoji",
                                "name": "+1"
                            }
                        ]
                    }
                ]
            }
        ],
        "thread_ts": "1587662927.216600",
        "parent_user_id": "U0119U5N3T3"
    },
    {
        "client_msg_id": "95FE707F-4601-4404-A4C4-11EC96CFA974",
        "type": "message",
        "text": "<https:\/\/icm-experimental.springeropen.com\/articles\/10.1186\/2197-425X-3-S1-A555>\n\nI guess this is infusion pumps ",
        "user": "U0119U5N3T3",
        "ts": "1587666659.217800",
        "team": "TUU48M0T1",
        "user_team": "TUU48M0T1",
        "source_team": "TUU48M0T1",
        "user_profile": {
            "avatar_hash": "b3b38b63650e",
            "image_72": "https:\/\/avatars.slack-edge.com\/2020-04-04\/1047354985190_b3b38b63650e809885b3_72.jpg",
            "first_name": "",
            "real_name": "Sina Booeshaghi",
            "display_name": "Sina Booeshaghi",
            "team": "TUU48M0T1",
            "name": "abooesha",
            "is_restricted": false,
            "is_ultra_restricted": false
        },
        "attachments": [
            {
                "service_name": "Intensive Care Medicine Experimental",
                "title": "An analysis of IV tubing in an intensive care unit. is there room for improvement?",
                "title_link": "https:\/\/icm-experimental.springeropen.com\/articles\/10.1186\/2197-425X-3-S1-A555",
                "fallback": "Intensive Care Medicine Experimental: An analysis of IV tubing in an intensive care unit. is there room for improvement?",
                "image_url": "https:\/\/media.springernature.com\/w110\/springer-static\/cover\/journal\/40635.jpg",
                "from_url": "https:\/\/icm-experimental.springeropen.com\/articles\/10.1186\/2197-425X-3-S1-A555",
                "image_width": 110,
                "image_height": 145,
                "image_bytes": 5106,
                "id": 1,
                "original_url": "https:\/\/icm-experimental.springeropen.com\/articles\/10.1186\/2197-425X-3-S1-A555"
            }
        ],
        "thread_ts": "1587662927.216600",
        "parent_user_id": "U0119U5N3T3"
    },
    {
        "client_msg_id": "F7163519-5CE8-4C5B-8A2D-26B8DEACD7E8",
        "type": "message",
        "text": "Which is not the same",
        "user": "U0119U5N3T3",
        "ts": "1587666664.218200",
        "team": "TUU48M0T1",
        "user_team": "TUU48M0T1",
        "source_team": "TUU48M0T1",
        "user_profile": {
            "avatar_hash": "b3b38b63650e",
            "image_72": "https:\/\/avatars.slack-edge.com\/2020-04-04\/1047354985190_b3b38b63650e809885b3_72.jpg",
            "first_name": "",
            "real_name": "Sina Booeshaghi",
            "display_name": "Sina Booeshaghi",
            "team": "TUU48M0T1",
            "name": "abooesha",
            "is_restricted": false,
            "is_ultra_restricted": false
        },
        "thread_ts": "1587662927.216600",
        "parent_user_id": "U0119U5N3T3"
    },
    {
        "client_msg_id": "75d213f0-c70f-45b7-a562-ee72b0eec003",
        "type": "message",
        "text": "<!channel> Meeting in 17 minutes",
        "user": "U0119U5N3T3",
        "ts": "1587667396.218600",
        "team": "TUU48M0T1",
        "user_team": "TUU48M0T1",
        "source_team": "TUU48M0T1",
        "user_profile": {
            "avatar_hash": "b3b38b63650e",
            "image_72": "https:\/\/avatars.slack-edge.com\/2020-04-04\/1047354985190_b3b38b63650e809885b3_72.jpg",
            "first_name": "",
            "real_name": "Sina Booeshaghi",
            "display_name": "Sina Booeshaghi",
            "team": "TUU48M0T1",
            "name": "abooesha",
            "is_restricted": false,
            "is_ultra_restricted": false
        },
        "blocks": [
            {
                "type": "rich_text",
                "block_id": "rx=A=",
                "elements": [
                    {
                        "type": "rich_text_section",
                        "elements": [
                            {
                                "type": "broadcast",
                                "range": "channel"
                            },
                            {
                                "type": "text",
                                "text": " Meeting in 17 minutes"
                            }
                        ]
                    }
                ]
            }
        ],
        "reactions": [
            {
                "name": "+1",
                "users": [
                    "UV02WET96",
                    "U010B4EJG2C"
                ],
                "count": 2
            }
        ]
    },
    {
        "client_msg_id": "76af5bbf-f341-4040-8710-d22eb99aa1ee",
        "type": "message",
        "text": "<@U0119U5N3T3> we’ll have to use your zoom channel",
        "user": "UV02WET96",
        "ts": "1587667848.219000",
        "team": "TUU48M0T1",
        "user_team": "TUU48M0T1",
        "source_team": "TUU48M0T1",
        "user_profile": {
            "avatar_hash": "a99c74a194f8",
            "image_72": "https:\/\/avatars.slack-edge.com\/2020-03-07\/975708504851_a99c74a194f86715ca7d_72.png",
            "first_name": "Thomas",
            "real_name": "Thomas Landrain",
            "display_name": "Thomas Landrain - JOGL CoFounder \/ CEO",
            "team": "TUU48M0T1",
            "name": "thomas",
            "is_restricted": false,
            "is_ultra_restricted": false
        },
        "blocks": [
            {
                "type": "rich_text",
                "block_id": "du66",
                "elements": [
                    {
                        "type": "rich_text_section",
                        "elements": [
                            {
                                "type": "user",
                                "user_id": "U0119U5N3T3"
                            },
                            {
                                "type": "text",
                                "text": " we’ll have to use your zoom channel"
                            }
                        ]
                    }
                ]
            }
        ]
    },
    {
        "type": "message",
        "subtype": "bot_message",
        "text": "abooesha has started a meeting",
        "ts": "1587667891.219100",
        "bot_id": "B0104LYRTBR",
        "blocks": [
            {
                "type": "call",
                "call_id": "R0134C9JJ64",
                "block_id": "hUQ",
                "api_decoration_available": false,
                "call": {
                    "v1": {
                        "id": "R0134C9JJ64",
                        "app_id": "A5GE9BMQC",
                        "app_icon_urls": {
                            "image_32": "https:\/\/slack-files2.s3-us-west-2.amazonaws.com\/avatars\/2017-09-21\/245295805989_06e77af1bfb8e3c81d4d_32.png",
                            "image_36": "https:\/\/slack-files2.s3-us-west-2.amazonaws.com\/avatars\/2017-09-21\/245295805989_06e77af1bfb8e3c81d4d_36.png",
                            "image_48": "https:\/\/slack-files2.s3-us-west-2.amazonaws.com\/avatars\/2017-09-21\/245295805989_06e77af1bfb8e3c81d4d_48.png",
                            "image_64": "https:\/\/slack-files2.s3-us-west-2.amazonaws.com\/avatars\/2017-09-21\/245295805989_06e77af1bfb8e3c81d4d_64.png",
                            "image_72": "https:\/\/slack-files2.s3-us-west-2.amazonaws.com\/avatars\/2017-09-21\/245295805989_06e77af1bfb8e3c81d4d_72.png",
                            "image_96": "https:\/\/slack-files2.s3-us-west-2.amazonaws.com\/avatars\/2017-09-21\/245295805989_06e77af1bfb8e3c81d4d_96.png",
                            "image_128": "https:\/\/slack-files2.s3-us-west-2.amazonaws.com\/avatars\/2017-09-21\/245295805989_06e77af1bfb8e3c81d4d_128.png",
                            "image_192": "https:\/\/slack-files2.s3-us-west-2.amazonaws.com\/avatars\/2017-09-21\/245295805989_06e77af1bfb8e3c81d4d_192.png",
                            "image_512": "https:\/\/slack-files2.s3-us-west-2.amazonaws.com\/avatars\/2017-09-21\/245295805989_06e77af1bfb8e3c81d4d_512.png",
                            "image_1024": "https:\/\/slack-files2.s3-us-west-2.amazonaws.com\/avatars\/2017-09-21\/245295805989_06e77af1bfb8e3c81d4d_1024.png",
                            "image_original": "https:\/\/slack-files2.s3-us-west-2.amazonaws.com\/avatars\/2017-09-21\/245295805989_06e77af1bfb8e3c81d4d_original.png"
                        },
                        "date_start": 1587667891,
                        "active_participants": [],
                        "all_participants": [
                            {
                                "external_id": "16778240",
                                "avatar_url": "",
                                "display_name": "Adam Krovina"
                            },
                            {
                                "slack_id": "U0119U5N3T3"
                            },
                            {
                                "external_id": "16781312",
                                "avatar_url": "",
                                "display_name": "gauthier"
                            },
                            {
                                "external_id": "16780288",
                                "avatar_url": "",
                                "display_name": "jlmd"
                            },
                            {
                                "external_id": "mZ5ABupdSXmhBL16ZAhQ7w",
                                "avatar_url": "",
                                "display_name": "Christian CHABRERIE"
                            },
                            {
                                "external_id": "16783360",
                                "avatar_url": "",
                                "display_name": "Peter"
                            },
                            {
                                "external_id": "16784384",
                                "avatar_url": "",
                                "display_name": "3368****842"
                            },
                            {
                                "external_id": "l-N5Eoh7SDy-_k7TrzlOPA",
                                "avatar_url": "",
                                "display_name": "Thomas Landrain"
                            },
                            {
                                "external_id": "16786432",
                                "avatar_url": "",
                                "display_name": "Chetan"
                            },
                            {
                                "external_id": "16787456",
                                "avatar_url": "",
                                "display_name": "Philippe Cochin"
                            }
                        ],
                        "display_id": "991-6863-7243",
                        "join_url": "https:\/\/applications.zoom.us\/event\/callback\/slack\/99168637243?startUrl=N9U1pgb7fmOGClZrwYUqwftbMWH6apyirX8COc5IBe_s3mLTNPgCclffMX-tsO1jCC9NF1I&state=JIM1sxSsGCjHURhL8bN218wECj32M83-qzFYa6oNWKuWjXLdJdOxL7DWDvX9B5XkgNwYDb94KsZIm1UuuGqUlZjl0QOw1NVl_m15DGSfq5EYo87ZwMjl3Y8kNtSqx7Apu7kZ_fQdfTfgzOvjULYEf765yJf-A8w2aq5ge3XitzZRhmWLZtZgDiFbLe7yoJBG9feS2CTY8E2vSw3XSc0a0av_NwpmiBdt1-pJgHxB2UBcJuWcce1NamMkTwP5AQe2tXbTN90eFg",
                        "name": "Zoom meeting started by abooesha",
                        "created_by": "U0104LYS2J3",
                        "date_end": 1587667951,
                        "channels": [
                            "C011AQ00L5V"
                        ],
                        "is_dm_call": false,
                        "was_rejected": false,
                        "was_missed": false,
                        "was_accepted": false,
                        "has_ended": true
                    }
                }
            }
        ]
    },
    {
        "client_msg_id": "64761343-5302-4093-8532-d975619ed3bf",
        "type": "message",
        "text": "I’m super proud of our group, let’s stay humble and move forward on things that matter. We’ll end up rocking a mountain :fire:",
        "user": "UV02WET96",
        "ts": "1587672207.222400",
        "team": "TUU48M0T1",
        "user_team": "TUU48M0T1",
        "source_team": "TUU48M0T1",
        "user_profile": {
            "avatar_hash": "a99c74a194f8",
            "image_72": "https:\/\/avatars.slack-edge.com\/2020-03-07\/975708504851_a99c74a194f86715ca7d_72.png",
            "first_name": "Thomas",
            "real_name": "Thomas Landrain",
            "display_name": "Thomas Landrain - JOGL CoFounder \/ CEO",
            "team": "TUU48M0T1",
            "name": "thomas",
            "is_restricted": false,
            "is_ultra_restricted": false
        },
        "blocks": [
            {
                "type": "rich_text",
                "block_id": "syTgx",
                "elements": [
                    {
                        "type": "rich_text_section",
                        "elements": [
                            {
                                "type": "text",
                                "text": "I’m super proud of our group, let’s stay humble and move forward on things that matter. We’ll end up rocking a mountain "
                            },
                            {
                                "type": "emoji",
                                "name": "fire"
                            }
                        ]
                    }
                ]
            }
        ],
        "reactions": [
            {
                "name": "raised_hands",
                "users": [
                    "U0119U5N3T3",
                    "U010B4EJG2C",
                    "U010Q1JH9FT",
                    "UV02WET96"
                ],
                "count": 4
            }
        ]
    },
    {
        "client_msg_id": "6bb778d0-3d1c-4e28-9861-f11464fdba20",
        "type": "message",
        "text": "I added syringe electronics folder into google drive with schematic and unfinished board. Its zipped and can be opened in kicad (free pcb editor)",
        "user": "U0117TTQP18",
        "ts": "1587677850.225400",
        "team": "TUU48M0T1",
        "user_team": "TUU48M0T1",
        "source_team": "TUU48M0T1",
        "user_profile": {
            "avatar_hash": "gb631896675f",
            "image_72": "https:\/\/secure.gravatar.com\/avatar\/b631896675fb3fa92fcbe60e9365967d.jpg?s=72&d=https%3A%2F%2Fa.slack-edge.com%2Fdf10d%2Fimg%2Favatars%2Fava_0017-72.png",
            "first_name": "",
            "real_name": "Rado Nerad",
            "display_name": "Rado Nerad",
            "team": "TUU48M0T1",
            "name": "orgo",
            "is_restricted": false,
            "is_ultra_restricted": false
        },
        "blocks": [
            {
                "type": "rich_text",
                "block_id": "j97i",
                "elements": [
                    {
                        "type": "rich_text_section",
                        "elements": [
                            {
                                "type": "text",
                                "text": "I added syringe electronics folder into google drive with schematic and unfinished board. Its zipped and can be opened in kicad (free pcb editor)"
                            }
                        ]
                    }
                ]
            }
        ],
        "thread_ts": "1587677850.225400",
        "reply_count": 2,
        "reply_users_count": 2,
        "latest_reply": "1587757184.236400",
        "reply_users": [
            "U01188XCK19",
            "U010B4EJG2C"
        ],
        "replies": [
            {
                "user": "U01188XCK19",
                "ts": "1587687424.227800"
            },
            {
                "user": "U010B4EJG2C",
                "ts": "1587757184.236400"
            }
        ],
        "subscribed": false,
        "reactions": [
            {
                "name": "muscle",
                "users": [
                    "U01081Y0TBP"
                ],
                "count": 1
            },
            {
                "name": "+1",
                "users": [
                    "U010F2PUXRS",
                    "U010B4EJG2C"
                ],
                "count": 2
            }
        ]
    },
    {
        "client_msg_id": "534ba378-a672-4613-a5e2-5214ba4a3e14",
        "type": "message",
        "text": "Thank you Thomas. I did it and now it works",
        "user": "U0117TTQP18",
        "ts": "1587677892.225500",
        "team": "TUU48M0T1",
        "user_team": "TUU48M0T1",
        "source_team": "TUU48M0T1",
        "user_profile": {
            "avatar_hash": "gb631896675f",
            "image_72": "https:\/\/secure.gravatar.com\/avatar\/b631896675fb3fa92fcbe60e9365967d.jpg?s=72&d=https%3A%2F%2Fa.slack-edge.com%2Fdf10d%2Fimg%2Favatars%2Fava_0017-72.png",
            "first_name": "",
            "real_name": "Rado Nerad",
            "display_name": "Rado Nerad",
            "team": "TUU48M0T1",
            "name": "orgo",
            "is_restricted": false,
            "is_ultra_restricted": false
        },
        "blocks": [
            {
                "type": "rich_text",
                "block_id": "GGES",
                "elements": [
                    {
                        "type": "rich_text_section",
                        "elements": [
                            {
                                "type": "text",
                                "text": "Thank you Thomas. I did it and now it works"
                            }
                        ]
                    }
                ]
            }
        ],
        "thread_ts": "1587591770.194200",
        "parent_user_id": "U0117TTQP18"
    },
    {
        "client_msg_id": "A68E310A-567E-4B98-A4CC-0DCD08C2682A",
        "type": "message",
        "text": "Yes indeed ",
        "user": "U0106NJNM17",
        "ts": "1587678250.225800",
        "team": "TUU48M0T1",
        "user_team": "TUU48M0T1",
        "source_team": "TUU48M0T1",
        "user_profile": {
            "avatar_hash": "gc09b413a2fb",
            "image_72": "https:\/\/secure.gravatar.com\/avatar\/c09b413a2fb05b3c1097e14a64b9092c.jpg?s=72&d=https%3A%2F%2Fa.slack-edge.com%2Fdf10d%2Fimg%2Favatars%2Fava_0000-72.png",
            "first_name": "",
            "real_name": "Guillaume Tassin",
            "display_name": "",
            "team": "TUU48M0T1",
            "name": "guillaume.tassin",
            "is_restricted": false,
            "is_ultra_restricted": false
        },
        "blocks": [
            {
                "type": "rich_text",
                "block_id": "dQoS",
                "elements": [
                    {
                        "type": "rich_text_section",
                        "elements": [
                            {
                                "type": "text",
                                "text": "Yes indeed "
                            }
                        ]
                    }
                ]
            }
        ],
        "thread_ts": "1587662927.216600",
        "parent_user_id": "U0119U5N3T3"
    },
    {
        "client_msg_id": "B61A980A-8083-4118-A978-C051043CE51D",
        "type": "message",
        "text": "Did you guys manage to have the average number in Paris for PSE?",
        "user": "U0106NJNM17",
        "ts": "1587678290.226600",
        "team": "TUU48M0T1",
        "user_team": "TUU48M0T1",
        "source_team": "TUU48M0T1",
        "user_profile": {
            "avatar_hash": "gc09b413a2fb",
            "image_72": "https:\/\/secure.gravatar.com\/avatar\/c09b413a2fb05b3c1097e14a64b9092c.jpg?s=72&d=https%3A%2F%2Fa.slack-edge.com%2Fdf10d%2Fimg%2Favatars%2Fava_0000-72.png",
            "first_name": "",
            "real_name": "Guillaume Tassin",
            "display_name": "",
            "team": "TUU48M0T1",
            "name": "guillaume.tassin",
            "is_restricted": false,
            "is_ultra_restricted": false
        },
        "blocks": [
            {
                "type": "rich_text",
                "block_id": "fRh9",
                "elements": [
                    {
                        "type": "rich_text_section",
                        "elements": [
                            {
                                "type": "text",
                                "text": "Did you guys manage to have the average number in Paris for PSE?"
                            }
                        ]
                    }
                ]
            }
        ],
        "thread_ts": "1587662927.216600",
        "parent_user_id": "U0119U5N3T3"
    },
    {
        "client_msg_id": "3ac1c784-8925-4df7-ac82-4f4eae624b0b",
        "type": "message",
        "text": "<@U010U9EHR7T> both planned extensions ( linear or rotary encoder, and DRO ) to the current systems would be closed loop. the very first implementation I'm working on now is open loop just because that's the default. the closed loop versions are planned, I've even gotten hardware to dev them et",
        "user": "U01188XCK19",
        "ts": "1587687242.227000",
        "team": "TUU48M0T1",
        "user_team": "TUU48M0T1",
        "source_team": "TUU48M0T1",
        "user_profile": {
            "avatar_hash": "gd85edfb45fa",
            "image_72": "https:\/\/secure.gravatar.com\/avatar\/d85edfb45fa87b47ea33da26228d07dd.jpg?s=72&d=https%3A%2F%2Fa.slack-edge.com%2Fdf10d%2Fimg%2Favatars%2Fava_0011-72.png",
            "first_name": "",
            "real_name": "wolf arthur",
            "display_name": "wolf arthur",
            "team": "TUU48M0T1",
            "name": "wolf.arthur",
            "is_restricted": false,
            "is_ultra_restricted": false
        },
        "blocks": [
            {
                "type": "rich_text",
                "block_id": "AerX",
                "elements": [
                    {
                        "type": "rich_text_section",
                        "elements": [
                            {
                                "type": "user",
                                "user_id": "U010U9EHR7T"
                            },
                            {
                                "type": "text",
                                "text": " both planned extensions ( linear or rotary encoder, and DRO ) to the current systems would be closed loop. the very first implementation I'm working on now is open loop just because that's the default. the closed loop versions are planned, I've even gotten hardware to dev them et"
                            }
                        ]
                    }
                ]
            }
        ],
        "thread_ts": "1587593402.202900",
        "parent_user_id": "U0117TTQP18"
    },
    {
        "client_msg_id": "bed9cde5-ad2e-462c-8110-acd04fdca48d",
        "type": "message",
        "text": "there's really *zero* risk as long as the steppers are correctly specced though, at least in terms of stepper slippage",
        "user": "U01188XCK19",
        "ts": "1587687272.227200",
        "team": "TUU48M0T1",
        "user_team": "TUU48M0T1",
        "source_team": "TUU48M0T1",
        "user_profile": {
            "avatar_hash": "gd85edfb45fa",
            "image_72": "https:\/\/secure.gravatar.com\/avatar\/d85edfb45fa87b47ea33da26228d07dd.jpg?s=72&d=https%3A%2F%2Fa.slack-edge.com%2Fdf10d%2Fimg%2Favatars%2Fava_0011-72.png",
            "first_name": "",
            "real_name": "wolf arthur",
            "display_name": "wolf arthur",
            "team": "TUU48M0T1",
            "name": "wolf.arthur",
            "is_restricted": false,
            "is_ultra_restricted": false
        },
        "blocks": [
            {
                "type": "rich_text",
                "block_id": "Q9H3",
                "elements": [
                    {
                        "type": "rich_text_section",
                        "elements": [
                            {
                                "type": "text",
                                "text": "there's really "
                            },
                            {
                                "type": "text",
                                "text": "zero",
                                "style": {
                                    "bold": true
                                }
                            },
                            {
                                "type": "text",
                                "text": " risk as long as the steppers are correctly specced though, at least in terms of stepper slippage"
                            }
                        ]
                    }
                ]
            }
        ],
        "thread_ts": "1587593402.202900",
        "parent_user_id": "U0117TTQP18"
    },
    {
        "client_msg_id": "7be4ca34-e5ab-4979-b333-2bfd2df0d32c",
        "type": "message",
        "text": "the closing of the loop isn't about some issue with the motors or drivers, it's about fears of user error, things getting mechanically stuck etc",
        "user": "U01188XCK19",
        "ts": "1587687306.227400",
        "team": "TUU48M0T1",
        "user_team": "TUU48M0T1",
        "source_team": "TUU48M0T1",
        "user_profile": {
            "avatar_hash": "gd85edfb45fa",
            "image_72": "https:\/\/secure.gravatar.com\/avatar\/d85edfb45fa87b47ea33da26228d07dd.jpg?s=72&d=https%3A%2F%2Fa.slack-edge.com%2Fdf10d%2Fimg%2Favatars%2Fava_0011-72.png",
            "first_name": "",
            "real_name": "wolf arthur",
            "display_name": "wolf arthur",
            "team": "TUU48M0T1",
            "name": "wolf.arthur",
            "is_restricted": false,
            "is_ultra_restricted": false
        },
        "blocks": [
            {
                "type": "rich_text",
                "block_id": "VuW",
                "elements": [
                    {
                        "type": "rich_text_section",
                        "elements": [
                            {
                                "type": "text",
                                "text": "the closing of the loop isn't about some issue with the motors or drivers, it's about fears of user error, things getting mechanically stuck etc"
                            }
                        ]
                    }
                ]
            }
        ],
        "thread_ts": "1587593402.202900",
        "parent_user_id": "U0117TTQP18"
    },
    {
        "client_msg_id": "7db495ad-fa9d-41a2-b095-6c2a79526522",
        "type": "message",
        "text": "stepper motors and drivers are otherwise insanely reliable",
        "user": "U01188XCK19",
        "ts": "1587687314.227600",
        "team": "TUU48M0T1",
        "user_team": "TUU48M0T1",
        "source_team": "TUU48M0T1",
        "user_profile": {
            "avatar_hash": "gd85edfb45fa",
            "image_72": "https:\/\/secure.gravatar.com\/avatar\/d85edfb45fa87b47ea33da26228d07dd.jpg?s=72&d=https%3A%2F%2Fa.slack-edge.com%2Fdf10d%2Fimg%2Favatars%2Fava_0011-72.png",
            "first_name": "",
            "real_name": "wolf arthur",
            "display_name": "wolf arthur",
            "team": "TUU48M0T1",
            "name": "wolf.arthur",
            "is_restricted": false,
            "is_ultra_restricted": false
        },
        "blocks": [
            {
                "type": "rich_text",
                "block_id": "T9i",
                "elements": [
                    {
                        "type": "rich_text_section",
                        "elements": [
                            {
                                "type": "text",
                                "text": "stepper motors and drivers are otherwise insanely reliable"
                            }
                        ]
                    }
                ]
            }
        ],
        "thread_ts": "1587593402.202900",
        "parent_user_id": "U0117TTQP18"
    },
    {
        "client_msg_id": "97b66945-6e32-4f92-b240-7f0b966d2dcb",
        "type": "message",
        "text": "got a pic?",
        "user": "U01188XCK19",
        "ts": "1587687424.227800",
        "team": "TUU48M0T1",
        "user_team": "TUU48M0T1",
        "source_team": "TUU48M0T1",
        "user_profile": {
            "avatar_hash": "gd85edfb45fa",
            "image_72": "https:\/\/secure.gravatar.com\/avatar\/d85edfb45fa87b47ea33da26228d07dd.jpg?s=72&d=https%3A%2F%2Fa.slack-edge.com%2Fdf10d%2Fimg%2Favatars%2Fava_0011-72.png",
            "first_name": "",
            "real_name": "wolf arthur",
            "display_name": "wolf arthur",
            "team": "TUU48M0T1",
            "name": "wolf.arthur",
            "is_restricted": false,
            "is_ultra_restricted": false
        },
        "blocks": [
            {
                "type": "rich_text",
                "block_id": "dvfB2",
                "elements": [
                    {
                        "type": "rich_text_section",
                        "elements": [
                            {
                                "type": "text",
                                "text": "got a pic?"
                            }
                        ]
                    }
                ]
            }
        ],
        "thread_ts": "1587677850.225400",
        "parent_user_id": "U0117TTQP18"
    }
]