[
    {
        "client_msg_id": "e08e4076-3358-4675-bc2d-21898ee425d2",
        "type": "message",
        "text": "Hey everyone, here is the link for our meeting: <https:\/\/zoom.us\/j\/7804345815?pwd=Y25OZWRBL3pMNG5NZDN4VHM1Mlc3UT09>",
        "user": "UV02WET96",
        "ts": "1586185256.215200",
        "team": "TUU48M0T1",
        "user_team": "TUU48M0T1",
        "source_team": "TUU48M0T1",
        "user_profile": {
            "avatar_hash": "a99c74a194f8",
            "image_72": "https:\/\/avatars.slack-edge.com\/2020-03-07\/975708504851_a99c74a194f86715ca7d_72.png",
            "first_name": "Thomas",
            "real_name": "Thomas Landrain",
            "display_name": "Thomas Landrain - JOGL CoFounder \/ CEO",
            "team": "TUU48M0T1",
            "name": "thomas",
            "is_restricted": false,
            "is_ultra_restricted": false
        },
        "blocks": [
            {
                "type": "rich_text",
                "block_id": "BRaN",
                "elements": [
                    {
                        "type": "rich_text_section",
                        "elements": [
                            {
                                "type": "text",
                                "text": "Hey everyone, here is the link for our meeting: "
                            },
                            {
                                "type": "link",
                                "url": "https:\/\/zoom.us\/j\/7804345815?pwd=Y25OZWRBL3pMNG5NZDN4VHM1Mlc3UT09"
                            }
                        ]
                    }
                ]
            }
        ],
        "thread_ts": "1586185256.215200",
        "reply_count": 3,
        "reply_users_count": 2,
        "latest_reply": "1586212311.215800",
        "reply_users": [
            "UV5C2TFCH",
            "UV02WET96"
        ],
        "replies": [
            {
                "user": "UV5C2TFCH",
                "ts": "1586188855.215300"
            },
            {
                "user": "UV02WET96",
                "ts": "1586190423.215500"
            },
            {
                "user": "UV5C2TFCH",
                "ts": "1586212311.215800"
            }
        ],
        "subscribed": false
    },
    {
        "client_msg_id": "8634a742-904c-413c-a913-22062ac84711",
        "type": "message",
        "text": "Is this time our weekly regular meeting? or is there another time as well? thanks for the help :)",
        "user": "UV5C2TFCH",
        "ts": "1586188855.215300",
        "team": "TUU48M0T1",
        "user_team": "TUU48M0T1",
        "source_team": "TUU48M0T1",
        "user_profile": {
            "avatar_hash": "a4f88622caa0",
            "image_72": "https:\/\/avatars.slack-edge.com\/2020-03-17\/997014072945_a4f88622caa0f9ec4968_72.jpg",
            "first_name": "",
            "real_name": "Sangita Vasikaran",
            "display_name": "",
            "team": "TUU48M0T1",
            "name": "sangitavv",
            "is_restricted": false,
            "is_ultra_restricted": false
        },
        "blocks": [
            {
                "type": "rich_text",
                "block_id": "2564V",
                "elements": [
                    {
                        "type": "rich_text_section",
                        "elements": [
                            {
                                "type": "text",
                                "text": "Is this time our weekly regular meeting? or is there another time as well? thanks for the help :)"
                            }
                        ]
                    }
                ]
            }
        ],
        "thread_ts": "1586185256.215200",
        "parent_user_id": "UV02WET96"
    },
    {
        "client_msg_id": "2ad80e77-b650-427f-9c5a-a2ed75360ab5",
        "type": "message",
        "text": "So far we have a meeting every Monday and Thursday at 6pm CET (Paris time)",
        "user": "UV02WET96",
        "ts": "1586190423.215500",
        "team": "TUU48M0T1",
        "user_team": "TUU48M0T1",
        "source_team": "TUU48M0T1",
        "user_profile": {
            "avatar_hash": "a99c74a194f8",
            "image_72": "https:\/\/avatars.slack-edge.com\/2020-03-07\/975708504851_a99c74a194f86715ca7d_72.png",
            "first_name": "Thomas",
            "real_name": "Thomas Landrain",
            "display_name": "Thomas Landrain - JOGL CoFounder \/ CEO",
            "team": "TUU48M0T1",
            "name": "thomas",
            "is_restricted": false,
            "is_ultra_restricted": false
        },
        "blocks": [
            {
                "type": "rich_text",
                "block_id": "gg0LO",
                "elements": [
                    {
                        "type": "rich_text_section",
                        "elements": [
                            {
                                "type": "text",
                                "text": "So far we have a meeting every Monday and Thursday at 6pm CET (Paris time)"
                            }
                        ]
                    }
                ]
            }
        ],
        "thread_ts": "1586185256.215200",
        "parent_user_id": "UV02WET96"
    },
    {
        "client_msg_id": "ba092e03-9451-4feb-861d-1c8b9ede0c1a",
        "type": "message",
        "text": "Awesome! Thanks for letting me know :slightly_smiling_face:",
        "user": "UV5C2TFCH",
        "ts": "1586212311.215800",
        "team": "TUU48M0T1",
        "user_team": "TUU48M0T1",
        "source_team": "TUU48M0T1",
        "user_profile": {
            "avatar_hash": "a4f88622caa0",
            "image_72": "https:\/\/avatars.slack-edge.com\/2020-03-17\/997014072945_a4f88622caa0f9ec4968_72.jpg",
            "first_name": "",
            "real_name": "Sangita Vasikaran",
            "display_name": "",
            "team": "TUU48M0T1",
            "name": "sangitavv",
            "is_restricted": false,
            "is_ultra_restricted": false
        },
        "blocks": [
            {
                "type": "rich_text",
                "block_id": "+Swd",
                "elements": [
                    {
                        "type": "rich_text_section",
                        "elements": [
                            {
                                "type": "text",
                                "text": "Awesome! Thanks for letting me know "
                            },
                            {
                                "type": "emoji",
                                "name": "slightly_smiling_face"
                            }
                        ]
                    }
                ]
            }
        ],
        "thread_ts": "1586185256.215200",
        "parent_user_id": "UV02WET96"
    }
]