[
    {
        "client_msg_id": "13765520-643e-4416-8742-6118261d4828",
        "type": "message",
        "text": "Here’s a COVID19 detection protocol using a nested RPA-LAMP reaction that doesn’t require opening the tube and claims to be 10-100 times more sensitive than RT-qPCR or normal LAMP <https:\/\/chemrxiv.org\/articles\/A_Single_and_Two-Stage_Closed-Tube_Molecular_Test_for_the_2019_Novel_Coronavirus_COVID-19_at_Home_Clinic_and_Points_of_Entry\/11860137\/1>",
        "user": "UUNGFHSV8",
        "ts": "1585146665.001500",
        "team": "TUU48M0T1",
        "user_team": "TUU48M0T1",
        "source_team": "TUU48M0T1",
        "user_profile": {
            "avatar_hash": "1c55ee32397a",
            "image_72": "https:\/\/avatars.slack-edge.com\/2020-03-07\/987349161984_1c55ee32397a85a87ec4_72.png",
            "first_name": "Isaac",
            "real_name": "Isaac Larkin",
            "display_name": "Isaac Larkin",
            "team": "TUU48M0T1",
            "name": "eyesmo",
            "is_restricted": false,
            "is_ultra_restricted": false
        },
        "edited": {
            "user": "UUNGFHSV8",
            "ts": "1585147125.000000"
        },
        "attachments": [
            {
                "service_name": "figshare",
                "title": "A Single and Two-Stage, Closed-Tube, Molecular Test for the 2019 Novel Coronavirus (COVID-19) at Home, Clinic, and Points of Entry",
                "title_link": "https:\/\/chemrxiv.org\/articles\/A_Single_and_Two-Stage_Closed-Tube_Molecular_Test_for_the_2019_Novel_Coronavirus_COVID-19_at_Home_Clinic_and_Points_of_Entry\/11860137\/1",
                "text": "The 2019 novel coronavirus (COVID-19) is a newly emerged strain that has never been found in humans before. At present, the laboratory-based reverse transcription-polymerase chain reaction (RT-PCR) is the main method to confirm COVID-19 infection. The intensification of the COVID-19 epidemic overwhelms limited clinical resources in particular, but not only, in developing countries, resulting in many patients not being tested for the infection and in large queues of potentially infected individuals waiting to be tested while providing a breeding ground for the disease. We describe here a rapid, highly sensitive, point-of-care, molecular test amenable for use at home, in the clinic, and at points of entry by minimally trained individuals and with minimal instrumentation. Our test is based on loop mediated isothermal amplification (COVID-19 LAMP) and for higher sensitivity on nested nucleic acid, two stage isothermal amplification (COVID-19 Penn-RAMP). Both tests can be carried out in closed tubes with either fluorescence or colorimetric (e.g., leuco crystal violet LCV) detection. COVID-19 LAMP performs on par with COVID-19 RT-PCR. COVID-19 RAMP has 10 fold better sensitivity than COVID-19 LAMP and COVID-19 RT-PCR when testing purified targets and 100 times better sensitivity than COVID-19 LAMP and COVID-19 RT-PCR when testing rapidly prepared sample mimics. Due to fortunate scarcity of COVID-19 infections in the USA, we were not able to test our assays and methods with patient samples. We hope that such tests will be carried out by colleagues in impacted countries. Our Closed-Tube Penn-RAMP has the potential to significantly reduce false negatives while being amenable to use with minimal instrumentation and training.",
                "fallback": "figshare: A Single and Two-Stage, Closed-Tube, Molecular Test for the 2019 Novel Coronavirus (COVID-19) at Home, Clinic, and Points of Entry",
                "from_url": "https:\/\/chemrxiv.org\/articles\/A_Single_and_Two-Stage_Closed-Tube_Molecular_Test_for_the_2019_Novel_Coronavirus_COVID-19_at_Home_Clinic_and_Points_of_Entry\/11860137\/1",
                "service_icon": "http:\/\/website-p-eu.figstatic.com\/assets\/086fda4fe9430a35935ed4a3d2ad37fdd446f4af\/public\/global\/favicon\/apple-touch-icon-57x57.png",
                "id": 1,
                "original_url": "https:\/\/chemrxiv.org\/articles\/A_Single_and_Two-Stage_Closed-Tube_Molecular_Test_for_the_2019_Novel_Coronavirus_COVID-19_at_Home_Clinic_and_Points_of_Entry\/11860137\/1"
            }
        ],
        "blocks": [
            {
                "type": "rich_text",
                "block_id": "Es8va",
                "elements": [
                    {
                        "type": "rich_text_section",
                        "elements": [
                            {
                                "type": "text",
                                "text": "Here’s a COVID19 detection protocol using a nested RPA-LAMP reaction that doesn’t require opening the tube and claims to be 10-100 times more sensitive than RT-qPCR or normal LAMP "
                            },
                            {
                                "type": "link",
                                "url": "https:\/\/chemrxiv.org\/articles\/A_Single_and_Two-Stage_Closed-Tube_Molecular_Test_for_the_2019_Novel_Coronavirus_COVID-19_at_Home_Clinic_and_Points_of_Entry\/11860137\/1"
                            }
                        ]
                    }
                ]
            }
        ]
    },
    {
        "client_msg_id": "b6c5dc80-7ac6-45f5-8d66-ad2d00c1660f",
        "type": "message",
        "text": "It’s apparently in the process of being replicated by biohackers at Biofoundary in Australia",
        "user": "UUNGFHSV8",
        "ts": "1585146727.002100",
        "team": "TUU48M0T1",
        "user_team": "TUU48M0T1",
        "source_team": "TUU48M0T1",
        "user_profile": {
            "avatar_hash": "1c55ee32397a",
            "image_72": "https:\/\/avatars.slack-edge.com\/2020-03-07\/987349161984_1c55ee32397a85a87ec4_72.png",
            "first_name": "Isaac",
            "real_name": "Isaac Larkin",
            "display_name": "Isaac Larkin",
            "team": "TUU48M0T1",
            "name": "eyesmo",
            "is_restricted": false,
            "is_ultra_restricted": false
        },
        "blocks": [
            {
                "type": "rich_text",
                "block_id": "oTdK",
                "elements": [
                    {
                        "type": "rich_text_section",
                        "elements": [
                            {
                                "type": "text",
                                "text": "It’s apparently in the process of being replicated by biohackers at Biofoundary in Australia"
                            }
                        ]
                    }
                ]
            }
        ],
        "reactions": [
            {
                "name": "+1",
                "users": [
                    "U01099UVAUA",
                    "UV10KBUQG",
                    "UV13874FN"
                ],
                "count": 3
            }
        ]
    },
    {
        "client_msg_id": "fd8df79d-c483-4543-8919-11f318b23465",
        "type": "message",
        "text": "It uses a clever strategy to avoid needing to open the tube: set up the the RPA reaction in the tube’s cap and the LAMP reaction in the bottom of the tube. Add sample to the cap, carefully close the tube, and incubate at 38ºC for 15-20 min. Then centrifuge or repeatedly flip\/shake the tube, and run the LAMP reaction at 63ºC for 40 minutes",
        "user": "UUNGFHSV8",
        "ts": "1585147306.005000",
        "team": "TUU48M0T1",
        "user_team": "TUU48M0T1",
        "source_team": "TUU48M0T1",
        "user_profile": {
            "avatar_hash": "1c55ee32397a",
            "image_72": "https:\/\/avatars.slack-edge.com\/2020-03-07\/987349161984_1c55ee32397a85a87ec4_72.png",
            "first_name": "Isaac",
            "real_name": "Isaac Larkin",
            "display_name": "Isaac Larkin",
            "team": "TUU48M0T1",
            "name": "eyesmo",
            "is_restricted": false,
            "is_ultra_restricted": false
        },
        "edited": {
            "user": "UUNGFHSV8",
            "ts": "1585147345.000000"
        },
        "blocks": [
            {
                "type": "rich_text",
                "block_id": "+xHWe",
                "elements": [
                    {
                        "type": "rich_text_section",
                        "elements": [
                            {
                                "type": "text",
                                "text": "It uses a clever strategy to avoid needing to open the tube: set up the the RPA reaction in the tube’s cap and the LAMP reaction in the bottom of the tube. Add sample to the cap, carefully close the tube, and incubate at 38ºC for 15-20 min. Then centrifuge or repeatedly flip\/shake the tube, and run the LAMP reaction at 63ºC for 40 minutes"
                            }
                        ]
                    }
                ]
            }
        ]
    },
    {
        "client_msg_id": "ea718157-d9b5-4526-a670-215685a86aa9",
        "type": "message",
        "text": "Hi, this is David from a community biolab in Vancouver, Canada called Open Science Network. Is there a project I could help with with basic molbio skills (gel, pcr, restriction, transformation, miniprep, E. coli, C. elegans, HEK293)?",
        "user": "UV0CX49QB",
        "ts": "1585187778.007800",
        "team": "TUU48M0T1",
        "user_team": "TUU48M0T1",
        "source_team": "TUU48M0T1",
        "user_profile": {
            "avatar_hash": "faebd33b1bc9",
            "image_72": "https:\/\/avatars.slack-edge.com\/2020-03-17\/1007182038528_faebd33b1bc9f6356697_72.jpg",
            "first_name": "David",
            "real_name": "David Šmehlík",
            "display_name": "David Šmehlík",
            "team": "TUU48M0T1",
            "name": "akuataja",
            "is_restricted": false,
            "is_ultra_restricted": false
        },
        "blocks": [
            {
                "type": "rich_text",
                "block_id": "Asb",
                "elements": [
                    {
                        "type": "rich_text_section",
                        "elements": [
                            {
                                "type": "text",
                                "text": "Hi, this is David from a community biolab in Vancouver, Canada called Open Science Network. Is there a project I could help with with basic molbio skills (gel, pcr, restriction, transformation, miniprep, E. coli, C. elegans, HEK293)?"
                            }
                        ]
                    }
                ]
            }
        ],
        "thread_ts": "1585187778.007800",
        "reply_count": 1,
        "reply_users_count": 1,
        "latest_reply": "1585188476.007900",
        "reply_users": [
            "UUNGFHSV8"
        ],
        "replies": [
            {
                "user": "UUNGFHSV8",
                "ts": "1585188476.007900"
            }
        ],
        "subscribed": false
    },
    {
        "client_msg_id": "7760e9aa-6c9c-4552-b6ee-2bcf68e1a252",
        "type": "message",
        "text": "Hi David! I’d recommend joining <#C010D0K1FE1|proj-rna-extraction>, <#C010CVB35DE|proj-nucleic-acid-amplification>, <#CV4AYKS5U|proj-repro-mammoth-crispr>, <#CV6HC0KM1|prgm-mammoth-multiplier> , <#CV42US023|proj-repro-sherlock> , and <#C010BM0D4VC|freegenes>. Also say hi to Scott for me!",
        "user": "UUNGFHSV8",
        "ts": "1585188476.007900",
        "team": "TUU48M0T1",
        "user_team": "TUU48M0T1",
        "source_team": "TUU48M0T1",
        "user_profile": {
            "avatar_hash": "1c55ee32397a",
            "image_72": "https:\/\/avatars.slack-edge.com\/2020-03-07\/987349161984_1c55ee32397a85a87ec4_72.png",
            "first_name": "Isaac",
            "real_name": "Isaac Larkin",
            "display_name": "Isaac Larkin",
            "team": "TUU48M0T1",
            "name": "eyesmo",
            "is_restricted": false,
            "is_ultra_restricted": false
        },
        "blocks": [
            {
                "type": "rich_text",
                "block_id": "3Oe3",
                "elements": [
                    {
                        "type": "rich_text_section",
                        "elements": [
                            {
                                "type": "text",
                                "text": "Hi David! I’d recommend joining "
                            },
                            {
                                "type": "channel",
                                "channel_id": "C010D0K1FE1"
                            },
                            {
                                "type": "text",
                                "text": ", "
                            },
                            {
                                "type": "channel",
                                "channel_id": "C010CVB35DE"
                            },
                            {
                                "type": "text",
                                "text": ", "
                            },
                            {
                                "type": "channel",
                                "channel_id": "CV4AYKS5U"
                            },
                            {
                                "type": "text",
                                "text": ", "
                            },
                            {
                                "type": "channel",
                                "channel_id": "CV6HC0KM1"
                            },
                            {
                                "type": "text",
                                "text": " , "
                            },
                            {
                                "type": "channel",
                                "channel_id": "CV42US023"
                            },
                            {
                                "type": "text",
                                "text": " , and "
                            },
                            {
                                "type": "channel",
                                "channel_id": "C010BM0D4VC"
                            },
                            {
                                "type": "text",
                                "text": ". Also say hi to Scott for me!"
                            }
                        ]
                    }
                ]
            }
        ],
        "thread_ts": "1585187778.007800",
        "parent_user_id": "UV0CX49QB",
        "reactions": [
            {
                "name": "+1",
                "users": [
                    "UV0CX49QB"
                ],
                "count": 1
            }
        ]
    }
]