[
    {
        "client_msg_id": "38279C7D-E424-42BD-A6E6-0FAB5E0FF8C7",
        "type": "message",
        "text": "I think you will find this article interesting ;) \n\n<https:\/\/www.medrxiv.org\/content\/10.1101\/2020.04.14.20064618v1.full.pdf|https:\/\/www.medrxiv.org\/content\/10.1101\/2020.04.14.20064618v1.full.pdf>",
        "user": "UV02WET96",
        "ts": "1587715905.348900",
        "team": "TUU48M0T1",
        "user_team": "TUU48M0T1",
        "source_team": "TUU48M0T1",
        "user_profile": {
            "avatar_hash": "a99c74a194f8",
            "image_72": "https:\/\/avatars.slack-edge.com\/2020-03-07\/975708504851_a99c74a194f86715ca7d_72.png",
            "first_name": "Thomas",
            "real_name": "Thomas Landrain",
            "display_name": "Thomas Landrain - JOGL CoFounder \/ CEO",
            "team": "TUU48M0T1",
            "name": "thomas",
            "is_restricted": false,
            "is_ultra_restricted": false
        },
        "blocks": [
            {
                "type": "rich_text",
                "block_id": "M4EQO",
                "elements": [
                    {
                        "type": "rich_text_section",
                        "elements": [
                            {
                                "type": "text",
                                "text": "I think you will find this article interesting ;) \n\n"
                            },
                            {
                                "type": "link",
                                "url": "https:\/\/www.medrxiv.org\/content\/10.1101\/2020.04.14.20064618v1.full.pdf",
                                "text": "https:\/\/www.medrxiv.org\/content\/10.1101\/2020.04.14.20064618v1.full.pdf"
                            }
                        ]
                    }
                ]
            }
        ],
        "reactions": [
            {
                "name": "+1",
                "users": [
                    "UV1A22N3W"
                ],
                "count": 1
            }
        ]
    },
    {
        "client_msg_id": "244BC317-2D44-43A5-B729-2FEA8966384D",
        "type": "message",
        "text": "Efficient high throughput SARS-CoV-2 testing to detect asymptomatic carriers",
        "user": "UV02WET96",
        "ts": "1587715983.349100",
        "team": "TUU48M0T1",
        "user_team": "TUU48M0T1",
        "source_team": "TUU48M0T1",
        "user_profile": {
            "avatar_hash": "a99c74a194f8",
            "image_72": "https:\/\/avatars.slack-edge.com\/2020-03-07\/975708504851_a99c74a194f86715ca7d_72.png",
            "first_name": "Thomas",
            "real_name": "Thomas Landrain",
            "display_name": "Thomas Landrain - JOGL CoFounder \/ CEO",
            "team": "TUU48M0T1",
            "name": "thomas",
            "is_restricted": false,
            "is_ultra_restricted": false
        },
        "blocks": [
            {
                "type": "rich_text",
                "block_id": "3Pgm",
                "elements": [
                    {
                        "type": "rich_text_section",
                        "elements": [
                            {
                                "type": "text",
                                "text": "Efficient high throughput SARS-CoV-2 testing to detect asymptomatic carriers"
                            }
                        ]
                    }
                ]
            }
        ],
        "thread_ts": "1587715983.349100",
        "reply_count": 7,
        "reply_users_count": 2,
        "latest_reply": "1587804933.361100",
        "reply_users": [
            "U0104M5CWV9",
            "U010X9FPMS8"
        ],
        "replies": [
            {
                "user": "U0104M5CWV9",
                "ts": "1587738548.356200"
            },
            {
                "user": "U0104M5CWV9",
                "ts": "1587738690.358600"
            },
            {
                "user": "U010X9FPMS8",
                "ts": "1587749306.358800"
            },
            {
                "user": "U0104M5CWV9",
                "ts": "1587749660.359700"
            },
            {
                "user": "U010X9FPMS8",
                "ts": "1587804442.360600"
            },
            {
                "user": "U010X9FPMS8",
                "ts": "1587804519.360900"
            },
            {
                "user": "U010X9FPMS8",
                "ts": "1587804933.361100"
            }
        ],
        "subscribed": false
    },
    {
        "client_msg_id": "2BB42213-07EA-47D3-9E8F-AE8FAAEDE28C",
        "type": "message",
        "text": "Wow, so clever. It’s a bit like a real-world variant of a bloom filter. In my understanding though, the author is understating the impact of false negatives. If cases are closer to the detectability threshold, splitting is more likely to result in a false negative. ",
        "user": "U0104M5CWV9",
        "ts": "1587738548.356200",
        "team": "TUU48M0T1",
        "user_team": "TUU48M0T1",
        "source_team": "TUU48M0T1",
        "user_profile": {
            "avatar_hash": "g690df94d06f",
            "image_72": "https:\/\/secure.gravatar.com\/avatar\/690df94d06f11222b2bb4d765ee7ba52.jpg?s=72&d=https%3A%2F%2Fa.slack-edge.com%2Fdf10d%2Fimg%2Favatars%2Fava_0002-72.png",
            "first_name": "John",
            "real_name": "John Urbanik",
            "display_name": "John Urbanik",
            "team": "TUU48M0T1",
            "name": "johnurbanik",
            "is_restricted": false,
            "is_ultra_restricted": false
        },
        "blocks": [
            {
                "type": "rich_text",
                "block_id": "w7Dq",
                "elements": [
                    {
                        "type": "rich_text_section",
                        "elements": [
                            {
                                "type": "text",
                                "text": "Wow, so clever. It’s a bit like a real-world variant of a bloom filter. In my understanding though, the author is understating the impact of false negatives. If cases are closer to the detectability threshold, splitting is more likely to result in a false negative. "
                            }
                        ]
                    }
                ]
            }
        ],
        "thread_ts": "1587715983.349100",
        "parent_user_id": "UV02WET96"
    },
    {
        "client_msg_id": "10A141B1-0C60-435C-A39A-A74A1AF27114",
        "type": "message",
        "text": "I’ll reach out to the authors with some ideas I have around coming up with model based approximations of error. ",
        "user": "U0104M5CWV9",
        "ts": "1587738690.358600",
        "team": "TUU48M0T1",
        "user_team": "TUU48M0T1",
        "source_team": "TUU48M0T1",
        "user_profile": {
            "avatar_hash": "g690df94d06f",
            "image_72": "https:\/\/secure.gravatar.com\/avatar\/690df94d06f11222b2bb4d765ee7ba52.jpg?s=72&d=https%3A%2F%2Fa.slack-edge.com%2Fdf10d%2Fimg%2Favatars%2Fava_0002-72.png",
            "first_name": "John",
            "real_name": "John Urbanik",
            "display_name": "John Urbanik",
            "team": "TUU48M0T1",
            "name": "johnurbanik",
            "is_restricted": false,
            "is_ultra_restricted": false
        },
        "blocks": [
            {
                "type": "rich_text",
                "block_id": "szEG",
                "elements": [
                    {
                        "type": "rich_text_section",
                        "elements": [
                            {
                                "type": "text",
                                "text": "I’ll reach out to the authors with some ideas I have around coming up with model based approximations of error. "
                            }
                        ]
                    }
                ]
            }
        ],
        "thread_ts": "1587715983.349100",
        "parent_user_id": "UV02WET96"
    },
    {
        "client_msg_id": "23700277-a044-49e0-b707-53e26d926011",
        "type": "message",
        "text": "That's what they also do in Frankfurt for a while",
        "user": "U010X9FPMS8",
        "ts": "1587749306.358800",
        "team": "TUU48M0T1",
        "user_team": "TUU48M0T1",
        "source_team": "TUU48M0T1",
        "user_profile": {
            "avatar_hash": "faff4edf8af2",
            "image_72": "https:\/\/avatars.slack-edge.com\/2020-03-27\/1031471711236_faff4edf8af2cc7b11dd_72.jpg",
            "first_name": "Florian",
            "real_name": "Florian Schulte",
            "display_name": "Florian Schulte",
            "team": "TUU48M0T1",
            "name": "schulte.florian",
            "is_restricted": false,
            "is_ultra_restricted": false
        },
        "blocks": [
            {
                "type": "rich_text",
                "block_id": "Gf\/c",
                "elements": [
                    {
                        "type": "rich_text_section",
                        "elements": [
                            {
                                "type": "text",
                                "text": "That's what they also do in Frankfurt for a while"
                            }
                        ]
                    }
                ]
            }
        ],
        "thread_ts": "1587715983.349100",
        "parent_user_id": "UV02WET96"
    },
    {
        "client_msg_id": "24C55264-9676-4FF3-A2C1-7A8E595AFFB0",
        "type": "message",
        "text": "Any studies on that? German language is fine. ",
        "user": "U0104M5CWV9",
        "ts": "1587749660.359700",
        "team": "TUU48M0T1",
        "user_team": "TUU48M0T1",
        "source_team": "TUU48M0T1",
        "user_profile": {
            "avatar_hash": "g690df94d06f",
            "image_72": "https:\/\/secure.gravatar.com\/avatar\/690df94d06f11222b2bb4d765ee7ba52.jpg?s=72&d=https%3A%2F%2Fa.slack-edge.com%2Fdf10d%2Fimg%2Favatars%2Fava_0002-72.png",
            "first_name": "John",
            "real_name": "John Urbanik",
            "display_name": "John Urbanik",
            "team": "TUU48M0T1",
            "name": "johnurbanik",
            "is_restricted": false,
            "is_ultra_restricted": false
        },
        "blocks": [
            {
                "type": "rich_text",
                "block_id": "zmS",
                "elements": [
                    {
                        "type": "rich_text_section",
                        "elements": [
                            {
                                "type": "text",
                                "text": "Any studies on that? German language is fine. "
                            }
                        ]
                    }
                ]
            }
        ],
        "thread_ts": "1587715983.349100",
        "parent_user_id": "UV02WET96"
    },
    {
        "type": "message",
        "subtype": "channel_join",
        "ts": "1587754089.360200",
        "user": "U012PAADW2Y",
        "text": "<@U012PAADW2Y> has joined the channel",
        "inviter": "U011D6K9RH6"
    }
]