[
    {
        "client_msg_id": "c7bec710-912a-42fd-a71a-c7f64db1a946",
        "type": "message",
        "text": "FYI (note export restrictions): <https:\/\/www.ginkgobioworks.com\/2020\/03\/20\/synthesizing-dna-to-fight-coronavirus\/> and <https:\/\/www.addgene.org\/collections\/covid-19-resources\/>",
        "user": "U010QHBTBPY",
        "ts": "1586274431.216600",
        "team": "TUU48M0T1",
        "user_team": "TUU48M0T1",
        "source_team": "TUU48M0T1",
        "user_profile": {
            "avatar_hash": "g4e30c4af69a",
            "image_72": "https:\/\/secure.gravatar.com\/avatar\/4e30c4af69a6429e53cd9cce9da9f65c.jpg?s=72&d=https%3A%2F%2Fa.slack-edge.com%2Fdf10d%2Fimg%2Favatars%2Fava_0015-72.png",
            "first_name": "",
            "real_name": "osn_scott",
            "display_name": "osn_scott",
            "team": "TUU48M0T1",
            "name": "scott527",
            "is_restricted": false,
            "is_ultra_restricted": false
        },
        "attachments": [
            {
                "service_name": "Ginkgo Bioworks",
                "title": "Synthesizing DNA to fight coronavirus - Ginkgo Bioworks",
                "title_link": "https:\/\/www.ginkgobioworks.com\/2020\/03\/20\/synthesizing-dna-to-fight-coronavirus\/",
                "text": "Researchers developing novel diagnostics, therapeutics, and vaccines against COVID-19 all rely on DNA encoding viral proteins as a first step for many different kinds of important experiments. As part of our ongoing COVID-19 related work at Ginkgo, we are collaborating with researchers at Stanford University’s Department of Bioengineering and using our DNA design and synthesis …",
                "fallback": "Ginkgo Bioworks: Synthesizing DNA to fight coronavirus - Ginkgo Bioworks",
                "thumb_url": "https:\/\/www.ginkgobioworks.com\/wp-content\/uploads\/2020\/03\/Ginkgo_BW49418-small.jpg",
                "ts": 1584724176,
                "from_url": "https:\/\/www.ginkgobioworks.com\/2020\/03\/20\/synthesizing-dna-to-fight-coronavirus\/",
                "thumb_width": 1000,
                "thumb_height": 750,
                "service_icon": "https:\/\/www.ginkgobioworks.com\/apple-touch-icon-57x57.png",
                "id": 1,
                "original_url": "https:\/\/www.ginkgobioworks.com\/2020\/03\/20\/synthesizing-dna-to-fight-coronavirus\/"
            },
            {
                "title": "Addgene: COVID-19 Resources",
                "title_link": "https:\/\/www.addgene.org\/collections\/covid-19-resources\/",
                "text": "Addgene's collection of plasmids and resources available for Coronavirus research.",
                "fallback": "Addgene: COVID-19 Resources",
                "from_url": "https:\/\/www.addgene.org\/collections\/covid-19-resources\/",
                "service_icon": "https:\/\/www.addgene.org\/headers\/images\/addgene-favicon.png",
                "service_name": "addgene.org",
                "id": 2,
                "original_url": "https:\/\/www.addgene.org\/collections\/covid-19-resources\/"
            }
        ],
        "blocks": [
            {
                "type": "rich_text",
                "block_id": "0B9",
                "elements": [
                    {
                        "type": "rich_text_section",
                        "elements": [
                            {
                                "type": "text",
                                "text": "FYI (note export restrictions): "
                            },
                            {
                                "type": "link",
                                "url": "https:\/\/www.ginkgobioworks.com\/2020\/03\/20\/synthesizing-dna-to-fight-coronavirus\/"
                            },
                            {
                                "type": "text",
                                "text": " and "
                            },
                            {
                                "type": "link",
                                "url": "https:\/\/www.addgene.org\/collections\/covid-19-resources\/"
                            }
                        ]
                    }
                ]
            }
        ],
        "reactions": [
            {
                "name": "+1",
                "users": [
                    "UV02WET96"
                ],
                "count": 1
            }
        ]
    },
    {
        "client_msg_id": "91d9aa40-706c-4d20-8a58-da494cc648ee",
        "type": "message",
        "text": "The <http:\/\/protocols.io|protocols.io> editorial team is helping with formatting and importing COVID19 protocols: <https:\/\/www.protocols.io\/groups\/coronavirus-method-development-community\/discussions\/free-protocol-import-service-for-covid19-relevant>",
        "user": "UVA1JS2PR",
        "ts": "1586282122.217200",
        "team": "TUU48M0T1",
        "user_team": "TUU48M0T1",
        "source_team": "TUU48M0T1",
        "user_profile": {
            "avatar_hash": "47e5192a5811",
            "image_72": "https:\/\/avatars.slack-edge.com\/2020-03-11\/993742031828_47e5192a58119c7c1f91_72.png",
            "first_name": "",
            "real_name": "Anita Bröllochs",
            "display_name": "Anita Bröllochs",
            "team": "TUU48M0T1",
            "name": "anita",
            "is_restricted": false,
            "is_ultra_restricted": false
        },
        "blocks": [
            {
                "type": "rich_text",
                "block_id": "HoIvd",
                "elements": [
                    {
                        "type": "rich_text_section",
                        "elements": [
                            {
                                "type": "text",
                                "text": "The "
                            },
                            {
                                "type": "link",
                                "url": "http:\/\/protocols.io",
                                "text": "protocols.io"
                            },
                            {
                                "type": "text",
                                "text": " editorial team is helping with formatting and importing COVID19 protocols: "
                            },
                            {
                                "type": "link",
                                "url": "https:\/\/www.protocols.io\/groups\/coronavirus-method-development-community\/discussions\/free-protocol-import-service-for-covid19-relevant"
                            }
                        ]
                    }
                ]
            }
        ],
        "thread_ts": "1584512075.053700",
        "parent_user_id": "U0103128G4D"
    }
]