[
    {
        "client_msg_id": "05391406-4061-4D1A-ABD0-8AD1368ECF32",
        "type": "message",
        "text": "<https:\/\/covid-19-sounds.org\/en\/|https:\/\/covid-19-sounds.org\/en\/>",
        "user": "U0103RQF7R8",
        "ts": "1586192147.063800",
        "team": "TUU48M0T1",
        "user_team": "TUU48M0T1",
        "source_team": "TUU48M0T1",
        "user_profile": {
            "avatar_hash": "a6c12e0e64cd",
            "image_72": "https:\/\/avatars.slack-edge.com\/2020-03-21\/1005206447347_a6c12e0e64cdd801a393_72.jpg",
            "first_name": "",
            "real_name": "Greg Lever",
            "display_name": "",
            "team": "TUU48M0T1",
            "name": "greglever",
            "is_restricted": false,
            "is_ultra_restricted": false
        },
        "attachments": [
            {
                "title": "Covid-19 Sounds App - University of Cambridge",
                "title_link": "https:\/\/covid-19-sounds.org\/en\/",
                "text": "Upload short recordings of cough and breathing and report symptoms to help researchers from the University of Cambridge detect if a person is suffering from COVID-19.",
                "fallback": "Covid-19 Sounds App - University of Cambridge",
                "thumb_url": "https:\/\/covid-19-sounds.org\/static\/common-images\/metadata_picture.png",
                "from_url": "https:\/\/covid-19-sounds.org\/en\/",
                "thumb_width": 2474,
                "thumb_height": 1332,
                "service_icon": "https:\/\/www.cl.cam.ac.uk\/favicon.ico",
                "service_name": "covid-19-sounds.org",
                "id": 1,
                "original_url": "https:\/\/covid-19-sounds.org\/en\/"
            }
        ],
        "blocks": [
            {
                "type": "rich_text",
                "block_id": "cRuFs",
                "elements": [
                    {
                        "type": "rich_text_section",
                        "elements": [
                            {
                                "type": "link",
                                "url": "https:\/\/covid-19-sounds.org\/en\/",
                                "text": "https:\/\/covid-19-sounds.org\/en\/"
                            }
                        ]
                    }
                ]
            }
        ],
        "thread_ts": "1586192147.063800",
        "reply_count": 1,
        "reply_users_count": 1,
        "latest_reply": "1586193350.064000",
        "reply_users": [
            "UVDCTDP8B"
        ],
        "replies": [
            {
                "user": "UVDCTDP8B",
                "ts": "1586193350.064000"
            }
        ],
        "subscribed": false
    },
    {
        "client_msg_id": "4e92f483-65d0-4347-8dea-f7f4b958625a",
        "type": "message",
        "text": "GDPR doesn't describe \"voice\/audio recordings\" as a personal identifier nor something particularly salient. But from a privacy and security standpoint, especially when armed with machine learning, it is.\n\nI'll write to them later, but maybe someone here knows them directly?",
        "user": "UVDCTDP8B",
        "ts": "1586193350.064000",
        "team": "TUU48M0T1",
        "user_team": "TUU48M0T1",
        "source_team": "TUU48M0T1",
        "user_profile": {
            "avatar_hash": "b9681d276810",
            "image_72": "https:\/\/avatars.slack-edge.com\/2020-03-21\/1018866726103_b9681d2768103ad056d7_72.jpg",
            "first_name": "",
            "real_name": "Wesley",
            "display_name": "Wesley",
            "team": "TUU48M0T1",
            "name": "someprogrammerorsomet",
            "is_restricted": false,
            "is_ultra_restricted": false
        },
        "blocks": [
            {
                "type": "rich_text",
                "block_id": "JzY",
                "elements": [
                    {
                        "type": "rich_text_section",
                        "elements": [
                            {
                                "type": "text",
                                "text": "GDPR doesn't describe \"voice\/audio recordings\" as a personal identifier nor something particularly salient. But from a privacy and security standpoint, especially when armed with machine learning, it is.\n\nI'll write to them later, but maybe someone here knows them directly?"
                            }
                        ]
                    }
                ]
            }
        ],
        "thread_ts": "1586192147.063800",
        "parent_user_id": "U0103RQF7R8"
    },
    {
        "client_msg_id": "bfb3dc68-7257-4090-9acf-6e80466b1844",
        "type": "message",
        "text": "Wesley yes, I meant frequency modulation of the original recording using a pattern generated from a password",
        "user": "U010RE9CWUW",
        "ts": "1586194834.064900",
        "team": "TUU48M0T1",
        "user_team": "TUU48M0T1",
        "source_team": "TUU48M0T1",
        "user_profile": {
            "avatar_hash": "g9bb97ee1ccb",
            "image_72": "https:\/\/secure.gravatar.com\/avatar\/9bb97ee1ccb747c1e108cf7b9d48e7d2.jpg?s=72&d=https%3A%2F%2Fa.slack-edge.com%2Fdf10d%2Fimg%2Favatars%2Fava_0016-72.png",
            "first_name": "",
            "real_name": "Žarko Asen",
            "display_name": "",
            "team": "TUU48M0T1",
            "name": "asenzz",
            "is_restricted": false,
            "is_ultra_restricted": false
        },
        "blocks": [
            {
                "type": "rich_text",
                "block_id": "zBVn9",
                "elements": [
                    {
                        "type": "rich_text_section",
                        "elements": [
                            {
                                "type": "text",
                                "text": "Wesley yes, I meant frequency modulation of the original recording using a pattern generated from a password"
                            }
                        ]
                    }
                ]
            }
        ]
    },
    {
        "client_msg_id": "0c4c369c-28cd-4a08-a76a-17bb58838e9f",
        "type": "message",
        "text": "this will however affect properties of the input signal so it needs to be demodulated just before further processing (eg. before the wavelet transform)",
        "user": "U010RE9CWUW",
        "ts": "1586194878.065700",
        "team": "TUU48M0T1",
        "user_team": "TUU48M0T1",
        "source_team": "TUU48M0T1",
        "user_profile": {
            "avatar_hash": "g9bb97ee1ccb",
            "image_72": "https:\/\/secure.gravatar.com\/avatar\/9bb97ee1ccb747c1e108cf7b9d48e7d2.jpg?s=72&d=https%3A%2F%2Fa.slack-edge.com%2Fdf10d%2Fimg%2Favatars%2Fava_0016-72.png",
            "first_name": "",
            "real_name": "Žarko Asen",
            "display_name": "",
            "team": "TUU48M0T1",
            "name": "asenzz",
            "is_restricted": false,
            "is_ultra_restricted": false
        },
        "blocks": [
            {
                "type": "rich_text",
                "block_id": "CBh",
                "elements": [
                    {
                        "type": "rich_text_section",
                        "elements": [
                            {
                                "type": "text",
                                "text": "this will however affect properties of the input signal so it needs to be demodulated just before further processing (eg. before the wavelet transform)"
                            }
                        ]
                    }
                ]
            }
        ]
    },
    {
        "client_msg_id": "a47f2c93-6c68-482d-ab56-b904470c1340",
        "type": "message",
        "text": "<@U010RE9CWUW> I've mostly only been able to find papers using privacy-preservation of audio signals with wavelets and other older techniques. I realize that vmd is newer, but:\n• Do you know of good papers that demonstrate and\/or explore vmd use for privacy-preservation?\n• Why not just use wavelets instead of getting into vmd? What is the improvement that vmd offers? Is it worth it?",
        "user": "UVDCTDP8B",
        "ts": "1586195015.067900",
        "team": "TUU48M0T1",
        "user_team": "TUU48M0T1",
        "source_team": "TUU48M0T1",
        "user_profile": {
            "avatar_hash": "b9681d276810",
            "image_72": "https:\/\/avatars.slack-edge.com\/2020-03-21\/1018866726103_b9681d2768103ad056d7_72.jpg",
            "first_name": "",
            "real_name": "Wesley",
            "display_name": "Wesley",
            "team": "TUU48M0T1",
            "name": "someprogrammerorsomet",
            "is_restricted": false,
            "is_ultra_restricted": false
        },
        "blocks": [
            {
                "type": "rich_text",
                "block_id": "KHsJ3",
                "elements": [
                    {
                        "type": "rich_text_section",
                        "elements": [
                            {
                                "type": "user",
                                "user_id": "U010RE9CWUW"
                            },
                            {
                                "type": "text",
                                "text": " I've mostly only been able to find papers using privacy-preservation of audio signals with wavelets and other older techniques. I realize that vmd is newer, but:\n"
                            }
                        ]
                    },
                    {
                        "type": "rich_text_list",
                        "elements": [
                            {
                                "type": "rich_text_section",
                                "elements": [
                                    {
                                        "type": "text",
                                        "text": "Do you know of good papers that demonstrate and\/or explore vmd use for privacy-preservation?"
                                    }
                                ]
                            },
                            {
                                "type": "rich_text_section",
                                "elements": [
                                    {
                                        "type": "text",
                                        "text": "Why not just use wavelets instead of getting into vmd? What is the improvement that vmd offers? Is it worth it?"
                                    }
                                ]
                            }
                        ],
                        "style": "bullet",
                        "indent": 0
                    }
                ]
            }
        ]
    },
    {
        "client_msg_id": "f8e64720-19de-49b7-b440-260db3dcc882",
        "type": "message",
        "text": "wait VMD is used to extract features",
        "user": "U010RE9CWUW",
        "ts": "1586195043.068200",
        "team": "TUU48M0T1",
        "user_team": "TUU48M0T1",
        "source_team": "TUU48M0T1",
        "user_profile": {
            "avatar_hash": "g9bb97ee1ccb",
            "image_72": "https:\/\/secure.gravatar.com\/avatar\/9bb97ee1ccb747c1e108cf7b9d48e7d2.jpg?s=72&d=https%3A%2F%2Fa.slack-edge.com%2Fdf10d%2Fimg%2Favatars%2Fava_0016-72.png",
            "first_name": "",
            "real_name": "Žarko Asen",
            "display_name": "",
            "team": "TUU48M0T1",
            "name": "asenzz",
            "is_restricted": false,
            "is_ultra_restricted": false
        },
        "blocks": [
            {
                "type": "rich_text",
                "block_id": "eLgu",
                "elements": [
                    {
                        "type": "rich_text_section",
                        "elements": [
                            {
                                "type": "text",
                                "text": "wait VMD is used to extract features"
                            }
                        ]
                    }
                ]
            }
        ]
    },
    {
        "client_msg_id": "547801a1-99e0-43ed-83f7-82490d2f7fb3",
        "type": "message",
        "text": "I wouldn't use it to conceal data",
        "user": "U010RE9CWUW",
        "ts": "1586195060.068500",
        "team": "TUU48M0T1",
        "user_team": "TUU48M0T1",
        "source_team": "TUU48M0T1",
        "user_profile": {
            "avatar_hash": "g9bb97ee1ccb",
            "image_72": "https:\/\/secure.gravatar.com\/avatar\/9bb97ee1ccb747c1e108cf7b9d48e7d2.jpg?s=72&d=https%3A%2F%2Fa.slack-edge.com%2Fdf10d%2Fimg%2Favatars%2Fava_0016-72.png",
            "first_name": "",
            "real_name": "Žarko Asen",
            "display_name": "",
            "team": "TUU48M0T1",
            "name": "asenzz",
            "is_restricted": false,
            "is_ultra_restricted": false
        },
        "blocks": [
            {
                "type": "rich_text",
                "block_id": "Ns0OK",
                "elements": [
                    {
                        "type": "rich_text_section",
                        "elements": [
                            {
                                "type": "text",
                                "text": "I wouldn't use it to conceal data"
                            }
                        ]
                    }
                ]
            }
        ]
    },
    {
        "client_msg_id": "a7ef1a75-ab89-4d11-9355-7933df73d8f6",
        "type": "message",
        "text": "actually I'd just encrypt the recordings using a key",
        "user": "U010RE9CWUW",
        "ts": "1586195079.068900",
        "team": "TUU48M0T1",
        "user_team": "TUU48M0T1",
        "source_team": "TUU48M0T1",
        "user_profile": {
            "avatar_hash": "g9bb97ee1ccb",
            "image_72": "https:\/\/secure.gravatar.com\/avatar\/9bb97ee1ccb747c1e108cf7b9d48e7d2.jpg?s=72&d=https%3A%2F%2Fa.slack-edge.com%2Fdf10d%2Fimg%2Favatars%2Fava_0016-72.png",
            "first_name": "",
            "real_name": "Žarko Asen",
            "display_name": "",
            "team": "TUU48M0T1",
            "name": "asenzz",
            "is_restricted": false,
            "is_ultra_restricted": false
        },
        "blocks": [
            {
                "type": "rich_text",
                "block_id": "vhw",
                "elements": [
                    {
                        "type": "rich_text_section",
                        "elements": [
                            {
                                "type": "text",
                                "text": "actually I'd just encrypt the recordings using a key"
                            }
                        ]
                    }
                ]
            }
        ],
        "thread_ts": "1586195079.068900",
        "reply_count": 3,
        "reply_users_count": 2,
        "latest_reply": "1586199271.070300",
        "reply_users": [
            "UVDCTDP8B",
            "U010RE9CWUW"
        ],
        "replies": [
            {
                "user": "UVDCTDP8B",
                "ts": "1586196141.069200"
            },
            {
                "user": "U010RE9CWUW",
                "ts": "1586199261.070100"
            },
            {
                "user": "U010RE9CWUW",
                "ts": "1586199271.070300"
            }
        ],
        "subscribed": false
    },
    {
        "client_msg_id": "8321f9d2-d2c7-4717-adc0-4214f27af5e1",
        "type": "message",
        "text": "The recordings are expected to be shared to a centralized database OpenHumans. Depending on the AI\/ML algorithms we expect to be used and want to facilitate, the audio may consist of more than just coughs, but also speech or at least the vocal production of isolated phonemes.\n\nAs far as I understand, OpenHumans reviews research organizations that request access. I believe they only allow access to institutions with IRBs and clear research goals that align with OpenHumans's ethics.\n\nIf either OpenHumans or any of the granted organizations are compromised or deviate from expected usage of the data, the richness of the dataset can be exploited.\n\nThis may involve:\n• Identification of Individuals in the dataset\n• Cross-reference of other collected data with identified individuals\n• AI-Generated Speech in the Likeness of the Collected Audio\nBecause of this, I think we need a way to do a bit of due diligence and modify the audio files with some privacy-preservation technique(s).\n\nI'm planning on looking up more about how wavelets are specifically used in this area today. I'm reading these two papers ( will also post in the googledocs) :\n\n• \"Wavelet-Based Data Distorition for Privacy-Preserving Collaborative Analysis\" <https:\/\/pdfs.semanticscholar.org\/e911\/33cea9fb44682b221ce22151390122a13405.pdf>\n• \"A Wavelet-Based Approach to Preserve Privacy for Classification Mining\" - Bapna, Sanjay &amp; Gangopadhyay, Arrya 2006",
        "user": "UVDCTDP8B",
        "ts": "1586196141.069200",
        "team": "TUU48M0T1",
        "user_team": "TUU48M0T1",
        "source_team": "TUU48M0T1",
        "user_profile": {
            "avatar_hash": "b9681d276810",
            "image_72": "https:\/\/avatars.slack-edge.com\/2020-03-21\/1018866726103_b9681d2768103ad056d7_72.jpg",
            "first_name": "",
            "real_name": "Wesley",
            "display_name": "Wesley",
            "team": "TUU48M0T1",
            "name": "someprogrammerorsomet",
            "is_restricted": false,
            "is_ultra_restricted": false
        },
        "edited": {
            "user": "UVDCTDP8B",
            "ts": "1586196209.000000"
        },
        "blocks": [
            {
                "type": "rich_text",
                "block_id": "4H4",
                "elements": [
                    {
                        "type": "rich_text_section",
                        "elements": [
                            {
                                "type": "text",
                                "text": "The recordings are expected to be shared to a centralized database OpenHumans. Depending on the AI\/ML algorithms we expect to be used and want to facilitate, the audio may consist of more than just coughs, but also speech or at least the vocal production of isolated phonemes.\n\nAs far as I understand, OpenHumans reviews research organizations that request access. I believe they only allow access to institutions with IRBs and clear research goals that align with OpenHumans's ethics.\n\nIf either OpenHumans or any of the granted organizations are compromised or deviate from expected usage of the data, the richness of the dataset can be exploited.\n\nThis may involve:\n"
                            }
                        ]
                    },
                    {
                        "type": "rich_text_list",
                        "elements": [
                            {
                                "type": "rich_text_section",
                                "elements": [
                                    {
                                        "type": "text",
                                        "text": "Identification of Individuals in the dataset"
                                    }
                                ]
                            },
                            {
                                "type": "rich_text_section",
                                "elements": [
                                    {
                                        "type": "text",
                                        "text": "Cross-reference of other collected data with identified individuals"
                                    }
                                ]
                            },
                            {
                                "type": "rich_text_section",
                                "elements": [
                                    {
                                        "type": "text",
                                        "text": "AI-Generated Speech in the Likeness of the Collected Audio"
                                    }
                                ]
                            }
                        ],
                        "style": "bullet",
                        "indent": 0
                    },
                    {
                        "type": "rich_text_section",
                        "elements": [
                            {
                                "type": "text",
                                "text": "\nBecause of this, I think we need a way to do a bit of due diligence and modify the audio files with some privacy-preservation technique(s).\n\nI'm planning on looking up more about how wavelets are specifically used in this area today. I'm reading these two papers ( will also post in the googledocs) :\n\n"
                            }
                        ]
                    },
                    {
                        "type": "rich_text_list",
                        "elements": [
                            {
                                "type": "rich_text_section",
                                "elements": [
                                    {
                                        "type": "text",
                                        "text": "\"Wavelet-Based Data Distorition for Privacy-Preserving Collaborative Analysis\" "
                                    },
                                    {
                                        "type": "link",
                                        "url": "https:\/\/pdfs.semanticscholar.org\/e911\/33cea9fb44682b221ce22151390122a13405.pdf"
                                    }
                                ]
                            },
                            {
                                "type": "rich_text_section",
                                "elements": [
                                    {
                                        "type": "text",
                                        "text": "\"A Wavelet-Based Approach to Preserve Privacy for Classification Mining\" - Bapna, Sanjay & Gangopadhyay, Arrya 2006"
                                    }
                                ]
                            }
                        ],
                        "style": "bullet",
                        "indent": 0
                    }
                ]
            }
        ],
        "thread_ts": "1586195079.068900",
        "parent_user_id": "U010RE9CWUW"
    },
    {
        "client_msg_id": "90dd2172-3fee-4275-a12d-ba9752e1e454",
        "type": "message",
        "text": "I'm afraid that will affect the coughs too",
        "user": "U010RE9CWUW",
        "ts": "1586199261.070100",
        "team": "TUU48M0T1",
        "user_team": "TUU48M0T1",
        "source_team": "TUU48M0T1",
        "user_profile": {
            "avatar_hash": "g9bb97ee1ccb",
            "image_72": "https:\/\/secure.gravatar.com\/avatar\/9bb97ee1ccb747c1e108cf7b9d48e7d2.jpg?s=72&d=https%3A%2F%2Fa.slack-edge.com%2Fdf10d%2Fimg%2Favatars%2Fava_0016-72.png",
            "first_name": "",
            "real_name": "Žarko Asen",
            "display_name": "",
            "team": "TUU48M0T1",
            "name": "asenzz",
            "is_restricted": false,
            "is_ultra_restricted": false
        },
        "blocks": [
            {
                "type": "rich_text",
                "block_id": "BDmf",
                "elements": [
                    {
                        "type": "rich_text_section",
                        "elements": [
                            {
                                "type": "text",
                                "text": "I'm afraid that will affect the coughs too"
                            }
                        ]
                    }
                ]
            }
        ],
        "thread_ts": "1586195079.068900",
        "parent_user_id": "U010RE9CWUW"
    },
    {
        "client_msg_id": "3a195b4e-11e1-4255-96bf-51deada281c1",
        "type": "message",
        "text": "the quality of features",
        "user": "U010RE9CWUW",
        "ts": "1586199271.070300",
        "team": "TUU48M0T1",
        "user_team": "TUU48M0T1",
        "source_team": "TUU48M0T1",
        "user_profile": {
            "avatar_hash": "g9bb97ee1ccb",
            "image_72": "https:\/\/secure.gravatar.com\/avatar\/9bb97ee1ccb747c1e108cf7b9d48e7d2.jpg?s=72&d=https%3A%2F%2Fa.slack-edge.com%2Fdf10d%2Fimg%2Favatars%2Fava_0016-72.png",
            "first_name": "",
            "real_name": "Žarko Asen",
            "display_name": "",
            "team": "TUU48M0T1",
            "name": "asenzz",
            "is_restricted": false,
            "is_ultra_restricted": false
        },
        "blocks": [
            {
                "type": "rich_text",
                "block_id": "eee",
                "elements": [
                    {
                        "type": "rich_text_section",
                        "elements": [
                            {
                                "type": "text",
                                "text": "the quality of features"
                            }
                        ]
                    }
                ]
            }
        ],
        "thread_ts": "1586195079.068900",
        "parent_user_id": "U010RE9CWUW"
    },
    {
        "client_msg_id": "3c56021e-2921-4fb3-ac59-4109e59e0636",
        "type": "message",
        "text": "from the <http:\/\/voca.ai|voca.ai> consent form:\"We will keep your information confidential and will not divulge any non-anonymized data. Anonymized dataset may be transferred to third parties. In particular, anonymized data may be transferred to third parties for COVID-19 related research purposes.\nIf you log-in using your GOOGLE™ identifier, we will not collect any information from your GOOGLE™ account other than your identifier. The identifier will be retained in a hashed manner, preventing us from being able to reconstruct your identifier, and being useful for the sole purpose of determining if a new identifier is identical to a previously retained one. \"",
        "user": "U010KAJ3SLW",
        "ts": "1586203733.071000",
        "team": "TUU48M0T1",
        "user_team": "TUU48M0T1",
        "source_team": "TUU48M0T1",
        "user_profile": {
            "avatar_hash": "b45831828d34",
            "image_72": "https:\/\/avatars.slack-edge.com\/2020-03-24\/1022969377349_b45831828d346a95645d_72.jpg",
            "first_name": "kalliomakitiina",
            "real_name": "kalliomakitiina",
            "display_name": "tiina",
            "team": "TUU48M0T1",
            "name": "kalliomakitiina",
            "is_restricted": false,
            "is_ultra_restricted": false
        },
        "blocks": [
            {
                "type": "rich_text",
                "block_id": "fYb",
                "elements": [
                    {
                        "type": "rich_text_section",
                        "elements": [
                            {
                                "type": "text",
                                "text": "from the voca.ai consent form:\"We will keep your information confidential and will not divulge any non-anonymized data. Anonymized dataset may be transferred to third parties. In particular, anonymized data may be transferred to third parties for COVID-19 related research purposes.\nIf you log-in using your GOOGLE™ identifier, we will not collect any information from your GOOGLE™ account other than your identifier. The identifier will be retained in a hashed manner, preventing us from being able to reconstruct your identifier, and being useful for the sole purpose of determining if a new identifier is identical to a previously retained one. \""
                            }
                        ]
                    }
                ]
            }
        ],
        "thread_ts": "1586203733.071000",
        "reply_count": 2,
        "reply_users_count": 1,
        "latest_reply": "1586204802.072500",
        "reply_users": [
            "UVDCTDP8B"
        ],
        "replies": [
            {
                "user": "UVDCTDP8B",
                "ts": "1586204619.072100"
            },
            {
                "user": "UVDCTDP8B",
                "ts": "1586204802.072500"
            }
        ],
        "subscribed": false
    },
    {
        "client_msg_id": "72fe3a7d-928c-458f-96d1-53b321899a46",
        "type": "message",
        "text": "I want to email them and ask how they are anonymizing things, but I don't know what the best way to approach them",
        "user": "U010KAJ3SLW",
        "ts": "1586203785.072000",
        "team": "TUU48M0T1",
        "user_team": "TUU48M0T1",
        "source_team": "TUU48M0T1",
        "user_profile": {
            "avatar_hash": "b45831828d34",
            "image_72": "https:\/\/avatars.slack-edge.com\/2020-03-24\/1022969377349_b45831828d346a95645d_72.jpg",
            "first_name": "kalliomakitiina",
            "real_name": "kalliomakitiina",
            "display_name": "tiina",
            "team": "TUU48M0T1",
            "name": "kalliomakitiina",
            "is_restricted": false,
            "is_ultra_restricted": false
        },
        "blocks": [
            {
                "type": "rich_text",
                "block_id": "68YWz",
                "elements": [
                    {
                        "type": "rich_text_section",
                        "elements": [
                            {
                                "type": "text",
                                "text": "I want to email them and ask how they are anonymizing things, but I don't know what the best way to approach them"
                            }
                        ]
                    }
                ]
            }
        ],
        "thread_ts": "1586203785.072000",
        "reply_count": 3,
        "reply_users_count": 2,
        "latest_reply": "1586214061.073500",
        "reply_users": [
            "UVDCTDP8B",
            "U010KAJ3SLW"
        ],
        "replies": [
            {
                "user": "UVDCTDP8B",
                "ts": "1586205305.072900"
            },
            {
                "user": "U010KAJ3SLW",
                "ts": "1586212821.073300"
            },
            {
                "user": "UVDCTDP8B",
                "ts": "1586214061.073500"
            }
        ],
        "subscribed": false
    },
    {
        "client_msg_id": "9ffb096e-f2df-4720-aac0-db6b8369463b",
        "type": "message",
        "text": "This comment the org makes about being unable to reconstruct a hash seems a little misleading.\n\nFor those reading who are unaware, a hash basically will transform any file, string of bits, etc into another string of bits. But the transformed bits all have the same length. So, in a true mathematical sense, there's way to really invert from a hash to original data because the final hash could have come from so many other potential values.\n\nA cryptographically secure hash is often difficult to forge or match. Meaning:\n• If I wanted to make a fake account that would match the hash of a target account, it would be very mathematically\/computationally difficult to do so.\n• If I just wanted to find any two matching strings of data that went to the same hash, it would be very mathematically difficult to do so.\nBecause of this, they often serve as a proxy for an identifier because they are not a \"true\" identifier.\n\nHOWEVER, a consequence of this and the prevalence of just re-using the same hash function on inputs is that a person\/organization\/companies can really just match hashed values in one dataset with that in another.\n\nIt's a whole business model and area of research to just match hashed \"anonymous\" identifiers across different datasets to effectively re-identify individuals once a dataset of sufficient resolution or salience can be created.\n\nI'll read more on this company when I get the chance. I agree with Tiina that we should do our due diligence.",
        "user": "UVDCTDP8B",
        "ts": "1586204619.072100",
        "team": "TUU48M0T1",
        "user_team": "TUU48M0T1",
        "source_team": "TUU48M0T1",
        "user_profile": {
            "avatar_hash": "b9681d276810",
            "image_72": "https:\/\/avatars.slack-edge.com\/2020-03-21\/1018866726103_b9681d2768103ad056d7_72.jpg",
            "first_name": "",
            "real_name": "Wesley",
            "display_name": "Wesley",
            "team": "TUU48M0T1",
            "name": "someprogrammerorsomet",
            "is_restricted": false,
            "is_ultra_restricted": false
        },
        "edited": {
            "user": "UVDCTDP8B",
            "ts": "1586204861.000000"
        },
        "blocks": [
            {
                "type": "rich_text",
                "block_id": "q0X6Y",
                "elements": [
                    {
                        "type": "rich_text_section",
                        "elements": [
                            {
                                "type": "text",
                                "text": "This comment the org makes about being unable to reconstruct a hash seems a little misleading.\n\nFor those reading who are unaware, a hash basically will transform any file, string of bits, etc into another string of bits. But the transformed bits all have the same length. So, in a true mathematical sense, there's way to really invert from a hash to original data because the final hash could have come from so many other potential values.\n\nA cryptographically secure hash is often difficult to forge or match. Meaning:\n"
                            }
                        ]
                    },
                    {
                        "type": "rich_text_list",
                        "elements": [
                            {
                                "type": "rich_text_section",
                                "elements": [
                                    {
                                        "type": "text",
                                        "text": "If I wanted to make a fake account that would match the hash of a target account, it would be very mathematically\/computationally difficult to do so."
                                    }
                                ]
                            },
                            {
                                "type": "rich_text_section",
                                "elements": [
                                    {
                                        "type": "text",
                                        "text": "If I just wanted to find any two matching strings of data that went to the same hash, it would be very mathematically difficult to do so."
                                    }
                                ]
                            }
                        ],
                        "style": "bullet",
                        "indent": 0
                    },
                    {
                        "type": "rich_text_section",
                        "elements": [
                            {
                                "type": "text",
                                "text": "\nBecause of this, they often serve as a proxy for an identifier because they are not a \"true\" identifier.\n\nHOWEVER, a consequence of this and the prevalence of just re-using the same hash function on inputs is that a person\/organization\/companies can really just match hashed values in one dataset with that in another.\n\nIt's a whole business model and area of research to just match hashed \"anonymous\" identifiers across different datasets to effectively re-identify individuals once a dataset of sufficient resolution or salience can be created.\n\nI'll read more on this company when I get the chance. I agree with Tiina that we should do our due diligence."
                            }
                        ]
                    }
                ]
            }
        ],
        "thread_ts": "1586203733.071000",
        "parent_user_id": "U010KAJ3SLW"
    },
    {
        "client_msg_id": "ba8c8465-d566-4797-accf-abcbb3fcfccf",
        "type": "message",
        "text": "*It'd be like if a bunch of organizations mathematically generated a psuedonym for you, but they all did it in the same way and so they all gave you the same psuedonym.\n\nThey wouldn't really need to keep track of your actual name, but they could just follow the trail of the psuedoynm.",
        "user": "UVDCTDP8B",
        "ts": "1586204802.072500",
        "team": "TUU48M0T1",
        "user_team": "TUU48M0T1",
        "source_team": "TUU48M0T1",
        "user_profile": {
            "avatar_hash": "b9681d276810",
            "image_72": "https:\/\/avatars.slack-edge.com\/2020-03-21\/1018866726103_b9681d2768103ad056d7_72.jpg",
            "first_name": "",
            "real_name": "Wesley",
            "display_name": "Wesley",
            "team": "TUU48M0T1",
            "name": "someprogrammerorsomet",
            "is_restricted": false,
            "is_ultra_restricted": false
        },
        "edited": {
            "user": "UVDCTDP8B",
            "ts": "1586204819.000000"
        },
        "blocks": [
            {
                "type": "rich_text",
                "block_id": "8M=",
                "elements": [
                    {
                        "type": "rich_text_section",
                        "elements": [
                            {
                                "type": "text",
                                "text": "*It'd be like if a bunch of organizations mathematically generated a psuedonym for you, but they all did it in the same way and so they all gave you the same psuedonym.\n\nThey wouldn't really need to keep track of your actual name, but they could just follow the trail of the psuedoynm."
                            }
                        ]
                    }
                ]
            }
        ],
        "thread_ts": "1586203733.071000",
        "parent_user_id": "U010KAJ3SLW"
    },
    {
        "client_msg_id": "9983dbc2-8b05-4732-9bf3-bee29d685e71",
        "type": "message",
        "text": "I don't fully understand what they are even collecting identifiers for. They offer detection services and are allegedly not in the training phase if I recall correctly.\n\nThings I'm generally curious about:\n\n• What phase are they in ( training? testing? etc )\n• What technique(s) are they using for their training? testing? I'd be curious for a specific paper\/set of papers they are drawing from. \n• Are they working with any particular research professors, labs, or other institutions?\n• Who are these 3rd Parties they're sharing the data with?\n• Why do they need a hashed identifier? If they are just testing, then it shouldn't matter if they've seen the account before. If they are in the training phase, then an identifier makes _some_ sense, but then how are they establishing ground truth? That should involve a survey or something.\n• Outside of some client device-to-server encryption, how are they guarding the identifiers and general sensitivity inherit to the audio data? As in, once they have acquired the data, if they intend to share it with third parties, how are they guarding\/processing the data they share?",
        "user": "UVDCTDP8B",
        "ts": "1586205305.072900",
        "team": "TUU48M0T1",
        "user_team": "TUU48M0T1",
        "source_team": "TUU48M0T1",
        "user_profile": {
            "avatar_hash": "b9681d276810",
            "image_72": "https:\/\/avatars.slack-edge.com\/2020-03-21\/1018866726103_b9681d2768103ad056d7_72.jpg",
            "first_name": "",
            "real_name": "Wesley",
            "display_name": "Wesley",
            "team": "TUU48M0T1",
            "name": "someprogrammerorsomet",
            "is_restricted": false,
            "is_ultra_restricted": false
        },
        "edited": {
            "user": "UVDCTDP8B",
            "ts": "1586205478.000000"
        },
        "blocks": [
            {
                "type": "rich_text",
                "block_id": "k+K",
                "elements": [
                    {
                        "type": "rich_text_section",
                        "elements": [
                            {
                                "type": "text",
                                "text": "I don't fully understand what they are even collecting identifiers for. They offer detection services and are allegedly not in the training phase if I recall correctly.\n\nThings I'm generally curious about:\n\n"
                            }
                        ]
                    },
                    {
                        "type": "rich_text_list",
                        "elements": [
                            {
                                "type": "rich_text_section",
                                "elements": [
                                    {
                                        "type": "text",
                                        "text": "What phase are they in ( training? testing? etc )"
                                    }
                                ]
                            },
                            {
                                "type": "rich_text_section",
                                "elements": [
                                    {
                                        "type": "text",
                                        "text": "What technique(s) are they using for their training? testing? I'd be curious for a specific paper\/set of papers they are drawing from. "
                                    }
                                ]
                            },
                            {
                                "type": "rich_text_section",
                                "elements": [
                                    {
                                        "type": "text",
                                        "text": "Are they working with any particular research professors, labs, or other institutions?"
                                    }
                                ]
                            },
                            {
                                "type": "rich_text_section",
                                "elements": [
                                    {
                                        "type": "text",
                                        "text": "Who are these 3rd Parties they're sharing the data with?"
                                    }
                                ]
                            },
                            {
                                "type": "rich_text_section",
                                "elements": [
                                    {
                                        "type": "text",
                                        "text": "Why do they need a hashed identifier? If they are just testing, then it shouldn't matter if they've seen the account before. If they are in the training phase, then an identifier makes "
                                    },
                                    {
                                        "type": "text",
                                        "text": "some ",
                                        "style": {
                                            "italic": true
                                        }
                                    },
                                    {
                                        "type": "text",
                                        "text": "sense, but then how are they establishing ground truth? That should involve a survey or something."
                                    }
                                ]
                            },
                            {
                                "type": "rich_text_section",
                                "elements": [
                                    {
                                        "type": "text",
                                        "text": "Outside of some client device-to-server encryption, how are they guarding the identifiers and general sensitivity inherit to the audio data? As in, once they have acquired the data, if they intend to share it with third parties, how are they guarding\/processing the data they share?"
                                    }
                                ]
                            }
                        ],
                        "style": "bullet",
                        "indent": 0
                    }
                ]
            }
        ],
        "thread_ts": "1586203785.072000",
        "parent_user_id": "U010KAJ3SLW"
    },
    {
        "client_msg_id": "7e545674-d4a4-4fc4-bb8c-8b5742690036",
        "type": "message",
        "text": "It's sounding sketchier and sketchier. How is that not in violation of GDPR?",
        "user": "U010KAJ3SLW",
        "ts": "1586212821.073300",
        "team": "TUU48M0T1",
        "user_team": "TUU48M0T1",
        "source_team": "TUU48M0T1",
        "user_profile": {
            "avatar_hash": "b45831828d34",
            "image_72": "https:\/\/avatars.slack-edge.com\/2020-03-24\/1022969377349_b45831828d346a95645d_72.jpg",
            "first_name": "kalliomakitiina",
            "real_name": "kalliomakitiina",
            "display_name": "tiina",
            "team": "TUU48M0T1",
            "name": "kalliomakitiina",
            "is_restricted": false,
            "is_ultra_restricted": false
        },
        "blocks": [
            {
                "type": "rich_text",
                "block_id": "ARdo",
                "elements": [
                    {
                        "type": "rich_text_section",
                        "elements": [
                            {
                                "type": "text",
                                "text": "It's sounding sketchier and sketchier. How is that not in violation of GDPR?"
                            }
                        ]
                    }
                ]
            }
        ],
        "thread_ts": "1586203785.072000",
        "parent_user_id": "U010KAJ3SLW"
    },
    {
        "client_msg_id": "d1bfdeee-a96f-4c78-a638-61efd9bc8a4b",
        "type": "message",
        "text": "For GDPR processing of stuff, there's this:\n• <https:\/\/gdpr-info.eu\/art-6-gdpr\/>\nHowever <http:\/\/Voca.AI|Voca.AI> is NYC-based. Not seeing their Privacy Policy listed on their site. I'll ask them for it too.\n\nI'm not sure how well anyone on their Customer Support may answer the above questions. Wondering how their Customer Support is doing rn with this covid thing being here.",
        "user": "UVDCTDP8B",
        "ts": "1586214061.073500",
        "team": "TUU48M0T1",
        "user_team": "TUU48M0T1",
        "source_team": "TUU48M0T1",
        "user_profile": {
            "avatar_hash": "b9681d276810",
            "image_72": "https:\/\/avatars.slack-edge.com\/2020-03-21\/1018866726103_b9681d2768103ad056d7_72.jpg",
            "first_name": "",
            "real_name": "Wesley",
            "display_name": "Wesley",
            "team": "TUU48M0T1",
            "name": "someprogrammerorsomet",
            "is_restricted": false,
            "is_ultra_restricted": false
        },
        "edited": {
            "user": "UVDCTDP8B",
            "ts": "1586214721.000000"
        },
        "blocks": [
            {
                "type": "rich_text",
                "block_id": "UPXO",
                "elements": [
                    {
                        "type": "rich_text_section",
                        "elements": [
                            {
                                "type": "text",
                                "text": "For GDPR processing of stuff, there's this:\n"
                            }
                        ]
                    },
                    {
                        "type": "rich_text_list",
                        "elements": [
                            {
                                "type": "rich_text_section",
                                "elements": [
                                    {
                                        "type": "link",
                                        "url": "https:\/\/gdpr-info.eu\/art-6-gdpr\/"
                                    }
                                ]
                            }
                        ],
                        "style": "bullet",
                        "indent": 0
                    },
                    {
                        "type": "rich_text_section",
                        "elements": [
                            {
                                "type": "text",
                                "text": "\nHowever Voca.AI is NYC-based. Not seeing their Privacy Policy listed on their site. I'll ask them for it too.\n\nI'm not sure how well anyone on their Customer Support may answer the above questions. Wondering how their Customer Support is doing rn with this covid thing being here."
                            }
                        ]
                    }
                ]
            }
        ],
        "thread_ts": "1586203785.072000",
        "parent_user_id": "U010KAJ3SLW"
    }
]