[
    {
        "type": "message",
        "subtype": "channel_name",
        "ts": "1586876849.000100",
        "user": "U011XCJJ7KK",
        "text": "<@U011XCJJ7KK> has renamed the channel from \"populationtagging\" to \"proj-populationtagging\"",
        "old_name": "populationtagging",
        "name": "proj-populationtagging"
    },
    {
        "type": "message",
        "subtype": "channel_purpose",
        "ts": "1586876849.000200",
        "user": "U011XCJJ7KK",
        "text": "<@U011XCJJ7KK> set the channel purpose: A visual tagging system for recovered\/immune peoples to prevent Coronavirus spread while making the recovered\/immune peoples productive. <https:\/\/solve.mit.edu\/challenges\/health-security-pandemics\/solutions\/19875>",
        "purpose": "A visual tagging system for recovered\/immune peoples to prevent Coronavirus spread while making the recovered\/immune peoples productive. <https:\/\/solve.mit.edu\/challenges\/health-security-pandemics\/solutions\/19875>"
    }
]