[
    {
        "type": "message",
        "subtype": "channel_join",
        "ts": "1587574184.000200",
        "user": "U011B6VLM2A",
        "text": "<@U011B6VLM2A> has joined the channel"
    },
    {
        "type": "message",
        "subtype": "channel_purpose",
        "ts": "1587574185.000300",
        "user": "U011B6VLM2A",
        "text": "<@U011B6VLM2A> set the channel purpose: A lab space? A 3D printer? New enzymes? If your project needs specific resources in order to be successful, use this channel to seek out people who might be able to help!",
        "purpose": "A lab space? A 3D printer? New enzymes? If your project needs specific resources in order to be successful, use this channel to seek out people who might be able to help!"
    },
    {
        "type": "message",
        "subtype": "channel_join",
        "ts": "1587574189.000500",
        "user": "UV9V03C8Y",
        "text": "<@UV9V03C8Y> has joined the channel",
        "inviter": "U011B6VLM2A"
    },
    {
        "type": "message",
        "subtype": "channel_topic",
        "ts": "1587574192.000600",
        "user": "U011B6VLM2A",
        "text": "<@U011B6VLM2A> set the channel topic: A lab space? A 3D printer? New enzymes? If your project needs specific resources in order to be successful, use this channel to seek out people who might be able to help!",
        "topic": "A lab space? A 3D printer? New enzymes? If your project needs specific resources in order to be successful, use this channel to seek out people who might be able to help!"
    },
    {
        "client_msg_id": "cff00f8d-7424-4a47-a5f8-d7ac6191d658",
        "type": "message",
        "text": "<@UV9V03C8Y>  - can you make this channel auto-join for new members? Thanks!",
        "user": "U011B6VLM2A",
        "ts": "1587574208.000800",
        "team": "TUU48M0T1",
        "user_team": "TUU48M0T1",
        "source_team": "TUU48M0T1",
        "user_profile": {
            "avatar_hash": "4231dc598cfc",
            "image_72": "https:\/\/avatars.slack-edge.com\/2020-04-02\/1044784558839_4231dc598cfc2e59c4c4_72.jpg",
            "first_name": "Alix",
            "real_name": "Alix Mains",
            "display_name": "Alix Mains - JOGL Coordinator",
            "team": "TUU48M0T1",
            "name": "alixhmains",
            "is_restricted": false,
            "is_ultra_restricted": false
        },
        "blocks": [
            {
                "type": "rich_text",
                "block_id": "iIk",
                "elements": [
                    {
                        "type": "rich_text_section",
                        "elements": [
                            {
                                "type": "user",
                                "user_id": "UV9V03C8Y"
                            },
                            {
                                "type": "text",
                                "text": "  - can you make this channel auto-join for new members? Thanks!"
                            }
                        ]
                    }
                ]
            }
        ]
    }
]