[
    {
        "client_msg_id": "3c628491-c8d7-449e-b6bd-532e4bafed97",
        "type": "message",
        "text": "105+ open innovation initiatives to address the coronavirus pandemic <https:\/\/www.luminary-labs.com\/insight\/covid-19-open-innovation-index\/>",
        "user": "UUWQU0D8T",
        "ts": "1586507670.264500",
        "team": "TUU48M0T1",
        "user_team": "TUU48M0T1",
        "source_team": "TUU48M0T1",
        "user_profile": {
            "avatar_hash": "ced1bbd4fafd",
            "image_72": "https:\/\/avatars.slack-edge.com\/2020-03-12\/997488626918_ced1bbd4fafddfa4869c_72.png",
            "first_name": "Marianna",
            "real_name": "Marianna Limas",
            "display_name": "Marianna Limas",
            "team": "TUU48M0T1",
            "name": "mnnlimas",
            "is_restricted": false,
            "is_ultra_restricted": false
        },
        "attachments": [
            {
                "service_name": "Luminary Labs",
                "title": "COVID-19 open innovation index | Luminary Labs",
                "title_link": "https:\/\/www.luminary-labs.com\/insight\/covid-19-open-innovation-index\/",
                "text": "105+ open innovation initiatives to address the coronavirus pandemic, sourced from Luminary Labs' extended network.",
                "fallback": "Luminary Labs: COVID-19 open innovation index | Luminary Labs",
                "image_url": "https:\/\/www.luminary-labs.com\/wp-content\/uploads\/2020\/03\/0325_XHeader_COVID-OI-Inits-1024x683.png",
                "image_width": 375,
                "image_height": 250,
                "from_url": "https:\/\/www.luminary-labs.com\/insight\/covid-19-open-innovation-index\/",
                "image_bytes": 63210,
                "id": 1,
                "original_url": "https:\/\/www.luminary-labs.com\/insight\/covid-19-open-innovation-index\/"
            }
        ],
        "blocks": [
            {
                "type": "rich_text",
                "block_id": "alSm",
                "elements": [
                    {
                        "type": "rich_text_section",
                        "elements": [
                            {
                                "type": "text",
                                "text": "105+ open innovation initiatives to address the coronavirus pandemic "
                            },
                            {
                                "type": "link",
                                "url": "https:\/\/www.luminary-labs.com\/insight\/covid-19-open-innovation-index\/"
                            }
                        ]
                    }
                ]
            }
        ],
        "reactions": [
            {
                "name": "+1",
                "users": [
                    "UV02WET96"
                ],
                "count": 1
            },
            {
                "name": "star-struck",
                "users": [
                    "UV9V03C8Y"
                ],
                "count": 1
            }
        ]
    },
    {
        "client_msg_id": "4985A282-E138-4187-9DA0-4EC470EB00AA",
        "type": "message",
        "text": "Je ne pourrai pas m’occuper de créer un projet sur JOGL mais ces designs sont à disposition de tous et mériteraient un groupe pour développer leur production!",
        "user": "U0106NJNM17",
        "ts": "1586542890.267200",
        "team": "TUU48M0T1",
        "user_team": "TUU48M0T1",
        "source_team": "TUU48M0T1",
        "user_profile": {
            "avatar_hash": "gc09b413a2fb",
            "image_72": "https:\/\/secure.gravatar.com\/avatar\/c09b413a2fb05b3c1097e14a64b9092c.jpg?s=72&d=https%3A%2F%2Fa.slack-edge.com%2Fdf10d%2Fimg%2Favatars%2Fava_0000-72.png",
            "first_name": "",
            "real_name": "Guillaume Tassin",
            "display_name": "",
            "team": "TUU48M0T1",
            "name": "guillaume.tassin",
            "is_restricted": false,
            "is_ultra_restricted": false
        },
        "blocks": [
            {
                "type": "rich_text",
                "block_id": "e1OT",
                "elements": [
                    {
                        "type": "rich_text_section",
                        "elements": [
                            {
                                "type": "text",
                                "text": "Je ne pourrai pas m’occuper de créer un projet sur JOGL mais ces designs sont à disposition de tous et mériteraient un groupe pour développer leur production!"
                            }
                        ]
                    }
                ]
            }
        ],
        "thread_ts": "1586362799.213200",
        "parent_user_id": "U0106NJNM17"
    },
    {
        "client_msg_id": "eb5ae455-9118-456e-bfcf-1fbc2a93342a",
        "type": "message",
        "text": "who is dreaming up app ideas like this? <https:\/\/www.axios.com\/apple-google-team-up-on-coronavirus-contact-tracing-6579b80f-f348-4c8e-ac87-d823b9abb4fb.html>",
        "user": "UV87UQ37A",
        "ts": "1586543476.267700",
        "team": "TUU48M0T1",
        "user_team": "TUU48M0T1",
        "source_team": "TUU48M0T1",
        "user_profile": {
            "avatar_hash": "g7c78d2f0258",
            "image_72": "https:\/\/secure.gravatar.com\/avatar\/7c78d2f0258f7bdf78a86301cfd6b712.jpg?s=72&d=https%3A%2F%2Fa.slack-edge.com%2Fdf10d%2Fimg%2Favatars%2Fava_0014-72.png",
            "first_name": "Victoria",
            "real_name": "Victoria Costa",
            "display_name": "Victoria Costa",
            "team": "TUU48M0T1",
            "name": "victorycoast",
            "is_restricted": false,
            "is_ultra_restricted": false
        },
        "attachments": [
            {
                "service_name": "Axios",
                "title": "Apple, Google team up on coronavirus contact tracing",
                "title_link": "https:\/\/www.axios.com\/apple-google-team-up-on-coronavirus-contact-tracing-6579b80f-f348-4c8e-ac87-d823b9abb4fb.html",
                "text": "The smartphone based approach uses Bluetooth in a way that the companies say protects privacy.",
                "fallback": "Axios: Apple, Google team up on coronavirus contact tracing",
                "image_url": "https:\/\/images.axios.com\/446873oslrlD0KT6uu1bapXS9aY=\/2020\/04\/10\/1586536140951.png",
                "from_url": "https:\/\/www.axios.com\/apple-google-team-up-on-coronavirus-contact-tracing-6579b80f-f348-4c8e-ac87-d823b9abb4fb.html",
                "image_width": 467,
                "image_height": 250,
                "image_bytes": 205929,
                "service_icon": "https:\/\/static.axios.com\/img\/axios-site\/favicon-16x16.png",
                "id": 1,
                "original_url": "https:\/\/www.axios.com\/apple-google-team-up-on-coronavirus-contact-tracing-6579b80f-f348-4c8e-ac87-d823b9abb4fb.html"
            }
        ],
        "blocks": [
            {
                "type": "rich_text",
                "block_id": "SWe",
                "elements": [
                    {
                        "type": "rich_text_section",
                        "elements": [
                            {
                                "type": "text",
                                "text": "who is dreaming up app ideas like this? "
                            },
                            {
                                "type": "link",
                                "url": "https:\/\/www.axios.com\/apple-google-team-up-on-coronavirus-contact-tracing-6579b80f-f348-4c8e-ac87-d823b9abb4fb.html"
                            }
                        ]
                    }
                ]
            }
        ],
        "thread_ts": "1586543476.267700",
        "reply_count": 2,
        "reply_users_count": 2,
        "latest_reply": "1586591547.269000",
        "reply_users": [
            "U01188XCK19",
            "U010G3HSC9X"
        ],
        "replies": [
            {
                "user": "U01188XCK19",
                "ts": "1586543764.267900"
            },
            {
                "user": "U010G3HSC9X",
                "ts": "1586591547.269000"
            }
        ],
        "subscribed": false
    },
    {
        "client_msg_id": "c5cbe9e8-840b-49a0-82b1-e1d908fa6743",
        "type": "message",
        "text": "I mean, there *are* technical ways to make this privacy-safe, it's not easy but it can be done",
        "user": "U01188XCK19",
        "ts": "1586543764.267900",
        "team": "TUU48M0T1",
        "user_team": "TUU48M0T1",
        "source_team": "TUU48M0T1",
        "user_profile": {
            "avatar_hash": "gd85edfb45fa",
            "image_72": "https:\/\/secure.gravatar.com\/avatar\/d85edfb45fa87b47ea33da26228d07dd.jpg?s=72&d=https%3A%2F%2Fa.slack-edge.com%2Fdf10d%2Fimg%2Favatars%2Fava_0011-72.png",
            "first_name": "",
            "real_name": "wolf arthur",
            "display_name": "wolf arthur",
            "team": "TUU48M0T1",
            "name": "wolf.arthur",
            "is_restricted": false,
            "is_ultra_restricted": false
        },
        "blocks": [
            {
                "type": "rich_text",
                "block_id": "K9o0h",
                "elements": [
                    {
                        "type": "rich_text_section",
                        "elements": [
                            {
                                "type": "text",
                                "text": "I mean, there "
                            },
                            {
                                "type": "text",
                                "text": "are",
                                "style": {
                                    "bold": true
                                }
                            },
                            {
                                "type": "text",
                                "text": " technical ways to make this privacy-safe, it's not easy but it can be done"
                            }
                        ]
                    }
                ]
            }
        ],
        "thread_ts": "1586543476.267700",
        "parent_user_id": "UV87UQ37A"
    },
    {
        "client_msg_id": "20174d29-38dd-48b5-a600-6c240e7e0418",
        "type": "message",
        "text": "<https:\/\/fastgrants.org\/?utm_campaign=Advocacy&amp;utm_id=004qpd4r9974xmc&amp;utm_medium=social&amp;utm_source=facebook>",
        "user": "U0118T0THTP",
        "ts": "1586578328.268800",
        "team": "TUU48M0T1",
        "user_team": "TUU48M0T1",
        "source_team": "TUU48M0T1",
        "user_profile": {
            "avatar_hash": "115541311c96",
            "image_72": "https:\/\/avatars.slack-edge.com\/2020-04-02\/1044155516661_115541311c966db28fa4_72.jpg",
            "first_name": "Gabriela",
            "real_name": "Gabriela Rios-Sotelo",
            "display_name": "Gabriela Rios-Sotelo",
            "team": "TUU48M0T1",
            "name": "gabriela18",
            "is_restricted": false,
            "is_ultra_restricted": false
        },
        "attachments": [
            {
                "title": "Fast Grants",
                "title_link": "https:\/\/fastgrants.org\/?utm_campaign=Advocacy&utm_id=004qpd4r9974xmc&utm_medium=social&utm_source=facebook",
                "text": "Funding for scientists at academic institutions working on COVID-19 related projects.",
                "fallback": "Fast Grants",
                "image_url": "https:\/\/fastgrants.org\/social.png",
                "from_url": "https:\/\/fastgrants.org\/?utm_campaign=Advocacy&utm_id=004qpd4r9974xmc&utm_medium=social&utm_source=facebook",
                "image_width": 500,
                "image_height": 250,
                "image_bytes": 71090,
                "service_icon": "https:\/\/fastgrants.org\/favicon-32x32.png",
                "service_name": "fastgrants.org",
                "id": 1,
                "original_url": "https:\/\/fastgrants.org\/?utm_campaign=Advocacy&amp;utm_id=004qpd4r9974xmc&amp;utm_medium=social&amp;utm_source=facebook"
            }
        ],
        "blocks": [
            {
                "type": "rich_text",
                "block_id": "FFJ",
                "elements": [
                    {
                        "type": "rich_text_section",
                        "elements": [
                            {
                                "type": "link",
                                "url": "https:\/\/fastgrants.org\/?utm_campaign=Advocacy&utm_id=004qpd4r9974xmc&utm_medium=social&utm_source=facebook"
                            }
                        ]
                    }
                ]
            }
        ]
    }
]