[
    {
        "client_msg_id": "ca412070-458e-460b-adaf-0461ba5c62ef",
        "type": "message",
        "text": "hi!",
        "user": "UV1A22N3W",
        "ts": "1583661388.003600",
        "team": "TUU48M0T1",
        "user_team": "TUU48M0T1",
        "source_team": "TUU48M0T1",
        "user_profile": {
            "avatar_hash": "71f827776ad6",
            "image_72": "https:\/\/avatars.slack-edge.com\/2020-03-09\/988125642964_71f827776ad610af05a2_72.jpg",
            "first_name": "",
            "real_name": "RachelA",
            "display_name": "RachelA",
            "team": "TUU48M0T1",
            "name": "raronoff",
            "is_restricted": false,
            "is_ultra_restricted": false
        },
        "blocks": [
            {
                "type": "rich_text",
                "block_id": "1uqfT",
                "elements": [
                    {
                        "type": "rich_text_section",
                        "elements": [
                            {
                                "type": "text",
                                "text": "hi!"
                            }
                        ]
                    }
                ]
            }
        ],
        "reactions": [
            {
                "name": "wave",
                "users": [
                    "UUUEFQW8N",
                    "UV3HA9MM4"
                ],
                "count": 2
            }
        ]
    },
    {
        "client_msg_id": "4670d3e1-055f-4892-9ac2-d08b36fbd10c",
        "type": "message",
        "text": "Here is a link to the WHO training module on preventing ARI (incl Corona\/Covid19) transmissions. Share in your local language!\n<https:\/\/openwho.org\/channels\/covid-19>",
        "user": "UUQM4L2AF",
        "ts": "1583713145.005400",
        "team": "TUU48M0T1",
        "user_team": "TUU48M0T1",
        "source_team": "TUU48M0T1",
        "user_profile": {
            "avatar_hash": "8498d1c7b98b",
            "image_72": "https:\/\/avatars.slack-edge.com\/2020-03-08\/988293405557_8498d1c7b98b63b41054_72.jpg",
            "first_name": "",
            "real_name": "JJ Hastings",
            "display_name": "JJ Hastings",
            "team": "TUU48M0T1",
            "name": "astro.hacker.2001",
            "is_restricted": false,
            "is_ultra_restricted": false
        },
        "attachments": [
            {
                "title": "COVID-19",
                "title_link": "https:\/\/openwho.org\/channels\/covid-19",
                "text": "Real-time training during global emergencies is critical for effective preparedness and response. The COVID-19 Channel provides learning resources for health professionals, decision-makers and the public for the outbreak of coronavirus disease (COVID-19). As the outbreak continues to evolve, new resources will be added and existing courses will be updated to best reflect the changing context.",
                "fallback": "COVID-19",
                "image_url": "https:\/\/s3.xopic.de\/openwho-public\/channels\/7fSc4JEBeO9H0P4b8d1Cfq\/stage_visual_v2.png",
                "from_url": "https:\/\/openwho.org\/channels\/covid-19",
                "image_width": 960,
                "image_height": 250,
                "image_bytes": 1229933,
                "service_name": "openwho.org",
                "id": 1,
                "original_url": "https:\/\/openwho.org\/channels\/covid-19"
            }
        ],
        "blocks": [
            {
                "type": "rich_text",
                "block_id": "z9Y",
                "elements": [
                    {
                        "type": "rich_text_section",
                        "elements": [
                            {
                                "type": "text",
                                "text": "Here is a link to the WHO training module on preventing ARI (incl Corona\/Covid19) transmissions. Share in your local language!\n"
                            },
                            {
                                "type": "link",
                                "url": "https:\/\/openwho.org\/channels\/covid-19"
                            }
                        ]
                    }
                ]
            }
        ],
        "reactions": [
            {
                "name": "100",
                "users": [
                    "UUUEFQW8N",
                    "UV0QTJCMT"
                ],
                "count": 2
            },
            {
                "name": "+1",
                "users": [
                    "UV1A22N3W",
                    "UUVC28VNW"
                ],
                "count": 2
            }
        ]
    },
    {
        "client_msg_id": "caaccf76-8b78-4881-9268-41c0fd612a0b",
        "type": "message",
        "text": "<https:\/\/twitter.com\/AguzziTemp\/status\/1236378963234172928?s=20>",
        "user": "UUNGFHSV8",
        "ts": "1583716513.005900",
        "team": "TUU48M0T1",
        "user_team": "TUU48M0T1",
        "source_team": "TUU48M0T1",
        "user_profile": {
            "avatar_hash": "1c55ee32397a",
            "image_72": "https:\/\/avatars.slack-edge.com\/2020-03-07\/987349161984_1c55ee32397a85a87ec4_72.png",
            "first_name": "Isaac",
            "real_name": "Isaac Larkin",
            "display_name": "Isaac Larkin",
            "team": "TUU48M0T1",
            "name": "eyesmo",
            "is_restricted": false,
            "is_ultra_restricted": false
        },
        "blocks": [
            {
                "type": "rich_text",
                "block_id": "I2Fj5",
                "elements": [
                    {
                        "type": "rich_text_section",
                        "elements": [
                            {
                                "type": "link",
                                "url": "https:\/\/twitter.com\/AguzziTemp\/status\/1236378963234172928?s=20"
                            }
                        ]
                    }
                ]
            }
        ]
    },
    {
        "client_msg_id": "751a6290-9493-4b05-aa6f-519ecc880fd3",
        "type": "message",
        "text": "^Professors Adriano Aguzzi and Gebhard Schertler at ETH Zurich saying they can make and are willing to share large amounts of properly folded recombinant SARS-CoV-2\/COVID-19 proteins. Most of the proposed detection tests focus on nucleic acids but it might still be worth looking into protein detection",
        "user": "UUNGFHSV8",
        "ts": "1583716719.008500",
        "team": "TUU48M0T1",
        "user_team": "TUU48M0T1",
        "source_team": "TUU48M0T1",
        "user_profile": {
            "avatar_hash": "1c55ee32397a",
            "image_72": "https:\/\/avatars.slack-edge.com\/2020-03-07\/987349161984_1c55ee32397a85a87ec4_72.png",
            "first_name": "Isaac",
            "real_name": "Isaac Larkin",
            "display_name": "Isaac Larkin",
            "team": "TUU48M0T1",
            "name": "eyesmo",
            "is_restricted": false,
            "is_ultra_restricted": false
        },
        "edited": {
            "user": "UUNGFHSV8",
            "ts": "1583716736.000000"
        },
        "blocks": [
            {
                "type": "rich_text",
                "block_id": "hZd",
                "elements": [
                    {
                        "type": "rich_text_section",
                        "elements": [
                            {
                                "type": "text",
                                "text": "^Professors Adriano Aguzzi and Gebhard Schertler at ETH Zurich saying they can make and are willing to share large amounts of properly folded recombinant SARS-CoV-2\/COVID-19 proteins. Most of the proposed detection tests focus on nucleic acids but it might still be worth looking into protein detection"
                            }
                        ]
                    }
                ]
            }
        ],
        "thread_ts": "1583716719.008500",
        "reply_count": 4,
        "reply_users_count": 2,
        "latest_reply": "1583830276.019400",
        "reply_users": [
            "UV02WET96",
            "UUP8XJTH8"
        ],
        "replies": [
            {
                "user": "UV02WET96",
                "ts": "1583760781.011700"
            },
            {
                "user": "UV02WET96",
                "ts": "1583760798.011900"
            },
            {
                "user": "UUP8XJTH8",
                "ts": "1583830251.019200"
            },
            {
                "user": "UUP8XJTH8",
                "ts": "1583830276.019400"
            }
        ],
        "subscribed": false,
        "reactions": [
            {
                "name": "100",
                "users": [
                    "UUUEFQW8N",
                    "UV2SC7ZE3"
                ],
                "count": 2
            },
            {
                "name": "+1",
                "users": [
                    "UV1A22N3W",
                    "UV39M083H",
                    "UV0GKVDUZ",
                    "U0103SR759U"
                ],
                "count": 4
            }
        ]
    }
]