[
    {
        "client_msg_id": "29F0C62F-67B5-4A07-88DB-DD09B3EA0603",
        "type": "message",
        "text": "<https:\/\/www.aclu.org\/report\/aclu-white-paper-principles-technology-assisted-contact-tracing|https:\/\/www.aclu.org\/report\/aclu-white-paper-principles-technology-assisted-contact-tracing>",
        "user": "UV87UQ37A",
        "ts": "1588692819.406100",
        "team": "TUU48M0T1",
        "user_team": "TUU48M0T1",
        "source_team": "TUU48M0T1",
        "user_profile": {
            "avatar_hash": "g7c78d2f0258",
            "image_72": "https:\/\/secure.gravatar.com\/avatar\/7c78d2f0258f7bdf78a86301cfd6b712.jpg?s=72&d=https%3A%2F%2Fa.slack-edge.com%2Fdf10d%2Fimg%2Favatars%2Fava_0014-72.png",
            "first_name": "Victoria",
            "real_name": "Victoria Costa",
            "display_name": "Victoria Costa",
            "team": "TUU48M0T1",
            "name": "victorycoast",
            "is_restricted": false,
            "is_ultra_restricted": false
        },
        "attachments": [
            {
                "service_name": "American Civil Liberties Union",
                "title": "ACLU White Paper — Principles for Technology-Assisted Contact-Tracing",
                "title_link": "https:\/\/www.aclu.org\/report\/aclu-white-paper-principles-technology-assisted-contact-tracing",
                "fallback": "American Civil Liberties Union: ACLU White Paper — Principles for Technology-Assisted Contact-Tracing",
                "image_url": "https:\/\/www.aclu.org\/sites\/all\/modules\/custom\/aclu_metatags\/images\/default_fb_share.jpg",
                "from_url": "https:\/\/www.aclu.org\/report\/aclu-white-paper-principles-technology-assisted-contact-tracing",
                "image_width": 478,
                "image_height": 250,
                "image_bytes": 158508,
                "service_icon": "https:\/\/www.aclu.org\/sites\/all\/themes\/custom\/aclu\/favicons\/apple-touch-icon-120x120.png?v=1",
                "id": 1,
                "original_url": "https:\/\/www.aclu.org\/report\/aclu-white-paper-principles-technology-assisted-contact-tracing"
            }
        ],
        "blocks": [
            {
                "type": "rich_text",
                "block_id": "2Nii9",
                "elements": [
                    {
                        "type": "rich_text_section",
                        "elements": [
                            {
                                "type": "link",
                                "url": "https:\/\/www.aclu.org\/report\/aclu-white-paper-principles-technology-assisted-contact-tracing",
                                "text": "https:\/\/www.aclu.org\/report\/aclu-white-paper-principles-technology-assisted-contact-tracing"
                            }
                        ]
                    }
                ]
            }
        ]
    },
    {
        "client_msg_id": "4773cc62-a7e5-4a08-bd5a-76032dc1aad2",
        "type": "message",
        "text": "I've been researching fabrics to use for <#C011XPZF4JF|proj-basic-respirator> and I came across this article about the filtration efficiency of woven materials specific to aerosol particulate sizes for virus transmission. They measured both mechanical and electrostatic filtration of various fibers and densities. If anyone else has seen more articles like this please let me know!\n<https:\/\/pubs.acs.org\/doi\/10.1021\/acsnano.0c03252>",
        "user": "U011G0QGFN3",
        "ts": "1588710743.407100",
        "team": "TUU48M0T1",
        "user_team": "TUU48M0T1",
        "source_team": "TUU48M0T1",
        "user_profile": {
            "avatar_hash": "e5bfa29546fa",
            "image_72": "https:\/\/avatars.slack-edge.com\/2020-04-15\/1077438063281_e5bfa29546fa8873e2fc_72.jpg",
            "first_name": "Hunter",
            "real_name": "Hunter Futo",
            "display_name": "Hunter Futo",
            "team": "TUU48M0T1",
            "name": "hunter",
            "is_restricted": false,
            "is_ultra_restricted": false
        },
        "blocks": [
            {
                "type": "rich_text",
                "block_id": "dJEt7",
                "elements": [
                    {
                        "type": "rich_text_section",
                        "elements": [
                            {
                                "type": "text",
                                "text": "I've been researching fabrics to use for "
                            },
                            {
                                "type": "channel",
                                "channel_id": "C011XPZF4JF"
                            },
                            {
                                "type": "text",
                                "text": " and I came across this article about the filtration efficiency of woven materials specific to aerosol particulate sizes for virus transmission. They measured both mechanical and electrostatic filtration of various fibers and densities. If anyone else has seen more articles like this please let me know!\n"
                            },
                            {
                                "type": "link",
                                "url": "https:\/\/pubs.acs.org\/doi\/10.1021\/acsnano.0c03252"
                            }
                        ]
                    }
                ]
            }
        ],
        "thread_ts": "1588710743.407100",
        "reply_count": 1,
        "reply_users_count": 1,
        "latest_reply": "1588710770.407200",
        "reply_users": [
            "U011G0QGFN3"
        ],
        "replies": [
            {
                "user": "U011G0QGFN3",
                "ts": "1588710770.407200"
            }
        ],
        "subscribed": false
    },
    {
        "client_msg_id": "ca058bcb-5491-4ec0-b38b-d3cc324154a6",
        "type": "message",
        "text": "<@U010Q3G4MDF> you may be interested in this article too",
        "user": "U011G0QGFN3",
        "ts": "1588710770.407200",
        "team": "TUU48M0T1",
        "user_team": "TUU48M0T1",
        "source_team": "TUU48M0T1",
        "user_profile": {
            "avatar_hash": "e5bfa29546fa",
            "image_72": "https:\/\/avatars.slack-edge.com\/2020-04-15\/1077438063281_e5bfa29546fa8873e2fc_72.jpg",
            "first_name": "Hunter",
            "real_name": "Hunter Futo",
            "display_name": "Hunter Futo",
            "team": "TUU48M0T1",
            "name": "hunter",
            "is_restricted": false,
            "is_ultra_restricted": false
        },
        "blocks": [
            {
                "type": "rich_text",
                "block_id": "2VZS",
                "elements": [
                    {
                        "type": "rich_text_section",
                        "elements": [
                            {
                                "type": "user",
                                "user_id": "U010Q3G4MDF"
                            },
                            {
                                "type": "text",
                                "text": " you may be interested in this article too"
                            }
                        ]
                    }
                ]
            }
        ],
        "thread_ts": "1588710743.407100",
        "parent_user_id": "U011G0QGFN3"
    }
]