[
    {
        "type": "message",
        "subtype": "channel_join",
        "ts": "1587239605.000200",
        "user": "U010B412MF1",
        "text": "<@U010B412MF1> has joined the channel"
    },
    {
        "type": "message",
        "subtype": "channel_join",
        "ts": "1587239605.000400",
        "user": "UVDJ0PAQK",
        "text": "<@UVDJ0PAQK> has joined the channel",
        "inviter": "U010B412MF1"
    },
    {
        "type": "message",
        "subtype": "channel_join",
        "ts": "1587239605.000600",
        "user": "U0104M5CWV9",
        "text": "<@U0104M5CWV9> has joined the channel",
        "inviter": "U010B412MF1"
    },
    {
        "type": "message",
        "subtype": "channel_join",
        "ts": "1587239605.000800",
        "user": "U012G0X589F",
        "text": "<@U012G0X589F> has joined the channel",
        "inviter": "U010B412MF1"
    },
    {
        "client_msg_id": "be18b8ed-6669-434c-a1cf-a2abbb6bda2e",
        "type": "message",
        "text": "Hey, everyone, \n<@U012G0X589F>  created a project on jogl \n<https:\/\/app.jogl.io\/project\/216#news|https:\/\/app.jogl.io\/project\/216#news>\nIt would be great if you could spread a word to those people who may be interested :computer:\n\n<@U0101DKUALV> <@UV9V03C8Y> <@U0108UAAUQM> \nThanks!\n\nI saw there is a channel <#C01044Q28UB|proj-dev-edgame> and other related projects to education, so feel free to spread a word. :loudspeaker::strawberry::shaved_ice:",
        "user": "U010B412MF1",
        "ts": "1587240325.004100",
        "team": "TUU48M0T1",
        "user_team": "TUU48M0T1",
        "source_team": "TUU48M0T1",
        "user_profile": {
            "avatar_hash": "218d963a797f",
            "image_72": "https:\/\/avatars.slack-edge.com\/2020-03-19\/1013072792629_218d963a797fbf4410c0_72.png",
            "first_name": "",
            "real_name": "liu",
            "display_name": "liu",
            "team": "TUU48M0T1",
            "name": "liubov.tupikina",
            "is_restricted": false,
            "is_ultra_restricted": false
        },
        "attachments": [
            {
                "title": "JOGL - Just One Giant Lab",
                "title_link": "https:\/\/app.jogl.io\/project\/216#news",
                "text": "JOGL helps sync humanity onto solving our most important social &amp; environmental problems using open science, responsible innovation &amp; continuous learning.",
                "fallback": "JOGL - Just One Giant Lab",
                "thumb_url": "https:\/\/app.jogl.io\/planet.jpg",
                "from_url": "https:\/\/app.jogl.io\/project\/216#news",
                "thumb_width": 2049,
                "thumb_height": 1011,
                "service_icon": "https:\/\/app.jogl.io\/favicon.ico",
                "service_name": "app.jogl.io",
                "id": 1,
                "original_url": "https:\/\/app.jogl.io\/project\/216#news"
            }
        ],
        "blocks": [
            {
                "type": "rich_text",
                "block_id": "7c1r",
                "elements": [
                    {
                        "type": "rich_text_section",
                        "elements": [
                            {
                                "type": "text",
                                "text": "Hey, everyone, \n"
                            },
                            {
                                "type": "user",
                                "user_id": "U012G0X589F"
                            },
                            {
                                "type": "text",
                                "text": "  created a project on jogl \n"
                            },
                            {
                                "type": "link",
                                "url": "https:\/\/app.jogl.io\/project\/216#news",
                                "text": "https:\/\/app.jogl.io\/project\/216#news"
                            },
                            {
                                "type": "text",
                                "text": "\nIt would be great if you could spread a word to those people who may be interested "
                            },
                            {
                                "type": "emoji",
                                "name": "computer"
                            },
                            {
                                "type": "text",
                                "text": "\n\n"
                            },
                            {
                                "type": "user",
                                "user_id": "U0101DKUALV"
                            },
                            {
                                "type": "text",
                                "text": " "
                            },
                            {
                                "type": "user",
                                "user_id": "UV9V03C8Y"
                            },
                            {
                                "type": "text",
                                "text": " "
                            },
                            {
                                "type": "user",
                                "user_id": "U0108UAAUQM"
                            },
                            {
                                "type": "text",
                                "text": " \nThanks!\n\nI saw there is a channel "
                            },
                            {
                                "type": "channel",
                                "channel_id": "C01044Q28UB"
                            },
                            {
                                "type": "text",
                                "text": " and other related projects to education, so feel free to spread a word. "
                            },
                            {
                                "type": "emoji",
                                "name": "loudspeaker"
                            },
                            {
                                "type": "emoji",
                                "name": "strawberry"
                            },
                            {
                                "type": "emoji",
                                "name": "shaved_ice"
                            }
                        ]
                    }
                ]
            }
        ],
        "thread_ts": "1587240325.004100",
        "reply_count": 2,
        "reply_users_count": 2,
        "latest_reply": "1587289100.006700",
        "reply_users": [
            "UVDJ0PAQK",
            "U0101DKUALV"
        ],
        "replies": [
            {
                "user": "UVDJ0PAQK",
                "ts": "1587288677.006400"
            },
            {
                "user": "U0101DKUALV",
                "ts": "1587289100.006700"
            }
        ],
        "subscribed": false
    },
    {
        "type": "message",
        "subtype": "channel_join",
        "ts": "1587240328.004400",
        "user": "U0101DKUALV",
        "text": "<@U0101DKUALV> has joined the channel",
        "inviter": "U010B412MF1"
    },
    {
        "type": "message",
        "subtype": "channel_join",
        "ts": "1587240328.004600",
        "user": "UV9V03C8Y",
        "text": "<@UV9V03C8Y> has joined the channel",
        "inviter": "U010B412MF1"
    },
    {
        "type": "message",
        "subtype": "channel_join",
        "ts": "1587240328.004800",
        "user": "U0108UAAUQM",
        "text": "<@U0108UAAUQM> has joined the channel",
        "inviter": "U010B412MF1"
    },
    {
        "client_msg_id": "4eebc1db-0986-4587-aed6-d2cc197bb74a",
        "type": "message",
        "text": "I imagine this is something that <https:\/\/twitter.com\/big_data_kane> <https:\/\/twitter.com\/EpiEllie> <https:\/\/twitter.com\/ensoesie> <https:\/\/twitter.com\/LucyStats> <https:\/\/twitter.com\/aetiology> <https:\/\/twitter.com\/chngin_the_wrld> <https:\/\/twitter.com\/ashtroid22> <https:\/\/twitter.com\/dailyzad> might be interested in, if anyone knows any of them personally. I'll reach out to a few of my own connections.",
        "user": "U0104M5CWV9",
        "ts": "1587246931.006100",
        "team": "TUU48M0T1",
        "user_team": "TUU48M0T1",
        "source_team": "TUU48M0T1",
        "user_profile": {
            "avatar_hash": "g690df94d06f",
            "image_72": "https:\/\/secure.gravatar.com\/avatar\/690df94d06f11222b2bb4d765ee7ba52.jpg?s=72&d=https%3A%2F%2Fa.slack-edge.com%2Fdf10d%2Fimg%2Favatars%2Fava_0002-72.png",
            "first_name": "John",
            "real_name": "John Urbanik",
            "display_name": "John Urbanik",
            "team": "TUU48M0T1",
            "name": "johnurbanik",
            "is_restricted": false,
            "is_ultra_restricted": false
        },
        "edited": {
            "user": "U0104M5CWV9",
            "ts": "1587247032.000000"
        },
        "blocks": [
            {
                "type": "rich_text",
                "block_id": "X4\/j",
                "elements": [
                    {
                        "type": "rich_text_section",
                        "elements": [
                            {
                                "type": "text",
                                "text": "I imagine this is something that "
                            },
                            {
                                "type": "link",
                                "url": "https:\/\/twitter.com\/big_data_kane"
                            },
                            {
                                "type": "text",
                                "text": " "
                            },
                            {
                                "type": "link",
                                "url": "https:\/\/twitter.com\/EpiEllie"
                            },
                            {
                                "type": "text",
                                "text": " "
                            },
                            {
                                "type": "link",
                                "url": "https:\/\/twitter.com\/ensoesie"
                            },
                            {
                                "type": "text",
                                "text": " "
                            },
                            {
                                "type": "link",
                                "url": "https:\/\/twitter.com\/LucyStats"
                            },
                            {
                                "type": "text",
                                "text": " "
                            },
                            {
                                "type": "link",
                                "url": "https:\/\/twitter.com\/aetiology"
                            },
                            {
                                "type": "text",
                                "text": " "
                            },
                            {
                                "type": "link",
                                "url": "https:\/\/twitter.com\/chngin_the_wrld"
                            },
                            {
                                "type": "text",
                                "text": " "
                            },
                            {
                                "type": "link",
                                "url": "https:\/\/twitter.com\/ashtroid22"
                            },
                            {
                                "type": "text",
                                "text": " "
                            },
                            {
                                "type": "link",
                                "url": "https:\/\/twitter.com\/dailyzad"
                            },
                            {
                                "type": "text",
                                "text": " might be interested in, if anyone knows any of them personally. I'll reach out to a few of my own connections."
                            }
                        ]
                    }
                ]
            }
        ],
        "thread_ts": "1587246931.006100",
        "reply_count": 2,
        "reply_users_count": 2,
        "latest_reply": "1587382103.000700",
        "reply_users": [
            "U010B412MF1",
            "UV9V03C8Y"
        ],
        "replies": [
            {
                "user": "U010B412MF1",
                "ts": "1587289544.007200"
            },
            {
                "user": "UV9V03C8Y",
                "ts": "1587382103.000700"
            }
        ],
        "subscribed": false,
        "reactions": [
            {
                "name": "+1",
                "users": [
                    "U010B412MF1"
                ],
                "count": 1
            },
            {
                "name": "muscle",
                "users": [
                    "UV9V03C8Y"
                ],
                "count": 1
            }
        ]
    }
]