[
    {
        "client_msg_id": "15d47044-2f83-47aa-a2e7-a59135236d5b",
        "type": "message",
        "text": "Tnx <@U011D6K9RH6> and welcome <@U0137HD742Y>",
        "user": "U010B412MF1",
        "ts": "1588714131.038600",
        "team": "TUU48M0T1",
        "user_team": "TUU48M0T1",
        "source_team": "TUU48M0T1",
        "user_profile": {
            "avatar_hash": "218d963a797f",
            "image_72": "https:\/\/avatars.slack-edge.com\/2020-03-19\/1013072792629_218d963a797fbf4410c0_72.png",
            "first_name": "",
            "real_name": "liu",
            "display_name": "liu",
            "team": "TUU48M0T1",
            "name": "liubov.tupikina",
            "is_restricted": false,
            "is_ultra_restricted": false
        },
        "blocks": [
            {
                "type": "rich_text",
                "block_id": "4rba5",
                "elements": [
                    {
                        "type": "rich_text_section",
                        "elements": [
                            {
                                "type": "text",
                                "text": "Tnx "
                            },
                            {
                                "type": "user",
                                "user_id": "U011D6K9RH6"
                            },
                            {
                                "type": "text",
                                "text": " and welcome "
                            },
                            {
                                "type": "user",
                                "user_id": "U0137HD742Y"
                            }
                        ]
                    }
                ]
            }
        ]
    }
]