[
    {
        "client_msg_id": "04d4b3e4-9b30-4e89-a707-02802b7504e1",
        "type": "message",
        "text": "Read this morning that China scaled it's mask production capacity with a factor 12",
        "user": "U01081Y0TBP",
        "ts": "1585120503.000800",
        "team": "TUU48M0T1",
        "user_team": "TUU48M0T1",
        "source_team": "TUU48M0T1",
        "user_profile": {
            "avatar_hash": "60ec5b47107a",
            "image_72": "https:\/\/avatars.slack-edge.com\/2020-03-18\/995274181218_60ec5b47107a3bd2ca7d_72.jpg",
            "first_name": "Peter",
            "real_name": "Peter Kooren",
            "display_name": "Peter Kooren",
            "team": "TUU48M0T1",
            "name": "peterkooren",
            "is_restricted": false,
            "is_ultra_restricted": false
        },
        "blocks": [
            {
                "type": "rich_text",
                "block_id": "iKq",
                "elements": [
                    {
                        "type": "rich_text_section",
                        "elements": [
                            {
                                "type": "text",
                                "text": "Read this morning that China scaled it's mask production capacity with a factor 12"
                            }
                        ]
                    }
                ]
            }
        ],
        "thread_ts": "1585120503.000800",
        "reply_count": 1,
        "reply_users_count": 1,
        "latest_reply": "1585122685.000900",
        "reply_users": [
            "U0106PLV8PJ"
        ],
        "replies": [
            {
                "user": "U0106PLV8PJ",
                "ts": "1585122685.000900"
            }
        ],
        "subscribed": false
    },
    {
        "client_msg_id": "9e7b51a8-5129-4d55-8713-1194e6cbe670",
        "type": "message",
        "text": "I dont think this will not be for domestic demand. What goes into scaling by factor of 12?",
        "user": "U0106PLV8PJ",
        "ts": "1585122685.000900",
        "team": "TUU48M0T1",
        "user_team": "TUU48M0T1",
        "source_team": "TUU48M0T1",
        "user_profile": {
            "avatar_hash": "g2cfc1aee243",
            "image_72": "https:\/\/secure.gravatar.com\/avatar\/2cfc1aee24305a18a647efef16d68e02.jpg?s=72&d=https%3A%2F%2Fa.slack-edge.com%2Fdf10d%2Fimg%2Favatars%2Fava_0012-72.png",
            "first_name": "",
            "real_name": "Rupin Chheda",
            "display_name": "",
            "team": "TUU48M0T1",
            "name": "rupin.chheda",
            "is_restricted": false,
            "is_ultra_restricted": false
        },
        "blocks": [
            {
                "type": "rich_text",
                "block_id": "I6x5",
                "elements": [
                    {
                        "type": "rich_text_section",
                        "elements": [
                            {
                                "type": "text",
                                "text": "I dont think this will not be for domestic demand. What goes into scaling by factor of 12?"
                            }
                        ]
                    }
                ]
            }
        ],
        "thread_ts": "1585120503.000800",
        "parent_user_id": "U01081Y0TBP"
    },
    {
        "client_msg_id": "0fae6ea0-8616-4a83-b724-b25732ebd0f9",
        "type": "message",
        "text": "<https:\/\/verdextech.com\/applications\/face-masks\/> This (startup?) company creates nano filtering material and claims this does filter corona virus in contrast to current state of the art masks",
        "user": "U01081Y0TBP",
        "ts": "1585136409.002200",
        "team": "TUU48M0T1",
        "user_team": "TUU48M0T1",
        "source_team": "TUU48M0T1",
        "user_profile": {
            "avatar_hash": "60ec5b47107a",
            "image_72": "https:\/\/avatars.slack-edge.com\/2020-03-18\/995274181218_60ec5b47107a3bd2ca7d_72.jpg",
            "first_name": "Peter",
            "real_name": "Peter Kooren",
            "display_name": "Peter Kooren",
            "team": "TUU48M0T1",
            "name": "peterkooren",
            "is_restricted": false,
            "is_ultra_restricted": false
        },
        "blocks": [
            {
                "type": "rich_text",
                "block_id": "nieN",
                "elements": [
                    {
                        "type": "rich_text_section",
                        "elements": [
                            {
                                "type": "link",
                                "url": "https:\/\/verdextech.com\/applications\/face-masks\/"
                            },
                            {
                                "type": "text",
                                "text": " This (startup?) company creates nano filtering material and claims this does filter corona virus in contrast to current state of the art masks"
                            }
                        ]
                    }
                ]
            }
        ]
    },
    {
        "client_msg_id": "615df0e6-3a01-4732-9fd3-676477bbbbdc",
        "type": "message",
        "text": "<@U01081Y0TBP> thats great except their photos all have a woman wearing a face mask with huge gaps around the side would allow contaminants in - doesn't give me a lot of confidence.",
        "user": "U010HTBUHS9",
        "ts": "1585141168.003000",
        "team": "TUU48M0T1",
        "user_team": "TUU48M0T1",
        "source_team": "TUU48M0T1",
        "user_profile": {
            "avatar_hash": "e7bdbebff0d9",
            "image_72": "https:\/\/avatars.slack-edge.com\/2020-03-22\/1017951251813_e7bdbebff0d9ad1e8f12_72.jpg",
            "first_name": "",
            "real_name": "Adam Arabian",
            "display_name": "Adam Arabian",
            "team": "TUU48M0T1",
            "name": "adam.arabian",
            "is_restricted": false,
            "is_ultra_restricted": false
        },
        "blocks": [
            {
                "type": "rich_text",
                "block_id": "Ac+v",
                "elements": [
                    {
                        "type": "rich_text_section",
                        "elements": [
                            {
                                "type": "user",
                                "user_id": "U01081Y0TBP"
                            },
                            {
                                "type": "text",
                                "text": " thats great except their photos all have a woman wearing a face mask with huge gaps around the side would allow contaminants in - doesn't give me a lot of confidence."
                            }
                        ]
                    }
                ]
            }
        ]
    },
    {
        "type": "message",
        "text": "Study sterilization effect",
        "files": [
            {
                "id": "F010DQACZRR",
                "created": 1585141484,
                "timestamp": 1585141484,
                "name": "Sterilization_of_disposable_face_masks_by_means_of_dry_and_steam_sterilization_processes_an_alternative_in_case_of_acute_mask_shortages_due_to_COVID_19.pdf",
                "title": "File from Android",
                "mimetype": "application\/pdf",
                "filetype": "pdf",
                "pretty_type": "PDF",
                "user": "U01081Y0TBP",
                "editable": false,
                "size": 262593,
                "mode": "hosted",
                "is_external": false,
                "external_type": "",
                "is_public": true,
                "public_url_shared": false,
                "display_as_bot": false,
                "username": "",
                "url_private": "https:\/\/files.slack.com\/files-pri\/TUU48M0T1-F010DQACZRR\/sterilization_of_disposable_face_masks_by_means_of_dry_and_steam_sterilization_processes_an_alternative_in_case_of_acute_mask_shortages_due_to_covid_19.pdf?t=xoxe-980144714919-1133254701825-1120841107731-daf595b5a7d6c9028b0b02a925032e36",
                "url_private_download": "https:\/\/files.slack.com\/files-pri\/TUU48M0T1-F010DQACZRR\/download\/sterilization_of_disposable_face_masks_by_means_of_dry_and_steam_sterilization_processes_an_alternative_in_case_of_acute_mask_shortages_due_to_covid_19.pdf?t=xoxe-980144714919-1133254701825-1120841107731-daf595b5a7d6c9028b0b02a925032e36",
                "thumb_pdf": "https:\/\/files.slack.com\/files-tmb\/TUU48M0T1-F010DQACZRR-7527850361\/sterilization_of_disposable_face_masks_by_means_of_dry_and_steam_sterilization_processes_an_alternative_in_case_of_acute_mask_shortages_due_to_covid_19_thumb_pdf.png?t=xoxe-980144714919-1133254701825-1120841107731-daf595b5a7d6c9028b0b02a925032e36",
                "thumb_pdf_w": 909,
                "thumb_pdf_h": 1286,
                "permalink": "https:\/\/open-covid19.slack.com\/files\/U01081Y0TBP\/F010DQACZRR\/sterilization_of_disposable_face_masks_by_means_of_dry_and_steam_sterilization_processes_an_alternative_in_case_of_acute_mask_shortages_due_to_covid_19.pdf",
                "permalink_public": "https:\/\/slack-files.com\/TUU48M0T1-F010DQACZRR-43519d1d03",
                "is_starred": false,
                "has_rich_preview": false
            }
        ],
        "upload": true,
        "blocks": [
            {
                "type": "rich_text",
                "block_id": "SD2",
                "elements": [
                    {
                        "type": "rich_text_section",
                        "elements": [
                            {
                                "type": "text",
                                "text": "Study sterilization effect"
                            }
                        ]
                    }
                ]
            }
        ],
        "user": "U01081Y0TBP",
        "display_as_bot": false,
        "ts": "1585141487.003100",
        "client_msg_id": "cc239f4c-5d6b-4a91-82c7-6295abb9d4f4"
    },
    {
        "client_msg_id": "d54840bf-5ecc-4712-a60a-7240e79a55b6",
        "type": "message",
        "text": "<@U01081Y0TBP> Any idea if they are going to do more samples?  The n is really small and I suspect the docs here will be skeptical.",
        "user": "U010HTBUHS9",
        "ts": "1585141880.003800",
        "team": "TUU48M0T1",
        "user_team": "TUU48M0T1",
        "source_team": "TUU48M0T1",
        "user_profile": {
            "avatar_hash": "e7bdbebff0d9",
            "image_72": "https:\/\/avatars.slack-edge.com\/2020-03-22\/1017951251813_e7bdbebff0d9ad1e8f12_72.jpg",
            "first_name": "",
            "real_name": "Adam Arabian",
            "display_name": "Adam Arabian",
            "team": "TUU48M0T1",
            "name": "adam.arabian",
            "is_restricted": false,
            "is_ultra_restricted": false
        },
        "blocks": [
            {
                "type": "rich_text",
                "block_id": "B9D",
                "elements": [
                    {
                        "type": "rich_text_section",
                        "elements": [
                            {
                                "type": "user",
                                "user_id": "U01081Y0TBP"
                            },
                            {
                                "type": "text",
                                "text": " Any idea if they are going to do more samples?  The n is really small and I suspect the docs here will be skeptical."
                            }
                        ]
                    }
                ]
            }
        ]
    },
    {
        "client_msg_id": "4cf30ddc-72ea-4694-b4fd-4fb4662a59bc",
        "type": "message",
        "text": "I believe they will. The Dutch hospitals will require that as well. These numbers are just from the press. I will follow their posts on linkedin",
        "user": "U01081Y0TBP",
        "ts": "1585142280.006600",
        "team": "TUU48M0T1",
        "user_team": "TUU48M0T1",
        "source_team": "TUU48M0T1",
        "user_profile": {
            "avatar_hash": "60ec5b47107a",
            "image_72": "https:\/\/avatars.slack-edge.com\/2020-03-18\/995274181218_60ec5b47107a3bd2ca7d_72.jpg",
            "first_name": "Peter",
            "real_name": "Peter Kooren",
            "display_name": "Peter Kooren",
            "team": "TUU48M0T1",
            "name": "peterkooren",
            "is_restricted": false,
            "is_ultra_restricted": false
        },
        "blocks": [
            {
                "type": "rich_text",
                "block_id": "h+hk\/",
                "elements": [
                    {
                        "type": "rich_text_section",
                        "elements": [
                            {
                                "type": "text",
                                "text": "I believe they will. The Dutch hospitals will require that as well. These numbers are just from the press. I will follow their posts on linkedin"
                            }
                        ]
                    }
                ]
            }
        ]
    },
    {
        "client_msg_id": "d23b714c-b7dd-4a59-a2bc-4e7896c3931d",
        "type": "message",
        "text": "<@U01081Y0TBP> thx.  It would be incredibly helpful to have a known and validated protocol!",
        "user": "U010HTBUHS9",
        "ts": "1585142486.007100",
        "team": "TUU48M0T1",
        "user_team": "TUU48M0T1",
        "source_team": "TUU48M0T1",
        "user_profile": {
            "avatar_hash": "e7bdbebff0d9",
            "image_72": "https:\/\/avatars.slack-edge.com\/2020-03-22\/1017951251813_e7bdbebff0d9ad1e8f12_72.jpg",
            "first_name": "",
            "real_name": "Adam Arabian",
            "display_name": "Adam Arabian",
            "team": "TUU48M0T1",
            "name": "adam.arabian",
            "is_restricted": false,
            "is_ultra_restricted": false
        },
        "blocks": [
            {
                "type": "rich_text",
                "block_id": "SZ5",
                "elements": [
                    {
                        "type": "rich_text_section",
                        "elements": [
                            {
                                "type": "user",
                                "user_id": "U01081Y0TBP"
                            },
                            {
                                "type": "text",
                                "text": " thx.  It would be incredibly helpful to have a known and validated protocol!"
                            }
                        ]
                    }
                ]
            }
        ]
    },
    {
        "client_msg_id": "4b5a059a-324e-4bb7-abe1-518d4c709c47",
        "type": "message",
        "text": "Hey guys, how is it going :slightly_smiling_face:\nWhat would you like to present during the global community call today?",
        "user": "UV02WET96",
        "ts": "1585151926.007300",
        "team": "TUU48M0T1",
        "user_team": "TUU48M0T1",
        "source_team": "TUU48M0T1",
        "user_profile": {
            "avatar_hash": "a99c74a194f8",
            "image_72": "https:\/\/avatars.slack-edge.com\/2020-03-07\/975708504851_a99c74a194f86715ca7d_72.png",
            "first_name": "Thomas",
            "real_name": "Thomas Landrain",
            "display_name": "Thomas Landrain - JOGL CoFounder \/ CEO",
            "team": "TUU48M0T1",
            "name": "thomas",
            "is_restricted": false,
            "is_ultra_restricted": false
        },
        "blocks": [
            {
                "type": "rich_text",
                "block_id": "qAeyd",
                "elements": [
                    {
                        "type": "rich_text_section",
                        "elements": [
                            {
                                "type": "text",
                                "text": "Hey guys, how is it going "
                            },
                            {
                                "type": "emoji",
                                "name": "slightly_smiling_face"
                            },
                            {
                                "type": "text",
                                "text": "\nWhat would you like to present during the global community call today?"
                            }
                        ]
                    }
                ]
            }
        ],
        "thread_ts": "1585151926.007300",
        "reply_count": 3,
        "reply_users_count": 3,
        "latest_reply": "1585154601.008100",
        "reply_users": [
            "UV2P3AQEN",
            "U01081Y0TBP",
            "UV02WET96"
        ],
        "replies": [
            {
                "user": "UV2P3AQEN",
                "ts": "1585152083.007400"
            },
            {
                "user": "U01081Y0TBP",
                "ts": "1585152262.007700"
            },
            {
                "user": "UV02WET96",
                "ts": "1585154601.008100"
            }
        ],
        "subscribed": false,
        "reactions": [
            {
                "name": "+1",
                "users": [
                    "UV2P3AQEN"
                ],
                "count": 1
            }
        ]
    },
    {
        "client_msg_id": "0bfbd0d6-d68d-444c-9a31-c531d717a34a",
        "type": "message",
        "text": "I guess the overall state of advancement of the whole mask project, and then the upcoming survey",
        "user": "UV2P3AQEN",
        "ts": "1585152083.007400",
        "team": "TUU48M0T1",
        "user_team": "TUU48M0T1",
        "source_team": "TUU48M0T1",
        "user_profile": {
            "avatar_hash": "82d977ce9645",
            "image_72": "https:\/\/avatars.slack-edge.com\/2020-03-16\/1003452392327_82d977ce9645ebc30917_72.jpg",
            "first_name": "Antonio",
            "real_name": "Antonio Mangiapane",
            "display_name": "Antonio Mangiapane",
            "team": "TUU48M0T1",
            "name": "antonio.mangiapane29",
            "is_restricted": false,
            "is_ultra_restricted": false
        },
        "blocks": [
            {
                "type": "rich_text",
                "block_id": "xSFp",
                "elements": [
                    {
                        "type": "rich_text_section",
                        "elements": [
                            {
                                "type": "text",
                                "text": "I guess the overall state of advancement of the whole mask project, and then the upcoming survey"
                            }
                        ]
                    }
                ]
            }
        ],
        "thread_ts": "1585151926.007300",
        "parent_user_id": "UV02WET96"
    },
    {
        "client_msg_id": "ef76d016-609f-46e4-a605-151d50051299",
        "type": "message",
        "text": "Yes, with a request for reviewers",
        "user": "U01081Y0TBP",
        "ts": "1585152262.007700",
        "team": "TUU48M0T1",
        "user_team": "TUU48M0T1",
        "source_team": "TUU48M0T1",
        "user_profile": {
            "avatar_hash": "60ec5b47107a",
            "image_72": "https:\/\/avatars.slack-edge.com\/2020-03-18\/995274181218_60ec5b47107a3bd2ca7d_72.jpg",
            "first_name": "Peter",
            "real_name": "Peter Kooren",
            "display_name": "Peter Kooren",
            "team": "TUU48M0T1",
            "name": "peterkooren",
            "is_restricted": false,
            "is_ultra_restricted": false
        },
        "blocks": [
            {
                "type": "rich_text",
                "block_id": "e+=p",
                "elements": [
                    {
                        "type": "rich_text_section",
                        "elements": [
                            {
                                "type": "text",
                                "text": "Yes, with a request for reviewers"
                            }
                        ]
                    }
                ]
            }
        ],
        "thread_ts": "1585151926.007300",
        "parent_user_id": "UV02WET96",
        "reactions": [
            {
                "name": "+1",
                "users": [
                    "U010HTBUHS9",
                    "UV02WET96",
                    "UV2P3AQEN"
                ],
                "count": 3
            }
        ]
    },
    {
        "client_msg_id": "61de2e51-abba-4bdf-a407-8ef46ef3b36e",
        "type": "message",
        "text": "Ok! I’ll call for you to give an update",
        "user": "UV02WET96",
        "ts": "1585154601.008100",
        "team": "TUU48M0T1",
        "user_team": "TUU48M0T1",
        "source_team": "TUU48M0T1",
        "user_profile": {
            "avatar_hash": "a99c74a194f8",
            "image_72": "https:\/\/avatars.slack-edge.com\/2020-03-07\/975708504851_a99c74a194f86715ca7d_72.png",
            "first_name": "Thomas",
            "real_name": "Thomas Landrain",
            "display_name": "Thomas Landrain - JOGL CoFounder \/ CEO",
            "team": "TUU48M0T1",
            "name": "thomas",
            "is_restricted": false,
            "is_ultra_restricted": false
        },
        "blocks": [
            {
                "type": "rich_text",
                "block_id": "esJB",
                "elements": [
                    {
                        "type": "rich_text_section",
                        "elements": [
                            {
                                "type": "text",
                                "text": "Ok! I’ll call for you to give an update"
                            }
                        ]
                    }
                ]
            }
        ],
        "thread_ts": "1585151926.007300",
        "parent_user_id": "UV02WET96"
    },
    {
        "client_msg_id": "D34249FE-D580-48B4-BC99-56626D184939",
        "type": "message",
        "text": "Potential approach to local manufacturing of mask fibers <https:\/\/twitter.com\/prakashlab\/status\/1242755662511136768?s=21|https:\/\/twitter.com\/prakashlab\/status\/1242755662511136768?s=21>",
        "user": "UUNGFHSV8",
        "ts": "1585155313.009200",
        "team": "TUU48M0T1",
        "user_team": "TUU48M0T1",
        "source_team": "TUU48M0T1",
        "user_profile": {
            "avatar_hash": "1c55ee32397a",
            "image_72": "https:\/\/avatars.slack-edge.com\/2020-03-07\/987349161984_1c55ee32397a85a87ec4_72.png",
            "first_name": "Isaac",
            "real_name": "Isaac Larkin",
            "display_name": "Isaac Larkin",
            "team": "TUU48M0T1",
            "name": "eyesmo",
            "is_restricted": false,
            "is_ultra_restricted": false
        },
        "blocks": [
            {
                "type": "rich_text",
                "block_id": "EeEFQ",
                "elements": [
                    {
                        "type": "rich_text_section",
                        "elements": [
                            {
                                "type": "text",
                                "text": "Potential approach to local manufacturing of mask fibers "
                            },
                            {
                                "type": "link",
                                "url": "https:\/\/twitter.com\/prakashlab\/status\/1242755662511136768?s=21",
                                "text": "https:\/\/twitter.com\/prakashlab\/status\/1242755662511136768?s=21"
                            }
                        ]
                    }
                ]
            }
        ]
    },
    {
        "client_msg_id": "7a3996db-e07c-47fb-a295-b2068ea66539",
        "type": "message",
        "text": "hello, do we have any doc which summerized\/compares classes of filtering in different industries ? I mean we have HEPA classes, we have FFP2, FFP3, we have N95, N99, N100, wre have F9",
        "user": "U010FUU89B9",
        "ts": "1585158424.010800",
        "team": "TUU48M0T1",
        "user_team": "TUU48M0T1",
        "source_team": "TUU48M0T1",
        "user_profile": {
            "avatar_hash": "g8013a6b45b4",
            "image_72": "https:\/\/secure.gravatar.com\/avatar\/8013a6b45b4ae359e124abba6495cd14.jpg?s=72&d=https%3A%2F%2Fa.slack-edge.com%2Fdf10d%2Fimg%2Favatars%2Fava_0016-72.png",
            "first_name": "Bartłomiej",
            "real_name": "Bartłomiej Żogała",
            "display_name": "nusch",
            "team": "TUU48M0T1",
            "name": "slack1370",
            "is_restricted": false,
            "is_ultra_restricted": false
        },
        "blocks": [
            {
                "type": "rich_text",
                "block_id": "Q\/4G",
                "elements": [
                    {
                        "type": "rich_text_section",
                        "elements": [
                            {
                                "type": "text",
                                "text": "hello, do we have any doc which summerized\/compares classes of filtering in different industries ? I mean we have HEPA classes, we have FFP2, FFP3, we have N95, N99, N100, wre have F9"
                            }
                        ]
                    }
                ]
            }
        ],
        "thread_ts": "1585158424.010800",
        "reply_count": 1,
        "reply_users_count": 1,
        "latest_reply": "1585163103.011300",
        "reply_users": [
            "U0109T1DV9T"
        ],
        "replies": [
            {
                "user": "U0109T1DV9T",
                "ts": "1585163103.011300"
            }
        ],
        "subscribed": false
    },
    {
        "client_msg_id": "2fc99d9b-e26e-4227-928b-0427815994c7",
        "type": "message",
        "text": "Try the Resources tab in the <https:\/\/docs.google.com\/spreadsheets\/d\/1e81ceSrVT6Bl4UaS1SxIUUUzgZAdkIstU7Hzot08Ld8\/edit#gid=0|Open Source Face Mask Challenge Sheet>. It's not well organized right now but if you can make a table out of the info you have and from the links, then that would be great!",
        "user": "U0109T1DV9T",
        "ts": "1585163103.011300",
        "team": "TUU48M0T1",
        "user_team": "TUU48M0T1",
        "source_team": "TUU48M0T1",
        "user_profile": {
            "avatar_hash": "0e741d71262c",
            "image_72": "https:\/\/avatars.slack-edge.com\/2020-03-18\/1012114282886_0e741d71262c690a9183_72.jpg",
            "first_name": "",
            "real_name": "Judy Nguyen",
            "display_name": "Judy Nguyen",
            "team": "TUU48M0T1",
            "name": "judy.v.nguyen",
            "is_restricted": false,
            "is_ultra_restricted": false
        },
        "blocks": [
            {
                "type": "rich_text",
                "block_id": "RiZW9",
                "elements": [
                    {
                        "type": "rich_text_section",
                        "elements": [
                            {
                                "type": "text",
                                "text": "Try the Resources tab in the "
                            },
                            {
                                "type": "link",
                                "url": "https:\/\/docs.google.com\/spreadsheets\/d\/1e81ceSrVT6Bl4UaS1SxIUUUzgZAdkIstU7Hzot08Ld8\/edit#gid=0",
                                "text": "Open Source Face Mask Challenge Sheet"
                            },
                            {
                                "type": "text",
                                "text": ". It's not well organized right now but if you can make a table out of the info you have and from the links, then that would be great!"
                            }
                        ]
                    }
                ]
            }
        ],
        "thread_ts": "1585158424.010800",
        "parent_user_id": "U010FUU89B9"
    },
    {
        "client_msg_id": "16698650-e93b-43d4-bac0-3c8d7cce6358",
        "type": "message",
        "text": "Thx, I’ve updated the evaluation criterias a bit with comments, but I think we need to convert those to either yes\/no questions of some questions to which we can respond with number in some range",
        "user": "U010FUU89B9",
        "ts": "1585165343.012600",
        "team": "TUU48M0T1",
        "user_team": "TUU48M0T1",
        "source_team": "TUU48M0T1",
        "user_profile": {
            "avatar_hash": "g8013a6b45b4",
            "image_72": "https:\/\/secure.gravatar.com\/avatar\/8013a6b45b4ae359e124abba6495cd14.jpg?s=72&d=https%3A%2F%2Fa.slack-edge.com%2Fdf10d%2Fimg%2Favatars%2Fava_0016-72.png",
            "first_name": "Bartłomiej",
            "real_name": "Bartłomiej Żogała",
            "display_name": "nusch",
            "team": "TUU48M0T1",
            "name": "slack1370",
            "is_restricted": false,
            "is_ultra_restricted": false
        },
        "blocks": [
            {
                "type": "rich_text",
                "block_id": "wMKF",
                "elements": [
                    {
                        "type": "rich_text_section",
                        "elements": [
                            {
                                "type": "text",
                                "text": "Thx, I’ve updated the evaluation criterias a bit with comments, but I think we need to convert those to either yes\/no questions of some questions to which we can respond with number in some range"
                            }
                        ]
                    }
                ]
            }
        ],
        "reactions": [
            {
                "name": "+1",
                "users": [
                    "UV2P3AQEN"
                ],
                "count": 1
            }
        ]
    },
    {
        "client_msg_id": "b9da3120-6923-4027-a718-de1108083f33",
        "type": "message",
        "text": "I’ve added also Exchangable filter types tab in the doc - as there are some mask design which need filter which can be HEPA from vacuum cleaner or any other and it’s quite independent of the mask itself, except the shape and size which will fit",
        "user": "U010FUU89B9",
        "ts": "1585165416.014000",
        "team": "TUU48M0T1",
        "user_team": "TUU48M0T1",
        "source_team": "TUU48M0T1",
        "user_profile": {
            "avatar_hash": "g8013a6b45b4",
            "image_72": "https:\/\/secure.gravatar.com\/avatar\/8013a6b45b4ae359e124abba6495cd14.jpg?s=72&d=https%3A%2F%2Fa.slack-edge.com%2Fdf10d%2Fimg%2Favatars%2Fava_0016-72.png",
            "first_name": "Bartłomiej",
            "real_name": "Bartłomiej Żogała",
            "display_name": "nusch",
            "team": "TUU48M0T1",
            "name": "slack1370",
            "is_restricted": false,
            "is_ultra_restricted": false
        },
        "blocks": [
            {
                "type": "rich_text",
                "block_id": "tsa",
                "elements": [
                    {
                        "type": "rich_text_section",
                        "elements": [
                            {
                                "type": "text",
                                "text": "I’ve added also Exchangable filter types tab in the doc - as there are some mask design which need filter which can be HEPA from vacuum cleaner or any other and it’s quite independent of the mask itself, except the shape and size which will fit"
                            }
                        ]
                    }
                ]
            }
        ],
        "thread_ts": "1585165416.014000",
        "reply_count": 2,
        "reply_users_count": 1,
        "latest_reply": "1585182326.018000",
        "reply_users": [
            "U0109T1DV9T"
        ],
        "replies": [
            {
                "user": "U0109T1DV9T",
                "ts": "1585182218.016700"
            },
            {
                "user": "U0109T1DV9T",
                "ts": "1585182326.018000"
            }
        ],
        "subscribed": false
    },
    {
        "client_msg_id": "438305B0-55CD-4A19-8057-2A32644A8DBA",
        "type": "message",
        "text": "Fantastic data on the reusability or masks! \n\n<https:\/\/m.box.com\/shared_item\/https%3A%2F%2Fstanfordmedicine.app.box.com%2Fv%2Fcovid19-PPE-1-1|https:\/\/m.box.com\/shared_item\/https%3A%2F%2Fstanfordmedicine.app.box.com%2Fv%2Fcovid19-PPE-1-1>",
        "user": "UV02WET96",
        "ts": "1585169427.015100",
        "team": "TUU48M0T1",
        "user_team": "TUU48M0T1",
        "source_team": "TUU48M0T1",
        "user_profile": {
            "avatar_hash": "a99c74a194f8",
            "image_72": "https:\/\/avatars.slack-edge.com\/2020-03-07\/975708504851_a99c74a194f86715ca7d_72.png",
            "first_name": "Thomas",
            "real_name": "Thomas Landrain",
            "display_name": "Thomas Landrain - JOGL CoFounder \/ CEO",
            "team": "TUU48M0T1",
            "name": "thomas",
            "is_restricted": false,
            "is_ultra_restricted": false
        },
        "edited": {
            "user": "UV02WET96",
            "ts": "1585169442.000000"
        },
        "blocks": [
            {
                "type": "rich_text",
                "block_id": "PjJ",
                "elements": [
                    {
                        "type": "rich_text_section",
                        "elements": [
                            {
                                "type": "text",
                                "text": "Fantastic data on the reusability or masks! \n\n"
                            },
                            {
                                "type": "link",
                                "url": "https:\/\/m.box.com\/shared_item\/https%3A%2F%2Fstanfordmedicine.app.box.com%2Fv%2Fcovid19-PPE-1-1",
                                "text": "https:\/\/m.box.com\/shared_item\/https%3A%2F%2Fstanfordmedicine.app.box.com%2Fv%2Fcovid19-PPE-1-1"
                            }
                        ]
                    }
                ]
            }
        ]
    },
    {
        "client_msg_id": "52E1848D-B9B1-4ADA-9C70-98BCE7D27C3F",
        "type": "message",
        "text": "What should we do with this Italian design using decathlon masks? <https:\/\/www.isinnova.it\/easy-covid19-eng\/|https:\/\/www.isinnova.it\/easy-covid19-eng\/>",
        "user": "UV02WET96",
        "ts": "1585170061.015900",
        "team": "TUU48M0T1",
        "user_team": "TUU48M0T1",
        "source_team": "TUU48M0T1",
        "user_profile": {
            "avatar_hash": "a99c74a194f8",
            "image_72": "https:\/\/avatars.slack-edge.com\/2020-03-07\/975708504851_a99c74a194f86715ca7d_72.png",
            "first_name": "Thomas",
            "real_name": "Thomas Landrain",
            "display_name": "Thomas Landrain - JOGL CoFounder \/ CEO",
            "team": "TUU48M0T1",
            "name": "thomas",
            "is_restricted": false,
            "is_ultra_restricted": false
        },
        "attachments": [
            {
                "service_name": "Isinnova",
                "title": "Easy – Covid19 ENG | Isinnova",
                "title_link": "https:\/\/www.isinnova.it\/easy-covid19-eng\/",
                "text": "EASY COVID 19 Versione italiana Versión en español Emergency mask for hospital ventilators In recent days we",
                "fallback": "Isinnova: Easy – Covid19 ENG | Isinnova",
                "thumb_url": "https:\/\/www.isinnova.it\/wp-content\/uploads\/2019\/09\/Logo-Isinnova-Modifiche-5-1-e1541584415349-1.png",
                "from_url": "https:\/\/www.isinnova.it\/easy-covid19-eng\/",
                "thumb_width": 100,
                "thumb_height": 46,
                "service_icon": "https:\/\/www.isinnova.it\/wp-content\/uploads\/2017\/03\/favicip.png",
                "id": 1,
                "original_url": "https:\/\/www.isinnova.it\/easy-covid19-eng\/"
            }
        ],
        "blocks": [
            {
                "type": "rich_text",
                "block_id": "2VK",
                "elements": [
                    {
                        "type": "rich_text_section",
                        "elements": [
                            {
                                "type": "text",
                                "text": "What should we do with this Italian design using decathlon masks? "
                            },
                            {
                                "type": "link",
                                "url": "https:\/\/www.isinnova.it\/easy-covid19-eng\/",
                                "text": "https:\/\/www.isinnova.it\/easy-covid19-eng\/"
                            }
                        ]
                    }
                ]
            }
        ],
        "thread_ts": "1585170061.015900",
        "reply_count": 4,
        "reply_users_count": 2,
        "latest_reply": "1585220935.024600",
        "reply_users": [
            "UV2P3AQEN",
            "UV02WET96"
        ],
        "replies": [
            {
                "user": "UV2P3AQEN",
                "ts": "1585218089.023100"
            },
            {
                "user": "UV02WET96",
                "ts": "1585218869.024200"
            },
            {
                "user": "UV2P3AQEN",
                "ts": "1585220911.024400"
            },
            {
                "user": "UV02WET96",
                "ts": "1585220935.024600"
            }
        ],
        "subscribed": false
    },
    {
        "client_msg_id": "21CD330C-3A2A-4448-AA84-452DE121AC93",
        "type": "message",
        "text": "<@U010FUU89B9> Awesome, thank you so much for adding that info!",
        "user": "U0109T1DV9T",
        "ts": "1585182218.016700",
        "team": "TUU48M0T1",
        "user_team": "TUU48M0T1",
        "source_team": "TUU48M0T1",
        "user_profile": {
            "avatar_hash": "0e741d71262c",
            "image_72": "https:\/\/avatars.slack-edge.com\/2020-03-18\/1012114282886_0e741d71262c690a9183_72.jpg",
            "first_name": "",
            "real_name": "Judy Nguyen",
            "display_name": "Judy Nguyen",
            "team": "TUU48M0T1",
            "name": "judy.v.nguyen",
            "is_restricted": false,
            "is_ultra_restricted": false
        },
        "blocks": [
            {
                "type": "rich_text",
                "block_id": "Xkk",
                "elements": [
                    {
                        "type": "rich_text_section",
                        "elements": [
                            {
                                "type": "user",
                                "user_id": "U010FUU89B9"
                            },
                            {
                                "type": "text",
                                "text": " Awesome, thank you so much for adding that info!"
                            }
                        ]
                    }
                ]
            }
        ],
        "thread_ts": "1585165416.014000",
        "parent_user_id": "U010FUU89B9"
    },
    {
        "client_msg_id": "D3FBEFB0-B1EA-4FA6-9E62-EDD1337BF946",
        "type": "message",
        "text": "Do you know if furnace filters are the same material as vacuum bags? I wonder if that provides any cost savings or benefits over vacuum bags. ",
        "user": "U0109T1DV9T",
        "ts": "1585182326.018000",
        "team": "TUU48M0T1",
        "user_team": "TUU48M0T1",
        "source_team": "TUU48M0T1",
        "user_profile": {
            "avatar_hash": "0e741d71262c",
            "image_72": "https:\/\/avatars.slack-edge.com\/2020-03-18\/1012114282886_0e741d71262c690a9183_72.jpg",
            "first_name": "",
            "real_name": "Judy Nguyen",
            "display_name": "Judy Nguyen",
            "team": "TUU48M0T1",
            "name": "judy.v.nguyen",
            "is_restricted": false,
            "is_ultra_restricted": false
        },
        "blocks": [
            {
                "type": "rich_text",
                "block_id": "6mI\/f",
                "elements": [
                    {
                        "type": "rich_text_section",
                        "elements": [
                            {
                                "type": "text",
                                "text": "Do you know if furnace filters are the same material as vacuum bags? I wonder if that provides any cost savings or benefits over vacuum bags. "
                            }
                        ]
                    }
                ]
            }
        ],
        "thread_ts": "1585165416.014000",
        "parent_user_id": "U010FUU89B9"
    },
    {
        "client_msg_id": "dc99bfb1-95ed-4f68-af84-6b5b41a4b38e",
        "type": "message",
        "text": "For French folks, about an initiative between researchers and entrepreneurs in Grenoble: <https:\/\/acteursdeleconomie.latribune.fr\/innovation\/2020-03-25\/covid-19-a-grenoble-chercheurs-et-industriels-s-unissent-pour-monter-une-filiere-de-production-ephemere-843169.html>",
        "user": "UUWR0FJ7M",
        "ts": "1585182601.019500",
        "team": "TUU48M0T1",
        "user_team": "TUU48M0T1",
        "source_team": "TUU48M0T1",
        "user_profile": {
            "avatar_hash": "g0851a85aef5",
            "image_72": "https:\/\/secure.gravatar.com\/avatar\/0851a85aef59ee4069c5669edd21a593.jpg?s=72&d=https%3A%2F%2Fa.slack-edge.com%2Fdf10d%2Fimg%2Favatars%2Fava_0004-72.png",
            "first_name": "manuel",
            "real_name": "manuel lannaud",
            "display_name": "manu lannaud",
            "team": "TUU48M0T1",
            "name": "slack1260",
            "is_restricted": false,
            "is_ultra_restricted": false
        },
        "attachments": [
            {
                "service_name": "La Tribune",
                "title": "Covid-19 : A Grenoble, chercheurs et industriels s’unissent pour monter une filière de production éphémère",
                "title_link": "https:\/\/acteursdeleconomie.latribune.fr\/innovation\/2020-03-25\/covid-19-a-grenoble-chercheurs-et-industriels-s-unissent-pour-monter-une-filiere-de-production-ephemere-843169.html",
                "text": "L’écosystème grenoblois, berceau de la microélectronique, se mobilise lui aussi face au Covid-19. Le collectif VOC-COV, composé de chercheurs et d’industriels locaux, s’est uni afin de développer une chaîne logistique pour collecter et distribuer les milliers de masques stockés par les entreprises en collaboration avec l’ARS. Il ambitionne également de développer des pièces de rechange nécessaires ainsi que de nouveaux prototypes de masques, afin de lancer une production de masse, grâce à des techniques issues de l’impression 3D et de l’injection.",
                "fallback": "La Tribune: Covid-19 : A Grenoble, chercheurs et industriels s’unissent pour monter une filière de production éphémère",
                "image_url": "https:\/\/static.latribune.fr\/full_width\/1397390\/coronavirus-france-le-gouvernement-teste-des-masques-de-protection-alternatifs.jpg",
                "image_width": 500,
                "image_height": 250,
                "from_url": "https:\/\/acteursdeleconomie.latribune.fr\/innovation\/2020-03-25\/covid-19-a-grenoble-chercheurs-et-industriels-s-unissent-pour-monter-une-filiere-de-production-ephemere-843169.html",
                "image_bytes": 13760,
                "service_icon": "https:\/\/static.latribune.fr\/assets\/bundles\/latribunecms\/img\/favicon.ico.png?version=prod",
                "id": 1,
                "original_url": "https:\/\/acteursdeleconomie.latribune.fr\/innovation\/2020-03-25\/covid-19-a-grenoble-chercheurs-et-industriels-s-unissent-pour-monter-une-filiere-de-production-ephemere-843169.html"
            }
        ],
        "blocks": [
            {
                "type": "rich_text",
                "block_id": "fmYh",
                "elements": [
                    {
                        "type": "rich_text_section",
                        "elements": [
                            {
                                "type": "text",
                                "text": "For French folks, about an initiative between researchers and entrepreneurs in Grenoble: "
                            },
                            {
                                "type": "link",
                                "url": "https:\/\/acteursdeleconomie.latribune.fr\/innovation\/2020-03-25\/covid-19-a-grenoble-chercheurs-et-industriels-s-unissent-pour-monter-une-filiere-de-production-ephemere-843169.html"
                            }
                        ]
                    }
                ]
            }
        ]
    }
]