[
    {
        "type": "message",
        "subtype": "channel_join",
        "ts": "1584548829.031000",
        "user": "UVBLWGLQ3",
        "text": "<@UVBLWGLQ3> has joined the channel"
    },
    {
        "client_msg_id": "2f5f2a2c-6ec2-47a8-90d3-ea14bd005a74",
        "type": "message",
        "text": "Do you need the STL files above test printed? I have some PLU material on hand that's a bit flexible and I could test it out. \n\nI'm also involved in a few 3D printing communities on Reddit and elsewhere and could put out the call to get more people testing and designing.",
        "user": "UVBLWGLQ3",
        "ts": "1584549726.031100",
        "team": "TUU48M0T1",
        "user_team": "TUU48M0T1",
        "source_team": "TUU48M0T1",
        "user_profile": {
            "avatar_hash": "g400650ea425",
            "image_72": "https:\/\/secure.gravatar.com\/avatar\/400650ea425e9763e4373420fa96c432.jpg?s=72&d=https%3A%2F%2Fa.slack-edge.com%2Fdf10d%2Fimg%2Favatars%2Fava_0006-72.png",
            "first_name": "",
            "real_name": "Andrew Valentine",
            "display_name": "Andrew Valentine",
            "team": "TUU48M0T1",
            "name": "andrewvalentine",
            "is_restricted": false,
            "is_ultra_restricted": false
        },
        "blocks": [
            {
                "type": "rich_text",
                "block_id": "fC1=",
                "elements": [
                    {
                        "type": "rich_text_section",
                        "elements": [
                            {
                                "type": "text",
                                "text": "Do you need the STL files above test printed? I have some PLU material on hand that's a bit flexible and I could test it out. \n\nI'm also involved in a few 3D printing communities on Reddit and elsewhere and could put out the call to get more people testing and designing."
                            }
                        ]
                    }
                ]
            }
        ],
        "thread_ts": "1584514710.030700",
        "parent_user_id": "U0106VDVAQ6"
    },
    {
        "client_msg_id": "6cc80c80-ec0b-48bd-a263-93841c5e0068",
        "type": "message",
        "text": "Hi <@U0106VDVAQ6> we are going to have our community call at 6pm Paris time (15min). would you be interested in sharing the state of developement of your project to the community?",
        "user": "UV02WET96",
        "ts": "1584549945.032400",
        "team": "TUU48M0T1",
        "user_team": "TUU48M0T1",
        "source_team": "TUU48M0T1",
        "user_profile": {
            "avatar_hash": "a99c74a194f8",
            "image_72": "https:\/\/avatars.slack-edge.com\/2020-03-07\/975708504851_a99c74a194f86715ca7d_72.png",
            "first_name": "Thomas",
            "real_name": "Thomas Landrain",
            "display_name": "Thomas Landrain - JOGL CoFounder \/ CEO",
            "team": "TUU48M0T1",
            "name": "thomas",
            "is_restricted": false,
            "is_ultra_restricted": false
        },
        "blocks": [
            {
                "type": "rich_text",
                "block_id": "rUSJZ",
                "elements": [
                    {
                        "type": "rich_text_section",
                        "elements": [
                            {
                                "type": "text",
                                "text": "Hi "
                            },
                            {
                                "type": "user",
                                "user_id": "U0106VDVAQ6"
                            },
                            {
                                "type": "text",
                                "text": " we are going to have our community call at 6pm Paris time (15min). would you be interested in sharing the state of developement of your project to the community?"
                            }
                        ]
                    }
                ]
            }
        ]
    },
    {
        "client_msg_id": "d2d20650-ef3c-4bb8-bf33-25b7adaad3ab",
        "type": "message",
        "text": "<https:\/\/zoom.us\/j\/7804345815>",
        "user": "UV02WET96",
        "ts": "1584549951.032600",
        "team": "TUU48M0T1",
        "user_team": "TUU48M0T1",
        "source_team": "TUU48M0T1",
        "user_profile": {
            "avatar_hash": "a99c74a194f8",
            "image_72": "https:\/\/avatars.slack-edge.com\/2020-03-07\/975708504851_a99c74a194f86715ca7d_72.png",
            "first_name": "Thomas",
            "real_name": "Thomas Landrain",
            "display_name": "Thomas Landrain - JOGL CoFounder \/ CEO",
            "team": "TUU48M0T1",
            "name": "thomas",
            "is_restricted": false,
            "is_ultra_restricted": false
        },
        "blocks": [
            {
                "type": "rich_text",
                "block_id": "5Uo",
                "elements": [
                    {
                        "type": "rich_text_section",
                        "elements": [
                            {
                                "type": "link",
                                "url": "https:\/\/zoom.us\/j\/7804345815"
                            }
                        ]
                    }
                ]
            }
        ]
    },
    {
        "type": "message",
        "subtype": "channel_join",
        "ts": "1584551506.032800",
        "user": "UUNGFHSV8",
        "text": "<@UUNGFHSV8> has joined the channel"
    },
    {
        "type": "message",
        "subtype": "channel_join",
        "ts": "1584553771.033000",
        "user": "UUNQ7H1MG",
        "text": "<@UUNQ7H1MG> has joined the channel"
    },
    {
        "type": "message",
        "subtype": "channel_join",
        "ts": "1584571667.033200",
        "user": "UV8FL0JCA",
        "text": "<@UV8FL0JCA> has joined the channel"
    },
    {
        "type": "message",
        "subtype": "channel_join",
        "ts": "1584573525.033400",
        "user": "UV3T7JS4A",
        "text": "<@UV3T7JS4A> has joined the channel"
    },
    {
        "type": "message",
        "subtype": "channel_join",
        "ts": "1584577527.033600",
        "user": "UVADMLUB0",
        "text": "<@UVADMLUB0> has joined the channel"
    },
    {
        "type": "message",
        "subtype": "channel_join",
        "ts": "1584578151.033800",
        "user": "UURGMNE3T",
        "text": "<@UURGMNE3T> has joined the channel"
    }
]