[
    {
        "client_msg_id": "75B6A053-E52F-4488-A1B3-9E72270DA540",
        "type": "message",
        "text": "Wow! The document is now pretty impressive! \nI’ve shared it in several communities and I guess this general repository for further evaluation was really needed! \n\n<https:\/\/docs.google.com\/spreadsheets\/d\/1e81ceSrVT6Bl4UaS1SxIUUUzgZAdkIstU7Hzot08Ld8|https:\/\/docs.google.com\/spreadsheets\/d\/1e81ceSrVT6Bl4UaS1SxIUUUzgZAdkIstU7Hzot08Ld8>",
        "user": "UV02WET96",
        "ts": "1584778974.186600",
        "team": "TUU48M0T1",
        "user_team": "TUU48M0T1",
        "source_team": "TUU48M0T1",
        "user_profile": {
            "avatar_hash": "a99c74a194f8",
            "image_72": "https:\/\/avatars.slack-edge.com\/2020-03-07\/975708504851_a99c74a194f86715ca7d_72.png",
            "first_name": "Thomas",
            "real_name": "Thomas Landrain",
            "display_name": "Thomas Landrain - JOGL CoFounder \/ CEO",
            "team": "TUU48M0T1",
            "name": "thomas",
            "is_restricted": false,
            "is_ultra_restricted": false
        },
        "blocks": [
            {
                "type": "rich_text",
                "block_id": "lAMol",
                "elements": [
                    {
                        "type": "rich_text_section",
                        "elements": [
                            {
                                "type": "text",
                                "text": "Wow! The document is now pretty impressive! \n"
                            },
                            {
                                "type": "text",
                                "text": "I’ve shared it in several communities and I guess this general repository for further evaluation was really needed! \n"
                            },
                            {
                                "type": "text",
                                "text": "\n"
                            },
                            {
                                "type": "link",
                                "url": "https:\/\/docs.google.com\/spreadsheets\/d\/1e81ceSrVT6Bl4UaS1SxIUUUzgZAdkIstU7Hzot08Ld8",
                                "text": "https:\/\/docs.google.com\/spreadsheets\/d\/1e81ceSrVT6Bl4UaS1SxIUUUzgZAdkIstU7Hzot08Ld8"
                            }
                        ]
                    }
                ]
            }
        ]
    },
    {
        "client_msg_id": "4b27444b-64c3-47e4-b804-fa717b4e7163",
        "type": "message",
        "text": "<@UV2P3AQEN> we need to create a JOGL project for the Mask challenge asap as Im getting more and more people who want to join and they need a simple entry gate (not the slack). I think it’s best if it’s you doing it than me. I can help you of course :slightly_smiling_face:",
        "user": "UV02WET96",
        "ts": "1584787885.188900",
        "team": "TUU48M0T1",
        "user_team": "TUU48M0T1",
        "source_team": "TUU48M0T1",
        "user_profile": {
            "avatar_hash": "a99c74a194f8",
            "image_72": "https:\/\/avatars.slack-edge.com\/2020-03-07\/975708504851_a99c74a194f86715ca7d_72.png",
            "first_name": "Thomas",
            "real_name": "Thomas Landrain",
            "display_name": "Thomas Landrain - JOGL CoFounder \/ CEO",
            "team": "TUU48M0T1",
            "name": "thomas",
            "is_restricted": false,
            "is_ultra_restricted": false
        },
        "blocks": [
            {
                "type": "rich_text",
                "block_id": "AWDz",
                "elements": [
                    {
                        "type": "rich_text_section",
                        "elements": [
                            {
                                "type": "user",
                                "user_id": "UV2P3AQEN"
                            },
                            {
                                "type": "text",
                                "text": " we need to create a JOGL project for the Mask challenge asap as Im getting more and more people who want to join and they need a simple entry gate (not the slack). I think it’s best if it’s you doing it than me. I can help you of course "
                            },
                            {
                                "type": "emoji",
                                "name": "slightly_smiling_face"
                            }
                        ]
                    }
                ]
            }
        ],
        "thread_ts": "1584787885.188900",
        "reply_count": 12,
        "reply_users_count": 2,
        "latest_reply": "1584789255.192500",
        "reply_users": [
            "UV2P3AQEN",
            "UV02WET96"
        ],
        "replies": [
            {
                "user": "UV2P3AQEN",
                "ts": "1584787943.189700"
            },
            {
                "user": "UV02WET96",
                "ts": "1584788379.190000"
            },
            {
                "user": "UV02WET96",
                "ts": "1584788415.190300"
            },
            {
                "user": "UV02WET96",
                "ts": "1584788420.190500"
            },
            {
                "user": "UV2P3AQEN",
                "ts": "1584789060.190700"
            },
            {
                "user": "UV2P3AQEN",
                "ts": "1584789102.190900"
            },
            {
                "user": "UV02WET96",
                "ts": "1584789162.191400"
            },
            {
                "user": "UV2P3AQEN",
                "ts": "1584789219.191600"
            },
            {
                "user": "UV02WET96",
                "ts": "1584789235.191800"
            },
            {
                "user": "UV2P3AQEN",
                "ts": "1584789250.192100"
            },
            {
                "user": "UV02WET96",
                "ts": "1584789251.192300"
            },
            {
                "user": "UV02WET96",
                "ts": "1584789255.192500"
            }
        ],
        "subscribed": false
    },
    {
        "client_msg_id": "a679d8ec-b7af-449b-a684-1be1a72199ce",
        "type": "message",
        "text": "I'm on it, just figuring out the name. Any ideas?",
        "user": "UV2P3AQEN",
        "ts": "1584787943.189700",
        "team": "TUU48M0T1",
        "user_team": "TUU48M0T1",
        "source_team": "TUU48M0T1",
        "user_profile": {
            "avatar_hash": "82d977ce9645",
            "image_72": "https:\/\/avatars.slack-edge.com\/2020-03-16\/1003452392327_82d977ce9645ebc30917_72.jpg",
            "first_name": "Antonio",
            "real_name": "Antonio Mangiapane",
            "display_name": "Antonio Mangiapane",
            "team": "TUU48M0T1",
            "name": "antonio.mangiapane29",
            "is_restricted": false,
            "is_ultra_restricted": false
        },
        "blocks": [
            {
                "type": "rich_text",
                "block_id": "iP6",
                "elements": [
                    {
                        "type": "rich_text_section",
                        "elements": [
                            {
                                "type": "text",
                                "text": "I'm on it, just figuring out the name. Any ideas?"
                            }
                        ]
                    }
                ]
            }
        ],
        "thread_ts": "1584787885.188900",
        "parent_user_id": "UV02WET96",
        "reactions": [
            {
                "name": "raised_hands",
                "users": [
                    "UV02WET96"
                ],
                "count": 1
            }
        ]
    },
    {
        "client_msg_id": "0588ae50-5f78-4ef8-b0bb-1a568360cc2d",
        "type": "message",
        "text": "Open Source Face Mask Challenge?",
        "user": "UV02WET96",
        "ts": "1584788379.190000",
        "team": "TUU48M0T1",
        "user_team": "TUU48M0T1",
        "source_team": "TUU48M0T1",
        "user_profile": {
            "avatar_hash": "a99c74a194f8",
            "image_72": "https:\/\/avatars.slack-edge.com\/2020-03-07\/975708504851_a99c74a194f86715ca7d_72.png",
            "first_name": "Thomas",
            "real_name": "Thomas Landrain",
            "display_name": "Thomas Landrain - JOGL CoFounder \/ CEO",
            "team": "TUU48M0T1",
            "name": "thomas",
            "is_restricted": false,
            "is_ultra_restricted": false
        },
        "edited": {
            "user": "UV02WET96",
            "ts": "1584788385.000000"
        },
        "blocks": [
            {
                "type": "rich_text",
                "block_id": "OrX6L",
                "elements": [
                    {
                        "type": "rich_text_section",
                        "elements": [
                            {
                                "type": "text",
                                "text": "Open Source Face Mask Challenge?"
                            }
                        ]
                    }
                ]
            }
        ],
        "thread_ts": "1584787885.188900",
        "parent_user_id": "UV02WET96"
    },
    {
        "client_msg_id": "7afd4f1e-8928-4825-9eee-c80415bd6872",
        "type": "message",
        "text": "You can basically take the same goals that we have written in the google doc",
        "user": "UV02WET96",
        "ts": "1584788415.190300",
        "team": "TUU48M0T1",
        "user_team": "TUU48M0T1",
        "source_team": "TUU48M0T1",
        "user_profile": {
            "avatar_hash": "a99c74a194f8",
            "image_72": "https:\/\/avatars.slack-edge.com\/2020-03-07\/975708504851_a99c74a194f86715ca7d_72.png",
            "first_name": "Thomas",
            "real_name": "Thomas Landrain",
            "display_name": "Thomas Landrain - JOGL CoFounder \/ CEO",
            "team": "TUU48M0T1",
            "name": "thomas",
            "is_restricted": false,
            "is_ultra_restricted": false
        },
        "blocks": [
            {
                "type": "rich_text",
                "block_id": "hJ0",
                "elements": [
                    {
                        "type": "rich_text_section",
                        "elements": [
                            {
                                "type": "text",
                                "text": "You can basically take the same goals that we have written in the google doc"
                            }
                        ]
                    }
                ]
            }
        ],
        "thread_ts": "1584787885.188900",
        "parent_user_id": "UV02WET96"
    },
    {
        "client_msg_id": "66cf88da-b16e-41cc-b24a-d0f35f1020a9",
        "type": "message",
        "text": "with a link to it",
        "user": "UV02WET96",
        "ts": "1584788420.190500",
        "team": "TUU48M0T1",
        "user_team": "TUU48M0T1",
        "source_team": "TUU48M0T1",
        "user_profile": {
            "avatar_hash": "a99c74a194f8",
            "image_72": "https:\/\/avatars.slack-edge.com\/2020-03-07\/975708504851_a99c74a194f86715ca7d_72.png",
            "first_name": "Thomas",
            "real_name": "Thomas Landrain",
            "display_name": "Thomas Landrain - JOGL CoFounder \/ CEO",
            "team": "TUU48M0T1",
            "name": "thomas",
            "is_restricted": false,
            "is_ultra_restricted": false
        },
        "blocks": [
            {
                "type": "rich_text",
                "block_id": "AVH",
                "elements": [
                    {
                        "type": "rich_text_section",
                        "elements": [
                            {
                                "type": "text",
                                "text": "with a link to it"
                            }
                        ]
                    }
                ]
            }
        ],
        "thread_ts": "1584787885.188900",
        "parent_user_id": "UV02WET96"
    },
    {
        "client_msg_id": "6ed6ef7f-4aff-462a-9697-b3b71832d3c2",
        "type": "message",
        "text": "Project's online",
        "user": "UV2P3AQEN",
        "ts": "1584789060.190700",
        "team": "TUU48M0T1",
        "user_team": "TUU48M0T1",
        "source_team": "TUU48M0T1",
        "user_profile": {
            "avatar_hash": "82d977ce9645",
            "image_72": "https:\/\/avatars.slack-edge.com\/2020-03-16\/1003452392327_82d977ce9645ebc30917_72.jpg",
            "first_name": "Antonio",
            "real_name": "Antonio Mangiapane",
            "display_name": "Antonio Mangiapane",
            "team": "TUU48M0T1",
            "name": "antonio.mangiapane29",
            "is_restricted": false,
            "is_ultra_restricted": false
        },
        "blocks": [
            {
                "type": "rich_text",
                "block_id": "qu2C",
                "elements": [
                    {
                        "type": "rich_text_section",
                        "elements": [
                            {
                                "type": "text",
                                "text": "Project's online"
                            }
                        ]
                    }
                ]
            }
        ],
        "thread_ts": "1584787885.188900",
        "parent_user_id": "UV02WET96"
    },
    {
        "client_msg_id": "7f349922-337b-40a3-b034-48502a72dee1",
        "type": "message",
        "text": "<https:\/\/app.jogl.io\/project\/150>",
        "user": "UV2P3AQEN",
        "ts": "1584789102.190900",
        "team": "TUU48M0T1",
        "user_team": "TUU48M0T1",
        "source_team": "TUU48M0T1",
        "user_profile": {
            "avatar_hash": "82d977ce9645",
            "image_72": "https:\/\/avatars.slack-edge.com\/2020-03-16\/1003452392327_82d977ce9645ebc30917_72.jpg",
            "first_name": "Antonio",
            "real_name": "Antonio Mangiapane",
            "display_name": "Antonio Mangiapane",
            "team": "TUU48M0T1",
            "name": "antonio.mangiapane29",
            "is_restricted": false,
            "is_ultra_restricted": false
        },
        "attachments": [
            {
                "title": "JOGL - Just One Giant Lab",
                "title_link": "https:\/\/app.jogl.io\/project\/150",
                "text": "JOGL helps sync humanity onto solving our most important social &amp; environmental problems using open science, responsible innovation &amp; continuous learning.",
                "fallback": "JOGL - Just One Giant Lab",
                "thumb_url": "https:\/\/app.jogl.io\/planet.jpg",
                "from_url": "https:\/\/app.jogl.io\/project\/150",
                "thumb_width": 2049,
                "thumb_height": 1011,
                "service_icon": "https:\/\/app.jogl.io\/favicon.ico",
                "service_name": "app.jogl.io",
                "id": 1,
                "original_url": "https:\/\/app.jogl.io\/project\/150"
            }
        ],
        "blocks": [
            {
                "type": "rich_text",
                "block_id": "1D4vN",
                "elements": [
                    {
                        "type": "rich_text_section",
                        "elements": [
                            {
                                "type": "link",
                                "url": "https:\/\/app.jogl.io\/project\/150"
                            }
                        ]
                    }
                ]
            }
        ],
        "thread_ts": "1584787885.188900",
        "parent_user_id": "UV02WET96"
    },
    {
        "client_msg_id": "97b4cc0b-2612-494f-bdf9-258f0606e883",
        "type": "message",
        "text": "awesome!!",
        "user": "UV02WET96",
        "ts": "1584789162.191400",
        "team": "TUU48M0T1",
        "user_team": "TUU48M0T1",
        "source_team": "TUU48M0T1",
        "user_profile": {
            "avatar_hash": "a99c74a194f8",
            "image_72": "https:\/\/avatars.slack-edge.com\/2020-03-07\/975708504851_a99c74a194f86715ca7d_72.png",
            "first_name": "Thomas",
            "real_name": "Thomas Landrain",
            "display_name": "Thomas Landrain - JOGL CoFounder \/ CEO",
            "team": "TUU48M0T1",
            "name": "thomas",
            "is_restricted": false,
            "is_ultra_restricted": false
        },
        "blocks": [
            {
                "type": "rich_text",
                "block_id": "yuwt+",
                "elements": [
                    {
                        "type": "rich_text_section",
                        "elements": [
                            {
                                "type": "text",
                                "text": "awesome!!"
                            }
                        ]
                    }
                ]
            }
        ],
        "thread_ts": "1584787885.188900",
        "parent_user_id": "UV02WET96"
    },
    {
        "client_msg_id": "99d25f71-6121-4ea7-ab4e-53141b4bc8fa",
        "type": "message",
        "text": "I'll make a first post inside the project with the link to the doc (which is also in the description), and then communicate to the appropriate slack channels",
        "user": "UV2P3AQEN",
        "ts": "1584789219.191600",
        "team": "TUU48M0T1",
        "user_team": "TUU48M0T1",
        "source_team": "TUU48M0T1",
        "user_profile": {
            "avatar_hash": "82d977ce9645",
            "image_72": "https:\/\/avatars.slack-edge.com\/2020-03-16\/1003452392327_82d977ce9645ebc30917_72.jpg",
            "first_name": "Antonio",
            "real_name": "Antonio Mangiapane",
            "display_name": "Antonio Mangiapane",
            "team": "TUU48M0T1",
            "name": "antonio.mangiapane29",
            "is_restricted": false,
            "is_ultra_restricted": false
        },
        "blocks": [
            {
                "type": "rich_text",
                "block_id": "aIO",
                "elements": [
                    {
                        "type": "rich_text_section",
                        "elements": [
                            {
                                "type": "text",
                                "text": "I'll make a first post inside the project with the link to the doc (which is also in the description), and then communicate to the appropriate slack channels"
                            }
                        ]
                    }
                ]
            }
        ],
        "thread_ts": "1584787885.188900",
        "parent_user_id": "UV02WET96",
        "reactions": [
            {
                "name": "raised_hands",
                "users": [
                    "UV02WET96"
                ],
                "count": 1
            }
        ]
    },
    {
        "client_msg_id": "24bdb9af-2403-490f-9f58-84e7ca36c1eb",
        "type": "message",
        "text": "can we have a short call (5min) to advance on the project?",
        "user": "UV02WET96",
        "ts": "1584789235.191800",
        "team": "TUU48M0T1",
        "user_team": "TUU48M0T1",
        "source_team": "TUU48M0T1",
        "user_profile": {
            "avatar_hash": "a99c74a194f8",
            "image_72": "https:\/\/avatars.slack-edge.com\/2020-03-07\/975708504851_a99c74a194f86715ca7d_72.png",
            "first_name": "Thomas",
            "real_name": "Thomas Landrain",
            "display_name": "Thomas Landrain - JOGL CoFounder \/ CEO",
            "team": "TUU48M0T1",
            "name": "thomas",
            "is_restricted": false,
            "is_ultra_restricted": false
        },
        "blocks": [
            {
                "type": "rich_text",
                "block_id": "JGE9A",
                "elements": [
                    {
                        "type": "rich_text_section",
                        "elements": [
                            {
                                "type": "text",
                                "text": "can we have a short call (5min) to advance on the project?"
                            }
                        ]
                    }
                ]
            }
        ],
        "thread_ts": "1584787885.188900",
        "parent_user_id": "UV02WET96"
    },
    {
        "client_msg_id": "07583ba1-d877-4ac2-a863-f8d0db99155f",
        "type": "message",
        "text": "Sure, whenever you want",
        "user": "UV2P3AQEN",
        "ts": "1584789250.192100",
        "team": "TUU48M0T1",
        "user_team": "TUU48M0T1",
        "source_team": "TUU48M0T1",
        "user_profile": {
            "avatar_hash": "82d977ce9645",
            "image_72": "https:\/\/avatars.slack-edge.com\/2020-03-16\/1003452392327_82d977ce9645ebc30917_72.jpg",
            "first_name": "Antonio",
            "real_name": "Antonio Mangiapane",
            "display_name": "Antonio Mangiapane",
            "team": "TUU48M0T1",
            "name": "antonio.mangiapane29",
            "is_restricted": false,
            "is_ultra_restricted": false
        },
        "blocks": [
            {
                "type": "rich_text",
                "block_id": "=lhYn",
                "elements": [
                    {
                        "type": "rich_text_section",
                        "elements": [
                            {
                                "type": "text",
                                "text": "Sure, whenever you want"
                            }
                        ]
                    }
                ]
            }
        ],
        "thread_ts": "1584787885.188900",
        "parent_user_id": "UV02WET96"
    },
    {
        "client_msg_id": "4a0eec2e-926f-45d2-9037-8f3f206abe24",
        "type": "message",
        "text": "<https:\/\/zoom.us\/j\/7804345815>",
        "user": "UV02WET96",
        "ts": "1584789251.192300",
        "team": "TUU48M0T1",
        "user_team": "TUU48M0T1",
        "source_team": "TUU48M0T1",
        "user_profile": {
            "avatar_hash": "a99c74a194f8",
            "image_72": "https:\/\/avatars.slack-edge.com\/2020-03-07\/975708504851_a99c74a194f86715ca7d_72.png",
            "first_name": "Thomas",
            "real_name": "Thomas Landrain",
            "display_name": "Thomas Landrain - JOGL CoFounder \/ CEO",
            "team": "TUU48M0T1",
            "name": "thomas",
            "is_restricted": false,
            "is_ultra_restricted": false
        },
        "blocks": [
            {
                "type": "rich_text",
                "block_id": "DRv",
                "elements": [
                    {
                        "type": "rich_text_section",
                        "elements": [
                            {
                                "type": "link",
                                "url": "https:\/\/zoom.us\/j\/7804345815"
                            }
                        ]
                    }
                ]
            }
        ],
        "thread_ts": "1584787885.188900",
        "parent_user_id": "UV02WET96"
    },
    {
        "client_msg_id": "07f244c1-e5b5-4091-9fb4-17b857730002",
        "type": "message",
        "text": "now?",
        "user": "UV02WET96",
        "ts": "1584789255.192500",
        "team": "TUU48M0T1",
        "user_team": "TUU48M0T1",
        "source_team": "TUU48M0T1",
        "user_profile": {
            "avatar_hash": "a99c74a194f8",
            "image_72": "https:\/\/avatars.slack-edge.com\/2020-03-07\/975708504851_a99c74a194f86715ca7d_72.png",
            "first_name": "Thomas",
            "real_name": "Thomas Landrain",
            "display_name": "Thomas Landrain - JOGL CoFounder \/ CEO",
            "team": "TUU48M0T1",
            "name": "thomas",
            "is_restricted": false,
            "is_ultra_restricted": false
        },
        "blocks": [
            {
                "type": "rich_text",
                "block_id": "FQI9",
                "elements": [
                    {
                        "type": "rich_text_section",
                        "elements": [
                            {
                                "type": "text",
                                "text": "now?"
                            }
                        ]
                    }
                ]
            }
        ],
        "thread_ts": "1584787885.188900",
        "parent_user_id": "UV02WET96"
    },
    {
        "client_msg_id": "3feb262f-be6a-42e4-a2ee-87e9e949478e",
        "type": "message",
        "text": "<!channel> Hello everyone! The Open Source Face Mask Challenge Project is online! You can find it and join at <https:\/\/app.jogl.io\/project\/150?success=1>",
        "user": "UV2P3AQEN",
        "ts": "1584792088.193900",
        "team": "TUU48M0T1",
        "user_team": "TUU48M0T1",
        "source_team": "TUU48M0T1",
        "user_profile": {
            "avatar_hash": "82d977ce9645",
            "image_72": "https:\/\/avatars.slack-edge.com\/2020-03-16\/1003452392327_82d977ce9645ebc30917_72.jpg",
            "first_name": "Antonio",
            "real_name": "Antonio Mangiapane",
            "display_name": "Antonio Mangiapane",
            "team": "TUU48M0T1",
            "name": "antonio.mangiapane29",
            "is_restricted": false,
            "is_ultra_restricted": false
        },
        "attachments": [
            {
                "title": "JOGL - Just One Giant Lab",
                "title_link": "https:\/\/app.jogl.io\/project\/150?success=1",
                "text": "JOGL helps sync humanity onto solving our most important social &amp; environmental problems using open science, responsible innovation &amp; continuous learning.",
                "fallback": "JOGL - Just One Giant Lab",
                "thumb_url": "https:\/\/app.jogl.io\/planet.jpg",
                "from_url": "https:\/\/app.jogl.io\/project\/150?success=1",
                "thumb_width": 2049,
                "thumb_height": 1011,
                "service_icon": "https:\/\/app.jogl.io\/favicon.ico",
                "service_name": "app.jogl.io",
                "id": 1,
                "original_url": "https:\/\/app.jogl.io\/project\/150?success=1"
            }
        ],
        "blocks": [
            {
                "type": "rich_text",
                "block_id": "U9Psa",
                "elements": [
                    {
                        "type": "rich_text_section",
                        "elements": [
                            {
                                "type": "broadcast",
                                "range": "channel"
                            },
                            {
                                "type": "text",
                                "text": " Hello everyone! The Open Source Face Mask Challenge Project is online! You can find it and join at "
                            },
                            {
                                "type": "link",
                                "url": "https:\/\/app.jogl.io\/project\/150?success=1"
                            }
                        ]
                    }
                ]
            }
        ]
    },
    {
        "client_msg_id": "33629cf3-68e5-4ddf-9ac9-3fd64817cb6c",
        "type": "message",
        "text": "So wonderful, thank you so much for this effort!",
        "user": "UV3QV055Y",
        "ts": "1584792146.194400",
        "team": "TUU48M0T1",
        "user_team": "TUU48M0T1",
        "source_team": "TUU48M0T1",
        "user_profile": {
            "avatar_hash": "gdbd82c58158",
            "image_72": "https:\/\/secure.gravatar.com\/avatar\/dbd82c581580993bcc79a7e716c83a06.jpg?s=72&d=https%3A%2F%2Fa.slack-edge.com%2Fdf10d%2Fimg%2Favatars%2Fava_0018-72.png",
            "first_name": "Erik",
            "real_name": "Erik H Zepka (XOX Labs)",
            "display_name": "Erik H Zepka",
            "team": "TUU48M0T1",
            "name": "xoxlabs",
            "is_restricted": false,
            "is_ultra_restricted": false
        },
        "blocks": [
            {
                "type": "rich_text",
                "block_id": "9AW6F",
                "elements": [
                    {
                        "type": "rich_text_section",
                        "elements": [
                            {
                                "type": "text",
                                "text": "So wonderful, thank you so much for this effort!"
                            }
                        ]
                    }
                ]
            }
        ]
    },
    {
        "client_msg_id": "950B3184-90FF-4C68-BA0C-FCFF77D5A625",
        "type": "message",
        "text": "Hi everyone. Our MakerHealth site at one of our hospitals created and fit tested a mask. They are now using it. Feel free to take and run and mod how you see fit. <https:\/\/www.unitypoint.org\/cedarrapids\/sewing-surgical-masks.aspx|https:\/\/www.unitypoint.org\/cedarrapids\/sewing-surgical-masks.aspx>\n\nIt may be useful where you can harness volunteers to make locally as opposed to mass manufacturing. It uses a modular filter and skin safe adhesive for fit testing. ",
        "user": "UVA3EP8DR",
        "ts": "1584795562.197700",
        "team": "TUU48M0T1",
        "user_team": "TUU48M0T1",
        "source_team": "TUU48M0T1",
        "user_profile": {
            "avatar_hash": "g5cd3604fd0d",
            "image_72": "https:\/\/secure.gravatar.com\/avatar\/5cd3604fd0dc94e2e85fccd57452d028.jpg?s=72&d=https%3A%2F%2Fa.slack-edge.com%2Fdf10d%2Fimg%2Favatars%2Fava_0015-72.png",
            "first_name": "",
            "real_name": "Jose Gomez-Marquez",
            "display_name": "",
            "team": "TUU48M0T1",
            "name": "jfgm",
            "is_restricted": false,
            "is_ultra_restricted": false
        },
        "attachments": [
            {
                "title": "Sewing Fabric Surgical Masks",
                "title_link": "https:\/\/www.unitypoint.org\/cedarrapids\/sewing-surgical-masks.aspx",
                "text": "description",
                "fallback": "Sewing Fabric Surgical Masks",
                "image_url": "https:\/\/www.unitypoint.org\/images\/OpenGraph_Default.jpg",
                "from_url": "https:\/\/www.unitypoint.org\/cedarrapids\/sewing-surgical-masks.aspx",
                "image_width": 476,
                "image_height": 250,
                "image_bytes": 83786,
                "service_icon": "https:\/\/www.unitypoint.org\/apple-touch-icon-144x144-precomposed.png",
                "service_name": "unitypoint.org",
                "id": 1,
                "original_url": "https:\/\/www.unitypoint.org\/cedarrapids\/sewing-surgical-masks.aspx"
            }
        ],
        "blocks": [
            {
                "type": "rich_text",
                "block_id": "64F9j",
                "elements": [
                    {
                        "type": "rich_text_section",
                        "elements": [
                            {
                                "type": "text",
                                "text": "Hi everyone. Our MakerHealth site at one of our hospitals created and fit tested a mask. They are now using it. Feel free to take and run and mod how you see fit. "
                            },
                            {
                                "type": "link",
                                "url": "https:\/\/www.unitypoint.org\/cedarrapids\/sewing-surgical-masks.aspx",
                                "text": "https:\/\/www.unitypoint.org\/cedarrapids\/sewing-surgical-masks.aspx"
                            },
                            {
                                "type": "text",
                                "text": "\n"
                            },
                            {
                                "type": "text",
                                "text": "\n"
                            },
                            {
                                "type": "text",
                                "text": "It may be useful where you can harness volunteers to make locally as opposed to mass manufacturing. It uses a modular filter and skin safe adhesive for fit testing. "
                            }
                        ]
                    }
                ]
            }
        ],
        "thread_ts": "1584795562.197700",
        "reply_count": 2,
        "reply_users_count": 2,
        "latest_reply": "1584817930.227200",
        "reply_users": [
            "UV02WET96",
            "UVA3EP8DR"
        ],
        "replies": [
            {
                "user": "UV02WET96",
                "ts": "1584798083.200800"
            },
            {
                "user": "UVA3EP8DR",
                "ts": "1584817930.227200"
            }
        ],
        "subscribed": false,
        "reactions": [
            {
                "name": "raised_hands",
                "users": [
                    "UV02WET96"
                ],
                "count": 1
            }
        ]
    },
    {
        "client_msg_id": "9a8bae58-5022-47c3-8d79-1f4af358edee",
        "type": "message",
        "text": "I have access to 300-500 kgs of pure cotton cloth which is less than 75mx 75 cm each. This scrap is generated by cutting cloth from bales and sold in retail. I also have access to a tailor.",
        "user": "U0106PLV8PJ",
        "ts": "1584796650.200300",
        "team": "TUU48M0T1",
        "user_team": "TUU48M0T1",
        "source_team": "TUU48M0T1",
        "user_profile": {
            "avatar_hash": "g2cfc1aee243",
            "image_72": "https:\/\/secure.gravatar.com\/avatar\/2cfc1aee24305a18a647efef16d68e02.jpg?s=72&d=https%3A%2F%2Fa.slack-edge.com%2Fdf10d%2Fimg%2Favatars%2Fava_0012-72.png",
            "first_name": "",
            "real_name": "Rupin Chheda",
            "display_name": "",
            "team": "TUU48M0T1",
            "name": "rupin.chheda",
            "is_restricted": false,
            "is_ultra_restricted": false
        },
        "blocks": [
            {
                "type": "rich_text",
                "block_id": "iw40v",
                "elements": [
                    {
                        "type": "rich_text_section",
                        "elements": [
                            {
                                "type": "text",
                                "text": "I have access to 300-500 kgs of pure cotton cloth which is less than 75mx 75 cm each. This scrap is generated by cutting cloth from bales and sold in retail. I also have access to a tailor."
                            }
                        ]
                    }
                ]
            }
        ],
        "reactions": [
            {
                "name": "+1",
                "users": [
                    "U01081Y0TBP"
                ],
                "count": 1
            }
        ]
    },
    {
        "client_msg_id": "83c7b0c6-d79b-4622-bee2-2ca73761d0d8",
        "type": "message",
        "text": "75cmx 75cm",
        "user": "U0106PLV8PJ",
        "ts": "1584796661.200600",
        "team": "TUU48M0T1",
        "user_team": "TUU48M0T1",
        "source_team": "TUU48M0T1",
        "user_profile": {
            "avatar_hash": "g2cfc1aee243",
            "image_72": "https:\/\/secure.gravatar.com\/avatar\/2cfc1aee24305a18a647efef16d68e02.jpg?s=72&d=https%3A%2F%2Fa.slack-edge.com%2Fdf10d%2Fimg%2Favatars%2Fava_0012-72.png",
            "first_name": "",
            "real_name": "Rupin Chheda",
            "display_name": "",
            "team": "TUU48M0T1",
            "name": "rupin.chheda",
            "is_restricted": false,
            "is_ultra_restricted": false
        },
        "blocks": [
            {
                "type": "rich_text",
                "block_id": "+3T",
                "elements": [
                    {
                        "type": "rich_text_section",
                        "elements": [
                            {
                                "type": "text",
                                "text": "75cmx 75cm"
                            }
                        ]
                    }
                ]
            }
        ]
    },
    {
        "client_msg_id": "29f9a4fa-517c-42cc-b79d-9d4306277def",
        "type": "message",
        "text": "thanks for sharing Jose!\nDid you put your design in this doc too?\n<https:\/\/docs.google.com\/spreadsheets\/d\/1e81ceSrVT6Bl4UaS1SxIUUUzgZAdkIstU7Hzot08Ld8\/edit?fbclid=IwAR05FIJsROWHfXvI5wm6FRdUoTgxXOsjB0X2vJIMLIU_utXjE0VOuyfloW0#gid=0>",
        "user": "UV02WET96",
        "ts": "1584798083.200800",
        "team": "TUU48M0T1",
        "user_team": "TUU48M0T1",
        "source_team": "TUU48M0T1",
        "user_profile": {
            "avatar_hash": "a99c74a194f8",
            "image_72": "https:\/\/avatars.slack-edge.com\/2020-03-07\/975708504851_a99c74a194f86715ca7d_72.png",
            "first_name": "Thomas",
            "real_name": "Thomas Landrain",
            "display_name": "Thomas Landrain - JOGL CoFounder \/ CEO",
            "team": "TUU48M0T1",
            "name": "thomas",
            "is_restricted": false,
            "is_ultra_restricted": false
        },
        "blocks": [
            {
                "type": "rich_text",
                "block_id": "Qm9jn",
                "elements": [
                    {
                        "type": "rich_text_section",
                        "elements": [
                            {
                                "type": "text",
                                "text": "thanks for sharing Jose!\nDid you put your design in this doc too?\n"
                            },
                            {
                                "type": "link",
                                "url": "https:\/\/docs.google.com\/spreadsheets\/d\/1e81ceSrVT6Bl4UaS1SxIUUUzgZAdkIstU7Hzot08Ld8\/edit?fbclid=IwAR05FIJsROWHfXvI5wm6FRdUoTgxXOsjB0X2vJIMLIU_utXjE0VOuyfloW0#gid=0"
                            }
                        ]
                    }
                ]
            }
        ],
        "thread_ts": "1584795562.197700",
        "parent_user_id": "UVA3EP8DR"
    },
    {
        "client_msg_id": "0e7017b3-4f7b-4528-8069-cfc0b6bf7b16",
        "type": "message",
        "text": "Hi team, I am Zaid from Atlanta. I am interested in finding some ways to make these masks. I also have some interest in the rapid test kits (antibody IGG and IGM).\n\nI'm trying to identify some filters that maybe useful. I think we can find some polypropylene woven fabric that is maybe 30 GSM in the hardware stores (like home Depot in the US) that are used for gardening (stopping weeds). I'm also looking at HEPA filters from vacuum cleaners bags. Any thoughts on these?",
        "user": "U010CC740GG",
        "ts": "1584800208.206100",
        "team": "TUU48M0T1",
        "user_team": "TUU48M0T1",
        "source_team": "TUU48M0T1",
        "user_profile": {
            "avatar_hash": "g0f53a60f829",
            "image_72": "https:\/\/secure.gravatar.com\/avatar\/0f53a60f8292b3fff9cb91758c0fdef3.jpg?s=72&d=https%3A%2F%2Fa.slack-edge.com%2Fdf10d%2Fimg%2Favatars%2Fava_0021-72.png",
            "first_name": "",
            "real_name": "Zaid",
            "display_name": "",
            "team": "TUU48M0T1",
            "name": "ztillma",
            "is_restricted": false,
            "is_ultra_restricted": false
        },
        "blocks": [
            {
                "type": "rich_text",
                "block_id": "NztPw",
                "elements": [
                    {
                        "type": "rich_text_section",
                        "elements": [
                            {
                                "type": "text",
                                "text": "Hi team, I am Zaid from Atlanta. I am interested in finding some ways to make these masks. I also have some interest in the rapid test kits (antibody IGG and IGM).\n\nI'm trying to identify some filters that maybe useful. I think we can find some polypropylene woven fabric that is maybe 30 GSM in the hardware stores (like home Depot in the US) that are used for gardening (stopping weeds). I'm also looking at HEPA filters from vacuum cleaners bags. Any thoughts on these?"
                            }
                        ]
                    }
                ]
            }
        ],
        "thread_ts": "1584800208.206100",
        "reply_count": 4,
        "reply_users_count": 4,
        "latest_reply": "1584817975.228000",
        "reply_users": [
            "UV6870881",
            "U010CC740GG",
            "UV5CCJ9RC",
            "UVA3EP8DR"
        ],
        "replies": [
            {
                "user": "UV6870881",
                "ts": "1584800314.207800"
            },
            {
                "user": "U010CC740GG",
                "ts": "1584801904.209700"
            },
            {
                "user": "UV5CCJ9RC",
                "ts": "1584802328.212600"
            },
            {
                "user": "UVA3EP8DR",
                "ts": "1584817975.228000"
            }
        ],
        "subscribed": false
    },
    {
        "client_msg_id": "94409462-7b66-4e82-9c86-d5d5045e9dfb",
        "type": "message",
        "text": "What I would not give right now to have access to a machine that tells me the efficiency and the size of particles it blocks :)",
        "user": "U010CC740GG",
        "ts": "1584800232.207300",
        "team": "TUU48M0T1",
        "user_team": "TUU48M0T1",
        "source_team": "TUU48M0T1",
        "user_profile": {
            "avatar_hash": "g0f53a60f829",
            "image_72": "https:\/\/secure.gravatar.com\/avatar\/0f53a60f8292b3fff9cb91758c0fdef3.jpg?s=72&d=https%3A%2F%2Fa.slack-edge.com%2Fdf10d%2Fimg%2Favatars%2Fava_0021-72.png",
            "first_name": "",
            "real_name": "Zaid",
            "display_name": "",
            "team": "TUU48M0T1",
            "name": "ztillma",
            "is_restricted": false,
            "is_ultra_restricted": false
        },
        "blocks": [
            {
                "type": "rich_text",
                "block_id": "dSaq",
                "elements": [
                    {
                        "type": "rich_text_section",
                        "elements": [
                            {
                                "type": "text",
                                "text": "What I would not give right now to have access to a machine that tells me the efficiency and the size of particles it blocks :)"
                            }
                        ]
                    }
                ]
            }
        ]
    },
    {
        "client_msg_id": "E46E10EE-E786-4BC9-B4F8-556FE111566E",
        "type": "message",
        "text": "Moving from random to here: \n\nPlaying devil’s advocate here: I can’t help but wonder what the effectiveness of these hand sewn masks are. I suppose it’s better than nothing but would pushing these so widely give people a false sense of security and lead to them engaging in risky behaviors thinking that they’re shielded from infection with their cotton mask? \n\nI’m talking more from a general public standpoint than healthcare. When we’re already struggling to have people take social distancing seriously — at least in the US. ",
        "user": "UV5CCJ9RC",
        "ts": "1584800263.207700",
        "team": "TUU48M0T1",
        "user_team": "TUU48M0T1",
        "source_team": "TUU48M0T1",
        "user_profile": {
            "avatar_hash": "2c79fe05f7e7",
            "image_72": "https:\/\/avatars.slack-edge.com\/2020-03-10\/992653932501_2c79fe05f7e75be19699_72.png",
            "first_name": "Chris",
            "real_name": "Chris Monaco",
            "display_name": "",
            "team": "TUU48M0T1",
            "name": "cmonaco.hr",
            "is_restricted": false,
            "is_ultra_restricted": false
        },
        "blocks": [
            {
                "type": "rich_text",
                "block_id": "0fJ",
                "elements": [
                    {
                        "type": "rich_text_section",
                        "elements": [
                            {
                                "type": "text",
                                "text": "Moving from random to here: \n\nPlaying devil’s advocate here: I can’t help but wonder what the effectiveness of these hand sewn masks are. I suppose it’s better than nothing but would pushing these so widely give people a false sense of security and lead to them engaging in risky behaviors thinking that they’re shielded from infection with their cotton mask? \n\nI’m talking more from a general public standpoint than healthcare. When we’re already struggling to have people take social distancing seriously — at least in the US. "
                            }
                        ]
                    }
                ]
            }
        ],
        "thread_ts": "1584800263.207700",
        "reply_count": 4,
        "reply_users_count": 4,
        "latest_reply": "1584818006.228600",
        "reply_users": [
            "UV2P3AQEN",
            "UV5CCJ9RC",
            "U0109T1DV9T",
            "UVA3EP8DR"
        ],
        "replies": [
            {
                "user": "UV2P3AQEN",
                "ts": "1584801296.208100"
            },
            {
                "user": "UV5CCJ9RC",
                "ts": "1584801522.209500"
            },
            {
                "user": "U0109T1DV9T",
                "ts": "1584803407.216200"
            },
            {
                "user": "UVA3EP8DR",
                "ts": "1584818006.228600"
            }
        ],
        "subscribed": false
    },
    {
        "client_msg_id": "c16ec581-49b6-443f-9fe3-8bf57df1f475",
        "type": "message",
        "text": "For the immunoglobulin tests u want to check <#C0103J8NF46|chlg-detect-team>",
        "user": "UV6870881",
        "ts": "1584800314.207800",
        "team": "TUU48M0T1",
        "user_team": "TUU48M0T1",
        "source_team": "TUU48M0T1",
        "user_profile": {
            "avatar_hash": "gbbbbcc3accd",
            "image_72": "https:\/\/secure.gravatar.com\/avatar\/bbbbcc3accdddb02dfb1c03a4a65b994.jpg?s=72&d=https%3A%2F%2Fa.slack-edge.com%2Fdf10d%2Fimg%2Favatars%2Fava_0011-72.png",
            "first_name": "Quant",
            "real_name": "Quant",
            "display_name": "",
            "team": "TUU48M0T1",
            "name": "admin",
            "is_restricted": false,
            "is_ultra_restricted": false
        },
        "blocks": [
            {
                "type": "rich_text",
                "block_id": "R7X=e",
                "elements": [
                    {
                        "type": "rich_text_section",
                        "elements": [
                            {
                                "type": "text",
                                "text": "For the immunoglobulin tests u want to check "
                            },
                            {
                                "type": "channel",
                                "channel_id": "C0103J8NF46"
                            }
                        ]
                    }
                ]
            }
        ],
        "thread_ts": "1584800208.206100",
        "parent_user_id": "U010CC740GG"
    },
    {
        "type": "message",
        "text": "",
        "user": "UV6870881",
        "ts": "1584800804.208000",
        "team": "TUU48M0T1",
        "user_team": "TUU48M0T1",
        "source_team": "TUU48M0T1",
        "user_profile": {
            "avatar_hash": "gbbbbcc3accd",
            "image_72": "https:\/\/secure.gravatar.com\/avatar\/bbbbcc3accdddb02dfb1c03a4a65b994.jpg?s=72&d=https%3A%2F%2Fa.slack-edge.com%2Fdf10d%2Fimg%2Favatars%2Fava_0011-72.png",
            "first_name": "Quant",
            "real_name": "Quant",
            "display_name": "",
            "team": "TUU48M0T1",
            "name": "admin",
            "is_restricted": false,
            "is_ultra_restricted": false
        },
        "attachments": [
            {
                "fallback": "[March 21st, 2020 8:22 AM] thomas: We are launching an Open Source Face Mask Challenge! :mask:\n\nThe end goal of this project is to validate all the good designs and send them for mass manufacturing.\n\nFor that we are collecting and evaluating all existing open source face mask designs before submitting them to the competent authorities.\nThe best possible face mask designs [cheap, comfortable and safe] will be approved and mass manufactured. Details on the project are in the “About” section of the JOGL project [<https:\/\/app.jogl.io\/project\/150|link to the JOGL project>].\n\nWe’re having a first community call today at 7 PM (CET) to advance on the project, be sure not to miss it! [<https:\/\/zoom.us\/j\/7804345815|link to the zoom>]",
                "ts": "1584793360.224000",
                "author_id": "UV02WET96",
                "author_subname": "Thomas Landrain",
                "channel_id": "CUDEHLGHY",
                "channel_name": "announcements",
                "is_msg_unfurl": true,
                "text": "We are launching an Open Source Face Mask Challenge! :mask:\n\nThe end goal of this project is to validate all the good designs and send them for mass manufacturing.\n\nFor that we are collecting and evaluating all existing open source face mask designs before submitting them to the competent authorities.\nThe best possible face mask designs [cheap, comfortable and safe] will be approved and mass manufactured. Details on the project are in the “About” section of the JOGL project [<https:\/\/app.jogl.io\/project\/150|link to the JOGL project>].\n\nWe’re having a first community call today at 7 PM (CET) to advance on the project, be sure not to miss it! [<https:\/\/zoom.us\/j\/7804345815|link to the zoom>]",
                "author_name": "Thomas Landrain",
                "author_link": "https:\/\/open-covid19.slack.com\/team\/UV02WET96",
                "author_icon": "https:\/\/avatars.slack-edge.com\/2020-03-07\/975708504851_a99c74a194f86715ca7d_48.png",
                "mrkdwn_in": [
                    "text"
                ],
                "color": "D0D0D0",
                "from_url": "https:\/\/open-covid19.slack.com\/archives\/CUDEHLGHY\/p1584793360224000",
                "is_share": true,
                "footer": "Posted in #announcements"
            }
        ],
        "blocks": [
            {
                "type": "rich_text",
                "block_id": "UKC8+",
                "elements": [
                    {
                        "type": "rich_text_section",
                        "elements": []
                    }
                ]
            }
        ]
    },
    {
        "client_msg_id": "eb6d452e-7ca3-48a2-95d9-04ec46b94ebc",
        "type": "message",
        "text": "I think this is exactly the reason why the final choice, among the designs we are gathering, will be made with the aid of healthcare professionals who know the risks connected to their use. What's more, a fundamental step of the process is to submit the best designs to the competent authorities in order for them to validate them and assess compliance to the Standards. The ultimate goal is to have an approach which is as rigorous and effective as possible.",
        "user": "UV2P3AQEN",
        "ts": "1584801296.208100",
        "team": "TUU48M0T1",
        "user_team": "TUU48M0T1",
        "source_team": "TUU48M0T1",
        "user_profile": {
            "avatar_hash": "82d977ce9645",
            "image_72": "https:\/\/avatars.slack-edge.com\/2020-03-16\/1003452392327_82d977ce9645ebc30917_72.jpg",
            "first_name": "Antonio",
            "real_name": "Antonio Mangiapane",
            "display_name": "Antonio Mangiapane",
            "team": "TUU48M0T1",
            "name": "antonio.mangiapane29",
            "is_restricted": false,
            "is_ultra_restricted": false
        },
        "blocks": [
            {
                "type": "rich_text",
                "block_id": "P1d",
                "elements": [
                    {
                        "type": "rich_text_section",
                        "elements": [
                            {
                                "type": "text",
                                "text": "I think this is exactly the reason why the final choice, among the designs we are gathering, will be made with the aid of healthcare professionals who know the risks connected to their use. What's more, a fundamental step of the process is to submit the best designs to the competent authorities in order for them to validate them and assess compliance to the Standards. The ultimate goal is to have an approach which is as rigorous and effective as possible."
                            }
                        ]
                    }
                ]
            }
        ],
        "thread_ts": "1584800263.207700",
        "parent_user_id": "UV5CCJ9RC"
    },
    {
        "client_msg_id": "EC0E6CFF-E316-4D5B-A054-0C8CF3316606",
        "type": "message",
        "text": " Cool. And just be clear, I’m not opposed to this group’s mission. I think it’s very much needed. Just thinking about the overall picture",
        "user": "UV5CCJ9RC",
        "ts": "1584801522.209500",
        "team": "TUU48M0T1",
        "user_team": "TUU48M0T1",
        "source_team": "TUU48M0T1",
        "user_profile": {
            "avatar_hash": "2c79fe05f7e7",
            "image_72": "https:\/\/avatars.slack-edge.com\/2020-03-10\/992653932501_2c79fe05f7e75be19699_72.png",
            "first_name": "Chris",
            "real_name": "Chris Monaco",
            "display_name": "",
            "team": "TUU48M0T1",
            "name": "cmonaco.hr",
            "is_restricted": false,
            "is_ultra_restricted": false
        },
        "blocks": [
            {
                "type": "rich_text",
                "block_id": "LHY3W",
                "elements": [
                    {
                        "type": "rich_text_section",
                        "elements": [
                            {
                                "type": "text",
                                "text": " Cool. And just be clear, I’m not opposed to this group’s mission. I think it’s very much needed. Just thinking about the overall picture"
                            }
                        ]
                    }
                ]
            }
        ],
        "thread_ts": "1584800263.207700",
        "parent_user_id": "UV5CCJ9RC"
    },
    {
        "type": "message",
        "subtype": "thread_broadcast",
        "text": "Yes, thank you, will do",
        "user": "U010CC740GG",
        "ts": "1584801904.209700",
        "thread_ts": "1584800208.206100",
        "root": {
            "client_msg_id": "0e7017b3-4f7b-4528-8069-cfc0b6bf7b16",
            "type": "message",
            "text": "Hi team, I am Zaid from Atlanta. I am interested in finding some ways to make these masks. I also have some interest in the rapid test kits (antibody IGG and IGM).\n\nI'm trying to identify some filters that maybe useful. I think we can find some polypropylene woven fabric that is maybe 30 GSM in the hardware stores (like home Depot in the US) that are used for gardening (stopping weeds). I'm also looking at HEPA filters from vacuum cleaners bags. Any thoughts on these?",
            "user": "U010CC740GG",
            "ts": "1584800208.206100",
            "team": "TUU48M0T1",
            "blocks": [
                {
                    "type": "rich_text",
                    "block_id": "NztPw",
                    "elements": [
                        {
                            "type": "rich_text_section",
                            "elements": [
                                {
                                    "type": "text",
                                    "text": "Hi team, I am Zaid from Atlanta. I am interested in finding some ways to make these masks. I also have some interest in the rapid test kits (antibody IGG and IGM).\n\nI'm trying to identify some filters that maybe useful. I think we can find some polypropylene woven fabric that is maybe 30 GSM in the hardware stores (like home Depot in the US) that are used for gardening (stopping weeds). I'm also looking at HEPA filters from vacuum cleaners bags. Any thoughts on these?"
                                }
                            ]
                        }
                    ]
                }
            ],
            "thread_ts": "1584800208.206100",
            "reply_count": 4,
            "reply_users_count": 4,
            "latest_reply": "1584817975.228000",
            "reply_users": [
                "UV6870881",
                "U010CC740GG",
                "UV5CCJ9RC",
                "UVA3EP8DR"
            ],
            "subscribed": false
        },
        "blocks": [
            {
                "type": "rich_text",
                "block_id": "PLU",
                "elements": [
                    {
                        "type": "rich_text_section",
                        "elements": [
                            {
                                "type": "text",
                                "text": "Yes, thank you, will do"
                            }
                        ]
                    }
                ]
            }
        ],
        "client_msg_id": "344df5bb-4fba-4cd8-abbf-0b0ee45ce317"
    },
    {
        "client_msg_id": "69E534B6-6CD7-42EA-9752-80C4C1375D17",
        "type": "message",
        "text": "Hi Zaid! I’m a member of Decatur Makers over in downtown Decatur. We have members also interested in making masks so if you don’t want to work alone I’m happy to get you connected with my group. ",
        "user": "UV5CCJ9RC",
        "ts": "1584802328.212600",
        "team": "TUU48M0T1",
        "user_team": "TUU48M0T1",
        "source_team": "TUU48M0T1",
        "user_profile": {
            "avatar_hash": "2c79fe05f7e7",
            "image_72": "https:\/\/avatars.slack-edge.com\/2020-03-10\/992653932501_2c79fe05f7e75be19699_72.png",
            "first_name": "Chris",
            "real_name": "Chris Monaco",
            "display_name": "",
            "team": "TUU48M0T1",
            "name": "cmonaco.hr",
            "is_restricted": false,
            "is_ultra_restricted": false
        },
        "blocks": [
            {
                "type": "rich_text",
                "block_id": "mTkxW",
                "elements": [
                    {
                        "type": "rich_text_section",
                        "elements": [
                            {
                                "type": "text",
                                "text": "Hi Zaid! I’m a member of Decatur Makers over in downtown Decatur. We have members also interested in making masks so if you don’t want to work alone I’m happy to get you connected with my group. "
                            }
                        ]
                    }
                ]
            }
        ],
        "thread_ts": "1584800208.206100",
        "parent_user_id": "U010CC740GG"
    },
    {
        "client_msg_id": "c68541ee-1d9e-4e44-a658-2d18a9d5f316",
        "type": "message",
        "text": "Hi team, I am Jyotish from Mumbai, India. Please check out this simple DIY mask making technique designed by Indian fashion designer Anuj Sharma. It's simple, cheap and fast to create. Doesn't require any sewing. <https:\/\/www.youtube.com\/watch?v=oLEE8RcyYo8>",
        "user": "U010JJ8SDJT",
        "ts": "1584802491.214800",
        "team": "TUU48M0T1",
        "user_team": "TUU48M0T1",
        "source_team": "TUU48M0T1",
        "user_profile": {
            "avatar_hash": "g86d97e9f78d",
            "image_72": "https:\/\/secure.gravatar.com\/avatar\/86d97e9f78db9673484fd6ea4e61bb6f.jpg?s=72&d=https%3A%2F%2Fa.slack-edge.com%2Fdf10d%2Fimg%2Favatars%2Fava_0024-72.png",
            "first_name": "",
            "real_name": "Jyotish Sonowal",
            "display_name": "Jyotish Sonowal",
            "team": "TUU48M0T1",
            "name": "jyotish13",
            "is_restricted": false,
            "is_ultra_restricted": false
        },
        "attachments": [
            {
                "service_name": "YouTube",
                "service_url": "https:\/\/www.youtube.com\/",
                "title": "DIY MASK FOR BASIC PROTECTION FROM CORONA (ENGLISH COMMENTARY )",
                "title_link": "https:\/\/www.youtube.com\/watch?v=oLEE8RcyYo8",
                "author_name": "Anuj Sharma",
                "author_link": "https:\/\/www.youtube.com\/user\/anujuna",
                "thumb_url": "https:\/\/i.ytimg.com\/vi\/oLEE8RcyYo8\/hqdefault.jpg",
                "thumb_width": 480,
                "thumb_height": 360,
                "fallback": "YouTube Video: DIY MASK FOR BASIC PROTECTION FROM CORONA (ENGLISH COMMENTARY )",
                "video_html": "<iframe width=\"400\" height=\"225\" src=\"https:\/\/www.youtube.com\/embed\/oLEE8RcyYo8?feature=oembed&autoplay=1&iv_load_policy=3\" frameborder=\"0\" allow=\"accelerometer; autoplay; encrypted-media; gyroscope; picture-in-picture\" allowfullscreen><\/iframe>",
                "video_html_width": 400,
                "video_html_height": 225,
                "from_url": "https:\/\/www.youtube.com\/watch?v=oLEE8RcyYo8",
                "service_icon": "https:\/\/a.slack-edge.com\/80588\/img\/unfurl_icons\/youtube.png",
                "id": 1,
                "original_url": "https:\/\/www.youtube.com\/watch?v=oLEE8RcyYo8"
            }
        ],
        "blocks": [
            {
                "type": "rich_text",
                "block_id": "AcQ4\/",
                "elements": [
                    {
                        "type": "rich_text_section",
                        "elements": [
                            {
                                "type": "text",
                                "text": "Hi team, I am Jyotish from Mumbai, India. Please check out this simple DIY mask making technique designed by Indian fashion designer Anuj Sharma. It's simple, cheap and fast to create. Doesn't require any sewing. "
                            },
                            {
                                "type": "link",
                                "url": "https:\/\/www.youtube.com\/watch?v=oLEE8RcyYo8"
                            }
                        ]
                    }
                ]
            }
        ],
        "thread_ts": "1584802491.214800",
        "reply_count": 2,
        "reply_users_count": 2,
        "latest_reply": "1584802881.216000",
        "reply_users": [
            "UV2P3AQEN",
            "U010JJ8SDJT"
        ],
        "replies": [
            {
                "user": "UV2P3AQEN",
                "ts": "1584802572.215700"
            },
            {
                "user": "U010JJ8SDJT",
                "ts": "1584802881.216000"
            }
        ],
        "subscribed": false
    },
    {
        "client_msg_id": "3A8F91EA-AE4D-48F4-9EF3-E193C7818A03",
        "type": "message",
        "text": "Great! Make sure to include this in the doc we created!\n<https:\/\/docs.google.com\/spreadsheets\/d\/1e81ceSrVT6Bl4UaS1SxIUUUzgZAdkIstU7Hzot08Ld8|https:\/\/docs.google.com\/spreadsheets\/d\/1e81ceSrVT6Bl4UaS1SxIUUUzgZAdkIstU7Hzot08Ld8>",
        "user": "UV2P3AQEN",
        "ts": "1584802572.215700",
        "team": "TUU48M0T1",
        "user_team": "TUU48M0T1",
        "source_team": "TUU48M0T1",
        "user_profile": {
            "avatar_hash": "82d977ce9645",
            "image_72": "https:\/\/avatars.slack-edge.com\/2020-03-16\/1003452392327_82d977ce9645ebc30917_72.jpg",
            "first_name": "Antonio",
            "real_name": "Antonio Mangiapane",
            "display_name": "Antonio Mangiapane",
            "team": "TUU48M0T1",
            "name": "antonio.mangiapane29",
            "is_restricted": false,
            "is_ultra_restricted": false
        },
        "edited": {
            "user": "UV2P3AQEN",
            "ts": "1584802614.000000"
        },
        "blocks": [
            {
                "type": "rich_text",
                "block_id": "tnaV+",
                "elements": [
                    {
                        "type": "rich_text_section",
                        "elements": [
                            {
                                "type": "text",
                                "text": "Great! Make sure to include this in the doc we created!\n"
                            },
                            {
                                "type": "link",
                                "url": "https:\/\/docs.google.com\/spreadsheets\/d\/1e81ceSrVT6Bl4UaS1SxIUUUzgZAdkIstU7Hzot08Ld8",
                                "text": "https:\/\/docs.google.com\/spreadsheets\/d\/1e81ceSrVT6Bl4UaS1SxIUUUzgZAdkIstU7Hzot08Ld8"
                            }
                        ]
                    }
                ]
            }
        ],
        "thread_ts": "1584802491.214800",
        "parent_user_id": "U010JJ8SDJT"
    },
    {
        "client_msg_id": "ce25f42a-0ede-4056-a754-a71234f1d780",
        "type": "message",
        "text": "Sure, <@UV2P3AQEN>",
        "user": "U010JJ8SDJT",
        "ts": "1584802881.216000",
        "team": "TUU48M0T1",
        "user_team": "TUU48M0T1",
        "source_team": "TUU48M0T1",
        "user_profile": {
            "avatar_hash": "g86d97e9f78d",
            "image_72": "https:\/\/secure.gravatar.com\/avatar\/86d97e9f78db9673484fd6ea4e61bb6f.jpg?s=72&d=https%3A%2F%2Fa.slack-edge.com%2Fdf10d%2Fimg%2Favatars%2Fava_0024-72.png",
            "first_name": "",
            "real_name": "Jyotish Sonowal",
            "display_name": "Jyotish Sonowal",
            "team": "TUU48M0T1",
            "name": "jyotish13",
            "is_restricted": false,
            "is_ultra_restricted": false
        },
        "blocks": [
            {
                "type": "rich_text",
                "block_id": "Ekjg",
                "elements": [
                    {
                        "type": "rich_text_section",
                        "elements": [
                            {
                                "type": "text",
                                "text": "Sure, "
                            },
                            {
                                "type": "user",
                                "user_id": "UV2P3AQEN"
                            }
                        ]
                    }
                ]
            }
        ],
        "thread_ts": "1584802491.214800",
        "parent_user_id": "U010JJ8SDJT"
    },
    {
        "client_msg_id": "3d010ec7-5679-45b6-9a60-e08ef0d73091",
        "type": "message",
        "text": "<@UV5CCJ9RC> Great point and this is why the fabric designs I would promote are ones that allow for inserts to be added and removed, with full decontamination ability for all parts of the mask. Inserts include the already mentioned non-woven fabrics and also multiple layers of fabric.",
        "user": "U0109T1DV9T",
        "ts": "1584803407.216200",
        "team": "TUU48M0T1",
        "user_team": "TUU48M0T1",
        "source_team": "TUU48M0T1",
        "user_profile": {
            "avatar_hash": "0e741d71262c",
            "image_72": "https:\/\/avatars.slack-edge.com\/2020-03-18\/1012114282886_0e741d71262c690a9183_72.jpg",
            "first_name": "",
            "real_name": "Judy Nguyen",
            "display_name": "Judy Nguyen",
            "team": "TUU48M0T1",
            "name": "judy.v.nguyen",
            "is_restricted": false,
            "is_ultra_restricted": false
        },
        "blocks": [
            {
                "type": "rich_text",
                "block_id": "cbK8",
                "elements": [
                    {
                        "type": "rich_text_section",
                        "elements": [
                            {
                                "type": "user",
                                "user_id": "UV5CCJ9RC"
                            },
                            {
                                "type": "text",
                                "text": " Great point and this is why the fabric designs I would promote are ones that allow for inserts to be added and removed, with full decontamination ability for all parts of the mask. Inserts include the already mentioned non-woven fabrics and also multiple layers of fabric."
                            }
                        ]
                    }
                ]
            }
        ],
        "thread_ts": "1584800263.207700",
        "parent_user_id": "UV5CCJ9RC"
    },
    {
        "client_msg_id": "f5d43f00-4408-4d23-b052-39c9ee317da0",
        "type": "message",
        "text": "<!channel> Dear all, could you all join the Open Source Face Mask Challenge project page on JOGL? We will be sharing it and having a good number of people is motivating for others to join :slightly_smiling_face:\n<https:\/\/app.jogl.io\/project\/150>",
        "user": "UV02WET96",
        "ts": "1584805529.217600",
        "team": "TUU48M0T1",
        "user_team": "TUU48M0T1",
        "source_team": "TUU48M0T1",
        "user_profile": {
            "avatar_hash": "a99c74a194f8",
            "image_72": "https:\/\/avatars.slack-edge.com\/2020-03-07\/975708504851_a99c74a194f86715ca7d_72.png",
            "first_name": "Thomas",
            "real_name": "Thomas Landrain",
            "display_name": "Thomas Landrain - JOGL CoFounder \/ CEO",
            "team": "TUU48M0T1",
            "name": "thomas",
            "is_restricted": false,
            "is_ultra_restricted": false
        },
        "attachments": [
            {
                "title": "JOGL - Just One Giant Lab",
                "title_link": "https:\/\/app.jogl.io\/project\/150",
                "text": "JOGL helps sync humanity onto solving our most important social &amp; environmental problems using open science, responsible innovation &amp; continuous learning.",
                "fallback": "JOGL - Just One Giant Lab",
                "thumb_url": "https:\/\/app.jogl.io\/planet.jpg",
                "from_url": "https:\/\/app.jogl.io\/project\/150",
                "thumb_width": 2049,
                "thumb_height": 1011,
                "service_icon": "https:\/\/app.jogl.io\/favicon.ico",
                "service_name": "app.jogl.io",
                "id": 1,
                "original_url": "https:\/\/app.jogl.io\/project\/150"
            }
        ],
        "blocks": [
            {
                "type": "rich_text",
                "block_id": "5J\/q",
                "elements": [
                    {
                        "type": "rich_text_section",
                        "elements": [
                            {
                                "type": "broadcast",
                                "range": "channel"
                            },
                            {
                                "type": "text",
                                "text": " Dear all, could you all join the Open Source Face Mask Challenge project page on JOGL? We will be sharing it and having a good number of people is motivating for others to join "
                            },
                            {
                                "type": "emoji",
                                "name": "slightly_smiling_face"
                            },
                            {
                                "type": "text",
                                "text": "\n"
                            },
                            {
                                "type": "link",
                                "url": "https:\/\/app.jogl.io\/project\/150"
                            }
                        ]
                    }
                ]
            }
        ],
        "reactions": [
            {
                "name": "+1",
                "users": [
                    "U0103BSMXT2",
                    "UV0QTJCMT"
                ],
                "count": 2
            }
        ]
    },
    {
        "client_msg_id": "bf3a180e-0292-4910-9584-918c39a25dc7",
        "type": "message",
        "text": "Already 33 different mask designs!!!! (currently 60 people on the google doc) this community effort is really mesmerising :heart:",
        "user": "UV02WET96",
        "ts": "1584806475.218900",
        "team": "TUU48M0T1",
        "user_team": "TUU48M0T1",
        "source_team": "TUU48M0T1",
        "user_profile": {
            "avatar_hash": "a99c74a194f8",
            "image_72": "https:\/\/avatars.slack-edge.com\/2020-03-07\/975708504851_a99c74a194f86715ca7d_72.png",
            "first_name": "Thomas",
            "real_name": "Thomas Landrain",
            "display_name": "Thomas Landrain - JOGL CoFounder \/ CEO",
            "team": "TUU48M0T1",
            "name": "thomas",
            "is_restricted": false,
            "is_ultra_restricted": false
        },
        "blocks": [
            {
                "type": "rich_text",
                "block_id": "7I9",
                "elements": [
                    {
                        "type": "rich_text_section",
                        "elements": [
                            {
                                "type": "text",
                                "text": "Already 33 different mask designs!!!! (currently 60 people on the google doc) this community effort is really mesmerising "
                            },
                            {
                                "type": "emoji",
                                "name": "heart"
                            }
                        ]
                    }
                ]
            }
        ]
    },
    {
        "client_msg_id": "79CF10F3-23B8-467B-97D2-51FE2B460215",
        "type": "message",
        "text": "Useful thread <https:\/\/twitter.com\/edurafi\/status\/1241329104726552578?s=21|https:\/\/twitter.com\/edurafi\/status\/1241329104726552578?s=21>",
        "user": "UUNGFHSV8",
        "ts": "1584810002.219500",
        "team": "TUU48M0T1",
        "user_team": "TUU48M0T1",
        "source_team": "TUU48M0T1",
        "user_profile": {
            "avatar_hash": "1c55ee32397a",
            "image_72": "https:\/\/avatars.slack-edge.com\/2020-03-07\/987349161984_1c55ee32397a85a87ec4_72.png",
            "first_name": "Isaac",
            "real_name": "Isaac Larkin",
            "display_name": "Isaac Larkin",
            "team": "TUU48M0T1",
            "name": "eyesmo",
            "is_restricted": false,
            "is_ultra_restricted": false
        },
        "blocks": [
            {
                "type": "rich_text",
                "block_id": "yav",
                "elements": [
                    {
                        "type": "rich_text_section",
                        "elements": [
                            {
                                "type": "text",
                                "text": "Useful thread "
                            },
                            {
                                "type": "link",
                                "url": "https:\/\/twitter.com\/edurafi\/status\/1241329104726552578?s=21",
                                "text": "https:\/\/twitter.com\/edurafi\/status\/1241329104726552578?s=21"
                            }
                        ]
                    }
                ]
            }
        ]
    },
    {
        "client_msg_id": "AA139250-2268-4071-B065-E8E790ECCD7C",
        "type": "message",
        "text": "Here’s an open source design from Prakash lab for adapting snorkeling masks into N95 masks <https:\/\/docs.google.com\/document\/d\/1J22le3dBZBnNDXGlJLRb38z7v7LaOjKfDeN9f0tFeKY\/mobilebasic|https:\/\/docs.google.com\/document\/d\/1J22le3dBZBnNDXGlJLRb38z7v7LaOjKfDeN9f0tFeKY\/mobilebasic>",
        "user": "UUNGFHSV8",
        "ts": "1584810089.221100",
        "team": "TUU48M0T1",
        "user_team": "TUU48M0T1",
        "source_team": "TUU48M0T1",
        "user_profile": {
            "avatar_hash": "1c55ee32397a",
            "image_72": "https:\/\/avatars.slack-edge.com\/2020-03-07\/987349161984_1c55ee32397a85a87ec4_72.png",
            "first_name": "Isaac",
            "real_name": "Isaac Larkin",
            "display_name": "Isaac Larkin",
            "team": "TUU48M0T1",
            "name": "eyesmo",
            "is_restricted": false,
            "is_ultra_restricted": false
        },
        "blocks": [
            {
                "type": "rich_text",
                "block_id": "YQEf",
                "elements": [
                    {
                        "type": "rich_text_section",
                        "elements": [
                            {
                                "type": "text",
                                "text": "Here’s an open source design from Prakash lab for adapting snorkeling masks into N95 masks "
                            },
                            {
                                "type": "link",
                                "url": "https:\/\/docs.google.com\/document\/d\/1J22le3dBZBnNDXGlJLRb38z7v7LaOjKfDeN9f0tFeKY\/mobilebasic",
                                "text": "https:\/\/docs.google.com\/document\/d\/1J22le3dBZBnNDXGlJLRb38z7v7LaOjKfDeN9f0tFeKY\/mobilebasic"
                            }
                        ]
                    }
                ]
            }
        ]
    },
    {
        "client_msg_id": "ea13b349-b0d9-4ba2-b220-5dd32fd299ce",
        "type": "message",
        "text": "this is fantastic!",
        "user": "UV02WET96",
        "ts": "1584810200.221500",
        "team": "TUU48M0T1",
        "user_team": "TUU48M0T1",
        "source_team": "TUU48M0T1",
        "user_profile": {
            "avatar_hash": "a99c74a194f8",
            "image_72": "https:\/\/avatars.slack-edge.com\/2020-03-07\/975708504851_a99c74a194f86715ca7d_72.png",
            "first_name": "Thomas",
            "real_name": "Thomas Landrain",
            "display_name": "Thomas Landrain - JOGL CoFounder \/ CEO",
            "team": "TUU48M0T1",
            "name": "thomas",
            "is_restricted": false,
            "is_ultra_restricted": false
        },
        "blocks": [
            {
                "type": "rich_text",
                "block_id": "n7w6v",
                "elements": [
                    {
                        "type": "rich_text_section",
                        "elements": [
                            {
                                "type": "text",
                                "text": "this is fantastic!"
                            }
                        ]
                    }
                ]
            }
        ]
    },
    {
        "client_msg_id": "7d41a047-fbf5-4367-9bd1-fbdbbdd5279f",
        "type": "message",
        "text": "could you add this to the list?",
        "user": "UV02WET96",
        "ts": "1584810210.221800",
        "team": "TUU48M0T1",
        "user_team": "TUU48M0T1",
        "source_team": "TUU48M0T1",
        "user_profile": {
            "avatar_hash": "a99c74a194f8",
            "image_72": "https:\/\/avatars.slack-edge.com\/2020-03-07\/975708504851_a99c74a194f86715ca7d_72.png",
            "first_name": "Thomas",
            "real_name": "Thomas Landrain",
            "display_name": "Thomas Landrain - JOGL CoFounder \/ CEO",
            "team": "TUU48M0T1",
            "name": "thomas",
            "is_restricted": false,
            "is_ultra_restricted": false
        },
        "blocks": [
            {
                "type": "rich_text",
                "block_id": "YX6",
                "elements": [
                    {
                        "type": "rich_text_section",
                        "elements": [
                            {
                                "type": "text",
                                "text": "could you add this to the list?"
                            }
                        ]
                    }
                ]
            }
        ]
    },
    {
        "client_msg_id": "200b3c7e-9fe2-45c7-9be4-124cad4ffaa6",
        "type": "message",
        "text": "what is the idea after the list will be completed ? rejecting some of designs or chosing one ? or chosing one from each technology(plastic\/fiber ) ?",
        "user": "U010FUU89B9",
        "ts": "1584810286.223600",
        "team": "TUU48M0T1",
        "user_team": "TUU48M0T1",
        "source_team": "TUU48M0T1",
        "user_profile": {
            "avatar_hash": "g8013a6b45b4",
            "image_72": "https:\/\/secure.gravatar.com\/avatar\/8013a6b45b4ae359e124abba6495cd14.jpg?s=72&d=https%3A%2F%2Fa.slack-edge.com%2Fdf10d%2Fimg%2Favatars%2Fava_0016-72.png",
            "first_name": "Bartłomiej",
            "real_name": "Bartłomiej Żogała",
            "display_name": "nusch",
            "team": "TUU48M0T1",
            "name": "slack1370",
            "is_restricted": false,
            "is_ultra_restricted": false
        },
        "blocks": [
            {
                "type": "rich_text",
                "block_id": "2pT",
                "elements": [
                    {
                        "type": "rich_text_section",
                        "elements": [
                            {
                                "type": "text",
                                "text": "what is the idea after the list will be completed ? rejecting some of designs or chosing one ? or chosing one from each technology(plastic\/fiber ) ?"
                            }
                        ]
                    }
                ]
            }
        ]
    },
    {
        "client_msg_id": "a17d677c-38c2-4373-870f-3f1191728474",
        "type": "message",
        "text": "We grade the designs based on the information we have for [cost \/ comfort \/ safety] as a first filter to select the most promising.",
        "user": "UV02WET96",
        "ts": "1584810444.225000",
        "team": "TUU48M0T1",
        "user_team": "TUU48M0T1",
        "source_team": "TUU48M0T1",
        "user_profile": {
            "avatar_hash": "a99c74a194f8",
            "image_72": "https:\/\/avatars.slack-edge.com\/2020-03-07\/975708504851_a99c74a194f86715ca7d_72.png",
            "first_name": "Thomas",
            "real_name": "Thomas Landrain",
            "display_name": "Thomas Landrain - JOGL CoFounder \/ CEO",
            "team": "TUU48M0T1",
            "name": "thomas",
            "is_restricted": false,
            "is_ultra_restricted": false
        },
        "blocks": [
            {
                "type": "rich_text",
                "block_id": "qOfoz",
                "elements": [
                    {
                        "type": "rich_text_section",
                        "elements": [
                            {
                                "type": "text",
                                "text": "We grade the designs based on the information we have for [cost \/ comfort \/ safety] as a first filter to select the most promising."
                            }
                        ]
                    }
                ]
            }
        ],
        "reactions": [
            {
                "name": "+1",
                "users": [
                    "U010FUU89B9"
                ],
                "count": 1
            }
        ]
    },
    {
        "client_msg_id": "ff7ea401-72ee-423e-8157-32604d77cbbb",
        "type": "message",
        "text": "First Phase",
        "user": "UV02WET96",
        "ts": "1584810449.225200",
        "team": "TUU48M0T1",
        "user_team": "TUU48M0T1",
        "source_team": "TUU48M0T1",
        "user_profile": {
            "avatar_hash": "a99c74a194f8",
            "image_72": "https:\/\/avatars.slack-edge.com\/2020-03-07\/975708504851_a99c74a194f86715ca7d_72.png",
            "first_name": "Thomas",
            "real_name": "Thomas Landrain",
            "display_name": "Thomas Landrain - JOGL CoFounder \/ CEO",
            "team": "TUU48M0T1",
            "name": "thomas",
            "is_restricted": false,
            "is_ultra_restricted": false
        },
        "blocks": [
            {
                "type": "rich_text",
                "block_id": "0lwqX",
                "elements": [
                    {
                        "type": "rich_text_section",
                        "elements": [
                            {
                                "type": "text",
                                "text": "First Phase"
                            }
                        ]
                    }
                ]
            }
        ]
    },
    {
        "client_msg_id": "1c100969-1873-43d1-8105-573cd542257e",
        "type": "message",
        "text": "See <https:\/\/app.jogl.io\/project\/150>",
        "user": "UV02WET96",
        "ts": "1584810462.225600",
        "team": "TUU48M0T1",
        "user_team": "TUU48M0T1",
        "source_team": "TUU48M0T1",
        "user_profile": {
            "avatar_hash": "a99c74a194f8",
            "image_72": "https:\/\/avatars.slack-edge.com\/2020-03-07\/975708504851_a99c74a194f86715ca7d_72.png",
            "first_name": "Thomas",
            "real_name": "Thomas Landrain",
            "display_name": "Thomas Landrain - JOGL CoFounder \/ CEO",
            "team": "TUU48M0T1",
            "name": "thomas",
            "is_restricted": false,
            "is_ultra_restricted": false
        },
        "attachments": [
            {
                "title": "JOGL - Just One Giant Lab",
                "title_link": "https:\/\/app.jogl.io\/project\/150",
                "text": "JOGL helps sync humanity onto solving our most important social &amp; environmental problems using open science, responsible innovation &amp; continuous learning.",
                "fallback": "JOGL - Just One Giant Lab",
                "thumb_url": "https:\/\/app.jogl.io\/planet.jpg",
                "from_url": "https:\/\/app.jogl.io\/project\/150",
                "thumb_width": 2049,
                "thumb_height": 1011,
                "service_icon": "https:\/\/app.jogl.io\/favicon.ico",
                "service_name": "app.jogl.io",
                "id": 1,
                "original_url": "https:\/\/app.jogl.io\/project\/150"
            }
        ],
        "blocks": [
            {
                "type": "rich_text",
                "block_id": "5eF",
                "elements": [
                    {
                        "type": "rich_text_section",
                        "elements": [
                            {
                                "type": "text",
                                "text": "See "
                            },
                            {
                                "type": "link",
                                "url": "https:\/\/app.jogl.io\/project\/150"
                            }
                        ]
                    }
                ]
            }
        ]
    },
    {
        "type": "message",
        "subtype": "thread_broadcast",
        "text": "I did not but anyone can.  We are handling 5 hospitals in the US and Spain trying to guide them through.  Thanks for everyone’s experiments 🧪 ",
        "user": "UVA3EP8DR",
        "ts": "1584817930.227200",
        "thread_ts": "1584795562.197700",
        "root": {
            "client_msg_id": "950B3184-90FF-4C68-BA0C-FCFF77D5A625",
            "type": "message",
            "text": "Hi everyone. Our MakerHealth site at one of our hospitals created and fit tested a mask. They are now using it. Feel free to take and run and mod how you see fit. <https:\/\/www.unitypoint.org\/cedarrapids\/sewing-surgical-masks.aspx|https:\/\/www.unitypoint.org\/cedarrapids\/sewing-surgical-masks.aspx>\n\nIt may be useful where you can harness volunteers to make locally as opposed to mass manufacturing. It uses a modular filter and skin safe adhesive for fit testing. ",
            "user": "UVA3EP8DR",
            "ts": "1584795562.197700",
            "team": "TUU48M0T1",
            "attachments": [
                {
                    "title": "Sewing Fabric Surgical Masks",
                    "title_link": "https:\/\/www.unitypoint.org\/cedarrapids\/sewing-surgical-masks.aspx",
                    "text": "description",
                    "fallback": "Sewing Fabric Surgical Masks",
                    "image_url": "https:\/\/www.unitypoint.org\/images\/OpenGraph_Default.jpg",
                    "from_url": "https:\/\/www.unitypoint.org\/cedarrapids\/sewing-surgical-masks.aspx",
                    "image_width": 476,
                    "image_height": 250,
                    "image_bytes": 83786,
                    "service_icon": "https:\/\/www.unitypoint.org\/apple-touch-icon-144x144-precomposed.png",
                    "service_name": "unitypoint.org",
                    "id": 1,
                    "original_url": "https:\/\/www.unitypoint.org\/cedarrapids\/sewing-surgical-masks.aspx"
                }
            ],
            "blocks": [
                {
                    "type": "rich_text",
                    "block_id": "64F9j",
                    "elements": [
                        {
                            "type": "rich_text_section",
                            "elements": [
                                {
                                    "type": "text",
                                    "text": "Hi everyone. Our MakerHealth site at one of our hospitals created and fit tested a mask. They are now using it. Feel free to take and run and mod how you see fit. "
                                },
                                {
                                    "type": "link",
                                    "url": "https:\/\/www.unitypoint.org\/cedarrapids\/sewing-surgical-masks.aspx",
                                    "text": "https:\/\/www.unitypoint.org\/cedarrapids\/sewing-surgical-masks.aspx"
                                },
                                {
                                    "type": "text",
                                    "text": "\n"
                                },
                                {
                                    "type": "text",
                                    "text": "\n"
                                },
                                {
                                    "type": "text",
                                    "text": "It may be useful where you can harness volunteers to make locally as opposed to mass manufacturing. It uses a modular filter and skin safe adhesive for fit testing. "
                                }
                            ]
                        }
                    ]
                }
            ],
            "thread_ts": "1584795562.197700",
            "reply_count": 2,
            "reply_users_count": 2,
            "latest_reply": "1584817930.227200",
            "reply_users": [
                "UV02WET96",
                "UVA3EP8DR"
            ],
            "subscribed": false
        },
        "blocks": [
            {
                "type": "rich_text",
                "block_id": "uVy",
                "elements": [
                    {
                        "type": "rich_text_section",
                        "elements": [
                            {
                                "type": "text",
                                "text": "I did not but anyone can.  We are handling 5 hospitals in the US and Spain trying to guide them through.  Thanks for everyone’s experiments 🧪 "
                            }
                        ]
                    }
                ]
            }
        ],
        "client_msg_id": "E90BF17E-B19B-4A7C-ADCC-A2BD9CE38419",
        "reactions": [
            {
                "name": "+1",
                "users": [
                    "U010BMYLX36"
                ],
                "count": 1
            }
        ]
    },
    {
        "client_msg_id": "90CB5090-55D8-4E29-8A5F-BEBD29634D6D",
        "type": "message",
        "text": "We used simple hepa .3 micron filters from vacuum cleaner bags. ",
        "user": "UVA3EP8DR",
        "ts": "1584817975.228000",
        "team": "TUU48M0T1",
        "user_team": "TUU48M0T1",
        "source_team": "TUU48M0T1",
        "user_profile": {
            "avatar_hash": "g5cd3604fd0d",
            "image_72": "https:\/\/secure.gravatar.com\/avatar\/5cd3604fd0dc94e2e85fccd57452d028.jpg?s=72&d=https%3A%2F%2Fa.slack-edge.com%2Fdf10d%2Fimg%2Favatars%2Fava_0015-72.png",
            "first_name": "",
            "real_name": "Jose Gomez-Marquez",
            "display_name": "",
            "team": "TUU48M0T1",
            "name": "jfgm",
            "is_restricted": false,
            "is_ultra_restricted": false
        },
        "blocks": [
            {
                "type": "rich_text",
                "block_id": "=+U6",
                "elements": [
                    {
                        "type": "rich_text_section",
                        "elements": [
                            {
                                "type": "text",
                                "text": "We used simple hepa .3 micron filters from vacuum cleaner bags. "
                            }
                        ]
                    }
                ]
            }
        ],
        "thread_ts": "1584800208.206100",
        "parent_user_id": "U010CC740GG"
    },
    {
        "client_msg_id": "62CA31E9-7C05-4BFA-990F-1E6A83E0A9C6",
        "type": "message",
        "text": "Yup that’s we have hospitals test them in real time. ",
        "user": "UVA3EP8DR",
        "ts": "1584818006.228600",
        "team": "TUU48M0T1",
        "user_team": "TUU48M0T1",
        "source_team": "TUU48M0T1",
        "user_profile": {
            "avatar_hash": "g5cd3604fd0d",
            "image_72": "https:\/\/secure.gravatar.com\/avatar\/5cd3604fd0dc94e2e85fccd57452d028.jpg?s=72&d=https%3A%2F%2Fa.slack-edge.com%2Fdf10d%2Fimg%2Favatars%2Fava_0015-72.png",
            "first_name": "",
            "real_name": "Jose Gomez-Marquez",
            "display_name": "",
            "team": "TUU48M0T1",
            "name": "jfgm",
            "is_restricted": false,
            "is_ultra_restricted": false
        },
        "blocks": [
            {
                "type": "rich_text",
                "block_id": "q=R",
                "elements": [
                    {
                        "type": "rich_text_section",
                        "elements": [
                            {
                                "type": "text",
                                "text": "Yup that’s we have hospitals test them in real time. "
                            }
                        ]
                    }
                ]
            }
        ],
        "thread_ts": "1584800263.207700",
        "parent_user_id": "UV5CCJ9RC"
    },
    {
        "client_msg_id": "bc03aac0-9499-4e7f-a8d7-ec7e13d00f99",
        "type": "message",
        "text": "I added to the Resources tab some papers I've been reading about effectiveness of different materials\/types of masks",
        "user": "U010J948MUP",
        "ts": "1584821533.229500",
        "team": "TUU48M0T1",
        "user_team": "TUU48M0T1",
        "source_team": "TUU48M0T1",
        "user_profile": {
            "avatar_hash": "g037b12bfa71",
            "image_72": "https:\/\/secure.gravatar.com\/avatar\/037b12bfa7180124a22d95f8c3f61b66.jpg?s=72&d=https%3A%2F%2Fa.slack-edge.com%2Fdf10d%2Fimg%2Favatars%2Fava_0026-72.png",
            "first_name": "",
            "real_name": "Arin P",
            "display_name": "Arin P",
            "team": "TUU48M0T1",
            "name": "arin.pavlov",
            "is_restricted": false,
            "is_ultra_restricted": false
        },
        "blocks": [
            {
                "type": "rich_text",
                "block_id": "FRWg",
                "elements": [
                    {
                        "type": "rich_text_section",
                        "elements": [
                            {
                                "type": "text",
                                "text": "I added to the Resources tab some papers I've been reading about effectiveness of different materials\/types of masks"
                            }
                        ]
                    }
                ]
            }
        ],
        "thread_ts": "1584821533.229500",
        "reply_count": 1,
        "reply_users_count": 1,
        "latest_reply": "1584886731.241800",
        "reply_users": [
            "UUPQGNNTV"
        ],
        "replies": [
            {
                "user": "UUPQGNNTV",
                "ts": "1584886731.241800"
            }
        ],
        "subscribed": false,
        "reactions": [
            {
                "name": "+1",
                "users": [
                    "U010E79BQ2H",
                    "UV2P3AQEN"
                ],
                "count": 2
            }
        ]
    }
]