[
    {
        "client_msg_id": "061d885a-4c93-4a20-beae-f17d26372147",
        "type": "message",
        "text": "<@UV1A22N3W> your budget is now on our NEB LAMP proposal, but you put your budget on your separate proposal, right?",
        "user": "UV10KBUQG",
        "ts": "1586367186.096500",
        "team": "TUU48M0T1",
        "user_team": "TUU48M0T1",
        "source_team": "TUU48M0T1",
        "user_profile": {
            "avatar_hash": "2deebbf6be3d",
            "image_72": "https:\/\/avatars.slack-edge.com\/2020-03-06\/976932190641_2deebbf6be3d17141d91_72.jpg",
            "first_name": "Sarah",
            "real_name": "Sarah Blossom Ware",
            "display_name": "Sarah Blossom Ware - BioBlaze Community Bio Lab",
            "team": "TUU48M0T1",
            "name": "ware.sarah",
            "is_restricted": false,
            "is_ultra_restricted": false
        },
        "blocks": [
            {
                "type": "rich_text",
                "block_id": "h2z4P",
                "elements": [
                    {
                        "type": "rich_text_section",
                        "elements": [
                            {
                                "type": "user",
                                "user_id": "UV1A22N3W"
                            },
                            {
                                "type": "text",
                                "text": " your budget is now on our NEB LAMP proposal, but you put your budget on your separate proposal, right?"
                            }
                        ]
                    }
                ]
            }
        ]
    },
    {
        "client_msg_id": "b3d43691-4e92-4748-b9e7-d317d84d1761",
        "type": "message",
        "text": "we planned to ask via the project 181, yes  (and my budget is far from complete, until I get through to the distributor on the phone)",
        "user": "UV1A22N3W",
        "ts": "1586371622.097600",
        "team": "TUU48M0T1",
        "user_team": "TUU48M0T1",
        "source_team": "TUU48M0T1",
        "user_profile": {
            "avatar_hash": "71f827776ad6",
            "image_72": "https:\/\/avatars.slack-edge.com\/2020-03-09\/988125642964_71f827776ad610af05a2_72.jpg",
            "first_name": "",
            "real_name": "RachelA",
            "display_name": "RachelA",
            "team": "TUU48M0T1",
            "name": "raronoff",
            "is_restricted": false,
            "is_ultra_restricted": false
        },
        "blocks": [
            {
                "type": "rich_text",
                "block_id": "vCzn",
                "elements": [
                    {
                        "type": "rich_text_section",
                        "elements": [
                            {
                                "type": "text",
                                "text": "we planned to ask via the project 181, yes  (and my budget is far from complete, until I get through to the distributor on the phone)"
                            }
                        ]
                    }
                ]
            }
        ]
    },
    {
        "client_msg_id": "38969b27-4e03-45c4-86c6-01949844e462",
        "type": "message",
        "text": "Ok, we removed your budget from the NEB LAMP proposal because you already have it listed in Project 181.",
        "user": "UV10KBUQG",
        "ts": "1586371752.098600",
        "team": "TUU48M0T1",
        "user_team": "TUU48M0T1",
        "source_team": "TUU48M0T1",
        "user_profile": {
            "avatar_hash": "2deebbf6be3d",
            "image_72": "https:\/\/avatars.slack-edge.com\/2020-03-06\/976932190641_2deebbf6be3d17141d91_72.jpg",
            "first_name": "Sarah",
            "real_name": "Sarah Blossom Ware",
            "display_name": "Sarah Blossom Ware - BioBlaze Community Bio Lab",
            "team": "TUU48M0T1",
            "name": "ware.sarah",
            "is_restricted": false,
            "is_ultra_restricted": false
        },
        "blocks": [
            {
                "type": "rich_text",
                "block_id": "MxA",
                "elements": [
                    {
                        "type": "rich_text_section",
                        "elements": [
                            {
                                "type": "text",
                                "text": "Ok, we removed your budget from the NEB LAMP proposal because you already have it listed in Project 181."
                            }
                        ]
                    }
                ]
            }
        ],
        "reactions": [
            {
                "name": "+1",
                "users": [
                    "UV1A22N3W",
                    "UV3URUKK5"
                ],
                "count": 2
            }
        ]
    },
    {
        "client_msg_id": "673dbbb2-e5f2-49a6-9074-f9510917ae2b",
        "type": "message",
        "text": "We need to order primers to amplify from the N control plasmid, with the T7 promoter, too - to add to our list, <@UV3URUKK5> - then, <@UV10KBUQG> you won't have to pay out so much to ATCC etc!! :slightly_smiling_face:",
        "user": "UV1A22N3W",
        "ts": "1586372787.100300",
        "team": "TUU48M0T1",
        "user_team": "TUU48M0T1",
        "source_team": "TUU48M0T1",
        "user_profile": {
            "avatar_hash": "71f827776ad6",
            "image_72": "https:\/\/avatars.slack-edge.com\/2020-03-09\/988125642964_71f827776ad610af05a2_72.jpg",
            "first_name": "",
            "real_name": "RachelA",
            "display_name": "RachelA",
            "team": "TUU48M0T1",
            "name": "raronoff",
            "is_restricted": false,
            "is_ultra_restricted": false
        },
        "blocks": [
            {
                "type": "rich_text",
                "block_id": "eLHA6",
                "elements": [
                    {
                        "type": "rich_text_section",
                        "elements": [
                            {
                                "type": "text",
                                "text": "We need to order primers to amplify from the N control plasmid, with the T7 promoter, too - to add to our list, "
                            },
                            {
                                "type": "user",
                                "user_id": "UV3URUKK5"
                            },
                            {
                                "type": "text",
                                "text": " - then, "
                            },
                            {
                                "type": "user",
                                "user_id": "UV10KBUQG"
                            },
                            {
                                "type": "text",
                                "text": " you won't have to pay out so much to ATCC etc!! "
                            },
                            {
                                "type": "emoji",
                                "name": "slightly_smiling_face"
                            }
                        ]
                    }
                ]
            }
        ],
        "thread_ts": "1586372787.100300",
        "reply_count": 1,
        "reply_users_count": 1,
        "latest_reply": "1586378213.100500",
        "reply_users": [
            "UV10KBUQG"
        ],
        "replies": [
            {
                "user": "UV10KBUQG",
                "ts": "1586378213.100500"
            }
        ],
        "subscribed": false
    },
    {
        "client_msg_id": "b5c5a583-c564-480d-8a09-6cb906c765bf",
        "type": "message",
        "text": "Ok, but we also want the actual full virus that has been heat-inactivated.",
        "user": "UV10KBUQG",
        "ts": "1586378213.100500",
        "team": "TUU48M0T1",
        "user_team": "TUU48M0T1",
        "source_team": "TUU48M0T1",
        "user_profile": {
            "avatar_hash": "2deebbf6be3d",
            "image_72": "https:\/\/avatars.slack-edge.com\/2020-03-06\/976932190641_2deebbf6be3d17141d91_72.jpg",
            "first_name": "Sarah",
            "real_name": "Sarah Blossom Ware",
            "display_name": "Sarah Blossom Ware - BioBlaze Community Bio Lab",
            "team": "TUU48M0T1",
            "name": "ware.sarah",
            "is_restricted": false,
            "is_ultra_restricted": false
        },
        "blocks": [
            {
                "type": "rich_text",
                "block_id": "2r+x+",
                "elements": [
                    {
                        "type": "rich_text_section",
                        "elements": [
                            {
                                "type": "text",
                                "text": "Ok, but we also want the actual full virus that has been heat-inactivated."
                            }
                        ]
                    }
                ]
            }
        ],
        "thread_ts": "1586372787.100300",
        "parent_user_id": "UV1A22N3W"
    }
]