[
    {
        "client_msg_id": "e64b3752-5472-4739-8c9c-22bdd46845c5",
        "type": "message",
        "text": "The optigene kit\/enzyme costs the same if not more than the NEB one, plus they send it all freeze dried but then to do anything with it you need to resuspend it all and they dont share exactly what is in thier buffer..",
        "user": "UV7LUJG1Y",
        "ts": "1586847704.156600",
        "team": "TUU48M0T1",
        "user_team": "TUU48M0T1",
        "source_team": "TUU48M0T1",
        "user_profile": {
            "avatar_hash": "048307b17644",
            "image_72": "https:\/\/avatars.slack-edge.com\/2020-04-04\/1043242365313_048307b17644844abd87_72.jpg",
            "first_name": "",
            "real_name": "Guy Aidelberg",
            "display_name": "Guy Aidelberg",
            "team": "TUU48M0T1",
            "name": "guyaidelberg",
            "is_restricted": false,
            "is_ultra_restricted": false
        },
        "blocks": [
            {
                "type": "rich_text",
                "block_id": "u+1=X",
                "elements": [
                    {
                        "type": "rich_text_section",
                        "elements": [
                            {
                                "type": "text",
                                "text": "The optigene kit\/enzyme costs the same if not more than the NEB one, plus they send it all freeze dried but then to do anything with it you need to resuspend it all and they dont share exactly what is in thier buffer.."
                            }
                        ]
                    }
                ]
            }
        ],
        "thread_ts": "1586788852.149200",
        "parent_user_id": "U010DG4358Q"
    },
    {
        "client_msg_id": "53661cc2-e501-427c-a148-f2f3bd977348",
        "type": "message",
        "text": "But I'm happy if you try it too!",
        "user": "UV7LUJG1Y",
        "ts": "1586847729.157000",
        "team": "TUU48M0T1",
        "user_team": "TUU48M0T1",
        "source_team": "TUU48M0T1",
        "user_profile": {
            "avatar_hash": "048307b17644",
            "image_72": "https:\/\/avatars.slack-edge.com\/2020-04-04\/1043242365313_048307b17644844abd87_72.jpg",
            "first_name": "",
            "real_name": "Guy Aidelberg",
            "display_name": "Guy Aidelberg",
            "team": "TUU48M0T1",
            "name": "guyaidelberg",
            "is_restricted": false,
            "is_ultra_restricted": false
        },
        "blocks": [
            {
                "type": "rich_text",
                "block_id": "zOz",
                "elements": [
                    {
                        "type": "rich_text_section",
                        "elements": [
                            {
                                "type": "text",
                                "text": "But I'm happy if you try it too!"
                            }
                        ]
                    }
                ]
            }
        ],
        "thread_ts": "1586788852.149200",
        "parent_user_id": "U010DG4358Q",
        "reactions": [
            {
                "name": "slightly_smiling_face",
                "users": [
                    "U010DG4358Q"
                ],
                "count": 1
            }
        ]
    },
    {
        "client_msg_id": "1C9DA0E0-2F66-49A6-BB5F-9970135BBEFD",
        "type": "message",
        "text": "they include EvaGreen if requested for qPCR tests, too.  ",
        "user": "UV1A22N3W",
        "ts": "1586847886.159200",
        "team": "TUU48M0T1",
        "user_team": "TUU48M0T1",
        "source_team": "TUU48M0T1",
        "user_profile": {
            "avatar_hash": "71f827776ad6",
            "image_72": "https:\/\/avatars.slack-edge.com\/2020-03-09\/988125642964_71f827776ad610af05a2_72.jpg",
            "first_name": "",
            "real_name": "RachelA",
            "display_name": "RachelA",
            "team": "TUU48M0T1",
            "name": "raronoff",
            "is_restricted": false,
            "is_ultra_restricted": false
        },
        "blocks": [
            {
                "type": "rich_text",
                "block_id": "MYN",
                "elements": [
                    {
                        "type": "rich_text_section",
                        "elements": [
                            {
                                "type": "text",
                                "text": "they include EvaGreen if requested for qPCR tests, too.  "
                            }
                        ]
                    }
                ]
            }
        ],
        "thread_ts": "1586788852.149200",
        "parent_user_id": "U010DG4358Q"
    },
    {
        "client_msg_id": "4f91dfda-f94d-433a-b569-440c3b619b3d",
        "type": "message",
        "text": "I add trehalose to BST 2.0+primers+dNTPs and it is stable freeze dried for at least 6 months",
        "user": "UV7LUJG1Y",
        "ts": "1586849851.159500",
        "team": "TUU48M0T1",
        "user_team": "TUU48M0T1",
        "source_team": "TUU48M0T1",
        "user_profile": {
            "avatar_hash": "048307b17644",
            "image_72": "https:\/\/avatars.slack-edge.com\/2020-04-04\/1043242365313_048307b17644844abd87_72.jpg",
            "first_name": "",
            "real_name": "Guy Aidelberg",
            "display_name": "Guy Aidelberg",
            "team": "TUU48M0T1",
            "name": "guyaidelberg",
            "is_restricted": false,
            "is_ultra_restricted": false
        },
        "blocks": [
            {
                "type": "rich_text",
                "block_id": "OvjW",
                "elements": [
                    {
                        "type": "rich_text_section",
                        "elements": [
                            {
                                "type": "text",
                                "text": "I add trehalose to BST 2.0+primers+dNTPs and it is stable freeze dried for at least 6 months"
                            }
                        ]
                    }
                ]
            }
        ],
        "thread_ts": "1586628858.139700",
        "parent_user_id": "U011CQ8C9GU",
        "reactions": [
            {
                "name": "+1",
                "users": [
                    "UV1A22N3W",
                    "U010DG4358Q"
                ],
                "count": 2
            }
        ]
    },
    {
        "client_msg_id": "827b0f45-33f7-4bc8-abc4-e26c2fe99af0",
        "type": "message",
        "text": "colluges have had similar sucess with the optigene enzyme..",
        "user": "UV7LUJG1Y",
        "ts": "1586849899.159700",
        "team": "TUU48M0T1",
        "user_team": "TUU48M0T1",
        "source_team": "TUU48M0T1",
        "user_profile": {
            "avatar_hash": "048307b17644",
            "image_72": "https:\/\/avatars.slack-edge.com\/2020-04-04\/1043242365313_048307b17644844abd87_72.jpg",
            "first_name": "",
            "real_name": "Guy Aidelberg",
            "display_name": "Guy Aidelberg",
            "team": "TUU48M0T1",
            "name": "guyaidelberg",
            "is_restricted": false,
            "is_ultra_restricted": false
        },
        "blocks": [
            {
                "type": "rich_text",
                "block_id": "KyS",
                "elements": [
                    {
                        "type": "rich_text_section",
                        "elements": [
                            {
                                "type": "text",
                                "text": "colluges have had similar sucess with the optigene enzyme.."
                            }
                        ]
                    }
                ]
            }
        ],
        "thread_ts": "1586628858.139700",
        "parent_user_id": "U011CQ8C9GU"
    },
    {
        "client_msg_id": "fbafcc8e-93ad-4070-b181-92af9ee0542c",
        "type": "message",
        "text": "good to know you use the trehalose!  we need to talk before I talk to our supplier, I think...",
        "user": "UV1A22N3W",
        "ts": "1586850016.160000",
        "team": "TUU48M0T1",
        "user_team": "TUU48M0T1",
        "source_team": "TUU48M0T1",
        "user_profile": {
            "avatar_hash": "71f827776ad6",
            "image_72": "https:\/\/avatars.slack-edge.com\/2020-03-09\/988125642964_71f827776ad610af05a2_72.jpg",
            "first_name": "",
            "real_name": "RachelA",
            "display_name": "RachelA",
            "team": "TUU48M0T1",
            "name": "raronoff",
            "is_restricted": false,
            "is_ultra_restricted": false
        },
        "blocks": [
            {
                "type": "rich_text",
                "block_id": "rFQn",
                "elements": [
                    {
                        "type": "rich_text_section",
                        "elements": [
                            {
                                "type": "text",
                                "text": "good to know you use the trehalose!  we need to talk before I talk to our supplier, I think..."
                            }
                        ]
                    }
                ]
            }
        ],
        "thread_ts": "1586628858.139700",
        "parent_user_id": "U011CQ8C9GU"
    },
    {
        "client_msg_id": "6cee6e9e-429a-4819-9190-608a5a3ef4dd",
        "type": "message",
        "text": "the swiss supplier for neb things only seems to have one colorimetric kit right now (why are they not sold out?), but maybe more things will be available in a week, she said...",
        "user": "UV1A22N3W",
        "ts": "1586860179.161000",
        "team": "TUU48M0T1",
        "user_team": "TUU48M0T1",
        "source_team": "TUU48M0T1",
        "user_profile": {
            "avatar_hash": "71f827776ad6",
            "image_72": "https:\/\/avatars.slack-edge.com\/2020-03-09\/988125642964_71f827776ad610af05a2_72.jpg",
            "first_name": "",
            "real_name": "RachelA",
            "display_name": "RachelA",
            "team": "TUU48M0T1",
            "name": "raronoff",
            "is_restricted": false,
            "is_ultra_restricted": false
        },
        "blocks": [
            {
                "type": "rich_text",
                "block_id": "BLw",
                "elements": [
                    {
                        "type": "rich_text_section",
                        "elements": [
                            {
                                "type": "text",
                                "text": "the swiss supplier for neb things only seems to have one colorimetric kit right now (why are they not sold out?), but maybe more things will be available in a week, she said..."
                            }
                        ]
                    }
                ]
            }
        ]
    },
    {
        "client_msg_id": "f408a6da-9de6-4009-abe3-ce687151c067",
        "type": "message",
        "text": "how about for the spanish supplier, <@UV3URUKK5> ?  Please sign up for 1800euro direct to you, as I put 1800 for Hackuarium.  Looking forward to really doing something! :slightly_smiling_face:",
        "user": "UV1A22N3W",
        "ts": "1586860260.162000",
        "team": "TUU48M0T1",
        "user_team": "TUU48M0T1",
        "source_team": "TUU48M0T1",
        "user_profile": {
            "avatar_hash": "71f827776ad6",
            "image_72": "https:\/\/avatars.slack-edge.com\/2020-03-09\/988125642964_71f827776ad610af05a2_72.jpg",
            "first_name": "",
            "real_name": "RachelA",
            "display_name": "RachelA",
            "team": "TUU48M0T1",
            "name": "raronoff",
            "is_restricted": false,
            "is_ultra_restricted": false
        },
        "blocks": [
            {
                "type": "rich_text",
                "block_id": "3RQ",
                "elements": [
                    {
                        "type": "rich_text_section",
                        "elements": [
                            {
                                "type": "text",
                                "text": "how about for the spanish supplier, "
                            },
                            {
                                "type": "user",
                                "user_id": "UV3URUKK5"
                            },
                            {
                                "type": "text",
                                "text": " ?  Please sign up for 1800euro direct to you, as I put 1800 for Hackuarium.  Looking forward to really doing something! "
                            },
                            {
                                "type": "emoji",
                                "name": "slightly_smiling_face"
                            }
                        ]
                    }
                ]
            }
        ]
    },
    {
        "client_msg_id": "9eb3c703-3006-4519-85bc-25830b74fb96",
        "type": "message",
        "text": "Yeah same! Will have it solved this afternoon and come back to you guys",
        "user": "UV3URUKK5",
        "ts": "1586869180.162400",
        "team": "TUU48M0T1",
        "user_team": "TUU48M0T1",
        "source_team": "TUU48M0T1",
        "user_profile": {
            "avatar_hash": "64c99c2ed974",
            "image_72": "https:\/\/avatars.slack-edge.com\/2020-03-15\/1000999702004_64c99c2ed97497e08ca9_72.jpg",
            "first_name": "",
            "real_name": "Francisco Javier Quero",
            "display_name": "Francisco Javier Quero",
            "team": "TUU48M0T1",
            "name": "franxi2953",
            "is_restricted": false,
            "is_ultra_restricted": false
        },
        "blocks": [
            {
                "type": "rich_text",
                "block_id": "k4i",
                "elements": [
                    {
                        "type": "rich_text_section",
                        "elements": [
                            {
                                "type": "text",
                                "text": "Yeah same! Will have it solved this afternoon and come back to you guys"
                            }
                        ]
                    }
                ]
            }
        ],
        "reactions": [
            {
                "name": "+1",
                "users": [
                    "UV1A22N3W"
                ],
                "count": 1
            }
        ]
    },
    {
        "client_msg_id": "df591d3f-a8b7-418f-9112-59f9a5681d33",
        "type": "message",
        "text": "They are nice folks, I spoke with them about a year ago about Aanika's need for LAMP reagents. They try to sell you their specific machine, and claim their test tubes prevent cross contamination better than others :-)",
        "user": "UUPQGNNTV",
        "ts": "1586872618.162700",
        "team": "TUU48M0T1",
        "user_team": "TUU48M0T1",
        "source_team": "TUU48M0T1",
        "user_profile": {
            "avatar_hash": "c28127caf7eb",
            "image_72": "https:\/\/avatars.slack-edge.com\/2020-03-07\/989562470694_c28127caf7ebfe67df97_72.jpg",
            "first_name": "",
            "real_name": "Ellen Jorgensen",
            "display_name": "",
            "team": "TUU48M0T1",
            "name": "ejorgensen",
            "is_restricted": false,
            "is_ultra_restricted": false
        },
        "blocks": [
            {
                "type": "rich_text",
                "block_id": "Ar8i3",
                "elements": [
                    {
                        "type": "rich_text_section",
                        "elements": [
                            {
                                "type": "text",
                                "text": "They are nice folks, I spoke with them about a year ago about Aanika's need for LAMP reagents. They try to sell you their specific machine, and claim their test tubes prevent cross contamination better than others :-)"
                            }
                        ]
                    }
                ]
            }
        ],
        "thread_ts": "1586788852.149200",
        "parent_user_id": "U010DG4358Q"
    },
    {
        "client_msg_id": "7869cc98-cc9d-40c8-b5b7-923f4af4ba52",
        "type": "message",
        "text": "trouble for our estimates vs the distributor's quotes - i.e. even just for nucleotides he says 372chf, when we had thought they would just cost 120usd... :disappointed:  added info in the budget sheet.  guess we will have to follow market forces, until we get open tools really available?",
        "user": "UV1A22N3W",
        "ts": "1586879315.164500",
        "team": "TUU48M0T1",
        "user_team": "TUU48M0T1",
        "source_team": "TUU48M0T1",
        "user_profile": {
            "avatar_hash": "71f827776ad6",
            "image_72": "https:\/\/avatars.slack-edge.com\/2020-03-09\/988125642964_71f827776ad610af05a2_72.jpg",
            "first_name": "",
            "real_name": "RachelA",
            "display_name": "RachelA",
            "team": "TUU48M0T1",
            "name": "raronoff",
            "is_restricted": false,
            "is_ultra_restricted": false
        },
        "blocks": [
            {
                "type": "rich_text",
                "block_id": "7GzK7",
                "elements": [
                    {
                        "type": "rich_text_section",
                        "elements": [
                            {
                                "type": "text",
                                "text": "trouble for our estimates vs the distributor's quotes - i.e. even just for nucleotides he says 372chf, when we had thought they would just cost 120usd... "
                            },
                            {
                                "type": "emoji",
                                "name": "disappointed"
                            },
                            {
                                "type": "text",
                                "text": "  added info in the budget sheet.  guess we will have to follow market forces, until we get open tools really available?"
                            }
                        ]
                    }
                ]
            }
        ]
    },
    {
        "client_msg_id": "995a9796-ea75-4cc9-af17-6969152c3e35",
        "type": "message",
        "text": "how can collaborators everywhere manage??",
        "user": "UV1A22N3W",
        "ts": "1586879337.164800",
        "team": "TUU48M0T1",
        "user_team": "TUU48M0T1",
        "source_team": "TUU48M0T1",
        "user_profile": {
            "avatar_hash": "71f827776ad6",
            "image_72": "https:\/\/avatars.slack-edge.com\/2020-03-09\/988125642964_71f827776ad610af05a2_72.jpg",
            "first_name": "",
            "real_name": "RachelA",
            "display_name": "RachelA",
            "team": "TUU48M0T1",
            "name": "raronoff",
            "is_restricted": false,
            "is_ultra_restricted": false
        },
        "blocks": [
            {
                "type": "rich_text",
                "block_id": "qMFi",
                "elements": [
                    {
                        "type": "rich_text_section",
                        "elements": [
                            {
                                "type": "text",
                                "text": "how can collaborators everywhere manage??"
                            }
                        ]
                    }
                ]
            }
        ],
        "thread_ts": "1586879337.164800",
        "reply_count": 1,
        "reply_users_count": 1,
        "latest_reply": "1586886529.171100",
        "reply_users": [
            "UV1A22N3W"
        ],
        "replies": [
            {
                "user": "UV1A22N3W",
                "ts": "1586886529.171100"
            }
        ],
        "subscribed": false
    },
    {
        "client_msg_id": "d6fbc2be-d024-4c4b-b474-058b22b1b64d",
        "type": "message",
        "text": "waiting to answers! Will post here as fast they reply me",
        "user": "UV3URUKK5",
        "ts": "1586883331.165200",
        "team": "TUU48M0T1",
        "user_team": "TUU48M0T1",
        "source_team": "TUU48M0T1",
        "user_profile": {
            "avatar_hash": "64c99c2ed974",
            "image_72": "https:\/\/avatars.slack-edge.com\/2020-03-15\/1000999702004_64c99c2ed97497e08ca9_72.jpg",
            "first_name": "",
            "real_name": "Francisco Javier Quero",
            "display_name": "Francisco Javier Quero",
            "team": "TUU48M0T1",
            "name": "franxi2953",
            "is_restricted": false,
            "is_ultra_restricted": false
        },
        "blocks": [
            {
                "type": "rich_text",
                "block_id": "iahw",
                "elements": [
                    {
                        "type": "rich_text_section",
                        "elements": [
                            {
                                "type": "text",
                                "text": "waiting to answers! Will post here as fast they reply me"
                            }
                        ]
                    }
                ]
            }
        ]
    },
    {
        "client_msg_id": "8D92FCDC-3AE7-4C81-B0F8-4677C9EED69D",
        "type": "message",
        "text": "Yeah mentioned this earlier but perhaps it makes sense to route thru Oakland? I haven’t looked into shipping\/cold chain but would happily do the receiving,packing,reshipping ",
        "user": "U010LNECEHE",
        "ts": "1586883867.167200",
        "team": "TUU48M0T1",
        "user_team": "TUU48M0T1",
        "source_team": "TUU48M0T1",
        "user_profile": {
            "avatar_hash": "58bda3258fcd",
            "image_72": "https:\/\/avatars.slack-edge.com\/2020-03-30\/1036110784064_58bda3258fcd726472e4_72.png",
            "first_name": "Ali",
            "real_name": "Ali Bektaş",
            "display_name": "Ali",
            "team": "TUU48M0T1",
            "name": "cinalibektas",
            "is_restricted": false,
            "is_ultra_restricted": false
        },
        "blocks": [
            {
                "type": "rich_text",
                "block_id": "d3v",
                "elements": [
                    {
                        "type": "rich_text_section",
                        "elements": [
                            {
                                "type": "text",
                                "text": "Yeah mentioned this earlier but perhaps it makes sense to route thru Oakland? I haven’t looked into shipping\/cold chain but would happily do the receiving,packing,reshipping "
                            }
                        ]
                    }
                ]
            }
        ]
    },
    {
        "client_msg_id": "b917802b-5fa9-4170-95c6-65f7d4b90226",
        "type": "message",
        "text": "when you think about shipping from New England in the states to them, and then to us, maybe it is not so much different really.  shipping to CA would not make sense, I guess!  (but nice offer anyway!)",
        "user": "UV1A22N3W",
        "ts": "1586885154.168400",
        "team": "TUU48M0T1",
        "user_team": "TUU48M0T1",
        "source_team": "TUU48M0T1",
        "user_profile": {
            "avatar_hash": "71f827776ad6",
            "image_72": "https:\/\/avatars.slack-edge.com\/2020-03-09\/988125642964_71f827776ad610af05a2_72.jpg",
            "first_name": "",
            "real_name": "RachelA",
            "display_name": "RachelA",
            "team": "TUU48M0T1",
            "name": "raronoff",
            "is_restricted": false,
            "is_ultra_restricted": false
        },
        "blocks": [
            {
                "type": "rich_text",
                "block_id": "h7+",
                "elements": [
                    {
                        "type": "rich_text_section",
                        "elements": [
                            {
                                "type": "text",
                                "text": "when you think about shipping from New England in the states to them, and then to us, maybe it is not so much different really.  shipping to CA would not make sense, I guess!  (but nice offer anyway!)"
                            }
                        ]
                    }
                ]
            }
        ],
        "thread_ts": "1586885154.168400",
        "reply_count": 1,
        "reply_users_count": 1,
        "latest_reply": "1586892913.173400",
        "reply_users": [
            "U010LNECEHE"
        ],
        "replies": [
            {
                "user": "U010LNECEHE",
                "ts": "1586892913.173400"
            }
        ],
        "subscribed": false
    },
    {
        "client_msg_id": "3b9d01fd-0026-4db9-af66-75adaa30f80d",
        "type": "message",
        "text": "one more thing we need to figure out if we want to get 'open source' is the special aptamer tech for the 'warm start' NEB enzymes... (was looking at the Reverse Transcriptases and remembered this!!). <@UV3URUKK5> any ideas?",
        "user": "UV1A22N3W",
        "ts": "1586885166.168600",
        "team": "TUU48M0T1",
        "user_team": "TUU48M0T1",
        "source_team": "TUU48M0T1",
        "user_profile": {
            "avatar_hash": "71f827776ad6",
            "image_72": "https:\/\/avatars.slack-edge.com\/2020-03-09\/988125642964_71f827776ad610af05a2_72.jpg",
            "first_name": "",
            "real_name": "RachelA",
            "display_name": "RachelA",
            "team": "TUU48M0T1",
            "name": "raronoff",
            "is_restricted": false,
            "is_ultra_restricted": false
        },
        "blocks": [
            {
                "type": "rich_text",
                "block_id": "v4a",
                "elements": [
                    {
                        "type": "rich_text_section",
                        "elements": [
                            {
                                "type": "text",
                                "text": "one more thing we need to figure out if we want to get 'open source' is the special aptamer tech for the 'warm start' NEB enzymes... (was looking at the Reverse Transcriptases and remembered this!!). "
                            },
                            {
                                "type": "user",
                                "user_id": "UV3URUKK5"
                            },
                            {
                                "type": "text",
                                "text": " any ideas?"
                            }
                        ]
                    }
                ]
            }
        ]
    },
    {
        "client_msg_id": "992b2f68-38d9-4ac5-89be-d3ecfe49f61f",
        "type": "message",
        "text": "(sorry I just wrote that in the neb channel too...)",
        "user": "UV1A22N3W",
        "ts": "1586885183.169100",
        "team": "TUU48M0T1",
        "user_team": "TUU48M0T1",
        "source_team": "TUU48M0T1",
        "user_profile": {
            "avatar_hash": "71f827776ad6",
            "image_72": "https:\/\/avatars.slack-edge.com\/2020-03-09\/988125642964_71f827776ad610af05a2_72.jpg",
            "first_name": "",
            "real_name": "RachelA",
            "display_name": "RachelA",
            "team": "TUU48M0T1",
            "name": "raronoff",
            "is_restricted": false,
            "is_ultra_restricted": false
        },
        "blocks": [
            {
                "type": "rich_text",
                "block_id": "cdGr",
                "elements": [
                    {
                        "type": "rich_text_section",
                        "elements": [
                            {
                                "type": "text",
                                "text": "(sorry I just wrote that in the neb channel too...)"
                            }
                        ]
                    }
                ]
            }
        ]
    },
    {
        "client_msg_id": "d0faef79-995d-4c70-81a1-e7b067a1d505",
        "type": "message",
        "text": "shall we phase one channel out? :slightly_smiling_face:",
        "user": "UV1A22N3W",
        "ts": "1586885194.169400",
        "team": "TUU48M0T1",
        "user_team": "TUU48M0T1",
        "source_team": "TUU48M0T1",
        "user_profile": {
            "avatar_hash": "71f827776ad6",
            "image_72": "https:\/\/avatars.slack-edge.com\/2020-03-09\/988125642964_71f827776ad610af05a2_72.jpg",
            "first_name": "",
            "real_name": "RachelA",
            "display_name": "RachelA",
            "team": "TUU48M0T1",
            "name": "raronoff",
            "is_restricted": false,
            "is_ultra_restricted": false
        },
        "blocks": [
            {
                "type": "rich_text",
                "block_id": "jI=+",
                "elements": [
                    {
                        "type": "rich_text_section",
                        "elements": [
                            {
                                "type": "text",
                                "text": "shall we phase one channel out? "
                            },
                            {
                                "type": "emoji",
                                "name": "slightly_smiling_face"
                            }
                        ]
                    }
                ]
            }
        ]
    },
    {
        "client_msg_id": "91970081-31b9-4032-98ad-3ea923e003d6",
        "type": "message",
        "text": "Ooo, that would actually be an excellent application for aptamers",
        "user": "UUNGFHSV8",
        "ts": "1586886049.169800",
        "team": "TUU48M0T1",
        "user_team": "TUU48M0T1",
        "source_team": "TUU48M0T1",
        "user_profile": {
            "avatar_hash": "1c55ee32397a",
            "image_72": "https:\/\/avatars.slack-edge.com\/2020-03-07\/987349161984_1c55ee32397a85a87ec4_72.png",
            "first_name": "Isaac",
            "real_name": "Isaac Larkin",
            "display_name": "Isaac Larkin",
            "team": "TUU48M0T1",
            "name": "eyesmo",
            "is_restricted": false,
            "is_ultra_restricted": false
        },
        "blocks": [
            {
                "type": "rich_text",
                "block_id": "O==id",
                "elements": [
                    {
                        "type": "rich_text_section",
                        "elements": [
                            {
                                "type": "text",
                                "text": "Ooo, that would actually be an excellent application for aptamers"
                            }
                        ]
                    }
                ]
            }
        ]
    },
    {
        "client_msg_id": "ae12b902-b550-4312-a04f-e7f429d894d5",
        "type": "message",
        "text": "that?s why their warm-start is patented (I guess)",
        "user": "UV1A22N3W",
        "ts": "1586886244.170400",
        "team": "TUU48M0T1",
        "user_team": "TUU48M0T1",
        "source_team": "TUU48M0T1",
        "user_profile": {
            "avatar_hash": "71f827776ad6",
            "image_72": "https:\/\/avatars.slack-edge.com\/2020-03-09\/988125642964_71f827776ad610af05a2_72.jpg",
            "first_name": "",
            "real_name": "RachelA",
            "display_name": "RachelA",
            "team": "TUU48M0T1",
            "name": "raronoff",
            "is_restricted": false,
            "is_ultra_restricted": false
        },
        "blocks": [
            {
                "type": "rich_text",
                "block_id": "A4u",
                "elements": [
                    {
                        "type": "rich_text_section",
                        "elements": [
                            {
                                "type": "text",
                                "text": "that?s why their warm-start is patented (I guess)"
                            }
                        ]
                    }
                ]
            }
        ]
    },
    {
        "client_msg_id": "77aa1239-3c35-4124-93ad-f842482f181b",
        "type": "message",
        "text": "I put some more details in the budget doc ...",
        "user": "UV1A22N3W",
        "ts": "1586886299.171000",
        "team": "TUU48M0T1",
        "user_team": "TUU48M0T1",
        "source_team": "TUU48M0T1",
        "user_profile": {
            "avatar_hash": "71f827776ad6",
            "image_72": "https:\/\/avatars.slack-edge.com\/2020-03-09\/988125642964_71f827776ad610af05a2_72.jpg",
            "first_name": "",
            "real_name": "RachelA",
            "display_name": "RachelA",
            "team": "TUU48M0T1",
            "name": "raronoff",
            "is_restricted": false,
            "is_ultra_restricted": false
        },
        "blocks": [
            {
                "type": "rich_text",
                "block_id": "B0UI0",
                "elements": [
                    {
                        "type": "rich_text_section",
                        "elements": [
                            {
                                "type": "text",
                                "text": "I put some more details in the budget doc ..."
                            }
                        ]
                    }
                ]
            }
        ]
    },
    {
        "client_msg_id": "b187b0a1-5523-4f8e-8d01-6450567e4476",
        "type": "message",
        "text": "there is also the problem of oligos and nucleotides!!",
        "user": "UV1A22N3W",
        "ts": "1586886529.171100",
        "team": "TUU48M0T1",
        "user_team": "TUU48M0T1",
        "source_team": "TUU48M0T1",
        "user_profile": {
            "avatar_hash": "71f827776ad6",
            "image_72": "https:\/\/avatars.slack-edge.com\/2020-03-09\/988125642964_71f827776ad610af05a2_72.jpg",
            "first_name": "",
            "real_name": "RachelA",
            "display_name": "RachelA",
            "team": "TUU48M0T1",
            "name": "raronoff",
            "is_restricted": false,
            "is_ultra_restricted": false
        },
        "blocks": [
            {
                "type": "rich_text",
                "block_id": "EbbQC",
                "elements": [
                    {
                        "type": "rich_text_section",
                        "elements": [
                            {
                                "type": "text",
                                "text": "there is also the problem of oligos and nucleotides!!"
                            }
                        ]
                    }
                ]
            }
        ],
        "thread_ts": "1586879337.164800",
        "parent_user_id": "UV1A22N3W"
    },
    {
        "client_msg_id": "68169887-0307-4e6c-8fc8-a3224affb07a",
        "type": "message",
        "text": "If anyone can get their hands on a phage display library it might also be feasible to make our own protein warm-start inhibitor",
        "user": "UUNGFHSV8",
        "ts": "1586886650.172200",
        "team": "TUU48M0T1",
        "user_team": "TUU48M0T1",
        "source_team": "TUU48M0T1",
        "user_profile": {
            "avatar_hash": "1c55ee32397a",
            "image_72": "https:\/\/avatars.slack-edge.com\/2020-03-07\/987349161984_1c55ee32397a85a87ec4_72.png",
            "first_name": "Isaac",
            "real_name": "Isaac Larkin",
            "display_name": "Isaac Larkin",
            "team": "TUU48M0T1",
            "name": "eyesmo",
            "is_restricted": false,
            "is_ultra_restricted": false
        },
        "blocks": [
            {
                "type": "rich_text",
                "block_id": "cL6J",
                "elements": [
                    {
                        "type": "rich_text_section",
                        "elements": [
                            {
                                "type": "text",
                                "text": "If anyone can get their hands on a phage display library it might also be feasible to make our own protein warm-start inhibitor"
                            }
                        ]
                    }
                ]
            }
        ],
        "reactions": [
            {
                "name": "crossed_fingers",
                "users": [
                    "UV1A22N3W"
                ],
                "count": 1
            }
        ]
    },
    {
        "client_msg_id": "F90CC192-DFFC-430B-B32E-11924A0C19FD",
        "type": "message",
        "text": "I receive NEB reagents next day delivery but yeah maybe someone on the east coast makes more sense ",
        "user": "U010LNECEHE",
        "ts": "1586892913.173400",
        "team": "TUU48M0T1",
        "user_team": "TUU48M0T1",
        "source_team": "TUU48M0T1",
        "user_profile": {
            "avatar_hash": "58bda3258fcd",
            "image_72": "https:\/\/avatars.slack-edge.com\/2020-03-30\/1036110784064_58bda3258fcd726472e4_72.png",
            "first_name": "Ali",
            "real_name": "Ali Bektaş",
            "display_name": "Ali",
            "team": "TUU48M0T1",
            "name": "cinalibektas",
            "is_restricted": false,
            "is_ultra_restricted": false
        },
        "blocks": [
            {
                "type": "rich_text",
                "block_id": "IYrwq",
                "elements": [
                    {
                        "type": "rich_text_section",
                        "elements": [
                            {
                                "type": "text",
                                "text": "I receive NEB reagents next day delivery but yeah maybe someone on the east coast makes more sense "
                            }
                        ]
                    }
                ]
            }
        ],
        "thread_ts": "1586885154.168400",
        "parent_user_id": "UV1A22N3W",
        "reactions": [
            {
                "name": "+1",
                "users": [
                    "UV1A22N3W"
                ],
                "count": 1
            }
        ]
    }
]