[
    {
        "client_msg_id": "3b61ce40-66d7-499f-a261-a46ce9087628",
        "type": "message",
        "text": "Sorry again about my bad timing for the call yesterday. Here is the doc, where we are gathering potential sequences to recapitulate the 'quenched FAM' strategy of Guy's GMO detective (isothermal amp with clear +\/- outputs detected with fluorescence). Free for all to edit &amp; organise (maybe start a new sheet, if you like too?): <https:\/\/docs.google.com\/spreadsheets\/d\/1Dp0_LgHDNM6a2QW5RT3o58iuxLb3C5knTXzhTFye4as\/edit?usp=sharing>  Ideally we might try to make some primer orders on Monday - guess we would need to try them out first as qPCR to confirm, then go further... (I will ask a contact here if there is any hope for this, but hope others might also check on it.). Remember, even for environmental testing, we need to also start risk assessment about all this. (I will participate in the biosafety call on Sunday, so should have more to say about this.",
        "user": "UV1A22N3W",
        "ts": "1584781438.005600",
        "team": "TUU48M0T1",
        "user_team": "TUU48M0T1",
        "source_team": "TUU48M0T1",
        "user_profile": {
            "avatar_hash": "71f827776ad6",
            "image_72": "https:\/\/avatars.slack-edge.com\/2020-03-09\/988125642964_71f827776ad610af05a2_72.jpg",
            "first_name": "",
            "real_name": "RachelA",
            "display_name": "RachelA",
            "team": "TUU48M0T1",
            "name": "raronoff",
            "is_restricted": false,
            "is_ultra_restricted": false
        },
        "blocks": [
            {
                "type": "rich_text",
                "block_id": "=PC7",
                "elements": [
                    {
                        "type": "rich_text_section",
                        "elements": [
                            {
                                "type": "text",
                                "text": "Sorry again about my bad timing for the call yesterday. Here is the doc, where we are gathering potential sequences to recapitulate the 'quenched FAM' strategy of Guy's GMO detective (isothermal amp with clear +\/- outputs detected with fluorescence). Free for all to edit & organise (maybe start a new sheet, if you like too?): "
                            },
                            {
                                "type": "link",
                                "url": "https:\/\/docs.google.com\/spreadsheets\/d\/1Dp0_LgHDNM6a2QW5RT3o58iuxLb3C5knTXzhTFye4as\/edit?usp=sharing"
                            },
                            {
                                "type": "text",
                                "text": "  Ideally we might try to make some primer orders on Monday - guess we would need to try them out first as qPCR to confirm, then go further... (I will ask a contact here if there is any hope for this, but hope others might also check on it.). Remember, even for environmental testing, we need to also start risk assessment about all this. (I will participate in the biosafety call on Sunday, so should have more to say about this."
                            }
                        ]
                    }
                ]
            }
        ],
        "reactions": [
            {
                "name": "heart_eyes",
                "users": [
                    "UV3URUKK5"
                ],
                "count": 1
            },
            {
                "name": "the_horns",
                "users": [
                    "UUNGFHSV8"
                ],
                "count": 1
            }
        ]
    }
]