[
    {
        "type": "message",
        "subtype": "bot_add",
        "text": "added an integration to this channel: <https:\/\/open-covid19.slack.com\/services\/B011ND7QSG7|#CoronaDetectiveApp>",
        "user": "UV1A22N3W",
        "bot_id": "B011ND7QSG7",
        "bot_link": "<https:\/\/open-covid19.slack.com\/services\/B011ND7QSG7|#CoronaDetectiveApp>",
        "ts": "1587196101.335200"
    },
    {
        "client_msg_id": "e8c7e971-eae7-40f3-97f1-4faa3c1c5066",
        "type": "message",
        "text": "the above is the webhook that should be triggered for each Need and Member.  but- we need to test it. not sure what it sends...  another person wanted to join us already  Diego Jesus Martinez Garcia - and I just sent him this message from within the project: Hello!\nThank you for your interest in this project.\nWhere are you, and what can you help with, for this project?  Have you joined the JOGL Slack? We are organising especially in the <#C010CVB35DE|proj-nucleic-acid-amplification>.\nLooking forward to talking soon.\n:slightly_smiling_face:",
        "user": "UV1A22N3W",
        "ts": "1587196768.336700",
        "team": "TUU48M0T1",
        "user_team": "TUU48M0T1",
        "source_team": "TUU48M0T1",
        "user_profile": {
            "avatar_hash": "71f827776ad6",
            "image_72": "https:\/\/avatars.slack-edge.com\/2020-03-09\/988125642964_71f827776ad610af05a2_72.jpg",
            "first_name": "",
            "real_name": "RachelA",
            "display_name": "RachelA",
            "team": "TUU48M0T1",
            "name": "raronoff",
            "is_restricted": false,
            "is_ultra_restricted": false
        },
        "blocks": [
            {
                "type": "rich_text",
                "block_id": "uBWb",
                "elements": [
                    {
                        "type": "rich_text_section",
                        "elements": [
                            {
                                "type": "text",
                                "text": "the above is the webhook that should be triggered for each Need and Member.  but- we need to test it. not sure what it sends...  another person wanted to join us already  Diego Jesus Martinez Garcia - and I just sent him this message from within the project: Hello!\nThank you for your interest in this project.\nWhere are you, and what can you help with, for this project?  Have you joined the JOGL Slack? We are organising especially in the "
                            },
                            {
                                "type": "channel",
                                "channel_id": "C010CVB35DE"
                            },
                            {
                                "type": "text",
                                "text": ".\nLooking forward to talking soon.\n"
                            },
                            {
                                "type": "emoji",
                                "name": "slightly_smiling_face"
                            }
                        ]
                    }
                ]
            }
        ]
    },
    {
        "client_msg_id": "f453162f-5952-4814-bd76-ca120d63e923",
        "type": "message",
        "text": "not sure how responses are taken care of either...",
        "user": "UV1A22N3W",
        "ts": "1587196785.337000",
        "team": "TUU48M0T1",
        "user_team": "TUU48M0T1",
        "source_team": "TUU48M0T1",
        "user_profile": {
            "avatar_hash": "71f827776ad6",
            "image_72": "https:\/\/avatars.slack-edge.com\/2020-03-09\/988125642964_71f827776ad610af05a2_72.jpg",
            "first_name": "",
            "real_name": "RachelA",
            "display_name": "RachelA",
            "team": "TUU48M0T1",
            "name": "raronoff",
            "is_restricted": false,
            "is_ultra_restricted": false
        },
        "blocks": [
            {
                "type": "rich_text",
                "block_id": "V9z",
                "elements": [
                    {
                        "type": "rich_text_section",
                        "elements": [
                            {
                                "type": "text",
                                "text": "not sure how responses are taken care of either..."
                            }
                        ]
                    }
                ]
            }
        ]
    },
    {
        "type": "message",
        "subtype": "bot_message",
        "text": "Rachel Aronoff just joined Do-It-Together SARS CoV-2 Detective!",
        "ts": "1587197598.337100",
        "bot_id": "B011ND7QSG7",
        "attachments": [
            {
                "author_name": "From:Do-It-Together SARS CoV-2 Detective",
                "fallback": "Someone joined an object!",
                "text": "biologist[...]",
                "title": "Rachel Aronoff",
                "footer": "Just One Giant Lab",
                "id": 1,
                "title_link": "https:\/\/app.jogl.io\/user\/4624",
                "author_link": "https:\/\/app.jogl.io\/project\/4624",
                "footer_icon": "https:\/\/app.jogl.io\/favicon.ico",
                "color": "36a64f",
                "fields": [
                    {
                        "title": "Skills",
                        "value": "Molbio and genetic",
                        "short": true
                    }
                ]
            }
        ]
    },
    {
        "client_msg_id": "d29d1738-e03f-43e1-bd96-6842b4e88c8f",
        "type": "message",
        "text": "haha, that was a test of the webhook.  it works.",
        "user": "UV1A22N3W",
        "ts": "1587197746.337600",
        "team": "TUU48M0T1",
        "user_team": "TUU48M0T1",
        "source_team": "TUU48M0T1",
        "user_profile": {
            "avatar_hash": "71f827776ad6",
            "image_72": "https:\/\/avatars.slack-edge.com\/2020-03-09\/988125642964_71f827776ad610af05a2_72.jpg",
            "first_name": "",
            "real_name": "RachelA",
            "display_name": "RachelA",
            "team": "TUU48M0T1",
            "name": "raronoff",
            "is_restricted": false,
            "is_ultra_restricted": false
        },
        "blocks": [
            {
                "type": "rich_text",
                "block_id": "CIF2c",
                "elements": [
                    {
                        "type": "rich_text_section",
                        "elements": [
                            {
                                "type": "text",
                                "text": "haha, that was a test of the webhook.  it works."
                            }
                        ]
                    }
                ]
            }
        ]
    },
    {
        "client_msg_id": "65c19e6c-5a84-479e-8017-69a5a4523cd2",
        "type": "message",
        "text": "Sounds like Diego is the person from Brazil that would like to test things too?",
        "user": "UV1A22N3W",
        "ts": "1587197766.338000",
        "team": "TUU48M0T1",
        "user_team": "TUU48M0T1",
        "source_team": "TUU48M0T1",
        "user_profile": {
            "avatar_hash": "71f827776ad6",
            "image_72": "https:\/\/avatars.slack-edge.com\/2020-03-09\/988125642964_71f827776ad610af05a2_72.jpg",
            "first_name": "",
            "real_name": "RachelA",
            "display_name": "RachelA",
            "team": "TUU48M0T1",
            "name": "raronoff",
            "is_restricted": false,
            "is_ultra_restricted": false
        },
        "blocks": [
            {
                "type": "rich_text",
                "block_id": "U1oD",
                "elements": [
                    {
                        "type": "rich_text_section",
                        "elements": [
                            {
                                "type": "text",
                                "text": "Sounds like Diego is the person from Brazil that would like to test things too?"
                            }
                        ]
                    }
                ]
            }
        ]
    },
    {
        "client_msg_id": "337f9585-5eaa-4fb7-a665-b8f83d533bfa",
        "type": "message",
        "text": "are we having a chat?",
        "user": "UV1A22N3W",
        "ts": "1587199303.338400",
        "team": "TUU48M0T1",
        "user_team": "TUU48M0T1",
        "source_team": "TUU48M0T1",
        "user_profile": {
            "avatar_hash": "71f827776ad6",
            "image_72": "https:\/\/avatars.slack-edge.com\/2020-03-09\/988125642964_71f827776ad610af05a2_72.jpg",
            "first_name": "",
            "real_name": "RachelA",
            "display_name": "RachelA",
            "team": "TUU48M0T1",
            "name": "raronoff",
            "is_restricted": false,
            "is_ultra_restricted": false
        },
        "blocks": [
            {
                "type": "rich_text",
                "block_id": "Tef+g",
                "elements": [
                    {
                        "type": "rich_text_section",
                        "elements": [
                            {
                                "type": "text",
                                "text": "are we having a chat?"
                            }
                        ]
                    }
                ]
            }
        ]
    },
    {
        "client_msg_id": "85d4221d-47be-4e27-8814-b6740b77d7e9",
        "type": "message",
        "text": "Guy and I are chatting now.  Maybe there's no big rush for the request for funding for the strip tubes and postage <@U010YT4BM34> <@U0110449PRR> <@U01136GDY5V> et al?  or maybe you are keen?? We are behind you, however. :slightly_smiling_face:  Let's aim for 11. <@UV3URUKK5> are you up? :wink:",
        "user": "UV1A22N3W",
        "ts": "1587199586.340600",
        "team": "TUU48M0T1",
        "user_team": "TUU48M0T1",
        "source_team": "TUU48M0T1",
        "user_profile": {
            "avatar_hash": "71f827776ad6",
            "image_72": "https:\/\/avatars.slack-edge.com\/2020-03-09\/988125642964_71f827776ad610af05a2_72.jpg",
            "first_name": "",
            "real_name": "RachelA",
            "display_name": "RachelA",
            "team": "TUU48M0T1",
            "name": "raronoff",
            "is_restricted": false,
            "is_ultra_restricted": false
        },
        "blocks": [
            {
                "type": "rich_text",
                "block_id": "TiI1",
                "elements": [
                    {
                        "type": "rich_text_section",
                        "elements": [
                            {
                                "type": "text",
                                "text": "Guy and I are chatting now.  Maybe there's no big rush for the request for funding for the strip tubes and postage "
                            },
                            {
                                "type": "user",
                                "user_id": "U010YT4BM34"
                            },
                            {
                                "type": "text",
                                "text": " "
                            },
                            {
                                "type": "user",
                                "user_id": "U0110449PRR"
                            },
                            {
                                "type": "text",
                                "text": " "
                            },
                            {
                                "type": "user",
                                "user_id": "U01136GDY5V"
                            },
                            {
                                "type": "text",
                                "text": " et al?  or maybe you are keen?? We are behind you, however. "
                            },
                            {
                                "type": "emoji",
                                "name": "slightly_smiling_face"
                            },
                            {
                                "type": "text",
                                "text": "  Let's aim for 11. "
                            },
                            {
                                "type": "user",
                                "user_id": "UV3URUKK5"
                            },
                            {
                                "type": "text",
                                "text": " are you up? "
                            },
                            {
                                "type": "emoji",
                                "name": "wink"
                            }
                        ]
                    }
                ]
            }
        ],
        "thread_ts": "1587199586.340600",
        "reply_count": 1,
        "reply_users_count": 1,
        "latest_reply": "1587199858.340700",
        "reply_users": [
            "U010YT4BM34"
        ],
        "replies": [
            {
                "user": "U010YT4BM34",
                "ts": "1587199858.340700"
            }
        ],
        "subscribed": false,
        "reactions": [
            {
                "name": "cry",
                "users": [
                    "UV3URUKK5"
                ],
                "count": 1
            }
        ]
    },
    {
        "client_msg_id": "941267e0-4085-47eb-8e4f-7ce0f507dd23",
        "type": "message",
        "text": "Ok for 11.",
        "user": "U010YT4BM34",
        "ts": "1587199858.340700",
        "team": "TUU48M0T1",
        "user_team": "TUU48M0T1",
        "source_team": "TUU48M0T1",
        "user_profile": {
            "avatar_hash": "g0469bd67b95",
            "image_72": "https:\/\/secure.gravatar.com\/avatar\/0469bd67b953af82f90970aa384c797b.jpg?s=72&d=https%3A%2F%2Fa.slack-edge.com%2Fdf10d%2Fimg%2Favatars%2Fava_0015-72.png",
            "first_name": "",
            "real_name": "Stephane Fadanka",
            "display_name": "Stephane Fadanka",
            "team": "TUU48M0T1",
            "name": "stephanefadanka",
            "is_restricted": false,
            "is_ultra_restricted": false
        },
        "blocks": [
            {
                "type": "rich_text",
                "block_id": "=Xn",
                "elements": [
                    {
                        "type": "rich_text_section",
                        "elements": [
                            {
                                "type": "text",
                                "text": "Ok for 11."
                            }
                        ]
                    }
                ]
            }
        ],
        "thread_ts": "1587199586.340600",
        "parent_user_id": "UV1A22N3W"
    },
    {
        "type": "message",
        "subtype": "bot_message",
        "text": "Diego Jesus Martínez Garcia just joined Do-It-Together SARS CoV-2 Detective!",
        "ts": "1587213171.341100",
        "bot_id": "B011ND7QSG7",
        "thread_ts": "1587213171.341100",
        "reply_count": 1,
        "reply_users_count": 1,
        "latest_reply": "1587230918.342700",
        "reply_users": [
            "UV1A22N3W"
        ],
        "replies": [
            {
                "user": "UV1A22N3W",
                "ts": "1587230918.342700"
            }
        ],
        "subscribed": false,
        "attachments": [
            {
                "author_name": "From:Do-It-Together SARS CoV-2 Detective",
                "fallback": "Someone joined an object!",
                "text": "No bio... :(",
                "title": "Diego Jesus Martínez Garcia",
                "footer": "Just One Giant Lab",
                "id": 1,
                "title_link": "https:\/\/app.jogl.io\/user\/4611",
                "author_link": "https:\/\/app.jogl.io\/project\/4611",
                "footer_icon": "https:\/\/app.jogl.io\/favicon.ico",
                "color": "36a64f",
                "fields": [
                    {
                        "title": "Skills",
                        "value": "",
                        "short": true
                    }
                ]
            }
        ]
    },
    {
        "type": "message",
        "text": "from the ABI rt-PCR mastermix booklet!",
        "files": [
            {
                "id": "F011NMRCCHM",
                "created": 1587229577,
                "timestamp": 1587229577,
                "name": "IMG_8126.JPG",
                "title": "File from iOS",
                "mimetype": "image\/jpeg",
                "filetype": "jpg",
                "pretty_type": "JPEG",
                "user": "UV1A22N3W",
                "editable": false,
                "size": 912015,
                "mode": "hosted",
                "is_external": false,
                "external_type": "",
                "is_public": true,
                "public_url_shared": false,
                "display_as_bot": false,
                "username": "",
                "url_private": "https:\/\/files.slack.com\/files-pri\/TUU48M0T1-F011NMRCCHM\/img_8126.jpg?t=xoxe-980144714919-1133254701825-1120841107731-daf595b5a7d6c9028b0b02a925032e36",
                "url_private_download": "https:\/\/files.slack.com\/files-pri\/TUU48M0T1-F011NMRCCHM\/download\/img_8126.jpg?t=xoxe-980144714919-1133254701825-1120841107731-daf595b5a7d6c9028b0b02a925032e36",
                "thumb_64": "https:\/\/files.slack.com\/files-tmb\/TUU48M0T1-F011NMRCCHM-440699d6db\/img_8126_64.jpg?t=xoxe-980144714919-1133254701825-1120841107731-daf595b5a7d6c9028b0b02a925032e36",
                "thumb_80": "https:\/\/files.slack.com\/files-tmb\/TUU48M0T1-F011NMRCCHM-440699d6db\/img_8126_80.jpg?t=xoxe-980144714919-1133254701825-1120841107731-daf595b5a7d6c9028b0b02a925032e36",
                "thumb_360": "https:\/\/files.slack.com\/files-tmb\/TUU48M0T1-F011NMRCCHM-440699d6db\/img_8126_360.jpg?t=xoxe-980144714919-1133254701825-1120841107731-daf595b5a7d6c9028b0b02a925032e36",
                "thumb_360_w": 270,
                "thumb_360_h": 360,
                "thumb_480": "https:\/\/files.slack.com\/files-tmb\/TUU48M0T1-F011NMRCCHM-440699d6db\/img_8126_480.jpg?t=xoxe-980144714919-1133254701825-1120841107731-daf595b5a7d6c9028b0b02a925032e36",
                "thumb_480_w": 360,
                "thumb_480_h": 480,
                "thumb_160": "https:\/\/files.slack.com\/files-tmb\/TUU48M0T1-F011NMRCCHM-440699d6db\/img_8126_160.jpg?t=xoxe-980144714919-1133254701825-1120841107731-daf595b5a7d6c9028b0b02a925032e36",
                "thumb_720": "https:\/\/files.slack.com\/files-tmb\/TUU48M0T1-F011NMRCCHM-440699d6db\/img_8126_720.jpg?t=xoxe-980144714919-1133254701825-1120841107731-daf595b5a7d6c9028b0b02a925032e36",
                "thumb_720_w": 540,
                "thumb_720_h": 720,
                "thumb_800": "https:\/\/files.slack.com\/files-tmb\/TUU48M0T1-F011NMRCCHM-440699d6db\/img_8126_800.jpg?t=xoxe-980144714919-1133254701825-1120841107731-daf595b5a7d6c9028b0b02a925032e36",
                "thumb_800_w": 800,
                "thumb_800_h": 1067,
                "thumb_960": "https:\/\/files.slack.com\/files-tmb\/TUU48M0T1-F011NMRCCHM-440699d6db\/img_8126_960.jpg?t=xoxe-980144714919-1133254701825-1120841107731-daf595b5a7d6c9028b0b02a925032e36",
                "thumb_960_w": 720,
                "thumb_960_h": 960,
                "thumb_1024": "https:\/\/files.slack.com\/files-tmb\/TUU48M0T1-F011NMRCCHM-440699d6db\/img_8126_1024.jpg?t=xoxe-980144714919-1133254701825-1120841107731-daf595b5a7d6c9028b0b02a925032e36",
                "thumb_1024_w": 768,
                "thumb_1024_h": 1024,
                "original_w": 3024,
                "original_h": 4032,
                "thumb_tiny": "AwAwACS2KdUIpc0DJaWoS2KjnZvIkKkqV7g0AWs0uax0eZxnzH\/Onfvv+ej\/AJ0AXRRuycY6GgUg6n60DFP+q\/z602b\/AI9pvxp5G5SPekuf+PaT6UCIbJAYCT3Y1Y2Co7UYt09+amoAjFAHJoFIXRT8zqPxpASL3+tMuf8Aj2k+lRvcQFSvmdfQVHJcRsjqu8l+Oe1MCzENsSD\/AGRT6Sj8aAP\/2Q==",
                "permalink": "https:\/\/open-covid19.slack.com\/files\/UV1A22N3W\/F011NMRCCHM\/img_8126.jpg",
                "permalink_public": "https:\/\/slack-files.com\/TUU48M0T1-F011NMRCCHM-542068a1c0",
                "is_starred": false,
                "has_rich_preview": false
            }
        ],
        "upload": true,
        "user": "UV1A22N3W",
        "display_as_bot": false,
        "ts": "1587229581.342100"
    },
    {
        "client_msg_id": "ab499fe8-7d91-4bbb-a71e-35462058c888",
        "type": "message",
        "text": "we need other things too - see 'needs' on the project - even logistics and communication are key to really have this work!  where are you?",
        "user": "UV1A22N3W",
        "ts": "1587230918.342700",
        "team": "TUU48M0T1",
        "user_team": "TUU48M0T1",
        "source_team": "TUU48M0T1",
        "user_profile": {
            "avatar_hash": "71f827776ad6",
            "image_72": "https:\/\/avatars.slack-edge.com\/2020-03-09\/988125642964_71f827776ad610af05a2_72.jpg",
            "first_name": "",
            "real_name": "RachelA",
            "display_name": "RachelA",
            "team": "TUU48M0T1",
            "name": "raronoff",
            "is_restricted": false,
            "is_ultra_restricted": false
        },
        "blocks": [
            {
                "type": "rich_text",
                "block_id": "74Ub",
                "elements": [
                    {
                        "type": "rich_text_section",
                        "elements": [
                            {
                                "type": "text",
                                "text": "we need other things too - see 'needs' on the project - even logistics and communication are key to really have this work!  where are you?"
                            }
                        ]
                    }
                ]
            }
        ],
        "thread_ts": "1587213171.341100"
    },
    {
        "client_msg_id": "e5408db1-e833-4454-995a-bae3a39f2aa9",
        "type": "message",
        "text": "maybe I shouldn't have made this comment, but...",
        "user": "UV1A22N3W",
        "ts": "1587230929.342900",
        "team": "TUU48M0T1",
        "user_team": "TUU48M0T1",
        "source_team": "TUU48M0T1",
        "user_profile": {
            "avatar_hash": "71f827776ad6",
            "image_72": "https:\/\/avatars.slack-edge.com\/2020-03-09\/988125642964_71f827776ad610af05a2_72.jpg",
            "first_name": "",
            "real_name": "RachelA",
            "display_name": "RachelA",
            "team": "TUU48M0T1",
            "name": "raronoff",
            "is_restricted": false,
            "is_ultra_restricted": false
        },
        "blocks": [
            {
                "type": "rich_text",
                "block_id": "wLn",
                "elements": [
                    {
                        "type": "rich_text_section",
                        "elements": [
                            {
                                "type": "text",
                                "text": "maybe I shouldn't have made this comment, but..."
                            }
                        ]
                    }
                ]
            }
        ]
    },
    {
        "type": "message",
        "text": "yep on fb like this... (my friend is a chinese cool biohacker\/designer gal, and super - living through this crazy time...)  let's see...",
        "files": [
            {
                "id": "F012235TWER",
                "created": 1587231011,
                "timestamp": 1587231011,
                "name": "maybeunwise.png",
                "title": "maybeunwise.png",
                "mimetype": "image\/png",
                "filetype": "png",
                "pretty_type": "PNG",
                "user": "UV1A22N3W",
                "editable": false,
                "size": 104842,
                "mode": "hosted",
                "is_external": false,
                "external_type": "",
                "is_public": true,
                "public_url_shared": false,
                "display_as_bot": false,
                "username": "",
                "url_private": "https:\/\/files.slack.com\/files-pri\/TUU48M0T1-F012235TWER\/maybeunwise.png?t=xoxe-980144714919-1133254701825-1120841107731-daf595b5a7d6c9028b0b02a925032e36",
                "url_private_download": "https:\/\/files.slack.com\/files-pri\/TUU48M0T1-F012235TWER\/download\/maybeunwise.png?t=xoxe-980144714919-1133254701825-1120841107731-daf595b5a7d6c9028b0b02a925032e36",
                "thumb_64": "https:\/\/files.slack.com\/files-tmb\/TUU48M0T1-F012235TWER-76b5fdceb3\/maybeunwise_64.png?t=xoxe-980144714919-1133254701825-1120841107731-daf595b5a7d6c9028b0b02a925032e36",
                "thumb_80": "https:\/\/files.slack.com\/files-tmb\/TUU48M0T1-F012235TWER-76b5fdceb3\/maybeunwise_80.png?t=xoxe-980144714919-1133254701825-1120841107731-daf595b5a7d6c9028b0b02a925032e36",
                "thumb_360": "https:\/\/files.slack.com\/files-tmb\/TUU48M0T1-F012235TWER-76b5fdceb3\/maybeunwise_360.png?t=xoxe-980144714919-1133254701825-1120841107731-daf595b5a7d6c9028b0b02a925032e36",
                "thumb_360_w": 341,
                "thumb_360_h": 360,
                "thumb_480": "https:\/\/files.slack.com\/files-tmb\/TUU48M0T1-F012235TWER-76b5fdceb3\/maybeunwise_480.png?t=xoxe-980144714919-1133254701825-1120841107731-daf595b5a7d6c9028b0b02a925032e36",
                "thumb_480_w": 455,
                "thumb_480_h": 480,
                "thumb_160": "https:\/\/files.slack.com\/files-tmb\/TUU48M0T1-F012235TWER-76b5fdceb3\/maybeunwise_160.png?t=xoxe-980144714919-1133254701825-1120841107731-daf595b5a7d6c9028b0b02a925032e36",
                "original_w": 456,
                "original_h": 481,
                "thumb_tiny": "AwAwAC24iJGzFQAWPPNSbz7UvOf\/AK9IGGcZH50AG8+1G8+1LmloARWJNK1FIaAE4BHNMEa5Lgk5p4Yt\/Cw9zigbs4IGPpQA0KAPu5owP7lPx7UuKAI8D+5TgABwMU6kNAAGXB2kcHBpcjuRTTGADtAGTk4pAhoAcT7ilyO5FM8v1pfL96AF4z\/DQeOlIExTm7UAf\/\/Z",
                "permalink": "https:\/\/open-covid19.slack.com\/files\/UV1A22N3W\/F012235TWER\/maybeunwise.png",
                "permalink_public": "https:\/\/slack-files.com\/TUU48M0T1-F012235TWER-8d29f50d9d",
                "is_starred": false,
                "has_rich_preview": false
            }
        ],
        "upload": true,
        "blocks": [
            {
                "type": "rich_text",
                "block_id": "SDML",
                "elements": [
                    {
                        "type": "rich_text_section",
                        "elements": [
                            {
                                "type": "text",
                                "text": "yep on fb like this... (my friend is a chinese cool biohacker\/designer gal, and super - living through this crazy time...)  let's see..."
                            }
                        ]
                    }
                ]
            }
        ],
        "user": "UV1A22N3W",
        "display_as_bot": false,
        "ts": "1587231013.343200",
        "client_msg_id": "88217ff0-c927-4b6b-abbe-ad3e8f473483"
    },
    {
        "client_msg_id": "e4f9cb6e-df1e-4492-8e8c-fd7d95359939",
        "type": "message",
        "text": "I think several of us have made our point clear but I guess they want to continue pursuing the DETECTR protocol.",
        "user": "UV10KBUQG",
        "ts": "1587231159.344300",
        "team": "TUU48M0T1",
        "user_team": "TUU48M0T1",
        "source_team": "TUU48M0T1",
        "user_profile": {
            "avatar_hash": "2deebbf6be3d",
            "image_72": "https:\/\/avatars.slack-edge.com\/2020-03-06\/976932190641_2deebbf6be3d17141d91_72.jpg",
            "first_name": "Sarah",
            "real_name": "Sarah Blossom Ware",
            "display_name": "Sarah Blossom Ware - BioBlaze Community Bio Lab",
            "team": "TUU48M0T1",
            "name": "ware.sarah",
            "is_restricted": false,
            "is_ultra_restricted": false
        },
        "blocks": [
            {
                "type": "rich_text",
                "block_id": "k324V",
                "elements": [
                    {
                        "type": "rich_text_section",
                        "elements": [
                            {
                                "type": "text",
                                "text": "I think several of us have made our point clear but I guess they want to continue pursuing the DETECTR protocol."
                            }
                        ]
                    }
                ]
            }
        ]
    },
    {
        "client_msg_id": "0CF6DA62-D560-46E8-AA89-71BC6188CC86",
        "type": "message",
        "text": "nature pub!!!",
        "user": "UV1A22N3W",
        "ts": "1587235074.344600",
        "team": "TUU48M0T1",
        "user_team": "TUU48M0T1",
        "source_team": "TUU48M0T1",
        "user_profile": {
            "avatar_hash": "71f827776ad6",
            "image_72": "https:\/\/avatars.slack-edge.com\/2020-03-09\/988125642964_71f827776ad610af05a2_72.jpg",
            "first_name": "",
            "real_name": "RachelA",
            "display_name": "RachelA",
            "team": "TUU48M0T1",
            "name": "raronoff",
            "is_restricted": false,
            "is_ultra_restricted": false
        },
        "blocks": [
            {
                "type": "rich_text",
                "block_id": "uavy",
                "elements": [
                    {
                        "type": "rich_text_section",
                        "elements": [
                            {
                                "type": "text",
                                "text": "nature pub!!!"
                            }
                        ]
                    }
                ]
            }
        ],
        "thread_ts": "1587235074.344600",
        "reply_count": 2,
        "reply_users_count": 2,
        "latest_reply": "1587281662.350500",
        "reply_users": [
            "UV10KBUQG",
            "UV1A22N3W"
        ],
        "replies": [
            {
                "user": "UV10KBUQG",
                "ts": "1587238962.345400"
            },
            {
                "user": "UV1A22N3W",
                "ts": "1587281662.350500"
            }
        ],
        "subscribed": false
    },
    {
        "client_msg_id": "8F02D52A-6A3E-4B58-A3B3-266D36AA4B06",
        "type": "message",
        "text": "she said thx already, at least... :)",
        "user": "UV1A22N3W",
        "ts": "1587235136.345300",
        "team": "TUU48M0T1",
        "user_team": "TUU48M0T1",
        "source_team": "TUU48M0T1",
        "user_profile": {
            "avatar_hash": "71f827776ad6",
            "image_72": "https:\/\/avatars.slack-edge.com\/2020-03-09\/988125642964_71f827776ad610af05a2_72.jpg",
            "first_name": "",
            "real_name": "RachelA",
            "display_name": "RachelA",
            "team": "TUU48M0T1",
            "name": "raronoff",
            "is_restricted": false,
            "is_ultra_restricted": false
        },
        "blocks": [
            {
                "type": "rich_text",
                "block_id": "h2L",
                "elements": [
                    {
                        "type": "rich_text_section",
                        "elements": [
                            {
                                "type": "text",
                                "text": "she said thx already, at least... :)"
                            }
                        ]
                    }
                ]
            }
        ]
    },
    {
        "client_msg_id": "964924ea-acfd-4fa2-bec6-b19459e35a11",
        "type": "message",
        "text": "Oh! I thought that was something from the JOGL Mammoth DETECTR group.",
        "user": "UV10KBUQG",
        "ts": "1587238962.345400",
        "team": "TUU48M0T1",
        "user_team": "TUU48M0T1",
        "source_team": "TUU48M0T1",
        "user_profile": {
            "avatar_hash": "2deebbf6be3d",
            "image_72": "https:\/\/avatars.slack-edge.com\/2020-03-06\/976932190641_2deebbf6be3d17141d91_72.jpg",
            "first_name": "Sarah",
            "real_name": "Sarah Blossom Ware",
            "display_name": "Sarah Blossom Ware - BioBlaze Community Bio Lab",
            "team": "TUU48M0T1",
            "name": "ware.sarah",
            "is_restricted": false,
            "is_ultra_restricted": false
        },
        "blocks": [
            {
                "type": "rich_text",
                "block_id": "epT",
                "elements": [
                    {
                        "type": "rich_text_section",
                        "elements": [
                            {
                                "type": "text",
                                "text": "Oh! I thought that was something from the JOGL Mammoth DETECTR group."
                            }
                        ]
                    }
                ]
            }
        ],
        "thread_ts": "1587235074.344600",
        "parent_user_id": "UV1A22N3W"
    },
    {
        "client_msg_id": "b210546e-9b58-4f41-aa1e-ecb4eaf44444",
        "type": "message",
        "text": "<@U010LNECEHE> <@UV7LUJG1Y> do you think doing final 'dissociation curves' for lamp can give more confidence of real amplification as opposed to primer dimer etc amps?   (the old qPCR machine manual discusses this for ordinary qPCR, but one product is very diff than the isothermal amp concatamer family...)",
        "user": "UV1A22N3W",
        "ts": "1587279479.348200",
        "team": "TUU48M0T1",
        "user_team": "TUU48M0T1",
        "source_team": "TUU48M0T1",
        "user_profile": {
            "avatar_hash": "71f827776ad6",
            "image_72": "https:\/\/avatars.slack-edge.com\/2020-03-09\/988125642964_71f827776ad610af05a2_72.jpg",
            "first_name": "",
            "real_name": "RachelA",
            "display_name": "RachelA",
            "team": "TUU48M0T1",
            "name": "raronoff",
            "is_restricted": false,
            "is_ultra_restricted": false
        },
        "blocks": [
            {
                "type": "rich_text",
                "block_id": "4Np",
                "elements": [
                    {
                        "type": "rich_text_section",
                        "elements": [
                            {
                                "type": "user",
                                "user_id": "U010LNECEHE"
                            },
                            {
                                "type": "text",
                                "text": " "
                            },
                            {
                                "type": "user",
                                "user_id": "UV7LUJG1Y"
                            },
                            {
                                "type": "text",
                                "text": " do you think doing final 'dissociation curves' for lamp can give more confidence of real amplification as opposed to primer dimer etc amps?   (the old qPCR machine manual discusses this for ordinary qPCR, but one product is very diff than the isothermal amp concatamer family...)"
                            }
                        ]
                    }
                ]
            }
        ]
    },
    {
        "type": "message",
        "text": "color-coded primer seqs in the gene... (adding this so people can see how much more complicated the primer setup is, in compared to normal pcr - often the F3\/B3 primers can be used for ordinary pcr amplification and sometimes that is an ok control - hmmm...)",
        "files": [
            {
                "id": "F011X2JEN6S",
                "created": 1587279543,
                "timestamp": 1587279543,
                "name": "covid19NseqsMAMMOTH_Ngenelamp.pdf",
                "title": "covid19NseqsMAMMOTH_Ngenelamp.pdf",
                "mimetype": "application\/pdf",
                "filetype": "pdf",
                "pretty_type": "PDF",
                "user": "UV1A22N3W",
                "editable": false,
                "size": 65577,
                "mode": "hosted",
                "is_external": false,
                "external_type": "",
                "is_public": true,
                "public_url_shared": false,
                "display_as_bot": false,
                "username": "",
                "url_private": "https:\/\/files.slack.com\/files-pri\/TUU48M0T1-F011X2JEN6S\/covid19nseqsmammoth_ngenelamp.pdf?t=xoxe-980144714919-1133254701825-1120841107731-daf595b5a7d6c9028b0b02a925032e36",
                "url_private_download": "https:\/\/files.slack.com\/files-pri\/TUU48M0T1-F011X2JEN6S\/download\/covid19nseqsmammoth_ngenelamp.pdf?t=xoxe-980144714919-1133254701825-1120841107731-daf595b5a7d6c9028b0b02a925032e36",
                "thumb_pdf": "https:\/\/files.slack.com\/files-tmb\/TUU48M0T1-F011X2JEN6S-5e3495f4c5\/covid19nseqsmammoth_ngenelamp_thumb_pdf.png?t=xoxe-980144714919-1133254701825-1120841107731-daf595b5a7d6c9028b0b02a925032e36",
                "thumb_pdf_w": 909,
                "thumb_pdf_h": 1286,
                "permalink": "https:\/\/open-covid19.slack.com\/files\/UV1A22N3W\/F011X2JEN6S\/covid19nseqsmammoth_ngenelamp.pdf",
                "permalink_public": "https:\/\/slack-files.com\/TUU48M0T1-F011X2JEN6S-343c8ef112",
                "is_starred": false,
                "has_rich_preview": false
            }
        ],
        "upload": true,
        "blocks": [
            {
                "type": "rich_text",
                "block_id": "RuHZ",
                "elements": [
                    {
                        "type": "rich_text_section",
                        "elements": [
                            {
                                "type": "text",
                                "text": "color-coded primer seqs in the gene... (adding this so people can see how much more complicated the primer setup is, in compared to normal pcr - often the F3\/B3 primers can be used for ordinary pcr amplification and sometimes that is an ok control - hmmm...)"
                            }
                        ]
                    }
                ]
            }
        ],
        "user": "UV1A22N3W",
        "display_as_bot": false,
        "ts": "1587279545.348300",
        "edited": {
            "user": "UV1A22N3W",
            "ts": "1587281563.000000"
        },
        "client_msg_id": "8d4b4abd-d06b-449d-a017-fe924770fc6e",
        "thread_ts": "1587279545.348300",
        "reply_count": 1,
        "reply_users_count": 1,
        "latest_reply": "1587330035.370400",
        "reply_users": [
            "U010LNECEHE"
        ],
        "replies": [
            {
                "user": "U010LNECEHE",
                "ts": "1587330035.370400"
            }
        ],
        "subscribed": false
    }
]