[
    {
        "client_msg_id": "ccb81f68-977e-438d-bd57-5a907e53609b",
        "type": "message",
        "text": "Very pleased at the range we now cover for this project, with Thomas, Nadine and Stephane from Africa and Fernan from Chile (?right)!! Hoping we can get everything together in spite of lockdowns and worries!  Take care!",
        "user": "UV1A22N3W",
        "ts": "1586158149.045700",
        "team": "TUU48M0T1",
        "user_team": "TUU48M0T1",
        "source_team": "TUU48M0T1",
        "user_profile": {
            "avatar_hash": "71f827776ad6",
            "image_72": "https:\/\/avatars.slack-edge.com\/2020-03-09\/988125642964_71f827776ad610af05a2_72.jpg",
            "first_name": "",
            "real_name": "RachelA",
            "display_name": "RachelA",
            "team": "TUU48M0T1",
            "name": "raronoff",
            "is_restricted": false,
            "is_ultra_restricted": false
        },
        "blocks": [
            {
                "type": "rich_text",
                "block_id": "Y8Y",
                "elements": [
                    {
                        "type": "rich_text_section",
                        "elements": [
                            {
                                "type": "text",
                                "text": "Very pleased at the range we now cover for this project, with Thomas, Nadine and Stephane from Africa and Fernan from Chile (?right)!! Hoping we can get everything together in spite of lockdowns and worries!  Take care!"
                            }
                        ]
                    }
                ]
            }
        ],
        "thread_ts": "1586158149.045700",
        "reply_count": 1,
        "reply_users_count": 1,
        "latest_reply": "1586174300.053600",
        "reply_users": [
            "U010YT4BM34"
        ],
        "replies": [
            {
                "user": "U010YT4BM34",
                "ts": "1586174300.053600"
            }
        ],
        "subscribed": false
    },
    {
        "client_msg_id": "a770f4d8-4e0e-4b7c-9c0e-98213d5a396f",
        "type": "message",
        "text": "India too, right?",
        "user": "UV1A22N3W",
        "ts": "1586158204.046400",
        "team": "TUU48M0T1",
        "user_team": "TUU48M0T1",
        "source_team": "TUU48M0T1",
        "user_profile": {
            "avatar_hash": "71f827776ad6",
            "image_72": "https:\/\/avatars.slack-edge.com\/2020-03-09\/988125642964_71f827776ad610af05a2_72.jpg",
            "first_name": "",
            "real_name": "RachelA",
            "display_name": "RachelA",
            "team": "TUU48M0T1",
            "name": "raronoff",
            "is_restricted": false,
            "is_ultra_restricted": false
        },
        "blocks": [
            {
                "type": "rich_text",
                "block_id": "2slz",
                "elements": [
                    {
                        "type": "rich_text_section",
                        "elements": [
                            {
                                "type": "text",
                                "text": "India too, right?"
                            }
                        ]
                    }
                ]
            }
        ]
    },
    {
        "client_msg_id": "9481b7a0-f312-422b-8cb6-debf68ffc165",
        "type": "message",
        "text": "Just to make sure everyone is on the same page, right now, the idea is that each individual lab will apply separately for mini grants, but reference the same proposal for clarity and consistency.\nEach individual lab can apply for grants related to one or both of the following JOGL projects: Reproducing the NEB LAMP Test or Do-It-Together SARS CoV-2 Detector",
        "user": "UV1A22N3W",
        "ts": "1586159597.047400",
        "team": "TUU48M0T1",
        "user_team": "TUU48M0T1",
        "source_team": "TUU48M0T1",
        "user_profile": {
            "avatar_hash": "71f827776ad6",
            "image_72": "https:\/\/avatars.slack-edge.com\/2020-03-09\/988125642964_71f827776ad610af05a2_72.jpg",
            "first_name": "",
            "real_name": "RachelA",
            "display_name": "RachelA",
            "team": "TUU48M0T1",
            "name": "raronoff",
            "is_restricted": false,
            "is_ultra_restricted": false
        },
        "edited": {
            "user": "UV1A22N3W",
            "ts": "1586159655.000000"
        },
        "blocks": [
            {
                "type": "rich_text",
                "block_id": "XPNn",
                "elements": [
                    {
                        "type": "rich_text_section",
                        "elements": [
                            {
                                "type": "text",
                                "text": "Just to make sure everyone is on the same page, right now, the idea is that each individual lab will apply separately for mini grants, but reference the same proposal for clarity and consistency.\nEach individual lab can apply for grants related to one or both of the following JOGL projects: Reproducing the NEB LAMP Test or Do-It-Together SARS CoV-2 Detector"
                            }
                        ]
                    }
                ]
            }
        ]
    },
    {
        "client_msg_id": "0e696ade-6f6b-4fda-b697-b6bdb0b5425b",
        "type": "message",
        "text": "<@UUPQGNNTV> have you checked in your front end project  about members (you might have to go in 'edit' to see and approve)",
        "user": "UV1A22N3W",
        "ts": "1586159757.048400",
        "team": "TUU48M0T1",
        "user_team": "TUU48M0T1",
        "source_team": "TUU48M0T1",
        "user_profile": {
            "avatar_hash": "71f827776ad6",
            "image_72": "https:\/\/avatars.slack-edge.com\/2020-03-09\/988125642964_71f827776ad610af05a2_72.jpg",
            "first_name": "",
            "real_name": "RachelA",
            "display_name": "RachelA",
            "team": "TUU48M0T1",
            "name": "raronoff",
            "is_restricted": false,
            "is_ultra_restricted": false
        },
        "blocks": [
            {
                "type": "rich_text",
                "block_id": "dJT",
                "elements": [
                    {
                        "type": "rich_text_section",
                        "elements": [
                            {
                                "type": "user",
                                "user_id": "UUPQGNNTV"
                            },
                            {
                                "type": "text",
                                "text": " have you checked in your front end project  about members (you might have to go in 'edit' to see and approve)"
                            }
                        ]
                    }
                ]
            }
        ]
    },
    {
        "client_msg_id": "66336675-be55-4b0c-884a-87a0f3d8b4f3",
        "type": "message",
        "text": "can you also send some of the N plasmid to us in Lausanne, please?",
        "user": "UV1A22N3W",
        "ts": "1586160741.049000",
        "team": "TUU48M0T1",
        "user_team": "TUU48M0T1",
        "source_team": "TUU48M0T1",
        "user_profile": {
            "avatar_hash": "71f827776ad6",
            "image_72": "https:\/\/avatars.slack-edge.com\/2020-03-09\/988125642964_71f827776ad610af05a2_72.jpg",
            "first_name": "",
            "real_name": "RachelA",
            "display_name": "RachelA",
            "team": "TUU48M0T1",
            "name": "raronoff",
            "is_restricted": false,
            "is_ultra_restricted": false
        },
        "blocks": [
            {
                "type": "rich_text",
                "block_id": "7xLm",
                "elements": [
                    {
                        "type": "rich_text_section",
                        "elements": [
                            {
                                "type": "text",
                                "text": "can you also send some of the N plasmid to us in Lausanne, please?"
                            }
                        ]
                    }
                ]
            }
        ]
    },
    {
        "client_msg_id": "ff3efbe8-5808-4690-88f1-69d6cf600f5c",
        "type": "message",
        "text": "<@UUPQGNNTV>",
        "user": "UV1A22N3W",
        "ts": "1586160747.049200",
        "team": "TUU48M0T1",
        "user_team": "TUU48M0T1",
        "source_team": "TUU48M0T1",
        "user_profile": {
            "avatar_hash": "71f827776ad6",
            "image_72": "https:\/\/avatars.slack-edge.com\/2020-03-09\/988125642964_71f827776ad610af05a2_72.jpg",
            "first_name": "",
            "real_name": "RachelA",
            "display_name": "RachelA",
            "team": "TUU48M0T1",
            "name": "raronoff",
            "is_restricted": false,
            "is_ultra_restricted": false
        },
        "blocks": [
            {
                "type": "rich_text",
                "block_id": "1nNs",
                "elements": [
                    {
                        "type": "rich_text_section",
                        "elements": [
                            {
                                "type": "user",
                                "user_id": "UUPQGNNTV"
                            }
                        ]
                    }
                ]
            }
        ]
    },
    {
        "client_msg_id": "6662d441-13b8-41e9-9e6a-e94d67f35d39",
        "type": "message",
        "text": "Here is the document - currently it is a little confusing as there are two similar introductions for the two proposals.  Thanks for all your efforts! <https:\/\/docs.google.com\/document\/d\/1XSbCZQ6MsiQSZok0DscrwNgz90h-tO-Bsne-I32b4k0\/edit?usp=sharing>",
        "user": "UV1A22N3W",
        "ts": "1586161428.050600",
        "team": "TUU48M0T1",
        "user_team": "TUU48M0T1",
        "source_team": "TUU48M0T1",
        "user_profile": {
            "avatar_hash": "71f827776ad6",
            "image_72": "https:\/\/avatars.slack-edge.com\/2020-03-09\/988125642964_71f827776ad610af05a2_72.jpg",
            "first_name": "",
            "real_name": "RachelA",
            "display_name": "RachelA",
            "team": "TUU48M0T1",
            "name": "raronoff",
            "is_restricted": false,
            "is_ultra_restricted": false
        },
        "blocks": [
            {
                "type": "rich_text",
                "block_id": "t1iA",
                "elements": [
                    {
                        "type": "rich_text_section",
                        "elements": [
                            {
                                "type": "text",
                                "text": "Here is the document - currently it is a little confusing as there are two similar introductions for the two proposals.  Thanks for all your efforts! "
                            },
                            {
                                "type": "link",
                                "url": "https:\/\/docs.google.com\/document\/d\/1XSbCZQ6MsiQSZok0DscrwNgz90h-tO-Bsne-I32b4k0\/edit?usp=sharing"
                            }
                        ]
                    }
                ]
            }
        ]
    },
    {
        "client_msg_id": "4f43e5a5-a0d1-47e4-b6c1-12487291b532",
        "type": "message",
        "text": "is there a link already to your first expts as open science data, <@UV10KBUQG> <@UUPQGNNTV> beside what is in the slack ? would look good for participatory research...",
        "user": "UV1A22N3W",
        "ts": "1586162427.051200",
        "team": "TUU48M0T1",
        "user_team": "TUU48M0T1",
        "source_team": "TUU48M0T1",
        "user_profile": {
            "avatar_hash": "71f827776ad6",
            "image_72": "https:\/\/avatars.slack-edge.com\/2020-03-09\/988125642964_71f827776ad610af05a2_72.jpg",
            "first_name": "",
            "real_name": "RachelA",
            "display_name": "RachelA",
            "team": "TUU48M0T1",
            "name": "raronoff",
            "is_restricted": false,
            "is_ultra_restricted": false
        },
        "blocks": [
            {
                "type": "rich_text",
                "block_id": "LbA",
                "elements": [
                    {
                        "type": "rich_text_section",
                        "elements": [
                            {
                                "type": "text",
                                "text": "is there a link already to your first expts as open science data, "
                            },
                            {
                                "type": "user",
                                "user_id": "UV10KBUQG"
                            },
                            {
                                "type": "text",
                                "text": " "
                            },
                            {
                                "type": "user",
                                "user_id": "UUPQGNNTV"
                            },
                            {
                                "type": "text",
                                "text": " beside what is in the slack ? would look good for participatory research..."
                            }
                        ]
                    }
                ]
            }
        ],
        "thread_ts": "1586162427.051200",
        "reply_count": 2,
        "reply_users_count": 2,
        "latest_reply": "1586184688.054100",
        "reply_users": [
            "UV10KBUQG",
            "UV1A22N3W"
        ],
        "replies": [
            {
                "user": "UV10KBUQG",
                "ts": "1586184427.053900"
            },
            {
                "user": "UV1A22N3W",
                "ts": "1586184688.054100"
            }
        ],
        "subscribed": false
    },
    {
        "type": "message",
        "subtype": "channel_join",
        "ts": "1586162445.051400",
        "user": "UV10KBUQG",
        "text": "<@UV10KBUQG> has joined the channel",
        "inviter": "UV1A22N3W"
    },
    {
        "client_msg_id": "233d8a12-c089-4776-baa8-95bce7633c16",
        "type": "message",
        "text": "<@U010LNECEHE> are you in either of the 'front end' projects?  please join #coronadetective one... :slightly_smiling_face:",
        "user": "UV1A22N3W",
        "ts": "1586166919.052400",
        "team": "TUU48M0T1",
        "user_team": "TUU48M0T1",
        "source_team": "TUU48M0T1",
        "user_profile": {
            "avatar_hash": "71f827776ad6",
            "image_72": "https:\/\/avatars.slack-edge.com\/2020-03-09\/988125642964_71f827776ad610af05a2_72.jpg",
            "first_name": "",
            "real_name": "RachelA",
            "display_name": "RachelA",
            "team": "TUU48M0T1",
            "name": "raronoff",
            "is_restricted": false,
            "is_ultra_restricted": false
        },
        "blocks": [
            {
                "type": "rich_text",
                "block_id": "OPJ\/",
                "elements": [
                    {
                        "type": "rich_text_section",
                        "elements": [
                            {
                                "type": "user",
                                "user_id": "U010LNECEHE"
                            },
                            {
                                "type": "text",
                                "text": " are you in either of the 'front end' projects?  please join #coronadetective one... "
                            },
                            {
                                "type": "emoji",
                                "name": "slightly_smiling_face"
                            }
                        ]
                    }
                ]
            }
        ],
        "thread_ts": "1586166919.052400",
        "reply_count": 3,
        "reply_users_count": 2,
        "latest_reply": "1586190753.060400",
        "reply_users": [
            "U010LNECEHE",
            "UV1A22N3W"
        ],
        "replies": [
            {
                "user": "U010LNECEHE",
                "ts": "1586189867.058600"
            },
            {
                "user": "UV1A22N3W",
                "ts": "1586190726.059600"
            },
            {
                "user": "UV1A22N3W",
                "ts": "1586190753.060400"
            }
        ],
        "subscribed": false
    },
    {
        "client_msg_id": "b7d672e4-a64e-45c8-beeb-01f4f51a1491",
        "type": "message",
        "text": "the template form says: *be sure to have all updated profiles for all team members.    ---Do we?* ",
        "user": "UV1A22N3W",
        "ts": "1586167246.053000",
        "team": "TUU48M0T1",
        "user_team": "TUU48M0T1",
        "source_team": "TUU48M0T1",
        "user_profile": {
            "avatar_hash": "71f827776ad6",
            "image_72": "https:\/\/avatars.slack-edge.com\/2020-03-09\/988125642964_71f827776ad610af05a2_72.jpg",
            "first_name": "",
            "real_name": "RachelA",
            "display_name": "RachelA",
            "team": "TUU48M0T1",
            "name": "raronoff",
            "is_restricted": false,
            "is_ultra_restricted": false
        },
        "blocks": [
            {
                "type": "rich_text",
                "block_id": "mEj",
                "elements": [
                    {
                        "type": "rich_text_section",
                        "elements": [
                            {
                                "type": "text",
                                "text": "the template form says: "
                            },
                            {
                                "type": "text",
                                "text": "be sure to have all updated profiles for all team members.    ---Do we? ",
                                "style": {
                                    "bold": true
                                }
                            }
                        ]
                    }
                ]
            }
        ]
    },
    {
        "client_msg_id": "a7f433da-6100-4e5c-b9fc-8b45be49f3b6",
        "type": "message",
        "text": "Thanks Rachel we are also pleased to be part of this amazing project and team.",
        "user": "U010YT4BM34",
        "ts": "1586174300.053600",
        "team": "TUU48M0T1",
        "user_team": "TUU48M0T1",
        "source_team": "TUU48M0T1",
        "user_profile": {
            "avatar_hash": "g0469bd67b95",
            "image_72": "https:\/\/secure.gravatar.com\/avatar\/0469bd67b953af82f90970aa384c797b.jpg?s=72&d=https%3A%2F%2Fa.slack-edge.com%2Fdf10d%2Fimg%2Favatars%2Fava_0015-72.png",
            "first_name": "",
            "real_name": "Stephane Fadanka",
            "display_name": "Stephane Fadanka",
            "team": "TUU48M0T1",
            "name": "stephanefadanka",
            "is_restricted": false,
            "is_ultra_restricted": false
        },
        "blocks": [
            {
                "type": "rich_text",
                "block_id": "Grm0v",
                "elements": [
                    {
                        "type": "rich_text_section",
                        "elements": [
                            {
                                "type": "text",
                                "text": "Thanks Rachel we are also pleased to be part of this amazing project and team."
                            }
                        ]
                    }
                ]
            }
        ],
        "thread_ts": "1586158149.045700",
        "parent_user_id": "UV1A22N3W",
        "reactions": [
            {
                "name": "+1",
                "users": [
                    "UV1A22N3W"
                ],
                "count": 1
            }
        ]
    },
    {
        "client_msg_id": "cf6704b4-250a-46e8-acf8-97c1e59ea318",
        "type": "message",
        "text": "Do you mean a link to a Google doc lab motebook?",
        "user": "UV10KBUQG",
        "ts": "1586184427.053900",
        "team": "TUU48M0T1",
        "user_team": "TUU48M0T1",
        "source_team": "TUU48M0T1",
        "user_profile": {
            "avatar_hash": "2deebbf6be3d",
            "image_72": "https:\/\/avatars.slack-edge.com\/2020-03-06\/976932190641_2deebbf6be3d17141d91_72.jpg",
            "first_name": "Sarah",
            "real_name": "Sarah Blossom Ware",
            "display_name": "Sarah Blossom Ware - BioBlaze Community Bio Lab",
            "team": "TUU48M0T1",
            "name": "ware.sarah",
            "is_restricted": false,
            "is_ultra_restricted": false
        },
        "blocks": [
            {
                "type": "rich_text",
                "block_id": "oxDp",
                "elements": [
                    {
                        "type": "rich_text_section",
                        "elements": [
                            {
                                "type": "text",
                                "text": "Do you mean a link to a Google doc lab motebook?"
                            }
                        ]
                    }
                ]
            }
        ],
        "thread_ts": "1586162427.051200",
        "parent_user_id": "UV1A22N3W"
    },
    {
        "client_msg_id": "b2d208b0-677c-4c94-a3a3-fc471a39b95f",
        "type": "message",
        "text": "Sure, or other lab notebook. (I have had good luck with Evernote) you can put it in as extra for your results - as here we have only seen the final pictures...",
        "user": "UV1A22N3W",
        "ts": "1586184688.054100",
        "team": "TUU48M0T1",
        "user_team": "TUU48M0T1",
        "source_team": "TUU48M0T1",
        "user_profile": {
            "avatar_hash": "71f827776ad6",
            "image_72": "https:\/\/avatars.slack-edge.com\/2020-03-09\/988125642964_71f827776ad610af05a2_72.jpg",
            "first_name": "",
            "real_name": "RachelA",
            "display_name": "RachelA",
            "team": "TUU48M0T1",
            "name": "raronoff",
            "is_restricted": false,
            "is_ultra_restricted": false
        },
        "blocks": [
            {
                "type": "rich_text",
                "block_id": "xzI",
                "elements": [
                    {
                        "type": "rich_text_section",
                        "elements": [
                            {
                                "type": "text",
                                "text": "Sure, or other lab notebook. (I have had good luck with Evernote) you can put it in as extra for your results - as here we have only seen the final pictures..."
                            }
                        ]
                    }
                ]
            }
        ],
        "thread_ts": "1586162427.051200",
        "parent_user_id": "UV1A22N3W"
    },
    {
        "client_msg_id": "cd593d05-c220-4a27-b040-52206d989cf8",
        "type": "message",
        "text": "Here is the current simplified template doc going right into multiplexed fluorescence...  Thanks for your input!  <https:\/\/docs.google.com\/document\/d\/1Pou6TPO5heDZcvwUWGV_kbHdXnovnG7ruDu0kKJtiKI\/edit?usp=sharing>",
        "user": "UV1A22N3W",
        "ts": "1586184800.055500",
        "team": "TUU48M0T1",
        "user_team": "TUU48M0T1",
        "source_team": "TUU48M0T1",
        "user_profile": {
            "avatar_hash": "71f827776ad6",
            "image_72": "https:\/\/avatars.slack-edge.com\/2020-03-09\/988125642964_71f827776ad610af05a2_72.jpg",
            "first_name": "",
            "real_name": "RachelA",
            "display_name": "RachelA",
            "team": "TUU48M0T1",
            "name": "raronoff",
            "is_restricted": false,
            "is_ultra_restricted": false
        },
        "blocks": [
            {
                "type": "rich_text",
                "block_id": "1ND",
                "elements": [
                    {
                        "type": "rich_text_section",
                        "elements": [
                            {
                                "type": "text",
                                "text": "Here is the current simplified template doc going right into multiplexed fluorescence...  Thanks for your input!  "
                            },
                            {
                                "type": "link",
                                "url": "https:\/\/docs.google.com\/document\/d\/1Pou6TPO5heDZcvwUWGV_kbHdXnovnG7ruDu0kKJtiKI\/edit?usp=sharing"
                            }
                        ]
                    }
                ]
            }
        ]
    },
    {
        "client_msg_id": "c87b1204-78de-41d6-9b69-7fdaa0e5fe52",
        "type": "message",
        "text": "I am typing my template directly into JOGL for the NEB LAMP project.",
        "user": "UUPQGNNTV",
        "ts": "1586184945.056200",
        "team": "TUU48M0T1",
        "user_team": "TUU48M0T1",
        "source_team": "TUU48M0T1",
        "user_profile": {
            "avatar_hash": "c28127caf7eb",
            "image_72": "https:\/\/avatars.slack-edge.com\/2020-03-07\/989562470694_c28127caf7ebfe67df97_72.jpg",
            "first_name": "",
            "real_name": "Ellen Jorgensen",
            "display_name": "",
            "team": "TUU48M0T1",
            "name": "ejorgensen",
            "is_restricted": false,
            "is_ultra_restricted": false
        },
        "blocks": [
            {
                "type": "rich_text",
                "block_id": "bxD",
                "elements": [
                    {
                        "type": "rich_text_section",
                        "elements": [
                            {
                                "type": "text",
                                "text": "I am typing my template directly into JOGL for the NEB LAMP project."
                            }
                        ]
                    }
                ]
            }
        ]
    },
    {
        "client_msg_id": "56969125-6afa-473e-83a4-3ed1997c956e",
        "type": "message",
        "text": "good! we have much of the template text already ok in the #CoronaDetective project.  but the template has way more info... still not sure how it will all play out when we get to the application form...",
        "user": "UV1A22N3W",
        "ts": "1586185168.057500",
        "team": "TUU48M0T1",
        "user_team": "TUU48M0T1",
        "source_team": "TUU48M0T1",
        "user_profile": {
            "avatar_hash": "71f827776ad6",
            "image_72": "https:\/\/avatars.slack-edge.com\/2020-03-09\/988125642964_71f827776ad610af05a2_72.jpg",
            "first_name": "",
            "real_name": "RachelA",
            "display_name": "RachelA",
            "team": "TUU48M0T1",
            "name": "raronoff",
            "is_restricted": false,
            "is_ultra_restricted": false
        },
        "blocks": [
            {
                "type": "rich_text",
                "block_id": "vHNQM",
                "elements": [
                    {
                        "type": "rich_text_section",
                        "elements": [
                            {
                                "type": "text",
                                "text": "good! we have much of the template text already ok in the #CoronaDetective project.  but the template has way more info... still not sure how it will all play out when we get to the application form..."
                            }
                        ]
                    }
                ]
            }
        ]
    },
    {
        "client_msg_id": "2b58b73b-483e-4957-b891-3127b6ca7520",
        "type": "message",
        "text": "maybe we make an attached doc with the full info?",
        "user": "UV1A22N3W",
        "ts": "1586185187.057900",
        "team": "TUU48M0T1",
        "user_team": "TUU48M0T1",
        "source_team": "TUU48M0T1",
        "user_profile": {
            "avatar_hash": "71f827776ad6",
            "image_72": "https:\/\/avatars.slack-edge.com\/2020-03-09\/988125642964_71f827776ad610af05a2_72.jpg",
            "first_name": "",
            "real_name": "RachelA",
            "display_name": "RachelA",
            "team": "TUU48M0T1",
            "name": "raronoff",
            "is_restricted": false,
            "is_ultra_restricted": false
        },
        "blocks": [
            {
                "type": "rich_text",
                "block_id": "\/DL",
                "elements": [
                    {
                        "type": "rich_text_section",
                        "elements": [
                            {
                                "type": "text",
                                "text": "maybe we make an attached doc with the full info?"
                            }
                        ]
                    }
                ]
            }
        ]
    },
    {
        "client_msg_id": "22c1c282-4c75-4815-b2c8-076e185fcc5a",
        "type": "message",
        "text": "NEB LAMP project link <https:\/\/docs.google.com\/document\/d\/1XSbCZQ6MsiQSZok0DscrwNgz90h-tO-Bsne-I32b4k0\/edit#>",
        "user": "UUPQGNNTV",
        "ts": "1586188535.058200",
        "team": "TUU48M0T1",
        "user_team": "TUU48M0T1",
        "source_team": "TUU48M0T1",
        "user_profile": {
            "avatar_hash": "c28127caf7eb",
            "image_72": "https:\/\/avatars.slack-edge.com\/2020-03-07\/989562470694_c28127caf7ebfe67df97_72.jpg",
            "first_name": "",
            "real_name": "Ellen Jorgensen",
            "display_name": "",
            "team": "TUU48M0T1",
            "name": "ejorgensen",
            "is_restricted": false,
            "is_ultra_restricted": false
        },
        "blocks": [
            {
                "type": "rich_text",
                "block_id": "sK=",
                "elements": [
                    {
                        "type": "rich_text_section",
                        "elements": [
                            {
                                "type": "text",
                                "text": "NEB LAMP project link "
                            },
                            {
                                "type": "link",
                                "url": "https:\/\/docs.google.com\/document\/d\/1XSbCZQ6MsiQSZok0DscrwNgz90h-tO-Bsne-I32b4k0\/edit#"
                            }
                        ]
                    }
                ]
            }
        ]
    },
    {
        "client_msg_id": "26f3be4c-ef7a-41d9-b5b1-d574c96349f1",
        "type": "message",
        "text": "how do I join? I’m down to help out as much as I can.\nBut also my focus is working on these cartridges. But since there is a lot of overlap I’d like to stay involved and we can share what we learn!",
        "user": "U010LNECEHE",
        "ts": "1586189867.058600",
        "team": "TUU48M0T1",
        "user_team": "TUU48M0T1",
        "source_team": "TUU48M0T1",
        "user_profile": {
            "avatar_hash": "58bda3258fcd",
            "image_72": "https:\/\/avatars.slack-edge.com\/2020-03-30\/1036110784064_58bda3258fcd726472e4_72.png",
            "first_name": "Ali",
            "real_name": "Ali Bektaş",
            "display_name": "Ali",
            "team": "TUU48M0T1",
            "name": "cinalibektas",
            "is_restricted": false,
            "is_ultra_restricted": false
        },
        "blocks": [
            {
                "type": "rich_text",
                "block_id": "9pud",
                "elements": [
                    {
                        "type": "rich_text_section",
                        "elements": [
                            {
                                "type": "text",
                                "text": "how do I join? I’m down to help out as much as I can.\nBut also my focus is working on these cartridges. But since there is a lot of overlap I’d like to stay involved and we can share what we learn!"
                            }
                        ]
                    }
                ]
            }
        ],
        "thread_ts": "1586166919.052400",
        "parent_user_id": "UV1A22N3W"
    },
    {
        "client_msg_id": "BEAFC741-3B85-453A-A756-F15B29AA6ED3",
        "type": "message",
        "text": "sounds good. will see if I can just add you...",
        "user": "UV1A22N3W",
        "ts": "1586190726.059600",
        "team": "TUU48M0T1",
        "user_team": "TUU48M0T1",
        "source_team": "TUU48M0T1",
        "user_profile": {
            "avatar_hash": "71f827776ad6",
            "image_72": "https:\/\/avatars.slack-edge.com\/2020-03-09\/988125642964_71f827776ad610af05a2_72.jpg",
            "first_name": "",
            "real_name": "RachelA",
            "display_name": "RachelA",
            "team": "TUU48M0T1",
            "name": "raronoff",
            "is_restricted": false,
            "is_ultra_restricted": false
        },
        "blocks": [
            {
                "type": "rich_text",
                "block_id": "UT52",
                "elements": [
                    {
                        "type": "rich_text_section",
                        "elements": [
                            {
                                "type": "text",
                                "text": "sounds good. will see if I can just add you..."
                            }
                        ]
                    }
                ]
            }
        ],
        "thread_ts": "1586166919.052400",
        "parent_user_id": "UV1A22N3W"
    },
    {
        "client_msg_id": "C8BA3F4F-4F34-4130-A474-8EBF22BF0DE6",
        "type": "message",
        "text": "maybe you will make a cartridge project? :)",
        "user": "UV1A22N3W",
        "ts": "1586190753.060400",
        "team": "TUU48M0T1",
        "user_team": "TUU48M0T1",
        "source_team": "TUU48M0T1",
        "user_profile": {
            "avatar_hash": "71f827776ad6",
            "image_72": "https:\/\/avatars.slack-edge.com\/2020-03-09\/988125642964_71f827776ad610af05a2_72.jpg",
            "first_name": "",
            "real_name": "RachelA",
            "display_name": "RachelA",
            "team": "TUU48M0T1",
            "name": "raronoff",
            "is_restricted": false,
            "is_ultra_restricted": false
        },
        "blocks": [
            {
                "type": "rich_text",
                "block_id": "Rld",
                "elements": [
                    {
                        "type": "rich_text_section",
                        "elements": [
                            {
                                "type": "text",
                                "text": "maybe you will make a cartridge project? :)"
                            }
                        ]
                    }
                ]
            }
        ],
        "thread_ts": "1586166919.052400",
        "parent_user_id": "UV1A22N3W"
    },
    {
        "client_msg_id": "09a101f5-3ee0-49e5-8504-b3665bcb5515",
        "type": "message",
        "text": "So I just did a little work on the NEB doc, taking a break. Will pick it up again later today. Feel free to jump in. My feeling is although they have pretty high word counts we don't have to max them out to have an effective application. What we are proposing is Phase 1 so we can go back later and ask for funding to, for example, figure out how to make our own DIY Master MIx.",
        "user": "UUPQGNNTV",
        "ts": "1586190925.062800",
        "team": "TUU48M0T1",
        "user_team": "TUU48M0T1",
        "source_team": "TUU48M0T1",
        "user_profile": {
            "avatar_hash": "c28127caf7eb",
            "image_72": "https:\/\/avatars.slack-edge.com\/2020-03-07\/989562470694_c28127caf7ebfe67df97_72.jpg",
            "first_name": "",
            "real_name": "Ellen Jorgensen",
            "display_name": "",
            "team": "TUU48M0T1",
            "name": "ejorgensen",
            "is_restricted": false,
            "is_ultra_restricted": false
        },
        "blocks": [
            {
                "type": "rich_text",
                "block_id": "hfa3",
                "elements": [
                    {
                        "type": "rich_text_section",
                        "elements": [
                            {
                                "type": "text",
                                "text": "So I just did a little work on the NEB doc, taking a break. Will pick it up again later today. Feel free to jump in. My feeling is although they have pretty high word counts we don't have to max them out to have an effective application. What we are proposing is Phase 1 so we can go back later and ask for funding to, for example, figure out how to make our own DIY Master MIx."
                            }
                        ]
                    }
                ]
            }
        ],
        "reactions": [
            {
                "name": "100",
                "users": [
                    "UV3URUKK5",
                    "UV10KBUQG"
                ],
                "count": 2
            }
        ]
    },
    {
        "client_msg_id": "2f19752f-dd55-4995-a9d8-38fabaaca3c8",
        "type": "message",
        "text": "what is progress on the budgeting?  where should we all put things together?",
        "user": "UV1A22N3W",
        "ts": "1586201049.063500",
        "team": "TUU48M0T1",
        "user_team": "TUU48M0T1",
        "source_team": "TUU48M0T1",
        "user_profile": {
            "avatar_hash": "71f827776ad6",
            "image_72": "https:\/\/avatars.slack-edge.com\/2020-03-09\/988125642964_71f827776ad610af05a2_72.jpg",
            "first_name": "",
            "real_name": "RachelA",
            "display_name": "RachelA",
            "team": "TUU48M0T1",
            "name": "raronoff",
            "is_restricted": false,
            "is_ultra_restricted": false
        },
        "blocks": [
            {
                "type": "rich_text",
                "block_id": "\/0u0",
                "elements": [
                    {
                        "type": "rich_text_section",
                        "elements": [
                            {
                                "type": "text",
                                "text": "what is progress on the budgeting?  where should we all put things together?"
                            }
                        ]
                    }
                ]
            }
        ]
    },
    {
        "client_msg_id": "878fa688-3507-4c39-94ca-df478804c6b9",
        "type": "message",
        "text": "We made a new sheet in the drive here called LAMP Budgets, and thought that each partner could put in what they estimate: <https:\/\/drive.google.com\/drive\/folders\/1NcCO5hG-6eOueuouSHISudriI1ZIcviy?usp=sharing>",
        "user": "UV1A22N3W",
        "ts": "1586202708.064500",
        "team": "TUU48M0T1",
        "user_team": "TUU48M0T1",
        "source_team": "TUU48M0T1",
        "user_profile": {
            "avatar_hash": "71f827776ad6",
            "image_72": "https:\/\/avatars.slack-edge.com\/2020-03-09\/988125642964_71f827776ad610af05a2_72.jpg",
            "first_name": "",
            "real_name": "RachelA",
            "display_name": "RachelA",
            "team": "TUU48M0T1",
            "name": "raronoff",
            "is_restricted": false,
            "is_ultra_restricted": false
        },
        "blocks": [
            {
                "type": "rich_text",
                "block_id": "jxifK",
                "elements": [
                    {
                        "type": "rich_text_section",
                        "elements": [
                            {
                                "type": "text",
                                "text": "We made a new sheet in the drive here called LAMP Budgets, and thought that each partner could put in what they estimate: "
                            },
                            {
                                "type": "link",
                                "url": "https:\/\/drive.google.com\/drive\/folders\/1NcCO5hG-6eOueuouSHISudriI1ZIcviy?usp=sharing"
                            }
                        ]
                    }
                ]
            }
        ]
    },
    {
        "client_msg_id": "e5e772ab-1a4c-49dd-95fc-59a78ec1057f",
        "type": "message",
        "text": "Hi all,",
        "user": "U010W2Z4MMZ",
        "ts": "1586203484.064800",
        "team": "TUU48M0T1",
        "user_team": "TUU48M0T1",
        "source_team": "TUU48M0T1",
        "user_profile": {
            "avatar_hash": "f45399db1932",
            "image_72": "https:\/\/avatars.slack-edge.com\/2020-04-01\/1030367017170_f45399db193262631758_72.png",
            "first_name": "Isabella",
            "real_name": "Isabella Zorra",
            "display_name": "Izzi",
            "team": "TUU48M0T1",
            "name": "miss.zorra",
            "is_restricted": false,
            "is_ultra_restricted": false
        },
        "blocks": [
            {
                "type": "rich_text",
                "block_id": "auSTS",
                "elements": [
                    {
                        "type": "rich_text_section",
                        "elements": [
                            {
                                "type": "text",
                                "text": "Hi all,"
                            }
                        ]
                    }
                ]
            }
        ]
    },
    {
        "client_msg_id": "ea8f9c6a-8d39-48b9-b21a-30304d6d35b6",
        "type": "message",
        "text": "Please find our budget in the following Link. <@UUPQGNNTV> Ellen I invited you to edit this same document so if you already have that email this is redundant!",
        "user": "U010W2Z4MMZ",
        "ts": "1586203533.065800",
        "team": "TUU48M0T1",
        "user_team": "TUU48M0T1",
        "source_team": "TUU48M0T1",
        "user_profile": {
            "avatar_hash": "f45399db1932",
            "image_72": "https:\/\/avatars.slack-edge.com\/2020-04-01\/1030367017170_f45399db193262631758_72.png",
            "first_name": "Isabella",
            "real_name": "Isabella Zorra",
            "display_name": "Izzi",
            "team": "TUU48M0T1",
            "name": "miss.zorra",
            "is_restricted": false,
            "is_ultra_restricted": false
        },
        "edited": {
            "user": "U010W2Z4MMZ",
            "ts": "1586203630.000000"
        },
        "blocks": [
            {
                "type": "rich_text",
                "block_id": "\/B9VU",
                "elements": [
                    {
                        "type": "rich_text_section",
                        "elements": [
                            {
                                "type": "text",
                                "text": "Please find our budget in the following Link. "
                            },
                            {
                                "type": "user",
                                "user_id": "UUPQGNNTV"
                            },
                            {
                                "type": "text",
                                "text": " Ellen I invited you to edit this same document so if you already have that email this is redundant!"
                            }
                        ]
                    }
                ]
            }
        ]
    },
    {
        "client_msg_id": "2cb99519-48b2-49e1-81cc-e60e55ea6dc1",
        "type": "message",
        "text": "<https:\/\/docs.google.com\/spreadsheets\/d\/1NO-lL5wF3aClbzEb5uSgLjTTJUHF_PD-V3Oy4fbK59w\/edit?usp=sharing>",
        "user": "U010W2Z4MMZ",
        "ts": "1586203537.066000",
        "team": "TUU48M0T1",
        "user_team": "TUU48M0T1",
        "source_team": "TUU48M0T1",
        "user_profile": {
            "avatar_hash": "f45399db1932",
            "image_72": "https:\/\/avatars.slack-edge.com\/2020-04-01\/1030367017170_f45399db193262631758_72.png",
            "first_name": "Isabella",
            "real_name": "Isabella Zorra",
            "display_name": "Izzi",
            "team": "TUU48M0T1",
            "name": "miss.zorra",
            "is_restricted": false,
            "is_ultra_restricted": false
        },
        "blocks": [
            {
                "type": "rich_text",
                "block_id": "70o",
                "elements": [
                    {
                        "type": "rich_text_section",
                        "elements": [
                            {
                                "type": "link",
                                "url": "https:\/\/docs.google.com\/spreadsheets\/d\/1NO-lL5wF3aClbzEb5uSgLjTTJUHF_PD-V3Oy4fbK59w\/edit?usp=sharing"
                            }
                        ]
                    }
                ]
            }
        ]
    },
    {
        "client_msg_id": "46a0a840-dc8a-4aca-964a-ca61b6a6224d",
        "type": "message",
        "text": "woah! 50ml of FBS for 84...",
        "user": "UV1A22N3W",
        "ts": "1586203979.067100",
        "team": "TUU48M0T1",
        "user_team": "TUU48M0T1",
        "source_team": "TUU48M0T1",
        "user_profile": {
            "avatar_hash": "71f827776ad6",
            "image_72": "https:\/\/avatars.slack-edge.com\/2020-03-09\/988125642964_71f827776ad610af05a2_72.jpg",
            "first_name": "",
            "real_name": "RachelA",
            "display_name": "RachelA",
            "team": "TUU48M0T1",
            "name": "raronoff",
            "is_restricted": false,
            "is_ultra_restricted": false
        },
        "blocks": [
            {
                "type": "rich_text",
                "block_id": "nXZW",
                "elements": [
                    {
                        "type": "rich_text_section",
                        "elements": [
                            {
                                "type": "text",
                                "text": "woah! 50ml of FBS for 84..."
                            }
                        ]
                    }
                ]
            }
        ]
    },
    {
        "client_msg_id": "524450f3-5399-4439-9acd-591d64ed5fe3",
        "type": "message",
        "text": "(again, I am not sure playing with the VTM will be most useful - unless you have researched it and really think that it is what is being used everywhere...)",
        "user": "UV1A22N3W",
        "ts": "1586204065.068600",
        "team": "TUU48M0T1",
        "user_team": "TUU48M0T1",
        "source_team": "TUU48M0T1",
        "user_profile": {
            "avatar_hash": "71f827776ad6",
            "image_72": "https:\/\/avatars.slack-edge.com\/2020-03-09\/988125642964_71f827776ad610af05a2_72.jpg",
            "first_name": "",
            "real_name": "RachelA",
            "display_name": "RachelA",
            "team": "TUU48M0T1",
            "name": "raronoff",
            "is_restricted": false,
            "is_ultra_restricted": false
        },
        "blocks": [
            {
                "type": "rich_text",
                "block_id": "b=77k",
                "elements": [
                    {
                        "type": "rich_text_section",
                        "elements": [
                            {
                                "type": "text",
                                "text": "(again, I am not sure playing with the VTM will be most useful - unless you have researched it and really think that it is what is being used everywhere...)"
                            }
                        ]
                    }
                ]
            }
        ]
    },
    {
        "client_msg_id": "1cfe7b0a-29ec-4381-adfb-c9ff60ca9763",
        "type": "message",
        "text": "VTM is the standard at the moment.  We should also look into testing alternative buffers.",
        "user": "UV10KBUQG",
        "ts": "1586204155.069500",
        "team": "TUU48M0T1",
        "user_team": "TUU48M0T1",
        "source_team": "TUU48M0T1",
        "user_profile": {
            "avatar_hash": "2deebbf6be3d",
            "image_72": "https:\/\/avatars.slack-edge.com\/2020-03-06\/976932190641_2deebbf6be3d17141d91_72.jpg",
            "first_name": "Sarah",
            "real_name": "Sarah Blossom Ware",
            "display_name": "Sarah Blossom Ware - BioBlaze Community Bio Lab",
            "team": "TUU48M0T1",
            "name": "ware.sarah",
            "is_restricted": false,
            "is_ultra_restricted": false
        },
        "blocks": [
            {
                "type": "rich_text",
                "block_id": "z2Q",
                "elements": [
                    {
                        "type": "rich_text_section",
                        "elements": [
                            {
                                "type": "text",
                                "text": "VTM is the standard at the moment.  We should also look into testing alternative buffers."
                            }
                        ]
                    }
                ]
            }
        ]
    },
    {
        "client_msg_id": "349bb3b6-21af-4ef7-804a-dafdb3f0c816",
        "type": "message",
        "text": "<https:\/\/www.hensomed.com\/products\/covid-19-universal-viral-transport-sample-collection-kits\/>",
        "user": "UV10KBUQG",
        "ts": "1586204312.069800",
        "team": "TUU48M0T1",
        "user_team": "TUU48M0T1",
        "source_team": "TUU48M0T1",
        "user_profile": {
            "avatar_hash": "2deebbf6be3d",
            "image_72": "https:\/\/avatars.slack-edge.com\/2020-03-06\/976932190641_2deebbf6be3d17141d91_72.jpg",
            "first_name": "Sarah",
            "real_name": "Sarah Blossom Ware",
            "display_name": "Sarah Blossom Ware - BioBlaze Community Bio Lab",
            "team": "TUU48M0T1",
            "name": "ware.sarah",
            "is_restricted": false,
            "is_ultra_restricted": false
        },
        "attachments": [
            {
                "service_name": "Henso Medical",
                "title": "COVID-19 Universal Viral Transport Sample Collection Kits",
                "title_link": "https:\/\/www.hensomed.com\/products\/covid-19-universal-viral-transport-sample-collection-kits\/",
                "text": "COVID-19 Universal Viral Transport Sample Collection Kits is suitable for transport, maintenance and long-term freeze storage of Coronavirus.",
                "fallback": "Henso Medical: COVID-19 Universal Viral Transport Sample Collection Kits",
                "thumb_url": "https:\/\/www.hensomed.com\/wp-content\/uploads\/sites\/176\/2020\/03\/Coronavirus-Universal-Viral-Transport-Sample-Collection-Kit-with-Nasal-Swab.jpg",
                "from_url": "https:\/\/www.hensomed.com\/products\/covid-19-universal-viral-transport-sample-collection-kits\/",
                "thumb_width": 650,
                "thumb_height": 650,
                "service_icon": "http:\/\/www.hensomed.com\/wp-content\/uploads\/sites\/176\/2017\/06\/apple-touch-icon-57x57.png",
                "id": 1,
                "original_url": "https:\/\/www.hensomed.com\/products\/covid-19-universal-viral-transport-sample-collection-kits\/"
            }
        ],
        "blocks": [
            {
                "type": "rich_text",
                "block_id": "Iq7y",
                "elements": [
                    {
                        "type": "rich_text_section",
                        "elements": [
                            {
                                "type": "link",
                                "url": "https:\/\/www.hensomed.com\/products\/covid-19-universal-viral-transport-sample-collection-kits\/"
                            }
                        ]
                    }
                ]
            }
        ]
    },
    {
        "client_msg_id": "3c956575-16e1-4268-a84a-859b3020e2dc",
        "type": "message",
        "text": "No buffer seems to work very well for nucleic acid detection. FBS is reported to inhibit some direct-lysate RT-PCR reactions.",
        "user": "UVBQDE7R8",
        "ts": "1586204608.071000",
        "team": "TUU48M0T1",
        "user_team": "TUU48M0T1",
        "source_team": "TUU48M0T1",
        "user_profile": {
            "avatar_hash": "gb77d2e5c821",
            "image_72": "https:\/\/secure.gravatar.com\/avatar\/b77d2e5c8214c9643410000e998ef9f4.jpg?s=72&d=https%3A%2F%2Fa.slack-edge.com%2Fdf10d%2Fimg%2Favatars%2Fava_0018-72.png",
            "first_name": "",
            "real_name": "Darach",
            "display_name": "Darach",
            "team": "TUU48M0T1",
            "name": "dchmiller",
            "is_restricted": false,
            "is_ultra_restricted": false
        },
        "blocks": [
            {
                "type": "rich_text",
                "block_id": "aSiI\/",
                "elements": [
                    {
                        "type": "rich_text_section",
                        "elements": [
                            {
                                "type": "text",
                                "text": "No buffer seems to work very well for nucleic acid detection. FBS is reported to inhibit some direct-lysate RT-PCR reactions."
                            }
                        ]
                    }
                ]
            }
        ]
    },
    {
        "client_msg_id": "3a23fdc8-d2ab-40a0-82c5-59ac0813bbd5",
        "type": "message",
        "text": "But, everyone uses it, so ....",
        "user": "UVBQDE7R8",
        "ts": "1586204618.071200",
        "team": "TUU48M0T1",
        "user_team": "TUU48M0T1",
        "source_team": "TUU48M0T1",
        "user_profile": {
            "avatar_hash": "gb77d2e5c821",
            "image_72": "https:\/\/secure.gravatar.com\/avatar\/b77d2e5c8214c9643410000e998ef9f4.jpg?s=72&d=https%3A%2F%2Fa.slack-edge.com%2Fdf10d%2Fimg%2Favatars%2Fava_0018-72.png",
            "first_name": "",
            "real_name": "Darach",
            "display_name": "Darach",
            "team": "TUU48M0T1",
            "name": "dchmiller",
            "is_restricted": false,
            "is_ultra_restricted": false
        },
        "blocks": [
            {
                "type": "rich_text",
                "block_id": "hNZvR",
                "elements": [
                    {
                        "type": "rich_text_section",
                        "elements": [
                            {
                                "type": "text",
                                "text": "But, everyone uses it, so ...."
                            }
                        ]
                    }
                ]
            }
        ]
    },
    {
        "type": "message",
        "text": "<@UUPQGNNTV> <@UV1A22N3W> Link to BioBlaze Lab Notebook NEB LAMP Colorimetric Assay for SARS-CoV-2 Detection: <https:\/\/docs.google.com\/document\/d\/127-3Mc7t6XrcfD2bZ46jdkNLu-XIcNKzB967aWop-Nc\/edit?usp=sharing>",
        "files": [
            {
                "id": "F011EH554NA",
                "created": 1586204766,
                "timestamp": 1586204766,
                "name": "BioBlaze Lab Notebook NEB LAMP Colorimetric Assay for SARS-CoV-2 Detection",
                "title": "BioBlaze Lab Notebook NEB LAMP Colorimetric Assay for SARS-CoV-2 Detection",
                "mimetype": "application\/vnd.google-apps.document",
                "filetype": "gdoc",
                "pretty_type": "GSuite Document",
                "user": "UV10KBUQG",
                "editable": false,
                "size": 3696,
                "mode": "external",
                "is_external": true,
                "external_type": "gdrive",
                "is_public": true,
                "public_url_shared": false,
                "display_as_bot": false,
                "username": "",
                "url_private": "https:\/\/docs.google.com\/document\/d\/127-3Mc7t6XrcfD2bZ46jdkNLu-XIcNKzB967aWop-Nc\/edit?usp=sharing",
                "thumb_64": "https:\/\/files.slack.com\/files-tmb\/TUU48M0T1-F011EH554NA-f29f5da7f8\/bioblaze_lab_notebook_neb_lamp_colorimetric_assay_for_sars-cov-2_detection_64.png?t=xoxe-980144714919-1133254701825-1120841107731-daf595b5a7d6c9028b0b02a925032e36",
                "thumb_80": "https:\/\/files.slack.com\/files-tmb\/TUU48M0T1-F011EH554NA-f29f5da7f8\/bioblaze_lab_notebook_neb_lamp_colorimetric_assay_for_sars-cov-2_detection_80.png?t=xoxe-980144714919-1133254701825-1120841107731-daf595b5a7d6c9028b0b02a925032e36",
                "thumb_360": "https:\/\/files.slack.com\/files-tmb\/TUU48M0T1-F011EH554NA-f29f5da7f8\/bioblaze_lab_notebook_neb_lamp_colorimetric_assay_for_sars-cov-2_detection_360.png?t=xoxe-980144714919-1133254701825-1120841107731-daf595b5a7d6c9028b0b02a925032e36",
                "thumb_360_w": 278,
                "thumb_360_h": 360,
                "thumb_480": "https:\/\/files.slack.com\/files-tmb\/TUU48M0T1-F011EH554NA-f29f5da7f8\/bioblaze_lab_notebook_neb_lamp_colorimetric_assay_for_sars-cov-2_detection_480.png?t=xoxe-980144714919-1133254701825-1120841107731-daf595b5a7d6c9028b0b02a925032e36",
                "thumb_480_w": 371,
                "thumb_480_h": 480,
                "thumb_160": "https:\/\/files.slack.com\/files-tmb\/TUU48M0T1-F011EH554NA-f29f5da7f8\/bioblaze_lab_notebook_neb_lamp_colorimetric_assay_for_sars-cov-2_detection_160.png?t=xoxe-980144714919-1133254701825-1120841107731-daf595b5a7d6c9028b0b02a925032e36",
                "thumb_720": "https:\/\/files.slack.com\/files-tmb\/TUU48M0T1-F011EH554NA-f29f5da7f8\/bioblaze_lab_notebook_neb_lamp_colorimetric_assay_for_sars-cov-2_detection_720.png?t=xoxe-980144714919-1133254701825-1120841107731-daf595b5a7d6c9028b0b02a925032e36",
                "thumb_720_w": 557,
                "thumb_720_h": 720,
                "thumb_800": "https:\/\/files.slack.com\/files-tmb\/TUU48M0T1-F011EH554NA-f29f5da7f8\/bioblaze_lab_notebook_neb_lamp_colorimetric_assay_for_sars-cov-2_detection_800.png?t=xoxe-980144714919-1133254701825-1120841107731-daf595b5a7d6c9028b0b02a925032e36",
                "thumb_800_w": 800,
                "thumb_800_h": 1035,
                "thumb_960": "https:\/\/files.slack.com\/files-tmb\/TUU48M0T1-F011EH554NA-f29f5da7f8\/bioblaze_lab_notebook_neb_lamp_colorimetric_assay_for_sars-cov-2_detection_960.png?t=xoxe-980144714919-1133254701825-1120841107731-daf595b5a7d6c9028b0b02a925032e36",
                "thumb_960_w": 742,
                "thumb_960_h": 960,
                "thumb_1024": "https:\/\/files.slack.com\/files-tmb\/TUU48M0T1-F011EH554NA-f29f5da7f8\/bioblaze_lab_notebook_neb_lamp_colorimetric_assay_for_sars-cov-2_detection_1024.png?t=xoxe-980144714919-1133254701825-1120841107731-daf595b5a7d6c9028b0b02a925032e36",
                "thumb_1024_w": 791,
                "thumb_1024_h": 1024,
                "image_exif_rotation": 1,
                "original_w": 800,
                "original_h": 1035,
                "thumb_tiny": "AwAwACXSJxRuobpTdvvQA7J9KUUwAd8mnDAoAWiiigBr9qB0oYZxS0AJ3paTuaWgBR0ooHSigBD7U3cScH9Kfik2igBPxNOHSkwKWgAooooA\/9k=",
                "permalink": "https:\/\/open-covid19.slack.com\/files\/UV10KBUQG\/F011EH554NA\/bioblaze_lab_notebook_neb_lamp_colorimetric_assay_for_sars-cov-2_detection",
                "is_starred": false,
                "external_id": "127-3Mc7t6XrcfD2bZ46jdkNLu-XIcNKzB967aWop-Nc",
                "external_url": "https:\/\/docs.google.com\/document\/d\/127-3Mc7t6XrcfD2bZ46jdkNLu-XIcNKzB967aWop-Nc\/edit?usp=sharing",
                "has_rich_preview": true
            }
        ],
        "upload": false,
        "blocks": [
            {
                "type": "rich_text",
                "block_id": "Q83",
                "elements": [
                    {
                        "type": "rich_text_section",
                        "elements": [
                            {
                                "type": "user",
                                "user_id": "UUPQGNNTV"
                            },
                            {
                                "type": "text",
                                "text": " "
                            },
                            {
                                "type": "user",
                                "user_id": "UV1A22N3W"
                            },
                            {
                                "type": "text",
                                "text": " Link to BioBlaze Lab Notebook NEB LAMP Colorimetric Assay for SARS-CoV-2 Detection: "
                            },
                            {
                                "type": "link",
                                "url": "https:\/\/docs.google.com\/document\/d\/127-3Mc7t6XrcfD2bZ46jdkNLu-XIcNKzB967aWop-Nc\/edit?usp=sharing"
                            }
                        ]
                    }
                ]
            }
        ],
        "user": "UV10KBUQG",
        "display_as_bot": false,
        "x_files": [
            "F011EH554NA"
        ],
        "ts": "1586204764.071900",
        "client_msg_id": "cdbec360-c4dd-4218-8efa-654164f125fb",
        "reactions": [
            {
                "name": "+1",
                "users": [
                    "UV1A22N3W"
                ],
                "count": 1
            }
        ]
    },
    {
        "client_msg_id": "484781a3-ddd6-4794-9a6b-b8f14f8e92b1",
        "type": "message",
        "text": "project 181 is almost set and applied (but we still need some budget details!  see above and add in, if you are interested!!",
        "user": "UV1A22N3W",
        "ts": "1586212645.073100",
        "team": "TUU48M0T1",
        "user_team": "TUU48M0T1",
        "source_team": "TUU48M0T1",
        "user_profile": {
            "avatar_hash": "71f827776ad6",
            "image_72": "https:\/\/avatars.slack-edge.com\/2020-03-09\/988125642964_71f827776ad610af05a2_72.jpg",
            "first_name": "",
            "real_name": "RachelA",
            "display_name": "RachelA",
            "team": "TUU48M0T1",
            "name": "raronoff",
            "is_restricted": false,
            "is_ultra_restricted": false
        },
        "blocks": [
            {
                "type": "rich_text",
                "block_id": "A=B",
                "elements": [
                    {
                        "type": "rich_text_section",
                        "elements": [
                            {
                                "type": "text",
                                "text": "project 181 is almost set and applied (but we still need some budget details!  see above and add in, if you are interested!!"
                            }
                        ]
                    }
                ]
            }
        ]
    },
    {
        "client_msg_id": "efafd1f9-6012-4e04-882f-ae56475fd3da",
        "type": "message",
        "text": "<@UV5CCJ9RC> we missed you today, but I wonder if you would like to be an admin also for the project page?  (tell me if you don't like it, and I will change it...) :slightly_smiling_face:",
        "user": "UV1A22N3W",
        "ts": "1586212727.074000",
        "team": "TUU48M0T1",
        "user_team": "TUU48M0T1",
        "source_team": "TUU48M0T1",
        "user_profile": {
            "avatar_hash": "71f827776ad6",
            "image_72": "https:\/\/avatars.slack-edge.com\/2020-03-09\/988125642964_71f827776ad610af05a2_72.jpg",
            "first_name": "",
            "real_name": "RachelA",
            "display_name": "RachelA",
            "team": "TUU48M0T1",
            "name": "raronoff",
            "is_restricted": false,
            "is_ultra_restricted": false
        },
        "blocks": [
            {
                "type": "rich_text",
                "block_id": "mZm",
                "elements": [
                    {
                        "type": "rich_text_section",
                        "elements": [
                            {
                                "type": "user",
                                "user_id": "UV5CCJ9RC"
                            },
                            {
                                "type": "text",
                                "text": " we missed you today, but I wonder if you would like to be an admin also for the project page?  (tell me if you don't like it, and I will change it...) "
                            },
                            {
                                "type": "emoji",
                                "name": "slightly_smiling_face"
                            }
                        ]
                    }
                ]
            }
        ],
        "thread_ts": "1586212727.074000",
        "reply_count": 1,
        "reply_users_count": 1,
        "latest_reply": "1586258471.088200",
        "reply_users": [
            "UV5CCJ9RC"
        ],
        "replies": [
            {
                "user": "UV5CCJ9RC",
                "ts": "1586258471.088200"
            }
        ],
        "subscribed": false
    },
    {
        "client_msg_id": "e495f297-7428-4354-a816-78512b16fad7",
        "type": "message",
        "text": "<@UV1A22N3W> I will not ask for funding related to the QUASR LAMP in this first round.",
        "user": "UV10KBUQG",
        "ts": "1586218641.075500",
        "team": "TUU48M0T1",
        "user_team": "TUU48M0T1",
        "source_team": "TUU48M0T1",
        "user_profile": {
            "avatar_hash": "2deebbf6be3d",
            "image_72": "https:\/\/avatars.slack-edge.com\/2020-03-06\/976932190641_2deebbf6be3d17141d91_72.jpg",
            "first_name": "Sarah",
            "real_name": "Sarah Blossom Ware",
            "display_name": "Sarah Blossom Ware - BioBlaze Community Bio Lab",
            "team": "TUU48M0T1",
            "name": "ware.sarah",
            "is_restricted": false,
            "is_ultra_restricted": false
        },
        "blocks": [
            {
                "type": "rich_text",
                "block_id": "uzFH6",
                "elements": [
                    {
                        "type": "rich_text_section",
                        "elements": [
                            {
                                "type": "user",
                                "user_id": "UV1A22N3W"
                            },
                            {
                                "type": "text",
                                "text": " I will not ask for funding related to the QUASR LAMP in this first round."
                            }
                        ]
                    }
                ]
            }
        ],
        "reactions": [
            {
                "name": "+1",
                "users": [
                    "UV1A22N3W"
                ],
                "count": 1
            }
        ]
    },
    {
        "client_msg_id": "872bd507-1185-4a87-a119-5c9e09eda154",
        "type": "message",
        "text": "<@U010W2Z4MMZ> this budget is amazing! I intend to copy most of it for my lab's budget. I worked on the text earlier and put it into JOGL, then left and found it was not saved :disappointed: so I am in the process of rewriting in the shared doc for submission. Maybe to make it simple, whoever wants to submit for this current round for the NEB LAMP project should start with Izzi's budget and add or subtract as necessary. Please upload your budget to the following folder: <https:\/\/drive.google.com\/drive\/folders\/11Tp3P_qsGYzEzLAZ584mIEZUEjobtwvm?usp=sharing>",
        "user": "UUPQGNNTV",
        "ts": "1586220683.078700",
        "team": "TUU48M0T1",
        "user_team": "TUU48M0T1",
        "source_team": "TUU48M0T1",
        "user_profile": {
            "avatar_hash": "c28127caf7eb",
            "image_72": "https:\/\/avatars.slack-edge.com\/2020-03-07\/989562470694_c28127caf7ebfe67df97_72.jpg",
            "first_name": "",
            "real_name": "Ellen Jorgensen",
            "display_name": "",
            "team": "TUU48M0T1",
            "name": "ejorgensen",
            "is_restricted": false,
            "is_ultra_restricted": false
        },
        "blocks": [
            {
                "type": "rich_text",
                "block_id": "Mj7",
                "elements": [
                    {
                        "type": "rich_text_section",
                        "elements": [
                            {
                                "type": "user",
                                "user_id": "U010W2Z4MMZ"
                            },
                            {
                                "type": "text",
                                "text": " this budget is amazing! I intend to copy most of it for my lab's budget. I worked on the text earlier and put it into JOGL, then left and found it was not saved "
                            },
                            {
                                "type": "emoji",
                                "name": "disappointed"
                            },
                            {
                                "type": "text",
                                "text": " so I am in the process of rewriting in the shared doc for submission. Maybe to make it simple, whoever wants to submit for this current round for the NEB LAMP project should start with Izzi's budget and add or subtract as necessary. Please upload your budget to the following folder: "
                            },
                            {
                                "type": "link",
                                "url": "https:\/\/drive.google.com\/drive\/folders\/11Tp3P_qsGYzEzLAZ584mIEZUEjobtwvm?usp=sharing"
                            }
                        ]
                    }
                ]
            }
        ],
        "reactions": [
            {
                "name": "+1",
                "users": [
                    "UV10KBUQG"
                ],
                "count": 1
            }
        ]
    },
    {
        "client_msg_id": "479387f4-88a0-440c-8725-d3f6195647e3",
        "type": "message",
        "text": "<@U010W2Z4MMZ> I uploaded your budget file to the folder.",
        "user": "UUPQGNNTV",
        "ts": "1586220782.080100",
        "team": "TUU48M0T1",
        "user_team": "TUU48M0T1",
        "source_team": "TUU48M0T1",
        "user_profile": {
            "avatar_hash": "c28127caf7eb",
            "image_72": "https:\/\/avatars.slack-edge.com\/2020-03-07\/989562470694_c28127caf7ebfe67df97_72.jpg",
            "first_name": "",
            "real_name": "Ellen Jorgensen",
            "display_name": "",
            "team": "TUU48M0T1",
            "name": "ejorgensen",
            "is_restricted": false,
            "is_ultra_restricted": false
        },
        "blocks": [
            {
                "type": "rich_text",
                "block_id": "TD5",
                "elements": [
                    {
                        "type": "rich_text_section",
                        "elements": [
                            {
                                "type": "user",
                                "user_id": "U010W2Z4MMZ"
                            },
                            {
                                "type": "text",
                                "text": " I uploaded your budget file to the folder."
                            }
                        ]
                    }
                ]
            }
        ]
    },
    {
        "client_msg_id": "771c04c3-3ee3-4c57-b58e-b047b951b186",
        "type": "message",
        "text": "<@UUPQGNNTV> We worked really hard on that budget, along with <@U0100GHS29E>. Hope it's useful for you and others.",
        "user": "UV10KBUQG",
        "ts": "1586220804.080700",
        "team": "TUU48M0T1",
        "user_team": "TUU48M0T1",
        "source_team": "TUU48M0T1",
        "user_profile": {
            "avatar_hash": "2deebbf6be3d",
            "image_72": "https:\/\/avatars.slack-edge.com\/2020-03-06\/976932190641_2deebbf6be3d17141d91_72.jpg",
            "first_name": "Sarah",
            "real_name": "Sarah Blossom Ware",
            "display_name": "Sarah Blossom Ware - BioBlaze Community Bio Lab",
            "team": "TUU48M0T1",
            "name": "ware.sarah",
            "is_restricted": false,
            "is_ultra_restricted": false
        },
        "edited": {
            "user": "UV10KBUQG",
            "ts": "1586225126.000000"
        },
        "blocks": [
            {
                "type": "rich_text",
                "block_id": "SxE",
                "elements": [
                    {
                        "type": "rich_text_section",
                        "elements": [
                            {
                                "type": "user",
                                "user_id": "UUPQGNNTV"
                            },
                            {
                                "type": "text",
                                "text": " We worked really hard on that budget, along with "
                            },
                            {
                                "type": "user",
                                "user_id": "U0100GHS29E"
                            },
                            {
                                "type": "text",
                                "text": ". Hope it's useful for you and others."
                            }
                        ]
                    }
                ]
            }
        ]
    },
    {
        "client_msg_id": "f254dd1f-2128-4d88-a9cc-043983602271",
        "type": "message",
        "text": "<@UUPQGNNTV> What do you want me to work on now to help get this submitted tonight?",
        "user": "UV10KBUQG",
        "ts": "1586220852.081800",
        "team": "TUU48M0T1",
        "user_team": "TUU48M0T1",
        "source_team": "TUU48M0T1",
        "user_profile": {
            "avatar_hash": "2deebbf6be3d",
            "image_72": "https:\/\/avatars.slack-edge.com\/2020-03-06\/976932190641_2deebbf6be3d17141d91_72.jpg",
            "first_name": "Sarah",
            "real_name": "Sarah Blossom Ware",
            "display_name": "Sarah Blossom Ware - BioBlaze Community Bio Lab",
            "team": "TUU48M0T1",
            "name": "ware.sarah",
            "is_restricted": false,
            "is_ultra_restricted": false
        },
        "blocks": [
            {
                "type": "rich_text",
                "block_id": "sX4n",
                "elements": [
                    {
                        "type": "rich_text_section",
                        "elements": [
                            {
                                "type": "user",
                                "user_id": "UUPQGNNTV"
                            },
                            {
                                "type": "text",
                                "text": " What do you want me to work on now to help get this submitted tonight?"
                            }
                        ]
                    }
                ]
            }
        ]
    },
    {
        "client_msg_id": "1bd45a84-1c05-4ce8-aade-237041ada263",
        "type": "message",
        "text": "<@UUPQGNNTV> Thanks! It was definitely a group effort and hope it will be helpful for all the teams. I do not believe the formulas were transferred over from excel to google sheets but if you would like the original xls file I can send it as well!",
        "user": "U010W2Z4MMZ",
        "ts": "1586226351.084400",
        "team": "TUU48M0T1",
        "user_team": "TUU48M0T1",
        "source_team": "TUU48M0T1",
        "user_profile": {
            "avatar_hash": "f45399db1932",
            "image_72": "https:\/\/avatars.slack-edge.com\/2020-04-01\/1030367017170_f45399db193262631758_72.png",
            "first_name": "Isabella",
            "real_name": "Isabella Zorra",
            "display_name": "Izzi",
            "team": "TUU48M0T1",
            "name": "miss.zorra",
            "is_restricted": false,
            "is_ultra_restricted": false
        },
        "blocks": [
            {
                "type": "rich_text",
                "block_id": "+A3m",
                "elements": [
                    {
                        "type": "rich_text_section",
                        "elements": [
                            {
                                "type": "user",
                                "user_id": "UUPQGNNTV"
                            },
                            {
                                "type": "text",
                                "text": " Thanks! It was definitely a group effort and hope it will be helpful for all the teams. I do not believe the formulas were transferred over from excel to google sheets but if you would like the original xls file I can send it as well!"
                            }
                        ]
                    }
                ]
            }
        ]
    },
    {
        "client_msg_id": "6f76d86a-a462-438d-b32f-c2cac943447f",
        "type": "message",
        "text": "Hey everyone! Please if you want to be part of the NEB LAMP effort please go into this document <https:\/\/docs.google.com\/document\/d\/1XSbCZQ6MsiQSZok0DscrwNgz90h-tO-Bsne-I32b4k0\/edit?usp=sharing> and put your info in the last section about partner labs and personnel!!!",
        "user": "UUPQGNNTV",
        "ts": "1586228375.085500",
        "team": "TUU48M0T1",
        "user_team": "TUU48M0T1",
        "source_team": "TUU48M0T1",
        "user_profile": {
            "avatar_hash": "c28127caf7eb",
            "image_72": "https:\/\/avatars.slack-edge.com\/2020-03-07\/989562470694_c28127caf7ebfe67df97_72.jpg",
            "first_name": "",
            "real_name": "Ellen Jorgensen",
            "display_name": "",
            "team": "TUU48M0T1",
            "name": "ejorgensen",
            "is_restricted": false,
            "is_ultra_restricted": false
        },
        "blocks": [
            {
                "type": "rich_text",
                "block_id": "W6L",
                "elements": [
                    {
                        "type": "rich_text_section",
                        "elements": [
                            {
                                "type": "text",
                                "text": "Hey everyone! Please if you want to be part of the NEB LAMP effort please go into this document "
                            },
                            {
                                "type": "link",
                                "url": "https:\/\/docs.google.com\/document\/d\/1XSbCZQ6MsiQSZok0DscrwNgz90h-tO-Bsne-I32b4k0\/edit?usp=sharing"
                            },
                            {
                                "type": "text",
                                "text": " and put your info in the last section about partner labs and personnel!!!"
                            }
                        ]
                    }
                ]
            }
        ],
        "thread_ts": "1586228375.085500",
        "reply_count": 1,
        "reply_users_count": 1,
        "latest_reply": "1586258697.088400",
        "reply_users": [
            "UV5CCJ9RC"
        ],
        "replies": [
            {
                "user": "UV5CCJ9RC",
                "ts": "1586258697.088400"
            }
        ],
        "subscribed": false,
        "reactions": [
            {
                "name": "+1",
                "users": [
                    "UV1A22N3W",
                    "UV3URUKK5"
                ],
                "count": 2
            }
        ]
    },
    {
        "client_msg_id": "193e9688-bf0a-4226-b401-5d23576bc578",
        "type": "message",
        "text": "Also upload a budget to the Documents section of the JOGL project, or to the folder in my message above.",
        "user": "UUPQGNNTV",
        "ts": "1586228408.086200",
        "team": "TUU48M0T1",
        "user_team": "TUU48M0T1",
        "source_team": "TUU48M0T1",
        "user_profile": {
            "avatar_hash": "c28127caf7eb",
            "image_72": "https:\/\/avatars.slack-edge.com\/2020-03-07\/989562470694_c28127caf7ebfe67df97_72.jpg",
            "first_name": "",
            "real_name": "Ellen Jorgensen",
            "display_name": "",
            "team": "TUU48M0T1",
            "name": "ejorgensen",
            "is_restricted": false,
            "is_ultra_restricted": false
        },
        "blocks": [
            {
                "type": "rich_text",
                "block_id": "\/=GzU",
                "elements": [
                    {
                        "type": "rich_text_section",
                        "elements": [
                            {
                                "type": "text",
                                "text": "Also upload a budget to the Documents section of the JOGL project, or to the folder in my message above."
                            }
                        ]
                    }
                ]
            }
        ]
    },
    {
        "client_msg_id": "5f2af91d-8a69-4e12-ad44-7197659a2a1e",
        "type": "message",
        "text": "I'd like to submit no later than tomorrow- I think the text is good and I've loaded it onto the JOGL project page in the About section",
        "user": "UUPQGNNTV",
        "ts": "1586228444.087000",
        "team": "TUU48M0T1",
        "user_team": "TUU48M0T1",
        "source_team": "TUU48M0T1",
        "user_profile": {
            "avatar_hash": "c28127caf7eb",
            "image_72": "https:\/\/avatars.slack-edge.com\/2020-03-07\/989562470694_c28127caf7ebfe67df97_72.jpg",
            "first_name": "",
            "real_name": "Ellen Jorgensen",
            "display_name": "",
            "team": "TUU48M0T1",
            "name": "ejorgensen",
            "is_restricted": false,
            "is_ultra_restricted": false
        },
        "blocks": [
            {
                "type": "rich_text",
                "block_id": "MSDh",
                "elements": [
                    {
                        "type": "rich_text_section",
                        "elements": [
                            {
                                "type": "text",
                                "text": "I'd like to submit no later than tomorrow- I think the text is good and I've loaded it onto the JOGL project page in the About section"
                            }
                        ]
                    }
                ]
            }
        ]
    },
    {
        "type": "message",
        "subtype": "channel_join",
        "ts": "1586228934.087200",
        "user": "U0100GHS29E",
        "text": "<@U0100GHS29E> has joined the channel",
        "inviter": "UV10KBUQG"
    }
]