[
    {
        "client_msg_id": "9e02cefd-1af1-48ff-9f0b-114b22cfb294",
        "type": "message",
        "text": "Thank you Scott, for this info and the encouragement.  In fact, the old machine came from our UNIL (DMF) contacts, but they are still closed - a mail was sent!  Clicking the biocat 'details' for calibration, sadly, then shows how the prsim7000 isn't supported...  Finally, for now, relative quantitation, we hope, won't be necessary.  We mainly want to optimise the primer sets and work on the RNA-&gt;template aspects at Hackuarium.  I hope the ThermoFisher gal will write back tomorrow.  :slightly_smiling_face:",
        "user": "UV1A22N3W",
        "ts": "1587893674.107600",
        "team": "TUU48M0T1",
        "user_team": "TUU48M0T1",
        "source_team": "TUU48M0T1",
        "user_profile": {
            "avatar_hash": "71f827776ad6",
            "image_72": "https:\/\/avatars.slack-edge.com\/2020-03-09\/988125642964_71f827776ad610af05a2_72.jpg",
            "first_name": "",
            "real_name": "RachelA",
            "display_name": "RachelA",
            "team": "TUU48M0T1",
            "name": "raronoff",
            "is_restricted": false,
            "is_ultra_restricted": false
        },
        "blocks": [
            {
                "type": "rich_text",
                "block_id": "J4F",
                "elements": [
                    {
                        "type": "rich_text_section",
                        "elements": [
                            {
                                "type": "text",
                                "text": "Thank you Scott, for this info and the encouragement.  In fact, the old machine came from our UNIL (DMF) contacts, but they are still closed - a mail was sent!  Clicking the biocat 'details' for calibration, sadly, then shows how the prsim7000 isn't supported...  Finally, for now, relative quantitation, we hope, won't be necessary.  We mainly want to optimise the primer sets and work on the RNA->template aspects at Hackuarium.  I hope the ThermoFisher gal will write back tomorrow.  "
                            },
                            {
                                "type": "emoji",
                                "name": "slightly_smiling_face"
                            }
                        ]
                    }
                ]
            }
        ],
        "thread_ts": "1587807478.037100",
        "parent_user_id": "UV1A22N3W",
        "reactions": [
            {
                "name": "+1",
                "users": [
                    "U010QHBTBPY"
                ],
                "count": 1
            }
        ]
    },
    {
        "client_msg_id": "8f5419b8-2baa-4d6f-8e97-f02efd3b28e4",
        "type": "message",
        "text": "yes, I meant if the pH was wrong (or the reaction got too buffered), then there would be a problem for this detection strategy.",
        "user": "UV1A22N3W",
        "ts": "1587893727.107800",
        "team": "TUU48M0T1",
        "user_team": "TUU48M0T1",
        "source_team": "TUU48M0T1",
        "user_profile": {
            "avatar_hash": "71f827776ad6",
            "image_72": "https:\/\/avatars.slack-edge.com\/2020-03-09\/988125642964_71f827776ad610af05a2_72.jpg",
            "first_name": "",
            "real_name": "RachelA",
            "display_name": "RachelA",
            "team": "TUU48M0T1",
            "name": "raronoff",
            "is_restricted": false,
            "is_ultra_restricted": false
        },
        "blocks": [
            {
                "type": "rich_text",
                "block_id": "IjsD",
                "elements": [
                    {
                        "type": "rich_text_section",
                        "elements": [
                            {
                                "type": "text",
                                "text": "yes, I meant if the pH was wrong (or the reaction got too buffered), then there would be a problem for this detection strategy."
                            }
                        ]
                    }
                ]
            }
        ],
        "thread_ts": "1587840433.073400",
        "parent_user_id": "UV10KBUQG"
    },
    {
        "client_msg_id": "329b858a-3bc9-45f4-a10f-86676cac7171",
        "type": "message",
        "text": "Interestingly, noticed in the Lamb et al paper that they specifically avoid runs of Gs - \"In addition, primers were selected to not have four guanines in a row to prevent the formation of tetraplex structures which could disrupt the RT-LAMP reaction.\"  However, the LF of the N2 primer set from NEB has 5Gs in a row... just to mention.  (NM and NZ primers only have 3 Gs in a row at most)",
        "user": "UV1A22N3W",
        "ts": "1587893901.109500",
        "team": "TUU48M0T1",
        "user_team": "TUU48M0T1",
        "source_team": "TUU48M0T1",
        "user_profile": {
            "avatar_hash": "71f827776ad6",
            "image_72": "https:\/\/avatars.slack-edge.com\/2020-03-09\/988125642964_71f827776ad610af05a2_72.jpg",
            "first_name": "",
            "real_name": "RachelA",
            "display_name": "RachelA",
            "team": "TUU48M0T1",
            "name": "raronoff",
            "is_restricted": false,
            "is_ultra_restricted": false
        },
        "blocks": [
            {
                "type": "rich_text",
                "block_id": "eGa",
                "elements": [
                    {
                        "type": "rich_text_section",
                        "elements": [
                            {
                                "type": "text",
                                "text": "Interestingly, noticed in the Lamb et al paper that they specifically avoid runs of Gs - \"In addition, primers were selected to not have four guanines in a row to prevent the formation of tetraplex structures which could disrupt the RT-LAMP reaction.\"  However, the LF of the N2 primer set from NEB has 5Gs in a row... just to mention.  (NM and NZ primers only have 3 Gs in a row at most)"
                            }
                        ]
                    }
                ]
            }
        ]
    },
    {
        "client_msg_id": "241fcf29-38b9-4a07-a178-feee47c0a778",
        "type": "message",
        "text": "without ever having been able to do any Mg++ titrations, I find it hard to see how one could say any primer sets' LoD is maxed out.  ?   Anyway, this is why it is really great we also have Ali already working in parallel!  (Hoping I will get really 'on line' in the lab soon... :slightly_smiling_face: )",
        "user": "UV1A22N3W",
        "ts": "1587894131.109600",
        "team": "TUU48M0T1",
        "user_team": "TUU48M0T1",
        "source_team": "TUU48M0T1",
        "user_profile": {
            "avatar_hash": "71f827776ad6",
            "image_72": "https:\/\/avatars.slack-edge.com\/2020-03-09\/988125642964_71f827776ad610af05a2_72.jpg",
            "first_name": "",
            "real_name": "RachelA",
            "display_name": "RachelA",
            "team": "TUU48M0T1",
            "name": "raronoff",
            "is_restricted": false,
            "is_ultra_restricted": false
        },
        "blocks": [
            {
                "type": "rich_text",
                "block_id": "J10",
                "elements": [
                    {
                        "type": "rich_text_section",
                        "elements": [
                            {
                                "type": "text",
                                "text": "without ever having been able to do any Mg++ titrations, I find it hard to see how one could say any primer sets' LoD is maxed out.  ?   Anyway, this is why it is really great we also have Ali already working in parallel!  (Hoping I will get really 'on line' in the lab soon... "
                            },
                            {
                                "type": "emoji",
                                "name": "slightly_smiling_face"
                            },
                            {
                                "type": "text",
                                "text": " )"
                            }
                        ]
                    }
                ]
            }
        ],
        "thread_ts": "1587843566.092500",
        "parent_user_id": "UV10KBUQG"
    },
    {
        "type": "message",
        "subtype": "bot_message",
        "text": "Andrey Buynevich just joined Do-It-Together SARS CoV-2 Detective!",
        "ts": "1587894306.109900",
        "bot_id": "B011ND7QSG7",
        "attachments": [
            {
                "author_name": "From:Do-It-Together SARS CoV-2 Detective",
                "fallback": "Someone joined an object!",
                "text": "Few words[...]",
                "title": "Andrey Buynevich",
                "footer": "Just One Giant Lab",
                "id": 1,
                "title_link": "https:\/\/app.jogl.io\/user\/4824",
                "author_link": "https:\/\/app.jogl.io\/project\/4824",
                "color": "36a64f",
                "fields": [
                    {
                        "title": "Skills",
                        "value": "Open science",
                        "short": true
                    }
                ]
            }
        ]
    },
    {
        "client_msg_id": "1b25c781-0e12-4a17-bbed-8926b238d03f",
        "type": "message",
        "text": "just wrote our swiss distributor to see if I can get some RNAshield!  anyone know what is in it? (guanidinium? :wink:",
        "user": "UV1A22N3W",
        "ts": "1587894391.110000",
        "team": "TUU48M0T1",
        "user_team": "TUU48M0T1",
        "source_team": "TUU48M0T1",
        "user_profile": {
            "avatar_hash": "71f827776ad6",
            "image_72": "https:\/\/avatars.slack-edge.com\/2020-03-09\/988125642964_71f827776ad610af05a2_72.jpg",
            "first_name": "",
            "real_name": "RachelA",
            "display_name": "RachelA",
            "team": "TUU48M0T1",
            "name": "raronoff",
            "is_restricted": false,
            "is_ultra_restricted": false
        },
        "blocks": [
            {
                "type": "rich_text",
                "block_id": "u\/Vni",
                "elements": [
                    {
                        "type": "rich_text_section",
                        "elements": [
                            {
                                "type": "text",
                                "text": "just wrote our swiss distributor to see if I can get some RNAshield!  anyone know what is in it? (guanidinium? "
                            },
                            {
                                "type": "emoji",
                                "name": "wink"
                            }
                        ]
                    }
                ]
            }
        ],
        "thread_ts": "1587841529.079300",
        "parent_user_id": "UV7QBRCFN"
    },
    {
        "client_msg_id": "08e36648-38b5-4a89-b452-a69ba968efa1",
        "type": "message",
        "text": "yay.",
        "user": "UV1A22N3W",
        "ts": "1587896708.110300",
        "team": "TUU48M0T1",
        "user_team": "TUU48M0T1",
        "source_team": "TUU48M0T1",
        "user_profile": {
            "avatar_hash": "71f827776ad6",
            "image_72": "https:\/\/avatars.slack-edge.com\/2020-03-09\/988125642964_71f827776ad610af05a2_72.jpg",
            "first_name": "",
            "real_name": "RachelA",
            "display_name": "RachelA",
            "team": "TUU48M0T1",
            "name": "raronoff",
            "is_restricted": false,
            "is_ultra_restricted": false
        },
        "blocks": [
            {
                "type": "rich_text",
                "block_id": "dMpja",
                "elements": [
                    {
                        "type": "rich_text_section",
                        "elements": [
                            {
                                "type": "text",
                                "text": "yay."
                            }
                        ]
                    }
                ]
            }
        ]
    },
    {
        "client_msg_id": "603ded86-1c89-4ed2-ad84-e723f4877378",
        "type": "message",
        "text": "one more point from the Lamb preprint: In this RT-LAMP assay for COVID-19, the urine samples gave stronger RT-LAMP signals than the serum samples when spiked with identical amounts of COVID-19; however the amount of virus present in an infected individual will likely vary between different biological specimens and over the time course of the infection... (urea might denature, as guanidinium might, to allow better accessibility for rxns?)",
        "user": "UV1A22N3W",
        "ts": "1587896788.111500",
        "team": "TUU48M0T1",
        "user_team": "TUU48M0T1",
        "source_team": "TUU48M0T1",
        "user_profile": {
            "avatar_hash": "71f827776ad6",
            "image_72": "https:\/\/avatars.slack-edge.com\/2020-03-09\/988125642964_71f827776ad610af05a2_72.jpg",
            "first_name": "",
            "real_name": "RachelA",
            "display_name": "RachelA",
            "team": "TUU48M0T1",
            "name": "raronoff",
            "is_restricted": false,
            "is_ultra_restricted": false
        },
        "blocks": [
            {
                "type": "rich_text",
                "block_id": "B0A",
                "elements": [
                    {
                        "type": "rich_text_section",
                        "elements": [
                            {
                                "type": "text",
                                "text": "one more point from the Lamb preprint: In this RT-LAMP assay for COVID-19, the urine samples gave stronger RT-LAMP signals than the serum samples when spiked with identical amounts of COVID-19; however the amount of virus present in an infected individual will likely vary between different biological specimens and over the time course of the infection... (urea might denature, as guanidinium might, to allow better accessibility for rxns?)"
                            }
                        ]
                    }
                ]
            }
        ]
    },
    {
        "client_msg_id": "c9fb93ba-d137-4cf6-9650-bed3614a85aa",
        "type": "message",
        "text": "Sorry Rachel! I just took a look into this. I am using mafft at the moment, and i have also tried MUSCLE and works fine!",
        "user": "UV3URUKK5",
        "ts": "1587909879.111600",
        "team": "TUU48M0T1",
        "user_team": "TUU48M0T1",
        "source_team": "TUU48M0T1",
        "user_profile": {
            "avatar_hash": "64c99c2ed974",
            "image_72": "https:\/\/avatars.slack-edge.com\/2020-03-15\/1000999702004_64c99c2ed97497e08ca9_72.jpg",
            "first_name": "",
            "real_name": "Francisco Javier Quero",
            "display_name": "Francisco Javier Quero",
            "team": "TUU48M0T1",
            "name": "franxi2953",
            "is_restricted": false,
            "is_ultra_restricted": false
        },
        "blocks": [
            {
                "type": "rich_text",
                "block_id": "HRW",
                "elements": [
                    {
                        "type": "rich_text_section",
                        "elements": [
                            {
                                "type": "text",
                                "text": "Sorry Rachel! I just took a look into this. I am using mafft at the moment, and i have also tried MUSCLE and works fine!"
                            }
                        ]
                    }
                ]
            }
        ],
        "thread_ts": "1587829401.048700",
        "parent_user_id": "UV3URUKK5"
    },
    {
        "client_msg_id": "2592f8f8-65a8-468b-808f-04f8ee3e8779",
        "type": "message",
        "text": "That's crazy! Is something that i always trust that the primer designing tools for lamp have it integrated in the calculations... Now that i am designing new primer sets is something i would take into account!",
        "user": "UV3URUKK5",
        "ts": "1587912451.113000",
        "team": "TUU48M0T1",
        "user_team": "TUU48M0T1",
        "source_team": "TUU48M0T1",
        "user_profile": {
            "avatar_hash": "64c99c2ed974",
            "image_72": "https:\/\/avatars.slack-edge.com\/2020-03-15\/1000999702004_64c99c2ed97497e08ca9_72.jpg",
            "first_name": "",
            "real_name": "Francisco Javier Quero",
            "display_name": "Francisco Javier Quero",
            "team": "TUU48M0T1",
            "name": "franxi2953",
            "is_restricted": false,
            "is_ultra_restricted": false
        },
        "blocks": [
            {
                "type": "rich_text",
                "block_id": "7A\/T",
                "elements": [
                    {
                        "type": "rich_text_section",
                        "elements": [
                            {
                                "type": "text",
                                "text": "That's crazy! Is something that i always trust that the primer designing tools for lamp have it integrated in the calculations... Now that i am designing new primer sets is something i would take into account!"
                            }
                        ]
                    }
                ]
            }
        ],
        "thread_ts": "1587912451.113000",
        "reply_count": 7,
        "reply_users_count": 3,
        "latest_reply": "1588288509.314100",
        "reply_users": [
            "UV7LUJG1Y",
            "UV3URUKK5",
            "U010W2Z4MMZ"
        ],
        "replies": [
            {
                "user": "UV7LUJG1Y",
                "ts": "1587914178.114500"
            },
            {
                "user": "UV3URUKK5",
                "ts": "1587921002.128400"
            },
            {
                "user": "UV3URUKK5",
                "ts": "1587921126.128600"
            },
            {
                "user": "UV3URUKK5",
                "ts": "1587921230.128800"
            },
            {
                "user": "U010W2Z4MMZ",
                "ts": "1588183335.281100"
            },
            {
                "user": "UV3URUKK5",
                "ts": "1588190088.285800"
            },
            {
                "user": "U010W2Z4MMZ",
                "ts": "1588288509.314100"
            }
        ],
        "subscribed": false
    },
    {
        "client_msg_id": "249d3573-3088-4f3a-98f5-a025a3a48a8e",
        "type": "message",
        "text": "Take a look at this too:<https:\/\/www.ncbi.nlm.nih.gov\/pmc\/articles\/PMC6923652\/>",
        "user": "UV7LUJG1Y",
        "ts": "1587914178.114500",
        "team": "TUU48M0T1",
        "user_team": "TUU48M0T1",
        "source_team": "TUU48M0T1",
        "user_profile": {
            "avatar_hash": "048307b17644",
            "image_72": "https:\/\/avatars.slack-edge.com\/2020-04-04\/1043242365313_048307b17644844abd87_72.jpg",
            "first_name": "",
            "real_name": "Guy Aidelberg",
            "display_name": "Guy Aidelberg",
            "team": "TUU48M0T1",
            "name": "guyaidelberg",
            "is_restricted": false,
            "is_ultra_restricted": false
        },
        "attachments": [
            {
                "service_name": "PubMed Central (PMC)",
                "title": "GLAPD: Whole Genome Based LAMP Primer Design for a Set of Target Genomes",
                "title_link": "https:\/\/www.ncbi.nlm.nih.gov\/pmc\/articles\/PMC6923652\/",
                "text": "Loop-mediated isothermal amplification (LAMP) technology has been applied in a wide range of fields such as detection of foodborne bacteria and clinical pathogens due to its simplicity and efficiency. However, existing LAMP primer designing systems require ...",
                "fallback": "PubMed Central (PMC): GLAPD: Whole Genome Based LAMP Primer Design for a Set of Target Genomes",
                "thumb_url": "https:\/\/www.ncbi.nlm.nih.gov\/corehtml\/pmc\/pmcgifs\/pmc-logo-share.png",
                "from_url": "https:\/\/www.ncbi.nlm.nih.gov\/pmc\/articles\/PMC6923652\/",
                "thumb_width": 1200,
                "thumb_height": 630,
                "service_icon": "http:\/\/www.ncbi.nlm.nih.gov\/favicon.ico",
                "id": 1,
                "original_url": "https:\/\/www.ncbi.nlm.nih.gov\/pmc\/articles\/PMC6923652\/"
            }
        ],
        "blocks": [
            {
                "type": "rich_text",
                "block_id": "qgHS",
                "elements": [
                    {
                        "type": "rich_text_section",
                        "elements": [
                            {
                                "type": "text",
                                "text": "Take a look at this too:"
                            },
                            {
                                "type": "link",
                                "url": "https:\/\/www.ncbi.nlm.nih.gov\/pmc\/articles\/PMC6923652\/"
                            }
                        ]
                    }
                ]
            }
        ],
        "thread_ts": "1587912451.113000",
        "parent_user_id": "UV3URUKK5",
        "reactions": [
            {
                "name": "heavy_check_mark",
                "users": [
                    "UV10KBUQG",
                    "UV3URUKK5"
                ],
                "count": 2
            }
        ]
    },
    {
        "client_msg_id": "AB09508C-1CC3-4D82-B644-1D4CF92141B5",
        "type": "message",
        "text": "I think it comes down to time and resources. I agree there’s probably more that can be done with the NA set but if we know of a set that has been reported to get better results “out of the box” we might as well shift our focus there now. ",
        "user": "UV5CCJ9RC",
        "ts": "1587914228.115400",
        "team": "TUU48M0T1",
        "user_team": "TUU48M0T1",
        "source_team": "TUU48M0T1",
        "user_profile": {
            "avatar_hash": "2c79fe05f7e7",
            "image_72": "https:\/\/avatars.slack-edge.com\/2020-03-10\/992653932501_2c79fe05f7e75be19699_72.png",
            "first_name": "Chris",
            "real_name": "Chris Monaco",
            "display_name": "",
            "team": "TUU48M0T1",
            "name": "cmonaco.hr",
            "is_restricted": false,
            "is_ultra_restricted": false
        },
        "blocks": [
            {
                "type": "rich_text",
                "block_id": "4NCx",
                "elements": [
                    {
                        "type": "rich_text_section",
                        "elements": [
                            {
                                "type": "text",
                                "text": "I think it comes down to time and resources. I agree there’s probably more that can be done with the NA set but if we know of a set that has been reported to get better results “out of the box” we might as well shift our focus there now. "
                            }
                        ]
                    }
                ]
            }
        ],
        "thread_ts": "1587843566.092500",
        "parent_user_id": "UV10KBUQG",
        "reactions": [
            {
                "name": "heavy_check_mark",
                "users": [
                    "UV10KBUQG"
                ],
                "count": 1
            }
        ]
    },
    {
        "client_msg_id": "3f59c5b0-9dc7-4a88-a034-82c790a0be31",
        "type": "message",
        "text": "<@UV1A22N3W> <@UV7LUJG1Y> If you have a suggestion for the magnesium titrations test using the pre-made madtermix, please let us know how you suggest setting that up.",
        "user": "UV10KBUQG",
        "ts": "1587914307.115600",
        "team": "TUU48M0T1",
        "user_team": "TUU48M0T1",
        "source_team": "TUU48M0T1",
        "user_profile": {
            "avatar_hash": "2deebbf6be3d",
            "image_72": "https:\/\/avatars.slack-edge.com\/2020-03-06\/976932190641_2deebbf6be3d17141d91_72.jpg",
            "first_name": "Sarah",
            "real_name": "Sarah Blossom Ware",
            "display_name": "Sarah Blossom Ware - BioBlaze Community Bio Lab",
            "team": "TUU48M0T1",
            "name": "ware.sarah",
            "is_restricted": false,
            "is_ultra_restricted": false
        },
        "edited": {
            "user": "UV10KBUQG",
            "ts": "1587916814.000000"
        },
        "blocks": [
            {
                "type": "rich_text",
                "block_id": "ju90d",
                "elements": [
                    {
                        "type": "rich_text_section",
                        "elements": [
                            {
                                "type": "user",
                                "user_id": "UV1A22N3W"
                            },
                            {
                                "type": "text",
                                "text": " "
                            },
                            {
                                "type": "user",
                                "user_id": "UV7LUJG1Y"
                            },
                            {
                                "type": "text",
                                "text": " If you have a suggestion for the magnesium titrations test using the pre-made madtermix, please let us know how you suggest setting that up."
                            }
                        ]
                    }
                ]
            }
        ],
        "thread_ts": "1587843566.092500",
        "parent_user_id": "UV10KBUQG"
    },
    {
        "client_msg_id": "C65AFC3B-4059-4A81-B874-6E88791FCC21",
        "type": "message",
        "text": "we should find out what detection methods are being used for emirates airline (10min before boarding) &amp; NYC pharmacies (??). Also my nearby town Morges is offeringthe same serology test as Germany - for all.  (maybe I will wait a couple of weeks, then try)  ",
        "user": "UV1A22N3W",
        "ts": "1587919511.120300",
        "team": "TUU48M0T1",
        "user_team": "TUU48M0T1",
        "source_team": "TUU48M0T1",
        "user_profile": {
            "avatar_hash": "71f827776ad6",
            "image_72": "https:\/\/avatars.slack-edge.com\/2020-03-09\/988125642964_71f827776ad610af05a2_72.jpg",
            "first_name": "",
            "real_name": "RachelA",
            "display_name": "RachelA",
            "team": "TUU48M0T1",
            "name": "raronoff",
            "is_restricted": false,
            "is_ultra_restricted": false
        },
        "blocks": [
            {
                "type": "rich_text",
                "block_id": "jqN",
                "elements": [
                    {
                        "type": "rich_text_section",
                        "elements": [
                            {
                                "type": "text",
                                "text": "we should find out what detection methods are being used for emirates airline (10min before boarding) & NYC pharmacies (??). Also my nearby town Morges is offeringthe same serology test as Germany - for all.  (maybe I will wait a couple of weeks, then try)  "
                            }
                        ]
                    }
                ]
            }
        ],
        "reactions": [
            {
                "name": "heavy_check_mark",
                "users": [
                    "UV10KBUQG"
                ],
                "count": 1
            }
        ]
    },
    {
        "client_msg_id": "F97326BF-26BC-4110-AC9A-D404724E3A69",
        "type": "message",
        "text": "of course with this kit you can’t optimise magnesium (unless you want to try adding edta! ;) ) However, testing for other optimising factors (things like primer ratios dmso etc) could normally make a big diff...  I think you are making good progress, still, and trying for altogether better primer sets is also a fine strategy.",
        "user": "UV1A22N3W",
        "ts": "1587919798.126300",
        "team": "TUU48M0T1",
        "user_team": "TUU48M0T1",
        "source_team": "TUU48M0T1",
        "user_profile": {
            "avatar_hash": "71f827776ad6",
            "image_72": "https:\/\/avatars.slack-edge.com\/2020-03-09\/988125642964_71f827776ad610af05a2_72.jpg",
            "first_name": "",
            "real_name": "RachelA",
            "display_name": "RachelA",
            "team": "TUU48M0T1",
            "name": "raronoff",
            "is_restricted": false,
            "is_ultra_restricted": false
        },
        "blocks": [
            {
                "type": "rich_text",
                "block_id": "sHhEo",
                "elements": [
                    {
                        "type": "rich_text_section",
                        "elements": [
                            {
                                "type": "text",
                                "text": "of course with this kit you can’t optimise magnesium (unless you want to try adding edta! ;) ) However, testing for other optimising factors (things like primer ratios dmso etc) could normally make a big diff...  I think you are making good progress, still, and trying for altogether better primer sets is also a fine strategy."
                            }
                        ]
                    }
                ]
            }
        ],
        "thread_ts": "1587843566.092500",
        "parent_user_id": "UV10KBUQG",
        "reactions": [
            {
                "name": "heavy_check_mark",
                "users": [
                    "UV10KBUQG"
                ],
                "count": 1
            }
        ]
    },
    {
        "client_msg_id": "C5681AF0-A4DF-40AF-A714-59FB26200715",
        "type": "message",
        "text": "yes mafft is good but the clustal is already clear - most bases seem extremely well conserved...",
        "user": "UV1A22N3W",
        "ts": "1587920020.127900",
        "team": "TUU48M0T1",
        "user_team": "TUU48M0T1",
        "source_team": "TUU48M0T1",
        "user_profile": {
            "avatar_hash": "71f827776ad6",
            "image_72": "https:\/\/avatars.slack-edge.com\/2020-03-09\/988125642964_71f827776ad610af05a2_72.jpg",
            "first_name": "",
            "real_name": "RachelA",
            "display_name": "RachelA",
            "team": "TUU48M0T1",
            "name": "raronoff",
            "is_restricted": false,
            "is_ultra_restricted": false
        },
        "blocks": [
            {
                "type": "rich_text",
                "block_id": "6hG",
                "elements": [
                    {
                        "type": "rich_text_section",
                        "elements": [
                            {
                                "type": "text",
                                "text": "yes mafft is good but the clustal is already clear - most bases seem extremely well conserved..."
                            }
                        ]
                    }
                ]
            }
        ],
        "thread_ts": "1587829401.048700",
        "parent_user_id": "UV3URUKK5"
    },
    {
        "client_msg_id": "55b09820-ac6f-4be7-829d-587f5d78ffa6",
        "type": "message",
        "text": "Yeah! if the virus have more mutations between two weeks at the same region It will be super scary!",
        "user": "UV3URUKK5",
        "ts": "1587920118.128100",
        "team": "TUU48M0T1",
        "user_team": "TUU48M0T1",
        "source_team": "TUU48M0T1",
        "user_profile": {
            "avatar_hash": "64c99c2ed974",
            "image_72": "https:\/\/avatars.slack-edge.com\/2020-03-15\/1000999702004_64c99c2ed97497e08ca9_72.jpg",
            "first_name": "",
            "real_name": "Francisco Javier Quero",
            "display_name": "Francisco Javier Quero",
            "team": "TUU48M0T1",
            "name": "franxi2953",
            "is_restricted": false,
            "is_ultra_restricted": false
        },
        "blocks": [
            {
                "type": "rich_text",
                "block_id": "xDUlC",
                "elements": [
                    {
                        "type": "rich_text_section",
                        "elements": [
                            {
                                "type": "text",
                                "text": "Yeah! if the virus have more mutations between two weeks at the same region It will be super scary!"
                            }
                        ]
                    }
                ]
            }
        ],
        "thread_ts": "1587829401.048700",
        "parent_user_id": "UV3URUKK5"
    },
    {
        "client_msg_id": "4e6645da-1186-48dc-a9ef-b9ef06ed904c",
        "type": "message",
        "text": "I was doing something so similar by hand using python and a bunch of MSA software!\n\nThis is much better! Specially because the GPU module!",
        "user": "UV3URUKK5",
        "ts": "1587921002.128400",
        "team": "TUU48M0T1",
        "user_team": "TUU48M0T1",
        "source_team": "TUU48M0T1",
        "user_profile": {
            "avatar_hash": "64c99c2ed974",
            "image_72": "https:\/\/avatars.slack-edge.com\/2020-03-15\/1000999702004_64c99c2ed97497e08ca9_72.jpg",
            "first_name": "",
            "real_name": "Francisco Javier Quero",
            "display_name": "Francisco Javier Quero",
            "team": "TUU48M0T1",
            "name": "franxi2953",
            "is_restricted": false,
            "is_ultra_restricted": false
        },
        "blocks": [
            {
                "type": "rich_text",
                "block_id": "nWK",
                "elements": [
                    {
                        "type": "rich_text_section",
                        "elements": [
                            {
                                "type": "text",
                                "text": "I was doing something so similar by hand using python and a bunch of MSA software!\n\nThis is much better! Specially because the GPU module!"
                            }
                        ]
                    }
                ]
            }
        ],
        "thread_ts": "1587912451.113000",
        "parent_user_id": "UV3URUKK5"
    },
    {
        "client_msg_id": "2bb05e8f-d0c9-4784-ae0e-6a5d4ba1a6eb",
        "type": "message",
        "text": "But I need to try it under the 8k covid sequence and looks how it behaves. In the paper they use 46, let's see how this gpu module works",
        "user": "UV3URUKK5",
        "ts": "1587921126.128600",
        "team": "TUU48M0T1",
        "user_team": "TUU48M0T1",
        "source_team": "TUU48M0T1",
        "user_profile": {
            "avatar_hash": "64c99c2ed974",
            "image_72": "https:\/\/avatars.slack-edge.com\/2020-03-15\/1000999702004_64c99c2ed97497e08ca9_72.jpg",
            "first_name": "",
            "real_name": "Francisco Javier Quero",
            "display_name": "Francisco Javier Quero",
            "team": "TUU48M0T1",
            "name": "franxi2953",
            "is_restricted": false,
            "is_ultra_restricted": false
        },
        "blocks": [
            {
                "type": "rich_text",
                "block_id": "x4cP",
                "elements": [
                    {
                        "type": "rich_text_section",
                        "elements": [
                            {
                                "type": "text",
                                "text": "But I need to try it under the 8k covid sequence and looks how it behaves. In the paper they use 46, let's see how this gpu module works"
                            }
                        ]
                    }
                ]
            }
        ],
        "thread_ts": "1587912451.113000",
        "parent_user_id": "UV3URUKK5"
    },
    {
        "client_msg_id": "cecda34a-50c7-4998-8778-2ecd6b8f851b",
        "type": "message",
        "text": "Ouf is just for linux, shit!",
        "user": "UV3URUKK5",
        "ts": "1587921230.128800",
        "team": "TUU48M0T1",
        "user_team": "TUU48M0T1",
        "source_team": "TUU48M0T1",
        "user_profile": {
            "avatar_hash": "64c99c2ed974",
            "image_72": "https:\/\/avatars.slack-edge.com\/2020-03-15\/1000999702004_64c99c2ed97497e08ca9_72.jpg",
            "first_name": "",
            "real_name": "Francisco Javier Quero",
            "display_name": "Francisco Javier Quero",
            "team": "TUU48M0T1",
            "name": "franxi2953",
            "is_restricted": false,
            "is_ultra_restricted": false
        },
        "blocks": [
            {
                "type": "rich_text",
                "block_id": "QXv",
                "elements": [
                    {
                        "type": "rich_text_section",
                        "elements": [
                            {
                                "type": "text",
                                "text": "Ouf is just for linux, shit!"
                            }
                        ]
                    }
                ]
            }
        ],
        "thread_ts": "1587912451.113000",
        "parent_user_id": "UV3URUKK5"
    },
    {
        "client_msg_id": "AC26F715-84E0-46C5-961D-B4BA95ED016F",
        "type": "message",
        "text": "Those wondering about the Atila test, I got a quote back finally. For a kit with 100 tests, the cost is USD $1999 plus $195 for the “sample collection device”. ",
        "user": "UV5CCJ9RC",
        "ts": "1587929996.130700",
        "team": "TUU48M0T1",
        "user_team": "TUU48M0T1",
        "source_team": "TUU48M0T1",
        "user_profile": {
            "avatar_hash": "2c79fe05f7e7",
            "image_72": "https:\/\/avatars.slack-edge.com\/2020-03-10\/992653932501_2c79fe05f7e75be19699_72.png",
            "first_name": "Chris",
            "real_name": "Chris Monaco",
            "display_name": "",
            "team": "TUU48M0T1",
            "name": "cmonaco.hr",
            "is_restricted": false,
            "is_ultra_restricted": false
        },
        "edited": {
            "user": "UV5CCJ9RC",
            "ts": "1587930192.000000"
        },
        "blocks": [
            {
                "type": "rich_text",
                "block_id": "NCqvD",
                "elements": [
                    {
                        "type": "rich_text_section",
                        "elements": [
                            {
                                "type": "text",
                                "text": "Those wondering about the Atila test, I got a quote back finally. For a kit with 100 tests, the cost is USD $1999 plus $195 for the “sample collection device”. "
                            }
                        ]
                    }
                ]
            }
        ],
        "reactions": [
            {
                "name": "heavy_check_mark",
                "users": [
                    "UV10KBUQG"
                ],
                "count": 1
            }
        ]
    },
    {
        "client_msg_id": "b479dbb8-f067-46fb-84f1-f2d028e11fad",
        "type": "message",
        "text": "Too steep for me.",
        "user": "UV10KBUQG",
        "ts": "1587934729.131300",
        "team": "TUU48M0T1",
        "user_team": "TUU48M0T1",
        "source_team": "TUU48M0T1",
        "user_profile": {
            "avatar_hash": "2deebbf6be3d",
            "image_72": "https:\/\/avatars.slack-edge.com\/2020-03-06\/976932190641_2deebbf6be3d17141d91_72.jpg",
            "first_name": "Sarah",
            "real_name": "Sarah Blossom Ware",
            "display_name": "Sarah Blossom Ware - BioBlaze Community Bio Lab",
            "team": "TUU48M0T1",
            "name": "ware.sarah",
            "is_restricted": false,
            "is_ultra_restricted": false
        },
        "blocks": [
            {
                "type": "rich_text",
                "block_id": "ZNGu",
                "elements": [
                    {
                        "type": "rich_text_section",
                        "elements": [
                            {
                                "type": "text",
                                "text": "Too steep for me."
                            }
                        ]
                    }
                ]
            }
        ]
    },
    {
        "type": "message",
        "text": "Latest experiment using the double primer set from NEB, 30m 65c, 0,10,100,300,500,1000, SARSplasmid, MERSplasmid, RPP30plasmid",
        "files": [
            {
                "id": "F012K3KC6US",
                "created": 1587943247,
                "timestamp": 1587943247,
                "name": "IMG_20200426_191147.jpg",
                "title": "IMG_20200426_191147.jpg",
                "mimetype": "image\/jpeg",
                "filetype": "jpg",
                "pretty_type": "JPEG",
                "user": "UUPQGNNTV",
                "editable": false,
                "size": 139201,
                "mode": "hosted",
                "is_external": false,
                "external_type": "",
                "is_public": true,
                "public_url_shared": false,
                "display_as_bot": false,
                "username": "",
                "url_private": "https:\/\/files.slack.com\/files-pri\/TUU48M0T1-F012K3KC6US\/img_20200426_191147.jpg?t=xoxe-980144714919-1133254701825-1120841107731-daf595b5a7d6c9028b0b02a925032e36",
                "url_private_download": "https:\/\/files.slack.com\/files-pri\/TUU48M0T1-F012K3KC6US\/download\/img_20200426_191147.jpg?t=xoxe-980144714919-1133254701825-1120841107731-daf595b5a7d6c9028b0b02a925032e36",
                "thumb_64": "https:\/\/files.slack.com\/files-tmb\/TUU48M0T1-F012K3KC6US-7935ef0b53\/img_20200426_191147_64.jpg?t=xoxe-980144714919-1133254701825-1120841107731-daf595b5a7d6c9028b0b02a925032e36",
                "thumb_80": "https:\/\/files.slack.com\/files-tmb\/TUU48M0T1-F012K3KC6US-7935ef0b53\/img_20200426_191147_80.jpg?t=xoxe-980144714919-1133254701825-1120841107731-daf595b5a7d6c9028b0b02a925032e36",
                "thumb_360": "https:\/\/files.slack.com\/files-tmb\/TUU48M0T1-F012K3KC6US-7935ef0b53\/img_20200426_191147_360.jpg?t=xoxe-980144714919-1133254701825-1120841107731-daf595b5a7d6c9028b0b02a925032e36",
                "thumb_360_w": 360,
                "thumb_360_h": 124,
                "thumb_480": "https:\/\/files.slack.com\/files-tmb\/TUU48M0T1-F012K3KC6US-7935ef0b53\/img_20200426_191147_480.jpg?t=xoxe-980144714919-1133254701825-1120841107731-daf595b5a7d6c9028b0b02a925032e36",
                "thumb_480_w": 480,
                "thumb_480_h": 165,
                "thumb_160": "https:\/\/files.slack.com\/files-tmb\/TUU48M0T1-F012K3KC6US-7935ef0b53\/img_20200426_191147_160.jpg?t=xoxe-980144714919-1133254701825-1120841107731-daf595b5a7d6c9028b0b02a925032e36",
                "thumb_720": "https:\/\/files.slack.com\/files-tmb\/TUU48M0T1-F012K3KC6US-7935ef0b53\/img_20200426_191147_720.jpg?t=xoxe-980144714919-1133254701825-1120841107731-daf595b5a7d6c9028b0b02a925032e36",
                "thumb_720_w": 720,
                "thumb_720_h": 248,
                "thumb_800": "https:\/\/files.slack.com\/files-tmb\/TUU48M0T1-F012K3KC6US-7935ef0b53\/img_20200426_191147_800.jpg?t=xoxe-980144714919-1133254701825-1120841107731-daf595b5a7d6c9028b0b02a925032e36",
                "thumb_800_w": 800,
                "thumb_800_h": 275,
                "thumb_960": "https:\/\/files.slack.com\/files-tmb\/TUU48M0T1-F012K3KC6US-7935ef0b53\/img_20200426_191147_960.jpg?t=xoxe-980144714919-1133254701825-1120841107731-daf595b5a7d6c9028b0b02a925032e36",
                "thumb_960_w": 960,
                "thumb_960_h": 330,
                "thumb_1024": "https:\/\/files.slack.com\/files-tmb\/TUU48M0T1-F012K3KC6US-7935ef0b53\/img_20200426_191147_1024.jpg?t=xoxe-980144714919-1133254701825-1120841107731-daf595b5a7d6c9028b0b02a925032e36",
                "thumb_1024_w": 1024,
                "thumb_1024_h": 352,
                "original_w": 3371,
                "original_h": 1160,
                "thumb_tiny": "AwAQADCxnBAx1o3HnjpSntSNnJ4yOtIYEn+7Rn2NLznp2pBn5flPPX2oANx4+WgEnPGKQbuPlPXFOXPORQB\/\/9k=",
                "permalink": "https:\/\/open-covid19.slack.com\/files\/UUPQGNNTV\/F012K3KC6US\/img_20200426_191147.jpg",
                "permalink_public": "https:\/\/slack-files.com\/TUU48M0T1-F012K3KC6US-b1ae680934",
                "is_starred": false,
                "has_rich_preview": false
            }
        ],
        "upload": true,
        "blocks": [
            {
                "type": "rich_text",
                "block_id": "Jz=3f",
                "elements": [
                    {
                        "type": "rich_text_section",
                        "elements": [
                            {
                                "type": "text",
                                "text": "Latest experiment using the double primer set from NEB, 30m 65c, 0,10,100,300,500,1000, SARSplasmid, MERSplasmid, RPP30plasmid"
                            }
                        ]
                    }
                ]
            }
        ],
        "user": "UUPQGNNTV",
        "display_as_bot": false,
        "ts": "1587943259.134800",
        "client_msg_id": "3cd0a127-deb8-4d9c-a1bf-1bd84fb9db24",
        "thread_ts": "1587943259.134800",
        "reply_count": 1,
        "reply_users_count": 1,
        "latest_reply": "1587946839.141200",
        "reply_users": [
            "UV5CCJ9RC"
        ],
        "replies": [
            {
                "user": "UV5CCJ9RC",
                "ts": "1587946839.141200"
            }
        ],
        "subscribed": false,
        "reactions": [
            {
                "name": "heavy_check_mark",
                "users": [
                    "UV10KBUQG"
                ],
                "count": 1
            }
        ]
    },
    {
        "client_msg_id": "71641a53-bba1-4319-91b8-d0b0aaef9de2",
        "type": "message",
        "text": "Well, straight out of the shoot, it's not looking better than the Zhang set, but they do seem to work and it is only the first test :slightly_smiling_face:  <@UV5CCJ9RC> would you be able to run the same temp gradient test using NTC vs 1000 copies using the two new sets early this week? Ellen and I don't have gradient capabilities.",
        "user": "UV10KBUQG",
        "ts": "1587943700.137300",
        "team": "TUU48M0T1",
        "user_team": "TUU48M0T1",
        "source_team": "TUU48M0T1",
        "user_profile": {
            "avatar_hash": "2deebbf6be3d",
            "image_72": "https:\/\/avatars.slack-edge.com\/2020-03-06\/976932190641_2deebbf6be3d17141d91_72.jpg",
            "first_name": "Sarah",
            "real_name": "Sarah Blossom Ware",
            "display_name": "Sarah Blossom Ware - BioBlaze Community Bio Lab",
            "team": "TUU48M0T1",
            "name": "ware.sarah",
            "is_restricted": false,
            "is_ultra_restricted": false
        },
        "blocks": [
            {
                "type": "rich_text",
                "block_id": "sPuW3",
                "elements": [
                    {
                        "type": "rich_text_section",
                        "elements": [
                            {
                                "type": "text",
                                "text": "Well, straight out of the shoot, it's not looking better than the Zhang set, but they do seem to work and it is only the first test "
                            },
                            {
                                "type": "emoji",
                                "name": "slightly_smiling_face"
                            },
                            {
                                "type": "text",
                                "text": "  "
                            },
                            {
                                "type": "user",
                                "user_id": "UV5CCJ9RC"
                            },
                            {
                                "type": "text",
                                "text": " would you be able to run the same temp gradient test using NTC vs 1000 copies using the two new sets early this week? Ellen and I don't have gradient capabilities."
                            }
                        ]
                    }
                ]
            }
        ],
        "thread_ts": "1587943700.137300",
        "reply_count": 1,
        "reply_users_count": 1,
        "latest_reply": "1587947151.141800",
        "reply_users": [
            "UV5CCJ9RC"
        ],
        "replies": [
            {
                "user": "UV5CCJ9RC",
                "ts": "1587947151.141800"
            }
        ],
        "subscribed": false
    },
    {
        "client_msg_id": "7a01a77d-40b3-483e-80dd-3081e8dac793",
        "type": "message",
        "text": "<@UUPQGNNTV> or <@UV5CCJ9RC> would one of you be able to spot a few microliters of the SARS-CoV, MERS-CoV &amp; RPP30 plasmids on some filter paper and mail it to me, pretty please?  I can send you both the Cas12a plasmid in exchange if you are interested.",
        "user": "UV10KBUQG",
        "ts": "1587943805.139100",
        "team": "TUU48M0T1",
        "user_team": "TUU48M0T1",
        "source_team": "TUU48M0T1",
        "user_profile": {
            "avatar_hash": "2deebbf6be3d",
            "image_72": "https:\/\/avatars.slack-edge.com\/2020-03-06\/976932190641_2deebbf6be3d17141d91_72.jpg",
            "first_name": "Sarah",
            "real_name": "Sarah Blossom Ware",
            "display_name": "Sarah Blossom Ware - BioBlaze Community Bio Lab",
            "team": "TUU48M0T1",
            "name": "ware.sarah",
            "is_restricted": false,
            "is_ultra_restricted": false
        },
        "blocks": [
            {
                "type": "rich_text",
                "block_id": "5qAbW",
                "elements": [
                    {
                        "type": "rich_text_section",
                        "elements": [
                            {
                                "type": "user",
                                "user_id": "UUPQGNNTV"
                            },
                            {
                                "type": "text",
                                "text": " or "
                            },
                            {
                                "type": "user",
                                "user_id": "UV5CCJ9RC"
                            },
                            {
                                "type": "text",
                                "text": " would one of you be able to spot a few microliters of the SARS-CoV, MERS-CoV & RPP30 plasmids on some filter paper and mail it to me, pretty please?  I can send you both the Cas12a plasmid in exchange if you are interested."
                            }
                        ]
                    }
                ]
            }
        ]
    },
    {
        "client_msg_id": "0cf5dd58-bc6c-45a0-9cfe-ec407e03b472",
        "type": "message",
        "text": "Yep, will mail tomorrow!",
        "user": "UUPQGNNTV",
        "ts": "1587943872.139700",
        "team": "TUU48M0T1",
        "user_team": "TUU48M0T1",
        "source_team": "TUU48M0T1",
        "user_profile": {
            "avatar_hash": "c28127caf7eb",
            "image_72": "https:\/\/avatars.slack-edge.com\/2020-03-07\/989562470694_c28127caf7ebfe67df97_72.jpg",
            "first_name": "",
            "real_name": "Ellen Jorgensen",
            "display_name": "",
            "team": "TUU48M0T1",
            "name": "ejorgensen",
            "is_restricted": false,
            "is_ultra_restricted": false
        },
        "blocks": [
            {
                "type": "rich_text",
                "block_id": "nP9gJ",
                "elements": [
                    {
                        "type": "rich_text_section",
                        "elements": [
                            {
                                "type": "text",
                                "text": "Yep, will mail tomorrow!"
                            }
                        ]
                    }
                ]
            }
        ],
        "reactions": [
            {
                "name": "raised_hands",
                "users": [
                    "UV10KBUQG"
                ],
                "count": 1
            }
        ]
    },
    {
        "client_msg_id": "DB26A2B4-193D-4905-A171-24E38A02A8EA",
        "type": "message",
        "text": "What are you using for the positive control in the first 6 reactions?",
        "user": "UV5CCJ9RC",
        "ts": "1587946839.141200",
        "team": "TUU48M0T1",
        "user_team": "TUU48M0T1",
        "source_team": "TUU48M0T1",
        "user_profile": {
            "avatar_hash": "2c79fe05f7e7",
            "image_72": "https:\/\/avatars.slack-edge.com\/2020-03-10\/992653932501_2c79fe05f7e75be19699_72.png",
            "first_name": "Chris",
            "real_name": "Chris Monaco",
            "display_name": "",
            "team": "TUU48M0T1",
            "name": "cmonaco.hr",
            "is_restricted": false,
            "is_ultra_restricted": false
        },
        "blocks": [
            {
                "type": "rich_text",
                "block_id": "5Ku0",
                "elements": [
                    {
                        "type": "rich_text_section",
                        "elements": [
                            {
                                "type": "text",
                                "text": "What are you using for the positive control in the first 6 reactions?"
                            }
                        ]
                    }
                ]
            }
        ],
        "thread_ts": "1587943259.134800",
        "parent_user_id": "UUPQGNNTV"
    },
    {
        "client_msg_id": "15312341-70B4-4B3A-ADB7-2E7C930CB852",
        "type": "message",
        "text": "Yes. As soon as my primers are made I’ll run it. ",
        "user": "UV5CCJ9RC",
        "ts": "1587947151.141800",
        "team": "TUU48M0T1",
        "user_team": "TUU48M0T1",
        "source_team": "TUU48M0T1",
        "user_profile": {
            "avatar_hash": "2c79fe05f7e7",
            "image_72": "https:\/\/avatars.slack-edge.com\/2020-03-10\/992653932501_2c79fe05f7e75be19699_72.png",
            "first_name": "Chris",
            "real_name": "Chris Monaco",
            "display_name": "",
            "team": "TUU48M0T1",
            "name": "cmonaco.hr",
            "is_restricted": false,
            "is_ultra_restricted": false
        },
        "blocks": [
            {
                "type": "rich_text",
                "block_id": "sBYT6",
                "elements": [
                    {
                        "type": "rich_text_section",
                        "elements": [
                            {
                                "type": "text",
                                "text": "Yes. As soon as my primers are made I’ll run it. "
                            }
                        ]
                    }
                ]
            }
        ],
        "thread_ts": "1587943700.137300",
        "parent_user_id": "UV10KBUQG",
        "reactions": [
            {
                "name": "+1",
                "users": [
                    "UV10KBUQG"
                ],
                "count": 1
            }
        ]
    },
    {
        "client_msg_id": "f95ea28d-d93c-40de-9b13-5f25eae84896",
        "type": "message",
        "text": "<@U010LNECEHE> Re: \"also to follow up on what Justin said, we did an RT-PCR using WHO primers compared to NB F3\/B3 and got a nice band with NB f3\/b3 and nothing with the WHO\", I have a friend who wants to order some primers to test a DNA control.  Would NEB\/Zhang primers F3 &amp; B3 work for a regular PCR on his DNA control? Sorry, I don't know how big the F3\/B3 fragment is. Thx.",
        "user": "UV10KBUQG",
        "ts": "1587951816.144500",
        "team": "TUU48M0T1",
        "user_team": "TUU48M0T1",
        "source_team": "TUU48M0T1",
        "user_profile": {
            "avatar_hash": "2deebbf6be3d",
            "image_72": "https:\/\/avatars.slack-edge.com\/2020-03-06\/976932190641_2deebbf6be3d17141d91_72.jpg",
            "first_name": "Sarah",
            "real_name": "Sarah Blossom Ware",
            "display_name": "Sarah Blossom Ware - BioBlaze Community Bio Lab",
            "team": "TUU48M0T1",
            "name": "ware.sarah",
            "is_restricted": false,
            "is_ultra_restricted": false
        },
        "blocks": [
            {
                "type": "rich_text",
                "block_id": "IxA\/",
                "elements": [
                    {
                        "type": "rich_text_section",
                        "elements": [
                            {
                                "type": "user",
                                "user_id": "U010LNECEHE"
                            },
                            {
                                "type": "text",
                                "text": " Re: \"also to follow up on what Justin said, we did an RT-PCR using WHO primers compared to NB F3\/B3 and got a nice band with NB f3\/b3 and nothing with the WHO\", I have a friend who wants to order some primers to test a DNA control.  Would NEB\/Zhang primers F3 & B3 work for a regular PCR on his DNA control? Sorry, I don't know how big the F3\/B3 fragment is. Thx."
                            }
                        ]
                    }
                ]
            }
        ]
    },
    {
        "client_msg_id": "1dbc303e-8c9a-4f46-8c12-34495b4e6ad3",
        "type": "message",
        "text": "I doubt it. f3 and b3 are really close together. would be too small to really see on a gel",
        "user": "UV7QBRCFN",
        "ts": "1587957954.145100",
        "team": "TUU48M0T1",
        "user_team": "TUU48M0T1",
        "source_team": "TUU48M0T1",
        "user_profile": {
            "avatar_hash": "94fb372e8cfc",
            "image_72": "https:\/\/avatars.slack-edge.com\/2020-03-12\/996385001668_94fb372e8cfcfe2ee1cd_72.png",
            "first_name": "",
            "real_name": "Justin A",
            "display_name": "Justin A",
            "team": "TUU48M0T1",
            "name": "thethoughtemporium",
            "is_restricted": false,
            "is_ultra_restricted": false
        },
        "blocks": [
            {
                "type": "rich_text",
                "block_id": "cyvRa",
                "elements": [
                    {
                        "type": "rich_text_section",
                        "elements": [
                            {
                                "type": "text",
                                "text": "I doubt it. f3 and b3 are really close together. would be too small to really see on a gel"
                            }
                        ]
                    }
                ]
            }
        ]
    },
    {
        "client_msg_id": "c413b246-9a83-4ab8-baa9-d5ab87eb9548",
        "type": "message",
        "text": "I'm gonnga run it probably tomorrow again, but the cdc n1F and n2R should give a 944 bp band",
        "user": "UV7QBRCFN",
        "ts": "1587958000.146000",
        "team": "TUU48M0T1",
        "user_team": "TUU48M0T1",
        "source_team": "TUU48M0T1",
        "user_profile": {
            "avatar_hash": "94fb372e8cfc",
            "image_72": "https:\/\/avatars.slack-edge.com\/2020-03-12\/996385001668_94fb372e8cfcfe2ee1cd_72.png",
            "first_name": "",
            "real_name": "Justin A",
            "display_name": "Justin A",
            "team": "TUU48M0T1",
            "name": "thethoughtemporium",
            "is_restricted": false,
            "is_ultra_restricted": false
        },
        "blocks": [
            {
                "type": "rich_text",
                "block_id": "hZez",
                "elements": [
                    {
                        "type": "rich_text_section",
                        "elements": [
                            {
                                "type": "text",
                                "text": "I'm gonnga run it probably tomorrow again, but the cdc n1F and n2R should give a 944 bp band"
                            }
                        ]
                    }
                ]
            }
        ]
    },
    {
        "client_msg_id": "16ccaf33-1f55-43e2-9591-e27585ca3640",
        "type": "message",
        "text": "<@UV7QBRCFN>  thx. Very strange that neither you or <@U010LNECEHE>  got bands with WHO primers, though. Plz post results tmrw",
        "user": "UV10KBUQG",
        "ts": "1587960069.148800",
        "team": "TUU48M0T1",
        "user_team": "TUU48M0T1",
        "source_team": "TUU48M0T1",
        "user_profile": {
            "avatar_hash": "2deebbf6be3d",
            "image_72": "https:\/\/avatars.slack-edge.com\/2020-03-06\/976932190641_2deebbf6be3d17141d91_72.jpg",
            "first_name": "Sarah",
            "real_name": "Sarah Blossom Ware",
            "display_name": "Sarah Blossom Ware - BioBlaze Community Bio Lab",
            "team": "TUU48M0T1",
            "name": "ware.sarah",
            "is_restricted": false,
            "is_ultra_restricted": false
        },
        "blocks": [
            {
                "type": "rich_text",
                "block_id": "nIY",
                "elements": [
                    {
                        "type": "rich_text_section",
                        "elements": [
                            {
                                "type": "user",
                                "user_id": "UV7QBRCFN"
                            },
                            {
                                "type": "text",
                                "text": "  thx. Very strange that neither you or "
                            },
                            {
                                "type": "user",
                                "user_id": "U010LNECEHE"
                            },
                            {
                                "type": "text",
                                "text": "  got bands with WHO primers, though. Plz post results tmrw"
                            }
                        ]
                    }
                ]
            }
        ]
    },
    {
        "client_msg_id": "574ABA3A-AA8A-4166-8076-1CC146EFF849",
        "type": "message",
        "text": "Actually F3\/B3 (i.e outer primers) are the primers farthest away in a LAMP reaction and therefore always useful to confirm your target via regular PCR methods. Our gel of RT-PCR using these primers show a band a little bit larger than 200bp. \nI can’t remember the size of the fragment amplified by NB off the top of my head but LAMP reactions usually target a 150-200bp region",
        "user": "U010LNECEHE",
        "ts": "1587960352.153600",
        "team": "TUU48M0T1",
        "user_team": "TUU48M0T1",
        "source_team": "TUU48M0T1",
        "user_profile": {
            "avatar_hash": "58bda3258fcd",
            "image_72": "https:\/\/avatars.slack-edge.com\/2020-03-30\/1036110784064_58bda3258fcd726472e4_72.png",
            "first_name": "Ali",
            "real_name": "Ali Bektaş",
            "display_name": "Ali",
            "team": "TUU48M0T1",
            "name": "cinalibektas",
            "is_restricted": false,
            "is_ultra_restricted": false
        },
        "blocks": [
            {
                "type": "rich_text",
                "block_id": "tvwow",
                "elements": [
                    {
                        "type": "rich_text_section",
                        "elements": [
                            {
                                "type": "text",
                                "text": "Actually F3\/B3 (i.e outer primers) are the primers farthest away in a LAMP reaction and therefore always useful to confirm your target via regular PCR methods. Our gel of RT-PCR using these primers show a band a little bit larger than 200bp. \n"
                            },
                            {
                                "type": "text",
                                "text": "I can’t remember the size of the fragment amplified by NB off the top of my head but LAMP reactions usually target a 150-200bp region"
                            }
                        ]
                    }
                ]
            }
        ]
    },
    {
        "client_msg_id": "b94955fd-3889-4c7f-a97e-c7035154c923",
        "type": "message",
        "text": "Primer order for the N2 and E lamp sets as well as the stuff I need to make the yeast cov plasmid goes in tomorrow!",
        "user": "UV7QBRCFN",
        "ts": "1587960786.153700",
        "team": "TUU48M0T1",
        "user_team": "TUU48M0T1",
        "source_team": "TUU48M0T1",
        "user_profile": {
            "avatar_hash": "94fb372e8cfc",
            "image_72": "https:\/\/avatars.slack-edge.com\/2020-03-12\/996385001668_94fb372e8cfcfe2ee1cd_72.png",
            "first_name": "",
            "real_name": "Justin A",
            "display_name": "Justin A",
            "team": "TUU48M0T1",
            "name": "thethoughtemporium",
            "is_restricted": false,
            "is_ultra_restricted": false
        },
        "blocks": [
            {
                "type": "rich_text",
                "block_id": "Fpqa",
                "elements": [
                    {
                        "type": "rich_text_section",
                        "elements": [
                            {
                                "type": "text",
                                "text": "Primer order for the N2 and E lamp sets as well as the stuff I need to make the yeast cov plasmid goes in tomorrow!"
                            }
                        ]
                    }
                ]
            }
        ]
    },
    {
        "client_msg_id": "3c9fa2c3-2e27-4579-8b13-206eaab7205a",
        "type": "message",
        "text": "200bp is still pretty small. Need to use really concentrated gel to see it well. But I suppose doable. I tend to write things that small off as easy to lose in the noise so not really worth it, but that's just me",
        "user": "UV7QBRCFN",
        "ts": "1587960889.155200",
        "team": "TUU48M0T1",
        "user_team": "TUU48M0T1",
        "source_team": "TUU48M0T1",
        "user_profile": {
            "avatar_hash": "94fb372e8cfc",
            "image_72": "https:\/\/avatars.slack-edge.com\/2020-03-12\/996385001668_94fb372e8cfcfe2ee1cd_72.png",
            "first_name": "",
            "real_name": "Justin A",
            "display_name": "Justin A",
            "team": "TUU48M0T1",
            "name": "thethoughtemporium",
            "is_restricted": false,
            "is_ultra_restricted": false
        },
        "blocks": [
            {
                "type": "rich_text",
                "block_id": "Dwg",
                "elements": [
                    {
                        "type": "rich_text_section",
                        "elements": [
                            {
                                "type": "text",
                                "text": "200bp is still pretty small. Need to use really concentrated gel to see it well. But I suppose doable. I tend to write things that small off as easy to lose in the noise so not really worth it, but that's just me"
                            }
                        ]
                    }
                ]
            }
        ],
        "thread_ts": "1587960889.155200",
        "reply_count": 5,
        "reply_users_count": 3,
        "latest_reply": "1587979657.168300",
        "reply_users": [
            "UV1A22N3W",
            "UV7QBRCFN",
            "UV7LUJG1Y"
        ],
        "replies": [
            {
                "user": "UV1A22N3W",
                "ts": "1587970225.166800"
            },
            {
                "user": "UV7QBRCFN",
                "ts": "1587970468.167100"
            },
            {
                "user": "UV1A22N3W",
                "ts": "1587978433.167400"
            },
            {
                "user": "UV7LUJG1Y",
                "ts": "1587979426.168000"
            },
            {
                "user": "UV1A22N3W",
                "ts": "1587979657.168300"
            }
        ],
        "subscribed": false
    },
    {
        "type": "message",
        "text": "This Genbank file (openable in the free SnapGene Viewer) might help people understand where the different primers are.",
        "files": [
            {
                "id": "F012XUK2Z41",
                "created": 1587961436,
                "timestamp": 1587961436,
                "name": "MN908947-SARS-CoV-2.gb",
                "title": "MN908947-SARS-CoV-2.gb",
                "mimetype": "text\/plain",
                "filetype": "text",
                "pretty_type": "Plain Text",
                "user": "U010QHBTBPY",
                "editable": true,
                "size": 66336,
                "mode": "snippet",
                "is_external": false,
                "external_type": "",
                "is_public": true,
                "public_url_shared": false,
                "display_as_bot": false,
                "username": "",
                "url_private": "https:\/\/files.slack.com\/files-pri\/TUU48M0T1-F012XUK2Z41\/mn908947-sars-cov-2.gb?t=xoxe-980144714919-1133254701825-1120841107731-daf595b5a7d6c9028b0b02a925032e36",
                "url_private_download": "https:\/\/files.slack.com\/files-pri\/TUU48M0T1-F012XUK2Z41\/download\/mn908947-sars-cov-2.gb?t=xoxe-980144714919-1133254701825-1120841107731-daf595b5a7d6c9028b0b02a925032e36",
                "permalink": "https:\/\/open-covid19.slack.com\/files\/U010QHBTBPY\/F012XUK2Z41\/mn908947-sars-cov-2.gb",
                "permalink_public": "https:\/\/slack-files.com\/TUU48M0T1-F012XUK2Z41-c880450dff",
                "edit_link": "https:\/\/open-covid19.slack.com\/files\/U010QHBTBPY\/F012XUK2Z41\/mn908947-sars-cov-2.gb\/edit",
                "is_starred": false,
                "has_rich_preview": false
            }
        ],
        "upload": true,
        "blocks": [
            {
                "type": "rich_text",
                "block_id": "9u5",
                "elements": [
                    {
                        "type": "rich_text_section",
                        "elements": [
                            {
                                "type": "text",
                                "text": "This Genbank file (openable in the free SnapGene Viewer) might help people understand where the different primers are."
                            }
                        ]
                    }
                ]
            }
        ],
        "user": "U010QHBTBPY",
        "display_as_bot": false,
        "ts": "1587961438.156600",
        "client_msg_id": "fc6e46f2-bc2c-4c11-99d4-b0f795abd2a1",
        "reactions": [
            {
                "name": "+1",
                "users": [
                    "UV1A22N3W",
                    "U012JRY6Q4A",
                    "UV10KBUQG"
                ],
                "count": 3
            }
        ]
    },
    {
        "client_msg_id": "8d8509f3-b2cf-4560-a7c6-ee100365efca",
        "type": "message",
        "text": "<https:\/\/www.snapgene.com\/snapgene-viewer\/>",
        "user": "U010QHBTBPY",
        "ts": "1587961466.157000",
        "team": "TUU48M0T1",
        "user_team": "TUU48M0T1",
        "source_team": "TUU48M0T1",
        "user_profile": {
            "avatar_hash": "g4e30c4af69a",
            "image_72": "https:\/\/secure.gravatar.com\/avatar\/4e30c4af69a6429e53cd9cce9da9f65c.jpg?s=72&d=https%3A%2F%2Fa.slack-edge.com%2Fdf10d%2Fimg%2Favatars%2Fava_0015-72.png",
            "first_name": "",
            "real_name": "osn_scott",
            "display_name": "osn_scott",
            "team": "TUU48M0T1",
            "name": "scott527",
            "is_restricted": false,
            "is_ultra_restricted": false
        },
        "attachments": [
            {
                "service_name": "SnapGene",
                "title": "SnapGene Viewer | Free software for plasmid mapping, primer design, and restriction site analysis",
                "title_link": "https:\/\/www.snapgene.com\/snapgene-viewer\/",
                "text": "Make plasmid maps automatically, browse chromosomes, view and edit sequence traces, and share annotated DNA sequences with colleagues or customers.",
                "fallback": "SnapGene: SnapGene Viewer | Free software for plasmid mapping, primer design, and restriction site analysis",
                "from_url": "https:\/\/www.snapgene.com\/snapgene-viewer\/",
                "thumb_url": "https:\/\/www.snapgene.com\/wp-content\/uploads\/comparison-chart\/SnapGene_128.png",
                "thumb_width": 128,
                "thumb_height": 128,
                "service_icon": "https:\/\/www.snapgene.com\/wordpress\/wp-content\/uploads\/2016\/04\/SnapGene_Favicon.png",
                "id": 1,
                "original_url": "https:\/\/www.snapgene.com\/snapgene-viewer\/"
            }
        ],
        "blocks": [
            {
                "type": "rich_text",
                "block_id": "AMby",
                "elements": [
                    {
                        "type": "rich_text_section",
                        "elements": [
                            {
                                "type": "link",
                                "url": "https:\/\/www.snapgene.com\/snapgene-viewer\/"
                            }
                        ]
                    }
                ]
            }
        ]
    },
    {
        "client_msg_id": "42635036-36A7-4F5F-BD45-804B7828F7D0",
        "type": "message",
        "text": "in case you are not used to these rxns, Justin, be extra cautious if you want to run a gel - these amplicons are superstable concatamers &amp; really easy to contam things with!  this is why special detection schemes are so impt (like quenched fluor for gmo detective)!  most recommend not even opening tubes - but if you must, make sure to keep your reaction set up area absolutely separate from gel running space &amp; have separate lab coats for each area. 10% bleach then etoh can clean up, but aliquot reagents too, so you don’t get stuck having to toss everything.  <@UV7QBRCFN> ",
        "user": "UV1A22N3W",
        "ts": "1587970225.166800",
        "team": "TUU48M0T1",
        "user_team": "TUU48M0T1",
        "source_team": "TUU48M0T1",
        "user_profile": {
            "avatar_hash": "71f827776ad6",
            "image_72": "https:\/\/avatars.slack-edge.com\/2020-03-09\/988125642964_71f827776ad610af05a2_72.jpg",
            "first_name": "",
            "real_name": "RachelA",
            "display_name": "RachelA",
            "team": "TUU48M0T1",
            "name": "raronoff",
            "is_restricted": false,
            "is_ultra_restricted": false
        },
        "edited": {
            "user": "UV1A22N3W",
            "ts": "1587970279.000000"
        },
        "blocks": [
            {
                "type": "rich_text",
                "block_id": "P2vnK",
                "elements": [
                    {
                        "type": "rich_text_section",
                        "elements": [
                            {
                                "type": "text",
                                "text": "in case you are not used to these rxns, Justin, be extra cautious if you want to run a gel - these amplicons are superstable concatamers & really easy to contam things with!  this is why special detection schemes are so impt (like quenched fluor for gmo detective)!  most recommend not even opening tubes - but if you must, make sure to keep your reaction set up area absolutely separate from gel running space & have separate lab coats for each area. 10% bleach then etoh can clean up, but aliquot reagents too, so you don’t get stuck having to toss everything.  "
                            },
                            {
                                "type": "user",
                                "user_id": "UV7QBRCFN"
                            },
                            {
                                "type": "text",
                                "text": " "
                            }
                        ]
                    }
                ]
            }
        ],
        "thread_ts": "1587960889.155200",
        "parent_user_id": "UV7QBRCFN"
    },
    {
        "client_msg_id": "e76b174b-c2d3-4448-8a33-48ad2b8da53b",
        "type": "message",
        "text": "Um. What? Do you have a source for that? I've never heard that, not to mention I've never hear OF that.",
        "user": "UV7QBRCFN",
        "ts": "1587970468.167100",
        "team": "TUU48M0T1",
        "user_team": "TUU48M0T1",
        "source_team": "TUU48M0T1",
        "user_profile": {
            "avatar_hash": "94fb372e8cfc",
            "image_72": "https:\/\/avatars.slack-edge.com\/2020-03-12\/996385001668_94fb372e8cfcfe2ee1cd_72.png",
            "first_name": "",
            "real_name": "Justin A",
            "display_name": "Justin A",
            "team": "TUU48M0T1",
            "name": "thethoughtemporium",
            "is_restricted": false,
            "is_ultra_restricted": false
        },
        "blocks": [
            {
                "type": "rich_text",
                "block_id": "GCiFq",
                "elements": [
                    {
                        "type": "rich_text_section",
                        "elements": [
                            {
                                "type": "text",
                                "text": "Um. What? Do you have a source for that? I've never heard that, not to mention I've never hear OF that."
                            }
                        ]
                    }
                ]
            }
        ],
        "thread_ts": "1587960889.155200",
        "parent_user_id": "UV7QBRCFN"
    }
]