[
    {
        "type": "message",
        "subtype": "bot_message",
        "text": "Marhaba <@U011CLVJMQX> :flag-eg:",
        "ts": "1586691722.451400",
        "username": "GreetBot",
        "bot_id": "B0100JVEKUG",
        "thread_ts": "1586691722.451400",
        "reply_count": 1,
        "reply_users_count": 1,
        "latest_reply": "1586773947.463700",
        "reply_users": [
            "U011CLVJMQX"
        ],
        "replies": [
            {
                "user": "U011CLVJMQX",
                "ts": "1586773947.463700"
            }
        ],
        "subscribed": false
    },
    {
        "type": "message",
        "subtype": "bot_message",
        "text": "Hallå <@U011PP4H2BF> :flag-se:",
        "ts": "1586692001.451600",
        "username": "GreetBot",
        "bot_id": "B0100JVEKUG"
    },
    {
        "client_msg_id": "1f777966-e145-4b1f-b672-aa2aebeb2214",
        "type": "message",
        "text": "Hi <@U011NP3QRLK>, welcome :slightly_smiling_face:\nis your project documented on JOGL?\nYou should check with <@UV8T52QJ3> as he is leading a similar open source project on JOGL.",
        "user": "UV02WET96",
        "ts": "1586693206.452100",
        "team": "TUU48M0T1",
        "user_team": "TUU48M0T1",
        "source_team": "TUU48M0T1",
        "user_profile": {
            "avatar_hash": "a99c74a194f8",
            "image_72": "https:\/\/avatars.slack-edge.com\/2020-03-07\/975708504851_a99c74a194f86715ca7d_72.png",
            "first_name": "Thomas",
            "real_name": "Thomas Landrain",
            "display_name": "Thomas Landrain - JOGL CoFounder \/ CEO",
            "team": "TUU48M0T1",
            "name": "thomas",
            "is_restricted": false,
            "is_ultra_restricted": false
        },
        "edited": {
            "user": "UV02WET96",
            "ts": "1586693218.000000"
        },
        "blocks": [
            {
                "type": "rich_text",
                "block_id": "IE\/xU",
                "elements": [
                    {
                        "type": "rich_text_section",
                        "elements": [
                            {
                                "type": "text",
                                "text": "Hi "
                            },
                            {
                                "type": "user",
                                "user_id": "U011NP3QRLK"
                            },
                            {
                                "type": "text",
                                "text": ", welcome "
                            },
                            {
                                "type": "emoji",
                                "name": "slightly_smiling_face"
                            },
                            {
                                "type": "text",
                                "text": "\nis your project documented on JOGL?\nYou should check with "
                            },
                            {
                                "type": "user",
                                "user_id": "UV8T52QJ3"
                            },
                            {
                                "type": "text",
                                "text": " as he is leading a similar open source project on JOGL."
                            }
                        ]
                    }
                ]
            }
        ],
        "thread_ts": "1586639510.441100",
        "parent_user_id": "U011NP3QRLK"
    },
    {
        "type": "message",
        "subtype": "bot_message",
        "text": "Bonjour <@U011NDHPS2E> :flag-fr:",
        "ts": "1586698533.452600",
        "username": "GreetBot",
        "bot_id": "B0100JVEKUG"
    },
    {
        "client_msg_id": "ce1886c1-2aa9-4f4b-acc4-20686cfb770f",
        "type": "message",
        "text": "salut je suis interessé par les projets de pousses seringues comment on peut acceder aux discutions? ou peut on trouver les fichiers pour le refaire?",
        "user": "U011PP4H2BF",
        "ts": "1586699310.453900",
        "team": "TUU48M0T1",
        "user_team": "TUU48M0T1",
        "source_team": "TUU48M0T1",
        "user_profile": {
            "avatar_hash": "gb16041e73be",
            "image_72": "https:\/\/secure.gravatar.com\/avatar\/2ab47c90094c933f1f05b4ccb4db2b09.jpg?s=72&d=https%3A%2F%2Fa.slack-edge.com%2Fdf10d%2Fimg%2Favatars%2Fava_0024-72.png",
            "first_name": "",
            "real_name": "tyler durden",
            "display_name": "tyler durden",
            "team": "TUU48M0T1",
            "name": "pub",
            "is_restricted": false,
            "is_ultra_restricted": false
        },
        "blocks": [
            {
                "type": "rich_text",
                "block_id": "ROiT",
                "elements": [
                    {
                        "type": "rich_text_section",
                        "elements": [
                            {
                                "type": "text",
                                "text": "salut je suis interessé par les projets de pousses seringues comment on peut acceder aux discutions? ou peut on trouver les fichiers pour le refaire?"
                            }
                        ]
                    }
                ]
            }
        ],
        "thread_ts": "1586699310.453900",
        "reply_count": 1,
        "reply_users_count": 1,
        "latest_reply": "1586706717.454800",
        "reply_users": [
            "UV02WET96"
        ],
        "replies": [
            {
                "user": "UV02WET96",
                "ts": "1586706717.454800"
            }
        ],
        "subscribed": false
    },
    {
        "client_msg_id": "6d282c19-10c8-4356-bbc6-40e8ce22a7b9",
        "type": "message",
        "text": "merci",
        "user": "U011PP4H2BF",
        "ts": "1586699315.454100",
        "team": "TUU48M0T1",
        "user_team": "TUU48M0T1",
        "source_team": "TUU48M0T1",
        "user_profile": {
            "avatar_hash": "gb16041e73be",
            "image_72": "https:\/\/secure.gravatar.com\/avatar\/2ab47c90094c933f1f05b4ccb4db2b09.jpg?s=72&d=https%3A%2F%2Fa.slack-edge.com%2Fdf10d%2Fimg%2Favatars%2Fava_0024-72.png",
            "first_name": "",
            "real_name": "tyler durden",
            "display_name": "tyler durden",
            "team": "TUU48M0T1",
            "name": "pub",
            "is_restricted": false,
            "is_ultra_restricted": false
        },
        "blocks": [
            {
                "type": "rich_text",
                "block_id": "THD\/Q",
                "elements": [
                    {
                        "type": "rich_text_section",
                        "elements": [
                            {
                                "type": "text",
                                "text": "merci"
                            }
                        ]
                    }
                ]
            }
        ]
    },
    {
        "type": "message",
        "subtype": "bot_message",
        "text": "Ciao <@U011W4N3XU4> :flag-it:",
        "ts": "1586700872.454300",
        "username": "GreetBot",
        "bot_id": "B0100JVEKUG"
    },
    {
        "type": "message",
        "subtype": "bot_message",
        "text": "Annyeong <@U011P9U1MU3> :flag-kr:",
        "ts": "1586701086.454500",
        "username": "GreetBot",
        "bot_id": "B0100JVEKUG"
    },
    {
        "type": "message",
        "subtype": "bot_message",
        "text": "Hola <@U011PQW5JLD> :flag-es:",
        "ts": "1586703399.454700",
        "username": "GreetBot",
        "bot_id": "B0100JVEKUG"
    },
    {
        "client_msg_id": "67f2dcf1-f80d-44e3-907a-cfdf7aae7b9f",
        "type": "message",
        "text": "Hi Tyler, Welcome :slightly_smiling_face:\nYou can join the Syringe Pump discussions here: <#C011AQ00L5V|proj-syringepump>",
        "user": "UV02WET96",
        "ts": "1586706717.454800",
        "team": "TUU48M0T1",
        "user_team": "TUU48M0T1",
        "source_team": "TUU48M0T1",
        "user_profile": {
            "avatar_hash": "a99c74a194f8",
            "image_72": "https:\/\/avatars.slack-edge.com\/2020-03-07\/975708504851_a99c74a194f86715ca7d_72.png",
            "first_name": "Thomas",
            "real_name": "Thomas Landrain",
            "display_name": "Thomas Landrain - JOGL CoFounder \/ CEO",
            "team": "TUU48M0T1",
            "name": "thomas",
            "is_restricted": false,
            "is_ultra_restricted": false
        },
        "blocks": [
            {
                "type": "rich_text",
                "block_id": "C1hC",
                "elements": [
                    {
                        "type": "rich_text_section",
                        "elements": [
                            {
                                "type": "text",
                                "text": "Hi Tyler, Welcome "
                            },
                            {
                                "type": "emoji",
                                "name": "slightly_smiling_face"
                            },
                            {
                                "type": "text",
                                "text": "\nYou can join the Syringe Pump discussions here: "
                            },
                            {
                                "type": "channel",
                                "channel_id": "C011AQ00L5V"
                            }
                        ]
                    }
                ]
            }
        ],
        "thread_ts": "1586699310.453900",
        "parent_user_id": "U011PP4H2BF"
    },
    {
        "type": "message",
        "subtype": "bot_message",
        "text": "Sawadi Kap <@U012A6WA3GQ> :flag-th:",
        "ts": "1586707192.455300",
        "username": "GreetBot",
        "bot_id": "B0100JVEKUG"
    },
    {
        "client_msg_id": "e9063bb7-993a-4f25-b5fd-3a91c218b15c",
        "type": "message",
        "text": "Bonjour, j'imprime des visières avec mes petits moyens et les distribue aux caissiers et caissières, personnes exposées et dont on dépend aussi pour notre survie.",
        "user": "U011PQW5JLD",
        "ts": "1586707438.457600",
        "team": "TUU48M0T1",
        "user_team": "TUU48M0T1",
        "source_team": "TUU48M0T1",
        "user_profile": {
            "avatar_hash": "gf9c6cb08897",
            "image_72": "https:\/\/secure.gravatar.com\/avatar\/f9c6cb0889754fbc75ad72dc3be3d316.jpg?s=72&d=https%3A%2F%2Fa.slack-edge.com%2Fdf10d%2Fimg%2Favatars%2Fava_0017-72.png",
            "first_name": "",
            "real_name": "jaclub",
            "display_name": "jaclub",
            "team": "TUU48M0T1",
            "name": "jaclub",
            "is_restricted": false,
            "is_ultra_restricted": false
        },
        "blocks": [
            {
                "type": "rich_text",
                "block_id": "ehP",
                "elements": [
                    {
                        "type": "rich_text_section",
                        "elements": [
                            {
                                "type": "text",
                                "text": "Bonjour, j'imprime des visières avec mes petits moyens et les distribue aux caissiers et caissières, personnes exposées et dont on dépend aussi pour notre survie."
                            }
                        ]
                    }
                ]
            }
        ],
        "reactions": [
            {
                "name": "+1",
                "users": [
                    "U011D3TGYA1"
                ],
                "count": 1
            }
        ]
    },
    {
        "client_msg_id": "898005a9-45c1-40d2-b627-eb0df03823cb",
        "type": "message",
        "text": "J'ai également à disposition une CNC et des capacités de modélisation et CAM sur Fusion360",
        "user": "U011PQW5JLD",
        "ts": "1586707507.458700",
        "team": "TUU48M0T1",
        "user_team": "TUU48M0T1",
        "source_team": "TUU48M0T1",
        "user_profile": {
            "avatar_hash": "gf9c6cb08897",
            "image_72": "https:\/\/secure.gravatar.com\/avatar\/f9c6cb0889754fbc75ad72dc3be3d316.jpg?s=72&d=https%3A%2F%2Fa.slack-edge.com%2Fdf10d%2Fimg%2Favatars%2Fava_0017-72.png",
            "first_name": "",
            "real_name": "jaclub",
            "display_name": "jaclub",
            "team": "TUU48M0T1",
            "name": "jaclub",
            "is_restricted": false,
            "is_ultra_restricted": false
        },
        "blocks": [
            {
                "type": "rich_text",
                "block_id": "0ZG",
                "elements": [
                    {
                        "type": "rich_text_section",
                        "elements": [
                            {
                                "type": "text",
                                "text": "J'ai également à disposition une CNC et des capacités de modélisation et CAM sur Fusion360"
                            }
                        ]
                    }
                ]
            }
        ]
    },
    {
        "client_msg_id": "5210b55c-92ef-49fa-a034-bd04884082f2",
        "type": "message",
        "text": "Hi everyone, happy to join this initiative. My name is Alba Fernandez, I have an general engineering background and I have experience in mainly in project and product management. Let me know how I can support the initiative ! Thank you !",
        "user": "U012A6WA3GQ",
        "ts": "1586709714.462000",
        "team": "TUU48M0T1",
        "user_team": "TUU48M0T1",
        "source_team": "TUU48M0T1",
        "user_profile": {
            "avatar_hash": "g4ea3216a514",
            "image_72": "https:\/\/secure.gravatar.com\/avatar\/4ea3216a5141365a897f533e85900d68.jpg?s=72&d=https%3A%2F%2Fa.slack-edge.com%2Fdf10d%2Fimg%2Favatars%2Fava_0020-72.png",
            "first_name": "",
            "real_name": "Alba Fernandez",
            "display_name": "Alba Fernandez",
            "team": "TUU48M0T1",
            "name": "fernandezgarcia.alba",
            "is_restricted": false,
            "is_ultra_restricted": false
        },
        "blocks": [
            {
                "type": "rich_text",
                "block_id": "3Rl",
                "elements": [
                    {
                        "type": "rich_text_section",
                        "elements": [
                            {
                                "type": "text",
                                "text": "Hi everyone, happy to join this initiative. My name is Alba Fernandez, I have an general engineering background and I have experience in mainly in project and product management. Let me know how I can support the initiative ! Thank you !"
                            }
                        ]
                    }
                ]
            }
        ],
        "reactions": [
            {
                "name": "wave",
                "users": [
                    "UV02WET96"
                ],
                "count": 1
            }
        ]
    },
    {
        "type": "message",
        "subtype": "bot_message",
        "text": "Ciao <@U011NJ37M0S> :flag-it:",
        "ts": "1586713203.462200",
        "username": "GreetBot",
        "bot_id": "B0100JVEKUG"
    },
    {
        "type": "message",
        "subtype": "bot_message",
        "text": "Cześć <@U011W90JUCC> :flag-pl:",
        "ts": "1586718864.462400",
        "username": "GreetBot",
        "bot_id": "B0100JVEKUG"
    },
    {
        "type": "message",
        "subtype": "bot_message",
        "text": "Ciao <@U011CNRLYDV> :flag-it:",
        "ts": "1586741386.462600",
        "username": "GreetBot",
        "bot_id": "B0100JVEKUG"
    },
    {
        "type": "message",
        "subtype": "bot_message",
        "text": "Annyeong <@U012AQQQYP2> :flag-kr:",
        "ts": "1586750837.462800",
        "username": "GreetBot",
        "bot_id": "B0100JVEKUG",
        "reactions": [
            {
                "name": "+1",
                "users": [
                    "U0104M5CWV9"
                ],
                "count": 1
            }
        ]
    }
]