[
    {
        "client_msg_id": "7020edb7-fdd0-400a-9b34-dcfd0bf3cf6d",
        "type": "message",
        "text": "Bonjour, la page projet est créée sur JOGL: <https:\/\/app.jogl.io\/project\/207>",
        "user": "U011TLX75U3",
        "ts": "1586949748.485500",
        "team": "TUU48M0T1",
        "user_team": "TUU48M0T1",
        "source_team": "TUU48M0T1",
        "user_profile": {
            "avatar_hash": "g4f120323fe7",
            "image_72": "https:\/\/secure.gravatar.com\/avatar\/4f120323fe77eec5ef83fc1b988625fb.jpg?s=72&d=https%3A%2F%2Fa.slack-edge.com%2Fdf10d%2Fimg%2Favatars%2Fava_0010-72.png",
            "first_name": "",
            "real_name": "Phoenix équipement",
            "display_name": "Phoenix équipement",
            "team": "TUU48M0T1",
            "name": "thibaud.pxe",
            "is_restricted": false,
            "is_ultra_restricted": false
        },
        "attachments": [
            {
                "title": "JOGL - Just One Giant Lab",
                "title_link": "https:\/\/app.jogl.io\/project\/207",
                "text": "JOGL helps sync humanity onto solving our most important social &amp; environmental problems using open science, responsible innovation &amp; continuous learning.",
                "fallback": "JOGL - Just One Giant Lab",
                "thumb_url": "https:\/\/app.jogl.io\/planet.jpg",
                "from_url": "https:\/\/app.jogl.io\/project\/207",
                "thumb_width": 2049,
                "thumb_height": 1011,
                "service_icon": "https:\/\/app.jogl.io\/favicon.ico",
                "service_name": "app.jogl.io",
                "id": 1,
                "original_url": "https:\/\/app.jogl.io\/project\/207"
            }
        ],
        "blocks": [
            {
                "type": "rich_text",
                "block_id": "VWr",
                "elements": [
                    {
                        "type": "rich_text_section",
                        "elements": [
                            {
                                "type": "text",
                                "text": "Bonjour, la page projet est créée sur JOGL: "
                            },
                            {
                                "type": "link",
                                "url": "https:\/\/app.jogl.io\/project\/207"
                            }
                        ]
                    }
                ]
            }
        ],
        "thread_ts": "1586877457.476700",
        "parent_user_id": "U011TLX75U3",
        "reactions": [
            {
                "name": "+1",
                "users": [
                    "UV02WET96"
                ],
                "count": 1
            }
        ]
    },
    {
        "type": "message",
        "subtype": "bot_message",
        "text": "Namaste <@U011VNGLUHG> :flag-in:",
        "ts": "1586950153.485900",
        "username": "GreetBot",
        "bot_id": "B0100JVEKUG"
    },
    {
        "client_msg_id": "d84d2e95-0047-468c-8c5a-79dd910bf923",
        "type": "message",
        "text": "HI, I'm Antony from Paris France, I'm a pharmacy student, and health researcher. I creategames and serious games in health,and I work on health and medications problems. Happy to be volunteering on projects about the Covid crisis if I can help.",
        "user": "U011VNGLUHG",
        "ts": "1586950488.489400",
        "team": "TUU48M0T1",
        "user_team": "TUU48M0T1",
        "source_team": "TUU48M0T1",
        "user_profile": {
            "avatar_hash": "g41e54b5744a",
            "image_72": "https:\/\/secure.gravatar.com\/avatar\/41e54b5744a09a33108d9df619ce39fa.jpg?s=72&d=https%3A%2F%2Fa.slack-edge.com%2Fdf10d%2Fimg%2Favatars%2Fava_0006-72.png",
            "first_name": "",
            "real_name": "Antony",
            "display_name": "Antony",
            "team": "TUU48M0T1",
            "name": "antony.sar",
            "is_restricted": false,
            "is_ultra_restricted": false
        },
        "blocks": [
            {
                "type": "rich_text",
                "block_id": "xNUR",
                "elements": [
                    {
                        "type": "rich_text_section",
                        "elements": [
                            {
                                "type": "text",
                                "text": "HI, I'm Antony from Paris France, I'm a pharmacy student, and health researcher. I creategames and serious games in health,and I work on health and medications problems. Happy to be volunteering on projects about the Covid crisis if I can help."
                            }
                        ]
                    }
                ]
            }
        ],
        "thread_ts": "1586950488.489400",
        "reply_count": 2,
        "reply_users_count": 2,
        "latest_reply": "1586971765.499800",
        "reply_users": [
            "U011D8T1Z61",
            "U011VNGLUHG"
        ],
        "replies": [
            {
                "user": "U011D8T1Z61",
                "ts": "1586963613.490200"
            },
            {
                "user": "U011VNGLUHG",
                "ts": "1586971765.499800"
            }
        ],
        "subscribed": false,
        "reactions": [
            {
                "name": "wave",
                "users": [
                    "UV9V03C8Y",
                    "U0101DKUALV",
                    "UV02WET96",
                    "U011D8T1Z61"
                ],
                "count": 4
            }
        ]
    },
    {
        "client_msg_id": "12d189a2-4bc5-4009-9632-dee03df2e64a",
        "type": "message",
        "text": "Hello Antony! Welcome :blush:\nFeel free to check out <#C011FGGNCP8|prgm-student-engagement> and Bre’s game project at <#C01044Q28UB|proj-dev-edgame> to start",
        "user": "U011D8T1Z61",
        "ts": "1586963613.490200",
        "team": "TUU48M0T1",
        "user_team": "TUU48M0T1",
        "source_team": "TUU48M0T1",
        "user_profile": {
            "avatar_hash": "dfc1c8b48cda",
            "image_72": "https:\/\/avatars.slack-edge.com\/2020-04-04\/1045144130743_dfc1c8b48cda858b777d_72.png",
            "first_name": "",
            "real_name": "Michelle Hao",
            "display_name": "Michelle Hao",
            "team": "TUU48M0T1",
            "name": "mhao",
            "is_restricted": false,
            "is_ultra_restricted": false
        },
        "blocks": [
            {
                "type": "rich_text",
                "block_id": "AsWCr",
                "elements": [
                    {
                        "type": "rich_text_section",
                        "elements": [
                            {
                                "type": "text",
                                "text": "Hello Antony! Welcome "
                            },
                            {
                                "type": "emoji",
                                "name": "blush"
                            },
                            {
                                "type": "text",
                                "text": "\nFeel free to check out "
                            },
                            {
                                "type": "channel",
                                "channel_id": "C011FGGNCP8"
                            },
                            {
                                "type": "text",
                                "text": " and Bre’s game project at "
                            },
                            {
                                "type": "channel",
                                "channel_id": "C01044Q28UB"
                            },
                            {
                                "type": "text",
                                "text": " to start"
                            }
                        ]
                    }
                ]
            }
        ],
        "thread_ts": "1586950488.489400",
        "parent_user_id": "U011VNGLUHG"
    },
    {
        "type": "message",
        "subtype": "bot_message",
        "text": "Dobryy den’ <@U011FLEAST1> :flag-ua:",
        "ts": "1586965247.490600",
        "username": "GreetBot",
        "bot_id": "B0100JVEKUG"
    },
    {
        "type": "message",
        "subtype": "bot_message",
        "text": "Ciao <@U011V4B6RU5> :flag-it:",
        "ts": "1586967155.494000",
        "username": "GreetBot",
        "bot_id": "B0100JVEKUG"
    },
    {
        "client_msg_id": "79339f1a-f490-4b5f-a1e5-f9bea6042ed7",
        "type": "message",
        "text": "Hi, I'm Léopold (or Leo) from France. I'm a 3d printing enthusiast, engineering student and pretty good in the \"how to make something dumb and simple\" field. I use Fusion 360 for my daily use most of the time.",
        "user": "U011V4B6RU5",
        "ts": "1586967473.498300",
        "team": "TUU48M0T1",
        "user_team": "TUU48M0T1",
        "source_team": "TUU48M0T1",
        "user_profile": {
            "avatar_hash": "g15d34273d83",
            "image_72": "https:\/\/secure.gravatar.com\/avatar\/15d34273d8341b50fc14599259776bc1.jpg?s=72&d=https%3A%2F%2Fa.slack-edge.com%2Fdf10d%2Fimg%2Favatars%2Fava_0025-72.png",
            "first_name": "",
            "real_name": "Léopold Poquillon",
            "display_name": "Léopold Poquillon",
            "team": "TUU48M0T1",
            "name": "leopoq",
            "is_restricted": false,
            "is_ultra_restricted": false
        },
        "blocks": [
            {
                "type": "rich_text",
                "block_id": "S+ZTe",
                "elements": [
                    {
                        "type": "rich_text_section",
                        "elements": [
                            {
                                "type": "text",
                                "text": "Hi, I'm Léopold (or Leo) from France. I'm a 3d printing enthusiast, engineering student and pretty good in the \"how to make something dumb and simple\" field. I use Fusion 360 for my daily use most of the time."
                            }
                        ]
                    }
                ]
            }
        ],
        "reactions": [
            {
                "name": "wave",
                "users": [
                    "U011G0QGFN3",
                    "U011VNGLUHG"
                ],
                "count": 2
            }
        ]
    },
    {
        "type": "message",
        "subtype": "bot_message",
        "text": "Hérete <@U0122LXD076> :flag-gr:",
        "ts": "1586967575.499500",
        "username": "GreetBot",
        "bot_id": "B0100JVEKUG"
    },
    {
        "client_msg_id": "B7F5022A-0642-4A33-9407-13E15C00E63D",
        "type": "message",
        "text": "Hi, I’m Alec from NH, USA. I’ve been lurking on the slack for a couple days while I figure out some institutional regulations. I mostly have a microbiology culture\/molecular biology background . Have access to a BSL1 lab, and interested in helping with diagnostics",
        "user": "U011NR5GVHR",
        "ts": "1586967638.499700",
        "team": "TUU48M0T1",
        "user_team": "TUU48M0T1",
        "source_team": "TUU48M0T1",
        "user_profile": {
            "avatar_hash": "b64f3d9a42a9",
            "image_72": "https:\/\/avatars.slack-edge.com\/2020-04-17\/1069851765939_b64f3d9a42a96f4b2ace_72.jpg",
            "first_name": "",
            "real_name": "Alec Cobban",
            "display_name": "Alec Cobban",
            "team": "TUU48M0T1",
            "name": "alecobban",
            "is_restricted": false,
            "is_ultra_restricted": false
        },
        "blocks": [
            {
                "type": "rich_text",
                "block_id": "8TJ",
                "elements": [
                    {
                        "type": "rich_text_section",
                        "elements": [
                            {
                                "type": "text",
                                "text": "Hi, I’m Alec from NH, USA. I’ve been lurking on the slack for a couple days while I figure out some institutional regulations. I mostly have a microbiology culture\/molecular biology background . Have access to a BSL1 lab, and interested in helping with diagnostics"
                            }
                        ]
                    }
                ]
            }
        ],
        "reactions": [
            {
                "name": "wave",
                "users": [
                    "U011G0QGFN3",
                    "U011VNGLUHG",
                    "UV02WET96"
                ],
                "count": 3
            }
        ]
    },
    {
        "client_msg_id": "4edc671e-003d-4ad4-a329-ed26d95151f5",
        "type": "message",
        "text": "Thank you Michelle for the tips. I would gladly check this topics.",
        "user": "U011VNGLUHG",
        "ts": "1586971765.499800",
        "team": "TUU48M0T1",
        "user_team": "TUU48M0T1",
        "source_team": "TUU48M0T1",
        "user_profile": {
            "avatar_hash": "g41e54b5744a",
            "image_72": "https:\/\/secure.gravatar.com\/avatar\/41e54b5744a09a33108d9df619ce39fa.jpg?s=72&d=https%3A%2F%2Fa.slack-edge.com%2Fdf10d%2Fimg%2Favatars%2Fava_0006-72.png",
            "first_name": "",
            "real_name": "Antony",
            "display_name": "Antony",
            "team": "TUU48M0T1",
            "name": "antony.sar",
            "is_restricted": false,
            "is_ultra_restricted": false
        },
        "blocks": [
            {
                "type": "rich_text",
                "block_id": "yA5M",
                "elements": [
                    {
                        "type": "rich_text_section",
                        "elements": [
                            {
                                "type": "text",
                                "text": "Thank you Michelle for the tips. I would gladly check this topics."
                            }
                        ]
                    }
                ]
            }
        ],
        "thread_ts": "1586950488.489400",
        "parent_user_id": "U011VNGLUHG",
        "reactions": [
            {
                "name": "star-struck",
                "users": [
                    "U011VNGLUHG"
                ],
                "count": 1
            }
        ]
    },
    {
        "type": "message",
        "subtype": "bot_message",
        "text": "Habari <@U011G0QGFN3> :flag-tz:",
        "ts": "1586972010.000300",
        "username": "GreetBot",
        "bot_id": "B0100JVEKUG"
    },
    {
        "type": "message",
        "subtype": "bot_message",
        "text": "Bonjour <@U011Q1MUY1L> :flag-fr:",
        "ts": "1586972745.000500",
        "username": "GreetBot",
        "bot_id": "B0100JVEKUG"
    },
    {
        "client_msg_id": "5001f9a2-c790-4977-9821-9e9f64e8b5ce",
        "type": "message",
        "text": "Hi everyone! I'm  Hunter from Los Angeles USA and  run a small hackerspace. I do industrial &amp; soft goods design (Fusion 360, Rhino) digital fabrication (CNC milling, laser cutting, 3D printing) hardware electronics (circuit design, microcontrollers, robotics) and software programming (javascript, python, C++).  I also fold origami. I'm working on an open source disposable n95 respirator project called the Basic Respirator. I've been a team of one so far so I am happy to join the group!",
        "user": "U011G0QGFN3",
        "ts": "1586973628.001200",
        "team": "TUU48M0T1",
        "user_team": "TUU48M0T1",
        "source_team": "TUU48M0T1",
        "user_profile": {
            "avatar_hash": "e5bfa29546fa",
            "image_72": "https:\/\/avatars.slack-edge.com\/2020-04-15\/1077438063281_e5bfa29546fa8873e2fc_72.jpg",
            "first_name": "Hunter",
            "real_name": "Hunter Futo",
            "display_name": "Hunter Futo",
            "team": "TUU48M0T1",
            "name": "hunter",
            "is_restricted": false,
            "is_ultra_restricted": false
        },
        "blocks": [
            {
                "type": "rich_text",
                "block_id": "eUZ",
                "elements": [
                    {
                        "type": "rich_text_section",
                        "elements": [
                            {
                                "type": "text",
                                "text": "Hi everyone! I'm  Hunter from Los Angeles USA and  run a small hackerspace. I do industrial & soft goods design (Fusion 360, Rhino) digital fabrication (CNC milling, laser cutting, 3D printing) hardware electronics (circuit design, microcontrollers, robotics) and software programming (javascript, python, C++).  I also fold origami. I'm working on an open source disposable n95 respirator project called the Basic Respirator. I've been a team of one so far so I am happy to join the group!"
                            }
                        ]
                    }
                ]
            }
        ],
        "reactions": [
            {
                "name": "wave",
                "users": [
                    "U011VNGLUHG",
                    "UV02WET96"
                ],
                "count": 2
            },
            {
                "name": "clap",
                "users": [
                    "U011B5424FR",
                    "U011PEVETMJ"
                ],
                "count": 2
            },
            {
                "name": "100",
                "users": [
                    "U0120AGV1PE",
                    "U01113Y1PLP"
                ],
                "count": 2
            },
            {
                "name": "heart",
                "users": [
                    "U011VL7PJFP"
                ],
                "count": 1
            }
        ]
    },
    {
        "type": "message",
        "subtype": "bot_message",
        "text": "Hérete <@U0129F8FC57> :flag-gr:",
        "ts": "1586975093.002100",
        "username": "GreetBot",
        "bot_id": "B0100JVEKUG"
    },
    {
        "type": "message",
        "subtype": "channel_join",
        "ts": "1586978134.002500",
        "user": "U010PC3QFFA",
        "text": "<@U010PC3QFFA> has joined the channel",
        "inviter": "UV02WET96"
    },
    {
        "type": "message",
        "subtype": "bot_message",
        "text": "Annyeong <@U010PC3QFFA> :flag-kr:",
        "ts": "1586978135.002600",
        "username": "GreetBot",
        "bot_id": "B0100JVEKUG"
    },
    {
        "type": "message",
        "subtype": "channel_join",
        "ts": "1586978142.002800",
        "user": "U010ZV6MNTZ",
        "text": "<@U010ZV6MNTZ> has joined the channel",
        "inviter": "UV02WET96"
    },
    {
        "type": "message",
        "subtype": "bot_message",
        "text": "Olá <@U010ZV6MNTZ> :flag-pt:",
        "ts": "1586978143.002900",
        "username": "GreetBot",
        "bot_id": "B0100JVEKUG"
    },
    {
        "type": "message",
        "subtype": "channel_join",
        "ts": "1586978157.003200",
        "user": "U010XDVC6GL",
        "text": "<@U010XDVC6GL> has joined the channel",
        "inviter": "UV02WET96"
    },
    {
        "type": "message",
        "subtype": "bot_message",
        "text": "Hola <@U010XDVC6GL> :flag-es:",
        "ts": "1586978158.003300",
        "username": "GreetBot",
        "bot_id": "B0100JVEKUG"
    },
    {
        "type": "message",
        "subtype": "bot_message",
        "text": "Nǐ hǎo <@U0122HZJ18U> :flag-cn:",
        "ts": "1586978377.003400",
        "username": "GreetBot",
        "bot_id": "B0100JVEKUG"
    },
    {
        "type": "message",
        "subtype": "bot_message",
        "text": "Cześć <@U011VL7PJFP> :flag-pl:",
        "ts": "1586979277.004000",
        "username": "GreetBot",
        "bot_id": "B0100JVEKUG"
    },
    {
        "type": "message",
        "subtype": "bot_message",
        "text": "Bonjour <@U011X24CJN6> :flag-fr:",
        "ts": "1586979394.004200",
        "username": "GreetBot",
        "bot_id": "B0100JVEKUG"
    },
    {
        "type": "message",
        "subtype": "bot_message",
        "text": "Hallå <@U0123959PEG> :flag-se:",
        "ts": "1586981140.004400",
        "username": "GreetBot",
        "bot_id": "B0100JVEKUG"
    },
    {
        "type": "message",
        "subtype": "bot_message",
        "text": "Hallå <@U011X6ED9TL> :flag-se:",
        "ts": "1586983093.004600",
        "username": "GreetBot",
        "bot_id": "B0100JVEKUG"
    },
    {
        "type": "message",
        "subtype": "bot_message",
        "text": "Marhaba <@U011X9JASTC> :flag-eg:",
        "ts": "1586985973.004800",
        "username": "GreetBot",
        "bot_id": "B0100JVEKUG"
    },
    {
        "client_msg_id": "206ec4df-f115-4472-8b3c-a538fccad114",
        "type": "message",
        "text": "Hi everyone! I'm a (beginner-ish) engineer with 3 3d printers and circuit design experience, as well as a Pythonista. Happy to be on board!",
        "user": "U011VL7PJFP",
        "ts": "1586986443.005500",
        "team": "TUU48M0T1",
        "user_team": "TUU48M0T1",
        "source_team": "TUU48M0T1",
        "user_profile": {
            "avatar_hash": "g782d9235a3e",
            "image_72": "https:\/\/secure.gravatar.com\/avatar\/782d9235a3e92c18a889fb1b8af985f8.jpg?s=72&d=https%3A%2F%2Fa.slack-edge.com%2Fdf10d%2Fimg%2Favatars%2Fava_0010-72.png",
            "first_name": "",
            "real_name": "Shura Kotlerman",
            "display_name": "Shura Kotlerman",
            "team": "TUU48M0T1",
            "name": "akotlerman",
            "is_restricted": false,
            "is_ultra_restricted": false
        },
        "blocks": [
            {
                "type": "rich_text",
                "block_id": "5LW",
                "elements": [
                    {
                        "type": "rich_text_section",
                        "elements": [
                            {
                                "type": "text",
                                "text": "Hi everyone! I'm a (beginner-ish) engineer with 3 3d printers and circuit design experience, as well as a Pythonista. Happy to be on board!"
                            }
                        ]
                    }
                ]
            }
        ],
        "thread_ts": "1586986443.005500",
        "reply_count": 1,
        "reply_users_count": 1,
        "latest_reply": "1586994220.006000",
        "reply_users": [
            "U011G0QGFN3"
        ],
        "replies": [
            {
                "user": "U011G0QGFN3",
                "ts": "1586994220.006000"
            }
        ],
        "subscribed": false,
        "reactions": [
            {
                "name": "wave",
                "users": [
                    "UV02WET96",
                    "U011G0QGFN3"
                ],
                "count": 2
            }
        ]
    },
    {
        "client_msg_id": "dc906614-ec31-4500-ab42-30c1927fe150",
        "type": "message",
        "text": "Hi Shura, we have a lot of interests in common!",
        "user": "U011G0QGFN3",
        "ts": "1586994220.006000",
        "team": "TUU48M0T1",
        "user_team": "TUU48M0T1",
        "source_team": "TUU48M0T1",
        "user_profile": {
            "avatar_hash": "e5bfa29546fa",
            "image_72": "https:\/\/avatars.slack-edge.com\/2020-04-15\/1077438063281_e5bfa29546fa8873e2fc_72.jpg",
            "first_name": "Hunter",
            "real_name": "Hunter Futo",
            "display_name": "Hunter Futo",
            "team": "TUU48M0T1",
            "name": "hunter",
            "is_restricted": false,
            "is_ultra_restricted": false
        },
        "edited": {
            "user": "U011G0QGFN3",
            "ts": "1586994233.000000"
        },
        "blocks": [
            {
                "type": "rich_text",
                "block_id": "Q0CRl",
                "elements": [
                    {
                        "type": "rich_text_section",
                        "elements": [
                            {
                                "type": "text",
                                "text": "Hi Shura, we have a lot of interests in common!"
                            }
                        ]
                    }
                ]
            }
        ],
        "thread_ts": "1586986443.005500",
        "parent_user_id": "U011VL7PJFP"
    },
    {
        "type": "message",
        "subtype": "bot_message",
        "text": "Olá <@U011WGYUCG5> :flag-pt:",
        "ts": "1587017754.006400",
        "username": "GreetBot",
        "bot_id": "B0100JVEKUG"
    }
]