[
    {
        "client_msg_id": "13d9c636-0ba5-41cd-99ea-2c76436f1c59",
        "type": "message",
        "text": "<@UV02WET96> Hello apologies for the late response - yes I have it is: <https:\/\/app.jogl.io\/project\/208#needs>. We came through the Hack From Home event. We were one of the winners.",
        "user": "U01243D50RH",
        "ts": "1587726146.057500",
        "team": "TUU48M0T1",
        "user_team": "TUU48M0T1",
        "source_team": "TUU48M0T1",
        "user_profile": {
            "avatar_hash": "g02551b11059",
            "image_72": "https:\/\/secure.gravatar.com\/avatar\/02551b11059024af5f89da9dfc17e766.jpg?s=72&d=https%3A%2F%2Fa.slack-edge.com%2Fdf10d%2Fimg%2Favatars%2Fava_0011-72.png",
            "first_name": "",
            "real_name": "cosfantis(opencovid)",
            "display_name": "cosfantis(opencovid)",
            "team": "TUU48M0T1",
            "name": "cosfantis",
            "is_restricted": false,
            "is_ultra_restricted": false
        },
        "attachments": [
            {
                "service_name": "JOGL - Just One Giant Lab",
                "title": "Encode Healthcare Passport | JOGL",
                "title_link": "https:\/\/app.jogl.io\/project\/208#needs",
                "text": "We us mobile cameras for capturing identity information and COVID-19 test kit information into the Encode Healthcare Passport.",
                "fallback": "JOGL - Just One Giant Lab: Encode Healthcare Passport | JOGL",
                "thumb_url": "https:\/\/jogl-backend.herokuapp.com\/rails\/active_storage\/representations\/eyJfcmFpbHMiOnsibWVzc2FnZSI6IkJBaHBBc0FHIiwiZXhwIjpudWxsLCJwdXIiOiJibG9iX2lkIn19--426b08e232cda686305a1aceffbce05310e4ec2f\/eyJfcmFpbHMiOnsibWVzc2FnZSI6IkJBaDdCam9MY21WemFYcGxTU0lOTkRBd2VEUXdNRjRHT2daRlZBPT0iLCJleHAiOm51bGwsInB1ciI6InZhcmlhdGlvbiJ9fQ==--a35f8ec586c78dc9d1bd1b8dff57088b517bdd00\/Encode%20Screen%20saver.png",
                "from_url": "https:\/\/app.jogl.io\/project\/208#needs",
                "thumb_width": 712,
                "thumb_height": 400,
                "service_icon": "https:\/\/app.jogl.io\/images\/favicon.ico",
                "id": 1,
                "original_url": "https:\/\/app.jogl.io\/project\/208#needs"
            }
        ],
        "blocks": [
            {
                "type": "rich_text",
                "block_id": "eX5",
                "elements": [
                    {
                        "type": "rich_text_section",
                        "elements": [
                            {
                                "type": "user",
                                "user_id": "UV02WET96"
                            },
                            {
                                "type": "text",
                                "text": " Hello apologies for the late response - yes I have it is: "
                            },
                            {
                                "type": "link",
                                "url": "https:\/\/app.jogl.io\/project\/208#needs"
                            },
                            {
                                "type": "text",
                                "text": ". We came through the Hack From Home event. We were one of the winners."
                            }
                        ]
                    }
                ]
            }
        ],
        "thread_ts": "1587292483.027200",
        "parent_user_id": "U01243D50RH"
    },
    {
        "type": "message",
        "subtype": "bot_message",
        "text": "Dobryy den’ <@U012NUJBLMS> :flag-ua:",
        "ts": "1587743292.058000",
        "username": "GreetBot",
        "bot_id": "B0100JVEKUG"
    },
    {
        "type": "message",
        "subtype": "bot_message",
        "text": "Habari <@U012PAADW2Y> :flag-tz:",
        "ts": "1587751955.058200",
        "username": "GreetBot",
        "bot_id": "B0100JVEKUG"
    },
    {
        "client_msg_id": "e0c10366-8642-434a-b6ad-f8a2b7331993",
        "type": "message",
        "text": "<@U012PAADW2Y>",
        "user": "U011D6K9RH6",
        "ts": "1587754058.058400",
        "team": "TUU48M0T1",
        "user_team": "TUU48M0T1",
        "source_team": "TUU48M0T1",
        "user_profile": {
            "avatar_hash": "85c5155708e4",
            "image_72": "https:\/\/avatars.slack-edge.com\/2020-04-02\/1033600589794_85c5155708e4e6cfa61f_72.jpg",
            "first_name": "George",
            "real_name": "George Elerick",
            "display_name": "George Elerick",
            "team": "TUU48M0T1",
            "name": "george",
            "is_restricted": false,
            "is_ultra_restricted": false
        },
        "blocks": [
            {
                "type": "rich_text",
                "block_id": "UnbBj",
                "elements": [
                    {
                        "type": "rich_text_section",
                        "elements": [
                            {
                                "type": "user",
                                "user_id": "U012PAADW2Y"
                            }
                        ]
                    }
                ]
            }
        ]
    },
    {
        "type": "message",
        "subtype": "bot_message",
        "text": "Hallå <@U0137DMGCP2> :flag-se:",
        "ts": "1587763988.058600",
        "username": "GreetBot",
        "bot_id": "B0100JVEKUG"
    },
    {
        "type": "message",
        "subtype": "bot_message",
        "text": "Olá <@U012PU1540L> :flag-pt:",
        "ts": "1587771538.058800",
        "username": "GreetBot",
        "bot_id": "B0100JVEKUG"
    },
    {
        "client_msg_id": "ca6085b2-9df0-46e9-af20-1c16084fda30",
        "type": "message",
        "text": "Hey everyone, my name is Cath (you can also call me Zak). I'm in the Lacey area, just south of Seattle, WA. I'm happy to contribute my experience in computer programming and molecular biology techniques in any way that I can to this project. I've been added to <#C011FGGNCP8|prgm-student-engagement> by the lovely Pauline Chane, and will help increase the group's publicity by reaching out to student and parish communities I know.\n\nI'm looking forward to working with you all and seeing what this initiative will accomplish.",
        "user": "U012CN299JP",
        "ts": "1587776205.063600",
        "team": "TUU48M0T1",
        "user_team": "TUU48M0T1",
        "source_team": "TUU48M0T1",
        "user_profile": {
            "avatar_hash": "g4b6af885f08",
            "image_72": "https:\/\/secure.gravatar.com\/avatar\/4b6af885f08dc555bb52db5f32858af0.jpg?s=72&d=https%3A%2F%2Fa.slack-edge.com%2Fdf10d%2Fimg%2Favatars%2Fava_0005-72.png",
            "first_name": "Zak",
            "real_name": "Zak Cath Ashley",
            "display_name": "Zak Cath",
            "team": "TUU48M0T1",
            "name": "cath.ashley.1932",
            "is_restricted": false,
            "is_ultra_restricted": false
        },
        "blocks": [
            {
                "type": "rich_text",
                "block_id": "z9M",
                "elements": [
                    {
                        "type": "rich_text_section",
                        "elements": [
                            {
                                "type": "text",
                                "text": "Hey everyone, my name is Cath (you can also call me Zak). I'm in the Lacey area, just south of Seattle, WA. I'm happy to contribute my experience in computer programming and molecular biology techniques in any way that I can to this project. I've been added to "
                            },
                            {
                                "type": "channel",
                                "channel_id": "C011FGGNCP8"
                            },
                            {
                                "type": "text",
                                "text": " by the lovely Pauline Chane, and will help increase the group's publicity by reaching out to student and parish communities I know.\n\nI'm looking forward to working with you all and seeing what this initiative will accomplish."
                            }
                        ]
                    }
                ]
            }
        ],
        "reactions": [
            {
                "name": "heart",
                "users": [
                    "U0101DKUALV",
                    "UV10KBUQG",
                    "U011D8T1Z61"
                ],
                "count": 3
            },
            {
                "name": "party-dino",
                "users": [
                    "U0101DKUALV",
                    "UV10KBUQG",
                    "U011D8T1Z61"
                ],
                "count": 3
            },
            {
                "name": "+1",
                "users": [
                    "UV1A22N3W",
                    "UV02WET96",
                    "U011D8T1Z61",
                    "U01113Y1PLP"
                ],
                "count": 4
            },
            {
                "name": "wave",
                "users": [
                    "UV02WET96",
                    "U011D8T1Z61"
                ],
                "count": 2
            }
        ]
    }
]