[
    {
        "client_msg_id": "141564ba-4d58-4ce6-a8a2-1a01acc22621",
        "type": "message",
        "text": "Hello George, my understanding is that the project is in a quite preliminary state: laying out the basic functions, exploring developing feasibility... Let me know when the sub-functions of the platform become a little more tangible, I might be of more help in such a phase to envision and explore different concepts for website(\/app?) interaction.\nIf you're still looking to connect an existing emotion recognition AI platform, I came across this page that lists quite a few: <https:\/\/tractica.omdia.com\/research\/emotion-recognition-and-sentiment-analysis\/>\nGood luck with it!",
        "user": "U011LQ49GLW",
        "ts": "1587808146.006900",
        "team": "TUU48M0T1",
        "user_team": "TUU48M0T1",
        "source_team": "TUU48M0T1",
        "user_profile": {
            "avatar_hash": "60440d611821",
            "image_72": "https:\/\/avatars.slack-edge.com\/2020-04-14\/1060952694723_60440d6118216793464e_72.png",
            "first_name": "Charlotte",
            "real_name": "Charlotte Vanhoutte",
            "display_name": "Charlotte Vanhoutte",
            "team": "TUU48M0T1",
            "name": "charlottevanhoutte",
            "is_restricted": false,
            "is_ultra_restricted": false
        },
        "blocks": [
            {
                "type": "rich_text",
                "block_id": "KAP",
                "elements": [
                    {
                        "type": "rich_text_section",
                        "elements": [
                            {
                                "type": "text",
                                "text": "Hello George, my understanding is that the project is in a quite preliminary state: laying out the basic functions, exploring developing feasibility... Let me know when the sub-functions of the platform become a little more tangible, I might be of more help in such a phase to envision and explore different concepts for website(\/app?) interaction.\nIf you're still looking to connect an existing emotion recognition AI platform, I came across this page that lists quite a few: "
                            },
                            {
                                "type": "link",
                                "url": "https:\/\/tractica.omdia.com\/research\/emotion-recognition-and-sentiment-analysis\/"
                            },
                            {
                                "type": "text",
                                "text": "\nGood luck with it!"
                            }
                        ]
                    }
                ]
            }
        ]
    }
]