[
    {
        "type": "message",
        "subtype": "channel_join",
        "ts": "1586165143.000200",
        "user": "U011B6VLM2A",
        "text": "<@U011B6VLM2A> has joined the channel"
    },
    {
        "client_msg_id": "4e406a87-056e-477e-96fe-d4e335c2250f",
        "type": "message",
        "text": "Just wondering — should the title of this channel not be “proj-mentalhealth” if it’s in face meant to help coordinate activities around a specific project?",
        "user": "U011B6VLM2A",
        "ts": "1586165183.000800",
        "team": "TUU48M0T1",
        "user_team": "TUU48M0T1",
        "source_team": "TUU48M0T1",
        "user_profile": {
            "avatar_hash": "4231dc598cfc",
            "image_72": "https:\/\/avatars.slack-edge.com\/2020-04-02\/1044784558839_4231dc598cfc2e59c4c4_72.jpg",
            "first_name": "Alix",
            "real_name": "Alix Mains",
            "display_name": "Alix Mains - JOGL Coordinator",
            "team": "TUU48M0T1",
            "name": "alixhmains",
            "is_restricted": false,
            "is_ultra_restricted": false
        },
        "blocks": [
            {
                "type": "rich_text",
                "block_id": "jo=",
                "elements": [
                    {
                        "type": "rich_text_section",
                        "elements": [
                            {
                                "type": "text",
                                "text": "Just wondering — should the title of this channel not be “proj-mentalhealth” if it’s in face meant to help coordinate activities around a specific project?"
                            }
                        ]
                    }
                ]
            }
        ]
    },
    {
        "client_msg_id": "904c5eaf-ee00-4e23-ba68-11e197bc80ee",
        "type": "message",
        "text": "I’m thinking that way it’ll be easier for people to find this channel!",
        "user": "U011B6VLM2A",
        "ts": "1586165197.001200",
        "team": "TUU48M0T1",
        "user_team": "TUU48M0T1",
        "source_team": "TUU48M0T1",
        "user_profile": {
            "avatar_hash": "4231dc598cfc",
            "image_72": "https:\/\/avatars.slack-edge.com\/2020-04-02\/1044784558839_4231dc598cfc2e59c4c4_72.jpg",
            "first_name": "Alix",
            "real_name": "Alix Mains",
            "display_name": "Alix Mains - JOGL Coordinator",
            "team": "TUU48M0T1",
            "name": "alixhmains",
            "is_restricted": false,
            "is_ultra_restricted": false
        },
        "blocks": [
            {
                "type": "rich_text",
                "block_id": "RddWs",
                "elements": [
                    {
                        "type": "rich_text_section",
                        "elements": [
                            {
                                "type": "text",
                                "text": "I’m thinking that way it’ll be easier for people to find this channel!"
                            }
                        ]
                    }
                ]
            }
        ]
    },
    {
        "client_msg_id": "6d0693fb-d9f0-4ca8-b6eb-43e9626a614f",
        "type": "message",
        "text": "<@U011D6K9RH6>",
        "user": "U011B6VLM2A",
        "ts": "1586165202.001400",
        "team": "TUU48M0T1",
        "user_team": "TUU48M0T1",
        "source_team": "TUU48M0T1",
        "user_profile": {
            "avatar_hash": "4231dc598cfc",
            "image_72": "https:\/\/avatars.slack-edge.com\/2020-04-02\/1044784558839_4231dc598cfc2e59c4c4_72.jpg",
            "first_name": "Alix",
            "real_name": "Alix Mains",
            "display_name": "Alix Mains - JOGL Coordinator",
            "team": "TUU48M0T1",
            "name": "alixhmains",
            "is_restricted": false,
            "is_ultra_restricted": false
        },
        "blocks": [
            {
                "type": "rich_text",
                "block_id": "QYvi",
                "elements": [
                    {
                        "type": "rich_text_section",
                        "elements": [
                            {
                                "type": "user",
                                "user_id": "U011D6K9RH6"
                            }
                        ]
                    }
                ]
            }
        ]
    },
    {
        "client_msg_id": "d22e5c22-674e-4b8b-9d9d-07d750b47641",
        "type": "message",
        "text": "Hi <@U0103128G4D> - Glad to have you! :slightly_smiling_face:\nHi <@U011B6VLM2A> - Great to hear from you! - Yes! That will work too!\nWe also want to create programs (sustainable ones at the local and governmental levels) - But, it could also easily work under the banner of the project.\n\nI would love to hear from you both about your roles, and experiences and how you would like to contribute?\n\nWe will need to work on a policy document along the way. But, one thing that is not really being provided is teleservices for those who are either fearful of contracting COVID19 (ie coping skills), those who are in the middle of experiencing symptoms (without family), and post-COVID19 mental health and the overall pandemic of loneliness.",
        "user": "U011D6K9RH6",
        "ts": "1586193274.004100",
        "team": "TUU48M0T1",
        "user_team": "TUU48M0T1",
        "source_team": "TUU48M0T1",
        "user_profile": {
            "avatar_hash": "85c5155708e4",
            "image_72": "https:\/\/avatars.slack-edge.com\/2020-04-02\/1033600589794_85c5155708e4e6cfa61f_72.jpg",
            "first_name": "George",
            "real_name": "George Elerick",
            "display_name": "George Elerick",
            "team": "TUU48M0T1",
            "name": "george",
            "is_restricted": false,
            "is_ultra_restricted": false
        },
        "blocks": [
            {
                "type": "rich_text",
                "block_id": "rISM",
                "elements": [
                    {
                        "type": "rich_text_section",
                        "elements": [
                            {
                                "type": "text",
                                "text": "Hi "
                            },
                            {
                                "type": "user",
                                "user_id": "U0103128G4D"
                            },
                            {
                                "type": "text",
                                "text": " - Glad to have you! "
                            },
                            {
                                "type": "emoji",
                                "name": "slightly_smiling_face"
                            },
                            {
                                "type": "text",
                                "text": "\nHi "
                            },
                            {
                                "type": "user",
                                "user_id": "U011B6VLM2A"
                            },
                            {
                                "type": "text",
                                "text": " - Great to hear from you! - Yes! That will work too!\nWe also want to create programs (sustainable ones at the local and governmental levels) - But, it could also easily work under the banner of the project.\n\nI would love to hear from you both about your roles, and experiences and how you would like to contribute?\n\nWe will need to work on a policy document along the way. But, one thing that is not really being provided is teleservices for those who are either fearful of contracting COVID19 (ie coping skills), those who are in the middle of experiencing symptoms (without family), and post-COVID19 mental health and the overall pandemic of loneliness."
                            }
                        ]
                    }
                ]
            }
        ],
        "thread_ts": "1586193274.004100",
        "reply_count": 2,
        "reply_users_count": 2,
        "latest_reply": "1586884956.005100",
        "reply_users": [
            "U011B6VLM2A",
            "U011D6K9RH6"
        ],
        "replies": [
            {
                "user": "U011B6VLM2A",
                "ts": "1586507185.000400"
            },
            {
                "user": "U011D6K9RH6",
                "ts": "1586884956.005100"
            }
        ],
        "subscribed": false,
        "reactions": [
            {
                "name": "+1",
                "users": [
                    "U010Q3G4MDF"
                ],
                "count": 1
            }
        ]
    },
    {
        "type": "message",
        "subtype": "channel_name",
        "ts": "1586193641.004200",
        "user": "U011D6K9RH6",
        "text": "<@U011D6K9RH6> has renamed the channel from \"prgm-mentalhealth\" to \"proj-mentalhealth\"",
        "old_name": "prgm-mentalhealth",
        "name": "proj-mentalhealth"
    }
]