[
    {
        "client_msg_id": "bea00a1f-dd6b-41e3-b397-6892338f728d",
        "type": "message",
        "text": "<https:\/\/www.youtube.com\/watch?v=HDwydir9s_A>",
        "user": "UV7LUJG1Y",
        "ts": "1585760040.025300",
        "team": "TUU48M0T1",
        "user_team": "TUU48M0T1",
        "source_team": "TUU48M0T1",
        "user_profile": {
            "avatar_hash": "048307b17644",
            "image_72": "https:\/\/avatars.slack-edge.com\/2020-04-04\/1043242365313_048307b17644844abd87_72.jpg",
            "first_name": "",
            "real_name": "Guy Aidelberg",
            "display_name": "Guy Aidelberg",
            "team": "TUU48M0T1",
            "name": "guyaidelberg",
            "is_restricted": false,
            "is_ultra_restricted": false
        },
        "attachments": [
            {
                "service_name": "YouTube",
                "service_url": "https:\/\/www.youtube.com\/",
                "title": "After the First Wave",
                "title_link": "https:\/\/www.youtube.com\/watch?v=HDwydir9s_A",
                "author_name": "Santa Fe Institute",
                "author_link": "https:\/\/www.youtube.com\/user\/santafeinst",
                "thumb_url": "https:\/\/i.ytimg.com\/vi\/HDwydir9s_A\/hqdefault.jpg",
                "thumb_width": 480,
                "thumb_height": 360,
                "fallback": "YouTube Video: After the First Wave",
                "video_html": "<iframe width=\"400\" height=\"225\" src=\"https:\/\/www.youtube.com\/embed\/HDwydir9s_A?feature=oembed&autoplay=1&iv_load_policy=3\" frameborder=\"0\" allow=\"accelerometer; autoplay; encrypted-media; gyroscope; picture-in-picture\" allowfullscreen><\/iframe>",
                "video_html_width": 400,
                "video_html_height": 225,
                "from_url": "https:\/\/www.youtube.com\/watch?v=HDwydir9s_A",
                "service_icon": "https:\/\/a.slack-edge.com\/80588\/img\/unfurl_icons\/youtube.png",
                "id": 1,
                "original_url": "https:\/\/www.youtube.com\/watch?v=HDwydir9s_A"
            }
        ],
        "blocks": [
            {
                "type": "rich_text",
                "block_id": "scahV",
                "elements": [
                    {
                        "type": "rich_text_section",
                        "elements": [
                            {
                                "type": "link",
                                "url": "https:\/\/www.youtube.com\/watch?v=HDwydir9s_A"
                            }
                        ]
                    }
                ]
            }
        ]
    },
    {
        "type": "message",
        "subtype": "channel_join",
        "ts": "1585762859.025600",
        "user": "U010W2Z4MMZ",
        "text": "<@U010W2Z4MMZ> has joined the channel",
        "inviter": "UV10KBUQG"
    },
    {
        "client_msg_id": "e48570ce-89e3-43cd-aec1-0585c60df837",
        "type": "message",
        "text": "for info: <https:\/\/www.nature.com\/articles\/s41586-020-2196-x?fbclid=IwAR3CM-BycY4f7Hq2aFj5Az6XhFWuNFiEW7oqOHF2Ch5kYexzI_pKxFiLAuY>",
        "user": "UV1A22N3W",
        "ts": "1585773100.026500",
        "team": "TUU48M0T1",
        "user_team": "TUU48M0T1",
        "source_team": "TUU48M0T1",
        "user_profile": {
            "avatar_hash": "71f827776ad6",
            "image_72": "https:\/\/avatars.slack-edge.com\/2020-03-09\/988125642964_71f827776ad610af05a2_72.jpg",
            "first_name": "",
            "real_name": "RachelA",
            "display_name": "RachelA",
            "team": "TUU48M0T1",
            "name": "raronoff",
            "is_restricted": false,
            "is_ultra_restricted": false
        },
        "edited": {
            "user": "UV1A22N3W",
            "ts": "1585773173.000000"
        },
        "blocks": [
            {
                "type": "rich_text",
                "block_id": "s6aA+",
                "elements": [
                    {
                        "type": "rich_text_section",
                        "elements": [
                            {
                                "type": "text",
                                "text": "for info: "
                            },
                            {
                                "type": "link",
                                "url": "https:\/\/www.nature.com\/articles\/s41586-020-2196-x?fbclid=IwAR3CM-BycY4f7Hq2aFj5Az6XhFWuNFiEW7oqOHF2Ch5kYexzI_pKxFiLAuY"
                            }
                        ]
                    }
                ]
            }
        ]
    }
]