[
    {
        "client_msg_id": "0fd46da8-83c9-4463-952c-0dde19a84673",
        "type": "message",
        "text": "Not certain where to put this without joining a channel but looks like there is some useful info for those working on a ventilator project: <https:\/\/hackaday.com\/2020\/04\/07\/real-engineering-behind-ventilators\/>",
        "user": "U010QHBTBPY",
        "ts": "1586272322.033100",
        "team": "TUU48M0T1",
        "user_team": "TUU48M0T1",
        "source_team": "TUU48M0T1",
        "user_profile": {
            "avatar_hash": "g4e30c4af69a",
            "image_72": "https:\/\/secure.gravatar.com\/avatar\/4e30c4af69a6429e53cd9cce9da9f65c.jpg?s=72&d=https%3A%2F%2Fa.slack-edge.com%2Fdf10d%2Fimg%2Favatars%2Fava_0015-72.png",
            "first_name": "",
            "real_name": "osn_scott",
            "display_name": "osn_scott",
            "team": "TUU48M0T1",
            "name": "scott527",
            "is_restricted": false,
            "is_ultra_restricted": false
        },
        "attachments": [
            {
                "service_name": "Hackaday",
                "title": "Real Engineering Behind Ventilators",
                "title_link": "https:\/\/hackaday.com\/2020\/04\/07\/real-engineering-behind-ventilators\/",
                "text": "Experts on cognition tell us that most people think they know more than they really do. One particular indicator for that is if someone is an expert in one field and they feel like all other fields…",
                "fallback": "Hackaday: Real Engineering Behind Ventilators",
                "image_url": "https:\/\/hackaday.com\/wp-content\/uploads\/2020\/04\/vent.png.png",
                "image_width": 444,
                "image_height": 250,
                "ts": 1586257200,
                "from_url": "https:\/\/hackaday.com\/2020\/04\/07\/real-engineering-behind-ventilators\/",
                "image_bytes": 303412,
                "service_icon": "https:\/\/hackaday.com\/wp-content\/themes\/hackaday-2\/favicon.ico",
                "id": 1,
                "original_url": "https:\/\/hackaday.com\/2020\/04\/07\/real-engineering-behind-ventilators\/"
            }
        ],
        "blocks": [
            {
                "type": "rich_text",
                "block_id": "JJ9l",
                "elements": [
                    {
                        "type": "rich_text_section",
                        "elements": [
                            {
                                "type": "text",
                                "text": "Not certain where to put this without joining a channel but looks like there is some useful info for those working on a ventilator project: "
                            },
                            {
                                "type": "link",
                                "url": "https:\/\/hackaday.com\/2020\/04\/07\/real-engineering-behind-ventilators\/"
                            }
                        ]
                    }
                ]
            }
        ]
    },
    {
        "client_msg_id": "9d21aec4-28d2-451c-af8a-c5a825b2e9e9",
        "type": "message",
        "text": "<https:\/\/www.eurekalert.org\/pub_releases\/2020-04\/c-ub-cvf040320.php?fbclid=IwAR2dVvJsdR2tUtPL1VFFo9q0CqgqbX3NLmz9JsSO4RZU2-sg4qngXZtiywo>",
        "user": "U0118T0THTP",
        "ts": "1586313223.034100",
        "team": "TUU48M0T1",
        "user_team": "TUU48M0T1",
        "source_team": "TUU48M0T1",
        "user_profile": {
            "avatar_hash": "115541311c96",
            "image_72": "https:\/\/avatars.slack-edge.com\/2020-04-02\/1044155516661_115541311c966db28fa4_72.jpg",
            "first_name": "Gabriela",
            "real_name": "Gabriela Rios-Sotelo",
            "display_name": "Gabriela Rios-Sotelo",
            "team": "TUU48M0T1",
            "name": "gabriela18",
            "is_restricted": false,
            "is_ultra_restricted": false
        },
        "attachments": [
            {
                "service_name": "EurekAlert!",
                "title": "Coronavirus: Virological findings from patients treated in a Munich hospital",
                "title_link": "https:\/\/www.eurekalert.org\/pub_releases\/2020-04\/c-ub-cvf040320.php?fbclid=IwAR2dVvJsdR2tUtPL1VFFo9q0CqgqbX3NLmz9JsSO4RZU2-sg4qngXZtiywo",
                "text": "In early February, research teams from Charité - Universitätsmedizin Berlin, München Klinik Schwabing and the Bundeswehr Institute of Microbiology published initial findings describing the efficient transmission of SARS-CoV-2. The researchers' detailed report on the clinical course and treatment of Germany's first group of COVID-19 patients has now been published in Nature*. Criteria may now be developed to determine the earliest point at which COVID-19 patients treated in hospitals with limited bed capacity can be safely discharged.",
                "fallback": "EurekAlert!: Coronavirus: Virological findings from patients treated in a Munich hospital",
                "image_url": "https:\/\/eurekalert.org\/multimedia\/pub\/web\/228425_web.jpg",
                "from_url": "https:\/\/www.eurekalert.org\/pub_releases\/2020-04\/c-ub-cvf040320.php?fbclid=IwAR2dVvJsdR2tUtPL1VFFo9q0CqgqbX3NLmz9JsSO4RZU2-sg4qngXZtiywo",
                "image_width": 333,
                "image_height": 250,
                "image_bytes": 176844,
                "service_icon": "https:\/\/www.eurekalert.org\/favicon.ico",
                "id": 1,
                "original_url": "https:\/\/www.eurekalert.org\/pub_releases\/2020-04\/c-ub-cvf040320.php?fbclid=IwAR2dVvJsdR2tUtPL1VFFo9q0CqgqbX3NLmz9JsSO4RZU2-sg4qngXZtiywo"
            }
        ],
        "blocks": [
            {
                "type": "rich_text",
                "block_id": "w\/\/",
                "elements": [
                    {
                        "type": "rich_text_section",
                        "elements": [
                            {
                                "type": "link",
                                "url": "https:\/\/www.eurekalert.org\/pub_releases\/2020-04\/c-ub-cvf040320.php?fbclid=IwAR2dVvJsdR2tUtPL1VFFo9q0CqgqbX3NLmz9JsSO4RZU2-sg4qngXZtiywo"
                            }
                        ]
                    }
                ]
            }
        ]
    },
    {
        "client_msg_id": "3cde8bb4-50e2-46fb-be81-fe112d771265",
        "type": "message",
        "text": "Just pre-prints <https:\/\/connect.medrxiv.org\/relate\/content\/181>",
        "user": "U0115G1A03D",
        "ts": "1586320882.034300",
        "team": "TUU48M0T1",
        "user_team": "TUU48M0T1",
        "source_team": "TUU48M0T1",
        "user_profile": {
            "avatar_hash": "4daeacf08e50",
            "image_72": "https:\/\/avatars.slack-edge.com\/2020-04-04\/1038340161250_4daeacf08e50360875bc_72.png",
            "first_name": "",
            "real_name": "Pablo Díaz",
            "display_name": "Pablo Díaz",
            "team": "TUU48M0T1",
            "name": "pablo.diazv",
            "is_restricted": false,
            "is_ultra_restricted": false
        },
        "attachments": [
            {
                "text": "bioRxiv - the preprint server for biology, operated by Cold Spring Harbor Laboratory, a research and educational institution",
                "fallback": "bioRxiv - the preprint server for biology, operated by Cold Spring Harbor Laboratory, a research and educational institution",
                "from_url": "https:\/\/connect.medrxiv.org\/relate\/content\/181",
                "service_icon": "https:\/\/www.medrxiv.org\/sites\/default\/files\/images\/favicon.ico",
                "service_name": "connect.medrxiv.org",
                "id": 1,
                "original_url": "https:\/\/connect.medrxiv.org\/relate\/content\/181"
            }
        ],
        "blocks": [
            {
                "type": "rich_text",
                "block_id": "31z",
                "elements": [
                    {
                        "type": "rich_text_section",
                        "elements": [
                            {
                                "type": "text",
                                "text": "Just pre-prints "
                            },
                            {
                                "type": "link",
                                "url": "https:\/\/connect.medrxiv.org\/relate\/content\/181"
                            }
                        ]
                    }
                ]
            }
        ],
        "thread_ts": "1585952368.028900",
        "parent_user_id": "UVDCTDP8B"
    }
]