[
    {
        "client_msg_id": "821B8F28-24D2-4C85-9C47-AB6A608205E2",
        "type": "message",
        "text": "Very good point Sarah! What questions do we want to ask people? \n<@UV0QTJCMT>",
        "user": "UV02WET96",
        "ts": "1584002467.046800",
        "team": "TUU48M0T1",
        "user_team": "TUU48M0T1",
        "source_team": "TUU48M0T1",
        "user_profile": {
            "avatar_hash": "a99c74a194f8",
            "image_72": "https:\/\/avatars.slack-edge.com\/2020-03-07\/975708504851_a99c74a194f86715ca7d_72.png",
            "first_name": "Thomas",
            "real_name": "Thomas Landrain",
            "display_name": "Thomas Landrain - JOGL CoFounder \/ CEO",
            "team": "TUU48M0T1",
            "name": "thomas",
            "is_restricted": false,
            "is_ultra_restricted": false
        },
        "blocks": [
            {
                "type": "rich_text",
                "block_id": "d+0P",
                "elements": [
                    {
                        "type": "rich_text_section",
                        "elements": [
                            {
                                "type": "text",
                                "text": "Very good point Sarah! What questions do we want to ask people? \n"
                            },
                            {
                                "type": "user",
                                "user_id": "UV0QTJCMT"
                            }
                        ]
                    }
                ]
            }
        ],
        "thread_ts": "1583972798.023300",
        "parent_user_id": "UV10KBUQG"
    },
    {
        "client_msg_id": "DAE9DF07-38D4-472E-884E-70A52C8CB05B",
        "type": "message",
        "text": "depc isn’t great in the public lab setting... when you take care, ultra pure water can keep RNA stable. (milliQ etc &amp; no spatulas into chems is the rule we used... but poor Hackuarium would also need kits!)",
        "user": "UV1A22N3W",
        "ts": "1584003638.050500",
        "team": "TUU48M0T1",
        "user_team": "TUU48M0T1",
        "source_team": "TUU48M0T1",
        "user_profile": {
            "avatar_hash": "71f827776ad6",
            "image_72": "https:\/\/avatars.slack-edge.com\/2020-03-09\/988125642964_71f827776ad610af05a2_72.jpg",
            "first_name": "",
            "real_name": "RachelA",
            "display_name": "RachelA",
            "team": "TUU48M0T1",
            "name": "raronoff",
            "is_restricted": false,
            "is_ultra_restricted": false
        },
        "blocks": [
            {
                "type": "rich_text",
                "block_id": "6j+l",
                "elements": [
                    {
                        "type": "rich_text_section",
                        "elements": [
                            {
                                "type": "text",
                                "text": "depc isn’t great in the public lab setting... when you take care, ultra pure water can keep RNA stable. (milliQ etc & no spatulas into chems is the rule we used... but poor Hackuarium would also need kits!)"
                            }
                        ]
                    }
                ]
            }
        ],
        "thread_ts": "1583951614.013100",
        "parent_user_id": "UUSMRLYH1"
    },
    {
        "client_msg_id": "7fef6ff1-6495-4060-b23a-0d2537a949ca",
        "type": "message",
        "text": "I think a challenge with trying to use the CDC assay for rtPCR followed by gel visualization is that the two (or three) N regions along with the RNase P control are basically the same size. Someone can correct me if I'm wrong but I got the following sizes for PCR poducts:\n• N1: 72bp\n• N2: 67bp\n• N3: 72bp\n• Human RPP30: 65bp\nI guess it would depend on how closely you want to adhere to CDC's protocol on interpreting results.",
        "user": "UV5CCJ9RC",
        "ts": "1584014647.056100",
        "team": "TUU48M0T1",
        "user_team": "TUU48M0T1",
        "source_team": "TUU48M0T1",
        "user_profile": {
            "avatar_hash": "2c79fe05f7e7",
            "image_72": "https:\/\/avatars.slack-edge.com\/2020-03-10\/992653932501_2c79fe05f7e75be19699_72.png",
            "first_name": "Chris",
            "real_name": "Chris Monaco",
            "display_name": "",
            "team": "TUU48M0T1",
            "name": "cmonaco.hr",
            "is_restricted": false,
            "is_ultra_restricted": false
        },
        "edited": {
            "user": "UV5CCJ9RC",
            "ts": "1584014746.000000"
        },
        "blocks": [
            {
                "type": "rich_text",
                "block_id": "AR6Wf",
                "elements": [
                    {
                        "type": "rich_text_section",
                        "elements": [
                            {
                                "type": "text",
                                "text": "I think a challenge with trying to use the CDC assay for rtPCR followed by gel visualization is that the two (or three) N regions along with the RNase P control are basically the same size. Someone can correct me if I'm wrong but I got the following sizes for PCR poducts:\n"
                            }
                        ]
                    },
                    {
                        "type": "rich_text_list",
                        "elements": [
                            {
                                "type": "rich_text_section",
                                "elements": [
                                    {
                                        "type": "text",
                                        "text": "N1: 72bp"
                                    }
                                ]
                            },
                            {
                                "type": "rich_text_section",
                                "elements": [
                                    {
                                        "type": "text",
                                        "text": "N2: 67bp"
                                    }
                                ]
                            },
                            {
                                "type": "rich_text_section",
                                "elements": [
                                    {
                                        "type": "text",
                                        "text": "N3: 72bp"
                                    }
                                ]
                            },
                            {
                                "type": "rich_text_section",
                                "elements": [
                                    {
                                        "type": "text",
                                        "text": "Human RPP30: 65bp"
                                    }
                                ]
                            }
                        ],
                        "style": "bullet",
                        "indent": 0
                    },
                    {
                        "type": "rich_text_section",
                        "elements": [
                            {
                                "type": "text",
                                "text": "I guess it would depend on how closely you want to adhere to CDC's protocol on interpreting results."
                            }
                        ]
                    }
                ]
            }
        ],
        "reactions": [
            {
                "name": "+1",
                "users": [
                    "UV1A22N3W"
                ],
                "count": 1
            }
        ]
    },
    {
        "client_msg_id": "d9db0465-a963-4027-8c6d-8957f5d3c7a7",
        "type": "message",
        "text": "And those tiny fragments would be a bitch on an agarose gel- you would probably need to go acrylamide...",
        "user": "UUPQGNNTV",
        "ts": "1584015453.057800",
        "team": "TUU48M0T1",
        "user_team": "TUU48M0T1",
        "source_team": "TUU48M0T1",
        "user_profile": {
            "avatar_hash": "c28127caf7eb",
            "image_72": "https:\/\/avatars.slack-edge.com\/2020-03-07\/989562470694_c28127caf7ebfe67df97_72.jpg",
            "first_name": "",
            "real_name": "Ellen Jorgensen",
            "display_name": "",
            "team": "TUU48M0T1",
            "name": "ejorgensen",
            "is_restricted": false,
            "is_ultra_restricted": false
        },
        "blocks": [
            {
                "type": "rich_text",
                "block_id": "wo2",
                "elements": [
                    {
                        "type": "rich_text_section",
                        "elements": [
                            {
                                "type": "text",
                                "text": "And those tiny fragments would be a bitch on an agarose gel- you would probably need to go acrylamide..."
                            }
                        ]
                    }
                ]
            }
        ],
        "thread_ts": "1584015453.057800",
        "reply_count": 1,
        "reply_users_count": 1,
        "latest_reply": "1584021564.062300",
        "reply_users": [
            "UV1A22N3W"
        ],
        "replies": [
            {
                "user": "UV1A22N3W",
                "ts": "1584021564.062300"
            }
        ],
        "subscribed": false
    },
    {
        "client_msg_id": "09f8dec4-b654-450f-a255-13410e70f8e9",
        "type": "message",
        "text": "Or maybe up to 3 or 4 percent, which can be done but is super hard because it is hard to completely melt and solidifies so quickly",
        "user": "UUPQGNNTV",
        "ts": "1584015603.059800",
        "team": "TUU48M0T1",
        "user_team": "TUU48M0T1",
        "source_team": "TUU48M0T1",
        "user_profile": {
            "avatar_hash": "c28127caf7eb",
            "image_72": "https:\/\/avatars.slack-edge.com\/2020-03-07\/989562470694_c28127caf7ebfe67df97_72.jpg",
            "first_name": "",
            "real_name": "Ellen Jorgensen",
            "display_name": "",
            "team": "TUU48M0T1",
            "name": "ejorgensen",
            "is_restricted": false,
            "is_ultra_restricted": false
        },
        "blocks": [
            {
                "type": "rich_text",
                "block_id": "xlct",
                "elements": [
                    {
                        "type": "rich_text_section",
                        "elements": [
                            {
                                "type": "text",
                                "text": "Or maybe up to 3 or 4 percent, which can be done but is super hard because it is hard to completely melt and solidifies so quickly"
                            }
                        ]
                    }
                ]
            }
        ]
    },
    {
        "type": "message",
        "text": "Has anyone used this technique? Any guidance appreciated.",
        "user": "UV7AZH728",
        "ts": "1584020202.061400",
        "team": "TUU48M0T1",
        "user_team": "TUU48M0T1",
        "source_team": "TUU48M0T1",
        "user_profile": {
            "avatar_hash": "g3a93d1b5438",
            "image_72": "https:\/\/secure.gravatar.com\/avatar\/3a93d1b54386d7d5f4abceccfd7414e5.jpg?s=72&d=https%3A%2F%2Fa.slack-edge.com%2Fdf10d%2Fimg%2Favatars%2Fava_0013-72.png",
            "first_name": "",
            "real_name": "Tom Meany",
            "display_name": "Tom Meany",
            "team": "TUU48M0T1",
            "name": "covid19",
            "is_restricted": false,
            "is_ultra_restricted": false
        },
        "attachments": [
            {
                "fallback": "[March 11th, 2020 11:51 PM] eyesmo: On the homebrew nucleic acid purification front, might be worth trying out the bomb.bio magnetic bead synthesis and RNA purification protocols, if column-based RNA purification kits look like they’re going to be in short supply <https:\/\/bomb.bio\/protocols\/>",
                "ts": "1583970713.017800",
                "author_id": "UUNGFHSV8",
                "author_subname": "Isaac Larkin",
                "channel_id": "CUNGN9LAE",
                "channel_name": "research",
                "is_msg_unfurl": true,
                "text": "On the homebrew nucleic acid purification front, might be worth trying out the bomb.bio magnetic bead synthesis and RNA purification protocols, if column-based RNA purification kits look like they’re going to be in short supply <https:\/\/bomb.bio\/protocols\/>",
                "author_name": "Isaac Larkin",
                "author_link": "https:\/\/jogl-covid-19.slack.com\/team\/UUNGFHSV8",
                "author_icon": "https:\/\/avatars.slack-edge.com\/2020-03-07\/987349161984_1c55ee32397a85a87ec4_48.png",
                "mrkdwn_in": [
                    "text"
                ],
                "color": "D0D0D0",
                "from_url": "https:\/\/jogl-covid-19.slack.com\/archives\/CUNGN9LAE\/p1583970713017800",
                "is_share": true,
                "footer": "Posted in #research"
            }
        ],
        "blocks": [
            {
                "type": "rich_text",
                "block_id": "q3cdD",
                "elements": [
                    {
                        "type": "rich_text_section",
                        "elements": [
                            {
                                "type": "text",
                                "text": "Has anyone used this technique? Any guidance appreciated."
                            }
                        ]
                    }
                ]
            }
        ]
    },
    {
        "client_msg_id": "973f2d4c-4dd1-4887-935d-95fd9c781b41",
        "type": "message",
        "text": "It will make thing more time and resource consuming, but maybe consider amplifying them separately instead of multiplexing?  Also, I have had luck using low melt agarose at high percentages for visualizing small amplicons.",
        "user": "UUSMRLYH1",
        "ts": "1584020250.062100",
        "team": "TUU48M0T1",
        "user_team": "TUU48M0T1",
        "source_team": "TUU48M0T1",
        "user_profile": {
            "avatar_hash": "gacea34075f8",
            "image_72": "https:\/\/secure.gravatar.com\/avatar\/acea34075f8471630e5e2265500bbe94.jpg?s=72&d=https%3A%2F%2Fa.slack-edge.com%2Fdf10d%2Fimg%2Favatars%2Fava_0022-72.png",
            "first_name": "",
            "real_name": "Chris Le Maire",
            "display_name": "",
            "team": "TUU48M0T1",
            "name": "clemaire2",
            "is_restricted": false,
            "is_ultra_restricted": false
        },
        "blocks": [
            {
                "type": "rich_text",
                "block_id": "tXsu",
                "elements": [
                    {
                        "type": "rich_text_section",
                        "elements": [
                            {
                                "type": "text",
                                "text": "It will make thing more time and resource consuming, but maybe consider amplifying them separately instead of multiplexing?  Also, I have had luck using low melt agarose at high percentages for visualizing small amplicons."
                            }
                        ]
                    }
                ]
            }
        ],
        "thread_ts": "1584020250.062100",
        "reply_count": 1,
        "reply_users_count": 1,
        "latest_reply": "1584030382.067200",
        "reply_users": [
            "UV20M5HGQ"
        ],
        "replies": [
            {
                "user": "UV20M5HGQ",
                "ts": "1584030382.067200"
            }
        ],
        "subscribed": false,
        "reactions": [
            {
                "name": "+1",
                "users": [
                    "UV20M5HGQ"
                ],
                "count": 1
            }
        ]
    },
    {
        "client_msg_id": "a33363f4-b9e2-47e0-94cf-84154dc5ad29",
        "type": "message",
        "text": "or capillary (i.e. fragment analyser systems).  This is another reason why people want to go the qPCR route...  the primers from china and hong kong with the quenched fam probes (from the <http:\/\/molecularcloud.org|molecularcloud.org> link) do seem a better choice than the cdc design, just from the primers  (but as mentioned by Derek the FAM primers are expensive, relatively speaking, and the BHQ ones are even more so!). but, maybe we could do better, and could also consider isothermal amp primers (although dipsticks for readout add to risk of amplicon contam). also, I would like to again stress, it would be very good to know how often negative controls are included in testing protocols...",
        "user": "UV1A22N3W",
        "ts": "1584021564.062300",
        "team": "TUU48M0T1",
        "user_team": "TUU48M0T1",
        "source_team": "TUU48M0T1",
        "user_profile": {
            "avatar_hash": "71f827776ad6",
            "image_72": "https:\/\/avatars.slack-edge.com\/2020-03-09\/988125642964_71f827776ad610af05a2_72.jpg",
            "first_name": "",
            "real_name": "RachelA",
            "display_name": "RachelA",
            "team": "TUU48M0T1",
            "name": "raronoff",
            "is_restricted": false,
            "is_ultra_restricted": false
        },
        "edited": {
            "user": "UV1A22N3W",
            "ts": "1584021837.000000"
        },
        "blocks": [
            {
                "type": "rich_text",
                "block_id": "LCE4",
                "elements": [
                    {
                        "type": "rich_text_section",
                        "elements": [
                            {
                                "type": "text",
                                "text": "or capillary (i.e. fragment analyser systems).  This is another reason why people want to go the qPCR route...  the primers from china and hong kong with the quenched fam probes (from the "
                            },
                            {
                                "type": "link",
                                "url": "http:\/\/molecularcloud.org",
                                "text": "molecularcloud.org"
                            },
                            {
                                "type": "text",
                                "text": " link) do seem a better choice than the cdc design, just from the primers  (but as mentioned by Derek the FAM primers are expensive, relatively speaking, and the BHQ ones are even more so!). but, maybe we could do better, and could also consider isothermal amp primers (although dipsticks for readout add to risk of amplicon contam). also, I would like to again stress, it would be very good to know how often negative controls are included in testing protocols..."
                            }
                        ]
                    }
                ]
            }
        ],
        "thread_ts": "1584015453.057800",
        "parent_user_id": "UUPQGNNTV"
    },
    {
        "client_msg_id": "a7f3908e-747d-41b3-bccd-b6b845d13c42",
        "type": "message",
        "text": "I'm listening to the synbiobeta townhall 2 live meeting at the moment and Twist just came out with a full coverage synthetic RNA positive control, which is BSL-1.",
        "user": "UV20M5HGQ",
        "ts": "1584026131.065000",
        "team": "TUU48M0T1",
        "user_team": "TUU48M0T1",
        "source_team": "TUU48M0T1",
        "user_profile": {
            "avatar_hash": "de7ea7b7e14e",
            "image_72": "https:\/\/avatars.slack-edge.com\/2020-03-11\/981865374050_de7ea7b7e14e7b4316b9_72.jpg",
            "first_name": "",
            "real_name": "Vesta Korniakova",
            "display_name": "Vesta Korniakova",
            "team": "TUU48M0T1",
            "name": "riboswitchvesta",
            "is_restricted": false,
            "is_ultra_restricted": false
        },
        "blocks": [
            {
                "type": "rich_text",
                "block_id": "GQG",
                "elements": [
                    {
                        "type": "rich_text_section",
                        "elements": [
                            {
                                "type": "text",
                                "text": "I'm listening to the synbiobeta townhall 2 live meeting at the moment and Twist just came out with a full coverage synthetic RNA positive control, which is BSL-1."
                            }
                        ]
                    }
                ]
            }
        ],
        "reactions": [
            {
                "name": "100",
                "users": [
                    "UUUEFQW8N",
                    "UV10KBUQG",
                    "UV2SC7ZE3",
                    "UV7QBRCFN",
                    "UUWSJTQ67",
                    "U01099UVAUA"
                ],
                "count": 6
            }
        ]
    },
    {
        "client_msg_id": "cc4eb4a7-67a4-4a9c-acc7-f35ad96d9f1a",
        "type": "message",
        "text": "Yep you beat me to posting :grin:",
        "user": "UUPQGNNTV",
        "ts": "1584026667.065600",
        "team": "TUU48M0T1",
        "user_team": "TUU48M0T1",
        "source_team": "TUU48M0T1",
        "user_profile": {
            "avatar_hash": "c28127caf7eb",
            "image_72": "https:\/\/avatars.slack-edge.com\/2020-03-07\/989562470694_c28127caf7ebfe67df97_72.jpg",
            "first_name": "",
            "real_name": "Ellen Jorgensen",
            "display_name": "",
            "team": "TUU48M0T1",
            "name": "ejorgensen",
            "is_restricted": false,
            "is_ultra_restricted": false
        },
        "blocks": [
            {
                "type": "rich_text",
                "block_id": "OB8",
                "elements": [
                    {
                        "type": "rich_text_section",
                        "elements": [
                            {
                                "type": "text",
                                "text": "Yep you beat me to posting "
                            },
                            {
                                "type": "emoji",
                                "name": "grin"
                            }
                        ]
                    }
                ]
            }
        ]
    },
    {
        "client_msg_id": "15910290-5200-45ea-8279-bab4b0b49cf5",
        "type": "message",
        "text": "So should we just contact Twist to get this positive control?",
        "user": "UV10KBUQG",
        "ts": "1584029063.067100",
        "team": "TUU48M0T1",
        "user_team": "TUU48M0T1",
        "source_team": "TUU48M0T1",
        "user_profile": {
            "avatar_hash": "2deebbf6be3d",
            "image_72": "https:\/\/avatars.slack-edge.com\/2020-03-06\/976932190641_2deebbf6be3d17141d91_72.jpg",
            "first_name": "Sarah",
            "real_name": "Sarah Blossom Ware",
            "display_name": "Sarah Blossom Ware - BioBlaze Community Bio Lab",
            "team": "TUU48M0T1",
            "name": "ware.sarah",
            "is_restricted": false,
            "is_ultra_restricted": false
        },
        "blocks": [
            {
                "type": "rich_text",
                "block_id": "Fxeqe",
                "elements": [
                    {
                        "type": "rich_text_section",
                        "elements": [
                            {
                                "type": "text",
                                "text": "So should we just contact Twist to get this positive control?"
                            }
                        ]
                    }
                ]
            }
        ],
        "reactions": [
            {
                "name": "+1",
                "users": [
                    "UV2SC7ZE3",
                    "UV7QBRCFN"
                ],
                "count": 2
            }
        ]
    },
    {
        "client_msg_id": "364999d3-3130-4585-af4c-a1d194000fb0",
        "type": "message",
        "text": "Yep, indeed, we are planning on doing the reactions separately (not multiplexing) and we've also added a substitute for the Human RPP30 control which we've designed to be approx. 200 bp in the case where we would want to try the primers as a multiplexed reaction afterwards. We'll be using the ProPCR (<https:\/\/manifest.bio\/product\/propcr>) and a Minione gel electrophoresis system (<https:\/\/theminione.com\/electrophoresis-system\/>) to check if bands are even visible using these tools. We realize now that the primer designs could be better for an rt-pcr test, but we had ordered these primers hastily several weeks ago. It will also be our first time trying RT so it will be nice to confirm whether our RNA extraction from saliva worked successfully.",
        "user": "UV20M5HGQ",
        "ts": "1584030382.067200",
        "team": "TUU48M0T1",
        "user_team": "TUU48M0T1",
        "source_team": "TUU48M0T1",
        "user_profile": {
            "avatar_hash": "de7ea7b7e14e",
            "image_72": "https:\/\/avatars.slack-edge.com\/2020-03-11\/981865374050_de7ea7b7e14e7b4316b9_72.jpg",
            "first_name": "",
            "real_name": "Vesta Korniakova",
            "display_name": "Vesta Korniakova",
            "team": "TUU48M0T1",
            "name": "riboswitchvesta",
            "is_restricted": false,
            "is_ultra_restricted": false
        },
        "attachments": [
            {
                "service_name": "Manifest Biology",
                "title": "proPCR – Manifest Biology",
                "title_link": "https:\/\/manifest.bio\/product\/propcr",
                "text": "Wifi Enabled Gradient Thermal Block Heated Lid Touchdown PCR Neodymium Magnetic Lid Closure Global Power Supply Included (100-240V) Free Priority Shipping to the United States!",
                "fallback": "Manifest Biology: proPCR – Manifest Biology",
                "image_url": "https:\/\/manifest.bio\/wp-content\/uploads\/2019\/03\/P1070257@025x.jpg",
                "image_width": 333,
                "image_height": 250,
                "from_url": "https:\/\/manifest.bio\/product\/propcr",
                "image_bytes": 237856,
                "service_icon": "https:\/\/manifest.bio\/wp-content\/uploads\/2019\/03\/cropped-logo_bigger_black-180x180.png",
                "id": 1,
                "original_url": "https:\/\/manifest.bio\/product\/propcr"
            },
            {
                "service_name": "MiniOne Systems",
                "title": "MiniOne Electrophoresis System for Teaching DNA Separation",
                "title_link": "https:\/\/theminione.com\/electrophoresis-system\/",
                "text": "The MiniOne System helps students get hands-on with electrophoresis while learning biotechnology applications such as genetics and DNA fingerprinting.",
                "fallback": "MiniOne Systems: MiniOne Electrophoresis System for Teaching DNA Separation",
                "thumb_url": "https:\/\/theminione.com\/wp-content\/uploads\/2017\/09\/minione-systems-facebook-share.png",
                "from_url": "https:\/\/theminione.com\/electrophoresis-system\/",
                "thumb_width": 1200,
                "thumb_height": 628,
                "service_icon": "https:\/\/theminione.com\/wp-content\/uploads\/2019\/05\/cropped-M1E-favicon-512x512-180x180.png",
                "id": 2,
                "original_url": "https:\/\/theminione.com\/electrophoresis-system\/"
            }
        ],
        "blocks": [
            {
                "type": "rich_text",
                "block_id": "ZOjJ5",
                "elements": [
                    {
                        "type": "rich_text_section",
                        "elements": [
                            {
                                "type": "text",
                                "text": "Yep, indeed, we are planning on doing the reactions separately (not multiplexing) and we've also added a substitute for the Human RPP30 control which we've designed to be approx. 200 bp in the case where we would want to try the primers as a multiplexed reaction afterwards. We'll be using the ProPCR ("
                            },
                            {
                                "type": "link",
                                "url": "https:\/\/manifest.bio\/product\/propcr"
                            },
                            {
                                "type": "text",
                                "text": ") and a Minione gel electrophoresis system ("
                            },
                            {
                                "type": "link",
                                "url": "https:\/\/theminione.com\/electrophoresis-system\/"
                            },
                            {
                                "type": "text",
                                "text": ") to check if bands are even visible using these tools. We realize now that the primer designs could be better for an rt-pcr test, but we had ordered these primers hastily several weeks ago. It will also be our first time trying RT so it will be nice to confirm whether our RNA extraction from saliva worked successfully."
                            }
                        ]
                    }
                ]
            }
        ],
        "thread_ts": "1584020250.062100",
        "parent_user_id": "UUSMRLYH1"
    },
    {
        "client_msg_id": "7ab11b8d-60a2-48a9-ba4a-a91913532cf3",
        "type": "message",
        "text": "ya I think we should.",
        "user": "UV7QBRCFN",
        "ts": "1584030680.067900",
        "team": "TUU48M0T1",
        "user_team": "TUU48M0T1",
        "source_team": "TUU48M0T1",
        "user_profile": {
            "avatar_hash": "94fb372e8cfc",
            "image_72": "https:\/\/avatars.slack-edge.com\/2020-03-12\/996385001668_94fb372e8cfcfe2ee1cd_72.png",
            "first_name": "",
            "real_name": "Justin A",
            "display_name": "Justin A",
            "team": "TUU48M0T1",
            "name": "thethoughtemporium",
            "is_restricted": false,
            "is_ultra_restricted": false
        },
        "blocks": [
            {
                "type": "rich_text",
                "block_id": "\/9Y",
                "elements": [
                    {
                        "type": "rich_text_section",
                        "elements": [
                            {
                                "type": "text",
                                "text": "ya I think we should."
                            }
                        ]
                    }
                ]
            }
        ]
    },
    {
        "client_msg_id": "c664e6f2-1db1-4f1d-a01b-ad550a9451a5",
        "type": "message",
        "text": "As to the primers being a bit too small to visualize and about mutliplexing, as vesta said in her reply, we won't be multiplexing. We'll be running 5 separate reactions and running them in 5 wells of the gel to make sure we can see everything clearly for now. But considering the products are so small, I'm thinking that picking up a set of the newer primers that give larger products would be good and if we choose the right ones, then multiplexing could be possible if the products are differently sized enough. I think we'll just start by testing the RNAse P set, and then trying to run that to see if it's even possible to see the band using the gel box we've got. If not then we'll definitely have to switch to the newer primers and the positive control we made (targets amylase and gives a 219bp product)",
        "user": "UV7QBRCFN",
        "ts": "1584031031.072800",
        "team": "TUU48M0T1",
        "user_team": "TUU48M0T1",
        "source_team": "TUU48M0T1",
        "user_profile": {
            "avatar_hash": "94fb372e8cfc",
            "image_72": "https:\/\/avatars.slack-edge.com\/2020-03-12\/996385001668_94fb372e8cfcfe2ee1cd_72.png",
            "first_name": "",
            "real_name": "Justin A",
            "display_name": "Justin A",
            "team": "TUU48M0T1",
            "name": "thethoughtemporium",
            "is_restricted": false,
            "is_ultra_restricted": false
        },
        "blocks": [
            {
                "type": "rich_text",
                "block_id": "nShg",
                "elements": [
                    {
                        "type": "rich_text_section",
                        "elements": [
                            {
                                "type": "text",
                                "text": "As to the primers being a bit too small to visualize and about mutliplexing, as vesta said in her reply, we won't be multiplexing. We'll be running 5 separate reactions and running them in 5 wells of the gel to make sure we can see everything clearly for now. But considering the products are so small, I'm thinking that picking up a set of the newer primers that give larger products would be good and if we choose the right ones, then multiplexing could be possible if the products are differently sized enough. I think we'll just start by testing the RNAse P set, and then trying to run that to see if it's even possible to see the band using the gel box we've got. If not then we'll definitely have to switch to the newer primers and the positive control we made (targets amylase and gives a 219bp product)"
                            }
                        ]
                    }
                ]
            }
        ],
        "thread_ts": "1584031031.072800",
        "reply_count": 7,
        "reply_users_count": 3,
        "latest_reply": "1584386600.133300",
        "reply_users": [
            "UV5CCJ9RC",
            "UV7QBRCFN",
            "UV20M5HGQ"
        ],
        "replies": [
            {
                "user": "UV5CCJ9RC",
                "ts": "1584036083.073300"
            },
            {
                "user": "UV7QBRCFN",
                "ts": "1584036615.073600"
            },
            {
                "user": "UV20M5HGQ",
                "ts": "1584042044.078900"
            },
            {
                "user": "UV5CCJ9RC",
                "ts": "1584100479.081500"
            },
            {
                "user": "UV7QBRCFN",
                "ts": "1584121361.086300"
            },
            {
                "user": "UV5CCJ9RC",
                "ts": "1584386439.133100"
            },
            {
                "user": "UV20M5HGQ",
                "ts": "1584386600.133300"
            }
        ],
        "subscribed": false
    },
    {
        "client_msg_id": "38231f34-fdc2-464c-a111-bbd9e2228673",
        "type": "message",
        "text": "That seems reasonable. If you're not multiplexing your basically just trying to see if there's a small band or not. But could primer-dimers confound the results still? I'm just playing devil's advocate here. I definitely think it's worth trying to see what happens! :slightly_smiling_face:",
        "user": "UV5CCJ9RC",
        "ts": "1584036083.073300",
        "team": "TUU48M0T1",
        "user_team": "TUU48M0T1",
        "source_team": "TUU48M0T1",
        "user_profile": {
            "avatar_hash": "2c79fe05f7e7",
            "image_72": "https:\/\/avatars.slack-edge.com\/2020-03-10\/992653932501_2c79fe05f7e75be19699_72.png",
            "first_name": "Chris",
            "real_name": "Chris Monaco",
            "display_name": "",
            "team": "TUU48M0T1",
            "name": "cmonaco.hr",
            "is_restricted": false,
            "is_ultra_restricted": false
        },
        "edited": {
            "user": "UV5CCJ9RC",
            "ts": "1584036202.000000"
        },
        "blocks": [
            {
                "type": "rich_text",
                "block_id": "buW",
                "elements": [
                    {
                        "type": "rich_text_section",
                        "elements": [
                            {
                                "type": "text",
                                "text": "That seems reasonable. If you're not multiplexing your basically just trying to see if there's a small band or not. But could primer-dimers confound the results still? I'm just playing devil's advocate here. I definitely think it's worth trying to see what happens! "
                            },
                            {
                                "type": "emoji",
                                "name": "slightly_smiling_face"
                            }
                        ]
                    }
                ]
            }
        ],
        "thread_ts": "1584031031.072800",
        "parent_user_id": "UV7QBRCFN"
    },
    {
        "client_msg_id": "ece46f08-9fd9-4607-89f0-6dc55a057750",
        "type": "message",
        "text": "Right now, until we have the control plasmid we can't even check and find out :confused: So the focus will be getting a sample of it, and also picking up some more primers to compare against",
        "user": "UV7QBRCFN",
        "ts": "1584036615.073600",
        "team": "TUU48M0T1",
        "user_team": "TUU48M0T1",
        "source_team": "TUU48M0T1",
        "user_profile": {
            "avatar_hash": "94fb372e8cfc",
            "image_72": "https:\/\/avatars.slack-edge.com\/2020-03-12\/996385001668_94fb372e8cfcfe2ee1cd_72.png",
            "first_name": "",
            "real_name": "Justin A",
            "display_name": "Justin A",
            "team": "TUU48M0T1",
            "name": "thethoughtemporium",
            "is_restricted": false,
            "is_ultra_restricted": false
        },
        "blocks": [
            {
                "type": "rich_text",
                "block_id": "mK0",
                "elements": [
                    {
                        "type": "rich_text_section",
                        "elements": [
                            {
                                "type": "text",
                                "text": "Right now, until we have the control plasmid we can't even check and find out "
                            },
                            {
                                "type": "emoji",
                                "name": "confused"
                            },
                            {
                                "type": "text",
                                "text": " So the focus will be getting a sample of it, and also picking up some more primers to compare against"
                            }
                        ]
                    }
                ]
            }
        ],
        "thread_ts": "1584031031.072800",
        "parent_user_id": "UV7QBRCFN"
    },
    {
        "client_msg_id": "f5ee9b1d-bf8f-4253-89f8-b0d1ba665d60",
        "type": "message",
        "text": "I'm watching a US House committee hearing from yesterday on US coronavirus response: <https:\/\/www.c-span.org\/video\/?470224-1\/dr-fauci-warns-congress-coronavirus-outbreak-worse&amp;start=2030>. Kinda dry as you would expect but the CDC director mentioned something I thought that was pretty interesting. There's a lot of different technologies that could be used for testing and the reason the CDC chose to develop a qPCR assay is that it's meant to be compatible with equipment and methodologies already in place in public health labs for flu surveillance throughout the country. It was never intended to be a high-throughput test and that a different technique is in a process of being developed for high-throughput testing in the US by private companies.",
        "user": "UV5CCJ9RC",
        "ts": "1584037411.078700",
        "team": "TUU48M0T1",
        "user_team": "TUU48M0T1",
        "source_team": "TUU48M0T1",
        "user_profile": {
            "avatar_hash": "2c79fe05f7e7",
            "image_72": "https:\/\/avatars.slack-edge.com\/2020-03-10\/992653932501_2c79fe05f7e75be19699_72.png",
            "first_name": "Chris",
            "real_name": "Chris Monaco",
            "display_name": "",
            "team": "TUU48M0T1",
            "name": "cmonaco.hr",
            "is_restricted": false,
            "is_ultra_restricted": false
        },
        "attachments": [
            {
                "service_name": "C-SPAN.org",
                "title": "Dr. Fauci Warns Congress Coronavirus Outbreak Will Get Worse",
                "title_link": "https:\/\/www.c-span.org\/video\/?470224-1\/dr-fauci-warns-congress-coronavirus-outbreak-worse&start=2030",
                "text": "CDC Director Dr. Robert Redfield and National Institute of Allergy and Infectious Diseases Director Dr. Anthony Fauci, along with other emergency response officials, testify before the House…",
                "fallback": "C-SPAN.org: Dr. Fauci Warns Congress Coronavirus Outbreak Will Get Worse",
                "from_url": "https:\/\/www.c-span.org\/video\/?470224-1\/dr-fauci-warns-congress-coronavirus-outbreak-worse&start=2030",
                "id": 1,
                "original_url": "https:\/\/www.c-span.org\/video\/?470224-1\/dr-fauci-warns-congress-coronavirus-outbreak-worse&amp;start=2030"
            }
        ],
        "blocks": [
            {
                "type": "rich_text",
                "block_id": "+5rF",
                "elements": [
                    {
                        "type": "rich_text_section",
                        "elements": [
                            {
                                "type": "text",
                                "text": "I'm watching a US House committee hearing from yesterday on US coronavirus response: "
                            },
                            {
                                "type": "link",
                                "url": "https:\/\/www.c-span.org\/video\/?470224-1\/dr-fauci-warns-congress-coronavirus-outbreak-worse&start=2030"
                            },
                            {
                                "type": "text",
                                "text": ". Kinda dry as you would expect but the CDC director mentioned something I thought that was pretty interesting. There's a lot of different technologies that could be used for testing and the reason the CDC chose to develop a qPCR assay is that it's meant to be compatible with equipment and methodologies already in place in public health labs for flu surveillance throughout the country. It was never intended to be a high-throughput test and that a different technique is in a process of being developed for high-throughput testing in the US by private companies."
                            }
                        ]
                    }
                ]
            }
        ]
    },
    {
        "client_msg_id": "b1c95821-203d-449f-81d7-2c00fe62602a",
        "type": "message",
        "text": "So, as the products as CDC intended for RT-qPCR  would be quite small for RT-PCR with visualization on gel, we are thinking of visualizing the individual RT-PCR products of N1-F\/N2-R (944 bp), and N1-F\/N3-R (466 bp) instead. Any suggestions\/pitfalls you guys can think of for this approach?",
        "user": "UV20M5HGQ",
        "ts": "1584042044.078900",
        "team": "TUU48M0T1",
        "user_team": "TUU48M0T1",
        "source_team": "TUU48M0T1",
        "user_profile": {
            "avatar_hash": "de7ea7b7e14e",
            "image_72": "https:\/\/avatars.slack-edge.com\/2020-03-11\/981865374050_de7ea7b7e14e7b4316b9_72.jpg",
            "first_name": "",
            "real_name": "Vesta Korniakova",
            "display_name": "Vesta Korniakova",
            "team": "TUU48M0T1",
            "name": "riboswitchvesta",
            "is_restricted": false,
            "is_ultra_restricted": false
        },
        "edited": {
            "user": "UV20M5HGQ",
            "ts": "1584042148.000000"
        },
        "blocks": [
            {
                "type": "rich_text",
                "block_id": "LhOU",
                "elements": [
                    {
                        "type": "rich_text_section",
                        "elements": [
                            {
                                "type": "text",
                                "text": "So, as the products as CDC intended for RT-qPCR  would be quite small for RT-PCR with visualization on gel, we are thinking of visualizing the individual RT-PCR products of N1-F\/N2-R (944 bp), and N1-F\/N3-R (466 bp) instead. Any suggestions\/pitfalls you guys can think of for this approach?"
                            }
                        ]
                    }
                ]
            }
        ],
        "thread_ts": "1584031031.072800",
        "parent_user_id": "UV7QBRCFN"
    }
]