[
    {
        "type": "message",
        "text": "<https:\/\/docs.google.com\/document\/d\/1kP2w_uTMSep2UxTCOnUhh1TMCjWvHEY0sUUpkJHPYV4\/edit>",
        "files": [
            {
                "id": "F011T3HQQUF",
                "created": 1587468101,
                "timestamp": 1587468101,
                "name": "A Massively Parallel COVID-19 Diagnostic Assay for Simultaneous Testing of 19200 Patient Samples",
                "title": "A Massively Parallel COVID-19 Diagnostic Assay for Simultaneous Testing of 19200 Patient Samples",
                "mimetype": "application\/vnd.google-apps.document",
                "filetype": "gdoc",
                "pretty_type": "GSuite Document",
                "user": "UV3URUKK5",
                "editable": false,
                "size": 17931,
                "mode": "external",
                "is_external": true,
                "external_type": "gdrive",
                "is_public": true,
                "public_url_shared": false,
                "display_as_bot": false,
                "username": "",
                "url_private": "https:\/\/docs.google.com\/document\/d\/1kP2w_uTMSep2UxTCOnUhh1TMCjWvHEY0sUUpkJHPYV4\/edit",
                "thumb_64": "https:\/\/files.slack.com\/files-tmb\/TUU48M0T1-F011T3HQQUF-5821e67c60\/a_massively_parallel_covid-19_diagnostic_assay_for_simultaneous_testing_of_19200_patient_samples_64.png?t=xoxe-980144714919-1133254701825-1120841107731-daf595b5a7d6c9028b0b02a925032e36",
                "thumb_80": "https:\/\/files.slack.com\/files-tmb\/TUU48M0T1-F011T3HQQUF-5821e67c60\/a_massively_parallel_covid-19_diagnostic_assay_for_simultaneous_testing_of_19200_patient_samples_80.png?t=xoxe-980144714919-1133254701825-1120841107731-daf595b5a7d6c9028b0b02a925032e36",
                "thumb_360": "https:\/\/files.slack.com\/files-tmb\/TUU48M0T1-F011T3HQQUF-5821e67c60\/a_massively_parallel_covid-19_diagnostic_assay_for_simultaneous_testing_of_19200_patient_samples_360.png?t=xoxe-980144714919-1133254701825-1120841107731-daf595b5a7d6c9028b0b02a925032e36",
                "thumb_360_w": 255,
                "thumb_360_h": 360,
                "thumb_480": "https:\/\/files.slack.com\/files-tmb\/TUU48M0T1-F011T3HQQUF-5821e67c60\/a_massively_parallel_covid-19_diagnostic_assay_for_simultaneous_testing_of_19200_patient_samples_480.png?t=xoxe-980144714919-1133254701825-1120841107731-daf595b5a7d6c9028b0b02a925032e36",
                "thumb_480_w": 340,
                "thumb_480_h": 480,
                "thumb_160": "https:\/\/files.slack.com\/files-tmb\/TUU48M0T1-F011T3HQQUF-5821e67c60\/a_massively_parallel_covid-19_diagnostic_assay_for_simultaneous_testing_of_19200_patient_samples_160.png?t=xoxe-980144714919-1133254701825-1120841107731-daf595b5a7d6c9028b0b02a925032e36",
                "thumb_720": "https:\/\/files.slack.com\/files-tmb\/TUU48M0T1-F011T3HQQUF-5821e67c60\/a_massively_parallel_covid-19_diagnostic_assay_for_simultaneous_testing_of_19200_patient_samples_720.png?t=xoxe-980144714919-1133254701825-1120841107731-daf595b5a7d6c9028b0b02a925032e36",
                "thumb_720_w": 509,
                "thumb_720_h": 720,
                "thumb_800": "https:\/\/files.slack.com\/files-tmb\/TUU48M0T1-F011T3HQQUF-5821e67c60\/a_massively_parallel_covid-19_diagnostic_assay_for_simultaneous_testing_of_19200_patient_samples_800.png?t=xoxe-980144714919-1133254701825-1120841107731-daf595b5a7d6c9028b0b02a925032e36",
                "thumb_800_w": 800,
                "thumb_800_h": 1131,
                "thumb_960": "https:\/\/files.slack.com\/files-tmb\/TUU48M0T1-F011T3HQQUF-5821e67c60\/a_massively_parallel_covid-19_diagnostic_assay_for_simultaneous_testing_of_19200_patient_samples_960.png?t=xoxe-980144714919-1133254701825-1120841107731-daf595b5a7d6c9028b0b02a925032e36",
                "thumb_960_w": 679,
                "thumb_960_h": 960,
                "thumb_1024": "https:\/\/files.slack.com\/files-tmb\/TUU48M0T1-F011T3HQQUF-5821e67c60\/a_massively_parallel_covid-19_diagnostic_assay_for_simultaneous_testing_of_19200_patient_samples_1024.png?t=xoxe-980144714919-1133254701825-1120841107731-daf595b5a7d6c9028b0b02a925032e36",
                "thumb_1024_w": 724,
                "thumb_1024_h": 1024,
                "image_exif_rotation": 1,
                "original_w": 800,
                "original_h": 1131,
                "thumb_tiny": "AwAwACHSJx9abub2oc4PSm59qAHbm9qcrZ69ajDY7CnK2WAwKAH0UUUARv8Ae\/Cm09xlutJtHrQA2lT74pdo9f0pyqAQQaAHUUUUAFFFFABRRRQAUUUUAf\/Z",
                "permalink": "https:\/\/open-covid19.slack.com\/files\/UV3URUKK5\/F011T3HQQUF\/a_massively_parallel_covid-19_diagnostic_assay_for_simultaneous_testing_of_19200_patient_samples",
                "is_starred": false,
                "external_id": "1kP2w_uTMSep2UxTCOnUhh1TMCjWvHEY0sUUpkJHPYV4",
                "external_url": "https:\/\/docs.google.com\/document\/d\/1kP2w_uTMSep2UxTCOnUhh1TMCjWvHEY0sUUpkJHPYV4\/edit",
                "has_rich_preview": true
            }
        ],
        "upload": false,
        "blocks": [
            {
                "type": "rich_text",
                "block_id": "Vf2Ic",
                "elements": [
                    {
                        "type": "rich_text_section",
                        "elements": [
                            {
                                "type": "link",
                                "url": "https:\/\/docs.google.com\/document\/d\/1kP2w_uTMSep2UxTCOnUhh1TMCjWvHEY0sUUpkJHPYV4\/edit"
                            }
                        ]
                    }
                ]
            }
        ],
        "user": "UV3URUKK5",
        "display_as_bot": false,
        "x_files": [
            "F011T3HQQUF"
        ],
        "ts": "1587468097.055600",
        "client_msg_id": "cbe62e16-937c-44c2-98d5-ee5403f383cb"
    },
    {
        "client_msg_id": "954904ea-76d5-4c01-9061-2f48c9ee21c6",
        "type": "message",
        "text": "<https:\/\/www.guidetopharmacology.org\/GRAC\/LigandDisplayForward?ligandId=10715>  Giliad has another trial on this in progress. &amp; this nucleotide analog may not affect our own polymerases (so much) ...",
        "user": "UV1A22N3W",
        "ts": "1587490827.057200",
        "team": "TUU48M0T1",
        "user_team": "TUU48M0T1",
        "source_team": "TUU48M0T1",
        "user_profile": {
            "avatar_hash": "71f827776ad6",
            "image_72": "https:\/\/avatars.slack-edge.com\/2020-03-09\/988125642964_71f827776ad610af05a2_72.jpg",
            "first_name": "",
            "real_name": "RachelA",
            "display_name": "RachelA",
            "team": "TUU48M0T1",
            "name": "raronoff",
            "is_restricted": false,
            "is_ultra_restricted": false
        },
        "attachments": [
            {
                "title": "remdesivir | Ligand page | IUPHAR\/BPS Guide to PHARMACOLOGY",
                "title_link": "https:\/\/www.guidetopharmacology.org\/GRAC\/LigandDisplayForward?ligandId=10715",
                "text": "The IUPHAR\/BPS Guide to Pharmacology. remdesivir ligand page. Quantitative data and detailed annnotation of the targets of licensed and experimental drugs.",
                "fallback": "remdesivir | Ligand page | IUPHAR\/BPS Guide to PHARMACOLOGY",
                "from_url": "https:\/\/www.guidetopharmacology.org\/GRAC\/LigandDisplayForward?ligandId=10715",
                "service_icon": "https:\/\/www.guidetopharmacology.org\/images\/GTP_favicon_lg.ico",
                "service_name": "guidetopharmacology.org",
                "id": 1,
                "original_url": "https:\/\/www.guidetopharmacology.org\/GRAC\/LigandDisplayForward?ligandId=10715"
            }
        ],
        "blocks": [
            {
                "type": "rich_text",
                "block_id": "2bvq6",
                "elements": [
                    {
                        "type": "rich_text_section",
                        "elements": [
                            {
                                "type": "link",
                                "url": "https:\/\/www.guidetopharmacology.org\/GRAC\/LigandDisplayForward?ligandId=10715"
                            },
                            {
                                "type": "text",
                                "text": "  Giliad has another trial on this in progress. & this nucleotide analog may not affect our own polymerases (so much) ..."
                            }
                        ]
                    }
                ]
            }
        ]
    },
    {
        "client_msg_id": "D2759D30-0557-4E7C-8C00-C38295B79069",
        "type": "message",
        "text": "need to find something about this in english, but - Un capteur suisse permet de détecter le coronavirus dans l’air. Developpé par une équipe de chercheurs de l’Empa et de l’ETHZ, l’outil est un biocapteur inédit: il combine un effet optique et un effet thermique. Sa structure lui permet de capter l’ARN viral présent dans l’air grâce à des brins d’ADN complémentaires et d’émettre un signal correspondant. !!! <@UV3URUKK5>  <@UV7LUJG1Y> no amplification!?",
        "user": "UV1A22N3W",
        "ts": "1587537742.059000",
        "team": "TUU48M0T1",
        "user_team": "TUU48M0T1",
        "source_team": "TUU48M0T1",
        "user_profile": {
            "avatar_hash": "71f827776ad6",
            "image_72": "https:\/\/avatars.slack-edge.com\/2020-03-09\/988125642964_71f827776ad610af05a2_72.jpg",
            "first_name": "",
            "real_name": "RachelA",
            "display_name": "RachelA",
            "team": "TUU48M0T1",
            "name": "raronoff",
            "is_restricted": false,
            "is_ultra_restricted": false
        },
        "blocks": [
            {
                "type": "rich_text",
                "block_id": "W4lJ8",
                "elements": [
                    {
                        "type": "rich_text_section",
                        "elements": [
                            {
                                "type": "text",
                                "text": "need to find something about this in english, but - Un capteur suisse permet de détecter le coronavirus dans l’air. Developpé par une équipe de chercheurs de l’Empa et de l’ETHZ, l’outil est un biocapteur inédit: il combine un effet optique et un effet thermique. Sa structure lui permet de capter l’ARN viral présent dans l’air grâce à des brins d’ADN complémentaires et d’émettre un signal correspondant. !!! "
                            },
                            {
                                "type": "user",
                                "user_id": "UV3URUKK5"
                            },
                            {
                                "type": "text",
                                "text": "  "
                            },
                            {
                                "type": "user",
                                "user_id": "UV7LUJG1Y"
                            },
                            {
                                "type": "text",
                                "text": " no amplification!?"
                            }
                        ]
                    }
                ]
            }
        ]
    },
    {
        "client_msg_id": "5F15F8DC-882E-4152-AEE0-C66BD74E505F",
        "type": "message",
        "text": "<@UV7N8HX28> too...",
        "user": "UV1A22N3W",
        "ts": "1587537761.059400",
        "team": "TUU48M0T1",
        "user_team": "TUU48M0T1",
        "source_team": "TUU48M0T1",
        "user_profile": {
            "avatar_hash": "71f827776ad6",
            "image_72": "https:\/\/avatars.slack-edge.com\/2020-03-09\/988125642964_71f827776ad610af05a2_72.jpg",
            "first_name": "",
            "real_name": "RachelA",
            "display_name": "RachelA",
            "team": "TUU48M0T1",
            "name": "raronoff",
            "is_restricted": false,
            "is_ultra_restricted": false
        },
        "blocks": [
            {
                "type": "rich_text",
                "block_id": "igyEE",
                "elements": [
                    {
                        "type": "rich_text_section",
                        "elements": [
                            {
                                "type": "user",
                                "user_id": "UV7N8HX28"
                            },
                            {
                                "type": "text",
                                "text": " too..."
                            }
                        ]
                    }
                ]
            }
        ]
    }
]