[
    {
        "type": "message",
        "subtype": "channel_join",
        "ts": "1586107488.000200",
        "user": "U0115G1A03D",
        "text": "<@U0115G1A03D> has joined the channel"
    },
    {
        "type": "message",
        "subtype": "channel_purpose",
        "ts": "1586107489.000300",
        "user": "U0115G1A03D",
        "text": "<@U0115G1A03D> set the channel purpose: Spanish channel for easy communication",
        "purpose": "Spanish channel for easy communication"
    }
]