[
    {
        "client_msg_id": "3118f322-6b1e-4091-a4e9-14152b5a3890",
        "type": "message",
        "text": "Mozilla has announced their *<https:\/\/sciencedisrupt.us13.list-manage.com\/track\/click?u=81647064bb41376a26e247276&amp;id=fdba365c7c&amp;e=cd7bdd3ddc|COVID-19 Solutions Fund>* as part of the Mozilla Open Source Support Program (MOSS). $50,000 is available to open source technology projects which are responding to the COVID-19 pandemic.",
        "user": "UV0CX49QB",
        "ts": "1586037433.002100",
        "team": "TUU48M0T1",
        "user_team": "TUU48M0T1",
        "source_team": "TUU48M0T1",
        "user_profile": {
            "avatar_hash": "faebd33b1bc9",
            "image_72": "https:\/\/avatars.slack-edge.com\/2020-03-17\/1007182038528_faebd33b1bc9f6356697_72.jpg",
            "first_name": "David",
            "real_name": "David Šmehlík",
            "display_name": "David Šmehlík",
            "team": "TUU48M0T1",
            "name": "akuataja",
            "is_restricted": false,
            "is_ultra_restricted": false
        },
        "attachments": [
            {
                "service_name": "The Mozilla Blog",
                "title": "MOSS launches COVID-19 Solutions Fund – The Mozilla Blog",
                "title_link": "https:\/\/sciencedisrupt.us13.list-manage.com\/track\/click?u=81647064bb41376a26e247276&id=fdba365c7c&e=cd7bdd3ddc",
                "text": "Mozilla is announcing today the creation of a COVID-19 Solutions Fund as part of the Mozilla Open Source Support Program (MOSS). Through this fund, we will provide awards of up ...",
                "fallback": "The Mozilla Blog: MOSS launches COVID-19 Solutions Fund – The Mozilla Blog",
                "image_url": "https:\/\/blog.mozilla.org\/wp-content\/uploads\/2018\/03\/Pasted-image-at-2018_03_07-09_16-PM.png",
                "from_url": "https:\/\/sciencedisrupt.us13.list-manage.com\/track\/click?u=81647064bb41376a26e247276&id=fdba365c7c&e=cd7bdd3ddc",
                "image_width": 455,
                "image_height": 250,
                "image_bytes": 61524,
                "service_icon": "https:\/\/ffp4g1ylyit3jdyti1hqcvtb-wpengine.netdna-ssl.com\/wp-content\/themes\/frontierline\/img\/favicon.png",
                "id": 1,
                "original_url": "https:\/\/sciencedisrupt.us13.list-manage.com\/track\/click?u=81647064bb41376a26e247276&amp;id=fdba365c7c&amp;e=cd7bdd3ddc"
            }
        ],
        "blocks": [
            {
                "type": "rich_text",
                "block_id": "QxfyJ",
                "elements": [
                    {
                        "type": "rich_text_section",
                        "elements": [
                            {
                                "type": "text",
                                "text": "Mozilla has announced their "
                            },
                            {
                                "type": "link",
                                "url": "https:\/\/sciencedisrupt.us13.list-manage.com\/track\/click?u=81647064bb41376a26e247276&id=fdba365c7c&e=cd7bdd3ddc",
                                "text": "COVID-19 Solutions Fund",
                                "style": {
                                    "bold": true
                                }
                            },
                            {
                                "type": "text",
                                "text": " as part of the Mozilla Open Source Support Program (MOSS). $50,000 is available to open source technology projects which are responding to the COVID-19 pandemic."
                            }
                        ]
                    }
                ]
            }
        ]
    }
]