[
    {
        "client_msg_id": "6c988619-971a-4453-aaa0-9ff1535debd4",
        "type": "message",
        "text": "Well. We may be able to use open collective for fundraising and processing: <https:\/\/opencollective.com\/>",
        "user": "U010X9FPMS8",
        "ts": "1586592366.012500",
        "team": "TUU48M0T1",
        "user_team": "TUU48M0T1",
        "source_team": "TUU48M0T1",
        "user_profile": {
            "avatar_hash": "faff4edf8af2",
            "image_72": "https:\/\/avatars.slack-edge.com\/2020-03-27\/1031471711236_faff4edf8af2cc7b11dd_72.jpg",
            "first_name": "Florian",
            "real_name": "Florian Schulte",
            "display_name": "Florian Schulte",
            "team": "TUU48M0T1",
            "name": "schulte.florian",
            "is_restricted": false,
            "is_ultra_restricted": false
        },
        "attachments": [
            {
                "title": "Open Collective",
                "title_link": "https:\/\/opencollective.com\/",
                "text": "Make your community sustainable. Collect and spend money transparently.",
                "fallback": "Open Collective",
                "image_url": "https:\/\/opencollective.com\/static\/images\/opencollective-og-default.png",
                "from_url": "https:\/\/opencollective.com\/",
                "image_width": 476,
                "image_height": 250,
                "image_bytes": 177346,
                "service_icon": "https:\/\/opencollective.com\/favicon.ico",
                "service_name": "opencollective.com",
                "id": 1,
                "original_url": "https:\/\/opencollective.com\/"
            }
        ],
        "blocks": [
            {
                "type": "rich_text",
                "block_id": "ODEus",
                "elements": [
                    {
                        "type": "rich_text_section",
                        "elements": [
                            {
                                "type": "text",
                                "text": "Well. We may be able to use open collective for fundraising and processing: "
                            },
                            {
                                "type": "link",
                                "url": "https:\/\/opencollective.com\/"
                            }
                        ]
                    }
                ]
            }
        ],
        "thread_ts": "1586553621.012400",
        "parent_user_id": "U010GHT685A"
    },
    {
        "client_msg_id": "e394fa5a-2c82-43ac-a93e-3677e26e1e74",
        "type": "message",
        "text": "I know the people who developed it, they are super trustworthy. I would like to start a collective for a crowdfunder for the neb-lamp-test. They asked for some 2000 Euros, and I think it may be possible to collect them til beginning of next week. Would anyone like to help me setting it up?",
        "user": "U010X9FPMS8",
        "ts": "1586592485.012800",
        "team": "TUU48M0T1",
        "user_team": "TUU48M0T1",
        "source_team": "TUU48M0T1",
        "user_profile": {
            "avatar_hash": "faff4edf8af2",
            "image_72": "https:\/\/avatars.slack-edge.com\/2020-03-27\/1031471711236_faff4edf8af2cc7b11dd_72.jpg",
            "first_name": "Florian",
            "real_name": "Florian Schulte",
            "display_name": "Florian Schulte",
            "team": "TUU48M0T1",
            "name": "schulte.florian",
            "is_restricted": false,
            "is_ultra_restricted": false
        },
        "edited": {
            "user": "U010X9FPMS8",
            "ts": "1586592504.000000"
        },
        "blocks": [
            {
                "type": "rich_text",
                "block_id": "UDg2",
                "elements": [
                    {
                        "type": "rich_text_section",
                        "elements": [
                            {
                                "type": "text",
                                "text": "I know the people who developed it, they are super trustworthy. I would like to start a collective for a crowdfunder for the neb-lamp-test. They asked for some 2000 Euros, and I think it may be possible to collect them til beginning of next week. Would anyone like to help me setting it up?"
                            }
                        ]
                    }
                ]
            }
        ],
        "thread_ts": "1586553621.012400",
        "parent_user_id": "U010GHT685A"
    },
    {
        "client_msg_id": "e27f5add-1798-4d55-a946-809d0dfca8e8",
        "type": "message",
        "text": "Okay guys, I think I might have found someone to set up a fundraiser with me, from XR structures. I would like to do it later today or tomorrow. Are there any objections? Is there a process already for fundraising and reimbursements?",
        "user": "U010X9FPMS8",
        "ts": "1586600945.014100",
        "team": "TUU48M0T1",
        "user_team": "TUU48M0T1",
        "source_team": "TUU48M0T1",
        "user_profile": {
            "avatar_hash": "faff4edf8af2",
            "image_72": "https:\/\/avatars.slack-edge.com\/2020-03-27\/1031471711236_faff4edf8af2cc7b11dd_72.jpg",
            "first_name": "Florian",
            "real_name": "Florian Schulte",
            "display_name": "Florian Schulte",
            "team": "TUU48M0T1",
            "name": "schulte.florian",
            "is_restricted": false,
            "is_ultra_restricted": false
        },
        "blocks": [
            {
                "type": "rich_text",
                "block_id": "4PXk",
                "elements": [
                    {
                        "type": "rich_text_section",
                        "elements": [
                            {
                                "type": "text",
                                "text": "Okay guys, I think I might have found someone to set up a fundraiser with me, from XR structures. I would like to do it later today or tomorrow. Are there any objections? Is there a process already for fundraising and reimbursements?"
                            }
                        ]
                    }
                ]
            }
        ]
    },
    {
        "client_msg_id": "EC7221C5-4E32-4A85-8490-9D11AD538671",
        "type": "message",
        "text": "<@U010X9FPMS8> most projects are going to be funded by JOGL. A fundraiser is a complex operation involving a lot of communication. If a fundraiser should be done, it should be for OpenCovid19 as a whole in my opinion so that the funds go to peer-reviewed projects.",
        "user": "UV02WET96",
        "ts": "1586601246.017500",
        "team": "TUU48M0T1",
        "user_team": "TUU48M0T1",
        "source_team": "TUU48M0T1",
        "user_profile": {
            "avatar_hash": "a99c74a194f8",
            "image_72": "https:\/\/avatars.slack-edge.com\/2020-03-07\/975708504851_a99c74a194f86715ca7d_72.png",
            "first_name": "Thomas",
            "real_name": "Thomas Landrain",
            "display_name": "Thomas Landrain - JOGL CoFounder \/ CEO",
            "team": "TUU48M0T1",
            "name": "thomas",
            "is_restricted": false,
            "is_ultra_restricted": false
        },
        "edited": {
            "user": "UV02WET96",
            "ts": "1586601257.000000"
        },
        "blocks": [
            {
                "type": "rich_text",
                "block_id": "PToQH",
                "elements": [
                    {
                        "type": "rich_text_section",
                        "elements": [
                            {
                                "type": "user",
                                "user_id": "U010X9FPMS8"
                            },
                            {
                                "type": "text",
                                "text": " most projects are going to be funded by JOGL. A fundraiser is a complex operation involving a lot of communication. If a fundraiser should be done, it should be for OpenCovid19 as a whole in my opinion so that the funds go to peer-reviewed projects."
                            }
                        ]
                    }
                ]
            }
        ]
    },
    {
        "client_msg_id": "BA8F31FD-D58D-466F-B675-B2756E935E9B",
        "type": "message",
        "text": "We can have a short call this afternoon european time to talk about it ",
        "user": "UV02WET96",
        "ts": "1586601316.018400",
        "team": "TUU48M0T1",
        "user_team": "TUU48M0T1",
        "source_team": "TUU48M0T1",
        "user_profile": {
            "avatar_hash": "a99c74a194f8",
            "image_72": "https:\/\/avatars.slack-edge.com\/2020-03-07\/975708504851_a99c74a194f86715ca7d_72.png",
            "first_name": "Thomas",
            "real_name": "Thomas Landrain",
            "display_name": "Thomas Landrain - JOGL CoFounder \/ CEO",
            "team": "TUU48M0T1",
            "name": "thomas",
            "is_restricted": false,
            "is_ultra_restricted": false
        },
        "blocks": [
            {
                "type": "rich_text",
                "block_id": "lVTTC",
                "elements": [
                    {
                        "type": "rich_text_section",
                        "elements": [
                            {
                                "type": "text",
                                "text": "We can have a short call this afternoon european time to talk about it "
                            }
                        ]
                    }
                ]
            }
        ],
        "thread_ts": "1586601316.018400",
        "reply_count": 1,
        "reply_users_count": 1,
        "latest_reply": "1586605335.018500",
        "reply_users": [
            "U010X9FPMS8"
        ],
        "replies": [
            {
                "user": "U010X9FPMS8",
                "ts": "1586605335.018500"
            }
        ],
        "subscribed": false
    },
    {
        "client_msg_id": "660b4a2f-01bb-46ce-9a63-e742c5f0c6cc",
        "type": "message",
        "text": "Let's do this! You can reach me on <tel:+4915785376634|+4915785376634>.",
        "user": "U010X9FPMS8",
        "ts": "1586605335.018500",
        "team": "TUU48M0T1",
        "user_team": "TUU48M0T1",
        "source_team": "TUU48M0T1",
        "user_profile": {
            "avatar_hash": "faff4edf8af2",
            "image_72": "https:\/\/avatars.slack-edge.com\/2020-03-27\/1031471711236_faff4edf8af2cc7b11dd_72.jpg",
            "first_name": "Florian",
            "real_name": "Florian Schulte",
            "display_name": "Florian Schulte",
            "team": "TUU48M0T1",
            "name": "schulte.florian",
            "is_restricted": false,
            "is_ultra_restricted": false
        },
        "blocks": [
            {
                "type": "rich_text",
                "block_id": "SXky",
                "elements": [
                    {
                        "type": "rich_text_section",
                        "elements": [
                            {
                                "type": "text",
                                "text": "Let's do this! You can reach me on "
                            },
                            {
                                "type": "link",
                                "url": "tel:+4915785376634",
                                "text": "+4915785376634"
                            },
                            {
                                "type": "text",
                                "text": "."
                            }
                        ]
                    }
                ]
            }
        ],
        "thread_ts": "1586601316.018400",
        "parent_user_id": "UV02WET96"
    }
]