[
    {
        "client_msg_id": "82574b5f-aefb-469f-80be-5b5519935118",
        "type": "message",
        "text": "<https:\/\/apply-for-innovation-funding.service.gov.uk\/competition\/583\/overview|https:\/\/apply-for-innovation-funding.service.gov.uk\/competition\/583\/overview>",
        "user": "U010BA2NL9E",
        "ts": "1586177382.002800",
        "team": "TUU48M0T1",
        "user_team": "TUU48M0T1",
        "source_team": "TUU48M0T1",
        "user_profile": {
            "avatar_hash": "g3fa100f8f14",
            "image_72": "https:\/\/secure.gravatar.com\/avatar\/3fa100f8f14fc86a0f2f58648b36d29e.jpg?s=72&d=https%3A%2F%2Fa.slack-edge.com%2Fdf10d%2Fimg%2Favatars%2Fava_0008-72.png",
            "first_name": "",
            "real_name": "Eduardo Garcia",
            "display_name": "Eduardo Garcia",
            "team": "TUU48M0T1",
            "name": "eduardo.garcia",
            "is_restricted": false,
            "is_ultra_restricted": false
        },
        "attachments": [
            {
                "title": " Competition overview - Business-led innovation in response to global disruption (de minimis)  - Innovation Funding Service",
                "title_link": "https:\/\/apply-for-innovation-funding.service.gov.uk\/competition\/583\/overview",
                "fallback": " Competition overview - Business-led innovation in response to global disruption (de minimis)  - Innovation Funding Service",
                "image_url": "https:\/\/apply-for-innovation-funding.service.gov.uk\/images\/govuk-opengraph-image-f86f1d0dd106bfbcd8ad1ee5ea68e75e.png",
                "from_url": "https:\/\/apply-for-innovation-funding.service.gov.uk\/competition\/583\/overview",
                "image_width": 476,
                "image_height": 250,
                "image_bytes": 15380,
                "service_icon": "https:\/\/apply-for-innovation-funding.service.gov.uk\/images\/govuk-apple-touch-icon-180x180.png",
                "service_name": "apply-for-innovation-funding.service.gov.uk",
                "id": 1,
                "original_url": "https:\/\/apply-for-innovation-funding.service.gov.uk\/competition\/583\/overview"
            }
        ],
        "blocks": [
            {
                "type": "rich_text",
                "block_id": "koFE",
                "elements": [
                    {
                        "type": "rich_text_section",
                        "elements": [
                            {
                                "type": "link",
                                "url": "https:\/\/apply-for-innovation-funding.service.gov.uk\/competition\/583\/overview",
                                "text": "https:\/\/apply-for-innovation-funding.service.gov.uk\/competition\/583\/overview"
                            }
                        ]
                    }
                ]
            }
        ]
    }
]