[
    {
        "client_msg_id": "026a5e5e-2704-462a-b3ff-23bbea808bef",
        "type": "message",
        "text": "not sure if this is where to put this, two points about our funding process: 1) the template sections and the 'additional info' ones to fill in on the 'front side JOGL' don't match so well. We managed, but improvised...  Also 2) for review, some of us think it is not very ethical if people are reviewing the projects they are in, or in competition with, when they are in the running for the funds.  (somehow I am in basically 4 of the diagnostics ones... :slightly_smiling_face:  Maybe in time for the next round 1 can be fixed and 2 can be discussed further?",
        "user": "UV1A22N3W",
        "ts": "1586415959.007700",
        "team": "TUU48M0T1",
        "user_team": "TUU48M0T1",
        "source_team": "TUU48M0T1",
        "user_profile": {
            "avatar_hash": "71f827776ad6",
            "image_72": "https:\/\/avatars.slack-edge.com\/2020-03-09\/988125642964_71f827776ad610af05a2_72.jpg",
            "first_name": "",
            "real_name": "RachelA",
            "display_name": "RachelA",
            "team": "TUU48M0T1",
            "name": "raronoff",
            "is_restricted": false,
            "is_ultra_restricted": false
        },
        "blocks": [
            {
                "type": "rich_text",
                "block_id": "u=T",
                "elements": [
                    {
                        "type": "rich_text_section",
                        "elements": [
                            {
                                "type": "text",
                                "text": "not sure if this is where to put this, two points about our funding process: 1) the template sections and the 'additional info' ones to fill in on the 'front side JOGL' don't match so well. We managed, but improvised...  Also 2) for review, some of us think it is not very ethical if people are reviewing the projects they are in, or in competition with, when they are in the running for the funds.  (somehow I am in basically 4 of the diagnostics ones... "
                            },
                            {
                                "type": "emoji",
                                "name": "slightly_smiling_face"
                            },
                            {
                                "type": "text",
                                "text": "  Maybe in time for the next round 1 can be fixed and 2 can be discussed further?"
                            }
                        ]
                    }
                ]
            }
        ],
        "thread_ts": "1586415959.007700",
        "reply_count": 2,
        "reply_users_count": 2,
        "latest_reply": "1586425816.010400",
        "reply_users": [
            "UV0QTJCMT",
            "UV02WET96"
        ],
        "replies": [
            {
                "user": "UV0QTJCMT",
                "ts": "1586416959.008400"
            },
            {
                "user": "UV02WET96",
                "ts": "1586425816.010400"
            }
        ],
        "subscribed": false
    },
    {
        "client_msg_id": "3615F005-C365-4A1E-AC2A-9557B74DA91A",
        "type": "message",
        "text": "<@UV1A22N3W> these are great points im sharing it with the project review channel if that’s okay",
        "user": "UV0QTJCMT",
        "ts": "1586416959.008400",
        "team": "TUU48M0T1",
        "user_team": "TUU48M0T1",
        "source_team": "TUU48M0T1",
        "user_profile": {
            "avatar_hash": "06a6ae8f69d1",
            "image_72": "https:\/\/avatars.slack-edge.com\/2020-04-13\/1060635499315_06a6ae8f69d18f1ad464_72.png",
            "first_name": "Katherine",
            "real_name": "Katherine Holo",
            "display_name": "Kat Holo - Co-Organizer of OpenCOVID19",
            "team": "TUU48M0T1",
            "name": "katherineh245",
            "is_restricted": false,
            "is_ultra_restricted": false
        },
        "blocks": [
            {
                "type": "rich_text",
                "block_id": "EcU8",
                "elements": [
                    {
                        "type": "rich_text_section",
                        "elements": [
                            {
                                "type": "user",
                                "user_id": "UV1A22N3W"
                            },
                            {
                                "type": "text",
                                "text": " these are great points im sharing it with the project review channel if that’s okay"
                            }
                        ]
                    }
                ]
            }
        ],
        "thread_ts": "1586415959.007700",
        "parent_user_id": "UV1A22N3W"
    },
    {
        "client_msg_id": "8F89BE79-5D50-42AF-9B0B-3916F8BEE5E7",
        "type": "message",
        "text": "Hey Rachel, great points thanks! \nWe’ve added a question to make sure people cannot review their own project. Regarding the template, you can ignore the old template present on the JOGL project page as it will be removed. ",
        "user": "UV02WET96",
        "ts": "1586425816.010400",
        "team": "TUU48M0T1",
        "user_team": "TUU48M0T1",
        "source_team": "TUU48M0T1",
        "user_profile": {
            "avatar_hash": "a99c74a194f8",
            "image_72": "https:\/\/avatars.slack-edge.com\/2020-03-07\/975708504851_a99c74a194f86715ca7d_72.png",
            "first_name": "Thomas",
            "real_name": "Thomas Landrain",
            "display_name": "Thomas Landrain - JOGL CoFounder \/ CEO",
            "team": "TUU48M0T1",
            "name": "thomas",
            "is_restricted": false,
            "is_ultra_restricted": false
        },
        "blocks": [
            {
                "type": "rich_text",
                "block_id": "9vvw",
                "elements": [
                    {
                        "type": "rich_text_section",
                        "elements": [
                            {
                                "type": "text",
                                "text": "Hey Rachel, great points thanks! \n"
                            },
                            {
                                "type": "text",
                                "text": "We’ve added a question to make sure people cannot review their own project. Regarding the template, you can ignore the old template present on the JOGL project page as it will be removed. "
                            }
                        ]
                    }
                ]
            }
        ],
        "thread_ts": "1586415959.007700",
        "parent_user_id": "UV1A22N3W"
    },
    {
        "client_msg_id": "5953a8ea-8a82-4124-abd5-3f634a1e13ac",
        "type": "message",
        "text": "Got a couple of ideas for fundraising. Anyone to share?",
        "user": "U010X9FPMS8",
        "ts": "1586456247.011000",
        "team": "TUU48M0T1",
        "user_team": "TUU48M0T1",
        "source_team": "TUU48M0T1",
        "user_profile": {
            "avatar_hash": "faff4edf8af2",
            "image_72": "https:\/\/avatars.slack-edge.com\/2020-03-27\/1031471711236_faff4edf8af2cc7b11dd_72.jpg",
            "first_name": "Florian",
            "real_name": "Florian Schulte",
            "display_name": "Florian Schulte",
            "team": "TUU48M0T1",
            "name": "schulte.florian",
            "is_restricted": false,
            "is_ultra_restricted": false
        },
        "blocks": [
            {
                "type": "rich_text",
                "block_id": "pMt",
                "elements": [
                    {
                        "type": "rich_text_section",
                        "elements": [
                            {
                                "type": "text",
                                "text": "Got a couple of ideas for fundraising. Anyone to share?"
                            }
                        ]
                    }
                ]
            }
        ]
    }
]