[
    {
        "client_msg_id": "5AFF6ED1-473B-4F1C-87F0-1F6A3B5DF396",
        "type": "message",
        "text": "Here is a funding opportunity from the EU <https:\/\/etp-nanomedicine.eu\/imi2-call-covid19\/|https:\/\/etp-nanomedicine.eu\/imi2-call-covid19\/>",
        "user": "UV02WET96",
        "ts": "1584177936.017900",
        "team": "TUU48M0T1",
        "user_team": "TUU48M0T1",
        "source_team": "TUU48M0T1",
        "user_profile": {
            "avatar_hash": "a99c74a194f8",
            "image_72": "https:\/\/avatars.slack-edge.com\/2020-03-07\/975708504851_a99c74a194f86715ca7d_72.png",
            "first_name": "Thomas",
            "real_name": "Thomas Landrain",
            "display_name": "Thomas Landrain - JOGL CoFounder \/ CEO",
            "team": "TUU48M0T1",
            "name": "thomas",
            "is_restricted": false,
            "is_ultra_restricted": false
        },
        "blocks": [
            {
                "type": "rich_text",
                "block_id": "fzd",
                "elements": [
                    {
                        "type": "rich_text_section",
                        "elements": [
                            {
                                "type": "text",
                                "text": "Here is a funding opportunity from the EU "
                            },
                            {
                                "type": "link",
                                "url": "https:\/\/etp-nanomedicine.eu\/imi2-call-covid19\/",
                                "text": "https:\/\/etp-nanomedicine.eu\/imi2-call-covid19\/"
                            }
                        ]
                    }
                ]
            }
        ]
    },
    {
        "client_msg_id": "BA671663-DB4D-4B0F-84BC-E4B8C669043C",
        "type": "message",
        "text": "Another one here from the EU too\n<https:\/\/ec.europa.eu\/info\/news\/startups-and-smes-innovative-solutions-welcome-2020-mar-13_en|https:\/\/ec.europa.eu\/info\/news\/startups-and-smes-innovative-solutions-welcome-2020-mar-13_en>",
        "user": "UV02WET96",
        "ts": "1584182915.018400",
        "team": "TUU48M0T1",
        "user_team": "TUU48M0T1",
        "source_team": "TUU48M0T1",
        "user_profile": {
            "avatar_hash": "a99c74a194f8",
            "image_72": "https:\/\/avatars.slack-edge.com\/2020-03-07\/975708504851_a99c74a194f86715ca7d_72.png",
            "first_name": "Thomas",
            "real_name": "Thomas Landrain",
            "display_name": "Thomas Landrain - JOGL CoFounder \/ CEO",
            "team": "TUU48M0T1",
            "name": "thomas",
            "is_restricted": false,
            "is_ultra_restricted": false
        },
        "attachments": [
            {
                "service_name": "European Commission - European Commission",
                "title": "Applications welcome from startups and SMEs with innovative solutions to tackle Coronavirus outbreak",
                "title_link": "https:\/\/ec.europa.eu\/info\/news\/startups-and-smes-innovative-solutions-welcome-2020-mar-13_en",
                "text": "The European Commission is calling for startups and SMEs to apply urgently to the next round of funding from the European Innovation Council",
                "fallback": "European Commission - European Commission: Applications welcome from startups and SMEs with innovative solutions to tackle Coronavirus outbreak",
                "image_url": "https:\/\/ec.europa.eu\/info\/sites\/info\/modules\/features\/dt_shared_functions\/images\/ec_logo.png",
                "from_url": "https:\/\/ec.europa.eu\/info\/news\/startups-and-smes-innovative-solutions-welcome-2020-mar-13_en",
                "image_width": 250,
                "image_height": 250,
                "image_bytes": 38602,
                "service_icon": "https:\/\/ec.europa.eu\/info\/sites\/info\/themes\/europa\/images\/png\/favicon\/apple-touch-icon-180x180.png",
                "id": 1,
                "original_url": "https:\/\/ec.europa.eu\/info\/news\/startups-and-smes-innovative-solutions-welcome-2020-mar-13_en"
            }
        ],
        "blocks": [
            {
                "type": "rich_text",
                "block_id": "\/JV",
                "elements": [
                    {
                        "type": "rich_text_section",
                        "elements": [
                            {
                                "type": "text",
                                "text": "Another one here from the EU too\n"
                            },
                            {
                                "type": "link",
                                "url": "https:\/\/ec.europa.eu\/info\/news\/startups-and-smes-innovative-solutions-welcome-2020-mar-13_en",
                                "text": "https:\/\/ec.europa.eu\/info\/news\/startups-and-smes-innovative-solutions-welcome-2020-mar-13_en"
                            }
                        ]
                    }
                ]
            }
        ]
    }
]