[
    {
        "client_msg_id": "c4a57124-7cde-493b-a7e0-bd14dce3d21b",
        "type": "message",
        "text": "Hi Florianm sorry, i’ve been under a ton of work. What about next thursday for a call?4pm?",
        "user": "UV02WET96",
        "ts": "1586887212.019400",
        "team": "TUU48M0T1",
        "user_team": "TUU48M0T1",
        "source_team": "TUU48M0T1",
        "user_profile": {
            "avatar_hash": "a99c74a194f8",
            "image_72": "https:\/\/avatars.slack-edge.com\/2020-03-07\/975708504851_a99c74a194f86715ca7d_72.png",
            "first_name": "Thomas",
            "real_name": "Thomas Landrain",
            "display_name": "Thomas Landrain - JOGL CoFounder \/ CEO",
            "team": "TUU48M0T1",
            "name": "thomas",
            "is_restricted": false,
            "is_ultra_restricted": false
        },
        "blocks": [
            {
                "type": "rich_text",
                "block_id": "yYG",
                "elements": [
                    {
                        "type": "rich_text_section",
                        "elements": [
                            {
                                "type": "text",
                                "text": "Hi Florianm sorry, i’ve been under a ton of work. What about next thursday for a call?4pm?"
                            }
                        ]
                    }
                ]
            }
        ],
        "thread_ts": "1586759044.019300",
        "parent_user_id": "U010X9FPMS8"
    }
]