[
    {
        "type": "message",
        "subtype": "channel_join",
        "ts": "1583938447.000200",
        "user": "UV0RRGB6H",
        "text": "<@UV0RRGB6H> has joined the channel"
    },
    {
        "type": "message",
        "subtype": "channel_join",
        "ts": "1583946813.000400",
        "user": "UV2SC7ZE3",
        "text": "<@UV2SC7ZE3> has joined the channel"
    },
    {
        "type": "message",
        "subtype": "channel_join",
        "ts": "1583949224.000600",
        "user": "UVADMLUB0",
        "text": "<@UVADMLUB0> has joined the channel"
    },
    {
        "type": "message",
        "subtype": "channel_join",
        "ts": "1583949781.000800",
        "user": "UUY5NSL2V",
        "text": "<@UUY5NSL2V> has joined the channel"
    },
    {
        "type": "message",
        "subtype": "channel_join",
        "ts": "1583951215.001000",
        "user": "UV78M0ESG",
        "text": "<@UV78M0ESG> has joined the channel"
    },
    {
        "type": "message",
        "subtype": "channel_join",
        "ts": "1583952359.001200",
        "user": "UUVC28VNW",
        "text": "<@UUVC28VNW> has joined the channel"
    },
    {
        "type": "message",
        "subtype": "channel_join",
        "ts": "1583976799.001400",
        "user": "UV92CLHPA",
        "text": "<@UV92CLHPA> has joined the channel"
    },
    {
        "type": "message",
        "subtype": "channel_join",
        "ts": "1583988535.001600",
        "user": "UUWQU0D8T",
        "text": "<@UUWQU0D8T> has joined the channel"
    }
]