[
    {
        "type": "message",
        "subtype": "channel_join",
        "ts": "1583568047.000200",
        "user": "UV143JZD3",
        "text": "<@UV143JZD3> has joined the channel"
    },
    {
        "type": "message",
        "subtype": "channel_join",
        "ts": "1583572876.000200",
        "user": "UV30KJ4LX",
        "text": "<@UV30KJ4LX> has joined the channel"
    },
    {
        "type": "message",
        "subtype": "channel_join",
        "ts": "1583575640.000100",
        "user": "UV02WET96",
        "text": "<@UV02WET96> has joined the channel"
    },
    {
        "type": "message",
        "subtype": "channel_join",
        "ts": "1583592157.000200",
        "user": "UUPQGNNTV",
        "text": "<@UUPQGNNTV> has joined the channel"
    },
    {
        "type": "message",
        "subtype": "channel_join",
        "ts": "1583592174.000400",
        "user": "UV19CVA93",
        "text": "<@UV19CVA93> has joined the channel"
    },
    {
        "type": "message",
        "subtype": "channel_join",
        "ts": "1583597183.000200",
        "user": "UUNGFHSV8",
        "text": "<@UUNGFHSV8> has joined the channel"
    },
    {
        "type": "message",
        "subtype": "channel_join",
        "ts": "1583600786.000400",
        "user": "UV3HA9MM4",
        "text": "<@UV3HA9MM4> has joined the channel"
    }
]