[
    {
        "type": "message",
        "text": "I looked a bit into the effects of the confinement for me personally. Here’s my computer usage time before and since the confinement. There’s a mixed effect going on, partially the increase in work is a result of former face-to-face interactions being replaced with email & zooms, but it’s also an effect of just working more.",
        "files": [
            {
                "id": "F013ADV43U3",
                "created": 1588941834,
                "timestamp": 1588941834,
                "name": "image.png",
                "title": "image.png",
                "mimetype": "image\/png",
                "filetype": "png",
                "pretty_type": "PNG",
                "user": "UVDJ0PAQK",
                "editable": false,
                "size": 425000,
                "mode": "hosted",
                "is_external": false,
                "external_type": "",
                "is_public": true,
                "public_url_shared": false,
                "display_as_bot": false,
                "username": "",
                "url_private": "https:\/\/files.slack.com\/files-pri\/TUU48M0T1-F013ADV43U3\/image.png?t=xoxe-980144714919-1133254701825-1120841107731-daf595b5a7d6c9028b0b02a925032e36",
                "url_private_download": "https:\/\/files.slack.com\/files-pri\/TUU48M0T1-F013ADV43U3\/download\/image.png?t=xoxe-980144714919-1133254701825-1120841107731-daf595b5a7d6c9028b0b02a925032e36",
                "thumb_64": "https:\/\/files.slack.com\/files-tmb\/TUU48M0T1-F013ADV43U3-c732b7e5e4\/image_64.png?t=xoxe-980144714919-1133254701825-1120841107731-daf595b5a7d6c9028b0b02a925032e36",
                "thumb_80": "https:\/\/files.slack.com\/files-tmb\/TUU48M0T1-F013ADV43U3-c732b7e5e4\/image_80.png?t=xoxe-980144714919-1133254701825-1120841107731-daf595b5a7d6c9028b0b02a925032e36",
                "thumb_360": "https:\/\/files.slack.com\/files-tmb\/TUU48M0T1-F013ADV43U3-c732b7e5e4\/image_360.png?t=xoxe-980144714919-1133254701825-1120841107731-daf595b5a7d6c9028b0b02a925032e36",
                "thumb_360_w": 360,
                "thumb_360_h": 360,
                "thumb_480": "https:\/\/files.slack.com\/files-tmb\/TUU48M0T1-F013ADV43U3-c732b7e5e4\/image_480.png?t=xoxe-980144714919-1133254701825-1120841107731-daf595b5a7d6c9028b0b02a925032e36",
                "thumb_480_w": 480,
                "thumb_480_h": 480,
                "thumb_160": "https:\/\/files.slack.com\/files-tmb\/TUU48M0T1-F013ADV43U3-c732b7e5e4\/image_160.png?t=xoxe-980144714919-1133254701825-1120841107731-daf595b5a7d6c9028b0b02a925032e36",
                "thumb_720": "https:\/\/files.slack.com\/files-tmb\/TUU48M0T1-F013ADV43U3-c732b7e5e4\/image_720.png?t=xoxe-980144714919-1133254701825-1120841107731-daf595b5a7d6c9028b0b02a925032e36",
                "thumb_720_w": 720,
                "thumb_720_h": 720,
                "thumb_800": "https:\/\/files.slack.com\/files-tmb\/TUU48M0T1-F013ADV43U3-c732b7e5e4\/image_800.png?t=xoxe-980144714919-1133254701825-1120841107731-daf595b5a7d6c9028b0b02a925032e36",
                "thumb_800_w": 800,
                "thumb_800_h": 800,
                "thumb_960": "https:\/\/files.slack.com\/files-tmb\/TUU48M0T1-F013ADV43U3-c732b7e5e4\/image_960.png?t=xoxe-980144714919-1133254701825-1120841107731-daf595b5a7d6c9028b0b02a925032e36",
                "thumb_960_w": 960,
                "thumb_960_h": 960,
                "thumb_1024": "https:\/\/files.slack.com\/files-tmb\/TUU48M0T1-F013ADV43U3-c732b7e5e4\/image_1024.png?t=xoxe-980144714919-1133254701825-1120841107731-daf595b5a7d6c9028b0b02a925032e36",
                "thumb_1024_w": 1024,
                "thumb_1024_h": 1024,
                "original_w": 1177,
                "original_h": 1177,
                "thumb_tiny": "AwAwADDSZd2Kbs96fRQAzy\/elCDvzTqKAGjC+tOpB\/SgcHHWgAXp1oJxRjAwKBzmgBaQnB9qAcijGfzoAFpaaOBinUAFIM9hS0UAN6dBSjNLTcso9fxoAUdKUDFR72\/u\/pQHbIyP0oA\/\/9k=",
                "permalink": "https:\/\/open-covid19.slack.com\/files\/UVDJ0PAQK\/F013ADV43U3\/image.png",
                "permalink_public": "https:\/\/slack-files.com\/TUU48M0T1-F013ADV43U3-8e7d618935",
                "is_starred": false,
                "has_rich_preview": false
            }
        ],
        "upload": true,
        "blocks": [
            {
                "type": "rich_text",
                "block_id": "SQR",
                "elements": [
                    {
                        "type": "rich_text_section",
                        "elements": [
                            {
                                "type": "text",
                                "text": "I looked a bit into the effects of the confinement for me personally. Here’s my computer usage time before and since the confinement. There’s a mixed effect going on, partially the increase in work is a result of former face-to-face interactions being replaced with email & zooms, but it’s also an effect of just working more."
                            }
                        ]
                    }
                ]
            }
        ],
        "user": "UVDJ0PAQK",
        "display_as_bot": false,
        "ts": "1588941837.409400",
        "client_msg_id": "aa51f5ed-423b-4242-967d-5d7a72671ac2",
        "thread_ts": "1588941837.409400",
        "reply_count": 1,
        "reply_users_count": 1,
        "latest_reply": "1588941946.409700",
        "reply_users": [
            "UVDJ0PAQK"
        ],
        "replies": [
            {
                "user": "UVDJ0PAQK",
                "ts": "1588941946.409700"
            }
        ],
        "subscribed": false
    },
    {
        "type": "message",
        "text": "I also looked into how the confinement changes my physical activity and sleep, as measured by an oura ring. I clearly stopped being as active as before, but at the same time my sleep has improved (scores range from 0-100 and take into account things like sleep quality, amount of activity, resting heart rate & HRV, etc). Readiness is interesting, as it partially depends on prior physical activity & sleep, so I should feel very ready to go out again :smile:",
        "files": [
            {
                "id": "F0138S1HW21",
                "created": 1588941943,
                "timestamp": 1588941943,
                "name": "image.png",
                "title": "image.png",
                "mimetype": "image\/png",
                "filetype": "png",
                "pretty_type": "PNG",
                "user": "UVDJ0PAQK",
                "editable": false,
                "size": 321503,
                "mode": "hosted",
                "is_external": false,
                "external_type": "",
                "is_public": true,
                "public_url_shared": false,
                "display_as_bot": false,
                "username": "",
                "url_private": "https:\/\/files.slack.com\/files-pri\/TUU48M0T1-F0138S1HW21\/image.png?t=xoxe-980144714919-1133254701825-1120841107731-daf595b5a7d6c9028b0b02a925032e36",
                "url_private_download": "https:\/\/files.slack.com\/files-pri\/TUU48M0T1-F0138S1HW21\/download\/image.png?t=xoxe-980144714919-1133254701825-1120841107731-daf595b5a7d6c9028b0b02a925032e36",
                "thumb_64": "https:\/\/files.slack.com\/files-tmb\/TUU48M0T1-F0138S1HW21-e5228a9720\/image_64.png?t=xoxe-980144714919-1133254701825-1120841107731-daf595b5a7d6c9028b0b02a925032e36",
                "thumb_80": "https:\/\/files.slack.com\/files-tmb\/TUU48M0T1-F0138S1HW21-e5228a9720\/image_80.png?t=xoxe-980144714919-1133254701825-1120841107731-daf595b5a7d6c9028b0b02a925032e36",
                "thumb_360": "https:\/\/files.slack.com\/files-tmb\/TUU48M0T1-F0138S1HW21-e5228a9720\/image_360.png?t=xoxe-980144714919-1133254701825-1120841107731-daf595b5a7d6c9028b0b02a925032e36",
                "thumb_360_w": 360,
                "thumb_360_h": 360,
                "thumb_480": "https:\/\/files.slack.com\/files-tmb\/TUU48M0T1-F0138S1HW21-e5228a9720\/image_480.png?t=xoxe-980144714919-1133254701825-1120841107731-daf595b5a7d6c9028b0b02a925032e36",
                "thumb_480_w": 480,
                "thumb_480_h": 480,
                "thumb_160": "https:\/\/files.slack.com\/files-tmb\/TUU48M0T1-F0138S1HW21-e5228a9720\/image_160.png?t=xoxe-980144714919-1133254701825-1120841107731-daf595b5a7d6c9028b0b02a925032e36",
                "thumb_720": "https:\/\/files.slack.com\/files-tmb\/TUU48M0T1-F0138S1HW21-e5228a9720\/image_720.png?t=xoxe-980144714919-1133254701825-1120841107731-daf595b5a7d6c9028b0b02a925032e36",
                "thumb_720_w": 720,
                "thumb_720_h": 720,
                "thumb_800": "https:\/\/files.slack.com\/files-tmb\/TUU48M0T1-F0138S1HW21-e5228a9720\/image_800.png?t=xoxe-980144714919-1133254701825-1120841107731-daf595b5a7d6c9028b0b02a925032e36",
                "thumb_800_w": 800,
                "thumb_800_h": 800,
                "thumb_960": "https:\/\/files.slack.com\/files-tmb\/TUU48M0T1-F0138S1HW21-e5228a9720\/image_960.png?t=xoxe-980144714919-1133254701825-1120841107731-daf595b5a7d6c9028b0b02a925032e36",
                "thumb_960_w": 960,
                "thumb_960_h": 960,
                "thumb_1024": "https:\/\/files.slack.com\/files-tmb\/TUU48M0T1-F0138S1HW21-e5228a9720\/image_1024.png?t=xoxe-980144714919-1133254701825-1120841107731-daf595b5a7d6c9028b0b02a925032e36",
                "thumb_1024_w": 1024,
                "thumb_1024_h": 1024,
                "original_w": 1177,
                "original_h": 1177,
                "thumb_tiny": "AwAwADDRZd3fpTduD3zUlFAEe0e9OAxyAfzp1FACA5paTFGKAAHPNLSfSjHuaAFopMe\/FGKAAH2ozSiigBOmaM\/X8qWg0AJkUZ9jSZx2OTQH45BoAUZ9qOfpSbh6H8qUNk9DQB\/\/2Q==",
                "permalink": "https:\/\/open-covid19.slack.com\/files\/UVDJ0PAQK\/F0138S1HW21\/image.png",
                "permalink_public": "https:\/\/slack-files.com\/TUU48M0T1-F0138S1HW21-f9159037b2",
                "is_starred": false,
                "has_rich_preview": false
            }
        ],
        "upload": true,
        "blocks": [
            {
                "type": "rich_text",
                "block_id": "1Io",
                "elements": [
                    {
                        "type": "rich_text_section",
                        "elements": [
                            {
                                "type": "text",
                                "text": "I also looked into how the confinement changes my physical activity and sleep, as measured by an oura ring. I clearly stopped being as active as before, but at the same time my sleep has improved (scores range from 0-100 and take into account things like sleep quality, amount of activity, resting heart rate & HRV, etc). Readiness is interesting, as it partially depends on prior physical activity & sleep, so I should feel very ready to go out again "
                            },
                            {
                                "type": "emoji",
                                "name": "smile"
                            }
                        ]
                    }
                ]
            }
        ],
        "user": "UVDJ0PAQK",
        "display_as_bot": false,
        "ts": "1588941946.409700",
        "client_msg_id": "8820e421-a8cd-4954-bf7d-dd21bc9aaafe",
        "thread_ts": "1588941837.409400",
        "parent_user_id": "UVDJ0PAQK",
        "subtype": "thread_broadcast",
        "root": {
            "type": "message",
            "text": "I looked a bit into the effects of the confinement for me personally. Here’s my computer usage time before and since the confinement. There’s a mixed effect going on, partially the increase in work is a result of former face-to-face interactions being replaced with email & zooms, but it’s also an effect of just working more.",
            "files": [
                {
                    "id": "F013ADV43U3",
                    "created": 1588941834,
                    "timestamp": 1588941834,
                    "name": "image.png",
                    "title": "image.png",
                    "mimetype": "image\/png",
                    "filetype": "png",
                    "pretty_type": "PNG",
                    "user": "UVDJ0PAQK",
                    "editable": false,
                    "size": 425000,
                    "mode": "hosted",
                    "is_external": false,
                    "external_type": "",
                    "is_public": true,
                    "public_url_shared": false,
                    "display_as_bot": false,
                    "username": "",
                    "url_private": "https:\/\/files.slack.com\/files-pri\/TUU48M0T1-F013ADV43U3\/image.png?t=xoxe-980144714919-1133254701825-1120841107731-daf595b5a7d6c9028b0b02a925032e36",
                    "url_private_download": "https:\/\/files.slack.com\/files-pri\/TUU48M0T1-F013ADV43U3\/download\/image.png?t=xoxe-980144714919-1133254701825-1120841107731-daf595b5a7d6c9028b0b02a925032e36",
                    "thumb_64": "https:\/\/files.slack.com\/files-tmb\/TUU48M0T1-F013ADV43U3-c732b7e5e4\/image_64.png?t=xoxe-980144714919-1133254701825-1120841107731-daf595b5a7d6c9028b0b02a925032e36",
                    "thumb_80": "https:\/\/files.slack.com\/files-tmb\/TUU48M0T1-F013ADV43U3-c732b7e5e4\/image_80.png?t=xoxe-980144714919-1133254701825-1120841107731-daf595b5a7d6c9028b0b02a925032e36",
                    "thumb_360": "https:\/\/files.slack.com\/files-tmb\/TUU48M0T1-F013ADV43U3-c732b7e5e4\/image_360.png?t=xoxe-980144714919-1133254701825-1120841107731-daf595b5a7d6c9028b0b02a925032e36",
                    "thumb_360_w": 360,
                    "thumb_360_h": 360,
                    "thumb_480": "https:\/\/files.slack.com\/files-tmb\/TUU48M0T1-F013ADV43U3-c732b7e5e4\/image_480.png?t=xoxe-980144714919-1133254701825-1120841107731-daf595b5a7d6c9028b0b02a925032e36",
                    "thumb_480_w": 480,
                    "thumb_480_h": 480,
                    "thumb_160": "https:\/\/files.slack.com\/files-tmb\/TUU48M0T1-F013ADV43U3-c732b7e5e4\/image_160.png?t=xoxe-980144714919-1133254701825-1120841107731-daf595b5a7d6c9028b0b02a925032e36",
                    "thumb_720": "https:\/\/files.slack.com\/files-tmb\/TUU48M0T1-F013ADV43U3-c732b7e5e4\/image_720.png?t=xoxe-980144714919-1133254701825-1120841107731-daf595b5a7d6c9028b0b02a925032e36",
                    "thumb_720_w": 720,
                    "thumb_720_h": 720,
                    "thumb_800": "https:\/\/files.slack.com\/files-tmb\/TUU48M0T1-F013ADV43U3-c732b7e5e4\/image_800.png?t=xoxe-980144714919-1133254701825-1120841107731-daf595b5a7d6c9028b0b02a925032e36",
                    "thumb_800_w": 800,
                    "thumb_800_h": 800,
                    "thumb_960": "https:\/\/files.slack.com\/files-tmb\/TUU48M0T1-F013ADV43U3-c732b7e5e4\/image_960.png?t=xoxe-980144714919-1133254701825-1120841107731-daf595b5a7d6c9028b0b02a925032e36",
                    "thumb_960_w": 960,
                    "thumb_960_h": 960,
                    "thumb_1024": "https:\/\/files.slack.com\/files-tmb\/TUU48M0T1-F013ADV43U3-c732b7e5e4\/image_1024.png?t=xoxe-980144714919-1133254701825-1120841107731-daf595b5a7d6c9028b0b02a925032e36",
                    "thumb_1024_w": 1024,
                    "thumb_1024_h": 1024,
                    "original_w": 1177,
                    "original_h": 1177,
                    "thumb_tiny": "AwAwADDSZd2Kbs96fRQAzy\/elCDvzTqKAGjC+tOpB\/SgcHHWgAXp1oJxRjAwKBzmgBaQnB9qAcijGfzoAFpaaOBinUAFIM9hS0UAN6dBSjNLTcso9fxoAUdKUDFR72\/u\/pQHbIyP0oA\/\/9k=",
                    "permalink": "https:\/\/open-covid19.slack.com\/files\/UVDJ0PAQK\/F013ADV43U3\/image.png",
                    "permalink_public": "https:\/\/slack-files.com\/TUU48M0T1-F013ADV43U3-8e7d618935",
                    "is_starred": false,
                    "has_rich_preview": false
                }
            ],
            "upload": true,
            "blocks": [
                {
                    "type": "rich_text",
                    "block_id": "SQR",
                    "elements": [
                        {
                            "type": "rich_text_section",
                            "elements": [
                                {
                                    "type": "text",
                                    "text": "I looked a bit into the effects of the confinement for me personally. Here’s my computer usage time before and since the confinement. There’s a mixed effect going on, partially the increase in work is a result of former face-to-face interactions being replaced with email & zooms, but it’s also an effect of just working more."
                                }
                            ]
                        }
                    ]
                }
            ],
            "user": "UVDJ0PAQK",
            "display_as_bot": false,
            "ts": "1588941837.409400",
            "client_msg_id": "aa51f5ed-423b-4242-967d-5d7a72671ac2",
            "thread_ts": "1588941837.409400",
            "reply_count": 1,
            "reply_users_count": 1,
            "latest_reply": "1588941946.409700",
            "reply_users": [
                "UVDJ0PAQK"
            ],
            "subscribed": false
        }
    },
    {
        "type": "message",
        "text": "It's my pleasure to announce that my new French partners are taking over my project \"Thermobracelet\".... It's never my intention to do everything by myself....",
        "files": [
            {
                "id": "F013A7JH4DT",
                "created": 1588981584,
                "timestamp": 1588981584,
                "name": "Screenshot_20200509-010431.jpg",
                "title": "Screenshot_20200509-010431.jpg",
                "mimetype": "image\/jpeg",
                "filetype": "jpg",
                "pretty_type": "JPEG",
                "user": "U011XCJJ7KK",
                "editable": false,
                "size": 29441,
                "mode": "hosted",
                "is_external": false,
                "external_type": "",
                "is_public": true,
                "public_url_shared": false,
                "display_as_bot": false,
                "username": "",
                "url_private": "https:\/\/files.slack.com\/files-pri\/TUU48M0T1-F013A7JH4DT\/screenshot_20200509-010431.jpg?t=xoxe-980144714919-1133254701825-1120841107731-daf595b5a7d6c9028b0b02a925032e36",
                "url_private_download": "https:\/\/files.slack.com\/files-pri\/TUU48M0T1-F013A7JH4DT\/download\/screenshot_20200509-010431.jpg?t=xoxe-980144714919-1133254701825-1120841107731-daf595b5a7d6c9028b0b02a925032e36",
                "thumb_64": "https:\/\/files.slack.com\/files-tmb\/TUU48M0T1-F013A7JH4DT-8c83993cba\/screenshot_20200509-010431_64.jpg?t=xoxe-980144714919-1133254701825-1120841107731-daf595b5a7d6c9028b0b02a925032e36",
                "thumb_80": "https:\/\/files.slack.com\/files-tmb\/TUU48M0T1-F013A7JH4DT-8c83993cba\/screenshot_20200509-010431_80.jpg?t=xoxe-980144714919-1133254701825-1120841107731-daf595b5a7d6c9028b0b02a925032e36",
                "thumb_360": "https:\/\/files.slack.com\/files-tmb\/TUU48M0T1-F013A7JH4DT-8c83993cba\/screenshot_20200509-010431_360.jpg?t=xoxe-980144714919-1133254701825-1120841107731-daf595b5a7d6c9028b0b02a925032e36",
                "thumb_360_w": 202,
                "thumb_360_h": 360,
                "thumb_480": "https:\/\/files.slack.com\/files-tmb\/TUU48M0T1-F013A7JH4DT-8c83993cba\/screenshot_20200509-010431_480.jpg?t=xoxe-980144714919-1133254701825-1120841107731-daf595b5a7d6c9028b0b02a925032e36",
                "thumb_480_w": 270,
                "thumb_480_h": 480,
                "thumb_160": "https:\/\/files.slack.com\/files-tmb\/TUU48M0T1-F013A7JH4DT-8c83993cba\/screenshot_20200509-010431_160.jpg?t=xoxe-980144714919-1133254701825-1120841107731-daf595b5a7d6c9028b0b02a925032e36",
                "thumb_720": "https:\/\/files.slack.com\/files-tmb\/TUU48M0T1-F013A7JH4DT-8c83993cba\/screenshot_20200509-010431_720.jpg?t=xoxe-980144714919-1133254701825-1120841107731-daf595b5a7d6c9028b0b02a925032e36",
                "thumb_720_w": 405,
                "thumb_720_h": 720,
                "thumb_800": "https:\/\/files.slack.com\/files-tmb\/TUU48M0T1-F013A7JH4DT-8c83993cba\/screenshot_20200509-010431_800.jpg?t=xoxe-980144714919-1133254701825-1120841107731-daf595b5a7d6c9028b0b02a925032e36",
                "thumb_800_w": 450,
                "thumb_800_h": 800,
                "original_w": 480,
                "original_h": 854,
                "thumb_tiny": "AwAwABqc2mOsn\/jtH2Xgjf1\/2atsM9gfrQM+2KVkXzyKv2XOfnHP+zR9i\/6afpVuiiyDnkNdtoyelV3vAMbAG9c5H9KsP0FNHJ4pkCRzpI21Tz9D\/hUtNUEHmnUAIfejI9RSP2pnI9aAJaKaue9OoA\/\/2Q==",
                "permalink": "https:\/\/open-covid19.slack.com\/files\/U011XCJJ7KK\/F013A7JH4DT\/screenshot_20200509-010431.jpg",
                "permalink_public": "https:\/\/slack-files.com\/TUU48M0T1-F013A7JH4DT-51659d702e",
                "is_starred": false,
                "has_rich_preview": false
            }
        ],
        "upload": true,
        "blocks": [
            {
                "type": "rich_text",
                "block_id": "RRx",
                "elements": [
                    {
                        "type": "rich_text_section",
                        "elements": [
                            {
                                "type": "text",
                                "text": "It's my pleasure to announce that my new French partners are taking over my project \"Thermobracelet\".... It's never my intention to do everything by myself...."
                            }
                        ]
                    }
                ]
            }
        ],
        "user": "U011XCJJ7KK",
        "display_as_bot": false,
        "ts": "1588981587.410400",
        "client_msg_id": "ee72b1ef-ae34-413e-a68e-6c8dcd78cb5e",
        "thread_ts": "1588981587.410400",
        "reply_count": 2,
        "reply_users_count": 2,
        "latest_reply": "1589002970.411000",
        "reply_users": [
            "UV0QTJCMT",
            "U011XCJJ7KK"
        ],
        "replies": [
            {
                "user": "UV0QTJCMT",
                "ts": "1588982881.410800"
            },
            {
                "user": "U011XCJJ7KK",
                "ts": "1589002970.411000"
            }
        ],
        "subscribed": false,
        "reactions": [
            {
                "name": "+1",
                "users": [
                    "UV1A22N3W"
                ],
                "count": 1
            }
        ]
    },
    {
        "client_msg_id": "BB2EF343-47B6-4A20-98EA-3253EBDE8844",
        "type": "message",
        "text": "congrats!!",
        "user": "UV0QTJCMT",
        "ts": "1588982881.410800",
        "team": "TUU48M0T1",
        "user_team": "TUU48M0T1",
        "source_team": "TUU48M0T1",
        "user_profile": {
            "avatar_hash": "06a6ae8f69d1",
            "image_72": "https:\/\/avatars.slack-edge.com\/2020-04-13\/1060635499315_06a6ae8f69d18f1ad464_72.png",
            "first_name": "Katherine",
            "real_name": "Katherine Holo",
            "display_name": "Kat Holo - Co-Organizer of OpenCOVID19",
            "team": "TUU48M0T1",
            "name": "katherineh245",
            "is_restricted": false,
            "is_ultra_restricted": false
        },
        "blocks": [
            {
                "type": "rich_text",
                "block_id": "wyCI3",
                "elements": [
                    {
                        "type": "rich_text_section",
                        "elements": [
                            {
                                "type": "text",
                                "text": "congrats!!"
                            }
                        ]
                    }
                ]
            }
        ],
        "thread_ts": "1588981587.410400",
        "parent_user_id": "U011XCJJ7KK"
    },
    {
        "client_msg_id": "7b2745ff-d0d7-484b-a1f0-9f109295d515",
        "type": "message",
        "text": "<@UV0QTJCMT> thank you! This is great new of community of JOGL and I would not have met them if it weren't for JOGL. please assist them in any way you can!",
        "user": "U011XCJJ7KK",
        "ts": "1589002970.411000",
        "team": "TUU48M0T1",
        "user_team": "TUU48M0T1",
        "source_team": "TUU48M0T1",
        "user_profile": {
            "avatar_hash": "a14335872167",
            "image_72": "https:\/\/avatars.slack-edge.com\/2020-04-10\/1052948616998_a1433587216787500a0e_72.jpg",
            "first_name": "Anteneh",
            "real_name": "Anteneh Gashaw",
            "display_name": "",
            "team": "TUU48M0T1",
            "name": "antenh.g",
            "is_restricted": false,
            "is_ultra_restricted": false
        },
        "blocks": [
            {
                "type": "rich_text",
                "block_id": "3D4",
                "elements": [
                    {
                        "type": "rich_text_section",
                        "elements": [
                            {
                                "type": "user",
                                "user_id": "UV0QTJCMT"
                            },
                            {
                                "type": "text",
                                "text": " thank you! This is great new of community of JOGL and I would not have met them if it weren't for JOGL. please assist them in any way you can!"
                            }
                        ]
                    }
                ]
            }
        ],
        "thread_ts": "1588981587.410400",
        "parent_user_id": "U011XCJJ7KK"
    }
]