[
    {
        "client_msg_id": "223c03c5-0524-4c51-9708-d715bbb8f4d3",
        "type": "message",
        "text": "<https:\/\/decolonisingpd.wordpress.com\/call-for-papers\/>",
        "user": "UV87UQ37A",
        "ts": "1587404732.368100",
        "team": "TUU48M0T1",
        "user_team": "TUU48M0T1",
        "source_team": "TUU48M0T1",
        "user_profile": {
            "avatar_hash": "g7c78d2f0258",
            "image_72": "https:\/\/secure.gravatar.com\/avatar\/7c78d2f0258f7bdf78a86301cfd6b712.jpg?s=72&d=https%3A%2F%2Fa.slack-edge.com%2Fdf10d%2Fimg%2Favatars%2Fava_0014-72.png",
            "first_name": "Victoria",
            "real_name": "Victoria Costa",
            "display_name": "Victoria Costa",
            "team": "TUU48M0T1",
            "name": "victorycoast",
            "is_restricted": false,
            "is_ultra_restricted": false
        },
        "attachments": [
            {
                "service_name": "Decolonising Participatory Design Practices",
                "service_url": "http:\/\/decolonisingpd.wordpress.com",
                "title": "Call for Papers",
                "title_link": "https:\/\/decolonisingpd.wordpress.com\/call-for-papers\/",
                "author_name": "asnathpaula",
                "author_link": "https:\/\/decolonisingpd.wordpress.com\/author\/asnathpaula\/",
                "text": "To participate in the workshop, provide a 1-2 page position papers describing state-of-the-art examples of rich on-the-ground research cases that demonstrate decolonising approaches and practices to design and technology. The participants are requested to elaborate on their own practical experience as well as provide suggestions for possible methods, techniques and concepts aiming at embracing multiple epistemologies in design and knowledge production. \n\n\n\nThe five organisers will evaluate the position papers and decide on a consensus basis the acceptance of participants.&nbsp;&nbsp;The aim is to attract diverse participants from different continents, that represent a global community of PD researchers working in different contexts and domains.\n\n\n\nImportant dates\n\n\n\nDeadline for submission of position papers: 24 April Notifications of selection: 1 May Deadline for workshop authors registration: TBA Full day workshop date: 16 JunePlease send your papers to ",
                "fallback": "Decolonising Participatory Design Practices Link: Call for Papers",
                "from_url": "https:\/\/decolonisingpd.wordpress.com\/call-for-papers\/",
                "service_icon": "https:\/\/s2.wp.com\/i\/webclip.png",
                "id": 1,
                "original_url": "https:\/\/decolonisingpd.wordpress.com\/call-for-papers\/"
            }
        ],
        "blocks": [
            {
                "type": "rich_text",
                "block_id": "R9uqG",
                "elements": [
                    {
                        "type": "rich_text_section",
                        "elements": [
                            {
                                "type": "link",
                                "url": "https:\/\/decolonisingpd.wordpress.com\/call-for-papers\/"
                            }
                        ]
                    }
                ]
            }
        ],
        "thread_ts": "1587404732.368100",
        "reply_count": 2,
        "reply_users_count": 2,
        "latest_reply": "1587406075.368600",
        "reply_users": [
            "UV87UQ37A",
            "UVC9WMA7N"
        ],
        "replies": [
            {
                "user": "UV87UQ37A",
                "ts": "1587405027.368400"
            },
            {
                "user": "UVC9WMA7N",
                "ts": "1587406075.368600"
            }
        ],
        "subscribed": false,
        "reactions": [
            {
                "name": "heart_eyes",
                "users": [
                    "UV9V03C8Y"
                ],
                "count": 1
            },
            {
                "name": "sunglasses",
                "users": [
                    "U01113Y1PLP"
                ],
                "count": 1
            }
        ]
    },
    {
        "client_msg_id": "7fcaf8a5-81dc-406a-94e3-50fd807a4cdc",
        "type": "message",
        "text": "this could be something this community could get a great deal out of <@UV02WET96> <@UV9V03C8Y> <@UVC9WMA7N> <@U010HTBUHS9> <@UUWR0FJ7M> <@U011B6VLM2A> <@UV0RRGB6H>",
        "user": "UV87UQ37A",
        "ts": "1587405027.368400",
        "team": "TUU48M0T1",
        "user_team": "TUU48M0T1",
        "source_team": "TUU48M0T1",
        "user_profile": {
            "avatar_hash": "g7c78d2f0258",
            "image_72": "https:\/\/secure.gravatar.com\/avatar\/7c78d2f0258f7bdf78a86301cfd6b712.jpg?s=72&d=https%3A%2F%2Fa.slack-edge.com%2Fdf10d%2Fimg%2Favatars%2Fava_0014-72.png",
            "first_name": "Victoria",
            "real_name": "Victoria Costa",
            "display_name": "Victoria Costa",
            "team": "TUU48M0T1",
            "name": "victorycoast",
            "is_restricted": false,
            "is_ultra_restricted": false
        },
        "blocks": [
            {
                "type": "rich_text",
                "block_id": "V+Ltq",
                "elements": [
                    {
                        "type": "rich_text_section",
                        "elements": [
                            {
                                "type": "text",
                                "text": "this could be something this community could get a great deal out of "
                            },
                            {
                                "type": "user",
                                "user_id": "UV02WET96"
                            },
                            {
                                "type": "text",
                                "text": " "
                            },
                            {
                                "type": "user",
                                "user_id": "UV9V03C8Y"
                            },
                            {
                                "type": "text",
                                "text": " "
                            },
                            {
                                "type": "user",
                                "user_id": "UVC9WMA7N"
                            },
                            {
                                "type": "text",
                                "text": " "
                            },
                            {
                                "type": "user",
                                "user_id": "U010HTBUHS9"
                            },
                            {
                                "type": "text",
                                "text": " "
                            },
                            {
                                "type": "user",
                                "user_id": "UUWR0FJ7M"
                            },
                            {
                                "type": "text",
                                "text": " "
                            },
                            {
                                "type": "user",
                                "user_id": "U011B6VLM2A"
                            },
                            {
                                "type": "text",
                                "text": " "
                            },
                            {
                                "type": "user",
                                "user_id": "UV0RRGB6H"
                            }
                        ]
                    }
                ]
            }
        ],
        "thread_ts": "1587404732.368100",
        "parent_user_id": "UV87UQ37A"
    },
    {
        "client_msg_id": "8484e2ac-f74c-42fa-8386-105f8b87e52a",
        "type": "message",
        "text": "oh yeah <@UV87UQ37A> :heart: !!!\nThis sounds amazing ! I don't think any of us has the bandwidth to write such a paper ATM though :disappointed:\n\nBut I'd really love to *learn* from this ! it's been a big topic of discussion with my partner who's so much more klnowledgeable than me on this !",
        "user": "UVC9WMA7N",
        "ts": "1587406075.368600",
        "team": "TUU48M0T1",
        "user_team": "TUU48M0T1",
        "source_team": "TUU48M0T1",
        "user_profile": {
            "avatar_hash": "56d14d58ed53",
            "image_72": "https:\/\/avatars.slack-edge.com\/2020-03-13\/998337892660_56d14d58ed537e6e4654_72.png",
            "first_name": "Leo",
            "real_name": "Leo Blondel",
            "display_name": "Leo Blondel - JOGL CoFounder \/ CTO",
            "team": "TUU48M0T1",
            "name": "leo",
            "is_restricted": false,
            "is_ultra_restricted": false
        },
        "blocks": [
            {
                "type": "rich_text",
                "block_id": "TWG",
                "elements": [
                    {
                        "type": "rich_text_section",
                        "elements": [
                            {
                                "type": "text",
                                "text": "oh yeah "
                            },
                            {
                                "type": "user",
                                "user_id": "UV87UQ37A"
                            },
                            {
                                "type": "text",
                                "text": " "
                            },
                            {
                                "type": "emoji",
                                "name": "heart"
                            },
                            {
                                "type": "text",
                                "text": " !!!\nThis sounds amazing ! I don't think any of us has the bandwidth to write such a paper ATM though "
                            },
                            {
                                "type": "emoji",
                                "name": "disappointed"
                            },
                            {
                                "type": "text",
                                "text": "\n\nBut I'd really love to "
                            },
                            {
                                "type": "text",
                                "text": "learn",
                                "style": {
                                    "bold": true
                                }
                            },
                            {
                                "type": "text",
                                "text": " from this ! it's been a big topic of discussion with my partner who's so much more klnowledgeable than me on this !"
                            }
                        ]
                    }
                ]
            }
        ],
        "thread_ts": "1587404732.368100",
        "parent_user_id": "UV87UQ37A"
    },
    {
        "client_msg_id": "7c749fb2-b025-4956-a9ac-deb1d7f0b0eb",
        "type": "message",
        "text": "Are you a student or grad who has been stimulated into pursuing further studies by the experience of OpenCOVID19 initiatives? Check out the University of Illinois Urbana-Champaign *MS in Health Technology*! Accepting applications for Fall and *scholarships* are available. Open to all majors.\n\nFor more information or to sign up for an info session: <https:\/\/ahs.illinois.edu\/ht-overview>\n\nEmail <mailto:healthtech@illinois.edu|healthtech@illinois.edu> for more information!",
        "user": "U0104DUJQPP",
        "ts": "1587414878.370000",
        "team": "TUU48M0T1",
        "user_team": "TUU48M0T1",
        "source_team": "TUU48M0T1",
        "user_profile": {
            "avatar_hash": "g06bc9c0ea00",
            "image_72": "https:\/\/secure.gravatar.com\/avatar\/06bc9c0ea009323b5f0a44e42d5d27d3.jpg?s=72&d=https%3A%2F%2Fa.slack-edge.com%2Fdf10d%2Fimg%2Favatars%2Fava_0010-72.png",
            "first_name": "",
            "real_name": "Christopher Khoury",
            "display_name": "Christopher Khoury",
            "team": "TUU48M0T1",
            "name": "christopher.khoury",
            "is_restricted": false,
            "is_ultra_restricted": false
        },
        "blocks": [
            {
                "type": "rich_text",
                "block_id": "oVs",
                "elements": [
                    {
                        "type": "rich_text_section",
                        "elements": [
                            {
                                "type": "text",
                                "text": "Are you a student or grad who has been stimulated into pursuing further studies by the experience of OpenCOVID19 initiatives? Check out the University of Illinois Urbana-Champaign "
                            },
                            {
                                "type": "text",
                                "text": "MS in Health Technology",
                                "style": {
                                    "bold": true
                                }
                            },
                            {
                                "type": "text",
                                "text": "! Accepting applications for Fall and "
                            },
                            {
                                "type": "text",
                                "text": "scholarships",
                                "style": {
                                    "bold": true
                                }
                            },
                            {
                                "type": "text",
                                "text": " are available. Open to all majors.\n\nFor more information or to sign up for an info session: "
                            },
                            {
                                "type": "link",
                                "url": "https:\/\/ahs.illinois.edu\/ht-overview"
                            },
                            {
                                "type": "text",
                                "text": "\n\nEmail "
                            },
                            {
                                "type": "link",
                                "url": "mailto:healthtech@illinois.edu",
                                "text": "healthtech@illinois.edu"
                            },
                            {
                                "type": "text",
                                "text": " for more information!"
                            }
                        ]
                    }
                ]
            }
        ],
        "thread_ts": "1587414878.370000",
        "reply_count": 3,
        "reply_users_count": 2,
        "latest_reply": "1587430529.370600",
        "reply_users": [
            "U0101DKUALV",
            "U0104DUJQPP"
        ],
        "replies": [
            {
                "user": "U0101DKUALV",
                "ts": "1587415219.370100"
            },
            {
                "user": "U0104DUJQPP",
                "ts": "1587416880.370300"
            },
            {
                "user": "U0101DKUALV",
                "ts": "1587430529.370600"
            }
        ],
        "subscribed": false
    },
    {
        "client_msg_id": "194a77cc-d902-48a9-b3e7-3ce1a3ade37f",
        "type": "message",
        "text": "Hi Christopher! We would love to see this be sent out in the <#C011FGGNCP8|prgm-student-engagement> channel! It will also help us keep track of opportunities for students in one place -- Thank you so much for sharing!",
        "user": "U0101DKUALV",
        "ts": "1587415219.370100",
        "team": "TUU48M0T1",
        "user_team": "TUU48M0T1",
        "source_team": "TUU48M0T1",
        "user_profile": {
            "avatar_hash": "b0aee06ed3e5",
            "image_72": "https:\/\/avatars.slack-edge.com\/2020-04-22\/1072886325190_b0aee06ed3e501ebdf56_72.png",
            "first_name": "",
            "real_name": "Pauline Chane",
            "display_name": "Pauline Chane",
            "team": "TUU48M0T1",
            "name": "pauline.chane",
            "is_restricted": false,
            "is_ultra_restricted": false
        },
        "blocks": [
            {
                "type": "rich_text",
                "block_id": "ltO\/",
                "elements": [
                    {
                        "type": "rich_text_section",
                        "elements": [
                            {
                                "type": "text",
                                "text": "Hi Christopher! We would love to see this be sent out in the "
                            },
                            {
                                "type": "channel",
                                "channel_id": "C011FGGNCP8"
                            },
                            {
                                "type": "text",
                                "text": " channel! It will also help us keep track of opportunities for students in one place -- Thank you so much for sharing!"
                            }
                        ]
                    }
                ]
            }
        ],
        "thread_ts": "1587414878.370000",
        "parent_user_id": "U0104DUJQPP"
    },
    {
        "client_msg_id": "29893671-6535-4bd1-bd39-0fc6cddab148",
        "type": "message",
        "text": "Pauline, Thank you! I will add that channel and share it. Thanks for the tip.",
        "user": "U0104DUJQPP",
        "ts": "1587416880.370300",
        "team": "TUU48M0T1",
        "user_team": "TUU48M0T1",
        "source_team": "TUU48M0T1",
        "user_profile": {
            "avatar_hash": "g06bc9c0ea00",
            "image_72": "https:\/\/secure.gravatar.com\/avatar\/06bc9c0ea009323b5f0a44e42d5d27d3.jpg?s=72&d=https%3A%2F%2Fa.slack-edge.com%2Fdf10d%2Fimg%2Favatars%2Fava_0010-72.png",
            "first_name": "",
            "real_name": "Christopher Khoury",
            "display_name": "Christopher Khoury",
            "team": "TUU48M0T1",
            "name": "christopher.khoury",
            "is_restricted": false,
            "is_ultra_restricted": false
        },
        "blocks": [
            {
                "type": "rich_text",
                "block_id": "Ux\/9",
                "elements": [
                    {
                        "type": "rich_text_section",
                        "elements": [
                            {
                                "type": "text",
                                "text": "Pauline, Thank you! I will add that channel and share it. Thanks for the tip."
                            }
                        ]
                    }
                ]
            }
        ],
        "thread_ts": "1587414878.370000",
        "parent_user_id": "U0104DUJQPP"
    },
    {
        "client_msg_id": "7e6375a5-cde4-4cae-b7b5-51149eaa498f",
        "type": "message",
        "text": "No problem! I believe a few students in upper secondary have posted in there too if you would like to reach out to them!",
        "user": "U0101DKUALV",
        "ts": "1587430529.370600",
        "team": "TUU48M0T1",
        "user_team": "TUU48M0T1",
        "source_team": "TUU48M0T1",
        "user_profile": {
            "avatar_hash": "b0aee06ed3e5",
            "image_72": "https:\/\/avatars.slack-edge.com\/2020-04-22\/1072886325190_b0aee06ed3e501ebdf56_72.png",
            "first_name": "",
            "real_name": "Pauline Chane",
            "display_name": "Pauline Chane",
            "team": "TUU48M0T1",
            "name": "pauline.chane",
            "is_restricted": false,
            "is_ultra_restricted": false
        },
        "edited": {
            "user": "U0101DKUALV",
            "ts": "1587430538.000000"
        },
        "blocks": [
            {
                "type": "rich_text",
                "block_id": "Llvh",
                "elements": [
                    {
                        "type": "rich_text_section",
                        "elements": [
                            {
                                "type": "text",
                                "text": "No problem! I believe a few students in upper secondary have posted in there too if you would like to reach out to them!"
                            }
                        ]
                    }
                ]
            }
        ],
        "thread_ts": "1587414878.370000",
        "parent_user_id": "U0104DUJQPP"
    },
    {
        "client_msg_id": "d29897af-cfc3-4209-8dfc-f347caf1fc71",
        "type": "message",
        "text": "<https:\/\/nsfcivicinnovation.org\/>",
        "user": "UV87UQ37A",
        "ts": "1587436077.371000",
        "team": "TUU48M0T1",
        "user_team": "TUU48M0T1",
        "source_team": "TUU48M0T1",
        "user_profile": {
            "avatar_hash": "g7c78d2f0258",
            "image_72": "https:\/\/secure.gravatar.com\/avatar\/7c78d2f0258f7bdf78a86301cfd6b712.jpg?s=72&d=https%3A%2F%2Fa.slack-edge.com%2Fdf10d%2Fimg%2Favatars%2Fava_0014-72.png",
            "first_name": "Victoria",
            "real_name": "Victoria Costa",
            "display_name": "Victoria Costa",
            "team": "TUU48M0T1",
            "name": "victorycoast",
            "is_restricted": false,
            "is_ultra_restricted": false
        },
        "attachments": [
            {
                "title": "Civic Innovation Challenge",
                "title_link": "https:\/\/nsfcivicinnovation.org\/",
                "text": "Powering Smart and Connected Communities",
                "fallback": "Civic Innovation Challenge",
                "image_url": "https:\/\/i1.wp.com\/nsfcivicinnovation.org\/wp-content\/uploads\/2019\/09\/Civic-Innovation-Logo-newgray-trans-cropped-1024x469.png?fit=1024%2C469&ssl=1",
                "image_width": 546,
                "image_height": 250,
                "from_url": "https:\/\/nsfcivicinnovation.org\/",
                "image_bytes": 27896,
                "service_icon": "https:\/\/nsfcivicinnovation.org\/wp-content\/uploads\/2018\/10\/Website-Logo.png",
                "service_name": "nsfcivicinnovation.org",
                "id": 1,
                "original_url": "https:\/\/nsfcivicinnovation.org\/"
            }
        ],
        "blocks": [
            {
                "type": "rich_text",
                "block_id": "Sio5",
                "elements": [
                    {
                        "type": "rich_text_section",
                        "elements": [
                            {
                                "type": "link",
                                "url": "https:\/\/nsfcivicinnovation.org\/"
                            }
                        ]
                    }
                ]
            }
        ]
    }
]