[
    {
        "client_msg_id": "A4851A13-ABEF-4CC7-8371-ED4661D1A145",
        "type": "message",
        "text": "<https:\/\/www.cidrap.umn.edu\/sites\/default\/files\/public\/downloads\/cidrap-covid19-viewpoint-part1.pdf|https:\/\/www.cidrap.umn.edu\/sites\/default\/files\/public\/downloads\/cidrap-covid19-viewpoint-part1.pdf>",
        "user": "UV1A22N3W",
        "ts": "1588443390.403800",
        "team": "TUU48M0T1",
        "user_team": "TUU48M0T1",
        "source_team": "TUU48M0T1",
        "user_profile": {
            "avatar_hash": "71f827776ad6",
            "image_72": "https:\/\/avatars.slack-edge.com\/2020-03-09\/988125642964_71f827776ad610af05a2_72.jpg",
            "first_name": "",
            "real_name": "RachelA",
            "display_name": "RachelA",
            "team": "TUU48M0T1",
            "name": "raronoff",
            "is_restricted": false,
            "is_ultra_restricted": false
        },
        "blocks": [
            {
                "type": "rich_text",
                "block_id": "pyPs+",
                "elements": [
                    {
                        "type": "rich_text_section",
                        "elements": [
                            {
                                "type": "link",
                                "url": "https:\/\/www.cidrap.umn.edu\/sites\/default\/files\/public\/downloads\/cidrap-covid19-viewpoint-part1.pdf",
                                "text": "https:\/\/www.cidrap.umn.edu\/sites\/default\/files\/public\/downloads\/cidrap-covid19-viewpoint-part1.pdf"
                            }
                        ]
                    }
                ]
            }
        ]
    }
]