[
    {
        "client_msg_id": "4fa497bd-8e5a-4e8b-9313-0503dc0d3abf",
        "type": "message",
        "text": "Second Vaccine Candidate. Imperial College UK.\n\n<https:\/\/www.dailymail.co.uk\/news\/article-8241929\/Oxford-University-coronavirus-vaccine-trials-start-week.html|https:\/\/www.dailymail.co.uk\/news\/article-8241929\/Oxford-University-coronavirus-vaccine-trials-start-week.html>\n\n<http:\/\/www.covid19vaccinetrial.co.uk\/volunteer|http:\/\/www.covid19vaccinetrial.co.uk\/volunteer>",
        "user": "U010BA2NL9E",
        "ts": "1587540147.374300",
        "team": "TUU48M0T1",
        "user_team": "TUU48M0T1",
        "source_team": "TUU48M0T1",
        "user_profile": {
            "avatar_hash": "g3fa100f8f14",
            "image_72": "https:\/\/secure.gravatar.com\/avatar\/3fa100f8f14fc86a0f2f58648b36d29e.jpg?s=72&d=https%3A%2F%2Fa.slack-edge.com%2Fdf10d%2Fimg%2Favatars%2Fava_0008-72.png",
            "first_name": "",
            "real_name": "Eduardo Garcia",
            "display_name": "Eduardo Garcia",
            "team": "TUU48M0T1",
            "name": "eduardo.garcia",
            "is_restricted": false,
            "is_ultra_restricted": false
        },
        "attachments": [
            {
                "service_name": "Mail Online",
                "title": "Oxford University coronavirus vaccine trials will start this week",
                "title_link": "https:\/\/www.dailymail.co.uk\/news\/article-8241929\/Oxford-University-coronavirus-vaccine-trials-start-week.html",
                "text": "Matt Hancock today said he would give £20million in funding to the scientists developing the vaccine and was pushing forward the attempt to become the first country in the world to create a vaccine.",
                "fallback": "Mail Online: Oxford University coronavirus vaccine trials will start this week",
                "image_url": "https:\/\/i.dailymail.co.uk\/1s\/2020\/04\/22\/01\/27485888-0-image-a-8_1587514466968.jpg",
                "image_width": 416,
                "image_height": 250,
                "ts": 1587486247,
                "from_url": "https:\/\/www.dailymail.co.uk\/news\/article-8241929\/Oxford-University-coronavirus-vaccine-trials-start-week.html",
                "image_bytes": 65794,
                "service_icon": "https:\/\/www.dailymail.co.uk\/favicon.ico",
                "id": 1,
                "original_url": "https:\/\/www.dailymail.co.uk\/news\/article-8241929\/Oxford-University-coronavirus-vaccine-trials-start-week.html"
            }
        ],
        "blocks": [
            {
                "type": "rich_text",
                "block_id": "7eZ+",
                "elements": [
                    {
                        "type": "rich_text_section",
                        "elements": [
                            {
                                "type": "text",
                                "text": "Second Vaccine Candidate. Imperial College UK.\n\n"
                            },
                            {
                                "type": "link",
                                "url": "https:\/\/www.dailymail.co.uk\/news\/article-8241929\/Oxford-University-coronavirus-vaccine-trials-start-week.html",
                                "text": "https:\/\/www.dailymail.co.uk\/news\/article-8241929\/Oxford-University-coronavirus-vaccine-trials-start-week.html"
                            },
                            {
                                "type": "text",
                                "text": "\n\n"
                            },
                            {
                                "type": "link",
                                "url": "http:\/\/www.covid19vaccinetrial.co.uk\/volunteer",
                                "text": "http:\/\/www.covid19vaccinetrial.co.uk\/volunteer"
                            }
                        ]
                    }
                ]
            }
        ]
    },
    {
        "client_msg_id": "a91808bd-64b6-4ed9-868e-c1cecd41a5e3",
        "type": "message",
        "text": "Vaccine Clinical Trials. Germany \n\n<https:\/\/www.welt.de\/vermischtes\/article207424559\/Erste-klinische-Studie-zu-Corona-Impfstoff-in-Deutschland-zugelassen.html|https:\/\/www.welt.de\/vermischtes\/article207424559\/Erste-klinische-Studie-zu-Corona-Impfstoff-in-Deutschland-zugelassen.html>",
        "user": "U010BA2NL9E",
        "ts": "1587550948.374700",
        "team": "TUU48M0T1",
        "user_team": "TUU48M0T1",
        "source_team": "TUU48M0T1",
        "user_profile": {
            "avatar_hash": "g3fa100f8f14",
            "image_72": "https:\/\/secure.gravatar.com\/avatar\/3fa100f8f14fc86a0f2f58648b36d29e.jpg?s=72&d=https%3A%2F%2Fa.slack-edge.com%2Fdf10d%2Fimg%2Favatars%2Fava_0008-72.png",
            "first_name": "",
            "real_name": "Eduardo Garcia",
            "display_name": "Eduardo Garcia",
            "team": "TUU48M0T1",
            "name": "eduardo.garcia",
            "is_restricted": false,
            "is_ultra_restricted": false
        },
        "attachments": [
            {
                "service_name": "DIE WELT",
                "title": "Corona-Impfstoff: Deutsches Unternehmen darf Mittel an Freiwilligen testen - WELT",
                "title_link": "https:\/\/www.welt.de\/vermischtes\/article207424559\/Erste-klinische-Studie-zu-Corona-Impfstoff-in-Deutschland-zugelassen.html",
                "text": "Zum ersten Mal hat das Paul-Ehrlich-Institut in Deutschland die klinische Prüfung eines Corona-Impfstoffs genehmigt. Ein Mainzer Unternehmen darf sein Mittel an Freiwilligen testen. Auch zum Zeithorizont gibt es eine Einschätzung.",
                "fallback": "DIE WELT: Corona-Impfstoff: Deutsches Unternehmen darf Mittel an Freiwilligen testen - WELT",
                "image_url": "https:\/\/www.welt.de\/img\/regionales\/hamburg\/mobile207420865\/5821356537-ci16x9-w880\/urn-newsml-dpa-com-20090101-200422-99-788490-large-4-3-jpg.jpg",
                "from_url": "https:\/\/www.welt.de\/vermischtes\/article207424559\/Erste-klinische-Studie-zu-Corona-Impfstoff-in-Deutschland-zugelassen.html",
                "image_width": 444,
                "image_height": 250,
                "image_bytes": 51518,
                "service_icon": "https:\/\/www.welt.de\/favicon-76.png",
                "id": 1,
                "original_url": "https:\/\/www.welt.de\/vermischtes\/article207424559\/Erste-klinische-Studie-zu-Corona-Impfstoff-in-Deutschland-zugelassen.html"
            }
        ],
        "blocks": [
            {
                "type": "rich_text",
                "block_id": "Jwe+t",
                "elements": [
                    {
                        "type": "rich_text_section",
                        "elements": [
                            {
                                "type": "text",
                                "text": "Vaccine Clinical Trials. Germany \n\n"
                            },
                            {
                                "type": "link",
                                "url": "https:\/\/www.welt.de\/vermischtes\/article207424559\/Erste-klinische-Studie-zu-Corona-Impfstoff-in-Deutschland-zugelassen.html",
                                "text": "https:\/\/www.welt.de\/vermischtes\/article207424559\/Erste-klinische-Studie-zu-Corona-Impfstoff-in-Deutschland-zugelassen.html"
                            }
                        ]
                    }
                ]
            }
        ],
        "thread_ts": "1587550948.374700",
        "reply_count": 2,
        "reply_users_count": 1,
        "latest_reply": "1587588137.376400",
        "reply_users": [
            "U010BA2NL9E"
        ],
        "replies": [
            {
                "user": "U010BA2NL9E",
                "ts": "1587551392.374900"
            },
            {
                "user": "U010BA2NL9E",
                "ts": "1587588137.376400"
            }
        ],
        "subscribed": false
    },
    {
        "client_msg_id": "f29f730f-6f02-494a-87df-60cdb7fd76b2",
        "type": "message",
        "text": "<https:\/\/www.spiegel.de\/wissenschaft\/medizin\/coronavirus-deutschland-startet-erste-klinische-pruefung-von-impfstoff-a-846d10ff-9d87-4404-94ee-397dffc15bfd|https:\/\/www.spiegel.de\/wissenschaft\/medizin\/coronavirus-deutschland-startet-erste-klinische-pruefung-von-impfstoff-a-846d10ff-9d87-4404-94ee-397dffc15bfd>",
        "user": "U010BA2NL9E",
        "ts": "1587551392.374900",
        "team": "TUU48M0T1",
        "user_team": "TUU48M0T1",
        "source_team": "TUU48M0T1",
        "user_profile": {
            "avatar_hash": "g3fa100f8f14",
            "image_72": "https:\/\/secure.gravatar.com\/avatar\/3fa100f8f14fc86a0f2f58648b36d29e.jpg?s=72&d=https%3A%2F%2Fa.slack-edge.com%2Fdf10d%2Fimg%2Favatars%2Fava_0008-72.png",
            "first_name": "",
            "real_name": "Eduardo Garcia",
            "display_name": "Eduardo Garcia",
            "team": "TUU48M0T1",
            "name": "eduardo.garcia",
            "is_restricted": false,
            "is_ultra_restricted": false
        },
        "attachments": [
            {
                "title": "Coronavirus: Deutschland startet erste klinische Prüfung von Impfstoff - DER SPIEGEL - Wissenschaft",
                "title_link": "https:\/\/www.spiegel.de\/wissenschaft\/medizin\/coronavirus-deutschland-startet-erste-klinische-pruefung-von-impfstoff-a-846d10ff-9d87-4404-94ee-397dffc15bfd",
                "text": "Das Paul-Ehrlich-Institut hat erstmals in Deutschland eine Zulassung für die klinische Prüfung von Impfstoffkandidaten gegen Corona erteilt. Diese sollen zunächst an gesunden Freiwilligen getestet werden.",
                "fallback": "Coronavirus: Deutschland startet erste klinische Prüfung von Impfstoff - DER SPIEGEL - Wissenschaft",
                "image_url": "https:\/\/cdn.prod.www.spiegel.de\/images\/e6aaea86-ff72-45a5-8a21-94a88ecd7dfb_w1280_r1.77_fpx52_fpy79.jpg",
                "from_url": "https:\/\/www.spiegel.de\/wissenschaft\/medizin\/coronavirus-deutschland-startet-erste-klinische-pruefung-von-impfstoff-a-846d10ff-9d87-4404-94ee-397dffc15bfd",
                "image_width": 443,
                "image_height": 250,
                "image_bytes": 124993,
                "service_icon": "https:\/\/cdn.prod.www.spiegel.de\/public\/spon\/images\/icons\/touch-icon.png",
                "service_name": "spiegel.de",
                "id": 1,
                "original_url": "https:\/\/www.spiegel.de\/wissenschaft\/medizin\/coronavirus-deutschland-startet-erste-klinische-pruefung-von-impfstoff-a-846d10ff-9d87-4404-94ee-397dffc15bfd"
            }
        ],
        "blocks": [
            {
                "type": "rich_text",
                "block_id": "VuLo",
                "elements": [
                    {
                        "type": "rich_text_section",
                        "elements": [
                            {
                                "type": "link",
                                "url": "https:\/\/www.spiegel.de\/wissenschaft\/medizin\/coronavirus-deutschland-startet-erste-klinische-pruefung-von-impfstoff-a-846d10ff-9d87-4404-94ee-397dffc15bfd",
                                "text": "https:\/\/www.spiegel.de\/wissenschaft\/medizin\/coronavirus-deutschland-startet-erste-klinische-pruefung-von-impfstoff-a-846d10ff-9d87-4404-94ee-397dffc15bfd"
                            }
                        ]
                    }
                ]
            }
        ],
        "thread_ts": "1587550948.374700",
        "parent_user_id": "U010BA2NL9E"
    },
    {
        "client_msg_id": "5edd2e5c-c908-4c5d-8942-066db9630099",
        "type": "message",
        "text": "COVID-19: also a systemic endotheliitis\n\nApril 20, 2020\nCOVID-19 was considered to be a lung disease. Up until now, it has been unclear as to why patients are sustaining life-threatening organ failure in organs other than the lungs. An interdisciplinary team from University Hospital Zurich has now shown that SARS-CoV-2 directly elicits inflammation in blood vessels and that this can lead to organ failure and even death\n\n<http:\/\/www.en.usz.ch\/media\/press-releases\/pages\/covid-19-endotheliitis.aspx?DeviceChannel=Mobile|http:\/\/www.en.usz.ch\/media\/press-releases\/pages\/covid-19-endotheliitis.aspx?DeviceChannel=Mobile>",
        "user": "U010BA2NL9E",
        "ts": "1587552570.375500",
        "team": "TUU48M0T1",
        "user_team": "TUU48M0T1",
        "source_team": "TUU48M0T1",
        "user_profile": {
            "avatar_hash": "g3fa100f8f14",
            "image_72": "https:\/\/secure.gravatar.com\/avatar\/3fa100f8f14fc86a0f2f58648b36d29e.jpg?s=72&d=https%3A%2F%2Fa.slack-edge.com%2Fdf10d%2Fimg%2Favatars%2Fava_0008-72.png",
            "first_name": "",
            "real_name": "Eduardo Garcia",
            "display_name": "Eduardo Garcia",
            "team": "TUU48M0T1",
            "name": "eduardo.garcia",
            "is_restricted": false,
            "is_ultra_restricted": false
        },
        "attachments": [
            {
                "title": "Welcome to the University Hospital Zurich",
                "title_link": "http:\/\/www.en.usz.ch\/media\/press-releases\/pages\/covid-19-endotheliitis.aspx?DeviceChannel=Mobile",
                "text": "The University Hospital Zurich provides medical care with cutting-edge medical technology. Centrally located in Zurich, it utilizes highly specialized and up-to-date research methods – all with a personal touch.",
                "fallback": "Welcome to the University Hospital Zurich",
                "from_url": "http:\/\/www.en.usz.ch\/media\/press-releases\/pages\/covid-19-endotheliitis.aspx?DeviceChannel=Mobile",
                "service_icon": "http:\/\/www.en.usz.ch\/_catalogs\/masterpage\/USZ\/img\/favicon.ico",
                "service_name": "en.usz.ch",
                "id": 1,
                "original_url": "http:\/\/www.en.usz.ch\/media\/press-releases\/pages\/covid-19-endotheliitis.aspx?DeviceChannel=Mobile"
            }
        ],
        "blocks": [
            {
                "type": "rich_text",
                "block_id": "5rT",
                "elements": [
                    {
                        "type": "rich_text_section",
                        "elements": [
                            {
                                "type": "text",
                                "text": "COVID-19: also a systemic endotheliitis\n\nApril 20, 2020\nCOVID-19 was considered to be a lung disease. Up until now, it has been unclear as to why patients are sustaining life-threatening organ failure in organs other than the lungs. An interdisciplinary team from University Hospital Zurich has now shown that SARS-CoV-2 directly elicits inflammation in blood vessels and that this can lead to organ failure and even death\n\n"
                            },
                            {
                                "type": "link",
                                "url": "http:\/\/www.en.usz.ch\/media\/press-releases\/pages\/covid-19-endotheliitis.aspx?DeviceChannel=Mobile",
                                "text": "http:\/\/www.en.usz.ch\/media\/press-releases\/pages\/covid-19-endotheliitis.aspx?DeviceChannel=Mobile"
                            }
                        ]
                    }
                ]
            }
        ]
    },
    {
        "client_msg_id": "f1d96be9-da01-4bef-899d-6e5b93643250",
        "type": "message",
        "text": "<https:\/\/www.welt.de\/wirtschaft\/article207438193\/BioNTech-Erfolg-BNT-162-ist-Deutschlands-Hoffnung-im-globalen-Impfstoff-Rennen.html|https:\/\/www.welt.de\/wirtschaft\/article207438193\/BioNTech-Erfolg-BNT-162-ist-Deutschlands-Hoffnung-im-globalen-Impfstoff-Rennen.html>",
        "user": "U010BA2NL9E",
        "ts": "1587588137.376400",
        "team": "TUU48M0T1",
        "user_team": "TUU48M0T1",
        "source_team": "TUU48M0T1",
        "user_profile": {
            "avatar_hash": "g3fa100f8f14",
            "image_72": "https:\/\/secure.gravatar.com\/avatar\/3fa100f8f14fc86a0f2f58648b36d29e.jpg?s=72&d=https%3A%2F%2Fa.slack-edge.com%2Fdf10d%2Fimg%2Favatars%2Fava_0008-72.png",
            "first_name": "",
            "real_name": "Eduardo Garcia",
            "display_name": "Eduardo Garcia",
            "team": "TUU48M0T1",
            "name": "eduardo.garcia",
            "is_restricted": false,
            "is_ultra_restricted": false
        },
        "attachments": [
            {
                "service_name": "DIE WELT",
                "title": "BioNTech-Erfolg: BNT 162 ist Deutschlands Hoffnung im globalen Impfstoff-Rennen - WELT",
                "title_link": "https:\/\/www.welt.de\/wirtschaft\/article207438193\/BioNTech-Erfolg-BNT-162-ist-Deutschlands-Hoffnung-im-globalen-Impfstoff-Rennen.html",
                "text": "Im Wettrennen um einen Impfstoff gegen Covid-19 ist eine kleine Firma aus Mainz ganz vorne dabei. BioNTech hat von den Aufsehern grünes Licht für Tests am Menschen erhalten. Um Zeit zu sparen werden nun zwei Testphasen zusammengelegt.",
                "fallback": "DIE WELT: BioNTech-Erfolg: BNT 162 ist Deutschlands Hoffnung im globalen Impfstoff-Rennen - WELT",
                "image_url": "https:\/\/www.welt.de\/img\/wirtschaft\/mobile207441287\/0841352697-ci16x9-w880\/HEALTH-CORONAVIRUS-VACCINE-BIONTECH.jpg",
                "from_url": "https:\/\/www.welt.de\/wirtschaft\/article207438193\/BioNTech-Erfolg-BNT-162-ist-Deutschlands-Hoffnung-im-globalen-Impfstoff-Rennen.html",
                "image_width": 444,
                "image_height": 250,
                "image_bytes": 65977,
                "service_icon": "https:\/\/www.welt.de\/favicon-76.png",
                "id": 1,
                "original_url": "https:\/\/www.welt.de\/wirtschaft\/article207438193\/BioNTech-Erfolg-BNT-162-ist-Deutschlands-Hoffnung-im-globalen-Impfstoff-Rennen.html"
            }
        ],
        "blocks": [
            {
                "type": "rich_text",
                "block_id": "PvcB",
                "elements": [
                    {
                        "type": "rich_text_section",
                        "elements": [
                            {
                                "type": "link",
                                "url": "https:\/\/www.welt.de\/wirtschaft\/article207438193\/BioNTech-Erfolg-BNT-162-ist-Deutschlands-Hoffnung-im-globalen-Impfstoff-Rennen.html",
                                "text": "https:\/\/www.welt.de\/wirtschaft\/article207438193\/BioNTech-Erfolg-BNT-162-ist-Deutschlands-Hoffnung-im-globalen-Impfstoff-Rennen.html"
                            }
                        ]
                    }
                ]
            }
        ],
        "thread_ts": "1587550948.374700",
        "parent_user_id": "U010BA2NL9E"
    }
]