[
    {
        "client_msg_id": "8ed04e07-36e2-459a-bc33-ed78545c460d",
        "type": "message",
        "text": "No app for JOGL now, but it's planned!",
        "user": "UUWPKNE2E",
        "ts": "1584602706.372100",
        "team": "TUU48M0T1",
        "user_team": "TUU48M0T1",
        "source_team": "TUU48M0T1",
        "user_profile": {
            "avatar_hash": "f620efd9688e",
            "image_72": "https:\/\/avatars.slack-edge.com\/2020-03-12\/997456647751_f620efd9688ed753ecfc_72.jpg",
            "first_name": "Luca",
            "real_name": "Luca Haenel",
            "display_name": "Luca Haenel - JOGL Developer",
            "team": "TUU48M0T1",
            "name": "luca.haenel",
            "is_restricted": false,
            "is_ultra_restricted": false
        },
        "blocks": [
            {
                "type": "rich_text",
                "block_id": "M4U",
                "elements": [
                    {
                        "type": "rich_text_section",
                        "elements": [
                            {
                                "type": "text",
                                "text": "No app for JOGL now, but it's planned!"
                            }
                        ]
                    }
                ]
            }
        ],
        "thread_ts": "1584577089.368900",
        "parent_user_id": "UVC7J1K7Y",
        "reactions": [
            {
                "name": "sparkling_heart",
                "users": [
                    "UVC7J1K7Y"
                ],
                "count": 1
            }
        ]
    },
    {
        "client_msg_id": "da8391e7-3148-4b42-bb29-0674227fb9e9",
        "type": "message",
        "text": "nice video about the subject: <https:\/\/youtu.be\/vZ7tRzECTbk>",
        "user": "UUWPKNE2E",
        "ts": "1584614381.374500",
        "team": "TUU48M0T1",
        "user_team": "TUU48M0T1",
        "source_team": "TUU48M0T1",
        "user_profile": {
            "avatar_hash": "f620efd9688e",
            "image_72": "https:\/\/avatars.slack-edge.com\/2020-03-12\/997456647751_f620efd9688ed753ecfc_72.jpg",
            "first_name": "Luca",
            "real_name": "Luca Haenel",
            "display_name": "Luca Haenel - JOGL Developer",
            "team": "TUU48M0T1",
            "name": "luca.haenel",
            "is_restricted": false,
            "is_ultra_restricted": false
        },
        "attachments": [
            {
                "service_name": "YouTube",
                "service_url": "https:\/\/www.youtube.com\/",
                "title": "CORONAVIRUS: CONFINEMENT IS SOLIDARITY",
                "title_link": "https:\/\/youtu.be\/vZ7tRzECTbk",
                "author_name": "Data Gueule",
                "author_link": "https:\/\/www.youtube.com\/user\/datagueule",
                "thumb_url": "https:\/\/i.ytimg.com\/vi\/vZ7tRzECTbk\/hqdefault.jpg",
                "thumb_width": 480,
                "thumb_height": 360,
                "fallback": "YouTube Video: CORONAVIRUS: CONFINEMENT IS SOLIDARITY",
                "video_html": "<iframe width=\"400\" height=\"225\" src=\"https:\/\/www.youtube.com\/embed\/vZ7tRzECTbk?feature=oembed&autoplay=1&iv_load_policy=3\" frameborder=\"0\" allow=\"accelerometer; autoplay; encrypted-media; gyroscope; picture-in-picture\" allowfullscreen><\/iframe>",
                "video_html_width": 400,
                "video_html_height": 225,
                "from_url": "https:\/\/youtu.be\/vZ7tRzECTbk",
                "service_icon": "https:\/\/a.slack-edge.com\/80588\/img\/unfurl_icons\/youtube.png",
                "id": 1,
                "original_url": "https:\/\/youtu.be\/vZ7tRzECTbk"
            }
        ],
        "blocks": [
            {
                "type": "rich_text",
                "block_id": "Si9M+",
                "elements": [
                    {
                        "type": "rich_text_section",
                        "elements": [
                            {
                                "type": "text",
                                "text": "nice video about the subject: "
                            },
                            {
                                "type": "link",
                                "url": "https:\/\/youtu.be\/vZ7tRzECTbk"
                            }
                        ]
                    }
                ]
            }
        ],
        "reactions": [
            {
                "name": "+1",
                "users": [
                    "UVCDJN550",
                    "U010BM4M81M",
                    "UVC7J1K7Y"
                ],
                "count": 3
            },
            {
                "name": "sparkles",
                "users": [
                    "UVC7J1K7Y"
                ],
                "count": 1
            }
        ]
    },
    {
        "client_msg_id": "81e58c2e-2648-4da3-95b6-374f4832bbae",
        "type": "message",
        "text": "Many brazilian regions are taking the first preventions steps, we're having difficulties here to follow official numbers due to the lack of tests. Private services don't release reliable numbers, so we're not sure how this is evolving right now. Most affected places I know so far are São Paulo and Rio, where we have greater populations. Not reached peak yet.",
        "user": "UV8AZ6ABC",
        "ts": "1584623083.376800",
        "team": "TUU48M0T1",
        "user_team": "TUU48M0T1",
        "source_team": "TUU48M0T1",
        "user_profile": {
            "avatar_hash": "b4d8c336125b",
            "image_72": "https:\/\/avatars.slack-edge.com\/2020-03-17\/1006719750788_b4d8c336125bdcf987eb_72.jpg",
            "first_name": "Juliana",
            "real_name": "Juliana Cavalheiro",
            "display_name": "Juliana Cavalheiro",
            "team": "TUU48M0T1",
            "name": "ju.cavalheiro",
            "is_restricted": false,
            "is_ultra_restricted": false
        },
        "edited": {
            "user": "UV8AZ6ABC",
            "ts": "1584623103.000000"
        },
        "blocks": [
            {
                "type": "rich_text",
                "block_id": "Ysv",
                "elements": [
                    {
                        "type": "rich_text_section",
                        "elements": [
                            {
                                "type": "text",
                                "text": "Many brazilian regions are taking the first preventions steps, we're having difficulties here to follow official numbers due to the lack of tests. Private services don't release reliable numbers, so we're not sure how this is evolving right now. Most affected places I know so far are São Paulo and Rio, where we have greater populations. Not reached peak yet."
                            }
                        ]
                    }
                ]
            }
        ],
        "thread_ts": "1584563914.356600",
        "parent_user_id": "UV2P3AQEN"
    },
    {
        "client_msg_id": "23a5fa79-30bf-4d77-9b73-f21d550e8f48",
        "type": "message",
        "text": "I'm reaching out to some female led organizations I work with for their codes of conduct when dealing with agressive\/abusive male members of their communities. I'll share whatever I get. This is really a ridiculous situation, but it's also sadly common.",
        "user": "UVBDBRJ8Z",
        "ts": "1584629961.379900",
        "team": "TUU48M0T1",
        "user_team": "TUU48M0T1",
        "source_team": "TUU48M0T1",
        "user_profile": {
            "avatar_hash": "7e0cba1ff84e",
            "image_72": "https:\/\/avatars.slack-edge.com\/2020-03-17\/1007551076309_7e0cba1ff84e78f65fc3_72.jpg",
            "first_name": "",
            "real_name": "Andy Scarpelli (ChiTownBio)",
            "display_name": "Andy Scarpelli (ChiTownBio)",
            "team": "TUU48M0T1",
            "name": "ahscarpelli",
            "is_restricted": false,
            "is_ultra_restricted": false
        },
        "blocks": [
            {
                "type": "rich_text",
                "block_id": "+4t",
                "elements": [
                    {
                        "type": "rich_text_section",
                        "elements": [
                            {
                                "type": "text",
                                "text": "I'm reaching out to some female led organizations I work with for their codes of conduct when dealing with agressive\/abusive male members of their communities. I'll share whatever I get. This is really a ridiculous situation, but it's also sadly common."
                            }
                        ]
                    }
                ]
            }
        ],
        "thread_ts": "1584553452.333700",
        "parent_user_id": "U01016B7KPY"
    },
    {
        "client_msg_id": "df440a41-a32e-43cd-a68b-1b4d00dd0fcf",
        "type": "message",
        "text": "Thank You Mr. Haenel!",
        "user": "UVC7J1K7Y",
        "ts": "1584630766.380400",
        "team": "TUU48M0T1",
        "user_team": "TUU48M0T1",
        "source_team": "TUU48M0T1",
        "user_profile": {
            "avatar_hash": "25366518f42c",
            "image_72": "https:\/\/avatars.slack-edge.com\/2020-03-12\/995707246548_25366518f42c2b4ddd3c_72.jpg",
            "first_name": "JaswinderBrar",
            "real_name": "JaswinderBrar",
            "display_name": "JaswinderBrar",
            "team": "TUU48M0T1",
            "name": "jaswindersbrar123",
            "is_restricted": false,
            "is_ultra_restricted": false
        },
        "blocks": [
            {
                "type": "rich_text",
                "block_id": "73U",
                "elements": [
                    {
                        "type": "rich_text_section",
                        "elements": [
                            {
                                "type": "text",
                                "text": "Thank You Mr. Haenel!"
                            }
                        ]
                    }
                ]
            }
        ],
        "thread_ts": "1584577089.368900",
        "parent_user_id": "UVC7J1K7Y"
    },
    {
        "client_msg_id": "eb82cc77-318b-4e50-9bd4-df3edc17f716",
        "type": "message",
        "text": "<https:\/\/twitter.com\/jay_bee12345\/status\/1240655862185603072?s=20>",
        "user": "UVC7J1K7Y",
        "ts": "1584630779.380800",
        "team": "TUU48M0T1",
        "user_team": "TUU48M0T1",
        "source_team": "TUU48M0T1",
        "user_profile": {
            "avatar_hash": "25366518f42c",
            "image_72": "https:\/\/avatars.slack-edge.com\/2020-03-12\/995707246548_25366518f42c2b4ddd3c_72.jpg",
            "first_name": "JaswinderBrar",
            "real_name": "JaswinderBrar",
            "display_name": "JaswinderBrar",
            "team": "TUU48M0T1",
            "name": "jaswindersbrar123",
            "is_restricted": false,
            "is_ultra_restricted": false
        },
        "blocks": [
            {
                "type": "rich_text",
                "block_id": "Y1V",
                "elements": [
                    {
                        "type": "rich_text_section",
                        "elements": [
                            {
                                "type": "link",
                                "url": "https:\/\/twitter.com\/jay_bee12345\/status\/1240655862185603072?s=20"
                            }
                        ]
                    }
                ]
            }
        ]
    },
    {
        "client_msg_id": "06e8ce55-33bc-4cee-a0f0-70c00180f8e8",
        "type": "message",
        "text": "Idea:\n\nN95 Masks Subscription Business Model mobile app.\n\nSee:\n\n<https:\/\/t.co\/JgeuSb9Cg5?amp=1|https:\/\/><http:\/\/businessmodelnavigator.com\/case-firm?id=31|businessmodelnavigator.com\/case-firm?id=31>",
        "user": "UVC7J1K7Y",
        "ts": "1584630821.381200",
        "team": "TUU48M0T1",
        "user_team": "TUU48M0T1",
        "source_team": "TUU48M0T1",
        "user_profile": {
            "avatar_hash": "25366518f42c",
            "image_72": "https:\/\/avatars.slack-edge.com\/2020-03-12\/995707246548_25366518f42c2b4ddd3c_72.jpg",
            "first_name": "JaswinderBrar",
            "real_name": "JaswinderBrar",
            "display_name": "JaswinderBrar",
            "team": "TUU48M0T1",
            "name": "jaswindersbrar123",
            "is_restricted": false,
            "is_ultra_restricted": false
        },
        "attachments": [
            {
                "title": "Dollar Shave Club Business Model | Business Model Navigator",
                "title_link": "https:\/\/businessmodelnavigator.com\/case-firm?id=31",
                "text": "Business model analysis of Dollar Shave Club: Learn more about the business model of Dollar Shave Club, which business model patterns they use, and how they excel in their industry.",
                "fallback": "Dollar Shave Club Business Model | Business Model Navigator",
                "from_url": "https:\/\/businessmodelnavigator.com\/case-firm?id=31",
                "service_icon": "https:\/\/businessmodelnavigator.com\/favicon.ico",
                "service_name": "businessmodelnavigator.com",
                "id": 1,
                "original_url": "https:\/\/businessmodelnavigator.com\/case-firm?id=31"
            }
        ],
        "blocks": [
            {
                "type": "rich_text",
                "block_id": "KWc6",
                "elements": [
                    {
                        "type": "rich_text_section",
                        "elements": [
                            {
                                "type": "text",
                                "text": "Idea:\n\nN95 Masks Subscription Business Model mobile app.\n\nSee:\n\n"
                            },
                            {
                                "type": "link",
                                "url": "https:\/\/t.co\/JgeuSb9Cg5?amp=1",
                                "text": "https:\/\/"
                            },
                            {
                                "type": "link",
                                "url": "http:\/\/businessmodelnavigator.com\/case-firm?id=31",
                                "text": "businessmodelnavigator.com\/case-firm?id=31"
                            }
                        ]
                    }
                ]
            }
        ]
    },
    {
        "type": "message",
        "text": "",
        "files": [
            {
                "id": "F010C4AD4MB",
                "created": 1584630941,
                "timestamp": 1584630941,
                "name": "n95 cdc gif 1.gif",
                "title": "n95 cdc gif 1.gif",
                "mimetype": "image\/gif",
                "filetype": "gif",
                "pretty_type": "GIF",
                "user": "UVC7J1K7Y",
                "editable": false,
                "size": 130427,
                "mode": "hosted",
                "is_external": false,
                "external_type": "",
                "is_public": true,
                "public_url_shared": false,
                "display_as_bot": false,
                "username": "",
                "url_private": "https:\/\/files.slack.com\/files-pri\/TUU48M0T1-F010C4AD4MB\/n95_cdc_gif_1.gif?t=xoxe-980144714919-1133254701825-1120841107731-daf595b5a7d6c9028b0b02a925032e36",
                "url_private_download": "https:\/\/files.slack.com\/files-pri\/TUU48M0T1-F010C4AD4MB\/download\/n95_cdc_gif_1.gif?t=xoxe-980144714919-1133254701825-1120841107731-daf595b5a7d6c9028b0b02a925032e36",
                "thumb_64": "https:\/\/files.slack.com\/files-tmb\/TUU48M0T1-F010C4AD4MB-be61733891\/n95_cdc_gif_1_64.png?t=xoxe-980144714919-1133254701825-1120841107731-daf595b5a7d6c9028b0b02a925032e36",
                "thumb_80": "https:\/\/files.slack.com\/files-tmb\/TUU48M0T1-F010C4AD4MB-be61733891\/n95_cdc_gif_1_80.png?t=xoxe-980144714919-1133254701825-1120841107731-daf595b5a7d6c9028b0b02a925032e36",
                "thumb_360": "https:\/\/files.slack.com\/files-tmb\/TUU48M0T1-F010C4AD4MB-be61733891\/n95_cdc_gif_1_360.png?t=xoxe-980144714919-1133254701825-1120841107731-daf595b5a7d6c9028b0b02a925032e36",
                "thumb_360_w": 360,
                "thumb_360_h": 277,
                "thumb_480": "https:\/\/files.slack.com\/files-tmb\/TUU48M0T1-F010C4AD4MB-be61733891\/n95_cdc_gif_1_480.png?t=xoxe-980144714919-1133254701825-1120841107731-daf595b5a7d6c9028b0b02a925032e36",
                "thumb_480_w": 480,
                "thumb_480_h": 369,
                "thumb_160": "https:\/\/files.slack.com\/files-tmb\/TUU48M0T1-F010C4AD4MB-be61733891\/n95_cdc_gif_1_160.png?t=xoxe-980144714919-1133254701825-1120841107731-daf595b5a7d6c9028b0b02a925032e36",
                "thumb_360_gif": "https:\/\/files.slack.com\/files-tmb\/TUU48M0T1-F010C4AD4MB-be61733891\/n95_cdc_gif_1_360.gif?t=xoxe-980144714919-1133254701825-1120841107731-daf595b5a7d6c9028b0b02a925032e36",
                "thumb_480_gif": "https:\/\/files.slack.com\/files-tmb\/TUU48M0T1-F010C4AD4MB-be61733891\/n95_cdc_gif_1_480.gif?t=xoxe-980144714919-1133254701825-1120841107731-daf595b5a7d6c9028b0b02a925032e36",
                "image_exif_rotation": 1,
                "original_w": 650,
                "original_h": 500,
                "deanimate_gif": "https:\/\/files.slack.com\/files-tmb\/TUU48M0T1-F010C4AD4MB-be61733891\/n95_cdc_gif_1_deanimate_gif.png?t=xoxe-980144714919-1133254701825-1120841107731-daf595b5a7d6c9028b0b02a925032e36",
                "thumb_tiny": "AwAkADCU2jjumPUk0n2VvWP8zV8jNJtHv+dAFH7K3rH+Zpfsresf5mruB7\/nRge\/50AUfsresf5mlFm57pj1BNXdo\/yaUACgAopN6\/3h+dG9f7w\/OgBR0oPSmFl7MPzpQy92H50AOHSik3r\/AHh+dG9f7w\/OgDOKAmnAYGBRS07isFFFFIYUUUUAf\/\/Z",
                "permalink": "https:\/\/open-covid19.slack.com\/files\/UVC7J1K7Y\/F010C4AD4MB\/n95_cdc_gif_1.gif",
                "permalink_public": "https:\/\/slack-files.com\/TUU48M0T1-F010C4AD4MB-ca25752520",
                "is_starred": false,
                "has_rich_preview": false
            }
        ],
        "upload": true,
        "user": "UVC7J1K7Y",
        "display_as_bot": false,
        "ts": "1584631003.381400",
        "client_msg_id": "ecc89e03-ec9a-4a30-b2d8-8bdcd585caa9"
    },
    {
        "client_msg_id": "088bbecf-a4a1-4ad1-b86b-657b137d592a",
        "type": "message",
        "text": "-it could be a service provisioned through the jogl app-",
        "user": "UVC7J1K7Y",
        "ts": "1584631446.381900",
        "team": "TUU48M0T1",
        "user_team": "TUU48M0T1",
        "source_team": "TUU48M0T1",
        "user_profile": {
            "avatar_hash": "25366518f42c",
            "image_72": "https:\/\/avatars.slack-edge.com\/2020-03-12\/995707246548_25366518f42c2b4ddd3c_72.jpg",
            "first_name": "JaswinderBrar",
            "real_name": "JaswinderBrar",
            "display_name": "JaswinderBrar",
            "team": "TUU48M0T1",
            "name": "jaswindersbrar123",
            "is_restricted": false,
            "is_ultra_restricted": false
        },
        "blocks": [
            {
                "type": "rich_text",
                "block_id": "r31Ex",
                "elements": [
                    {
                        "type": "rich_text_section",
                        "elements": [
                            {
                                "type": "text",
                                "text": "-it could be a service provisioned through the jogl app-"
                            }
                        ]
                    }
                ]
            }
        ]
    },
    {
        "client_msg_id": "1c6bf6e4-8879-424d-b9b9-34321a735feb",
        "type": "message",
        "text": "-in-partnership with your network of healthcare professionals-",
        "user": "UVC7J1K7Y",
        "ts": "1584631463.382300",
        "team": "TUU48M0T1",
        "user_team": "TUU48M0T1",
        "source_team": "TUU48M0T1",
        "user_profile": {
            "avatar_hash": "25366518f42c",
            "image_72": "https:\/\/avatars.slack-edge.com\/2020-03-12\/995707246548_25366518f42c2b4ddd3c_72.jpg",
            "first_name": "JaswinderBrar",
            "real_name": "JaswinderBrar",
            "display_name": "JaswinderBrar",
            "team": "TUU48M0T1",
            "name": "jaswindersbrar123",
            "is_restricted": false,
            "is_ultra_restricted": false
        },
        "blocks": [
            {
                "type": "rich_text",
                "block_id": "wuT",
                "elements": [
                    {
                        "type": "rich_text_section",
                        "elements": [
                            {
                                "type": "text",
                                "text": "-in-partnership with your network of healthcare professionals-"
                            }
                        ]
                    }
                ]
            }
        ]
    },
    {
        "client_msg_id": "cbc5f79d-89fb-4fd0-afeb-655a34b62657",
        "type": "message",
        "text": "A great \"Safety-Innovation\"\nMobile App: \"Service\" for \"Healthcare-Professionals.\"\n\nThe Dollar Shave Club Business Model:\n\n#N95mask subscription mobile app!\n-Have n95 masks delivered to your residence monthly!\n-Enough for the whole family!\n-Create Bonus Supply for Emergencies!",
        "user": "UVC7J1K7Y",
        "ts": "1584631490.382500",
        "team": "TUU48M0T1",
        "user_team": "TUU48M0T1",
        "source_team": "TUU48M0T1",
        "user_profile": {
            "avatar_hash": "25366518f42c",
            "image_72": "https:\/\/avatars.slack-edge.com\/2020-03-12\/995707246548_25366518f42c2b4ddd3c_72.jpg",
            "first_name": "JaswinderBrar",
            "real_name": "JaswinderBrar",
            "display_name": "JaswinderBrar",
            "team": "TUU48M0T1",
            "name": "jaswindersbrar123",
            "is_restricted": false,
            "is_ultra_restricted": false
        },
        "blocks": [
            {
                "type": "rich_text",
                "block_id": "0kD",
                "elements": [
                    {
                        "type": "rich_text_section",
                        "elements": [
                            {
                                "type": "text",
                                "text": "A great \"Safety-Innovation\"\nMobile App: \"Service\" for \"Healthcare-Professionals.\"\n\nThe Dollar Shave Club Business Model:\n\n#N95mask subscription mobile app!\n-Have n95 masks delivered to your residence monthly!\n-Enough for the whole family!\n-Create Bonus Supply for Emergencies!"
                            }
                        ]
                    }
                ]
            }
        ]
    },
    {
        "client_msg_id": "715232c4-cb9e-4d57-a05a-60f10e4e301b",
        "type": "message",
        "text": "hope it helps!",
        "user": "UVC7J1K7Y",
        "ts": "1584631498.382700",
        "team": "TUU48M0T1",
        "user_team": "TUU48M0T1",
        "source_team": "TUU48M0T1",
        "user_profile": {
            "avatar_hash": "25366518f42c",
            "image_72": "https:\/\/avatars.slack-edge.com\/2020-03-12\/995707246548_25366518f42c2b4ddd3c_72.jpg",
            "first_name": "JaswinderBrar",
            "real_name": "JaswinderBrar",
            "display_name": "JaswinderBrar",
            "team": "TUU48M0T1",
            "name": "jaswindersbrar123",
            "is_restricted": false,
            "is_ultra_restricted": false
        },
        "blocks": [
            {
                "type": "rich_text",
                "block_id": "yMyx",
                "elements": [
                    {
                        "type": "rich_text_section",
                        "elements": [
                            {
                                "type": "text",
                                "text": "hope it helps!"
                            }
                        ]
                    }
                ]
            }
        ]
    },
    {
        "client_msg_id": "eb517ee3-7045-46d3-9af5-d7db5eb55b29",
        "type": "message",
        "text": "-free regards to use-",
        "user": "UVC7J1K7Y",
        "ts": "1584631505.383000",
        "team": "TUU48M0T1",
        "user_team": "TUU48M0T1",
        "source_team": "TUU48M0T1",
        "user_profile": {
            "avatar_hash": "25366518f42c",
            "image_72": "https:\/\/avatars.slack-edge.com\/2020-03-12\/995707246548_25366518f42c2b4ddd3c_72.jpg",
            "first_name": "JaswinderBrar",
            "real_name": "JaswinderBrar",
            "display_name": "JaswinderBrar",
            "team": "TUU48M0T1",
            "name": "jaswindersbrar123",
            "is_restricted": false,
            "is_ultra_restricted": false
        },
        "blocks": [
            {
                "type": "rich_text",
                "block_id": "cibvp",
                "elements": [
                    {
                        "type": "rich_text_section",
                        "elements": [
                            {
                                "type": "text",
                                "text": "-free regards to use-"
                            }
                        ]
                    }
                ]
            }
        ]
    },
    {
        "client_msg_id": "e6bc0766-7c87-4bb3-980b-1a450192bd1e",
        "type": "message",
        "text": "Techventures is measuring impact on ventures and crowdsourcing insights, tips and tricks. They also just launched <http:\/\/covtech.org|covtech.org> a new tech cluster to give visibility to ventures with solutions.  <https:\/\/medium.com\/techventures\/the-impact-of-covid-19-on-ventures-52c8a9c47ca9>",
        "user": "U010E11MX63",
        "ts": "1584631811.383500",
        "team": "TUU48M0T1",
        "user_team": "TUU48M0T1",
        "source_team": "TUU48M0T1",
        "user_profile": {
            "avatar_hash": "ga689af8a971",
            "image_72": "https:\/\/secure.gravatar.com\/avatar\/a689af8a971c89a92a525ca251aabac1.jpg?s=72&d=https%3A%2F%2Fa.slack-edge.com%2Fdf10d%2Fimg%2Favatars%2Fava_0007-72.png",
            "first_name": "",
            "real_name": "Pelle Ferdinande",
            "display_name": "Pelle Ferdinande",
            "team": "TUU48M0T1",
            "name": "pelle.ferdinande",
            "is_restricted": false,
            "is_ultra_restricted": false
        },
        "attachments": [
            {
                "service_name": "Medium",
                "title": "The impact of Covid-19 on Ventures",
                "title_link": "https:\/\/medium.com\/techventures\/the-impact-of-covid-19-on-ventures-52c8a9c47ca9",
                "text": "For founders, employees, freelancers or investors related to a venture or multiple ventures Please fill in this form",
                "fallback": "Medium: The impact of Covid-19 on Ventures",
                "image_url": "https:\/\/miro.medium.com\/max\/1200\/1*5NzhhcBZ8REWOUutEETJYA.png",
                "fields": [
                    {
                        "title": "Reading time",
                        "value": "6 min read",
                        "short": true
                    }
                ],
                "ts": 1584630737,
                "from_url": "https:\/\/medium.com\/techventures\/the-impact-of-covid-19-on-ventures-52c8a9c47ca9",
                "image_width": 620,
                "image_height": 250,
                "image_bytes": 42195,
                "service_icon": "https:\/\/cdn-images-1.medium.com\/fit\/c\/152\/152\/1*8I-HPL0bfoIzGied-dzOvA.png",
                "id": 1,
                "original_url": "https:\/\/medium.com\/techventures\/the-impact-of-covid-19-on-ventures-52c8a9c47ca9"
            }
        ],
        "blocks": [
            {
                "type": "rich_text",
                "block_id": "5gdS",
                "elements": [
                    {
                        "type": "rich_text_section",
                        "elements": [
                            {
                                "type": "text",
                                "text": "Techventures is measuring impact on ventures and crowdsourcing insights, tips and tricks. They also just launched "
                            },
                            {
                                "type": "link",
                                "url": "http:\/\/covtech.org",
                                "text": "covtech.org"
                            },
                            {
                                "type": "text",
                                "text": " a new tech cluster to give visibility to ventures with solutions.  "
                            },
                            {
                                "type": "link",
                                "url": "https:\/\/medium.com\/techventures\/the-impact-of-covid-19-on-ventures-52c8a9c47ca9"
                            }
                        ]
                    }
                ]
            }
        ]
    },
    {
        "client_msg_id": "d2acb405-9721-4958-93a9-2c26ab7d636b",
        "type": "message",
        "text": "So I reached out to my friend Michi about harrasment policies. She's worked with a number of nonprofits and helped write policies for for Chicago Nerd's Social Group, Wiscon, and C2E2. (She's good people). She recommended going through their policies on harassment. She also stressed that if you make a policy, you have to have ENFORCEMENT of said policy or else it's meaningless. Here are some links she sent me to start looking over:",
        "user": "UVBDBRJ8Z",
        "ts": "1584635571.384600",
        "team": "TUU48M0T1",
        "user_team": "TUU48M0T1",
        "source_team": "TUU48M0T1",
        "user_profile": {
            "avatar_hash": "7e0cba1ff84e",
            "image_72": "https:\/\/avatars.slack-edge.com\/2020-03-17\/1007551076309_7e0cba1ff84e78f65fc3_72.jpg",
            "first_name": "",
            "real_name": "Andy Scarpelli (ChiTownBio)",
            "display_name": "Andy Scarpelli (ChiTownBio)",
            "team": "TUU48M0T1",
            "name": "ahscarpelli",
            "is_restricted": false,
            "is_ultra_restricted": false
        },
        "blocks": [
            {
                "type": "rich_text",
                "block_id": "2Qd2",
                "elements": [
                    {
                        "type": "rich_text_section",
                        "elements": [
                            {
                                "type": "text",
                                "text": "So I reached out to my friend Michi about harrasment policies. She's worked with a number of nonprofits and helped write policies for for Chicago Nerd's Social Group, Wiscon, and C2E2. (She's good people). She recommended going through their policies on harassment. She also stressed that if you make a policy, you have to have ENFORCEMENT of said policy or else it's meaningless. Here are some links she sent me to start looking over:"
                            }
                        ]
                    }
                ]
            }
        ],
        "thread_ts": "1584553452.333700",
        "parent_user_id": "U01016B7KPY"
    },
    {
        "client_msg_id": "c663cb72-f2d5-425e-9b9e-e529771312e8",
        "type": "message",
        "text": "<https:\/\/www.chicagonerds.org\/anti-harassment-event-policy>",
        "user": "UVBDBRJ8Z",
        "ts": "1584635572.384800",
        "team": "TUU48M0T1",
        "user_team": "TUU48M0T1",
        "source_team": "TUU48M0T1",
        "user_profile": {
            "avatar_hash": "7e0cba1ff84e",
            "image_72": "https:\/\/avatars.slack-edge.com\/2020-03-17\/1007551076309_7e0cba1ff84e78f65fc3_72.jpg",
            "first_name": "",
            "real_name": "Andy Scarpelli (ChiTownBio)",
            "display_name": "Andy Scarpelli (ChiTownBio)",
            "team": "TUU48M0T1",
            "name": "ahscarpelli",
            "is_restricted": false,
            "is_ultra_restricted": false
        },
        "attachments": [
            {
                "service_name": "cnsc",
                "title": "Anti-Harassment &amp; Event Policy | cnsc",
                "title_link": "https:\/\/www.chicagonerds.org\/anti-harassment-event-policy",
                "fallback": "cnsc: Anti-Harassment &amp; Event Policy | cnsc",
                "image_url": "https:\/\/static.wixstatic.com\/media\/44872a_f77ef60fe36d48c78cfe05d59f429036%7Emv2.png\/v1\/fit\/w_2500,h_1330,al_c\/44872a_f77ef60fe36d48c78cfe05d59f429036%7Emv2.png",
                "from_url": "https:\/\/www.chicagonerds.org\/anti-harassment-event-policy",
                "image_width": 250,
                "image_height": 250,
                "image_bytes": 146062,
                "service_icon": "https:\/\/static.wixstatic.com\/media\/10d45f_23ce1be3b8b34d85a809700723186655%7Emv2.png\/v1\/fill\/w_32%2Ch_32%2Clg_1%2Cusm_0.66_1.00_0.01\/10d45f_23ce1be3b8b34d85a809700723186655%7Emv2.png",
                "id": 1,
                "original_url": "https:\/\/www.chicagonerds.org\/anti-harassment-event-policy"
            }
        ],
        "blocks": [
            {
                "type": "rich_text",
                "block_id": "ij1WR",
                "elements": [
                    {
                        "type": "rich_text_section",
                        "elements": [
                            {
                                "type": "link",
                                "url": "https:\/\/www.chicagonerds.org\/anti-harassment-event-policy"
                            }
                        ]
                    }
                ]
            }
        ],
        "thread_ts": "1584553452.333700",
        "parent_user_id": "U01016B7KPY"
    },
    {
        "client_msg_id": "0fc290c8-504a-45dd-8675-9b39713f30bd",
        "type": "message",
        "text": "<https:\/\/www.facebook.com\/notes\/chicago-nerd-social-club\/group-posting-commenting-policy\/10151413809963719\/>",
        "user": "UVBDBRJ8Z",
        "ts": "1584635582.385100",
        "team": "TUU48M0T1",
        "user_team": "TUU48M0T1",
        "source_team": "TUU48M0T1",
        "user_profile": {
            "avatar_hash": "7e0cba1ff84e",
            "image_72": "https:\/\/avatars.slack-edge.com\/2020-03-17\/1007551076309_7e0cba1ff84e78f65fc3_72.jpg",
            "first_name": "",
            "real_name": "Andy Scarpelli (ChiTownBio)",
            "display_name": "Andy Scarpelli (ChiTownBio)",
            "team": "TUU48M0T1",
            "name": "ahscarpelli",
            "is_restricted": false,
            "is_ultra_restricted": false
        },
        "attachments": [
            {
                "title": "Group Posting &amp; Commenting Policy | Facebook",
                "title_link": "https:\/\/www.facebook.com\/notes\/chicago-nerd-social-club\/group-posting-commenting-policy\/10151413809963719\/",
                "text": "GROUP POSTING &amp; COMMENTING POLICY Welcome to the Facebook Group for the Chicago Nerd Social Club! This is the space to post interesting and fun links pert",
                "fallback": "Group Posting &amp; Commenting Policy | Facebook",
                "from_url": "https:\/\/www.facebook.com\/notes\/chicago-nerd-social-club\/group-posting-commenting-policy\/10151413809963719\/",
                "service_icon": "https:\/\/static.xx.fbcdn.net\/rsrc.php\/yz\/r\/KFyVIAWzntM.ico",
                "service_name": "facebook.com",
                "id": 1,
                "original_url": "https:\/\/www.facebook.com\/notes\/chicago-nerd-social-club\/group-posting-commenting-policy\/10151413809963719\/"
            }
        ],
        "blocks": [
            {
                "type": "rich_text",
                "block_id": "L15=V",
                "elements": [
                    {
                        "type": "rich_text_section",
                        "elements": [
                            {
                                "type": "link",
                                "url": "https:\/\/www.facebook.com\/notes\/chicago-nerd-social-club\/group-posting-commenting-policy\/10151413809963719\/"
                            }
                        ]
                    }
                ]
            }
        ],
        "thread_ts": "1584553452.333700",
        "parent_user_id": "U01016B7KPY"
    },
    {
        "client_msg_id": "f9e45f36-03cb-46a9-9105-37403022985c",
        "type": "message",
        "text": "<https:\/\/www.c2e2.com\/About\/FAQ-and-Policies\/Harassment-Policy\/>",
        "user": "UVBDBRJ8Z",
        "ts": "1584635592.385400",
        "team": "TUU48M0T1",
        "user_team": "TUU48M0T1",
        "source_team": "TUU48M0T1",
        "user_profile": {
            "avatar_hash": "7e0cba1ff84e",
            "image_72": "https:\/\/avatars.slack-edge.com\/2020-03-17\/1007551076309_7e0cba1ff84e78f65fc3_72.jpg",
            "first_name": "",
            "real_name": "Andy Scarpelli (ChiTownBio)",
            "display_name": "Andy Scarpelli (ChiTownBio)",
            "team": "TUU48M0T1",
            "name": "ahscarpelli",
            "is_restricted": false,
            "is_ultra_restricted": false
        },
        "attachments": [
            {
                "text": "--&gt; Cosplay is not Consent C2E2 has a ZERO TOLERANCE POLICY for harassment of any kind, including but not limited to: stalking intimidation offensive verbal comments physical assault and\/or battery harassing or non-consensual photography or recording",
                "fallback": "--&gt; Cosplay is not Consent C2E2 has a ZERO TOLERANCE POLICY for harassment of any kind, including but not limited to: stalking intimidation offensive verbal comments physical assault and\/or battery harassing or non-consensual photography or recording",
                "from_url": "https:\/\/www.c2e2.com\/About\/FAQ-and-Policies\/Harassment-Policy\/",
                "service_icon": "https:\/\/www.c2e2.com\/RNA\/RNA_C2E2_V2\/2018\/_img\/framework\/c2e2-header-logo.png?v=636614772273522592",
                "service_name": "C2E2 - Chicago Comic & Entertainment Expo - Feb 28-Mar 1, 2020",
                "id": 1,
                "original_url": "https:\/\/www.c2e2.com\/About\/FAQ-and-Policies\/Harassment-Policy\/"
            }
        ],
        "blocks": [
            {
                "type": "rich_text",
                "block_id": "tS8x",
                "elements": [
                    {
                        "type": "rich_text_section",
                        "elements": [
                            {
                                "type": "link",
                                "url": "https:\/\/www.c2e2.com\/About\/FAQ-and-Policies\/Harassment-Policy\/"
                            }
                        ]
                    }
                ]
            }
        ],
        "thread_ts": "1584553452.333700",
        "parent_user_id": "U01016B7KPY"
    },
    {
        "client_msg_id": "fbb6a27b-2a40-4ef3-a4bf-b448c72a6223",
        "type": "message",
        "text": "<http:\/\/wiscon.net\/policies\/anti-harassment\/>",
        "user": "UVBDBRJ8Z",
        "ts": "1584635601.385700",
        "team": "TUU48M0T1",
        "user_team": "TUU48M0T1",
        "source_team": "TUU48M0T1",
        "user_profile": {
            "avatar_hash": "7e0cba1ff84e",
            "image_72": "https:\/\/avatars.slack-edge.com\/2020-03-17\/1007551076309_7e0cba1ff84e78f65fc3_72.jpg",
            "first_name": "",
            "real_name": "Andy Scarpelli (ChiTownBio)",
            "display_name": "Andy Scarpelli (ChiTownBio)",
            "team": "TUU48M0T1",
            "name": "ahscarpelli",
            "is_restricted": false,
            "is_ultra_restricted": false
        },
        "attachments": [
            {
                "service_name": "WisCon",
                "title": "Anti-Harassment - WisCon",
                "title_link": "http:\/\/wiscon.net\/policies\/anti-harassment\/",
                "text": "contact: <mailto:antiabuse@wiscon.net|antiabuse@wiscon.net>, <mailto:safety@wiscon.net|safety@wiscon.net> WisCon is dedicated to working towards a harassment-free convention experience for all members, regardless of gender, gender identity and expression, sexual orientation, disability, physical appearance, body size, race, ethnicity, age, origin, religion, or class. We do not tolerate harassment of WisCon members in any form. Convention participants violating these rules may be … Continue reading Anti-Harassment →",
                "fallback": "WisCon: Anti-Harassment - WisCon",
                "from_url": "http:\/\/wiscon.net\/policies\/anti-harassment\/",
                "id": 1,
                "original_url": "http:\/\/wiscon.net\/policies\/anti-harassment\/"
            }
        ],
        "blocks": [
            {
                "type": "rich_text",
                "block_id": "MUM",
                "elements": [
                    {
                        "type": "rich_text_section",
                        "elements": [
                            {
                                "type": "link",
                                "url": "http:\/\/wiscon.net\/policies\/anti-harassment\/"
                            }
                        ]
                    }
                ]
            }
        ],
        "thread_ts": "1584553452.333700",
        "parent_user_id": "U01016B7KPY"
    },
    {
        "client_msg_id": "5cede477-9557-4086-bcae-ac77257930ca",
        "type": "message",
        "text": "<@UVBDBRJ8Z> thank you for sharing! do you know if any of these codes of conducts are protected or if we're able to work off them?",
        "user": "UV0QTJCMT",
        "ts": "1584635822.386200",
        "team": "TUU48M0T1",
        "user_team": "TUU48M0T1",
        "source_team": "TUU48M0T1",
        "user_profile": {
            "avatar_hash": "06a6ae8f69d1",
            "image_72": "https:\/\/avatars.slack-edge.com\/2020-04-13\/1060635499315_06a6ae8f69d18f1ad464_72.png",
            "first_name": "Katherine",
            "real_name": "Katherine Holo",
            "display_name": "Kat Holo - Co-Organizer of OpenCOVID19",
            "team": "TUU48M0T1",
            "name": "katherineh245",
            "is_restricted": false,
            "is_ultra_restricted": false
        },
        "blocks": [
            {
                "type": "rich_text",
                "block_id": "ja1W",
                "elements": [
                    {
                        "type": "rich_text_section",
                        "elements": [
                            {
                                "type": "user",
                                "user_id": "UVBDBRJ8Z"
                            },
                            {
                                "type": "text",
                                "text": " thank you for sharing! do you know if any of these codes of conducts are protected or if we're able to work off them?"
                            }
                        ]
                    }
                ]
            }
        ],
        "thread_ts": "1584553452.333700",
        "parent_user_id": "U01016B7KPY"
    },
    {
        "client_msg_id": "dac1a20d-c371-4400-b35a-e0d095d11cd5",
        "type": "message",
        "text": "I know that Michi helped craft all of them and that they were adapted from others. I would think if we just adapt any of these (Not copy), we'd be fine. But Michi told me we could use the CNSC or the Facbook one as a template.",
        "user": "UVBDBRJ8Z",
        "ts": "1584636106.386400",
        "team": "TUU48M0T1",
        "user_team": "TUU48M0T1",
        "source_team": "TUU48M0T1",
        "user_profile": {
            "avatar_hash": "7e0cba1ff84e",
            "image_72": "https:\/\/avatars.slack-edge.com\/2020-03-17\/1007551076309_7e0cba1ff84e78f65fc3_72.jpg",
            "first_name": "",
            "real_name": "Andy Scarpelli (ChiTownBio)",
            "display_name": "Andy Scarpelli (ChiTownBio)",
            "team": "TUU48M0T1",
            "name": "ahscarpelli",
            "is_restricted": false,
            "is_ultra_restricted": false
        },
        "blocks": [
            {
                "type": "rich_text",
                "block_id": "ebt0r",
                "elements": [
                    {
                        "type": "rich_text_section",
                        "elements": [
                            {
                                "type": "text",
                                "text": "I know that Michi helped craft all of them and that they were adapted from others. I would think if we just adapt any of these (Not copy), we'd be fine. But Michi told me we could use the CNSC or the Facbook one as a template."
                            }
                        ]
                    }
                ]
            }
        ],
        "thread_ts": "1584553452.333700",
        "parent_user_id": "U01016B7KPY",
        "reactions": [
            {
                "name": "+1",
                "users": [
                    "UV0QTJCMT"
                ],
                "count": 1
            }
        ]
    },
    {
        "client_msg_id": "8b77222b-0451-4afd-a233-be74b5635c94",
        "type": "message",
        "text": "If you need help modifying any of these, let me know.",
        "user": "UVBDBRJ8Z",
        "ts": "1584636130.386600",
        "team": "TUU48M0T1",
        "user_team": "TUU48M0T1",
        "source_team": "TUU48M0T1",
        "user_profile": {
            "avatar_hash": "7e0cba1ff84e",
            "image_72": "https:\/\/avatars.slack-edge.com\/2020-03-17\/1007551076309_7e0cba1ff84e78f65fc3_72.jpg",
            "first_name": "",
            "real_name": "Andy Scarpelli (ChiTownBio)",
            "display_name": "Andy Scarpelli (ChiTownBio)",
            "team": "TUU48M0T1",
            "name": "ahscarpelli",
            "is_restricted": false,
            "is_ultra_restricted": false
        },
        "blocks": [
            {
                "type": "rich_text",
                "block_id": "2ca",
                "elements": [
                    {
                        "type": "rich_text_section",
                        "elements": [
                            {
                                "type": "text",
                                "text": "If you need help modifying any of these, let me know."
                            }
                        ]
                    }
                ]
            }
        ],
        "thread_ts": "1584553452.333700",
        "parent_user_id": "U01016B7KPY",
        "reactions": [
            {
                "name": "+1",
                "users": [
                    "UV0QTJCMT"
                ],
                "count": 1
            }
        ]
    },
    {
        "client_msg_id": "98876e31-4e06-462b-883c-3c676f649d4c",
        "type": "message",
        "text": "the skills of active people in the past 24h",
        "user": "UVC9WMA7N",
        "ts": "1584647347.389800",
        "team": "TUU48M0T1",
        "user_team": "TUU48M0T1",
        "source_team": "TUU48M0T1",
        "user_profile": {
            "avatar_hash": "56d14d58ed53",
            "image_72": "https:\/\/avatars.slack-edge.com\/2020-03-13\/998337892660_56d14d58ed537e6e4654_72.png",
            "first_name": "Leo",
            "real_name": "Leo Blondel",
            "display_name": "Leo Blondel - JOGL CoFounder \/ CTO",
            "team": "TUU48M0T1",
            "name": "leo",
            "is_restricted": false,
            "is_ultra_restricted": false
        },
        "blocks": [
            {
                "type": "rich_text",
                "block_id": "AKP",
                "elements": [
                    {
                        "type": "rich_text_section",
                        "elements": [
                            {
                                "type": "text",
                                "text": "the skills of active people in the past 24h"
                            }
                        ]
                    }
                ]
            }
        ],
        "reactions": [
            {
                "name": "+1",
                "users": [
                    "UV0QTJCMT",
                    "UV2SC7ZE3",
                    "UUWLPKCLB",
                    "UVC7J1K7Y",
                    "UUWPKNE2E"
                ],
                "count": 5
            },
            {
                "name": "sparkles",
                "users": [
                    "UVC7J1K7Y",
                    "UV13874FN",
                    "UUWPKNE2E"
                ],
                "count": 3
            }
        ]
    },
    {
        "type": "message",
        "text": "",
        "files": [
            {
                "id": "F0102T7NR17",
                "created": 1584647347,
                "timestamp": 1584647347,
                "name": "image.png",
                "title": "image.png",
                "mimetype": "image\/png",
                "filetype": "png",
                "pretty_type": "PNG",
                "user": "UVC9WMA7N",
                "editable": false,
                "size": 81626,
                "mode": "hosted",
                "is_external": false,
                "external_type": "",
                "is_public": true,
                "public_url_shared": false,
                "display_as_bot": false,
                "username": "",
                "url_private": "https:\/\/files.slack.com\/files-pri\/TUU48M0T1-F0102T7NR17\/image.png?t=xoxe-980144714919-1133254701825-1120841107731-daf595b5a7d6c9028b0b02a925032e36",
                "url_private_download": "https:\/\/files.slack.com\/files-pri\/TUU48M0T1-F0102T7NR17\/download\/image.png?t=xoxe-980144714919-1133254701825-1120841107731-daf595b5a7d6c9028b0b02a925032e36",
                "thumb_64": "https:\/\/files.slack.com\/files-tmb\/TUU48M0T1-F0102T7NR17-500b3ce56a\/image_64.png?t=xoxe-980144714919-1133254701825-1120841107731-daf595b5a7d6c9028b0b02a925032e36",
                "thumb_80": "https:\/\/files.slack.com\/files-tmb\/TUU48M0T1-F0102T7NR17-500b3ce56a\/image_80.png?t=xoxe-980144714919-1133254701825-1120841107731-daf595b5a7d6c9028b0b02a925032e36",
                "thumb_360": "https:\/\/files.slack.com\/files-tmb\/TUU48M0T1-F0102T7NR17-500b3ce56a\/image_360.png?t=xoxe-980144714919-1133254701825-1120841107731-daf595b5a7d6c9028b0b02a925032e36",
                "thumb_360_w": 360,
                "thumb_360_h": 153,
                "thumb_480": "https:\/\/files.slack.com\/files-tmb\/TUU48M0T1-F0102T7NR17-500b3ce56a\/image_480.png?t=xoxe-980144714919-1133254701825-1120841107731-daf595b5a7d6c9028b0b02a925032e36",
                "thumb_480_w": 480,
                "thumb_480_h": 204,
                "thumb_160": "https:\/\/files.slack.com\/files-tmb\/TUU48M0T1-F0102T7NR17-500b3ce56a\/image_160.png?t=xoxe-980144714919-1133254701825-1120841107731-daf595b5a7d6c9028b0b02a925032e36",
                "thumb_720": "https:\/\/files.slack.com\/files-tmb\/TUU48M0T1-F0102T7NR17-500b3ce56a\/image_720.png?t=xoxe-980144714919-1133254701825-1120841107731-daf595b5a7d6c9028b0b02a925032e36",
                "thumb_720_w": 720,
                "thumb_720_h": 307,
                "thumb_800": "https:\/\/files.slack.com\/files-tmb\/TUU48M0T1-F0102T7NR17-500b3ce56a\/image_800.png?t=xoxe-980144714919-1133254701825-1120841107731-daf595b5a7d6c9028b0b02a925032e36",
                "thumb_800_w": 800,
                "thumb_800_h": 341,
                "image_exif_rotation": 1,
                "original_w": 864,
                "original_h": 368,
                "thumb_tiny": "AwAUADDTAA6Ck3UE4pp5HU0ALk+1GTSYH+TRj6\/nQAoNO59KYCQOc04Y9aAFpMe9LRQAm0Um3nrTqKACiiigD\/\/Z",
                "permalink": "https:\/\/open-covid19.slack.com\/files\/UVC9WMA7N\/F0102T7NR17\/image.png",
                "permalink_public": "https:\/\/slack-files.com\/TUU48M0T1-F0102T7NR17-c592419c7d",
                "is_starred": false,
                "has_rich_preview": false
            }
        ],
        "upload": true,
        "user": "UVC9WMA7N",
        "display_as_bot": false,
        "ts": "1584647355.389900",
        "client_msg_id": "c91bbd05-399c-4585-8da5-79b91eb431ed"
    },
    {
        "client_msg_id": "56047D17-6C7D-462A-B66A-EF2BA540AF4A",
        "type": "message",
        "text": "any opinions on the disinfectant spraying in cities??  I worry that it could be making more problems &amp; not necessarily killing virus, but hope this is all being done on the basis of some evidence. (wiping smooth surfaces &amp; doorknobs etc with bleach and then alcohol seems most useful from my experience- but...)",
        "user": "UV1A22N3W",
        "ts": "1584650658.395700",
        "team": "TUU48M0T1",
        "user_team": "TUU48M0T1",
        "source_team": "TUU48M0T1",
        "user_profile": {
            "avatar_hash": "71f827776ad6",
            "image_72": "https:\/\/avatars.slack-edge.com\/2020-03-09\/988125642964_71f827776ad610af05a2_72.jpg",
            "first_name": "",
            "real_name": "RachelA",
            "display_name": "RachelA",
            "team": "TUU48M0T1",
            "name": "raronoff",
            "is_restricted": false,
            "is_ultra_restricted": false
        },
        "blocks": [
            {
                "type": "rich_text",
                "block_id": "XTR",
                "elements": [
                    {
                        "type": "rich_text_section",
                        "elements": [
                            {
                                "type": "text",
                                "text": "any opinions on the disinfectant spraying in cities??  I worry that it could be making more problems & not necessarily killing virus, but hope this is all being done on the basis of some evidence. (wiping smooth surfaces & doorknobs etc with bleach and then alcohol seems most useful from my experience- but...)"
                            }
                        ]
                    }
                ]
            }
        ],
        "thread_ts": "1584650658.395700",
        "reply_count": 4,
        "reply_users_count": 3,
        "latest_reply": "1584651903.397200",
        "reply_users": [
            "U0101DKUALV",
            "UVC9WMA7N",
            "UV3URUKK5"
        ],
        "replies": [
            {
                "user": "U0101DKUALV",
                "ts": "1584650921.395800"
            },
            {
                "user": "UVC9WMA7N",
                "ts": "1584651473.396200"
            },
            {
                "user": "UV3URUKK5",
                "ts": "1584651752.396800"
            },
            {
                "user": "U0101DKUALV",
                "ts": "1584651903.397200"
            }
        ],
        "subscribed": false,
        "reactions": [
            {
                "name": "+1",
                "users": [
                    "UV3URUKK5"
                ],
                "count": 1
            }
        ]
    },
    {
        "client_msg_id": "b6a4f916-3503-4d91-a286-6a55fe305f94",
        "type": "message",
        "text": "Good question... now that you bring it up, I worry what the aerosols will be doing to the air quality, though I don't have as much knowledge on that as I would like",
        "user": "U0101DKUALV",
        "ts": "1584650921.395800",
        "team": "TUU48M0T1",
        "user_team": "TUU48M0T1",
        "source_team": "TUU48M0T1",
        "user_profile": {
            "avatar_hash": "b0aee06ed3e5",
            "image_72": "https:\/\/avatars.slack-edge.com\/2020-04-22\/1072886325190_b0aee06ed3e501ebdf56_72.png",
            "first_name": "",
            "real_name": "Pauline Chane",
            "display_name": "Pauline Chane",
            "team": "TUU48M0T1",
            "name": "pauline.chane",
            "is_restricted": false,
            "is_ultra_restricted": false
        },
        "blocks": [
            {
                "type": "rich_text",
                "block_id": "jha",
                "elements": [
                    {
                        "type": "rich_text_section",
                        "elements": [
                            {
                                "type": "text",
                                "text": "Good question... now that you bring it up, I worry what the aerosols will be doing to the air quality, though I don't have as much knowledge on that as I would like"
                            }
                        ]
                    }
                ]
            }
        ],
        "thread_ts": "1584650658.395700",
        "parent_user_id": "UV1A22N3W"
    },
    {
        "client_msg_id": "4cf55166-7caa-422d-b0f2-2a38342c362f",
        "type": "message",
        "text": "Is this for real ??? damn",
        "user": "UVC9WMA7N",
        "ts": "1584651473.396200",
        "team": "TUU48M0T1",
        "user_team": "TUU48M0T1",
        "source_team": "TUU48M0T1",
        "user_profile": {
            "avatar_hash": "56d14d58ed53",
            "image_72": "https:\/\/avatars.slack-edge.com\/2020-03-13\/998337892660_56d14d58ed537e6e4654_72.png",
            "first_name": "Leo",
            "real_name": "Leo Blondel",
            "display_name": "Leo Blondel - JOGL CoFounder \/ CTO",
            "team": "TUU48M0T1",
            "name": "leo",
            "is_restricted": false,
            "is_ultra_restricted": false
        },
        "blocks": [
            {
                "type": "rich_text",
                "block_id": "fMch3",
                "elements": [
                    {
                        "type": "rich_text_section",
                        "elements": [
                            {
                                "type": "text",
                                "text": "Is this for real ??? damn"
                            }
                        ]
                    }
                ]
            }
        ],
        "thread_ts": "1584650658.395700",
        "parent_user_id": "UV1A22N3W"
    },
    {
        "client_msg_id": "b7e89e7b-be02-4360-b69c-3fdbe2032ff5",
        "type": "message",
        "text": "In China i saw it a lot. There was evidence (I dont have the source by my hand) that it reduced the amount of viable viruses, they used to rotate a bunch of them to not make the virus evolve to tolerate easily them.\n\nI agree with you that the point is if the reducing of the viruses worth this much. I could not imagine how the microbial biodiversity of our cities will decrease! And that would impact other species...",
        "user": "UV3URUKK5",
        "ts": "1584651752.396800",
        "team": "TUU48M0T1",
        "user_team": "TUU48M0T1",
        "source_team": "TUU48M0T1",
        "user_profile": {
            "avatar_hash": "64c99c2ed974",
            "image_72": "https:\/\/avatars.slack-edge.com\/2020-03-15\/1000999702004_64c99c2ed97497e08ca9_72.jpg",
            "first_name": "",
            "real_name": "Francisco Javier Quero",
            "display_name": "Francisco Javier Quero",
            "team": "TUU48M0T1",
            "name": "franxi2953",
            "is_restricted": false,
            "is_ultra_restricted": false
        },
        "edited": {
            "user": "UV3URUKK5",
            "ts": "1584651768.000000"
        },
        "blocks": [
            {
                "type": "rich_text",
                "block_id": "0XW",
                "elements": [
                    {
                        "type": "rich_text_section",
                        "elements": [
                            {
                                "type": "text",
                                "text": "In China i saw it a lot. There was evidence (I dont have the source by my hand) that it reduced the amount of viable viruses, they used to rotate a bunch of them to not make the virus evolve to tolerate easily them.\n\nI agree with you that the point is if the reducing of the viruses worth this much. I could not imagine how the microbial biodiversity of our cities will decrease! And that would impact other species..."
                            }
                        ]
                    }
                ]
            }
        ],
        "thread_ts": "1584650658.395700",
        "parent_user_id": "UV1A22N3W"
    },
    {
        "client_msg_id": "2a637c68-795c-4d7b-b0fd-203342401760",
        "type": "message",
        "text": "It may give potentially more pathogenic and resistant species more chance to populate, if I'm not mistaken?",
        "user": "U0101DKUALV",
        "ts": "1584651903.397200",
        "team": "TUU48M0T1",
        "user_team": "TUU48M0T1",
        "source_team": "TUU48M0T1",
        "user_profile": {
            "avatar_hash": "b0aee06ed3e5",
            "image_72": "https:\/\/avatars.slack-edge.com\/2020-04-22\/1072886325190_b0aee06ed3e501ebdf56_72.png",
            "first_name": "",
            "real_name": "Pauline Chane",
            "display_name": "Pauline Chane",
            "team": "TUU48M0T1",
            "name": "pauline.chane",
            "is_restricted": false,
            "is_ultra_restricted": false
        },
        "blocks": [
            {
                "type": "rich_text",
                "block_id": "6tQ",
                "elements": [
                    {
                        "type": "rich_text_section",
                        "elements": [
                            {
                                "type": "text",
                                "text": "It may give potentially more pathogenic and resistant species more chance to populate, if I'm not mistaken?"
                            }
                        ]
                    }
                ]
            }
        ],
        "thread_ts": "1584650658.395700",
        "parent_user_id": "UV1A22N3W"
    },
    {
        "type": "message",
        "text": "did anyone see this, Oxford developed a test that can be done in 30min-1.5 hrs",
        "files": [
            {
                "id": "F010DACR7UG",
                "created": 1584656741,
                "timestamp": 1584656741,
                "name": "Screenshot_20200319-182347.png",
                "title": "Screenshot_20200319-182347.png",
                "mimetype": "image\/png",
                "filetype": "png",
                "pretty_type": "PNG",
                "user": "U0102U32732",
                "editable": false,
                "size": 1019571,
                "mode": "hosted",
                "is_external": false,
                "external_type": "",
                "is_public": true,
                "public_url_shared": false,
                "display_as_bot": false,
                "username": "",
                "url_private": "https:\/\/files.slack.com\/files-pri\/TUU48M0T1-F010DACR7UG\/screenshot_20200319-182347.png?t=xoxe-980144714919-1133254701825-1120841107731-daf595b5a7d6c9028b0b02a925032e36",
                "url_private_download": "https:\/\/files.slack.com\/files-pri\/TUU48M0T1-F010DACR7UG\/download\/screenshot_20200319-182347.png?t=xoxe-980144714919-1133254701825-1120841107731-daf595b5a7d6c9028b0b02a925032e36",
                "thumb_64": "https:\/\/files.slack.com\/files-tmb\/TUU48M0T1-F010DACR7UG-66f36b8da3\/screenshot_20200319-182347_64.png?t=xoxe-980144714919-1133254701825-1120841107731-daf595b5a7d6c9028b0b02a925032e36",
                "thumb_80": "https:\/\/files.slack.com\/files-tmb\/TUU48M0T1-F010DACR7UG-66f36b8da3\/screenshot_20200319-182347_80.png?t=xoxe-980144714919-1133254701825-1120841107731-daf595b5a7d6c9028b0b02a925032e36",
                "thumb_360": "https:\/\/files.slack.com\/files-tmb\/TUU48M0T1-F010DACR7UG-66f36b8da3\/screenshot_20200319-182347_360.png?t=xoxe-980144714919-1133254701825-1120841107731-daf595b5a7d6c9028b0b02a925032e36",
                "thumb_360_w": 203,
                "thumb_360_h": 360,
                "thumb_480": "https:\/\/files.slack.com\/files-tmb\/TUU48M0T1-F010DACR7UG-66f36b8da3\/screenshot_20200319-182347_480.png?t=xoxe-980144714919-1133254701825-1120841107731-daf595b5a7d6c9028b0b02a925032e36",
                "thumb_480_w": 270,
                "thumb_480_h": 480,
                "thumb_160": "https:\/\/files.slack.com\/files-tmb\/TUU48M0T1-F010DACR7UG-66f36b8da3\/screenshot_20200319-182347_160.png?t=xoxe-980144714919-1133254701825-1120841107731-daf595b5a7d6c9028b0b02a925032e36",
                "thumb_720": "https:\/\/files.slack.com\/files-tmb\/TUU48M0T1-F010DACR7UG-66f36b8da3\/screenshot_20200319-182347_720.png?t=xoxe-980144714919-1133254701825-1120841107731-daf595b5a7d6c9028b0b02a925032e36",
                "thumb_720_w": 405,
                "thumb_720_h": 720,
                "thumb_800": "https:\/\/files.slack.com\/files-tmb\/TUU48M0T1-F010DACR7UG-66f36b8da3\/screenshot_20200319-182347_800.png?t=xoxe-980144714919-1133254701825-1120841107731-daf595b5a7d6c9028b0b02a925032e36",
                "thumb_800_w": 800,
                "thumb_800_h": 1422,
                "thumb_960": "https:\/\/files.slack.com\/files-tmb\/TUU48M0T1-F010DACR7UG-66f36b8da3\/screenshot_20200319-182347_960.png?t=xoxe-980144714919-1133254701825-1120841107731-daf595b5a7d6c9028b0b02a925032e36",
                "thumb_960_w": 540,
                "thumb_960_h": 960,
                "thumb_1024": "https:\/\/files.slack.com\/files-tmb\/TUU48M0T1-F010DACR7UG-66f36b8da3\/screenshot_20200319-182347_1024.png?t=xoxe-980144714919-1133254701825-1120841107731-daf595b5a7d6c9028b0b02a925032e36",
                "thumb_1024_w": 576,
                "thumb_1024_h": 1024,
                "image_exif_rotation": 1,
                "original_w": 1080,
                "original_h": 1920,
                "thumb_tiny": "AwAwABu2TLz8h657UqvLj5oyfyFKfvH6+n\/1qULu5AH6f4UrDuAZv+eRH40eZIP+WLfmKXYe6g\/lUg6dKLBcprMWcsPM57ZGBU\/nH+4fzpsagCqsjtuOatmd2WmuCv8AyzP51H9uH\/PNvzp0eWhBYfnUZQZNFh3ZOisvXH50pRWOWUE+tSEH1NGPc1L1HYjYMRhQKiMMhPb86sjjilp3DlP\/2Q==",
                "permalink": "https:\/\/open-covid19.slack.com\/files\/U0102U32732\/F010DACR7UG\/screenshot_20200319-182347.png",
                "permalink_public": "https:\/\/slack-files.com\/TUU48M0T1-F010DACR7UG-4e5ef5df44",
                "is_starred": false,
                "has_rich_preview": false
            }
        ],
        "upload": true,
        "blocks": [
            {
                "type": "rich_text",
                "block_id": "qoO",
                "elements": [
                    {
                        "type": "rich_text_section",
                        "elements": [
                            {
                                "type": "text",
                                "text": "did anyone see this, Oxford developed a test that can be done in 30min-1.5 hrs"
                            }
                        ]
                    }
                ]
            }
        ],
        "user": "U0102U32732",
        "display_as_bot": false,
        "ts": "1584656757.400800",
        "client_msg_id": "1d47e52d-5b4a-4abe-95a9-b2b806c81567",
        "thread_ts": "1584656757.400800",
        "reply_count": 8,
        "reply_users_count": 3,
        "latest_reply": "1584902098.001600",
        "reply_users": [
            "UV4Q15S5Q",
            "U0102U32732",
            "UV7LUJG1Y"
        ],
        "replies": [
            {
                "user": "UV4Q15S5Q",
                "ts": "1584658564.401600"
            },
            {
                "user": "U0102U32732",
                "ts": "1584659201.401900"
            },
            {
                "user": "UV4Q15S5Q",
                "ts": "1584659253.402400"
            },
            {
                "user": "U0102U32732",
                "ts": "1584659314.402800"
            },
            {
                "user": "U0102U32732",
                "ts": "1584659377.403000"
            },
            {
                "user": "U0102U32732",
                "ts": "1584659387.403200"
            },
            {
                "user": "UV7LUJG1Y",
                "ts": "1584709493.424100"
            },
            {
                "user": "U0102U32732",
                "ts": "1584902098.001600"
            }
        ],
        "subscribed": false,
        "reactions": [
            {
                "name": "open_mouth",
                "users": [
                    "U010BMYLX36"
                ],
                "count": 1
            }
        ]
    },
    {
        "client_msg_id": "0F2BA358-CB07-482D-B175-D49E0353E142",
        "type": "message",
        "text": "Does it just use LAMP?",
        "user": "UV4Q15S5Q",
        "ts": "1584658564.401600",
        "team": "TUU48M0T1",
        "user_team": "TUU48M0T1",
        "source_team": "TUU48M0T1",
        "user_profile": {
            "avatar_hash": "gdbd3cc24b09",
            "image_72": "https:\/\/secure.gravatar.com\/avatar\/dbd3cc24b092b17d53c09de6bab7969c.jpg?s=72&d=https%3A%2F%2Fa.slack-edge.com%2Fdf10d%2Fimg%2Favatars%2Fava_0012-72.png",
            "first_name": "",
            "real_name": "Keoni Gandall",
            "display_name": "",
            "team": "TUU48M0T1",
            "name": "koeng101",
            "is_restricted": false,
            "is_ultra_restricted": false
        },
        "blocks": [
            {
                "type": "rich_text",
                "block_id": "9+Fk",
                "elements": [
                    {
                        "type": "rich_text_section",
                        "elements": [
                            {
                                "type": "text",
                                "text": "Does it just use LAMP?"
                            }
                        ]
                    }
                ]
            }
        ],
        "thread_ts": "1584656757.400800",
        "parent_user_id": "U0102U32732"
    },
    {
        "client_msg_id": "e28bfda4-4f1e-4fd7-8d09-21aa3b1f500a",
        "type": "message",
        "text": "I don't think they use isothermal PCR, looks like they just optimized RNA RT-PCR and DNA amplification. Most likely they used a peltier, reduced the volumes, and optimized the results",
        "user": "U0102U32732",
        "ts": "1584659201.401900",
        "team": "TUU48M0T1",
        "user_team": "TUU48M0T1",
        "source_team": "TUU48M0T1",
        "user_profile": {
            "avatar_hash": "g8cf0e5524d7",
            "image_72": "https:\/\/secure.gravatar.com\/avatar\/8cf0e5524d7ec7fce22e0932493266e6.jpg?s=72&d=https%3A%2F%2Fa.slack-edge.com%2Fdf10d%2Fimg%2Favatars%2Fava_0017-72.png",
            "first_name": "",
            "real_name": "Alaa Selim",
            "display_name": "",
            "team": "TUU48M0T1",
            "name": "alaaselim99",
            "is_restricted": false,
            "is_ultra_restricted": false
        },
        "blocks": [
            {
                "type": "rich_text",
                "block_id": "p0I1L",
                "elements": [
                    {
                        "type": "rich_text_section",
                        "elements": [
                            {
                                "type": "text",
                                "text": "I don't think they use isothermal PCR, looks like they just optimized RNA RT-PCR and DNA amplification. Most likely they used a peltier, reduced the volumes, and optimized the results"
                            }
                        ]
                    }
                ]
            }
        ],
        "thread_ts": "1584656757.400800",
        "parent_user_id": "U0102U32732"
    },
    {
        "client_msg_id": "B1F5D30C-5B9A-4049-A303-87AAD52CAA87",
        "type": "message",
        "text": "30 minutes to RT-PCR is pretty impressive ",
        "user": "UV4Q15S5Q",
        "ts": "1584659253.402400",
        "team": "TUU48M0T1",
        "user_team": "TUU48M0T1",
        "source_team": "TUU48M0T1",
        "user_profile": {
            "avatar_hash": "gdbd3cc24b09",
            "image_72": "https:\/\/secure.gravatar.com\/avatar\/dbd3cc24b092b17d53c09de6bab7969c.jpg?s=72&d=https%3A%2F%2Fa.slack-edge.com%2Fdf10d%2Fimg%2Favatars%2Fava_0012-72.png",
            "first_name": "",
            "real_name": "Keoni Gandall",
            "display_name": "",
            "team": "TUU48M0T1",
            "name": "koeng101",
            "is_restricted": false,
            "is_ultra_restricted": false
        },
        "blocks": [
            {
                "type": "rich_text",
                "block_id": "Y=hPM",
                "elements": [
                    {
                        "type": "rich_text_section",
                        "elements": [
                            {
                                "type": "text",
                                "text": "30 minutes to RT-PCR is pretty impressive "
                            }
                        ]
                    }
                ]
            }
        ],
        "thread_ts": "1584656757.400800",
        "parent_user_id": "U0102U32732"
    },
    {
        "client_msg_id": "8951c704-3833-4aea-823c-5110ce83904c",
        "type": "message",
        "text": "With smaller volumes and optimized concentrations highly possible",
        "user": "U0102U32732",
        "ts": "1584659314.402800",
        "team": "TUU48M0T1",
        "user_team": "TUU48M0T1",
        "source_team": "TUU48M0T1",
        "user_profile": {
            "avatar_hash": "g8cf0e5524d7",
            "image_72": "https:\/\/secure.gravatar.com\/avatar\/8cf0e5524d7ec7fce22e0932493266e6.jpg?s=72&d=https%3A%2F%2Fa.slack-edge.com%2Fdf10d%2Fimg%2Favatars%2Fava_0017-72.png",
            "first_name": "",
            "real_name": "Alaa Selim",
            "display_name": "",
            "team": "TUU48M0T1",
            "name": "alaaselim99",
            "is_restricted": false,
            "is_ultra_restricted": false
        },
        "blocks": [
            {
                "type": "rich_text",
                "block_id": "lke",
                "elements": [
                    {
                        "type": "rich_text_section",
                        "elements": [
                            {
                                "type": "text",
                                "text": "With smaller volumes and optimized concentrations highly possible"
                            }
                        ]
                    }
                ]
            }
        ],
        "thread_ts": "1584656757.400800",
        "parent_user_id": "U0102U32732"
    },
    {
        "client_msg_id": "76831c97-bed9-4a84-82ab-d18822bd1a8d",
        "type": "message",
        "text": "They might have also mutated the reverse transcriptase, but I'm just speculating on what they did",
        "user": "U0102U32732",
        "ts": "1584659377.403000",
        "team": "TUU48M0T1",
        "user_team": "TUU48M0T1",
        "source_team": "TUU48M0T1",
        "user_profile": {
            "avatar_hash": "g8cf0e5524d7",
            "image_72": "https:\/\/secure.gravatar.com\/avatar\/8cf0e5524d7ec7fce22e0932493266e6.jpg?s=72&d=https%3A%2F%2Fa.slack-edge.com%2Fdf10d%2Fimg%2Favatars%2Fava_0017-72.png",
            "first_name": "",
            "real_name": "Alaa Selim",
            "display_name": "",
            "team": "TUU48M0T1",
            "name": "alaaselim99",
            "is_restricted": false,
            "is_ultra_restricted": false
        },
        "blocks": [
            {
                "type": "rich_text",
                "block_id": "TH\/xo",
                "elements": [
                    {
                        "type": "rich_text_section",
                        "elements": [
                            {
                                "type": "text",
                                "text": "They might have also mutated the reverse transcriptase, but I'm just speculating on what they did"
                            }
                        ]
                    }
                ]
            }
        ],
        "thread_ts": "1584656757.400800",
        "parent_user_id": "U0102U32732"
    },
    {
        "client_msg_id": "cd6e06c6-e823-4df9-a02e-6fa4407f9baa",
        "type": "message",
        "text": "My guess is good as yours",
        "user": "U0102U32732",
        "ts": "1584659387.403200",
        "team": "TUU48M0T1",
        "user_team": "TUU48M0T1",
        "source_team": "TUU48M0T1",
        "user_profile": {
            "avatar_hash": "g8cf0e5524d7",
            "image_72": "https:\/\/secure.gravatar.com\/avatar\/8cf0e5524d7ec7fce22e0932493266e6.jpg?s=72&d=https%3A%2F%2Fa.slack-edge.com%2Fdf10d%2Fimg%2Favatars%2Fava_0017-72.png",
            "first_name": "",
            "real_name": "Alaa Selim",
            "display_name": "",
            "team": "TUU48M0T1",
            "name": "alaaselim99",
            "is_restricted": false,
            "is_ultra_restricted": false
        },
        "blocks": [
            {
                "type": "rich_text",
                "block_id": "CvFH",
                "elements": [
                    {
                        "type": "rich_text_section",
                        "elements": [
                            {
                                "type": "text",
                                "text": "My guess is good as yours"
                            }
                        ]
                    }
                ]
            }
        ],
        "thread_ts": "1584656757.400800",
        "parent_user_id": "U0102U32732"
    },
    {
        "client_msg_id": "54817cf3-a31a-4910-be9a-6f65b0046cf6",
        "type": "message",
        "text": "Would anyone here know if healthcare workers would be interested in donations of home made face masks made from fabric that can be washed or autoclaved?",
        "user": "UV0FQT2QL",
        "ts": "1584664626.406300",
        "team": "TUU48M0T1",
        "user_team": "TUU48M0T1",
        "source_team": "TUU48M0T1",
        "user_profile": {
            "avatar_hash": "75f46697d2ad",
            "image_72": "https:\/\/avatars.slack-edge.com\/2020-03-07\/986957273572_75f46697d2ad18fdd4cd_72.jpg",
            "first_name": "Rachel",
            "real_name": "Rachel Andrex",
            "display_name": "Rachel",
            "team": "TUU48M0T1",
            "name": "rachelandrex",
            "is_restricted": false,
            "is_ultra_restricted": false
        },
        "thread_ts": "1584664626.406300",
        "reply_count": 12,
        "reply_users_count": 5,
        "latest_reply": "1584903345.008200",
        "reply_users": [
            "U0109T1DV9T",
            "UV0FQT2QL",
            "U010H500T2B",
            "UV8FL0JCA",
            "UV8AZ6ABC"
        ],
        "replies": [
            {
                "user": "U0109T1DV9T",
                "ts": "1584672065.410100"
            },
            {
                "user": "UV0FQT2QL",
                "ts": "1584707913.418800"
            },
            {
                "user": "U0109T1DV9T",
                "ts": "1584709045.421800"
            },
            {
                "user": "U0109T1DV9T",
                "ts": "1584709161.423700"
            },
            {
                "user": "U010H500T2B",
                "ts": "1584724910.432500"
            },
            {
                "user": "UV8FL0JCA",
                "ts": "1584726233.432900"
            },
            {
                "user": "UV8FL0JCA",
                "ts": "1584726289.433100"
            },
            {
                "user": "UV8AZ6ABC",
                "ts": "1584727951.433800"
            },
            {
                "user": "UV8FL0JCA",
                "ts": "1584730139.434300"
            },
            {
                "user": "UV0FQT2QL",
                "ts": "1584894893.495000"
            },
            {
                "user": "UV8FL0JCA",
                "ts": "1584896567.495200"
            },
            {
                "user": "UV0FQT2QL",
                "ts": "1584903345.008200"
            }
        ],
        "subscribed": false
    },
    {
        "client_msg_id": "9BE24EA4-7971-484E-A348-6250644E60AF",
        "type": "message",
        "text": "I have a contact in Tacoma, WA who says yes, there is interest! I am not positive that they’re accepting yet, but if they can’t get donations of commercial masks then they would appreciate homemade ones. Please let me know what other info you need. I would attach a photo of the ask but I don’t think I can do that in a thread. ",
        "user": "U0109T1DV9T",
        "ts": "1584672065.410100",
        "team": "TUU48M0T1",
        "user_team": "TUU48M0T1",
        "source_team": "TUU48M0T1",
        "user_profile": {
            "avatar_hash": "0e741d71262c",
            "image_72": "https:\/\/avatars.slack-edge.com\/2020-03-18\/1012114282886_0e741d71262c690a9183_72.jpg",
            "first_name": "",
            "real_name": "Judy Nguyen",
            "display_name": "Judy Nguyen",
            "team": "TUU48M0T1",
            "name": "judy.v.nguyen",
            "is_restricted": false,
            "is_ultra_restricted": false
        },
        "blocks": [
            {
                "type": "rich_text",
                "block_id": "9jB",
                "elements": [
                    {
                        "type": "rich_text_section",
                        "elements": [
                            {
                                "type": "text",
                                "text": "I have a contact in Tacoma, WA who says yes, there is interest! I am not positive that they’re accepting yet, but if they can’t get donations of commercial masks then they would appreciate homemade ones. Please let me know what other info you need. I would attach a photo of the ask but I don’t think I can do that in a thread. "
                            }
                        ]
                    }
                ]
            }
        ],
        "thread_ts": "1584664626.406300",
        "parent_user_id": "UV0FQT2QL"
    },
    {
        "client_msg_id": "764f0c41-be2f-41f8-a4f8-cc3b512fa2f4",
        "type": "message",
        "text": "<https:\/\/youtu.be\/9AEMKudv5p0|https:\/\/youtu.be\/9AEMKudv5p0>",
        "user": "UVAFGTTGC",
        "ts": "1584673588.410600",
        "team": "TUU48M0T1",
        "user_team": "TUU48M0T1",
        "source_team": "TUU48M0T1",
        "user_profile": {
            "avatar_hash": "g4acbd57064a",
            "image_72": "https:\/\/secure.gravatar.com\/avatar\/4acbd57064af38e05cc167cb244e8067.jpg?s=72&d=https%3A%2F%2Fa.slack-edge.com%2Fdf10d%2Fimg%2Favatars%2Fava_0016-72.png",
            "first_name": "",
            "real_name": "swaroop_chirayinkil",
            "display_name": "swaroop_chirayinkil",
            "team": "TUU48M0T1",
            "name": "swaroopchirayinkil",
            "is_restricted": false,
            "is_ultra_restricted": false
        },
        "attachments": [
            {
                "service_name": "YouTube",
                "service_url": "https:\/\/www.youtube.com\/",
                "title": "What Bill Gates is afraid of",
                "title_link": "https:\/\/youtu.be\/9AEMKudv5p0",
                "author_name": "Vox",
                "author_link": "https:\/\/www.youtube.com\/user\/voxdotcom",
                "thumb_url": "https:\/\/i.ytimg.com\/vi\/9AEMKudv5p0\/hqdefault.jpg",
                "thumb_width": 480,
                "thumb_height": 360,
                "fallback": "YouTube Video: What Bill Gates is afraid of",
                "video_html": "<iframe width=\"400\" height=\"225\" src=\"https:\/\/www.youtube.com\/embed\/9AEMKudv5p0?feature=oembed&autoplay=1&iv_load_policy=3\" frameborder=\"0\" allow=\"accelerometer; autoplay; encrypted-media; gyroscope; picture-in-picture\" allowfullscreen><\/iframe>",
                "video_html_width": 400,
                "video_html_height": 225,
                "from_url": "https:\/\/youtu.be\/9AEMKudv5p0",
                "service_icon": "https:\/\/a.slack-edge.com\/80588\/img\/unfurl_icons\/youtube.png",
                "id": 1,
                "original_url": "https:\/\/youtu.be\/9AEMKudv5p0"
            }
        ],
        "blocks": [
            {
                "type": "rich_text",
                "block_id": "sCc",
                "elements": [
                    {
                        "type": "rich_text_section",
                        "elements": [
                            {
                                "type": "link",
                                "url": "https:\/\/youtu.be\/9AEMKudv5p0",
                                "text": "https:\/\/youtu.be\/9AEMKudv5p0"
                            }
                        ]
                    }
                ]
            }
        ]
    },
    {
        "client_msg_id": "f5344925-9cfd-457c-9659-76eb3538314c",
        "type": "message",
        "text": "Just got a “updates” email from notion.so in which they also say this:\n&gt; *(6) Free team plans for non-profits working on COVID-19*\n&gt; For non-profits, government agencies, grassroots organizers, and researchers working to end this pandemic or support others through it, we want to help.\n&gt; \n&gt; Send us an email at <mailto:team@makenotion.com|team@makenotion.com> with ‘COVID’ in your subject line. We’ll upgrade you for free!\nMight be useful for quick collaborative documentation work outside of google docs",
        "user": "UV3JN6XUK",
        "ts": "1584683662.412500",
        "team": "TUU48M0T1",
        "user_team": "TUU48M0T1",
        "source_team": "TUU48M0T1",
        "user_profile": {
            "avatar_hash": "c6c0c1b1b336",
            "image_72": "https:\/\/avatars.slack-edge.com\/2020-03-15\/1003312480278_c6c0c1b1b336d5d6bc8a_72.png",
            "first_name": "Pavel",
            "real_name": "Pavel Savchenko",
            "display_name": "pavel",
            "team": "TUU48M0T1",
            "name": "asfaltboy",
            "is_restricted": false,
            "is_ultra_restricted": false
        },
        "blocks": [
            {
                "type": "rich_text",
                "block_id": "L1e",
                "elements": [
                    {
                        "type": "rich_text_section",
                        "elements": [
                            {
                                "type": "text",
                                "text": "Just got a “updates” email from notion.so in which they also say this:\n"
                            }
                        ]
                    },
                    {
                        "type": "rich_text_quote",
                        "elements": [
                            {
                                "type": "text",
                                "text": "(6) Free team plans for non-profits working on COVID-19",
                                "style": {
                                    "bold": true
                                }
                            },
                            {
                                "type": "text",
                                "text": "\nFor non-profits, government agencies, grassroots organizers, and researchers working to end this pandemic or support others through it, we want to help.\n\nSend us an email at "
                            },
                            {
                                "type": "link",
                                "url": "mailto:team@makenotion.com",
                                "text": "team@makenotion.com"
                            },
                            {
                                "type": "text",
                                "text": " with ‘COVID’ in your subject line. We’ll upgrade you for free!"
                            }
                        ]
                    },
                    {
                        "type": "rich_text_section",
                        "elements": [
                            {
                                "type": "text",
                                "text": "Might be useful for quick collaborative documentation work outside of google docs"
                            }
                        ]
                    }
                ]
            }
        ]
    },
    {
        "client_msg_id": "2748A71D-3DD4-466E-A57E-D218A4D938DF",
        "type": "message",
        "text": "<https:\/\/time.com\/5805953\/home-covid-19-test-everlywell\/|https:\/\/time.com\/5805953\/home-covid-19-test-everlywell\/> — $135, requires a prescription. they send you a swab which, after use, needs to be mailed back to the company who then mails it to an approved lab for processing. the scalability is limited by the number of swabs. ",
        "user": "UVABNG1A9",
        "ts": "1584687285.415300",
        "team": "TUU48M0T1",
        "user_team": "TUU48M0T1",
        "source_team": "TUU48M0T1",
        "user_profile": {
            "avatar_hash": "a7524a427338",
            "image_72": "https:\/\/avatars.slack-edge.com\/2020-03-27\/1030980562116_a7524a427338ec909fa7_72.jpg",
            "first_name": "anoop",
            "real_name": "anoop",
            "display_name": "Anoop - JOGL UX\/UI",
            "team": "TUU48M0T1",
            "name": "anoopdeep",
            "is_restricted": false,
            "is_ultra_restricted": false
        },
        "blocks": [
            {
                "type": "rich_text",
                "block_id": "2se",
                "elements": [
                    {
                        "type": "rich_text_section",
                        "elements": [
                            {
                                "type": "link",
                                "url": "https:\/\/time.com\/5805953\/home-covid-19-test-everlywell\/",
                                "text": "https:\/\/time.com\/5805953\/home-covid-19-test-everlywell\/"
                            },
                            {
                                "type": "text",
                                "text": " — $135, requires a prescription. they send you a swab which, after use, needs to be mailed back to the company who then mails it to an approved lab for processing. the scalability is limited by the number of swabs. "
                            }
                        ]
                    }
                ]
            }
        ]
    }
]