[
    {
        "client_msg_id": "ceed0665-65cd-4d2d-9e8e-ebab5aa891a0",
        "type": "message",
        "text": "Hi everybody! I love this idea of a \"matchathon\". What do you think?\n\n<https:\/\/www.linkedin.com\/pulse\/from-hackathons-matchathons-going-sparking-ideas-keeping-gigler-\/>",
        "user": "U011BSKJZHV",
        "ts": "1587985387.391300",
        "team": "TUU48M0T1",
        "user_team": "TUU48M0T1",
        "source_team": "TUU48M0T1",
        "user_profile": {
            "avatar_hash": "g73d0145db1a",
            "image_72": "https:\/\/secure.gravatar.com\/avatar\/73d0145db1a3e96eae3dc96a9a9d10f2.jpg?s=72&d=https%3A%2F%2Fa.slack-edge.com%2Fdf10d%2Fimg%2Favatars%2Fava_0010-72.png",
            "first_name": "",
            "real_name": "Olli Tiainen",
            "display_name": "Olli Tiainen",
            "team": "TUU48M0T1",
            "name": "olli",
            "is_restricted": false,
            "is_ultra_restricted": false
        },
        "attachments": [
            {
                "title": "From Hackathons to Matchathons: going from sparking ideas to keeping them fired up!",
                "title_link": "https:\/\/www.linkedin.com\/pulse\/from-hackathons-matchathons-going-sparking-ideas-keeping-gigler-\/",
                "text": "I love hackathons because they are very creative, fast, confusing and overwhelming. It is a messy collaborative space for co-creation—where ideas spark and like-minded people come together in rapid experimentation-mode and produce in 48 hours or less highly innovative solutions.",
                "fallback": "From Hackathons to Matchathons: going from sparking ideas to keeping them fired up!",
                "image_url": "https:\/\/media-exp1.licdn.com\/dms\/image\/C4E12AQFVBTItYrco6w\/article-cover_image-shrink_600_2000\/0?e=1593648000&v=beta&t=WGOhsqAz1HSsBD3PiJ5zqxtRYhuwMk59dC15XClII40",
                "from_url": "https:\/\/www.linkedin.com\/pulse\/from-hackathons-matchathons-going-sparking-ideas-keeping-gigler-\/",
                "image_width": 400,
                "image_height": 250,
                "image_bytes": 110612,
                "service_icon": "https:\/\/static-exp1.licdn.com\/scds\/common\/u\/images\/logos\/favicons\/v1\/favicon.ico",
                "service_name": "linkedin.com",
                "id": 1,
                "original_url": "https:\/\/www.linkedin.com\/pulse\/from-hackathons-matchathons-going-sparking-ideas-keeping-gigler-\/"
            }
        ],
        "blocks": [
            {
                "type": "rich_text",
                "block_id": "PnM9M",
                "elements": [
                    {
                        "type": "rich_text_section",
                        "elements": [
                            {
                                "type": "text",
                                "text": "Hi everybody! I love this idea of a \"matchathon\". What do you think?\n\n"
                            },
                            {
                                "type": "link",
                                "url": "https:\/\/www.linkedin.com\/pulse\/from-hackathons-matchathons-going-sparking-ideas-keeping-gigler-\/"
                            }
                        ]
                    }
                ]
            }
        ]
    },
    {
        "client_msg_id": "0f273c16-5621-4a14-a9c7-47997aea516a",
        "type": "message",
        "text": ":white_circle: <https:\/\/youtu.be\/ZL6AmPIrSfQ> *CivicTechHub’s #EUvsVirus video pitch: don’t reinvent the wheel!* :white_circle: CivicTechHub’s Getting Started Guide <https:\/\/drive.google.com\/open?id=13_XFZoKJ7p0gdr7riGhrv9xVTd5D8Yo1Y48Z3zHWWGc> :white_circle: Everything happens in our Slack <https:\/\/bit.ly\/2RRY2DH>",
        "user": "U010ANJJTNJ",
        "ts": "1587995970.391700",
        "team": "TUU48M0T1",
        "user_team": "TUU48M0T1",
        "source_team": "TUU48M0T1",
        "user_profile": {
            "avatar_hash": "g6745aa360cf",
            "image_72": "https:\/\/secure.gravatar.com\/avatar\/6745aa360cf699aaffbcc79a071070b7.jpg?s=72&d=https%3A%2F%2Fa.slack-edge.com%2Fdf10d%2Fimg%2Favatars%2Fava_0001-72.png",
            "first_name": "",
            "real_name": "Vincent Mia Edie Verheyen",
            "display_name": "",
            "team": "TUU48M0T1",
            "name": "vincent.mia.edie.verh",
            "is_restricted": false,
            "is_ultra_restricted": false
        },
        "edited": {
            "user": "U010ANJJTNJ",
            "ts": "1587996091.000000"
        },
        "attachments": [
            {
                "service_name": "YouTube",
                "service_url": "https:\/\/www.youtube.com\/",
                "title": "CivicTechHub #EUvsVirus video pitch",
                "title_link": "https:\/\/youtu.be\/ZL6AmPIrSfQ",
                "author_name": "CivicTechHub",
                "author_link": "https:\/\/www.youtube.com\/channel\/UCWjIvbOBLmToD4vrOHED89Q",
                "thumb_url": "https:\/\/i.ytimg.com\/vi\/ZL6AmPIrSfQ\/hqdefault.jpg",
                "thumb_width": 480,
                "thumb_height": 360,
                "fallback": "YouTube Video: CivicTechHub #EUvsVirus video pitch",
                "video_html": "<iframe width=\"400\" height=\"225\" src=\"https:\/\/www.youtube.com\/embed\/ZL6AmPIrSfQ?feature=oembed&autoplay=1&iv_load_policy=3\" frameborder=\"0\" allow=\"accelerometer; autoplay; encrypted-media; gyroscope; picture-in-picture\" allowfullscreen><\/iframe>",
                "video_html_width": 400,
                "video_html_height": 225,
                "from_url": "https:\/\/youtu.be\/ZL6AmPIrSfQ",
                "service_icon": "https:\/\/a.slack-edge.com\/80588\/img\/unfurl_icons\/youtube.png",
                "id": 1,
                "original_url": "https:\/\/youtu.be\/ZL6AmPIrSfQ"
            }
        ],
        "blocks": [
            {
                "type": "rich_text",
                "block_id": "5vE",
                "elements": [
                    {
                        "type": "rich_text_section",
                        "elements": [
                            {
                                "type": "emoji",
                                "name": "white_circle"
                            },
                            {
                                "type": "text",
                                "text": " "
                            },
                            {
                                "type": "link",
                                "url": "https:\/\/youtu.be\/ZL6AmPIrSfQ"
                            },
                            {
                                "type": "text",
                                "text": " "
                            },
                            {
                                "type": "text",
                                "text": "CivicTechHub’s #EUvsVirus video pitch: don’t reinvent the wheel!",
                                "style": {
                                    "bold": true
                                }
                            },
                            {
                                "type": "text",
                                "text": " "
                            },
                            {
                                "type": "emoji",
                                "name": "white_circle"
                            },
                            {
                                "type": "text",
                                "text": " CivicTechHub’s Getting Started Guide "
                            },
                            {
                                "type": "link",
                                "url": "https:\/\/drive.google.com\/open?id=13_XFZoKJ7p0gdr7riGhrv9xVTd5D8Yo1Y48Z3zHWWGc"
                            },
                            {
                                "type": "text",
                                "text": " "
                            },
                            {
                                "type": "emoji",
                                "name": "white_circle"
                            },
                            {
                                "type": "text",
                                "text": " Everything happens in our Slack "
                            },
                            {
                                "type": "link",
                                "url": "https:\/\/bit.ly\/2RRY2DH"
                            }
                        ]
                    }
                ]
            }
        ]
    },
    {
        "client_msg_id": "cce97a9f-0c2b-48c8-b881-cdf8db3f8db3",
        "type": "message",
        "text": "hey <!subteam^S012LJ1H5D1|@governance-team> hey!",
        "user": "UV87UQ37A",
        "ts": "1587997530.392400",
        "team": "TUU48M0T1",
        "user_team": "TUU48M0T1",
        "source_team": "TUU48M0T1",
        "user_profile": {
            "avatar_hash": "g7c78d2f0258",
            "image_72": "https:\/\/secure.gravatar.com\/avatar\/7c78d2f0258f7bdf78a86301cfd6b712.jpg?s=72&d=https%3A%2F%2Fa.slack-edge.com%2Fdf10d%2Fimg%2Favatars%2Fava_0014-72.png",
            "first_name": "Victoria",
            "real_name": "Victoria Costa",
            "display_name": "Victoria Costa",
            "team": "TUU48M0T1",
            "name": "victorycoast",
            "is_restricted": false,
            "is_ultra_restricted": false
        },
        "blocks": [
            {
                "type": "rich_text",
                "block_id": "S35a",
                "elements": [
                    {
                        "type": "rich_text_section",
                        "elements": [
                            {
                                "type": "text",
                                "text": "hey "
                            },
                            {
                                "type": "usergroup",
                                "usergroup_id": "S012LJ1H5D1"
                            },
                            {
                                "type": "text",
                                "text": " hey!"
                            }
                        ]
                    }
                ]
            }
        ]
    },
    {
        "client_msg_id": "86198673-b405-4b5a-a69a-61436d473a56",
        "type": "message",
        "text": "hello <!subteam^S012LJ1H5D1|@governance-team>!",
        "user": "U011B6VLM2A",
        "ts": "1587997549.392800",
        "team": "TUU48M0T1",
        "user_team": "TUU48M0T1",
        "source_team": "TUU48M0T1",
        "user_profile": {
            "avatar_hash": "4231dc598cfc",
            "image_72": "https:\/\/avatars.slack-edge.com\/2020-04-02\/1044784558839_4231dc598cfc2e59c4c4_72.jpg",
            "first_name": "Alix",
            "real_name": "Alix Mains",
            "display_name": "Alix Mains - JOGL Coordinator",
            "team": "TUU48M0T1",
            "name": "alixhmains",
            "is_restricted": false,
            "is_ultra_restricted": false
        },
        "blocks": [
            {
                "type": "rich_text",
                "block_id": "Lh1PQ",
                "elements": [
                    {
                        "type": "rich_text_section",
                        "elements": [
                            {
                                "type": "text",
                                "text": "hello "
                            },
                            {
                                "type": "usergroup",
                                "usergroup_id": "S012LJ1H5D1"
                            },
                            {
                                "type": "text",
                                "text": "!"
                            }
                        ]
                    }
                ]
            }
        ]
    },
    {
        "client_msg_id": "43241d17-21ba-44f4-baf7-4efa5b50a29c",
        "type": "message",
        "text": "<!subteam^S012LJ1H5D1|@governance-team> - howdy!",
        "user": "U011B6VLM2A",
        "ts": "1587997574.393200",
        "team": "TUU48M0T1",
        "user_team": "TUU48M0T1",
        "source_team": "TUU48M0T1",
        "user_profile": {
            "avatar_hash": "4231dc598cfc",
            "image_72": "https:\/\/avatars.slack-edge.com\/2020-04-02\/1044784558839_4231dc598cfc2e59c4c4_72.jpg",
            "first_name": "Alix",
            "real_name": "Alix Mains",
            "display_name": "Alix Mains - JOGL Coordinator",
            "team": "TUU48M0T1",
            "name": "alixhmains",
            "is_restricted": false,
            "is_ultra_restricted": false
        },
        "blocks": [
            {
                "type": "rich_text",
                "block_id": "nOyW",
                "elements": [
                    {
                        "type": "rich_text_section",
                        "elements": [
                            {
                                "type": "usergroup",
                                "usergroup_id": "S012LJ1H5D1"
                            },
                            {
                                "type": "text",
                                "text": " - howdy!"
                            }
                        ]
                    }
                ]
            }
        ]
    },
    {
        "client_msg_id": "f45e4eec-7191-4a21-9a0a-228fe94880fd",
        "type": "message",
        "text": "<!subteam^S012LJ1H5D1|@governance-team> hi!",
        "user": "UV02WET96",
        "ts": "1587997663.393500",
        "team": "TUU48M0T1",
        "user_team": "TUU48M0T1",
        "source_team": "TUU48M0T1",
        "user_profile": {
            "avatar_hash": "a99c74a194f8",
            "image_72": "https:\/\/avatars.slack-edge.com\/2020-03-07\/975708504851_a99c74a194f86715ca7d_72.png",
            "first_name": "Thomas",
            "real_name": "Thomas Landrain",
            "display_name": "Thomas Landrain - JOGL CoFounder \/ CEO",
            "team": "TUU48M0T1",
            "name": "thomas",
            "is_restricted": false,
            "is_ultra_restricted": false
        },
        "blocks": [
            {
                "type": "rich_text",
                "block_id": "vJ5FC",
                "elements": [
                    {
                        "type": "rich_text_section",
                        "elements": [
                            {
                                "type": "usergroup",
                                "usergroup_id": "S012LJ1H5D1"
                            },
                            {
                                "type": "text",
                                "text": " hi!"
                            }
                        ]
                    }
                ]
            }
        ],
        "thread_ts": "1587997663.393500",
        "reply_count": 1,
        "reply_users_count": 1,
        "latest_reply": "1587997768.393600",
        "reply_users": [
            "UV87UQ37A"
        ],
        "replies": [
            {
                "user": "UV87UQ37A",
                "ts": "1587997768.393600"
            }
        ],
        "subscribed": false,
        "reactions": [
            {
                "name": "joy",
                "users": [
                    "U011B6VLM2A"
                ],
                "count": 1
            }
        ]
    },
    {
        "client_msg_id": "f5832a1f-025c-4c8b-8574-046564ea7e8f",
        "type": "message",
        "text": "fancy seeing you here",
        "user": "UV87UQ37A",
        "ts": "1587997768.393600",
        "team": "TUU48M0T1",
        "user_team": "TUU48M0T1",
        "source_team": "TUU48M0T1",
        "user_profile": {
            "avatar_hash": "g7c78d2f0258",
            "image_72": "https:\/\/secure.gravatar.com\/avatar\/7c78d2f0258f7bdf78a86301cfd6b712.jpg?s=72&d=https%3A%2F%2Fa.slack-edge.com%2Fdf10d%2Fimg%2Favatars%2Fava_0014-72.png",
            "first_name": "Victoria",
            "real_name": "Victoria Costa",
            "display_name": "Victoria Costa",
            "team": "TUU48M0T1",
            "name": "victorycoast",
            "is_restricted": false,
            "is_ultra_restricted": false
        },
        "blocks": [
            {
                "type": "rich_text",
                "block_id": "nSL",
                "elements": [
                    {
                        "type": "rich_text_section",
                        "elements": [
                            {
                                "type": "text",
                                "text": "fancy seeing you here"
                            }
                        ]
                    }
                ]
            }
        ],
        "thread_ts": "1587997663.393500",
        "parent_user_id": "UV02WET96",
        "reactions": [
            {
                "name": "wave",
                "users": [
                    "UV02WET96"
                ],
                "count": 1
            }
        ]
    }
]