[
    {
        "client_msg_id": "b74c7835-ce3e-4060-9adf-b713c99e1a77",
        "type": "message",
        "text": "*Hey folks* :wave::mask: *[BIG NEWS!]* :fire: *<!everyone>* \n*The 3rd round of applications for getting your project reviewed and get a JOGL micro-grants is now OPEN!!!* :writing_hand::super-brain:\n\n*PLEASE follow all the steps mentioned in this document: <https:\/\/docs.google.com\/document\/d\/1Udagi-PSsiUT4pv1DVnxRbaYyyq754xCAG7IX1ASm5w>*\n\n*The deadline for this second round is May 18th Monday 6am UTC.*\n\n• Positively reviewed projects are more visible to the global community and can access the JOGL network of partners.\n• JOGL micro-grants can amount to up to\n• Projects will have to use their JOGL project page to present their proposal so it will be transparent to everyone in this community :mag: One submission per project leader.\n• Your project will then be reviewed by other applicants and reviewers in the community and the results shared 10 days after submissions close!\n• *In fact, the review process involves reviewing three other projects as part of an open review process to be eligible!* :raised_hands:\n\n*The application process is also open to the world, so don’t hesitate to share to the world around you* :mega:\n\nIf you have any questions please message <@U0119SR5LMT> or <@UV0RRGB6H> who are in charge of the review process.\n\nGood luck!! :cov::exclamation:",
        "user": "UV02WET96",
        "ts": "1589213090.364500",
        "team": "TUU48M0T1",
        "user_team": "TUU48M0T1",
        "source_team": "TUU48M0T1",
        "user_profile": {
            "avatar_hash": "a99c74a194f8",
            "image_72": "https:\/\/avatars.slack-edge.com\/2020-03-07\/975708504851_a99c74a194f86715ca7d_72.png",
            "first_name": "Thomas",
            "real_name": "Thomas Landrain",
            "display_name": "Thomas Landrain - JOGL CoFounder \/ CEO",
            "team": "TUU48M0T1",
            "name": "thomas",
            "is_restricted": false,
            "is_ultra_restricted": false
        },
        "blocks": [
            {
                "type": "rich_text",
                "block_id": "Pr8Ff",
                "elements": [
                    {
                        "type": "rich_text_section",
                        "elements": [
                            {
                                "type": "text",
                                "text": "Hey folks ",
                                "style": {
                                    "bold": true
                                }
                            },
                            {
                                "type": "emoji",
                                "name": "wave",
                                "style": {
                                    "bold": true
                                }
                            },
                            {
                                "type": "emoji",
                                "name": "mask",
                                "style": {
                                    "bold": true
                                }
                            },
                            {
                                "type": "text",
                                "text": " [BIG NEWS!] ",
                                "style": {
                                    "bold": true
                                }
                            },
                            {
                                "type": "emoji",
                                "name": "fire",
                                "style": {
                                    "bold": true
                                }
                            },
                            {
                                "type": "text",
                                "text": " ",
                                "style": {
                                    "bold": true
                                }
                            },
                            {
                                "type": "broadcast",
                                "range": "everyone",
                                "style": {
                                    "bold": true
                                }
                            },
                            {
                                "type": "text",
                                "text": " ",
                                "style": {
                                    "bold": true
                                }
                            },
                            {
                                "type": "text",
                                "text": "\n"
                            },
                            {
                                "type": "text",
                                "text": "The 3rd round of applications for getting your project reviewed and get a JOGL micro-grants is now OPEN!!!",
                                "style": {
                                    "bold": true
                                }
                            },
                            {
                                "type": "text",
                                "text": " "
                            },
                            {
                                "type": "emoji",
                                "name": "writing_hand",
                                "style": {
                                    "bold": true
                                }
                            },
                            {
                                "type": "emoji",
                                "name": "super-brain",
                                "style": {
                                    "bold": true
                                }
                            },
                            {
                                "type": "text",
                                "text": "\n\n"
                            },
                            {
                                "type": "text",
                                "text": "PLEASE follow all the steps mentioned in this document: ",
                                "style": {
                                    "bold": true
                                }
                            },
                            {
                                "type": "link",
                                "url": "https:\/\/docs.google.com\/document\/d\/1Udagi-PSsiUT4pv1DVnxRbaYyyq754xCAG7IX1ASm5w",
                                "style": {
                                    "bold": true
                                }
                            },
                            {
                                "type": "text",
                                "text": "\n\n"
                            },
                            {
                                "type": "text",
                                "text": "The deadline for this second round is May 18th Monday 6am UTC.",
                                "style": {
                                    "bold": true
                                }
                            },
                            {
                                "type": "text",
                                "text": "\n\n"
                            }
                        ]
                    },
                    {
                        "type": "rich_text_list",
                        "elements": [
                            {
                                "type": "rich_text_section",
                                "elements": [
                                    {
                                        "type": "text",
                                        "text": "Positively reviewed projects are more visible to the global community and can access the JOGL network of partners."
                                    }
                                ]
                            },
                            {
                                "type": "rich_text_section",
                                "elements": [
                                    {
                                        "type": "text",
                                        "text": "JOGL micro-grants can amount to up to"
                                    }
                                ]
                            },
                            {
                                "type": "rich_text_section",
                                "elements": [
                                    {
                                        "type": "text",
                                        "text": "Projects will have to use their JOGL project page to present their proposal so it will be transparent to everyone in this community "
                                    },
                                    {
                                        "type": "emoji",
                                        "name": "mag"
                                    },
                                    {
                                        "type": "text",
                                        "text": " One submission per project leader."
                                    }
                                ]
                            },
                            {
                                "type": "rich_text_section",
                                "elements": [
                                    {
                                        "type": "text",
                                        "text": "Your project will then be reviewed by other applicants and reviewers in the community and the results shared 10 days after submissions close!"
                                    }
                                ]
                            },
                            {
                                "type": "rich_text_section",
                                "elements": [
                                    {
                                        "type": "text",
                                        "text": "In fact, the review process involves reviewing three other projects as part of an open review process to be eligible! ",
                                        "style": {
                                            "bold": true
                                        }
                                    },
                                    {
                                        "type": "emoji",
                                        "name": "raised_hands",
                                        "style": {
                                            "bold": true
                                        }
                                    }
                                ]
                            }
                        ],
                        "style": "bullet",
                        "indent": 0
                    },
                    {
                        "type": "rich_text_section",
                        "elements": [
                            {
                                "type": "text",
                                "text": "\n\n"
                            },
                            {
                                "type": "text",
                                "text": "The application process is also open to the world, so don’t hesitate to share to the world around you",
                                "style": {
                                    "bold": true
                                }
                            },
                            {
                                "type": "text",
                                "text": " "
                            },
                            {
                                "type": "emoji",
                                "name": "mega"
                            },
                            {
                                "type": "text",
                                "text": "\n\nIf you have any questions please message "
                            },
                            {
                                "type": "user",
                                "user_id": "U0119SR5LMT"
                            },
                            {
                                "type": "text",
                                "text": " or "
                            },
                            {
                                "type": "user",
                                "user_id": "UV0RRGB6H"
                            },
                            {
                                "type": "text",
                                "text": " who are in charge of the review process.\n\nGood luck!! "
                            },
                            {
                                "type": "emoji",
                                "name": "cov"
                            },
                            {
                                "type": "emoji",
                                "name": "exclamation"
                            }
                        ]
                    }
                ]
            }
        ],
        "reactions": [
            {
                "name": "100",
                "users": [
                    "U010QHBTBPY",
                    "UVC9WMA7N",
                    "U011B5424FR",
                    "UV0QTJCMT",
                    "UUNGFHSV8",
                    "U011ANKLTNG",
                    "UV0RRGB6H",
                    "U01113Y1PLP",
                    "UUWPKNE2E",
                    "U011G0QGFN3",
                    "U0119SR5LMT",
                    "U011B6VLM2A"
                ],
                "count": 12
            },
            {
                "name": "+1",
                "users": [
                    "UVC9WMA7N",
                    "U012BFUB3CK",
                    "UV0RRGB6H",
                    "U010B4EJG2C",
                    "U0119SR5LMT",
                    "UV10KBUQG"
                ],
                "count": 6
            },
            {
                "name": "fire",
                "users": [
                    "UV02WET96",
                    "UUNGFHSV8",
                    "UV0RRGB6H",
                    "U0119SR5LMT",
                    "U01080CJ6P3"
                ],
                "count": 5
            },
            {
                "name": "the_horns",
                "users": [
                    "UUNGFHSV8",
                    "UV0RRGB6H",
                    "U0119SR5LMT"
                ],
                "count": 3
            },
            {
                "name": "heart",
                "users": [
                    "U0119SR5LMT"
                ],
                "count": 1
            }
        ]
    },
    {
        "client_msg_id": "466683b6-4ac5-4044-a815-cd8d54948b6e",
        "type": "message",
        "text": "Camille, great job you guys are doing? I have been here for awhile but yet to find a project that I can contribute to or actively participate in. However I do like to ask that how do the group source for problems to tackle beyond  project calls? Is there a way of reviewing different regions for challenges that could be addressed? And would it be useful to do geographic mappings to help point members to closer members who they can collaborate with? Just saying - let get on with watching the past online meetings",
        "user": "U0108GQLD0T",
        "ts": "1589226707.366800",
        "team": "TUU48M0T1",
        "user_team": "TUU48M0T1",
        "source_team": "TUU48M0T1",
        "user_profile": {
            "avatar_hash": "ge00d6f0879e",
            "image_72": "https:\/\/secure.gravatar.com\/avatar\/e00d6f0879e386e9f1d4a2b5e37f655e.jpg?s=72&d=https%3A%2F%2Fa.slack-edge.com%2Fdf10d%2Fimg%2Favatars%2Fava_0018-72.png",
            "first_name": "",
            "real_name": "Benjamin Akin",
            "display_name": "Benjamin Akin",
            "team": "TUU48M0T1",
            "name": "ben_akin",
            "is_restricted": false,
            "is_ultra_restricted": false
        },
        "blocks": [
            {
                "type": "rich_text",
                "block_id": "ZWb",
                "elements": [
                    {
                        "type": "rich_text_section",
                        "elements": [
                            {
                                "type": "text",
                                "text": "Camille, great job you guys are doing? I have been here for awhile but yet to find a project that I can contribute to or actively participate in. However I do like to ask that how do the group source for problems to tackle beyond  project calls? Is there a way of reviewing different regions for challenges that could be addressed? And would it be useful to do geographic mappings to help point members to closer members who they can collaborate with? Just saying - let get on with watching the past online meetings"
                            }
                        ]
                    }
                ]
            }
        ],
        "thread_ts": "1588605800.334000",
        "parent_user_id": "UV9V03C8Y"
    }
]