[
    {
        "type": "message",
        "text": "Good day\/afternoon\/evening <!everyone>! You'll be seeing quite a few announcements today, but here's one from the *Grant Application Review group* (<#C0104348AFL|prgm-project-review>):\n\n*Wave 1 of the JOGL OpenCOVID19 Grant application Review is now open*:writing_hand::skin-tone-2: *, and Grant Applications for Round 1 are now closed.* :pray:\n\nThe JOGL Community has developed many simple and effective open-source products and designs to fight COVID-19. These include hardware devices suitable for consumer production and mass manufacturing, as well as important and pragmatic software products and systems. We will continue the search for these projects in subsequent rounds—please continue your important work developing them. *Now is the time to review the first round of projects for allocation of the miniature grants!*:raised_hands:\n\n*The review process will be conducted openly using both public feedback, and an expert review with administrative involvement to determine the outcomes and grant holders.*\n\nWe will provide a detailed report for proposals that make the final selection. Below is the process for providing public feedback. We request serious and sober thought—your input may affect real world outcomes. *Please if you have time to review projects do so as part of our crowd review*, and encourage your team members to help. Well done for such an extraordinary achievement.\n\n*Here is our <https:\/\/docs.google.com\/spreadsheets\/d\/1CQATJl-tyllZyqfHpJqHHe03wxIOEkKPKEdWoCGu-OA\/edit?usp=sharing|repository of projects who applied for a grant> *:page_with_curl:\n\n*And here is our <https:\/\/app.jogl.io\/program\/opencovid19|repository of projects still being worked on>!*:page_facing_up:\n\nThis is an open review and we are looking for reviewers! therefore *if you'd like to take part in our review process please do!* (join the <#C0104348AFL|prgm-project-review> channel)\n\n*Our Public Feedback Process: (Open for 72hrs)*:writing_hand:\n\n1.   Please find the links to our <https:\/\/docs.google.com\/spreadsheets\/d\/1CQATJl-tyllZyqfHpJqHHe03wxIOEkKPKEdWoCGu-OA\/edit?usp=sharing|grant proposals in this spreadsheet>  \n2.  *Review each project using <https:\/\/forms.gle\/fkMCxjhXKURwXkoK9|this form>*\n\n*We will be conducting more rounds of grant submission in the next few weeks and invite you to review the above projects using our form to help out with this one!*\n\n*Thank you everyone, we are proud of the community and the projects you have created, and cannot wait to support them.*:heart:  For technical questions related to submissions, please contact <@U0119SR5LMT>!",
        "upload": false,
        "blocks": [
            {
                "type": "rich_text",
                "block_id": "4vq",
                "elements": [
                    {
                        "type": "rich_text_section",
                        "elements": [
                            {
                                "type": "text",
                                "text": "Good day\/afternoon\/evening "
                            },
                            {
                                "type": "broadcast",
                                "range": "everyone"
                            },
                            {
                                "type": "text",
                                "text": "! You'll be seeing quite a few announcements today, but here's one from the "
                            },
                            {
                                "type": "text",
                                "text": "Grant Application Review group",
                                "style": {
                                    "bold": true
                                }
                            },
                            {
                                "type": "text",
                                "text": " ("
                            },
                            {
                                "type": "channel",
                                "channel_id": "C0104348AFL"
                            },
                            {
                                "type": "text",
                                "text": "):\n\n"
                            },
                            {
                                "type": "text",
                                "text": "Wave 1 of the JOGL OpenCOVID19 Grant application Review is now open",
                                "style": {
                                    "bold": true
                                }
                            },
                            {
                                "type": "emoji",
                                "name": "writing_hand",
                                "skin_tone": 2,
                                "style": {
                                    "bold": true
                                }
                            },
                            {
                                "type": "text",
                                "text": " , and Grant Applications for Round 1 are now closed. ",
                                "style": {
                                    "bold": true
                                }
                            },
                            {
                                "type": "emoji",
                                "name": "pray",
                                "style": {
                                    "bold": true
                                }
                            },
                            {
                                "type": "text",
                                "text": "\n\nThe JOGL Community has developed many simple and effective open-source products and designs to fight COVID-19. These include hardware devices suitable for consumer production and mass manufacturing, as well as important and pragmatic software products and systems. We will continue the search for these projects in subsequent rounds—please continue your important work developing them. "
                            },
                            {
                                "type": "text",
                                "text": "Now is the time to review the first round of projects for allocation of the miniature grants!",
                                "style": {
                                    "bold": true
                                }
                            },
                            {
                                "type": "emoji",
                                "name": "raised_hands"
                            },
                            {
                                "type": "text",
                                "text": "\n\n"
                            },
                            {
                                "type": "text",
                                "text": "The review process will be conducted openly using both public feedback, and an expert review with administrative involvement to determine the outcomes and grant holders.",
                                "style": {
                                    "bold": true
                                }
                            },
                            {
                                "type": "text",
                                "text": "\n\nWe will provide a detailed report for proposals that make the final selection. Below is the process for providing public feedback. We request serious and sober thought—your input may affect real world outcomes. "
                            },
                            {
                                "type": "text",
                                "text": "Please if you have time to review projects do so as part of our crowd review",
                                "style": {
                                    "bold": true
                                }
                            },
                            {
                                "type": "text",
                                "text": ", and encourage your team members to help. Well done for such an extraordinary achievement.\n\n"
                            },
                            {
                                "type": "text",
                                "text": "Here is our ",
                                "style": {
                                    "bold": true
                                }
                            },
                            {
                                "type": "link",
                                "url": "https:\/\/docs.google.com\/spreadsheets\/d\/1CQATJl-tyllZyqfHpJqHHe03wxIOEkKPKEdWoCGu-OA\/edit?usp=sharing",
                                "text": "repository of projects who applied for a grant",
                                "style": {
                                    "bold": true
                                }
                            },
                            {
                                "type": "text",
                                "text": " ",
                                "style": {
                                    "bold": true
                                }
                            },
                            {
                                "type": "emoji",
                                "name": "page_with_curl",
                                "style": {
                                    "bold": true
                                }
                            },
                            {
                                "type": "text",
                                "text": "\n\n"
                            },
                            {
                                "type": "text",
                                "text": "And here is our ",
                                "style": {
                                    "bold": true
                                }
                            },
                            {
                                "type": "link",
                                "url": "https:\/\/app.jogl.io\/program\/opencovid19",
                                "text": "repository of projects still being worked on",
                                "style": {
                                    "bold": true
                                }
                            },
                            {
                                "type": "text",
                                "text": "!",
                                "style": {
                                    "bold": true
                                }
                            },
                            {
                                "type": "emoji",
                                "name": "page_facing_up",
                                "style": {
                                    "bold": true
                                }
                            },
                            {
                                "type": "text",
                                "text": "\n\nThis is an open review and we are looking for reviewers! therefore "
                            },
                            {
                                "type": "text",
                                "text": "if you'd like to take part in our review process please do! ",
                                "style": {
                                    "bold": true
                                }
                            },
                            {
                                "type": "text",
                                "text": "(join the "
                            },
                            {
                                "type": "channel",
                                "channel_id": "C0104348AFL"
                            },
                            {
                                "type": "text",
                                "text": " channel)\n\n"
                            },
                            {
                                "type": "text",
                                "text": "Our Public Feedback Process: (Open for 72hrs)",
                                "style": {
                                    "bold": true
                                }
                            },
                            {
                                "type": "emoji",
                                "name": "writing_hand",
                                "style": {
                                    "bold": true
                                }
                            },
                            {
                                "type": "text",
                                "text": "\n\n1.   Please find the links to our "
                            },
                            {
                                "type": "link",
                                "url": "https:\/\/docs.google.com\/spreadsheets\/d\/1CQATJl-tyllZyqfHpJqHHe03wxIOEkKPKEdWoCGu-OA\/edit?usp=sharing",
                                "text": "grant proposals in this spreadsheet"
                            },
                            {
                                "type": "text",
                                "text": "  \n2.  "
                            },
                            {
                                "type": "text",
                                "text": "Review each project using ",
                                "style": {
                                    "bold": true
                                }
                            },
                            {
                                "type": "link",
                                "url": "https:\/\/forms.gle\/fkMCxjhXKURwXkoK9",
                                "text": "this form",
                                "style": {
                                    "bold": true
                                }
                            },
                            {
                                "type": "text",
                                "text": "\n\n"
                            },
                            {
                                "type": "text",
                                "text": "We will be conducting more rounds of grant submission in the next few weeks and invite you to review the above projects using our form to help out with this one!",
                                "style": {
                                    "bold": true
                                }
                            },
                            {
                                "type": "text",
                                "text": "\n\n"
                            },
                            {
                                "type": "text",
                                "text": "Thank you everyone, we are proud of the community and the projects you have created, and cannot wait to support them.",
                                "style": {
                                    "bold": true
                                }
                            },
                            {
                                "type": "emoji",
                                "name": "heart",
                                "style": {
                                    "bold": true
                                }
                            },
                            {
                                "type": "text",
                                "text": "  For technical questions related to submissions, please contact "
                            },
                            {
                                "type": "user",
                                "user_id": "U0119SR5LMT"
                            },
                            {
                                "type": "text",
                                "text": "!"
                            }
                        ]
                    }
                ]
            }
        ],
        "user": "UV0QTJCMT",
        "ts": "1586283684.115200",
        "edited": {
            "user": "UV0QTJCMT",
            "ts": "1586283729.000000"
        },
        "client_msg_id": "27c22ebc-6f70-411d-a604-084eb5cb1fd5",
        "thread_ts": "1586283684.115200",
        "reply_count": 2,
        "reply_users_count": 2,
        "latest_reply": "1586293838.119500",
        "reply_users": [
            "UVC9WMA7N",
            "U0119SR5LMT"
        ],
        "replies": [
            {
                "user": "UVC9WMA7N",
                "ts": "1586292310.119100"
            },
            {
                "user": "U0119SR5LMT",
                "ts": "1586293838.119500"
            }
        ],
        "subscribed": false,
        "reactions": [
            {
                "name": "heart",
                "users": [
                    "UV20M5HGQ",
                    "UV02WET96",
                    "UV0RRGB6H",
                    "U011D6K9RH6",
                    "UV1A22N3W",
                    "U0115R9V9CJ"
                ],
                "count": 6
            },
            {
                "name": "raised_hands",
                "users": [
                    "UV02WET96",
                    "UV0RRGB6H"
                ],
                "count": 2
            },
            {
                "name": "mask-parrot",
                "users": [
                    "UV02WET96",
                    "U0119SR5LMT",
                    "U0101DKUALV",
                    "U010B412MF1",
                    "UV0RRGB6H"
                ],
                "count": 5
            },
            {
                "name": "star-struck",
                "users": [
                    "UV9V03C8Y",
                    "U010W4KTANM",
                    "U01113Y1PLP",
                    "UV0RRGB6H"
                ],
                "count": 4
            }
        ]
    },
    {
        "client_msg_id": "37628bcd-f28c-440c-af16-2e5734cbea45",
        "type": "message",
        "text": "and many many thanks to <@U0119SR5LMT> <@UV0RRGB6H> and <@UV9V03C8Y> for helping deliver a better Review process :heart:",
        "user": "UVC9WMA7N",
        "ts": "1586292310.119100",
        "team": "TUU48M0T1",
        "user_team": "TUU48M0T1",
        "source_team": "TUU48M0T1",
        "user_profile": {
            "avatar_hash": "56d14d58ed53",
            "image_72": "https:\/\/avatars.slack-edge.com\/2020-03-13\/998337892660_56d14d58ed537e6e4654_72.png",
            "first_name": "Leo",
            "real_name": "Leo Blondel",
            "display_name": "Leo Blondel - JOGL CoFounder \/ CTO",
            "team": "TUU48M0T1",
            "name": "leo",
            "is_restricted": false,
            "is_ultra_restricted": false
        },
        "blocks": [
            {
                "type": "rich_text",
                "block_id": "Ewp",
                "elements": [
                    {
                        "type": "rich_text_section",
                        "elements": [
                            {
                                "type": "text",
                                "text": "and many many thanks to "
                            },
                            {
                                "type": "user",
                                "user_id": "U0119SR5LMT"
                            },
                            {
                                "type": "text",
                                "text": " "
                            },
                            {
                                "type": "user",
                                "user_id": "UV0RRGB6H"
                            },
                            {
                                "type": "text",
                                "text": " and "
                            },
                            {
                                "type": "user",
                                "user_id": "UV9V03C8Y"
                            },
                            {
                                "type": "text",
                                "text": " for helping deliver a better Review process "
                            },
                            {
                                "type": "emoji",
                                "name": "heart"
                            }
                        ]
                    }
                ]
            }
        ],
        "thread_ts": "1586283684.115200",
        "parent_user_id": "UV0QTJCMT",
        "reactions": [
            {
                "name": "heart",
                "users": [
                    "UV0RRGB6H",
                    "U0119SR5LMT",
                    "UV0QTJCMT"
                ],
                "count": 3
            }
        ]
    },
    {
        "client_msg_id": "8704742f-ee03-4342-b494-df633a8564cb",
        "type": "message",
        "text": "<@UVC9WMA7N> We thank you for your great suggestions too!",
        "user": "U0119SR5LMT",
        "ts": "1586293838.119500",
        "team": "TUU48M0T1",
        "user_team": "TUU48M0T1",
        "source_team": "TUU48M0T1",
        "user_profile": {
            "avatar_hash": "913f9e6efbb8",
            "image_72": "https:\/\/avatars.slack-edge.com\/2020-04-06\/1048088967254_913f9e6efbb86d3e9092_72.jpg",
            "first_name": "",
            "real_name": "Elliot Lawton",
            "display_name": "Elliot Lawton",
            "team": "TUU48M0T1",
            "name": "elliotlawton",
            "is_restricted": false,
            "is_ultra_restricted": false
        },
        "blocks": [
            {
                "type": "rich_text",
                "block_id": "16Te2",
                "elements": [
                    {
                        "type": "rich_text_section",
                        "elements": [
                            {
                                "type": "user",
                                "user_id": "UVC9WMA7N"
                            },
                            {
                                "type": "text",
                                "text": " We thank you for your great suggestions too!"
                            }
                        ]
                    }
                ]
            }
        ],
        "thread_ts": "1586283684.115200",
        "parent_user_id": "UV0QTJCMT"
    },
    {
        "type": "message",
        "text": "Hey all, here’s another announcement for you :blush:: \n\nThe *<#CURG6ALTC|prgm-communications-team>* has developed a set of Google slides that we would like projects to fill out. *If you have something that you want to share during the Wednesday global community calls, please follow the <https:\/\/docs.google.com\/presentation\/d\/1-qHD_mQNyNz7i1ODXg2JSi_Rp-3PdUj3VDa8y3BgAlE\/edit#slide=id.p|instructions> on these slides.* \n\nWe also have our social media accounts up and running! You can follow the initiative by using these links:\nFacebook : <https:\/\/www.facebook.com\/opencovid19|https:\/\/www.facebook.com\/opencovid19>\nTwitter : <https:\/\/twitter.com\/opencovid19|https:\/\/twitter.com\/opencovid19>\nInstagram : <https:\/\/www.instagram.com\/opencovid19\/|https:\/\/www.instagram.com\/opencovid19\/>\nLinkedIn : <https:\/\/www.linkedin.com\/company\/opencovid19\/|https:\/\/www.linkedin.com\/company\/opencovid19\/>\n\nSee you tomorrow at 6PM CET for our Global Community Call! :mask-parrot: ",
        "upload": false,
        "blocks": [
            {
                "type": "rich_text",
                "block_id": "oqdSL",
                "elements": [
                    {
                        "type": "rich_text_section",
                        "elements": [
                            {
                                "type": "text",
                                "text": "Hey all, here’s another announcement for you "
                            },
                            {
                                "type": "emoji",
                                "name": "blush"
                            },
                            {
                                "type": "text",
                                "text": ": \n\nThe "
                            },
                            {
                                "type": "channel",
                                "channel_id": "CURG6ALTC",
                                "style": {
                                    "bold": true
                                }
                            },
                            {
                                "type": "text",
                                "text": " has developed a set of Google slides that we would like projects to fill out. "
                            },
                            {
                                "type": "text",
                                "text": "If you have something that you want to share during the Wednesday global community calls, please follow the ",
                                "style": {
                                    "bold": true
                                }
                            },
                            {
                                "type": "link",
                                "url": "https:\/\/docs.google.com\/presentation\/d\/1-qHD_mQNyNz7i1ODXg2JSi_Rp-3PdUj3VDa8y3BgAlE\/edit#slide=id.p",
                                "text": "instructions",
                                "style": {
                                    "bold": true
                                }
                            },
                            {
                                "type": "text",
                                "text": " on these slides. ",
                                "style": {
                                    "bold": true
                                }
                            },
                            {
                                "type": "text",
                                "text": "\n\nWe also have our social media accounts up and running! You can follow the initiative by using these links:\nFacebook : "
                            },
                            {
                                "type": "link",
                                "url": "https:\/\/www.facebook.com\/opencovid19",
                                "text": "https:\/\/www.facebook.com\/opencovid19"
                            },
                            {
                                "type": "text",
                                "text": "\nTwitter : "
                            },
                            {
                                "type": "link",
                                "url": "https:\/\/twitter.com\/opencovid19",
                                "text": "https:\/\/twitter.com\/opencovid19"
                            },
                            {
                                "type": "text",
                                "text": "\nInstagram : "
                            },
                            {
                                "type": "link",
                                "url": "https:\/\/www.instagram.com\/opencovid19\/",
                                "text": "https:\/\/www.instagram.com\/opencovid19\/"
                            },
                            {
                                "type": "text",
                                "text": "\nLinkedIn : "
                            },
                            {
                                "type": "link",
                                "url": "https:\/\/www.linkedin.com\/company\/opencovid19\/",
                                "text": "https:\/\/www.linkedin.com\/company\/opencovid19\/"
                            },
                            {
                                "type": "text",
                                "text": "\n\nSee you tomorrow at 6PM CET for our Global Community Call! "
                            },
                            {
                                "type": "emoji",
                                "name": "mask-parrot"
                            },
                            {
                                "type": "text",
                                "text": " "
                            }
                        ]
                    }
                ]
            }
        ],
        "user": "UV0QTJCMT",
        "ts": "1586299256.120300",
        "edited": {
            "user": "UV0QTJCMT",
            "ts": "1586305317.000000"
        },
        "client_msg_id": "85D44D4B-08AD-48B2-89EA-77B3A9C2F589",
        "reactions": [
            {
                "name": "raised_hands",
                "users": [
                    "UV02WET96"
                ],
                "count": 1
            },
            {
                "name": "100",
                "users": [
                    "UV02WET96",
                    "U01113Y1PLP"
                ],
                "count": 2
            },
            {
                "name": "heart",
                "users": [
                    "U0119SR5LMT"
                ],
                "count": 1
            }
        ]
    }
]