[
    {
        "client_msg_id": "04fc2fe6-a3ae-4039-885f-919adfc08f59",
        "type": "message",
        "text": ":bulb:Hello wonderful community! <!channel>\nAs this community is growing, we want to keep making it better!\n\n:grey_question:*What could be improved in the Opencovid19 initiative?* :grey_question:\n\nPlease provide your suggestion as comments below or use the <#C011WHJTPDH|suggestions-box>!\nWe will review them weekly and implement solutions in the shortest delay.",
        "user": "UV9V03C8Y",
        "ts": "1588605800.334000",
        "team": "TUU48M0T1",
        "user_team": "TUU48M0T1",
        "source_team": "TUU48M0T1",
        "user_profile": {
            "avatar_hash": "177697fb7b8f",
            "image_72": "https:\/\/avatars.slack-edge.com\/2020-03-12\/996126178096_177697fb7b8ffa57649c_72.jpg",
            "first_name": "Camille",
            "real_name": "Camille Masselot - JOGL Program coordinator",
            "display_name": "Camille Masselot - JOGL coordinator",
            "team": "TUU48M0T1",
            "name": "masselot.camille",
            "is_restricted": false,
            "is_ultra_restricted": false
        },
        "blocks": [
            {
                "type": "rich_text",
                "block_id": "ZuL2",
                "elements": [
                    {
                        "type": "rich_text_section",
                        "elements": [
                            {
                                "type": "emoji",
                                "name": "bulb"
                            },
                            {
                                "type": "text",
                                "text": "Hello wonderful community! "
                            },
                            {
                                "type": "broadcast",
                                "range": "channel"
                            },
                            {
                                "type": "text",
                                "text": "\nAs this community is growing, we want to keep making it better!\n\n"
                            },
                            {
                                "type": "emoji",
                                "name": "grey_question",
                                "style": {
                                    "bold": true
                                }
                            },
                            {
                                "type": "text",
                                "text": "What could be improved in the Opencovid19 initiative? ",
                                "style": {
                                    "bold": true
                                }
                            },
                            {
                                "type": "emoji",
                                "name": "grey_question",
                                "style": {
                                    "bold": true
                                }
                            },
                            {
                                "type": "text",
                                "text": "\n\nPlease provide your suggestion as comments below or use the "
                            },
                            {
                                "type": "channel",
                                "channel_id": "C011WHJTPDH"
                            },
                            {
                                "type": "text",
                                "text": "!\nWe will review them weekly and implement solutions in the shortest delay."
                            }
                        ]
                    }
                ]
            }
        ],
        "thread_ts": "1588605800.334000",
        "reply_count": 4,
        "reply_users_count": 4,
        "latest_reply": "1589226707.366800",
        "reply_users": [
            "U010WKVUFFY",
            "UV9V03C8Y",
            "U011B6VLM2A",
            "U0108GQLD0T"
        ],
        "replies": [
            {
                "user": "U010WKVUFFY",
                "ts": "1588613203.334600"
            },
            {
                "user": "UV9V03C8Y",
                "ts": "1588613315.334800"
            },
            {
                "user": "U011B6VLM2A",
                "ts": "1588676000.335900"
            },
            {
                "user": "U0108GQLD0T",
                "ts": "1589226707.366800"
            }
        ],
        "subscribed": false,
        "reactions": [
            {
                "name": "mask-parrot",
                "users": [
                    "U011D8T1Z61",
                    "U011B6VLM2A",
                    "UV0QTJCMT",
                    "UV02WET96"
                ],
                "count": 4
            },
            {
                "name": "grin",
                "users": [
                    "U0103SR759U"
                ],
                "count": 1
            },
            {
                "name": "+1",
                "users": [
                    "U011G0QGFN3"
                ],
                "count": 1
            }
        ]
    },
    {
        "client_msg_id": "6514e7b5-f406-4094-9b36-42283aa7b9ed",
        "type": "message",
        "text": "I think more media outreach could be useful, the concept of open source working together towards COVID is awesome, the community is awesome and I feel like the rest of the world needs to know about it! This could help provide even more funding and public support for the projects here, and draw more people to volunteer! It could be a Facebook\/Instagram post or account for instance showing updates on the projects",
        "user": "U010WKVUFFY",
        "ts": "1588613203.334600",
        "team": "TUU48M0T1",
        "user_team": "TUU48M0T1",
        "source_team": "TUU48M0T1",
        "user_profile": {
            "avatar_hash": "gf0c9e06eebd",
            "image_72": "https:\/\/secure.gravatar.com\/avatar\/f0c9e06eebd0184ffae109da36b04f9d.jpg?s=72&d=https%3A%2F%2Fa.slack-edge.com%2Fdf10d%2Fimg%2Favatars%2Fava_0024-72.png",
            "first_name": "",
            "real_name": "Nicholas Crudele",
            "display_name": "Nicholas Crudele",
            "team": "TUU48M0T1",
            "name": "nicoharacrudele4",
            "is_restricted": false,
            "is_ultra_restricted": false
        },
        "blocks": [
            {
                "type": "rich_text",
                "block_id": "jykJ",
                "elements": [
                    {
                        "type": "rich_text_section",
                        "elements": [
                            {
                                "type": "text",
                                "text": "I think more media outreach could be useful, the concept of open source working together towards COVID is awesome, the community is awesome and I feel like the rest of the world needs to know about it! This could help provide even more funding and public support for the projects here, and draw more people to volunteer! It could be a Facebook\/Instagram post or account for instance showing updates on the projects"
                            }
                        ]
                    }
                ]
            }
        ],
        "thread_ts": "1588605800.334000",
        "parent_user_id": "UV9V03C8Y"
    },
    {
        "client_msg_id": "09f829f6-0ead-4d98-91ce-7f718c5c4d02",
        "type": "message",
        "text": "Thanks <@U010WKVUFFY>! <!subteam^S012DF438LW|@communications-team> shall we let the world know :wink:?",
        "user": "UV9V03C8Y",
        "ts": "1588613315.334800",
        "team": "TUU48M0T1",
        "user_team": "TUU48M0T1",
        "source_team": "TUU48M0T1",
        "user_profile": {
            "avatar_hash": "177697fb7b8f",
            "image_72": "https:\/\/avatars.slack-edge.com\/2020-03-12\/996126178096_177697fb7b8ffa57649c_72.jpg",
            "first_name": "Camille",
            "real_name": "Camille Masselot - JOGL Program coordinator",
            "display_name": "Camille Masselot - JOGL coordinator",
            "team": "TUU48M0T1",
            "name": "masselot.camille",
            "is_restricted": false,
            "is_ultra_restricted": false
        },
        "blocks": [
            {
                "type": "rich_text",
                "block_id": "rxG",
                "elements": [
                    {
                        "type": "rich_text_section",
                        "elements": [
                            {
                                "type": "text",
                                "text": "Thanks "
                            },
                            {
                                "type": "user",
                                "user_id": "U010WKVUFFY"
                            },
                            {
                                "type": "text",
                                "text": "! "
                            },
                            {
                                "type": "usergroup",
                                "usergroup_id": "S012DF438LW"
                            },
                            {
                                "type": "text",
                                "text": " shall we let the world know "
                            },
                            {
                                "type": "emoji",
                                "name": "wink"
                            },
                            {
                                "type": "text",
                                "text": "?"
                            }
                        ]
                    }
                ]
            }
        ],
        "thread_ts": "1588605800.334000",
        "parent_user_id": "UV9V03C8Y"
    }
]