[
    {
        "client_msg_id": "660ee680-c87a-4fc9-bc5d-3f69eeff7bb8",
        "type": "message",
        "text": "it is tonight for the first round",
        "user": "UV02WET96",
        "ts": "1586170547.106900",
        "team": "TUU48M0T1",
        "user_team": "TUU48M0T1",
        "source_team": "TUU48M0T1",
        "user_profile": {
            "avatar_hash": "a99c74a194f8",
            "image_72": "https:\/\/avatars.slack-edge.com\/2020-03-07\/975708504851_a99c74a194f86715ca7d_72.png",
            "first_name": "Thomas",
            "real_name": "Thomas Landrain",
            "display_name": "Thomas Landrain - JOGL CoFounder \/ CEO",
            "team": "TUU48M0T1",
            "name": "thomas",
            "is_restricted": false,
            "is_ultra_restricted": false
        },
        "blocks": [
            {
                "type": "rich_text",
                "block_id": "f15q",
                "elements": [
                    {
                        "type": "rich_text_section",
                        "elements": [
                            {
                                "type": "text",
                                "text": "it is tonight for the first round"
                            }
                        ]
                    }
                ]
            }
        ],
        "thread_ts": "1585788833.070700",
        "parent_user_id": "UV02WET96"
    },
    {
        "client_msg_id": "bb354ff5-d214-4346-8392-b1c083c70913",
        "type": "message",
        "text": "but there will be a second round in a week too",
        "user": "UV02WET96",
        "ts": "1586170557.107100",
        "team": "TUU48M0T1",
        "user_team": "TUU48M0T1",
        "source_team": "TUU48M0T1",
        "user_profile": {
            "avatar_hash": "a99c74a194f8",
            "image_72": "https:\/\/avatars.slack-edge.com\/2020-03-07\/975708504851_a99c74a194f86715ca7d_72.png",
            "first_name": "Thomas",
            "real_name": "Thomas Landrain",
            "display_name": "Thomas Landrain - JOGL CoFounder \/ CEO",
            "team": "TUU48M0T1",
            "name": "thomas",
            "is_restricted": false,
            "is_ultra_restricted": false
        },
        "blocks": [
            {
                "type": "rich_text",
                "block_id": "+6O",
                "elements": [
                    {
                        "type": "rich_text_section",
                        "elements": [
                            {
                                "type": "text",
                                "text": "but there will be a second round in a week too"
                            }
                        ]
                    }
                ]
            }
        ],
        "thread_ts": "1585788833.070700",
        "parent_user_id": "UV02WET96"
    }
]