[
    {
        "client_msg_id": "ce12a8df-1bd8-4094-8944-56b9ceff4700",
        "type": "message",
        "text": "*@everyone Applications are now closed for Wave 2 Grant submission!*:cov: *It is review time!! Please join our pool of reviewers and help us evaluate the projects that applied.*\n\n:writing_hand:*To help review our projects and speed up the review process please use this link -&gt; <https:\/\/forms.gle\/B7A4XCWP98e955NB9|https:\/\/forms.gle\/B7A4XCWP98e955NB9>! &lt;-Your scientific opinion matters.*:writing_hand: \n\n*We rely on this crowd sourced feedback from experts like yourselves to make funding decisions* and you may review as many projects as you like. You can see which projects have been submitted on the review form above. The deadline for reviews will likely be Sunday 8am UTC dependent on your help!\n\n*Thank you for all your work against COVID-19, your proposal submissions and to all who are helping this community thrive!*",
        "user": "UV0RRGB6H",
        "ts": "1587375285.255800",
        "team": "TUU48M0T1",
        "user_team": "TUU48M0T1",
        "source_team": "TUU48M0T1",
        "user_profile": {
            "avatar_hash": "48d4ab64c90c",
            "image_72": "https:\/\/avatars.slack-edge.com\/2020-03-26\/1029789176912_48d4ab64c90c03f3af4a_72.jpg",
            "first_name": "",
            "real_name": "Chris LB Graham",
            "display_name": "",
            "team": "TUU48M0T1",
            "name": "chris.graham",
            "is_restricted": false,
            "is_ultra_restricted": false
        },
        "edited": {
            "user": "UV0RRGB6H",
            "ts": "1587399786.000000"
        },
        "blocks": [
            {
                "type": "rich_text",
                "block_id": "o=IsN",
                "elements": [
                    {
                        "type": "rich_text_section",
                        "elements": [
                            {
                                "type": "text",
                                "text": "@everyone",
                                "style": {
                                    "bold": true
                                }
                            },
                            {
                                "type": "text",
                                "text": " Applications are now closed for Wave 2 Grant submission!",
                                "style": {
                                    "bold": true
                                }
                            },
                            {
                                "type": "emoji",
                                "name": "cov"
                            },
                            {
                                "type": "text",
                                "text": " It is review time!! Please join our pool of reviewers and help us evaluate the projects that applied.",
                                "style": {
                                    "bold": true
                                }
                            },
                            {
                                "type": "text",
                                "text": "\n\n"
                            },
                            {
                                "type": "emoji",
                                "name": "writing_hand"
                            },
                            {
                                "type": "text",
                                "text": "To help review our projects and speed up the review process please use this link -> ",
                                "style": {
                                    "bold": true
                                }
                            },
                            {
                                "type": "link",
                                "url": "https:\/\/forms.gle\/B7A4XCWP98e955NB9",
                                "text": "https:\/\/forms.gle\/B7A4XCWP98e955NB9",
                                "style": {
                                    "bold": true
                                }
                            },
                            {
                                "type": "text",
                                "text": "! <-Your scientific opinion matters.",
                                "style": {
                                    "bold": true
                                }
                            },
                            {
                                "type": "emoji",
                                "name": "writing_hand"
                            },
                            {
                                "type": "text",
                                "text": " ",
                                "style": {
                                    "bold": true
                                }
                            },
                            {
                                "type": "text",
                                "text": "\n\n"
                            },
                            {
                                "type": "text",
                                "text": "We rely on this crowd sourced feedback from experts like yourselves to make funding decisions ",
                                "style": {
                                    "bold": true
                                }
                            },
                            {
                                "type": "text",
                                "text": "and"
                            },
                            {
                                "type": "text",
                                "text": " ",
                                "style": {
                                    "bold": true
                                }
                            },
                            {
                                "type": "text",
                                "text": "you may review as many projects as you like. You can see which projects have been submitted on the review form above. The deadline for reviews will likely be Sunday 8am UTC dependent on your help!\n\n"
                            },
                            {
                                "type": "text",
                                "text": "Thank you for all your work against COVID-19, your proposal submissions and to all who are helping this community thrive!",
                                "style": {
                                    "bold": true
                                }
                            }
                        ]
                    }
                ]
            }
        ],
        "thread_ts": "1587375285.255800",
        "reply_count": 4,
        "reply_users_count": 2,
        "latest_reply": "1587376361.257400",
        "reply_users": [
            "UVDJ0PAQK",
            "UV0RRGB6H"
        ],
        "replies": [
            {
                "user": "UVDJ0PAQK",
                "ts": "1587375433.256400"
            },
            {
                "user": "UV0RRGB6H",
                "ts": "1587376224.256900"
            },
            {
                "user": "UVDJ0PAQK",
                "ts": "1587376252.257200"
            },
            {
                "user": "UV0RRGB6H",
                "ts": "1587376361.257400"
            }
        ],
        "subscribed": false,
        "reactions": [
            {
                "name": "+1",
                "users": [
                    "UUWPKNE2E",
                    "UV85V64SD",
                    "UVDJ0PAQK",
                    "U010B4EJG2C",
                    "U010B412MF1",
                    "UV02WET96",
                    "U0119SR5LMT",
                    "UV10KBUQG",
                    "UV0RRGB6H",
                    "U010Q3372P3",
                    "UV0QTJCMT",
                    "U011KG47FMW"
                ],
                "count": 12
            },
            {
                "name": "boom",
                "users": [
                    "UV9V03C8Y",
                    "UV02WET96",
                    "U0119SR5LMT",
                    "UV0RRGB6H",
                    "U011G0QGFN3"
                ],
                "count": 5
            },
            {
                "name": "heart",
                "users": [
                    "U0119SR5LMT",
                    "U011D6K9RH6"
                ],
                "count": 2
            },
            {
                "name": "mask-parrot",
                "users": [
                    "U0119SR5LMT",
                    "U011ANKLTNG",
                    "UV02WET96",
                    "U010B412MF1"
                ],
                "count": 4
            },
            {
                "name": "raised_hands",
                "users": [
                    "U0119SR5LMT"
                ],
                "count": 1
            }
        ]
    },
    {
        "client_msg_id": "845f623b-3a75-47d1-a8e8-477f32b314e0",
        "type": "message",
        "text": "is there a deadline to the review process? :slightly_smiling_face:",
        "user": "UVDJ0PAQK",
        "ts": "1587375433.256400",
        "team": "TUU48M0T1",
        "user_team": "TUU48M0T1",
        "source_team": "TUU48M0T1",
        "user_profile": {
            "avatar_hash": "0fab15eaefc9",
            "image_72": "https:\/\/avatars.slack-edge.com\/2020-03-19\/998337427074_0fab15eaefc9bfa8d59c_72.jpg",
            "first_name": "Bastian",
            "real_name": "Bastian Greshake Tzovaras",
            "display_name": "Bastian Greshake Tzovaras",
            "team": "TUU48M0T1",
            "name": "bastian.greshake-tzov",
            "is_restricted": false,
            "is_ultra_restricted": false
        },
        "blocks": [
            {
                "type": "rich_text",
                "block_id": "We\/IU",
                "elements": [
                    {
                        "type": "rich_text_section",
                        "elements": [
                            {
                                "type": "text",
                                "text": "is there a deadline to the review process? "
                            },
                            {
                                "type": "emoji",
                                "name": "slightly_smiling_face"
                            }
                        ]
                    }
                ]
            }
        ],
        "thread_ts": "1587375285.255800",
        "parent_user_id": "UV0RRGB6H"
    },
    {
        "client_msg_id": "62ee6684-1809-403a-8608-72e63c2ae3bc",
        "type": "message",
        "text": "Updated the message above :slightly_smiling_face:",
        "user": "UV0RRGB6H",
        "ts": "1587376224.256900",
        "team": "TUU48M0T1",
        "user_team": "TUU48M0T1",
        "source_team": "TUU48M0T1",
        "user_profile": {
            "avatar_hash": "48d4ab64c90c",
            "image_72": "https:\/\/avatars.slack-edge.com\/2020-03-26\/1029789176912_48d4ab64c90c03f3af4a_72.jpg",
            "first_name": "",
            "real_name": "Chris LB Graham",
            "display_name": "",
            "team": "TUU48M0T1",
            "name": "chris.graham",
            "is_restricted": false,
            "is_ultra_restricted": false
        },
        "blocks": [
            {
                "type": "rich_text",
                "block_id": "Hz4",
                "elements": [
                    {
                        "type": "rich_text_section",
                        "elements": [
                            {
                                "type": "text",
                                "text": "Updated the message above "
                            },
                            {
                                "type": "emoji",
                                "name": "slightly_smiling_face"
                            }
                        ]
                    }
                ]
            }
        ],
        "thread_ts": "1587375285.255800",
        "parent_user_id": "UV0RRGB6H",
        "reactions": [
            {
                "name": "+1",
                "users": [
                    "UVDJ0PAQK"
                ],
                "count": 1
            }
        ]
    },
    {
        "client_msg_id": "5abb2c2a-4448-4d5c-8524-50387ca6b78d",
        "type": "message",
        "text": "thanks, always good to have a deadline to make sure people don’t procrastinate ad infinitum :smile:",
        "user": "UVDJ0PAQK",
        "ts": "1587376252.257200",
        "team": "TUU48M0T1",
        "user_team": "TUU48M0T1",
        "source_team": "TUU48M0T1",
        "user_profile": {
            "avatar_hash": "0fab15eaefc9",
            "image_72": "https:\/\/avatars.slack-edge.com\/2020-03-19\/998337427074_0fab15eaefc9bfa8d59c_72.jpg",
            "first_name": "Bastian",
            "real_name": "Bastian Greshake Tzovaras",
            "display_name": "Bastian Greshake Tzovaras",
            "team": "TUU48M0T1",
            "name": "bastian.greshake-tzov",
            "is_restricted": false,
            "is_ultra_restricted": false
        },
        "blocks": [
            {
                "type": "rich_text",
                "block_id": "Ia1",
                "elements": [
                    {
                        "type": "rich_text_section",
                        "elements": [
                            {
                                "type": "text",
                                "text": "thanks, always good to have a deadline to make sure people don’t procrastinate ad infinitum "
                            },
                            {
                                "type": "emoji",
                                "name": "smile"
                            }
                        ]
                    }
                ]
            }
        ],
        "thread_ts": "1587375285.255800",
        "parent_user_id": "UV0RRGB6H",
        "reactions": [
            {
                "name": "sweat_smile",
                "users": [
                    "UV0RRGB6H",
                    "U010B412MF1"
                ],
                "count": 2
            }
        ]
    },
    {
        "client_msg_id": "23d31055-397b-468d-a035-028d55810677",
        "type": "message",
        "text": "Its an odd process to set deadlines when the deadline itself relies on the number of submissions. This should be sufficient time to have a high number of reviews though. I thought the same",
        "user": "UV0RRGB6H",
        "ts": "1587376361.257400",
        "team": "TUU48M0T1",
        "user_team": "TUU48M0T1",
        "source_team": "TUU48M0T1",
        "user_profile": {
            "avatar_hash": "48d4ab64c90c",
            "image_72": "https:\/\/avatars.slack-edge.com\/2020-03-26\/1029789176912_48d4ab64c90c03f3af4a_72.jpg",
            "first_name": "",
            "real_name": "Chris LB Graham",
            "display_name": "",
            "team": "TUU48M0T1",
            "name": "chris.graham",
            "is_restricted": false,
            "is_ultra_restricted": false
        },
        "blocks": [
            {
                "type": "rich_text",
                "block_id": "kKWb",
                "elements": [
                    {
                        "type": "rich_text_section",
                        "elements": [
                            {
                                "type": "text",
                                "text": "Its an odd process to set deadlines when the deadline itself relies on the number of submissions. This should be sufficient time to have a high number of reviews though. I thought the same"
                            }
                        ]
                    }
                ]
            }
        ],
        "thread_ts": "1587375285.255800",
        "parent_user_id": "UV0RRGB6H",
        "reactions": [
            {
                "name": "+1",
                "users": [
                    "UVDJ0PAQK",
                    "U010B412MF1"
                ],
                "count": 2
            }
        ]
    }
]