[
    {
        "client_msg_id": "eee27652-7b85-4e32-8ce7-6105ea2f0c62",
        "type": "message",
        "text": "<https:\/\/open-covid19.slack.com\/archives\/C0104ANKV4L\/p1584689911119000>",
        "user": "U01081Y0TBP",
        "ts": "1584693176.198000",
        "team": "TUU48M0T1",
        "user_team": "TUU48M0T1",
        "source_team": "TUU48M0T1",
        "user_profile": {
            "avatar_hash": "60ec5b47107a",
            "image_72": "https:\/\/avatars.slack-edge.com\/2020-03-18\/995274181218_60ec5b47107a3bd2ca7d_72.jpg",
            "first_name": "Peter",
            "real_name": "Peter Kooren",
            "display_name": "Peter Kooren",
            "team": "TUU48M0T1",
            "name": "peterkooren",
            "is_restricted": false,
            "is_ultra_restricted": false
        },
        "attachments": [
            {
                "from_url": "https:\/\/open-covid19.slack.com\/archives\/C0104ANKV4L\/p1584689911119000",
                "fallback": "[March 20th, 2020 12:38 AM] peterkooren: <https:\/\/www.rtvdrenthe.nl\/nieuws\/158287\/Medewerker-WZA-ontdekt-oplossing-voor-tekort-mondkapjes|https:\/\/www.rtvdrenthe.nl\/nieuws\/158287\/Medewerker-WZA-ontdekt-oplossing-voor-tekort-mondkapjes>\nDoes Google translate work well enough to understand this Dutch post?",
                "ts": "1584689911.119000",
                "author_id": "U01081Y0TBP",
                "author_subname": "Peter Kooren",
                "channel_id": "C0104ANKV4L",
                "channel_name": "proj-mask-team",
                "is_msg_unfurl": true,
                "is_thread_root_unfurl": true,
                "text": "<https:\/\/www.rtvdrenthe.nl\/nieuws\/158287\/Medewerker-WZA-ontdekt-oplossing-voor-tekort-mondkapjes|https:\/\/www.rtvdrenthe.nl\/nieuws\/158287\/Medewerker-WZA-ontdekt-oplossing-voor-tekort-mondkapjes>\nDoes Google translate work well enough to understand this Dutch post?",
                "author_name": "Peter Kooren",
                "author_link": "https:\/\/open-covid19.slack.com\/team\/U01081Y0TBP",
                "author_icon": "https:\/\/avatars.slack-edge.com\/2020-03-18\/995274181218_60ec5b47107a3bd2ca7d_48.jpg",
                "mrkdwn_in": [
                    "text"
                ],
                "id": 1,
                "original_url": "https:\/\/open-covid19.slack.com\/archives\/C0104ANKV4L\/p1584689911119000",
                "footer": "Thread in #proj-mask-team"
            }
        ],
        "blocks": [
            {
                "type": "rich_text",
                "block_id": "w75bB",
                "elements": [
                    {
                        "type": "rich_text_section",
                        "elements": [
                            {
                                "type": "link",
                                "url": "https:\/\/open-covid19.slack.com\/archives\/C0104ANKV4L\/p1584689911119000"
                            }
                        ]
                    }
                ]
            }
        ],
        "thread_ts": "1584658509.184300",
        "parent_user_id": "UV02WET96"
    },
    {
        "client_msg_id": "b415a2ac-c4c1-4d45-9138-1ea82450e644",
        "type": "message",
        "text": "This guy is using polypropylene from packaging of surgical instruments to make masks",
        "user": "U01081Y0TBP",
        "ts": "1584693283.198300",
        "team": "TUU48M0T1",
        "user_team": "TUU48M0T1",
        "source_team": "TUU48M0T1",
        "user_profile": {
            "avatar_hash": "60ec5b47107a",
            "image_72": "https:\/\/avatars.slack-edge.com\/2020-03-18\/995274181218_60ec5b47107a3bd2ca7d_72.jpg",
            "first_name": "Peter",
            "real_name": "Peter Kooren",
            "display_name": "Peter Kooren",
            "team": "TUU48M0T1",
            "name": "peterkooren",
            "is_restricted": false,
            "is_ultra_restricted": false
        },
        "blocks": [
            {
                "type": "rich_text",
                "block_id": "OmLn",
                "elements": [
                    {
                        "type": "rich_text_section",
                        "elements": [
                            {
                                "type": "text",
                                "text": "This guy is using polypropylene from packaging of surgical instruments to make masks"
                            }
                        ]
                    }
                ]
            }
        ],
        "thread_ts": "1584658509.184300",
        "parent_user_id": "UV02WET96"
    },
    {
        "client_msg_id": "9e924833-f2c9-4602-95d5-9ad723b7a7d2",
        "type": "message",
        "text": "guy's hello, i post this yesterday and nobody respond...\n\n<https:\/\/open-covid19.slack.com\/archives\/C0104ANKV4L\/p1584615993037900>",
        "user": "UVCDJN550",
        "ts": "1584694790.198600",
        "team": "TUU48M0T1",
        "user_team": "TUU48M0T1",
        "source_team": "TUU48M0T1",
        "user_profile": {
            "avatar_hash": "d7c31a9e4979",
            "image_72": "https:\/\/avatars.slack-edge.com\/2020-03-19\/1010803189956_d7c31a9e4979530c4453_72.jpg",
            "first_name": "",
            "real_name": "Tifox",
            "display_name": "Tifox",
            "team": "TUU48M0T1",
            "name": "tifox_jogl",
            "is_restricted": false,
            "is_ultra_restricted": false
        },
        "attachments": [
            {
                "from_url": "https:\/\/open-covid19.slack.com\/archives\/C0104ANKV4L\/p1584615993037900",
                "fallback": "[March 19th, 2020 4:06 AM] tifox_jogl: Hi, i'm from Paris :fr: , i have a prototype of mask, HEPA filter, reusable 'cartridge'\n\ni come from another discord (entraide maker - COVID 19), do you have any clue how i can test the compliancy of this mask ?\n\nI join a demo of assembling cartridge on the mask and pics of the cartridge \/ filter\n\nthank you all",
                "ts": "1584615993.037900",
                "author_id": "UVCDJN550",
                "author_subname": "Tifox",
                "channel_id": "C0104ANKV4L",
                "channel_name": "proj-mask-team",
                "is_msg_unfurl": true,
                "text": "Hi, i'm from Paris :fr: , i have a prototype of mask, HEPA filter, reusable 'cartridge'\n\ni come from another discord (entraide maker - COVID 19), do you have any clue how i can test the compliancy of this mask ?\n\nI join a demo of assembling cartridge on the mask and pics of the cartridge \/ filter\n\nthank you all",
                "author_name": "Tifox",
                "author_link": "https:\/\/open-covid19.slack.com\/team\/UVCDJN550",
                "author_icon": "https:\/\/avatars.slack-edge.com\/2020-03-19\/1010803189956_d7c31a9e4979530c4453_48.jpg",
                "mrkdwn_in": [
                    "text"
                ],
                "files": [
                    {
                        "id": "FVDUA4EH1",
                        "created": 1584615984,
                        "timestamp": 1584615984,
                        "name": "62705815-0583-4b57-af6d-86a0d2999c1b.mp4",
                        "title": "62705815-0583-4b57-af6d-86a0d2999c1b.mp4",
                        "mimetype": "video\/mp4",
                        "filetype": "mp4",
                        "pretty_type": "MPEG 4 Video",
                        "user": "UVCDJN550",
                        "editable": false,
                        "size": 39994581,
                        "mode": "hosted",
                        "is_external": false,
                        "external_type": "",
                        "is_public": true,
                        "public_url_shared": false,
                        "display_as_bot": false,
                        "username": "",
                        "url_private": "https:\/\/files.slack.com\/files-pri\/TUU48M0T1-FVDUA4EH1\/62705815-0583-4b57-af6d-86a0d2999c1b.mp4",
                        "url_private_download": "https:\/\/files.slack.com\/files-pri\/TUU48M0T1-FVDUA4EH1\/download\/62705815-0583-4b57-af6d-86a0d2999c1b.mp4",
                        "thumb_video": "https:\/\/files.slack.com\/files-tmb\/TUU48M0T1-FVDUA4EH1-abb40d006d\/62705815-0583-4b57-af6d-86a0d2999c1b_thumb_video.jpeg",
                        "permalink": "https:\/\/open-covid19.slack.com\/files\/UVCDJN550\/FVDUA4EH1\/62705815-0583-4b57-af6d-86a0d2999c1b.mp4",
                        "permalink_public": "https:\/\/slack-files.com\/TUU48M0T1-FVDUA4EH1-353ef5e1cd",
                        "has_rich_preview": false
                    },
                    {
                        "id": "F010BCMDY0Y",
                        "created": 1584615984,
                        "timestamp": 1584615984,
                        "name": "e2098749-0d6d-406b-a950-a8ffa56c4482.jpg",
                        "title": "e2098749-0d6d-406b-a950-a8ffa56c4482.jpg",
                        "mimetype": "image\/jpeg",
                        "filetype": "jpg",
                        "pretty_type": "JPEG",
                        "user": "UVCDJN550",
                        "editable": false,
                        "size": 291155,
                        "mode": "hosted",
                        "is_external": false,
                        "external_type": "",
                        "is_public": true,
                        "public_url_shared": false,
                        "display_as_bot": false,
                        "username": "",
                        "url_private": "https:\/\/files.slack.com\/files-pri\/TUU48M0T1-F010BCMDY0Y\/e2098749-0d6d-406b-a950-a8ffa56c4482.jpg",
                        "url_private_download": "https:\/\/files.slack.com\/files-pri\/TUU48M0T1-F010BCMDY0Y\/download\/e2098749-0d6d-406b-a950-a8ffa56c4482.jpg",
                        "thumb_64": "https:\/\/files.slack.com\/files-tmb\/TUU48M0T1-F010BCMDY0Y-a5aa4ffbc5\/e2098749-0d6d-406b-a950-a8ffa56c4482_64.jpg",
                        "thumb_80": "https:\/\/files.slack.com\/files-tmb\/TUU48M0T1-F010BCMDY0Y-a5aa4ffbc5\/e2098749-0d6d-406b-a950-a8ffa56c4482_80.jpg",
                        "thumb_360": "https:\/\/files.slack.com\/files-tmb\/TUU48M0T1-F010BCMDY0Y-a5aa4ffbc5\/e2098749-0d6d-406b-a950-a8ffa56c4482_360.jpg",
                        "thumb_360_w": 270,
                        "thumb_360_h": 360,
                        "thumb_480": "https:\/\/files.slack.com\/files-tmb\/TUU48M0T1-F010BCMDY0Y-a5aa4ffbc5\/e2098749-0d6d-406b-a950-a8ffa56c4482_480.jpg",
                        "thumb_480_w": 360,
                        "thumb_480_h": 480,
                        "thumb_160": "https:\/\/files.slack.com\/files-tmb\/TUU48M0T1-F010BCMDY0Y-a5aa4ffbc5\/e2098749-0d6d-406b-a950-a8ffa56c4482_160.jpg",
                        "thumb_720": "https:\/\/files.slack.com\/files-tmb\/TUU48M0T1-F010BCMDY0Y-a5aa4ffbc5\/e2098749-0d6d-406b-a950-a8ffa56c4482_720.jpg",
                        "thumb_720_w": 540,
                        "thumb_720_h": 720,
                        "thumb_800": "https:\/\/files.slack.com\/files-tmb\/TUU48M0T1-F010BCMDY0Y-a5aa4ffbc5\/e2098749-0d6d-406b-a950-a8ffa56c4482_800.jpg",
                        "thumb_800_w": 800,
                        "thumb_800_h": 1067,
                        "thumb_960": "https:\/\/files.slack.com\/files-tmb\/TUU48M0T1-F010BCMDY0Y-a5aa4ffbc5\/e2098749-0d6d-406b-a950-a8ffa56c4482_960.jpg",
                        "thumb_960_w": 720,
                        "thumb_960_h": 960,
                        "thumb_1024": "https:\/\/files.slack.com\/files-tmb\/TUU48M0T1-F010BCMDY0Y-a5aa4ffbc5\/e2098749-0d6d-406b-a950-a8ffa56c4482_1024.jpg",
                        "thumb_1024_w": 768,
                        "thumb_1024_h": 1024,
                        "image_exif_rotation": 1,
                        "original_w": 3000,
                        "original_h": 4000,
                        "thumb_tiny": "AwAwACSQDHA6U4U3gUm8BsEnPoAakZIKXNRLImeA2T\/smn55wQQevIxTAXNFJRQBGakt2+V\/r\/SoXYBTmmwzqoYFgOaEJl8NUUx\/eL\/ummpOmPvL+dDuGdcEHg9KpiQpHvSYpRS1JRRnPyVUIqViQNp6dqZQBPDjHIq0hA6CqcZIA9B2q0hBFAE4PFGabkUbh60Af\/\/Z",
                        "permalink": "https:\/\/open-covid19.slack.com\/files\/UVCDJN550\/F010BCMDY0Y\/e2098749-0d6d-406b-a950-a8ffa56c4482.jpg",
                        "permalink_public": "https:\/\/slack-files.com\/TUU48M0T1-F010BCMDY0Y-ecfd4d5219",
                        "has_rich_preview": false
                    },
                    {
                        "id": "F010BCMDYBA",
                        "created": 1584615984,
                        "timestamp": 1584615984,
                        "name": "c4a2df25-d907-47d6-b36c-26bf3a051d92.jpg",
                        "title": "c4a2df25-d907-47d6-b36c-26bf3a051d92.jpg",
                        "mimetype": "image\/jpeg",
                        "filetype": "jpg",
                        "pretty_type": "JPEG",
                        "user": "UVCDJN550",
                        "editable": false,
                        "size": 538028,
                        "mode": "hosted",
                        "is_external": false,
                        "external_type": "",
                        "is_public": true,
                        "public_url_shared": false,
                        "display_as_bot": false,
                        "username": "",
                        "url_private": "https:\/\/files.slack.com\/files-pri\/TUU48M0T1-F010BCMDYBA\/c4a2df25-d907-47d6-b36c-26bf3a051d92.jpg",
                        "url_private_download": "https:\/\/files.slack.com\/files-pri\/TUU48M0T1-F010BCMDYBA\/download\/c4a2df25-d907-47d6-b36c-26bf3a051d92.jpg",
                        "thumb_64": "https:\/\/files.slack.com\/files-tmb\/TUU48M0T1-F010BCMDYBA-132154a406\/c4a2df25-d907-47d6-b36c-26bf3a051d92_64.jpg",
                        "thumb_80": "https:\/\/files.slack.com\/files-tmb\/TUU48M0T1-F010BCMDYBA-132154a406\/c4a2df25-d907-47d6-b36c-26bf3a051d92_80.jpg",
                        "thumb_360": "https:\/\/files.slack.com\/files-tmb\/TUU48M0T1-F010BCMDYBA-132154a406\/c4a2df25-d907-47d6-b36c-26bf3a051d92_360.jpg",
                        "thumb_360_w": 360,
                        "thumb_360_h": 270,
                        "thumb_480": "https:\/\/files.slack.com\/files-tmb\/TUU48M0T1-F010BCMDYBA-132154a406\/c4a2df25-d907-47d6-b36c-26bf3a051d92_480.jpg",
                        "thumb_480_w": 480,
                        "thumb_480_h": 360,
                        "thumb_160": "https:\/\/files.slack.com\/files-tmb\/TUU48M0T1-F010BCMDYBA-132154a406\/c4a2df25-d907-47d6-b36c-26bf3a051d92_160.jpg",
                        "thumb_720": "https:\/\/files.slack.com\/files-tmb\/TUU48M0T1-F010BCMDYBA-132154a406\/c4a2df25-d907-47d6-b36c-26bf3a051d92_720.jpg",
                        "thumb_720_w": 720,
                        "thumb_720_h": 540,
                        "thumb_800": "https:\/\/files.slack.com\/files-tmb\/TUU48M0T1-F010BCMDYBA-132154a406\/c4a2df25-d907-47d6-b36c-26bf3a051d92_800.jpg",
                        "thumb_800_w": 800,
                        "thumb_800_h": 600,
                        "thumb_960": "https:\/\/files.slack.com\/files-tmb\/TUU48M0T1-F010BCMDYBA-132154a406\/c4a2df25-d907-47d6-b36c-26bf3a051d92_960.jpg",
                        "thumb_960_w": 960,
                        "thumb_960_h": 720,
                        "thumb_1024": "https:\/\/files.slack.com\/files-tmb\/TUU48M0T1-F010BCMDYBA-132154a406\/c4a2df25-d907-47d6-b36c-26bf3a051d92_1024.jpg",
                        "thumb_1024_w": 1024,
                        "thumb_1024_h": 768,
                        "image_exif_rotation": 1,
                        "original_w": 4000,
                        "original_h": 3000,
                        "thumb_tiny": "AwAkADCGU4jNQAnsxH0NOdsjFNUcdKAJUmljHyytUpurjGC4I9wKrkDA47innHcEUAWrW4kkdkYjAGeKtVQss5lZRkACrTXMcf38gkA4xTEVWSNoXbHzAetVQffFXpI9sbCNOSMVV8mUfwN+VSimMPUU\/PocUeVL\/cb8qNkn9xvypgWrCPcjtkgZ7d6kntRISwc7veizBjgw3BJJwanJpXCwylpKWpGNHzEZp4A9KYvUU8UDYtGfpSUUxH\/\/2Q==",
                        "permalink": "https:\/\/open-covid19.slack.com\/files\/UVCDJN550\/F010BCMDYBA\/c4a2df25-d907-47d6-b36c-26bf3a051d92.jpg",
                        "permalink_public": "https:\/\/slack-files.com\/TUU48M0T1-F010BCMDYBA-35687d2609",
                        "has_rich_preview": false
                    },
                    {
                        "id": "FVCJX5UQJ",
                        "created": 1584615984,
                        "timestamp": 1584615984,
                        "name": "48a21d3e-2617-460d-8386-dbcd9c98ea0a.jpg",
                        "title": "48a21d3e-2617-460d-8386-dbcd9c98ea0a.jpg",
                        "mimetype": "image\/jpeg",
                        "filetype": "jpg",
                        "pretty_type": "JPEG",
                        "user": "UVCDJN550",
                        "editable": false,
                        "size": 283981,
                        "mode": "hosted",
                        "is_external": false,
                        "external_type": "",
                        "is_public": true,
                        "public_url_shared": false,
                        "display_as_bot": false,
                        "username": "",
                        "url_private": "https:\/\/files.slack.com\/files-pri\/TUU48M0T1-FVCJX5UQJ\/48a21d3e-2617-460d-8386-dbcd9c98ea0a.jpg",
                        "url_private_download": "https:\/\/files.slack.com\/files-pri\/TUU48M0T1-FVCJX5UQJ\/download\/48a21d3e-2617-460d-8386-dbcd9c98ea0a.jpg",
                        "thumb_64": "https:\/\/files.slack.com\/files-tmb\/TUU48M0T1-FVCJX5UQJ-f932ee91e9\/48a21d3e-2617-460d-8386-dbcd9c98ea0a_64.jpg",
                        "thumb_80": "https:\/\/files.slack.com\/files-tmb\/TUU48M0T1-FVCJX5UQJ-f932ee91e9\/48a21d3e-2617-460d-8386-dbcd9c98ea0a_80.jpg",
                        "thumb_360": "https:\/\/files.slack.com\/files-tmb\/TUU48M0T1-FVCJX5UQJ-f932ee91e9\/48a21d3e-2617-460d-8386-dbcd9c98ea0a_360.jpg",
                        "thumb_360_w": 270,
                        "thumb_360_h": 360,
                        "thumb_480": "https:\/\/files.slack.com\/files-tmb\/TUU48M0T1-FVCJX5UQJ-f932ee91e9\/48a21d3e-2617-460d-8386-dbcd9c98ea0a_480.jpg",
                        "thumb_480_w": 360,
                        "thumb_480_h": 480,
                        "thumb_160": "https:\/\/files.slack.com\/files-tmb\/TUU48M0T1-FVCJX5UQJ-f932ee91e9\/48a21d3e-2617-460d-8386-dbcd9c98ea0a_160.jpg",
                        "thumb_720": "https:\/\/files.slack.com\/files-tmb\/TUU48M0T1-FVCJX5UQJ-f932ee91e9\/48a21d3e-2617-460d-8386-dbcd9c98ea0a_720.jpg",
                        "thumb_720_w": 540,
                        "thumb_720_h": 720,
                        "thumb_800": "https:\/\/files.slack.com\/files-tmb\/TUU48M0T1-FVCJX5UQJ-f932ee91e9\/48a21d3e-2617-460d-8386-dbcd9c98ea0a_800.jpg",
                        "thumb_800_w": 800,
                        "thumb_800_h": 1067,
                        "thumb_960": "https:\/\/files.slack.com\/files-tmb\/TUU48M0T1-FVCJX5UQJ-f932ee91e9\/48a21d3e-2617-460d-8386-dbcd9c98ea0a_960.jpg",
                        "thumb_960_w": 720,
                        "thumb_960_h": 960,
                        "thumb_1024": "https:\/\/files.slack.com\/files-tmb\/TUU48M0T1-FVCJX5UQJ-f932ee91e9\/48a21d3e-2617-460d-8386-dbcd9c98ea0a_1024.jpg",
                        "thumb_1024_w": 768,
                        "thumb_1024_h": 1024,
                        "image_exif_rotation": 1,
                        "original_w": 3000,
                        "original_h": 4000,
                        "thumb_tiny": "AwAwACRiDaDz1p+e9R5x1pUDzcRjC93P9KkY9G4AJGeuKdmiaFY4C0a\/MvJPc+tNVtwBHem0CFpPwpaOaQEcSB51D8gKT+NXKqQnF0B6qat1S2EwIBBB6HiqUHyhkPVDippbqKM43bj6Cqqy+ZclwpAYc0MEWaPxpmaM1IxmXWQOm3IBHNNYTTH95Jx6Cng5pRRcLDFgRe2frT+B0GKDTSaAFzRuqu8h3U3zD60wP\/\/Z",
                        "permalink": "https:\/\/open-covid19.slack.com\/files\/UVCDJN550\/FVCJX5UQJ\/48a21d3e-2617-460d-8386-dbcd9c98ea0a.jpg",
                        "permalink_public": "https:\/\/slack-files.com\/TUU48M0T1-FVCJX5UQJ-a5b291f982",
                        "has_rich_preview": false
                    }
                ],
                "id": 1,
                "original_url": "https:\/\/open-covid19.slack.com\/archives\/C0104ANKV4L\/p1584615993037900",
                "footer": "Posted in #proj-mask-team"
            }
        ],
        "blocks": [
            {
                "type": "rich_text",
                "block_id": "a10I",
                "elements": [
                    {
                        "type": "rich_text_section",
                        "elements": [
                            {
                                "type": "text",
                                "text": "guy's hello, i post this yesterday and nobody respond...\n\n"
                            },
                            {
                                "type": "link",
                                "url": "https:\/\/open-covid19.slack.com\/archives\/C0104ANKV4L\/p1584615993037900"
                            }
                        ]
                    }
                ]
            }
        ],
        "thread_ts": "1584658509.184300",
        "parent_user_id": "UV02WET96",
        "reactions": [
            {
                "name": "raised_hands",
                "users": [
                    "UV02WET96",
                    "U01081Y0TBP"
                ],
                "count": 2
            }
        ]
    },
    {
        "client_msg_id": "611ae656-aef8-4fad-90ea-8fb5c08ee2d2",
        "type": "message",
        "text": "<@UV02WET96> ^",
        "user": "UVCDJN550",
        "ts": "1584694975.198900",
        "team": "TUU48M0T1",
        "user_team": "TUU48M0T1",
        "source_team": "TUU48M0T1",
        "user_profile": {
            "avatar_hash": "d7c31a9e4979",
            "image_72": "https:\/\/avatars.slack-edge.com\/2020-03-19\/1010803189956_d7c31a9e4979530c4453_72.jpg",
            "first_name": "",
            "real_name": "Tifox",
            "display_name": "Tifox",
            "team": "TUU48M0T1",
            "name": "tifox_jogl",
            "is_restricted": false,
            "is_ultra_restricted": false
        },
        "blocks": [
            {
                "type": "rich_text",
                "block_id": "uOJ",
                "elements": [
                    {
                        "type": "rich_text_section",
                        "elements": [
                            {
                                "type": "user",
                                "user_id": "UV02WET96"
                            },
                            {
                                "type": "text",
                                "text": " ^"
                            }
                        ]
                    }
                ]
            }
        ],
        "thread_ts": "1584658509.184300",
        "parent_user_id": "UV02WET96"
    },
    {
        "client_msg_id": "f5d42dc9-e408-46f8-b5f6-3ce1c8eb7006",
        "type": "message",
        "text": "another version with actived coal is in 'production'",
        "user": "UVCDJN550",
        "ts": "1584695014.199100",
        "team": "TUU48M0T1",
        "user_team": "TUU48M0T1",
        "source_team": "TUU48M0T1",
        "user_profile": {
            "avatar_hash": "d7c31a9e4979",
            "image_72": "https:\/\/avatars.slack-edge.com\/2020-03-19\/1010803189956_d7c31a9e4979530c4453_72.jpg",
            "first_name": "",
            "real_name": "Tifox",
            "display_name": "Tifox",
            "team": "TUU48M0T1",
            "name": "tifox_jogl",
            "is_restricted": false,
            "is_ultra_restricted": false
        },
        "blocks": [
            {
                "type": "rich_text",
                "block_id": "sEaF",
                "elements": [
                    {
                        "type": "rich_text_section",
                        "elements": [
                            {
                                "type": "text",
                                "text": "another version with actived coal is in 'production'"
                            }
                        ]
                    }
                ]
            }
        ],
        "thread_ts": "1584658509.184300",
        "parent_user_id": "UV02WET96"
    },
    {
        "client_msg_id": "614A2449-A4ED-41F3-8D33-000E8F86BB69",
        "type": "message",
        "text": "This is great! <@UVCDJN550> \nCould you share it in the <#C0104ANKV4L|proj-mask-team> channel? ",
        "user": "UV02WET96",
        "ts": "1584695127.200300",
        "team": "TUU48M0T1",
        "user_team": "TUU48M0T1",
        "source_team": "TUU48M0T1",
        "user_profile": {
            "avatar_hash": "a99c74a194f8",
            "image_72": "https:\/\/avatars.slack-edge.com\/2020-03-07\/975708504851_a99c74a194f86715ca7d_72.png",
            "first_name": "Thomas",
            "real_name": "Thomas Landrain",
            "display_name": "Thomas Landrain - JOGL CoFounder \/ CEO",
            "team": "TUU48M0T1",
            "name": "thomas",
            "is_restricted": false,
            "is_ultra_restricted": false
        },
        "blocks": [
            {
                "type": "rich_text",
                "block_id": "xPV=o",
                "elements": [
                    {
                        "type": "rich_text_section",
                        "elements": [
                            {
                                "type": "text",
                                "text": "This is great! "
                            },
                            {
                                "type": "user",
                                "user_id": "UVCDJN550"
                            },
                            {
                                "type": "text",
                                "text": " \nCould you share it in the "
                            },
                            {
                                "type": "channel",
                                "channel_id": "C0104ANKV4L"
                            },
                            {
                                "type": "text",
                                "text": " channel? "
                            }
                        ]
                    }
                ]
            }
        ],
        "thread_ts": "1584658509.184300",
        "parent_user_id": "UV02WET96"
    },
    {
        "client_msg_id": "676fa8f7-e09c-4998-8935-f8399d2743b3",
        "type": "message",
        "text": "done yesterday, we have actualy a meeting in another discord, focus in french situation",
        "user": "UVCDJN550",
        "ts": "1584695420.200500",
        "team": "TUU48M0T1",
        "user_team": "TUU48M0T1",
        "source_team": "TUU48M0T1",
        "user_profile": {
            "avatar_hash": "d7c31a9e4979",
            "image_72": "https:\/\/avatars.slack-edge.com\/2020-03-19\/1010803189956_d7c31a9e4979530c4453_72.jpg",
            "first_name": "",
            "real_name": "Tifox",
            "display_name": "Tifox",
            "team": "TUU48M0T1",
            "name": "tifox_jogl",
            "is_restricted": false,
            "is_ultra_restricted": false
        },
        "blocks": [
            {
                "type": "rich_text",
                "block_id": "kXlk1",
                "elements": [
                    {
                        "type": "rich_text_section",
                        "elements": [
                            {
                                "type": "text",
                                "text": "done yesterday, we have actualy a meeting in another discord, focus in french situation"
                            }
                        ]
                    }
                ]
            }
        ],
        "thread_ts": "1584658509.184300",
        "parent_user_id": "UV02WET96"
    },
    {
        "client_msg_id": "befcc94b-53e0-453b-a6d6-a84934b52bda",
        "type": "message",
        "text": "<@UV02WET96> <https:\/\/discord.gg\/N9PANj2>\n\nwe talked about JOGL yesterday meeting, your please to come now to talk with us",
        "user": "UVCDJN550",
        "ts": "1584695466.200700",
        "team": "TUU48M0T1",
        "user_team": "TUU48M0T1",
        "source_team": "TUU48M0T1",
        "user_profile": {
            "avatar_hash": "d7c31a9e4979",
            "image_72": "https:\/\/avatars.slack-edge.com\/2020-03-19\/1010803189956_d7c31a9e4979530c4453_72.jpg",
            "first_name": "",
            "real_name": "Tifox",
            "display_name": "Tifox",
            "team": "TUU48M0T1",
            "name": "tifox_jogl",
            "is_restricted": false,
            "is_ultra_restricted": false
        },
        "attachments": [
            {
                "service_name": "Discord",
                "title": "Join the Entraide maker - COVID 19 Discord Server!",
                "title_link": "https:\/\/discord.gg\/N9PANj2",
                "text": "Check out the Entraide maker - COVID 19 community on Discord - hang out with 440 other members and enjoy free voice and text chat.",
                "fallback": "Discord: Join the Entraide maker - COVID 19 Discord Server!",
                "image_url": "https:\/\/cdn.discordapp.com\/icons\/689048131253698563\/e89386bc4f44c4ab1ccecbbd36cf23db.jpg?size=256",
                "image_width": 250,
                "image_height": 250,
                "from_url": "https:\/\/discord.gg\/N9PANj2",
                "image_bytes": 13464,
                "id": 1,
                "original_url": "https:\/\/discord.gg\/N9PANj2"
            }
        ],
        "blocks": [
            {
                "type": "rich_text",
                "block_id": "WKV",
                "elements": [
                    {
                        "type": "rich_text_section",
                        "elements": [
                            {
                                "type": "user",
                                "user_id": "UV02WET96"
                            },
                            {
                                "type": "text",
                                "text": " "
                            },
                            {
                                "type": "link",
                                "url": "https:\/\/discord.gg\/N9PANj2"
                            },
                            {
                                "type": "text",
                                "text": "\n\nwe talked about JOGL yesterday meeting, your please to come now to talk with us"
                            }
                        ]
                    }
                ]
            }
        ],
        "thread_ts": "1584658509.184300",
        "parent_user_id": "UV02WET96"
    },
    {
        "client_msg_id": "27bd28cd-95ad-4e1f-9258-43aa59bada3a",
        "type": "message",
        "text": "I don't think 3D printing is the right approach here. Get in touch with the folks at SmartAir, who've been testing DIY masks for quite a while. He started out building air pollution masks, but they've been getting into DIY antiviral masks lately. They also have some of the equipment you'd need to test efficiency of DIY designs. Lots of awesome science and hard data on their blog - for example: <https:\/\/smartairfilters.com\/en\/blog\/best-materials-make-diy-face-mask-virus\/>",
        "user": "U0102NEMRTR",
        "ts": "1584702569.201700",
        "team": "TUU48M0T1",
        "user_team": "TUU48M0T1",
        "source_team": "TUU48M0T1",
        "user_profile": {
            "avatar_hash": "g6072d132593",
            "image_72": "https:\/\/secure.gravatar.com\/avatar\/6072d132593acb6de99356666ff0ed9e.jpg?s=72&d=https%3A%2F%2Fa.slack-edge.com%2Fdf10d%2Fimg%2Favatars%2Fava_0008-72.png",
            "first_name": "",
            "real_name": "Patrik D'haeseleer",
            "display_name": "Patrik D'haeseleer",
            "team": "TUU48M0T1",
            "name": "patrikd",
            "is_restricted": false,
            "is_ultra_restricted": false
        },
        "attachments": [
            {
                "service_name": "Smart Air Filters",
                "title": "What Are The Best Materials for Making DIY Masks? - Smart Air Filters",
                "title_link": "https:\/\/smartairfilters.com\/en\/blog\/best-materials-make-diy-face-mask-virus\/",
                "text": "As a last resort, DIY masks provide more protection than nothing. Researchers tested household materials. Here's which captured the most particles.",
                "fallback": "Smart Air Filters: What Are The Best Materials for Making DIY Masks? - Smart Air Filters",
                "thumb_url": "https:\/\/smartairfilters.com\/wordpress\/wp-content\/uploads\/2020\/03\/Best-material-for-making-DIY-masks-to-capture-viruses.jpg",
                "ts": 1583639069,
                "from_url": "https:\/\/smartairfilters.com\/en\/blog\/best-materials-make-diy-face-mask-virus\/",
                "thumb_width": 900,
                "thumb_height": 500,
                "service_icon": "https:\/\/smartairfilters.com\/favicon.ico",
                "id": 1,
                "original_url": "https:\/\/smartairfilters.com\/en\/blog\/best-materials-make-diy-face-mask-virus\/"
            }
        ],
        "blocks": [
            {
                "type": "rich_text",
                "block_id": "fNcEO",
                "elements": [
                    {
                        "type": "rich_text_section",
                        "elements": [
                            {
                                "type": "text",
                                "text": "I don't think 3D printing is the right approach here. Get in touch with the folks at SmartAir, who've been testing DIY masks for quite a while. He started out building air pollution masks, but they've been getting into DIY antiviral masks lately. They also have some of the equipment you'd need to test efficiency of DIY designs. Lots of awesome science and hard data on their blog - for example: "
                            },
                            {
                                "type": "link",
                                "url": "https:\/\/smartairfilters.com\/en\/blog\/best-materials-make-diy-face-mask-virus\/"
                            }
                        ]
                    }
                ]
            }
        ],
        "thread_ts": "1584658509.184300",
        "parent_user_id": "UV02WET96",
        "reactions": [
            {
                "name": "+1",
                "users": [
                    "UV02WET96"
                ],
                "count": 1
            }
        ]
    },
    {
        "client_msg_id": "975de2f8-c997-40a7-800b-608502d0f999",
        "type": "message",
        "text": "If you can identify the best fabric to use, you could literally have an army of grandma's with sewing machines whip up surgical masks...",
        "user": "U0102NEMRTR",
        "ts": "1584702714.202000",
        "team": "TUU48M0T1",
        "user_team": "TUU48M0T1",
        "source_team": "TUU48M0T1",
        "user_profile": {
            "avatar_hash": "g6072d132593",
            "image_72": "https:\/\/secure.gravatar.com\/avatar\/6072d132593acb6de99356666ff0ed9e.jpg?s=72&d=https%3A%2F%2Fa.slack-edge.com%2Fdf10d%2Fimg%2Favatars%2Fava_0008-72.png",
            "first_name": "",
            "real_name": "Patrik D'haeseleer",
            "display_name": "Patrik D'haeseleer",
            "team": "TUU48M0T1",
            "name": "patrikd",
            "is_restricted": false,
            "is_ultra_restricted": false
        },
        "blocks": [
            {
                "type": "rich_text",
                "block_id": "E7oM9",
                "elements": [
                    {
                        "type": "rich_text_section",
                        "elements": [
                            {
                                "type": "text",
                                "text": "If you can identify the best fabric to use, you could literally have an army of grandma's with sewing machines whip up surgical masks..."
                            }
                        ]
                    }
                ]
            }
        ],
        "thread_ts": "1584658509.184300",
        "parent_user_id": "UV02WET96",
        "reactions": [
            {
                "name": "+1",
                "users": [
                    "UV02WET96"
                ],
                "count": 1
            }
        ]
    },
    {
        "client_msg_id": "8c020458-0d21-45e7-9b34-5c0301abf355",
        "type": "message",
        "text": "Hey folks :wave::mask:\nHere are some awesome news from OpenCell, our Londonian friends:\n<https:\/\/www.opencell.bio\/news\/covid-testing-update>",
        "user": "UV02WET96",
        "ts": "1584704803.203400",
        "team": "TUU48M0T1",
        "user_team": "TUU48M0T1",
        "source_team": "TUU48M0T1",
        "user_profile": {
            "avatar_hash": "a99c74a194f8",
            "image_72": "https:\/\/avatars.slack-edge.com\/2020-03-07\/975708504851_a99c74a194f86715ca7d_72.png",
            "first_name": "Thomas",
            "real_name": "Thomas Landrain",
            "display_name": "Thomas Landrain - JOGL CoFounder \/ CEO",
            "team": "TUU48M0T1",
            "name": "thomas",
            "is_restricted": false,
            "is_ultra_restricted": false
        },
        "attachments": [
            {
                "title": "COVID testing UPDATE",
                "title_link": "https:\/\/www.opencell.bio\/news\/covid-testing-update",
                "text": "Testing saves lives. Every person caring for a vulnerable individual needs daily testing. Every hero working at the front lines in hospitals needs daily testing. Every bus driver, postal worker, and shop keeper who takes risks to keep our society going needs daily testing. This is a once in a century pandemic and we need action. We need to urge policy makers in the UK and elsewhere to permit “emergency use authorisation” guidelines so that we can lower the strict standards currently required and accelerate test deployment. There are four main options for testing",
                "fallback": "COVID testing UPDATE",
                "thumb_url": "https:\/\/uploads-ssl.webflow.com\/5beda5254920653278723f22\/5e74a8d431a71385abb6718a_Screen%20Shot%202020-03-20%20at%2011.27.41.png",
                "from_url": "https:\/\/www.opencell.bio\/news\/covid-testing-update",
                "thumb_width": 2500,
                "thumb_height": 1440,
                "service_name": "opencell.bio",
                "id": 1,
                "original_url": "https:\/\/www.opencell.bio\/news\/covid-testing-update"
            }
        ],
        "blocks": [
            {
                "type": "rich_text",
                "block_id": "j59f",
                "elements": [
                    {
                        "type": "rich_text_section",
                        "elements": [
                            {
                                "type": "text",
                                "text": "Hey folks "
                            },
                            {
                                "type": "emoji",
                                "name": "wave"
                            },
                            {
                                "type": "emoji",
                                "name": "mask"
                            },
                            {
                                "type": "text",
                                "text": "\nHere are some awesome news from OpenCell, our Londonian friends:\n"
                            },
                            {
                                "type": "link",
                                "url": "https:\/\/www.opencell.bio\/news\/covid-testing-update"
                            }
                        ]
                    }
                ]
            }
        ],
        "reactions": [
            {
                "name": "+1",
                "users": [
                    "UUWPKNE2E",
                    "UV02WET96",
                    "UV0QTJCMT",
                    "UVA5NGLMS",
                    "UV76CQTB4",
                    "U0102895U6P"
                ],
                "count": 6
            }
        ]
    },
    {
        "client_msg_id": "fbd2065c-3374-4ab1-a6f9-9c26e0fae11b",
        "type": "message",
        "text": "Hi <@UV02WET96> we have a project that we are about to \"make official\" called Hardware PPE within Helpful Engineering in your programme. Please talk to \"Nick Moser\" . Ill put you through to him as he is leading this",
        "user": "UV0RRGB6H",
        "ts": "1584705580.203700",
        "team": "TUU48M0T1",
        "user_team": "TUU48M0T1",
        "source_team": "TUU48M0T1",
        "user_profile": {
            "avatar_hash": "48d4ab64c90c",
            "image_72": "https:\/\/avatars.slack-edge.com\/2020-03-26\/1029789176912_48d4ab64c90c03f3af4a_72.jpg",
            "first_name": "",
            "real_name": "Chris LB Graham",
            "display_name": "",
            "team": "TUU48M0T1",
            "name": "chris.graham",
            "is_restricted": false,
            "is_ultra_restricted": false
        },
        "blocks": [
            {
                "type": "rich_text",
                "block_id": "1j9rh",
                "elements": [
                    {
                        "type": "rich_text_section",
                        "elements": [
                            {
                                "type": "text",
                                "text": "Hi "
                            },
                            {
                                "type": "user",
                                "user_id": "UV02WET96"
                            },
                            {
                                "type": "text",
                                "text": " we have a project that we are about to \"make official\" called Hardware PPE within Helpful Engineering in your programme. Please talk to \"Nick Moser\" . Ill put you through to him as he is leading this"
                            }
                        ]
                    }
                ]
            }
        ],
        "thread_ts": "1584658509.184300",
        "parent_user_id": "UV02WET96",
        "reactions": [
            {
                "name": "+1",
                "users": [
                    "UV02WET96"
                ],
                "count": 1
            }
        ]
    },
    {
        "client_msg_id": "acacb75b-2b9f-424b-afdc-a3b69118ef3a",
        "type": "message",
        "text": "It is very advanced through dev",
        "user": "UV0RRGB6H",
        "ts": "1584705593.203900",
        "team": "TUU48M0T1",
        "user_team": "TUU48M0T1",
        "source_team": "TUU48M0T1",
        "user_profile": {
            "avatar_hash": "48d4ab64c90c",
            "image_72": "https:\/\/avatars.slack-edge.com\/2020-03-26\/1029789176912_48d4ab64c90c03f3af4a_72.jpg",
            "first_name": "",
            "real_name": "Chris LB Graham",
            "display_name": "",
            "team": "TUU48M0T1",
            "name": "chris.graham",
            "is_restricted": false,
            "is_ultra_restricted": false
        },
        "blocks": [
            {
                "type": "rich_text",
                "block_id": "e=\/",
                "elements": [
                    {
                        "type": "rich_text_section",
                        "elements": [
                            {
                                "type": "text",
                                "text": "It is very advanced through dev"
                            }
                        ]
                    }
                ]
            }
        ],
        "thread_ts": "1584658509.184300",
        "parent_user_id": "UV02WET96"
    },
    {
        "client_msg_id": "fa3e325c-2932-4c55-8a01-3d869d386efa",
        "type": "message",
        "text": "Awesome",
        "user": "UV02WET96",
        "ts": "1584705605.204200",
        "team": "TUU48M0T1",
        "user_team": "TUU48M0T1",
        "source_team": "TUU48M0T1",
        "user_profile": {
            "avatar_hash": "a99c74a194f8",
            "image_72": "https:\/\/avatars.slack-edge.com\/2020-03-07\/975708504851_a99c74a194f86715ca7d_72.png",
            "first_name": "Thomas",
            "real_name": "Thomas Landrain",
            "display_name": "Thomas Landrain - JOGL CoFounder \/ CEO",
            "team": "TUU48M0T1",
            "name": "thomas",
            "is_restricted": false,
            "is_ultra_restricted": false
        },
        "blocks": [
            {
                "type": "rich_text",
                "block_id": "v6IN\/",
                "elements": [
                    {
                        "type": "rich_text_section",
                        "elements": [
                            {
                                "type": "text",
                                "text": "Awesome"
                            }
                        ]
                    }
                ]
            }
        ],
        "thread_ts": "1584658509.184300",
        "parent_user_id": "UV02WET96"
    },
    {
        "client_msg_id": "2062e9bf-ed05-4e6c-ada3-4ced3dfd1bca",
        "type": "message",
        "text": "Do you have the presentation? I have seen <https:\/\/blog.opentrons.com\/testing-for-covid-19-with-opentrons\/>\n\nWe are not BSL2 and isolate using combination of OT2 + flow hoods +PCR hoods. If you have more advice or if we could make something quickly or buy something let me know.",
        "user": "UV7AZH728",
        "ts": "1584718233.206100",
        "team": "TUU48M0T1",
        "user_team": "TUU48M0T1",
        "source_team": "TUU48M0T1",
        "user_profile": {
            "avatar_hash": "g3a93d1b5438",
            "image_72": "https:\/\/secure.gravatar.com\/avatar\/3a93d1b54386d7d5f4abceccfd7414e5.jpg?s=72&d=https%3A%2F%2Fa.slack-edge.com%2Fdf10d%2Fimg%2Favatars%2Fava_0013-72.png",
            "first_name": "",
            "real_name": "Tom Meany",
            "display_name": "Tom Meany",
            "team": "TUU48M0T1",
            "name": "covid19",
            "is_restricted": false,
            "is_ultra_restricted": false
        },
        "attachments": [
            {
                "service_name": "Blog | Opentrons Labworks",
                "title": "How Opentrons Can Help Labs Screen Millions For COVID-19",
                "title_link": "https:\/\/blog.opentrons.com\/testing-for-covid-19-with-opentrons\/",
                "text": "Opentrons COVID-19 Testing System can help labs running public health surveillance projects immediately scale up and screen 2,400 tests per day.",
                "fallback": "Blog | Opentrons Labworks: How Opentrons Can Help Labs Screen Millions For COVID-19",
                "image_url": "https:\/\/blog.opentrons.com\/content\/images\/2020\/03\/Screenshot-2020-03-08-15.09.12-copy.png",
                "image_width": 648,
                "image_height": 250,
                "fields": [
                    {
                        "title": "Written by",
                        "value": "Will Canine",
                        "short": true
                    },
                    {
                        "title": "Filed under",
                        "value": "automation, covid19, qpcr",
                        "short": true
                    }
                ],
                "ts": 1583767598,
                "from_url": "https:\/\/blog.opentrons.com\/testing-for-covid-19-with-opentrons\/",
                "image_bytes": 169939,
                "service_icon": "https:\/\/s3.amazonaws.com\/opentrons-images\/website\/OTfavicon.ico",
                "id": 1,
                "original_url": "https:\/\/blog.opentrons.com\/testing-for-covid-19-with-opentrons\/"
            }
        ],
        "blocks": [
            {
                "type": "rich_text",
                "block_id": "tnuSZ",
                "elements": [
                    {
                        "type": "rich_text_section",
                        "elements": [
                            {
                                "type": "text",
                                "text": "Do you have the presentation? I have seen "
                            },
                            {
                                "type": "link",
                                "url": "https:\/\/blog.opentrons.com\/testing-for-covid-19-with-opentrons\/"
                            },
                            {
                                "type": "text",
                                "text": "\n\nWe are not BSL2 and isolate using combination of OT2 + flow hoods +PCR hoods. If you have more advice or if we could make something quickly or buy something let me know."
                            }
                        ]
                    }
                ]
            }
        ],
        "thread_ts": "1584011486.261100",
        "parent_user_id": "UV7AZH728"
    },
    {
        "client_msg_id": "668ef631-9717-452f-aa07-2f00a35e3472",
        "type": "message",
        "text": "Anyone with a sewing machine, check out this great video by Deaconess hospital in Evansville, Indiana on how to sew a \"CDC approved\" surgical mask: <https:\/\/www.youtube.com\/watch?v=9tBg0Os5FWQ>",
        "user": "U0102NEMRTR",
        "ts": "1584733387.209500",
        "team": "TUU48M0T1",
        "user_team": "TUU48M0T1",
        "source_team": "TUU48M0T1",
        "user_profile": {
            "avatar_hash": "g6072d132593",
            "image_72": "https:\/\/secure.gravatar.com\/avatar\/6072d132593acb6de99356666ff0ed9e.jpg?s=72&d=https%3A%2F%2Fa.slack-edge.com%2Fdf10d%2Fimg%2Favatars%2Fava_0008-72.png",
            "first_name": "",
            "real_name": "Patrik D'haeseleer",
            "display_name": "Patrik D'haeseleer",
            "team": "TUU48M0T1",
            "name": "patrikd",
            "is_restricted": false,
            "is_ultra_restricted": false
        },
        "attachments": [
            {
                "service_name": "YouTube",
                "service_url": "https:\/\/www.youtube.com\/",
                "title": "How to make a mask for doctors, nurses and health care workers for COVID-19",
                "title_link": "https:\/\/www.youtube.com\/watch?v=9tBg0Os5FWQ",
                "author_name": "Deaconess Health",
                "author_link": "https:\/\/www.youtube.com\/channel\/UCJmEkeFVWQ_2vtHNonYzVxA",
                "thumb_url": "https:\/\/i.ytimg.com\/vi\/9tBg0Os5FWQ\/hqdefault.jpg",
                "thumb_width": 480,
                "thumb_height": 360,
                "fallback": "YouTube Video: How to make a mask for doctors, nurses and health care workers for COVID-19",
                "video_html": "<iframe width=\"400\" height=\"225\" src=\"https:\/\/www.youtube.com\/embed\/9tBg0Os5FWQ?feature=oembed&autoplay=1&iv_load_policy=3\" frameborder=\"0\" allow=\"accelerometer; autoplay; encrypted-media; gyroscope; picture-in-picture\" allowfullscreen><\/iframe>",
                "video_html_width": 400,
                "video_html_height": 225,
                "from_url": "https:\/\/www.youtube.com\/watch?v=9tBg0Os5FWQ",
                "service_icon": "https:\/\/a.slack-edge.com\/80588\/img\/unfurl_icons\/youtube.png",
                "id": 1,
                "original_url": "https:\/\/www.youtube.com\/watch?v=9tBg0Os5FWQ"
            }
        ],
        "blocks": [
            {
                "type": "rich_text",
                "block_id": "TwT",
                "elements": [
                    {
                        "type": "rich_text_section",
                        "elements": [
                            {
                                "type": "text",
                                "text": "Anyone with a sewing machine, check out this great video by Deaconess hospital in Evansville, Indiana on how to sew a \"CDC approved\" surgical mask: "
                            },
                            {
                                "type": "link",
                                "url": "https:\/\/www.youtube.com\/watch?v=9tBg0Os5FWQ"
                            }
                        ]
                    }
                ]
            }
        ],
        "thread_ts": "1584658509.184300",
        "parent_user_id": "UV02WET96",
        "reactions": [
            {
                "name": "+1",
                "users": [
                    "UV02WET96"
                ],
                "count": 1
            }
        ]
    },
    {
        "client_msg_id": "bdf3e258-15f3-470c-9896-3575b3d19cc5",
        "type": "message",
        "text": "Hi everyone, hope you and your families are safe and doing well :blush:\n\nJust wanted to share that today we had some amazing calls with the <#CV0QED4KU|prgm-governance-team>, <#CVB9NP1L6|prgm-dev-team> and <#CV48ZESEP|prgm-metastudy-team> today. If you missed them or want to see what was discussed, please refer to the agendas in their channels to see how you can help out and the needs of each group. If you have questions about how you can help here are a few people to ask:\n<#CV0QED4KU|prgm-governance-team> – message <@UV9V03C8Y>\n<#CVB9NP1L6|prgm-dev-team> – message <@UVC9WMA7N>\n<#CV48ZESEP|prgm-metastudy-team> – message <@UV85V64SD>\n\nAdditionally, our <#C01037HNAK1|prgm-hardware-team> call is scheduled for 3\/21 at 7PM CET (Paris time), and we’ll be discussing the scope of the group as well as one of the most urgent projects (<#C0104ANKV4L|proj-mask-team>). We are trying to collect all possible mask designs by Tuesday, 3\/24 to then narrow down the top 5-6 masks to validate. If you have any designs, know people (within or outside of the OpenCOVID19) that have designs or are interested in helping out, please join the <#C0104ANKV4L|proj-mask-team> channel and feel free to join Hardware Call.\n\nWe also have our Biosafety Townhall on 3\/22 at 6PM CET to discuss biosafety concerns of the initiative--if you're interested in joining the Biosafety Advisory Board, the membership request form is pinned to the channel and will be reviewed by our current Board members.\n\nThank you! :earth_americas: :microscope:",
        "user": "UV0QTJCMT",
        "ts": "1584756093.215600",
        "team": "TUU48M0T1",
        "user_team": "TUU48M0T1",
        "source_team": "TUU48M0T1",
        "user_profile": {
            "avatar_hash": "06a6ae8f69d1",
            "image_72": "https:\/\/avatars.slack-edge.com\/2020-04-13\/1060635499315_06a6ae8f69d18f1ad464_72.png",
            "first_name": "Katherine",
            "real_name": "Katherine Holo",
            "display_name": "Kat Holo - Co-Organizer of OpenCOVID19",
            "team": "TUU48M0T1",
            "name": "katherineh245",
            "is_restricted": false,
            "is_ultra_restricted": false
        },
        "edited": {
            "user": "UV0QTJCMT",
            "ts": "1584812457.000000"
        },
        "blocks": [
            {
                "type": "rich_text",
                "block_id": "T+U",
                "elements": [
                    {
                        "type": "rich_text_section",
                        "elements": [
                            {
                                "type": "text",
                                "text": "Hi everyone, hope you and your families are safe and doing well "
                            },
                            {
                                "type": "emoji",
                                "name": "blush"
                            },
                            {
                                "type": "text",
                                "text": "\n\nJust wanted to share that today we had some amazing calls with the "
                            },
                            {
                                "type": "channel",
                                "channel_id": "CV0QED4KU"
                            },
                            {
                                "type": "text",
                                "text": ", "
                            },
                            {
                                "type": "channel",
                                "channel_id": "CVB9NP1L6"
                            },
                            {
                                "type": "text",
                                "text": " and "
                            },
                            {
                                "type": "channel",
                                "channel_id": "CV48ZESEP"
                            },
                            {
                                "type": "text",
                                "text": " today. If you missed them or want to see what was discussed, please refer to the agendas in their channels to see how you can help out and the needs of each group. If you have questions about how you can help here are a few people to ask:\n"
                            },
                            {
                                "type": "channel",
                                "channel_id": "CV0QED4KU"
                            },
                            {
                                "type": "text",
                                "text": " – message "
                            },
                            {
                                "type": "user",
                                "user_id": "UV9V03C8Y"
                            },
                            {
                                "type": "text",
                                "text": "\n"
                            },
                            {
                                "type": "channel",
                                "channel_id": "CVB9NP1L6"
                            },
                            {
                                "type": "text",
                                "text": " – message "
                            },
                            {
                                "type": "user",
                                "user_id": "UVC9WMA7N"
                            },
                            {
                                "type": "text",
                                "text": "\n"
                            },
                            {
                                "type": "channel",
                                "channel_id": "CV48ZESEP"
                            },
                            {
                                "type": "text",
                                "text": " – message "
                            },
                            {
                                "type": "user",
                                "user_id": "UV85V64SD"
                            },
                            {
                                "type": "text",
                                "text": "\n\nAdditionally, our "
                            },
                            {
                                "type": "channel",
                                "channel_id": "C01037HNAK1"
                            },
                            {
                                "type": "text",
                                "text": " call is scheduled for 3\/21 at 7PM CET (Paris time), and we’ll be discussing the scope of the group as well as one of the most urgent projects ("
                            },
                            {
                                "type": "channel",
                                "channel_id": "C0104ANKV4L"
                            },
                            {
                                "type": "text",
                                "text": "). We are trying to collect all possible mask designs by Tuesday, 3\/24 to then narrow down the top 5-6 masks to validate. If you have any designs, know people (within or outside of the OpenCOVID19) that have designs or are interested in helping out, please join the "
                            },
                            {
                                "type": "channel",
                                "channel_id": "C0104ANKV4L"
                            },
                            {
                                "type": "text",
                                "text": " channel and feel free to join Hardware Call.\n\nWe also have our Biosafety Townhall on 3\/22 at 6PM CET to discuss biosafety concerns of the initiative--if you're interested in joining the Biosafety Advisory Board, the membership request form is pinned to the channel and will be reviewed by our current Board members.\n\nThank you! "
                            },
                            {
                                "type": "emoji",
                                "name": "earth_americas"
                            },
                            {
                                "type": "text",
                                "text": " "
                            },
                            {
                                "type": "emoji",
                                "name": "microscope"
                            }
                        ]
                    }
                ]
            }
        ],
        "reactions": [
            {
                "name": "star",
                "users": [
                    "UUPFF4TC3",
                    "UV02WET96"
                ],
                "count": 2
            },
            {
                "name": "clap",
                "users": [
                    "UUPFF4TC3",
                    "UV02WET96"
                ],
                "count": 2
            },
            {
                "name": "first_place_medal",
                "users": [
                    "UUPFF4TC3",
                    "UV02WET96"
                ],
                "count": 2
            }
        ]
    },
    {
        "type": "message",
        "text": "Also--it'd be amazing if those of you with projects in this workspace could put them up on the JOGL platform under the <http:\/\/app.jogl.io\/program\/opencovid19|OpenCOVID19 Program> (so people visiting the program know more about the projects running and how they can help!). Here's a nifty gif <@UVC9WMA7N> put together to help make that easier! :computer:",
        "files": [
            {
                "id": "F0106BWBR0R",
                "created": 1584757532,
                "timestamp": 1584757532,
                "name": "Submit_A_Project.gif",
                "title": "Submit_A_Project.gif",
                "mimetype": "image\/gif",
                "filetype": "gif",
                "pretty_type": "GIF",
                "user": "UV0QTJCMT",
                "editable": false,
                "size": 1742623,
                "mode": "hosted",
                "is_external": false,
                "external_type": "",
                "is_public": true,
                "public_url_shared": false,
                "display_as_bot": false,
                "username": "",
                "url_private": "https:\/\/files.slack.com\/files-pri\/TUU48M0T1-F0106BWBR0R\/submit_a_project.gif?t=xoxe-980144714919-1133254701825-1120841107731-daf595b5a7d6c9028b0b02a925032e36",
                "url_private_download": "https:\/\/files.slack.com\/files-pri\/TUU48M0T1-F0106BWBR0R\/download\/submit_a_project.gif?t=xoxe-980144714919-1133254701825-1120841107731-daf595b5a7d6c9028b0b02a925032e36",
                "thumb_64": "https:\/\/files.slack.com\/files-tmb\/TUU48M0T1-F0106BWBR0R-e4cb909506\/submit_a_project_64.png?t=xoxe-980144714919-1133254701825-1120841107731-daf595b5a7d6c9028b0b02a925032e36",
                "thumb_80": "https:\/\/files.slack.com\/files-tmb\/TUU48M0T1-F0106BWBR0R-e4cb909506\/submit_a_project_80.png?t=xoxe-980144714919-1133254701825-1120841107731-daf595b5a7d6c9028b0b02a925032e36",
                "thumb_360": "https:\/\/files.slack.com\/files-tmb\/TUU48M0T1-F0106BWBR0R-e4cb909506\/submit_a_project_360.png?t=xoxe-980144714919-1133254701825-1120841107731-daf595b5a7d6c9028b0b02a925032e36",
                "thumb_360_w": 360,
                "thumb_360_h": 213,
                "thumb_480": "https:\/\/files.slack.com\/files-tmb\/TUU48M0T1-F0106BWBR0R-e4cb909506\/submit_a_project_480.png?t=xoxe-980144714919-1133254701825-1120841107731-daf595b5a7d6c9028b0b02a925032e36",
                "thumb_480_w": 480,
                "thumb_480_h": 284,
                "thumb_160": "https:\/\/files.slack.com\/files-tmb\/TUU48M0T1-F0106BWBR0R-e4cb909506\/submit_a_project_160.png?t=xoxe-980144714919-1133254701825-1120841107731-daf595b5a7d6c9028b0b02a925032e36",
                "thumb_720": "https:\/\/files.slack.com\/files-tmb\/TUU48M0T1-F0106BWBR0R-e4cb909506\/submit_a_project_720.png?t=xoxe-980144714919-1133254701825-1120841107731-daf595b5a7d6c9028b0b02a925032e36",
                "thumb_720_w": 720,
                "thumb_720_h": 426,
                "thumb_800": "https:\/\/files.slack.com\/files-tmb\/TUU48M0T1-F0106BWBR0R-e4cb909506\/submit_a_project_800.png?t=xoxe-980144714919-1133254701825-1120841107731-daf595b5a7d6c9028b0b02a925032e36",
                "thumb_800_w": 800,
                "thumb_800_h": 474,
                "thumb_960": "https:\/\/files.slack.com\/files-tmb\/TUU48M0T1-F0106BWBR0R-e4cb909506\/submit_a_project_960.png?t=xoxe-980144714919-1133254701825-1120841107731-daf595b5a7d6c9028b0b02a925032e36",
                "thumb_960_w": 960,
                "thumb_960_h": 568,
                "thumb_1024": "https:\/\/files.slack.com\/files-tmb\/TUU48M0T1-F0106BWBR0R-e4cb909506\/submit_a_project_1024.png?t=xoxe-980144714919-1133254701825-1120841107731-daf595b5a7d6c9028b0b02a925032e36",
                "thumb_1024_w": 1024,
                "thumb_1024_h": 606,
                "thumb_360_gif": "https:\/\/files.slack.com\/files-tmb\/TUU48M0T1-F0106BWBR0R-e4cb909506\/submit_a_project_360.gif?t=xoxe-980144714919-1133254701825-1120841107731-daf595b5a7d6c9028b0b02a925032e36",
                "thumb_480_gif": "https:\/\/files.slack.com\/files-tmb\/TUU48M0T1-F0106BWBR0R-e4cb909506\/submit_a_project_480.gif?t=xoxe-980144714919-1133254701825-1120841107731-daf595b5a7d6c9028b0b02a925032e36",
                "image_exif_rotation": 1,
                "original_w": 1316,
                "original_h": 779,
                "deanimate_gif": "https:\/\/files.slack.com\/files-tmb\/TUU48M0T1-F0106BWBR0R-e4cb909506\/submit_a_project_deanimate_gif.png?t=xoxe-980144714919-1133254701825-1120841107731-daf595b5a7d6c9028b0b02a925032e36",
                "thumb_tiny": "AwAcADDQXG9gMZHWn03PzHIxj360ufegBaaSR3UZ6UFQWByePemMcnkKcHjNAEmR6iggGo+MY+X\/AL5p6+gxj6UAQmYiRhkYBpGuCDGAVO84qs8avdSKc4LZ4NJMoVlA42nAOaVwsWJLpo5lj+U5NWP4v\/r1i5IuY+T94Dn61tdSeT+dMB34Uv4U3pSHJxzjntQB\/9k=",
                "permalink": "https:\/\/open-covid19.slack.com\/files\/UV0QTJCMT\/F0106BWBR0R\/submit_a_project.gif",
                "permalink_public": "https:\/\/slack-files.com\/TUU48M0T1-F0106BWBR0R-9cd9b28b78",
                "is_starred": false,
                "has_rich_preview": false
            }
        ],
        "upload": true,
        "blocks": [
            {
                "type": "rich_text",
                "block_id": "yEb",
                "elements": [
                    {
                        "type": "rich_text_section",
                        "elements": [
                            {
                                "type": "text",
                                "text": "Also--it'd be amazing if those of you with projects in this workspace could put them up on the JOGL platform under the "
                            },
                            {
                                "type": "link",
                                "url": "http:\/\/app.jogl.io\/program\/opencovid19",
                                "text": "OpenCOVID19 Program"
                            },
                            {
                                "type": "text",
                                "text": " (so people visiting the program know more about the projects running and how they can help!). Here's a nifty gif "
                            },
                            {
                                "type": "user",
                                "user_id": "UVC9WMA7N"
                            },
                            {
                                "type": "text",
                                "text": " put together to help make that easier! "
                            },
                            {
                                "type": "emoji",
                                "name": "computer"
                            }
                        ]
                    }
                ]
            }
        ],
        "user": "UV0QTJCMT",
        "display_as_bot": false,
        "ts": "1584757641.217700",
        "client_msg_id": "a1e4e54e-70bb-4b7b-93d6-818351c9090c",
        "reactions": [
            {
                "name": "smile",
                "users": [
                    "UUPFF4TC3",
                    "U010B412MF1"
                ],
                "count": 2
            },
            {
                "name": "100",
                "users": [
                    "UUPFF4TC3",
                    "UV02WET96",
                    "U01044V1DAT"
                ],
                "count": 3
            },
            {
                "name": "heart_eyes",
                "users": [
                    "UUPFF4TC3",
                    "UV02WET96"
                ],
                "count": 2
            },
            {
                "name": "heart",
                "users": [
                    "UUPFF4TC3",
                    "UV85V64SD"
                ],
                "count": 2
            },
            {
                "name": "raised_hands",
                "users": [
                    "UV02WET96",
                    "UV2P3AQEN",
                    "U01044V1DAT"
                ],
                "count": 3
            },
            {
                "name": "+1",
                "users": [
                    "U01044V1DAT",
                    "U01019BQXM3"
                ],
                "count": 2
            }
        ]
    }
]