[
    {
        "type": "message",
        "text": "",
        "files": [
            {
                "id": "F011PMN8RSL",
                "created": 1586187808,
                "timestamp": 1586187808,
                "name": "Captura de Tela 2020-04-06 às 11.23.28.png",
                "title": "Captura de Tela 2020-04-06 às 11.23.28.png",
                "mimetype": "image\/png",
                "filetype": "png",
                "pretty_type": "PNG",
                "user": "U011CQ8C9GU",
                "editable": false,
                "size": 116073,
                "mode": "hosted",
                "is_external": false,
                "external_type": "",
                "is_public": true,
                "public_url_shared": false,
                "display_as_bot": false,
                "username": "",
                "url_private": "https:\/\/files.slack.com\/files-pri\/TUU48M0T1-F011PMN8RSL\/captura_de_tela_2020-04-06___s_11.23.28.png?t=xoxe-980144714919-1133254701825-1120841107731-daf595b5a7d6c9028b0b02a925032e36",
                "url_private_download": "https:\/\/files.slack.com\/files-pri\/TUU48M0T1-F011PMN8RSL\/download\/captura_de_tela_2020-04-06___s_11.23.28.png?t=xoxe-980144714919-1133254701825-1120841107731-daf595b5a7d6c9028b0b02a925032e36",
                "thumb_64": "https:\/\/files.slack.com\/files-tmb\/TUU48M0T1-F011PMN8RSL-a49e6627bc\/captura_de_tela_2020-04-06___s_11.23.28_64.png?t=xoxe-980144714919-1133254701825-1120841107731-daf595b5a7d6c9028b0b02a925032e36",
                "thumb_80": "https:\/\/files.slack.com\/files-tmb\/TUU48M0T1-F011PMN8RSL-a49e6627bc\/captura_de_tela_2020-04-06___s_11.23.28_80.png?t=xoxe-980144714919-1133254701825-1120841107731-daf595b5a7d6c9028b0b02a925032e36",
                "thumb_360": "https:\/\/files.slack.com\/files-tmb\/TUU48M0T1-F011PMN8RSL-a49e6627bc\/captura_de_tela_2020-04-06___s_11.23.28_360.png?t=xoxe-980144714919-1133254701825-1120841107731-daf595b5a7d6c9028b0b02a925032e36",
                "thumb_360_w": 360,
                "thumb_360_h": 188,
                "thumb_480": "https:\/\/files.slack.com\/files-tmb\/TUU48M0T1-F011PMN8RSL-a49e6627bc\/captura_de_tela_2020-04-06___s_11.23.28_480.png?t=xoxe-980144714919-1133254701825-1120841107731-daf595b5a7d6c9028b0b02a925032e36",
                "thumb_480_w": 480,
                "thumb_480_h": 250,
                "thumb_160": "https:\/\/files.slack.com\/files-tmb\/TUU48M0T1-F011PMN8RSL-a49e6627bc\/captura_de_tela_2020-04-06___s_11.23.28_160.png?t=xoxe-980144714919-1133254701825-1120841107731-daf595b5a7d6c9028b0b02a925032e36",
                "thumb_720": "https:\/\/files.slack.com\/files-tmb\/TUU48M0T1-F011PMN8RSL-a49e6627bc\/captura_de_tela_2020-04-06___s_11.23.28_720.png?t=xoxe-980144714919-1133254701825-1120841107731-daf595b5a7d6c9028b0b02a925032e36",
                "thumb_720_w": 720,
                "thumb_720_h": 375,
                "thumb_800": "https:\/\/files.slack.com\/files-tmb\/TUU48M0T1-F011PMN8RSL-a49e6627bc\/captura_de_tela_2020-04-06___s_11.23.28_800.png?t=xoxe-980144714919-1133254701825-1120841107731-daf595b5a7d6c9028b0b02a925032e36",
                "thumb_800_w": 800,
                "thumb_800_h": 417,
                "thumb_960": "https:\/\/files.slack.com\/files-tmb\/TUU48M0T1-F011PMN8RSL-a49e6627bc\/captura_de_tela_2020-04-06___s_11.23.28_960.png?t=xoxe-980144714919-1133254701825-1120841107731-daf595b5a7d6c9028b0b02a925032e36",
                "thumb_960_w": 960,
                "thumb_960_h": 500,
                "thumb_1024": "https:\/\/files.slack.com\/files-tmb\/TUU48M0T1-F011PMN8RSL-a49e6627bc\/captura_de_tela_2020-04-06___s_11.23.28_1024.png?t=xoxe-980144714919-1133254701825-1120841107731-daf595b5a7d6c9028b0b02a925032e36",
                "thumb_1024_w": 1024,
                "thumb_1024_h": 534,
                "image_exif_rotation": 1,
                "original_w": 1431,
                "original_h": 746,
                "thumb_tiny": "AwAZADDTzikBPfFIQPQ0c56UAKFwc5P50c57UmBxwaMe1ACtSDNDDpQBigBcH1ox70tFACYPrRjnOaWigAooooA\/\/9k=",
                "permalink": "https:\/\/open-covid19.slack.com\/files\/U011CQ8C9GU\/F011PMN8RSL\/captura_de_tela_2020-04-06___s_11.23.28.png",
                "permalink_public": "https:\/\/slack-files.com\/TUU48M0T1-F011PMN8RSL-7f56e2a411",
                "is_starred": false,
                "has_rich_preview": false
            }
        ],
        "upload": true,
        "user": "U011CQ8C9GU",
        "display_as_bot": false,
        "ts": "1586187824.000100",
        "client_msg_id": "ad359c2a-ec13-40a3-8931-7f2c7e5d42d7"
    },
    {
        "client_msg_id": "045c113c-5c5e-4939-8a59-a6270d031558",
        "type": "message",
        "text": "<@UV3URUKK5>, at first I was thinking in something like the image above. What do you think? Other alternative would be an Elisa-like assay",
        "user": "U011CQ8C9GU",
        "ts": "1586187879.001100",
        "team": "TUU48M0T1",
        "user_team": "TUU48M0T1",
        "source_team": "TUU48M0T1",
        "user_profile": {
            "avatar_hash": "gdcb756e9933",
            "image_72": "https:\/\/secure.gravatar.com\/avatar\/dcb756e9933ef89b8ef8a41fa8474850.jpg?s=72&d=https%3A%2F%2Fa.slack-edge.com%2Fdf10d%2Fimg%2Favatars%2Fava_0017-72.png",
            "first_name": "",
            "real_name": "Tadeu Rocha",
            "display_name": "Tadeu Rocha",
            "team": "TUU48M0T1",
            "name": "tadeu.acr",
            "is_restricted": false,
            "is_ultra_restricted": false
        },
        "blocks": [
            {
                "type": "rich_text",
                "block_id": "mcKz",
                "elements": [
                    {
                        "type": "rich_text_section",
                        "elements": [
                            {
                                "type": "user",
                                "user_id": "UV3URUKK5"
                            },
                            {
                                "type": "text",
                                "text": ", at first I was thinking in something like the image above. What do you think? Other alternative would be an Elisa-like assay"
                            }
                        ]
                    }
                ]
            }
        ]
    }
]