[
    {
        "type": "message",
        "subtype": "channel_join",
        "ts": "1588427800.000200",
        "user": "UV10KBUQG",
        "text": "<@UV10KBUQG> has joined the channel"
    },
    {
        "client_msg_id": "82ae3446-247f-4277-adf6-e6e5eeef6138",
        "type": "message",
        "text": "Absolutely interested! No prior antibody\/immunology experience, but I am a geneticist\/molecular biologist with a BSL2 imdependent lab in the Chicago area.",
        "user": "UV10KBUQG",
        "ts": "1588428033.003000",
        "team": "TUU48M0T1",
        "user_team": "TUU48M0T1",
        "source_team": "TUU48M0T1",
        "user_profile": {
            "avatar_hash": "2deebbf6be3d",
            "image_72": "https:\/\/avatars.slack-edge.com\/2020-03-06\/976932190641_2deebbf6be3d17141d91_72.jpg",
            "first_name": "Sarah",
            "real_name": "Sarah Blossom Ware",
            "display_name": "Sarah Blossom Ware - BioBlaze Community Bio Lab",
            "team": "TUU48M0T1",
            "name": "ware.sarah",
            "is_restricted": false,
            "is_ultra_restricted": false
        },
        "blocks": [
            {
                "type": "rich_text",
                "block_id": "uKVRi",
                "elements": [
                    {
                        "type": "rich_text_section",
                        "elements": [
                            {
                                "type": "text",
                                "text": "Absolutely interested! No prior antibody\/immunology experience, but I am a geneticist\/molecular biologist with a BSL2 imdependent lab in the Chicago area."
                            }
                        ]
                    }
                ]
            }
        ]
    },
    {
        "client_msg_id": "a6490736-21df-4111-a35d-d65b3b9505ea",
        "type": "message",
        "text": "Btw, Round 3 grant proposals are due in 2 days, I believe.",
        "user": "UV10KBUQG",
        "ts": "1588428092.004100",
        "team": "TUU48M0T1",
        "user_team": "TUU48M0T1",
        "source_team": "TUU48M0T1",
        "user_profile": {
            "avatar_hash": "2deebbf6be3d",
            "image_72": "https:\/\/avatars.slack-edge.com\/2020-03-06\/976932190641_2deebbf6be3d17141d91_72.jpg",
            "first_name": "Sarah",
            "real_name": "Sarah Blossom Ware",
            "display_name": "Sarah Blossom Ware - BioBlaze Community Bio Lab",
            "team": "TUU48M0T1",
            "name": "ware.sarah",
            "is_restricted": false,
            "is_ultra_restricted": false
        },
        "blocks": [
            {
                "type": "rich_text",
                "block_id": "eqh",
                "elements": [
                    {
                        "type": "rich_text_section",
                        "elements": [
                            {
                                "type": "text",
                                "text": "Btw, Round 3 grant proposals are due in 2 days, I believe."
                            }
                        ]
                    }
                ]
            }
        ]
    },
    {
        "client_msg_id": "54add9ee-6685-4e45-8951-eeb061bdae6e",
        "type": "message",
        "text": "Today I will order some monoclonal antibodies, 2 spike proteins, inactivated SARS-COV-2 &amp; Inactivated MERS-CoV from BEI Resources.",
        "user": "UV10KBUQG",
        "ts": "1588428217.007100",
        "team": "TUU48M0T1",
        "user_team": "TUU48M0T1",
        "source_team": "TUU48M0T1",
        "user_profile": {
            "avatar_hash": "2deebbf6be3d",
            "image_72": "https:\/\/avatars.slack-edge.com\/2020-03-06\/976932190641_2deebbf6be3d17141d91_72.jpg",
            "first_name": "Sarah",
            "real_name": "Sarah Blossom Ware",
            "display_name": "Sarah Blossom Ware - BioBlaze Community Bio Lab",
            "team": "TUU48M0T1",
            "name": "ware.sarah",
            "is_restricted": false,
            "is_ultra_restricted": false
        },
        "blocks": [
            {
                "type": "rich_text",
                "block_id": "ZDMt8",
                "elements": [
                    {
                        "type": "rich_text_section",
                        "elements": [
                            {
                                "type": "text",
                                "text": "Today I will order some monoclonal antibodies, 2 spike proteins, inactivated SARS-COV-2 & Inactivated MERS-CoV from BEI Resources."
                            }
                        ]
                    }
                ]
            }
        ]
    },
    {
        "client_msg_id": "fa7f59d2-96e7-4e30-be5f-6ac54a8ea28a",
        "type": "message",
        "text": "Sarah I love your efficiency, I wish I could be there with you or at least have my own lab to do it in parallel. Which kind of test are you going to do? ELISA?",
        "user": "UV3URUKK5",
        "ts": "1588428279.008000",
        "team": "TUU48M0T1",
        "user_team": "TUU48M0T1",
        "source_team": "TUU48M0T1",
        "user_profile": {
            "avatar_hash": "64c99c2ed974",
            "image_72": "https:\/\/avatars.slack-edge.com\/2020-03-15\/1000999702004_64c99c2ed97497e08ca9_72.jpg",
            "first_name": "",
            "real_name": "Francisco Javier Quero",
            "display_name": "Francisco Javier Quero",
            "team": "TUU48M0T1",
            "name": "franxi2953",
            "is_restricted": false,
            "is_ultra_restricted": false
        },
        "blocks": [
            {
                "type": "rich_text",
                "block_id": "JrQ",
                "elements": [
                    {
                        "type": "rich_text_section",
                        "elements": [
                            {
                                "type": "text",
                                "text": "Sarah I love your efficiency, I wish I could be there with you or at least have my own lab to do it in parallel. Which kind of test are you going to do? ELISA?"
                            }
                        ]
                    }
                ]
            }
        ]
    },
    {
        "client_msg_id": "35ac4866-507e-40db-a62b-38da4753e288",
        "type": "message",
        "text": "That would be a fun time in the lab :)",
        "user": "UV10KBUQG",
        "ts": "1588428468.008900",
        "team": "TUU48M0T1",
        "user_team": "TUU48M0T1",
        "source_team": "TUU48M0T1",
        "user_profile": {
            "avatar_hash": "2deebbf6be3d",
            "image_72": "https:\/\/avatars.slack-edge.com\/2020-03-06\/976932190641_2deebbf6be3d17141d91_72.jpg",
            "first_name": "Sarah",
            "real_name": "Sarah Blossom Ware",
            "display_name": "Sarah Blossom Ware - BioBlaze Community Bio Lab",
            "team": "TUU48M0T1",
            "name": "ware.sarah",
            "is_restricted": false,
            "is_ultra_restricted": false
        },
        "blocks": [
            {
                "type": "rich_text",
                "block_id": "P3Pgx",
                "elements": [
                    {
                        "type": "rich_text_section",
                        "elements": [
                            {
                                "type": "text",
                                "text": "That would be a fun time in the lab :)"
                            }
                        ]
                    }
                ]
            }
        ]
    },
    {
        "client_msg_id": "a57805d6-2bcc-4017-914e-1bb1815c47a3",
        "type": "message",
        "text": "Honestly, I do not know where to start, so I'm just going to start with getting those free things in my freezer.",
        "user": "UV10KBUQG",
        "ts": "1588428541.010900",
        "team": "TUU48M0T1",
        "user_team": "TUU48M0T1",
        "source_team": "TUU48M0T1",
        "user_profile": {
            "avatar_hash": "2deebbf6be3d",
            "image_72": "https:\/\/avatars.slack-edge.com\/2020-03-06\/976932190641_2deebbf6be3d17141d91_72.jpg",
            "first_name": "Sarah",
            "real_name": "Sarah Blossom Ware",
            "display_name": "Sarah Blossom Ware - BioBlaze Community Bio Lab",
            "team": "TUU48M0T1",
            "name": "ware.sarah",
            "is_restricted": false,
            "is_ultra_restricted": false
        },
        "blocks": [
            {
                "type": "rich_text",
                "block_id": "f1lqN",
                "elements": [
                    {
                        "type": "rich_text_section",
                        "elements": [
                            {
                                "type": "text",
                                "text": "Honestly, I do not know where to start, so I'm just going to start with getting those free things in my freezer."
                            }
                        ]
                    }
                ]
            }
        ]
    },
    {
        "client_msg_id": "6aa68b0a-32de-4332-96dc-e8d32e0dc986",
        "type": "message",
        "text": "hahahahahhahaa it's a good start! If i find some time i would try to help looking into papers and protocols ;)",
        "user": "UV3URUKK5",
        "ts": "1588432926.011700",
        "team": "TUU48M0T1",
        "user_team": "TUU48M0T1",
        "source_team": "TUU48M0T1",
        "user_profile": {
            "avatar_hash": "64c99c2ed974",
            "image_72": "https:\/\/avatars.slack-edge.com\/2020-03-15\/1000999702004_64c99c2ed97497e08ca9_72.jpg",
            "first_name": "",
            "real_name": "Francisco Javier Quero",
            "display_name": "Francisco Javier Quero",
            "team": "TUU48M0T1",
            "name": "franxi2953",
            "is_restricted": false,
            "is_ultra_restricted": false
        },
        "blocks": [
            {
                "type": "rich_text",
                "block_id": "jRGa",
                "elements": [
                    {
                        "type": "rich_text_section",
                        "elements": [
                            {
                                "type": "text",
                                "text": "hahahahahhahaa it's a good start! If i find some time i would try to help looking into papers and protocols ;)"
                            }
                        ]
                    }
                ]
            }
        ]
    },
    {
        "client_msg_id": "501773e1-246c-4256-a13b-ee813551adf3",
        "type": "message",
        "text": "Wow, glad this channel got some traction! <@UV10KBUQG> <@UV3URUKK5>!",
        "user": "U011CQ8C9GU",
        "ts": "1588462582.012300",
        "team": "TUU48M0T1",
        "user_team": "TUU48M0T1",
        "source_team": "TUU48M0T1",
        "user_profile": {
            "avatar_hash": "gdcb756e9933",
            "image_72": "https:\/\/secure.gravatar.com\/avatar\/dcb756e9933ef89b8ef8a41fa8474850.jpg?s=72&d=https%3A%2F%2Fa.slack-edge.com%2Fdf10d%2Fimg%2Favatars%2Fava_0017-72.png",
            "first_name": "",
            "real_name": "Tadeu Rocha",
            "display_name": "Tadeu Rocha",
            "team": "TUU48M0T1",
            "name": "tadeu.acr",
            "is_restricted": false,
            "is_ultra_restricted": false
        },
        "blocks": [
            {
                "type": "rich_text",
                "block_id": "3Z8SI",
                "elements": [
                    {
                        "type": "rich_text_section",
                        "elements": [
                            {
                                "type": "text",
                                "text": "Wow, glad this channel got some traction! "
                            },
                            {
                                "type": "user",
                                "user_id": "UV10KBUQG"
                            },
                            {
                                "type": "text",
                                "text": " "
                            },
                            {
                                "type": "user",
                                "user_id": "UV3URUKK5"
                            },
                            {
                                "type": "text",
                                "text": "!"
                            }
                        ]
                    }
                ]
            }
        ]
    },
    {
        "client_msg_id": "2236b39c-9aab-49e5-b76d-e741269e96bf",
        "type": "message",
        "text": "Not sure if we have enough time for a grant application, but I am up for helping if any of you with more experience can lead the way.",
        "user": "U011CQ8C9GU",
        "ts": "1588462657.013100",
        "team": "TUU48M0T1",
        "user_team": "TUU48M0T1",
        "source_team": "TUU48M0T1",
        "user_profile": {
            "avatar_hash": "gdcb756e9933",
            "image_72": "https:\/\/secure.gravatar.com\/avatar\/dcb756e9933ef89b8ef8a41fa8474850.jpg?s=72&d=https%3A%2F%2Fa.slack-edge.com%2Fdf10d%2Fimg%2Favatars%2Fava_0017-72.png",
            "first_name": "",
            "real_name": "Tadeu Rocha",
            "display_name": "Tadeu Rocha",
            "team": "TUU48M0T1",
            "name": "tadeu.acr",
            "is_restricted": false,
            "is_ultra_restricted": false
        },
        "blocks": [
            {
                "type": "rich_text",
                "block_id": "QX\/",
                "elements": [
                    {
                        "type": "rich_text_section",
                        "elements": [
                            {
                                "type": "text",
                                "text": "Not sure if we have enough time for a grant application, but I am up for helping if any of you with more experience can lead the way."
                            }
                        ]
                    }
                ]
            }
        ]
    },
    {
        "client_msg_id": "4383dd71-870d-43f1-907d-aa9c4eaa2736",
        "type": "message",
        "text": "I did some research, though I am not much of an expert.\nELISA sounds great, but I was initially leaning towards a Lateral Flow Dipstick approach.",
        "user": "U011CQ8C9GU",
        "ts": "1588462763.014100",
        "team": "TUU48M0T1",
        "user_team": "TUU48M0T1",
        "source_team": "TUU48M0T1",
        "user_profile": {
            "avatar_hash": "gdcb756e9933",
            "image_72": "https:\/\/secure.gravatar.com\/avatar\/dcb756e9933ef89b8ef8a41fa8474850.jpg?s=72&d=https%3A%2F%2Fa.slack-edge.com%2Fdf10d%2Fimg%2Favatars%2Fava_0017-72.png",
            "first_name": "",
            "real_name": "Tadeu Rocha",
            "display_name": "Tadeu Rocha",
            "team": "TUU48M0T1",
            "name": "tadeu.acr",
            "is_restricted": false,
            "is_ultra_restricted": false
        },
        "blocks": [
            {
                "type": "rich_text",
                "block_id": "YpA",
                "elements": [
                    {
                        "type": "rich_text_section",
                        "elements": [
                            {
                                "type": "text",
                                "text": "I did some research, though I am not much of an expert.\nELISA sounds great, but I was initially leaning towards a Lateral Flow Dipstick approach."
                            }
                        ]
                    }
                ]
            }
        ]
    },
    {
        "client_msg_id": "ec043120-26ec-43a9-bc32-51c9b22ac5bc",
        "type": "message",
        "text": "Since my access to Spike Protein and Antibodies is somehow limited, I decided to test an approach that I am pretty sure has a very low chance of working :slightly_smiling_face:.\n\nThe idea is to try to assess seroconversion without an Antigen Protein or a Secondary Antibody:\n•  replacing the Secondary antibody by a DNA Anti-igG aptamer (from this article: <https:\/\/link.springer.com\/chapter\/10.1007\/978-981-13-3648-5_2>)\n• replacing the antigen by a Epitope peptide (aa201-215 of N gene, from <https:\/\/www.medrxiv.org\/content\/10.1101\/2020.02.22.20026617v1.full.pdf>\nI've already received the Millenia Hybridetect Dipsticks and am waiting for peptide and aptamers.",
        "user": "U011CQ8C9GU",
        "ts": "1588464536.018600",
        "team": "TUU48M0T1",
        "user_team": "TUU48M0T1",
        "source_team": "TUU48M0T1",
        "user_profile": {
            "avatar_hash": "gdcb756e9933",
            "image_72": "https:\/\/secure.gravatar.com\/avatar\/dcb756e9933ef89b8ef8a41fa8474850.jpg?s=72&d=https%3A%2F%2Fa.slack-edge.com%2Fdf10d%2Fimg%2Favatars%2Fava_0017-72.png",
            "first_name": "",
            "real_name": "Tadeu Rocha",
            "display_name": "Tadeu Rocha",
            "team": "TUU48M0T1",
            "name": "tadeu.acr",
            "is_restricted": false,
            "is_ultra_restricted": false
        },
        "attachments": [
            {
                "service_name": "SpringerLink",
                "title": "The Selection of DNA Aptamers Against the Fc Region of Human IgG",
                "title_link": "https:\/\/link.springer.com\/chapter\/10.1007\/978-981-13-3648-5_2",
                "text": "Aptamers can bind with various kinds of target molecules and therefore they have highly potential for using in the therapeutic, diagnostic, biosensing, purification applications, etc. The aptamer...",
                "fallback": "SpringerLink: The Selection of DNA Aptamers Against the Fc Region of Human IgG",
                "thumb_url": "https:\/\/static-content.springer.com\/cover\/book\/978-981-13-3648-5.jpg",
                "from_url": "https:\/\/link.springer.com\/chapter\/10.1007\/978-981-13-3648-5_2",
                "thumb_width": 153,
                "thumb_height": 231,
                "service_icon": "https:\/\/link.springer.com\/springerlink-static\/409335052\/images\/favicon\/app-icon-iphone@3x.png",
                "id": 1,
                "original_url": "https:\/\/link.springer.com\/chapter\/10.1007\/978-981-13-3648-5_2"
            }
        ],
        "blocks": [
            {
                "type": "rich_text",
                "block_id": "m01Ie",
                "elements": [
                    {
                        "type": "rich_text_section",
                        "elements": [
                            {
                                "type": "text",
                                "text": "Since my access to Spike Protein and Antibodies is somehow limited, I decided to test an approach that I am pretty sure has a very low chance of working "
                            },
                            {
                                "type": "emoji",
                                "name": "slightly_smiling_face"
                            },
                            {
                                "type": "text",
                                "text": ".\n\nThe idea is to try to assess seroconversion without an Antigen Protein or a Secondary Antibody:\n"
                            }
                        ]
                    },
                    {
                        "type": "rich_text_list",
                        "elements": [
                            {
                                "type": "rich_text_section",
                                "elements": [
                                    {
                                        "type": "text",
                                        "text": " replacing the Secondary antibody by a DNA Anti-igG aptamer (from this article: "
                                    },
                                    {
                                        "type": "link",
                                        "url": "https:\/\/link.springer.com\/chapter\/10.1007\/978-981-13-3648-5_2"
                                    },
                                    {
                                        "type": "text",
                                        "text": ")"
                                    }
                                ]
                            },
                            {
                                "type": "rich_text_section",
                                "elements": [
                                    {
                                        "type": "text",
                                        "text": "replacing the antigen by a Epitope peptide (aa201-215 of N gene, from "
                                    },
                                    {
                                        "type": "link",
                                        "url": "https:\/\/www.medrxiv.org\/content\/10.1101\/2020.02.22.20026617v1.full.pdf"
                                    }
                                ]
                            }
                        ],
                        "style": "bullet",
                        "indent": 0
                    },
                    {
                        "type": "rich_text_section",
                        "elements": [
                            {
                                "type": "text",
                                "text": "\nI've already received the Millenia Hybridetect Dipsticks and am waiting for peptide and aptamers."
                            }
                        ]
                    }
                ]
            }
        ]
    },
    {
        "type": "message",
        "text": "It would look something like this.\n*Thoughts?* I am concerned about potential low affinity of peptide and aptamer (hopefully they can bind somehow).",
        "files": [
            {
                "id": "F012HNB8P0X",
                "created": 1588464611,
                "timestamp": 1588464611,
                "name": "Captura de Tela 2020-05-02 às 20.52.29.png",
                "title": "Captura de Tela 2020-05-02 às 20.52.29.png",
                "mimetype": "image\/png",
                "filetype": "png",
                "pretty_type": "PNG",
                "user": "U011CQ8C9GU",
                "editable": false,
                "size": 94232,
                "mode": "hosted",
                "is_external": false,
                "external_type": "",
                "is_public": true,
                "public_url_shared": false,
                "display_as_bot": false,
                "username": "",
                "url_private": "https:\/\/files.slack.com\/files-pri\/TUU48M0T1-F012HNB8P0X\/captura_de_tela_2020-05-02___s_20.52.29.png?t=xoxe-980144714919-1133254701825-1120841107731-daf595b5a7d6c9028b0b02a925032e36",
                "url_private_download": "https:\/\/files.slack.com\/files-pri\/TUU48M0T1-F012HNB8P0X\/download\/captura_de_tela_2020-05-02___s_20.52.29.png?t=xoxe-980144714919-1133254701825-1120841107731-daf595b5a7d6c9028b0b02a925032e36",
                "thumb_64": "https:\/\/files.slack.com\/files-tmb\/TUU48M0T1-F012HNB8P0X-79af29a9da\/captura_de_tela_2020-05-02___s_20.52.29_64.png?t=xoxe-980144714919-1133254701825-1120841107731-daf595b5a7d6c9028b0b02a925032e36",
                "thumb_80": "https:\/\/files.slack.com\/files-tmb\/TUU48M0T1-F012HNB8P0X-79af29a9da\/captura_de_tela_2020-05-02___s_20.52.29_80.png?t=xoxe-980144714919-1133254701825-1120841107731-daf595b5a7d6c9028b0b02a925032e36",
                "thumb_360": "https:\/\/files.slack.com\/files-tmb\/TUU48M0T1-F012HNB8P0X-79af29a9da\/captura_de_tela_2020-05-02___s_20.52.29_360.png?t=xoxe-980144714919-1133254701825-1120841107731-daf595b5a7d6c9028b0b02a925032e36",
                "thumb_360_w": 360,
                "thumb_360_h": 208,
                "thumb_480": "https:\/\/files.slack.com\/files-tmb\/TUU48M0T1-F012HNB8P0X-79af29a9da\/captura_de_tela_2020-05-02___s_20.52.29_480.png?t=xoxe-980144714919-1133254701825-1120841107731-daf595b5a7d6c9028b0b02a925032e36",
                "thumb_480_w": 480,
                "thumb_480_h": 277,
                "thumb_160": "https:\/\/files.slack.com\/files-tmb\/TUU48M0T1-F012HNB8P0X-79af29a9da\/captura_de_tela_2020-05-02___s_20.52.29_160.png?t=xoxe-980144714919-1133254701825-1120841107731-daf595b5a7d6c9028b0b02a925032e36",
                "thumb_720": "https:\/\/files.slack.com\/files-tmb\/TUU48M0T1-F012HNB8P0X-79af29a9da\/captura_de_tela_2020-05-02___s_20.52.29_720.png?t=xoxe-980144714919-1133254701825-1120841107731-daf595b5a7d6c9028b0b02a925032e36",
                "thumb_720_w": 720,
                "thumb_720_h": 416,
                "thumb_800": "https:\/\/files.slack.com\/files-tmb\/TUU48M0T1-F012HNB8P0X-79af29a9da\/captura_de_tela_2020-05-02___s_20.52.29_800.png?t=xoxe-980144714919-1133254701825-1120841107731-daf595b5a7d6c9028b0b02a925032e36",
                "thumb_800_w": 800,
                "thumb_800_h": 462,
                "thumb_960": "https:\/\/files.slack.com\/files-tmb\/TUU48M0T1-F012HNB8P0X-79af29a9da\/captura_de_tela_2020-05-02___s_20.52.29_960.png?t=xoxe-980144714919-1133254701825-1120841107731-daf595b5a7d6c9028b0b02a925032e36",
                "thumb_960_w": 960,
                "thumb_960_h": 555,
                "thumb_1024": "https:\/\/files.slack.com\/files-tmb\/TUU48M0T1-F012HNB8P0X-79af29a9da\/captura_de_tela_2020-05-02___s_20.52.29_1024.png?t=xoxe-980144714919-1133254701825-1120841107731-daf595b5a7d6c9028b0b02a925032e36",
                "thumb_1024_w": 1024,
                "thumb_1024_h": 592,
                "original_w": 1087,
                "original_h": 628,
                "thumb_tiny": "AwAbADDSO7PAGPrTT5hHG0fj\/wDWp3Oe2KTpwTyaAEHmAdj7k\/8A1qXLd8D6Gl6ngjig5x70AICaXn0pucHpn8aUY9s0ALj5s549KMDHWm4HmdKfigBODnrS0YooAKKKKAP\/2Q==",
                "permalink": "https:\/\/open-covid19.slack.com\/files\/U011CQ8C9GU\/F012HNB8P0X\/captura_de_tela_2020-05-02___s_20.52.29.png",
                "permalink_public": "https:\/\/slack-files.com\/TUU48M0T1-F012HNB8P0X-9bc074aac7",
                "is_starred": false,
                "has_rich_preview": false
            }
        ],
        "upload": true,
        "blocks": [
            {
                "type": "rich_text",
                "block_id": "kVhx",
                "elements": [
                    {
                        "type": "rich_text_section",
                        "elements": [
                            {
                                "type": "text",
                                "text": "It would look something like this.\n"
                            },
                            {
                                "type": "text",
                                "text": "Thoughts? ",
                                "style": {
                                    "bold": true
                                }
                            },
                            {
                                "type": "text",
                                "text": "I am concerned about potential low affinity of peptide and aptamer (hopefully they can bind somehow)."
                            }
                        ]
                    }
                ]
            }
        ],
        "user": "U011CQ8C9GU",
        "display_as_bot": false,
        "ts": "1588464614.018800",
        "client_msg_id": "28f2468e-8d61-4b04-81e1-8d142185d3c6"
    },
    {
        "client_msg_id": "e43466fe-f468-4223-adaa-0017f770a9df",
        "type": "message",
        "text": "But I am up for applying to the grant with a more straight forward Antibody\/Protein approach.",
        "user": "U011CQ8C9GU",
        "ts": "1588464656.019700",
        "team": "TUU48M0T1",
        "user_team": "TUU48M0T1",
        "source_team": "TUU48M0T1",
        "user_profile": {
            "avatar_hash": "gdcb756e9933",
            "image_72": "https:\/\/secure.gravatar.com\/avatar\/dcb756e9933ef89b8ef8a41fa8474850.jpg?s=72&d=https%3A%2F%2Fa.slack-edge.com%2Fdf10d%2Fimg%2Favatars%2Fava_0017-72.png",
            "first_name": "",
            "real_name": "Tadeu Rocha",
            "display_name": "Tadeu Rocha",
            "team": "TUU48M0T1",
            "name": "tadeu.acr",
            "is_restricted": false,
            "is_ultra_restricted": false
        },
        "blocks": [
            {
                "type": "rich_text",
                "block_id": "qZ6b",
                "elements": [
                    {
                        "type": "rich_text_section",
                        "elements": [
                            {
                                "type": "text",
                                "text": "But I am up for applying to the grant with a more straight forward Antibody\/Protein approach."
                            }
                        ]
                    }
                ]
            }
        ]
    },
    {
        "client_msg_id": "1cc1c3a2-c0b3-4a3e-bf00-1d6567707efd",
        "type": "message",
        "text": "<@UV10KBUQG> <@UV3URUKK5> <@U0137DMGCP2>, should we set-up a call?",
        "user": "U011CQ8C9GU",
        "ts": "1588464740.020400",
        "team": "TUU48M0T1",
        "user_team": "TUU48M0T1",
        "source_team": "TUU48M0T1",
        "user_profile": {
            "avatar_hash": "gdcb756e9933",
            "image_72": "https:\/\/secure.gravatar.com\/avatar\/dcb756e9933ef89b8ef8a41fa8474850.jpg?s=72&d=https%3A%2F%2Fa.slack-edge.com%2Fdf10d%2Fimg%2Favatars%2Fava_0017-72.png",
            "first_name": "",
            "real_name": "Tadeu Rocha",
            "display_name": "Tadeu Rocha",
            "team": "TUU48M0T1",
            "name": "tadeu.acr",
            "is_restricted": false,
            "is_ultra_restricted": false
        },
        "blocks": [
            {
                "type": "rich_text",
                "block_id": "8KL",
                "elements": [
                    {
                        "type": "rich_text_section",
                        "elements": [
                            {
                                "type": "user",
                                "user_id": "UV10KBUQG"
                            },
                            {
                                "type": "text",
                                "text": " "
                            },
                            {
                                "type": "user",
                                "user_id": "UV3URUKK5"
                            },
                            {
                                "type": "text",
                                "text": " "
                            },
                            {
                                "type": "user",
                                "user_id": "U0137DMGCP2"
                            },
                            {
                                "type": "text",
                                "text": ", should we set-up a call?"
                            }
                        ]
                    }
                ]
            }
        ]
    },
    {
        "client_msg_id": "41598110-fcbb-4df7-8c7a-96c06940bb0b",
        "type": "message",
        "text": "Tadeu, I don't really know anything about this.  I just think it's a great idea to work on an antibody test :slightly_smiling_face:",
        "user": "UV10KBUQG",
        "ts": "1588466357.021200",
        "team": "TUU48M0T1",
        "user_team": "TUU48M0T1",
        "source_team": "TUU48M0T1",
        "user_profile": {
            "avatar_hash": "2deebbf6be3d",
            "image_72": "https:\/\/avatars.slack-edge.com\/2020-03-06\/976932190641_2deebbf6be3d17141d91_72.jpg",
            "first_name": "Sarah",
            "real_name": "Sarah Blossom Ware",
            "display_name": "Sarah Blossom Ware - BioBlaze Community Bio Lab",
            "team": "TUU48M0T1",
            "name": "ware.sarah",
            "is_restricted": false,
            "is_ultra_restricted": false
        },
        "blocks": [
            {
                "type": "rich_text",
                "block_id": "SLD",
                "elements": [
                    {
                        "type": "rich_text_section",
                        "elements": [
                            {
                                "type": "text",
                                "text": "Tadeu, I don't really know anything about this.  I just think it's a great idea to work on an antibody test "
                            },
                            {
                                "type": "emoji",
                                "name": "slightly_smiling_face"
                            }
                        ]
                    }
                ]
            }
        ]
    },
    {
        "client_msg_id": "00AE8A9E-BEFB-4C86-83A7-524D41867DC6",
        "type": "message",
        "text": "No worries, I know very little too lol... but certainly we can learn together.",
        "user": "U011CQ8C9GU",
        "ts": "1588469607.022400",
        "team": "TUU48M0T1",
        "user_team": "TUU48M0T1",
        "source_team": "TUU48M0T1",
        "user_profile": {
            "avatar_hash": "gdcb756e9933",
            "image_72": "https:\/\/secure.gravatar.com\/avatar\/dcb756e9933ef89b8ef8a41fa8474850.jpg?s=72&d=https%3A%2F%2Fa.slack-edge.com%2Fdf10d%2Fimg%2Favatars%2Fava_0017-72.png",
            "first_name": "",
            "real_name": "Tadeu Rocha",
            "display_name": "Tadeu Rocha",
            "team": "TUU48M0T1",
            "name": "tadeu.acr",
            "is_restricted": false,
            "is_ultra_restricted": false
        }
    }
]