[
    {
        "type": "message",
        "subtype": "tombstone",
        "text": "This message was deleted.",
        "user": "USLACKBOT",
        "hidden": true,
        "ts": "1587574985.310400",
        "thread_ts": "1587574985.310400",
        "reply_count": 1,
        "reply_users_count": 1,
        "latest_reply": "1587574985.310500",
        "reply_users": [
            "B0124MWV6HL"
        ],
        "replies": [
            {
                "user": "B0124MWV6HL",
                "ts": "1587574985.310500"
            }
        ],
        "subscribed": false
    },
    {
        "type": "message",
        "subtype": "bot_message",
        "text": ":raised_hands:  This is the first <slack:\/\/app?team=TUU48M0T1&amp;id=AKHMRPUCT&amp;tab=home|Cloverpop> decision Alix Mains shared with this channel. You can use <slack:\/\/app?team=TUU48M0T1&amp;id=AKHMRPUCT&amp;tab=home|Cloverpop> to keep track of decisions in Slack, too.",
        "ts": "1587574985.310500",
        "username": "Cloverpop",
        "bot_id": "B0124MWV6HL",
        "thread_ts": "1587574985.310400",
        "parent_user_id": "U011B6VLM2A",
        "blocks": [
            {
                "type": "section",
                "block_id": "Lp=",
                "text": {
                    "type": "mrkdwn",
                    "text": ":raised_hands:  This is the first <slack:\/\/app?team=TUU48M0T1&amp;id=AKHMRPUCT&amp;tab=home|Cloverpop> decision Alix Mains shared with this channel. You can use <slack:\/\/app?team=TUU48M0T1&amp;id=AKHMRPUCT&amp;tab=home|Cloverpop> to keep track of decisions in Slack, too.",
                    "verbatim": false
                }
            },
            {
                "type": "actions",
                "block_id": "actions_block",
                "elements": [
                    {
                        "type": "button",
                        "action_id": "g\/Ly",
                        "text": {
                            "type": "plain_text",
                            "text": "Try It!",
                            "emoji": true
                        },
                        "value": "show_help"
                    }
                ]
            }
        ]
    },
    {
        "bot_id": "B0124MWV6HL",
        "type": "message",
        "text": "@channel, I’ve invited you to a *<slack:\/\/app?team=TUU48M0T1&amp;id=AKHMRPUCT&amp;tab=home|Cloverpop>* decision poll, due *<!date^1587592800^{date_short_pretty}|Apr 23>*.",
        "user": "U011B6VLM2A",
        "ts": "1587575184.310900",
        "team": "TUU48M0T1",
        "bot_profile": {
            "id": "B0124MWV6HL",
            "deleted": false,
            "name": "Cloverpop",
            "updated": 1587574309,
            "app_id": "AKHMRPUCT",
            "icons": {
                "image_36": "https:\/\/avatars.slack-edge.com\/2019-10-08\/775562855714_7f791d2af39b650a825a_36.png",
                "image_48": "https:\/\/avatars.slack-edge.com\/2019-10-08\/775562855714_7f791d2af39b650a825a_48.png",
                "image_72": "https:\/\/avatars.slack-edge.com\/2019-10-08\/775562855714_7f791d2af39b650a825a_72.png"
            },
            "team_id": "TUU48M0T1"
        },
        "edited": {
            "user": "B0124MWV6HL",
            "ts": "1587576521.000000"
        },
        "blocks": [
            {
                "type": "context",
                "block_id": "50nI",
                "elements": [
                    {
                        "fallback": "88x88px image",
                        "image_url": "https:\/\/avatars.slack-edge.com\/2019-06-07\/661037330918_c66299258658692de505_88.png",
                        "image_width": 88,
                        "image_height": 88,
                        "image_bytes": 7025,
                        "type": "image",
                        "alt_text": "Cloverpop"
                    },
                    {
                        "type": "mrkdwn",
                        "text": "<!channel>, I’ve invited you to a *<slack:\/\/app?team=TUU48M0T1&amp;id=AKHMRPUCT&amp;tab=home|Cloverpop>* decision poll, due *<!date^1587592800^{date_short_pretty}|Apr 23>*.",
                        "verbatim": false
                    }
                ]
            },
            {
                "type": "section",
                "block_id": "YMUKb",
                "text": {
                    "type": "mrkdwn",
                    "text": "*Should we create \"looking-for\" channels to teams and experts to find each other? (see details!)*",
                    "verbatim": false
                }
            },
            {
                "type": "section",
                "block_id": "POOd",
                "text": {
                    "type": "mrkdwn",
                    "text": "*4 votes:* Good idea :speech_balloon: _1 comment_\n`                                 100%`",
                    "verbatim": false
                }
            },
            {
                "type": "section",
                "block_id": "vx5KD",
                "text": {
                    "type": "mrkdwn",
                    "text": "Not a good idea\n`0%`",
                    "verbatim": false
                }
            },
            {
                "type": "actions",
                "block_id": "actions_block",
                "elements": [
                    {
                        "type": "button",
                        "action_id": "hik",
                        "text": {
                            "type": "plain_text",
                            "text": "Take Poll",
                            "emoji": true
                        },
                        "style": "primary",
                        "value": "poll_message_take_poll"
                    },
                    {
                        "type": "button",
                        "action_id": "XFvW",
                        "text": {
                            "type": "plain_text",
                            "text": "Add a Choice",
                            "emoji": true
                        },
                        "value": "poll_message_add_choice"
                    },
                    {
                        "type": "button",
                        "action_id": "EwR=",
                        "text": {
                            "type": "plain_text",
                            "text": "Show Details",
                            "emoji": true
                        },
                        "value": "poll_message_show_details"
                    }
                ]
            }
        ],
        "thread_ts": "1587575184.310900",
        "reply_count": 6,
        "reply_users_count": 5,
        "latest_reply": "1587726822.337700",
        "reply_users": [
            "UV87UQ37A",
            "U011B6VLM2A",
            "UV9V03C8Y",
            "U0101DKUALV",
            "UVC9WMA7N"
        ],
        "replies": [
            {
                "user": "UV87UQ37A",
                "ts": "1587579946.311500"
            },
            {
                "user": "U011B6VLM2A",
                "ts": "1587644301.313700"
            },
            {
                "user": "UV9V03C8Y",
                "ts": "1587645676.313900"
            },
            {
                "user": "U0101DKUALV",
                "ts": "1587657051.327300"
            },
            {
                "user": "UVC9WMA7N",
                "ts": "1587726801.337500"
            },
            {
                "user": "UVC9WMA7N",
                "ts": "1587726822.337700"
            }
        ],
        "subscribed": false
    },
    {
        "client_msg_id": "3631a569-1018-4d02-afb7-b8867e5b4a88",
        "type": "message",
        "text": "<@UVC9WMA7N> what up with the Slack integration??",
        "user": "UV87UQ37A",
        "ts": "1587579946.311500",
        "team": "TUU48M0T1",
        "user_team": "TUU48M0T1",
        "source_team": "TUU48M0T1",
        "user_profile": {
            "avatar_hash": "g7c78d2f0258",
            "image_72": "https:\/\/secure.gravatar.com\/avatar\/7c78d2f0258f7bdf78a86301cfd6b712.jpg?s=72&d=https%3A%2F%2Fa.slack-edge.com%2Fdf10d%2Fimg%2Favatars%2Fava_0014-72.png",
            "first_name": "Victoria",
            "real_name": "Victoria Costa",
            "display_name": "Victoria Costa",
            "team": "TUU48M0T1",
            "name": "victorycoast",
            "is_restricted": false,
            "is_ultra_restricted": false
        },
        "blocks": [
            {
                "type": "rich_text",
                "block_id": "TFL6n",
                "elements": [
                    {
                        "type": "rich_text_section",
                        "elements": [
                            {
                                "type": "user",
                                "user_id": "UVC9WMA7N"
                            },
                            {
                                "type": "text",
                                "text": " what up with the Slack integration??"
                            }
                        ]
                    }
                ]
            }
        ],
        "thread_ts": "1587575184.310900",
        "parent_user_id": "U011B6VLM2A"
    }
]