[
    {
        "client_msg_id": "93B91C45-C053-4A7F-95BC-E21FEE767C30",
        "type": "message",
        "text": "<@UV87UQ37A> <@UUWR0FJ7M> Could I join in on the call as well? I don’t know much about the holacratic circles, but I think that might be beneficial if you’re trying to translate it to something everyone can easily understand.  ",
        "user": "U011D8T1Z61",
        "ts": "1586264832.145500",
        "team": "TUU48M0T1",
        "user_team": "TUU48M0T1",
        "source_team": "TUU48M0T1",
        "user_profile": {
            "avatar_hash": "dfc1c8b48cda",
            "image_72": "https:\/\/avatars.slack-edge.com\/2020-04-04\/1045144130743_dfc1c8b48cda858b777d_72.png",
            "first_name": "",
            "real_name": "Michelle Hao",
            "display_name": "Michelle Hao",
            "team": "TUU48M0T1",
            "name": "mhao",
            "is_restricted": false,
            "is_ultra_restricted": false
        },
        "blocks": [
            {
                "type": "rich_text",
                "block_id": "EQp",
                "elements": [
                    {
                        "type": "rich_text_section",
                        "elements": [
                            {
                                "type": "user",
                                "user_id": "UV87UQ37A"
                            },
                            {
                                "type": "text",
                                "text": " "
                            },
                            {
                                "type": "user",
                                "user_id": "UUWR0FJ7M"
                            },
                            {
                                "type": "text",
                                "text": " Could I join in on the call as well? I don’t know much about the holacratic circles, but I think that might be beneficial if you’re trying to translate it to something everyone can easily understand.  "
                            }
                        ]
                    }
                ]
            }
        ],
        "thread_ts": "1586234566.139100",
        "parent_user_id": "UV87UQ37A",
        "reactions": [
            {
                "name": "pray",
                "users": [
                    "UV9V03C8Y"
                ],
                "count": 1
            }
        ]
    },
    {
        "client_msg_id": "6cf025e1-c8a1-4d36-8cd2-9b6363241834",
        "type": "message",
        "text": "I'm in as well!",
        "user": "UV9V03C8Y",
        "ts": "1586270470.146500",
        "team": "TUU48M0T1",
        "user_team": "TUU48M0T1",
        "source_team": "TUU48M0T1",
        "user_profile": {
            "avatar_hash": "177697fb7b8f",
            "image_72": "https:\/\/avatars.slack-edge.com\/2020-03-12\/996126178096_177697fb7b8ffa57649c_72.jpg",
            "first_name": "Camille",
            "real_name": "Camille Masselot - JOGL Program coordinator",
            "display_name": "Camille Masselot - JOGL coordinator",
            "team": "TUU48M0T1",
            "name": "masselot.camille",
            "is_restricted": false,
            "is_ultra_restricted": false
        },
        "blocks": [
            {
                "type": "rich_text",
                "block_id": "EY3yp",
                "elements": [
                    {
                        "type": "rich_text_section",
                        "elements": [
                            {
                                "type": "text",
                                "text": "I'm in as well!"
                            }
                        ]
                    }
                ]
            }
        ],
        "thread_ts": "1586234566.139100",
        "parent_user_id": "UV87UQ37A"
    },
    {
        "client_msg_id": "9cae08c9-8918-41e7-a8ce-eb8e06d624df",
        "type": "message",
        "text": "I can send you a zoom link as well :slightly_smiling_face:, I have admin access to the JOGL account",
        "user": "UV9V03C8Y",
        "ts": "1586270503.146700",
        "team": "TUU48M0T1",
        "user_team": "TUU48M0T1",
        "source_team": "TUU48M0T1",
        "user_profile": {
            "avatar_hash": "177697fb7b8f",
            "image_72": "https:\/\/avatars.slack-edge.com\/2020-03-12\/996126178096_177697fb7b8ffa57649c_72.jpg",
            "first_name": "Camille",
            "real_name": "Camille Masselot - JOGL Program coordinator",
            "display_name": "Camille Masselot - JOGL coordinator",
            "team": "TUU48M0T1",
            "name": "masselot.camille",
            "is_restricted": false,
            "is_ultra_restricted": false
        },
        "blocks": [
            {
                "type": "rich_text",
                "block_id": "PPZ2",
                "elements": [
                    {
                        "type": "rich_text_section",
                        "elements": [
                            {
                                "type": "text",
                                "text": "I can send you a zoom link as well "
                            },
                            {
                                "type": "emoji",
                                "name": "slightly_smiling_face"
                            },
                            {
                                "type": "text",
                                "text": ", I have admin access to the JOGL account"
                            }
                        ]
                    }
                ]
            }
        ],
        "thread_ts": "1586234566.139100",
        "parent_user_id": "UV87UQ37A"
    },
    {
        "client_msg_id": "bcc2355d-5034-49cc-9887-67cf2db538b4",
        "type": "message",
        "text": "talk to you soon <@U011D8T1Z61> :slightly_smiling_face: if you could read through as much of the pinned posts here to reduce q+a, that would be helpful!",
        "user": "UV87UQ37A",
        "ts": "1586273843.147400",
        "team": "TUU48M0T1",
        "user_team": "TUU48M0T1",
        "source_team": "TUU48M0T1",
        "user_profile": {
            "avatar_hash": "g7c78d2f0258",
            "image_72": "https:\/\/secure.gravatar.com\/avatar\/7c78d2f0258f7bdf78a86301cfd6b712.jpg?s=72&d=https%3A%2F%2Fa.slack-edge.com%2Fdf10d%2Fimg%2Favatars%2Fava_0014-72.png",
            "first_name": "Victoria",
            "real_name": "Victoria Costa",
            "display_name": "Victoria Costa",
            "team": "TUU48M0T1",
            "name": "victorycoast",
            "is_restricted": false,
            "is_ultra_restricted": false
        },
        "blocks": [
            {
                "type": "rich_text",
                "block_id": "Zjf",
                "elements": [
                    {
                        "type": "rich_text_section",
                        "elements": [
                            {
                                "type": "text",
                                "text": "talk to you soon "
                            },
                            {
                                "type": "user",
                                "user_id": "U011D8T1Z61"
                            },
                            {
                                "type": "text",
                                "text": " "
                            },
                            {
                                "type": "emoji",
                                "name": "slightly_smiling_face"
                            },
                            {
                                "type": "text",
                                "text": " if you could read through as much of the pinned posts here to reduce q+a, that would be helpful!"
                            }
                        ]
                    }
                ]
            }
        ],
        "thread_ts": "1586234566.139100",
        "parent_user_id": "UV87UQ37A",
        "reactions": [
            {
                "name": "+1",
                "users": [
                    "U011D8T1Z61"
                ],
                "count": 1
            }
        ]
    },
    {
        "client_msg_id": "9e9e77b7-4c6f-4e86-8d9b-5449cdaa420c",
        "type": "message",
        "text": "Hey <@U011D6K9RH6>! Your help will be greatly appreciated, thank you for that! Join us on Thursday at 7PM UTC time",
        "user": "UV9V03C8Y",
        "ts": "1586274303.147700",
        "team": "TUU48M0T1",
        "user_team": "TUU48M0T1",
        "source_team": "TUU48M0T1",
        "user_profile": {
            "avatar_hash": "177697fb7b8f",
            "image_72": "https:\/\/avatars.slack-edge.com\/2020-03-12\/996126178096_177697fb7b8ffa57649c_72.jpg",
            "first_name": "Camille",
            "real_name": "Camille Masselot - JOGL Program coordinator",
            "display_name": "Camille Masselot - JOGL coordinator",
            "team": "TUU48M0T1",
            "name": "masselot.camille",
            "is_restricted": false,
            "is_ultra_restricted": false
        },
        "blocks": [
            {
                "type": "rich_text",
                "block_id": "vhY1",
                "elements": [
                    {
                        "type": "rich_text_section",
                        "elements": [
                            {
                                "type": "text",
                                "text": "Hey "
                            },
                            {
                                "type": "user",
                                "user_id": "U011D6K9RH6"
                            },
                            {
                                "type": "text",
                                "text": "! Your help will be greatly appreciated, thank you for that! Join us on Thursday at 7PM UTC time"
                            }
                        ]
                    }
                ]
            }
        ],
        "thread_ts": "1586193734.136400",
        "parent_user_id": "U011D6K9RH6",
        "reactions": [
            {
                "name": "+1",
                "users": [
                    "U011D6K9RH6"
                ],
                "count": 1
            }
        ]
    },
    {
        "client_msg_id": "8883a6b1-9ba1-49a8-8ea6-187edb4a5a56",
        "type": "message",
        "text": "Unfortunately we do not record it, but we should start doing it! I will publish minutes in the next few hours! Feel free to have a look at it. Also, you can contact me if you have any question.",
        "user": "UV9V03C8Y",
        "ts": "1586274364.147900",
        "team": "TUU48M0T1",
        "user_team": "TUU48M0T1",
        "source_team": "TUU48M0T1",
        "user_profile": {
            "avatar_hash": "177697fb7b8f",
            "image_72": "https:\/\/avatars.slack-edge.com\/2020-03-12\/996126178096_177697fb7b8ffa57649c_72.jpg",
            "first_name": "Camille",
            "real_name": "Camille Masselot - JOGL Program coordinator",
            "display_name": "Camille Masselot - JOGL coordinator",
            "team": "TUU48M0T1",
            "name": "masselot.camille",
            "is_restricted": false,
            "is_ultra_restricted": false
        },
        "blocks": [
            {
                "type": "rich_text",
                "block_id": "7hZG",
                "elements": [
                    {
                        "type": "rich_text_section",
                        "elements": [
                            {
                                "type": "text",
                                "text": "Unfortunately we do not record it, but we should start doing it! I will publish minutes in the next few hours! Feel free to have a look at it. Also, you can contact me if you have any question."
                            }
                        ]
                    }
                ]
            }
        ],
        "thread_ts": "1586193750.136800",
        "parent_user_id": "U011D6K9RH6",
        "reactions": [
            {
                "name": "+1",
                "users": [
                    "U011D6K9RH6"
                ],
                "count": 1
            }
        ]
    },
    {
        "client_msg_id": "e8808de3-0d19-4f1b-863f-85adf1915c7a",
        "type": "message",
        "text": "if you prefer zoom, that works for me <@UV9V03C8Y> -- I know comms has a meeting now as well",
        "user": "UV87UQ37A",
        "ts": "1586275087.148200",
        "team": "TUU48M0T1",
        "user_team": "TUU48M0T1",
        "source_team": "TUU48M0T1",
        "user_profile": {
            "avatar_hash": "g7c78d2f0258",
            "image_72": "https:\/\/secure.gravatar.com\/avatar\/7c78d2f0258f7bdf78a86301cfd6b712.jpg?s=72&d=https%3A%2F%2Fa.slack-edge.com%2Fdf10d%2Fimg%2Favatars%2Fava_0014-72.png",
            "first_name": "Victoria",
            "real_name": "Victoria Costa",
            "display_name": "Victoria Costa",
            "team": "TUU48M0T1",
            "name": "victorycoast",
            "is_restricted": false,
            "is_ultra_restricted": false
        },
        "blocks": [
            {
                "type": "rich_text",
                "block_id": "KZDR+",
                "elements": [
                    {
                        "type": "rich_text_section",
                        "elements": [
                            {
                                "type": "text",
                                "text": "if you prefer zoom, that works for me "
                            },
                            {
                                "type": "user",
                                "user_id": "UV9V03C8Y"
                            },
                            {
                                "type": "text",
                                "text": " -- I know comms has a meeting now as well"
                            }
                        ]
                    }
                ]
            }
        ],
        "thread_ts": "1586234566.139100",
        "parent_user_id": "UV87UQ37A"
    },
    {
        "client_msg_id": "c283e372-90ed-400d-be49-3f3f39a495de",
        "type": "message",
        "text": "Hi <@UV9V03C8Y> You are absolutely amazing ! Thank you- I appreciate - I also received the invitation for the next governance meeting and i can definitely be there for the Thursday meeting! - Thank you so much again! :slightly_smiling_face:",
        "user": "U011D6K9RH6",
        "ts": "1586280826.153000",
        "team": "TUU48M0T1",
        "user_team": "TUU48M0T1",
        "source_team": "TUU48M0T1",
        "user_profile": {
            "avatar_hash": "85c5155708e4",
            "image_72": "https:\/\/avatars.slack-edge.com\/2020-04-02\/1033600589794_85c5155708e4e6cfa61f_72.jpg",
            "first_name": "George",
            "real_name": "George Elerick",
            "display_name": "George Elerick",
            "team": "TUU48M0T1",
            "name": "george",
            "is_restricted": false,
            "is_ultra_restricted": false
        },
        "blocks": [
            {
                "type": "rich_text",
                "block_id": "kqT",
                "elements": [
                    {
                        "type": "rich_text_section",
                        "elements": [
                            {
                                "type": "text",
                                "text": "Hi "
                            },
                            {
                                "type": "user",
                                "user_id": "UV9V03C8Y"
                            },
                            {
                                "type": "text",
                                "text": " You are absolutely amazing ! Thank you- I appreciate - I also received the invitation for the next governance meeting and i can definitely be there for the Thursday meeting! - Thank you so much again! "
                            },
                            {
                                "type": "emoji",
                                "name": "slightly_smiling_face"
                            }
                        ]
                    }
                ]
            }
        ],
        "thread_ts": "1586193750.136800",
        "parent_user_id": "U011D6K9RH6"
    },
    {
        "client_msg_id": "e15f2ec3-1571-4ea0-95ef-7bab1c5ec777",
        "type": "message",
        "text": "Hi! I have one suggestion from a previous crowdsourced project experience:\nEach channel had a lead (or ambassador), and that person had this role shown in his\/her username (like *John Doe [Funding Team Lead]*).\nIt helps new comers know who to ask first questions to (and also pushes the lead to set the pace in his\/her channel).",
        "user": "U010UF6AXMF",
        "ts": "1586281023.154300",
        "team": "TUU48M0T1",
        "user_team": "TUU48M0T1",
        "source_team": "TUU48M0T1",
        "user_profile": {
            "avatar_hash": "g5248b59fec0",
            "image_72": "https:\/\/secure.gravatar.com\/avatar\/5248b59fec06db7591dc8d9d10879432.jpg?s=72&d=https%3A%2F%2Fa.slack-edge.com%2Fdf10d%2Fimg%2Favatars%2Fava_0020-72.png",
            "first_name": "",
            "real_name": "Charley",
            "display_name": "Charley",
            "team": "TUU48M0T1",
            "name": "charleypaulus",
            "is_restricted": false,
            "is_ultra_restricted": false
        },
        "blocks": [
            {
                "type": "rich_text",
                "block_id": "qgjF",
                "elements": [
                    {
                        "type": "rich_text_section",
                        "elements": [
                            {
                                "type": "text",
                                "text": "Hi! I have one suggestion from a previous crowdsourced project experience:\nEach channel had a lead (or ambassador), and that person had this role shown in his\/her username (like "
                            },
                            {
                                "type": "text",
                                "text": "John Doe [Funding Team Lead]",
                                "style": {
                                    "bold": true
                                }
                            },
                            {
                                "type": "text",
                                "text": ").\nIt helps new comers know who to ask first questions to (and also pushes the lead to set the pace in his\/her channel)."
                            }
                        ]
                    }
                ]
            }
        ],
        "thread_ts": "1586281023.154300",
        "reply_count": 1,
        "reply_users_count": 1,
        "latest_reply": "1586281864.162700",
        "reply_users": [
            "UV9V03C8Y"
        ],
        "replies": [
            {
                "user": "UV9V03C8Y",
                "ts": "1586281864.162700"
            }
        ],
        "subscribed": false,
        "reactions": [
            {
                "name": "first_place_medal",
                "users": [
                    "UV87UQ37A",
                    "UV9V03C8Y",
                    "UVC9WMA7N",
                    "UV8T52QJ3",
                    "UV02WET96"
                ],
                "count": 5
            }
        ]
    },
    {
        "client_msg_id": "dbfa6c5d-57be-4247-82cc-3a3c0f6fe0d7",
        "type": "message",
        "text": "Hi <!channel>!\n<@U0101DKUALV> <@UVATPEW2W> noticed that a lot of students don't know how to contribute to this initiative and how they can help projects. Therefore, they will be suggesting us solutions on how to be more inclusive with students, and coordinate their work with projects! Thanks <@U0101DKUALV> <@UVATPEW2W>!",
        "user": "UV9V03C8Y",
        "ts": "1586281360.157000",
        "team": "TUU48M0T1",
        "user_team": "TUU48M0T1",
        "source_team": "TUU48M0T1",
        "user_profile": {
            "avatar_hash": "177697fb7b8f",
            "image_72": "https:\/\/avatars.slack-edge.com\/2020-03-12\/996126178096_177697fb7b8ffa57649c_72.jpg",
            "first_name": "Camille",
            "real_name": "Camille Masselot - JOGL Program coordinator",
            "display_name": "Camille Masselot - JOGL coordinator",
            "team": "TUU48M0T1",
            "name": "masselot.camille",
            "is_restricted": false,
            "is_ultra_restricted": false
        },
        "blocks": [
            {
                "type": "rich_text",
                "block_id": "45xE",
                "elements": [
                    {
                        "type": "rich_text_section",
                        "elements": [
                            {
                                "type": "text",
                                "text": "Hi "
                            },
                            {
                                "type": "broadcast",
                                "range": "channel"
                            },
                            {
                                "type": "text",
                                "text": "!\n"
                            },
                            {
                                "type": "user",
                                "user_id": "U0101DKUALV"
                            },
                            {
                                "type": "text",
                                "text": " "
                            },
                            {
                                "type": "user",
                                "user_id": "UVATPEW2W"
                            },
                            {
                                "type": "text",
                                "text": " noticed that a lot of students don't know how to contribute to this initiative and how they can help projects. Therefore, they will be suggesting us solutions on how to be more inclusive with students, and coordinate their work with projects! Thanks "
                            },
                            {
                                "type": "user",
                                "user_id": "U0101DKUALV"
                            },
                            {
                                "type": "text",
                                "text": " "
                            },
                            {
                                "type": "user",
                                "user_id": "UVATPEW2W"
                            },
                            {
                                "type": "text",
                                "text": "!"
                            }
                        ]
                    }
                ]
            }
        ]
    },
    {
        "type": "message",
        "subtype": "channel_join",
        "ts": "1586281787.161800",
        "user": "UVATPEW2W",
        "text": "<@UVATPEW2W> has joined the channel",
        "inviter": "UV9V03C8Y"
    },
    {
        "client_msg_id": "299eb51e-2a6b-449a-b983-4845c5c9e90c",
        "type": "message",
        "text": "Hello, all, and thank you, Camille! Throughout the past couple of weeks we have been looking at different ways to engage students or learn how to better engage students such as an ambassador\/mentoring program, a survey, posting project needs, etc.\n\nThere are a lot of tasks that can be passed onto these students to unload some of the burdens for projects, and I do really think having a skillbuilding initative in place will benefit the community as a whole.\n\nWith this in mind, we plan to open up a students-focused channel, where we would have some moderation to direct students to projects, or possibly have projects\/collaborations that students can contribute to.",
        "user": "U0101DKUALV",
        "ts": "1586281842.162600",
        "team": "TUU48M0T1",
        "user_team": "TUU48M0T1",
        "source_team": "TUU48M0T1",
        "user_profile": {
            "avatar_hash": "b0aee06ed3e5",
            "image_72": "https:\/\/avatars.slack-edge.com\/2020-04-22\/1072886325190_b0aee06ed3e501ebdf56_72.png",
            "first_name": "",
            "real_name": "Pauline Chane",
            "display_name": "Pauline Chane",
            "team": "TUU48M0T1",
            "name": "pauline.chane",
            "is_restricted": false,
            "is_ultra_restricted": false
        },
        "blocks": [
            {
                "type": "rich_text",
                "block_id": "Dlg5",
                "elements": [
                    {
                        "type": "rich_text_section",
                        "elements": [
                            {
                                "type": "text",
                                "text": "Hello, all, and thank you, Camille! Throughout the past couple of weeks we have been looking at different ways to engage students or learn how to better engage students such as an ambassador\/mentoring program, a survey, posting project needs, etc.\n\nThere are a lot of tasks that can be passed onto these students to unload some of the burdens for projects, and I do really think having a skillbuilding initative in place will benefit the community as a whole.\n\nWith this in mind, we plan to open up a students-focused channel, where we would have some moderation to direct students to projects, or possibly have projects\/collaborations that students can contribute to."
                            }
                        ]
                    }
                ]
            }
        ],
        "thread_ts": "1586281842.162600",
        "reply_count": 2,
        "reply_users_count": 2,
        "latest_reply": "1586283877.167100",
        "reply_users": [
            "U011D8T1Z61",
            "U0101DKUALV"
        ],
        "replies": [
            {
                "user": "U011D8T1Z61",
                "ts": "1586283767.166900"
            },
            {
                "user": "U0101DKUALV",
                "ts": "1586283877.167100"
            }
        ],
        "subscribed": false,
        "reactions": [
            {
                "name": "heart",
                "users": [
                    "U011D8T1Z61",
                    "U0108UAAUQM"
                ],
                "count": 2
            }
        ]
    },
    {
        "client_msg_id": "fb3c7864-9487-4411-87fd-f4827aadad89",
        "type": "message",
        "text": "Hey Charley, this would be great! We discussed badges\/tag for other roles and this one is definitely needed!",
        "user": "UV9V03C8Y",
        "ts": "1586281864.162700",
        "team": "TUU48M0T1",
        "user_team": "TUU48M0T1",
        "source_team": "TUU48M0T1",
        "user_profile": {
            "avatar_hash": "177697fb7b8f",
            "image_72": "https:\/\/avatars.slack-edge.com\/2020-03-12\/996126178096_177697fb7b8ffa57649c_72.jpg",
            "first_name": "Camille",
            "real_name": "Camille Masselot - JOGL Program coordinator",
            "display_name": "Camille Masselot - JOGL coordinator",
            "team": "TUU48M0T1",
            "name": "masselot.camille",
            "is_restricted": false,
            "is_ultra_restricted": false
        },
        "blocks": [
            {
                "type": "rich_text",
                "block_id": "4qjvG",
                "elements": [
                    {
                        "type": "rich_text_section",
                        "elements": [
                            {
                                "type": "text",
                                "text": "Hey Charley, this would be great! We discussed badges\/tag for other roles and this one is definitely needed!"
                            }
                        ]
                    }
                ]
            }
        ],
        "thread_ts": "1586281023.154300",
        "parent_user_id": "U010UF6AXMF",
        "reactions": [
            {
                "name": "+1",
                "users": [
                    "U010UF6AXMF",
                    "UV8T52QJ3"
                ],
                "count": 2
            }
        ]
    },
    {
        "client_msg_id": "d159da82-e549-4620-8c4b-384d1270b273",
        "type": "message",
        "text": "this is wonderful -- we are only as strong as the people willing to do the heavy lift. I appreciate you taking this on -- capacity building is something we really want to integrate at every level of the community, and mentoring and apprenticeships are certainly goals we were aiming for. I really appreciate your work on this -- please let us know how we can support you.",
        "user": "UV87UQ37A",
        "ts": "1586281978.164200",
        "team": "TUU48M0T1",
        "user_team": "TUU48M0T1",
        "source_team": "TUU48M0T1",
        "user_profile": {
            "avatar_hash": "g7c78d2f0258",
            "image_72": "https:\/\/secure.gravatar.com\/avatar\/7c78d2f0258f7bdf78a86301cfd6b712.jpg?s=72&d=https%3A%2F%2Fa.slack-edge.com%2Fdf10d%2Fimg%2Favatars%2Fava_0014-72.png",
            "first_name": "Victoria",
            "real_name": "Victoria Costa",
            "display_name": "Victoria Costa",
            "team": "TUU48M0T1",
            "name": "victorycoast",
            "is_restricted": false,
            "is_ultra_restricted": false
        },
        "blocks": [
            {
                "type": "rich_text",
                "block_id": "DmY",
                "elements": [
                    {
                        "type": "rich_text_section",
                        "elements": [
                            {
                                "type": "text",
                                "text": "this is wonderful -- we are only as strong as the people willing to do the heavy lift. I appreciate you taking this on -- capacity building is something we really want to integrate at every level of the community, and mentoring and apprenticeships are certainly goals we were aiming for. I really appreciate your work on this -- please let us know how we can support you."
                            }
                        ]
                    }
                ]
            }
        ]
    },
    {
        "client_msg_id": "2fe528ab-b4b0-45b5-900b-fb7801591dfd",
        "type": "message",
        "text": "Update: Now launched at <#C011FGGNCP8|prgm-student-engagement> ! Will be sharing more info in the global meeting -- Can we also get this launched in <#CUDEHLGHY|announcements> ?",
        "user": "U0101DKUALV",
        "ts": "1586282632.165900",
        "team": "TUU48M0T1",
        "user_team": "TUU48M0T1",
        "source_team": "TUU48M0T1",
        "user_profile": {
            "avatar_hash": "b0aee06ed3e5",
            "image_72": "https:\/\/avatars.slack-edge.com\/2020-04-22\/1072886325190_b0aee06ed3e501ebdf56_72.png",
            "first_name": "",
            "real_name": "Pauline Chane",
            "display_name": "Pauline Chane",
            "team": "TUU48M0T1",
            "name": "pauline.chane",
            "is_restricted": false,
            "is_ultra_restricted": false
        },
        "blocks": [
            {
                "type": "rich_text",
                "block_id": "VBhu=",
                "elements": [
                    {
                        "type": "rich_text_section",
                        "elements": [
                            {
                                "type": "text",
                                "text": "Update: Now launched at "
                            },
                            {
                                "type": "channel",
                                "channel_id": "C011FGGNCP8"
                            },
                            {
                                "type": "text",
                                "text": " ! Will be sharing more info in the global meeting -- Can we also get this launched in "
                            },
                            {
                                "type": "channel",
                                "channel_id": "CUDEHLGHY"
                            },
                            {
                                "type": "text",
                                "text": " ?"
                            }
                        ]
                    }
                ]
            }
        ],
        "thread_ts": "1586282632.165900",
        "reply_count": 2,
        "reply_users_count": 2,
        "latest_reply": "1586283043.166700",
        "reply_users": [
            "UV0QTJCMT",
            "U0101DKUALV"
        ],
        "replies": [
            {
                "user": "UV0QTJCMT",
                "ts": "1586282671.166400"
            },
            {
                "user": "U0101DKUALV",
                "ts": "1586283043.166700"
            }
        ],
        "subscribed": false
    },
    {
        "client_msg_id": "2CEE05B7-2BCE-4603-B297-397E8721C271",
        "type": "message",
        "text": "<@U0101DKUALV> if you could write a small blurb about it i can share it",
        "user": "UV0QTJCMT",
        "ts": "1586282671.166400",
        "team": "TUU48M0T1",
        "user_team": "TUU48M0T1",
        "source_team": "TUU48M0T1",
        "user_profile": {
            "avatar_hash": "06a6ae8f69d1",
            "image_72": "https:\/\/avatars.slack-edge.com\/2020-04-13\/1060635499315_06a6ae8f69d18f1ad464_72.png",
            "first_name": "Katherine",
            "real_name": "Katherine Holo",
            "display_name": "Kat Holo - Co-Organizer of OpenCOVID19",
            "team": "TUU48M0T1",
            "name": "katherineh245",
            "is_restricted": false,
            "is_ultra_restricted": false
        },
        "blocks": [
            {
                "type": "rich_text",
                "block_id": "MAos",
                "elements": [
                    {
                        "type": "rich_text_section",
                        "elements": [
                            {
                                "type": "user",
                                "user_id": "U0101DKUALV"
                            },
                            {
                                "type": "text",
                                "text": " if you could write a small blurb about it i can share it"
                            }
                        ]
                    }
                ]
            }
        ],
        "thread_ts": "1586282632.165900",
        "parent_user_id": "U0101DKUALV",
        "reactions": [
            {
                "name": "+1",
                "users": [
                    "UV9V03C8Y"
                ],
                "count": 1
            }
        ]
    },
    {
        "client_msg_id": "2d27c3e7-17f7-4f71-8132-cdb6b73571cc",
        "type": "message",
        "text": "CALLING ALL STUDENTS AND RECENT GRADUATES!\n\nWe have just launched a new channel, <#C011FGGNCP8|prgm-student-engagement> , for students and recent graduates\/early-career members! Here, you can connect with peers, find projects to join, or potentially join future collaborations\/events launched by the channel!\n\nIf you have a project\/initiative that you would like students to get involved in, please post them in this channel as well!",
        "user": "U0101DKUALV",
        "ts": "1586283043.166700",
        "team": "TUU48M0T1",
        "user_team": "TUU48M0T1",
        "source_team": "TUU48M0T1",
        "user_profile": {
            "avatar_hash": "b0aee06ed3e5",
            "image_72": "https:\/\/avatars.slack-edge.com\/2020-04-22\/1072886325190_b0aee06ed3e501ebdf56_72.png",
            "first_name": "",
            "real_name": "Pauline Chane",
            "display_name": "Pauline Chane",
            "team": "TUU48M0T1",
            "name": "pauline.chane",
            "is_restricted": false,
            "is_ultra_restricted": false
        },
        "blocks": [
            {
                "type": "rich_text",
                "block_id": "Dj51j",
                "elements": [
                    {
                        "type": "rich_text_section",
                        "elements": [
                            {
                                "type": "text",
                                "text": "CALLING ALL STUDENTS AND RECENT GRADUATES!\n\nWe have just launched a new channel, "
                            },
                            {
                                "type": "channel",
                                "channel_id": "C011FGGNCP8"
                            },
                            {
                                "type": "text",
                                "text": " , for students and recent graduates\/early-career members! Here, you can connect with peers, find projects to join, or potentially join future collaborations\/events launched by the channel!\n\nIf you have a project\/initiative that you would like students to get involved in, please post them in this channel as well!"
                            }
                        ]
                    }
                ]
            }
        ],
        "thread_ts": "1586282632.165900",
        "parent_user_id": "U0101DKUALV",
        "reactions": [
            {
                "name": "muscle",
                "users": [
                    "UV9V03C8Y"
                ],
                "count": 1
            },
            {
                "name": "100",
                "users": [
                    "UV9V03C8Y"
                ],
                "count": 1
            },
            {
                "name": "heart_eyes",
                "users": [
                    "U011D8T1Z61"
                ],
                "count": 1
            }
        ]
    },
    {
        "client_msg_id": "4c4ee0db-12f0-4315-a74d-956c56505508",
        "type": "message",
        "text": "This is amazing! As a new grad, I agree that this is would be quite helpful.",
        "user": "U011D8T1Z61",
        "ts": "1586283767.166900",
        "team": "TUU48M0T1",
        "user_team": "TUU48M0T1",
        "source_team": "TUU48M0T1",
        "user_profile": {
            "avatar_hash": "dfc1c8b48cda",
            "image_72": "https:\/\/avatars.slack-edge.com\/2020-04-04\/1045144130743_dfc1c8b48cda858b777d_72.png",
            "first_name": "",
            "real_name": "Michelle Hao",
            "display_name": "Michelle Hao",
            "team": "TUU48M0T1",
            "name": "mhao",
            "is_restricted": false,
            "is_ultra_restricted": false
        },
        "blocks": [
            {
                "type": "rich_text",
                "block_id": "a+Mk",
                "elements": [
                    {
                        "type": "rich_text_section",
                        "elements": [
                            {
                                "type": "text",
                                "text": "This is amazing! As a new grad, I agree that this is would be quite helpful."
                            }
                        ]
                    }
                ]
            }
        ],
        "thread_ts": "1586281842.162600",
        "parent_user_id": "U0101DKUALV"
    },
    {
        "client_msg_id": "0be0af80-df94-4a97-9ead-3be0a704c9d1",
        "type": "message",
        "text": "Awesome! I still need to set up a pinned post in there, but I encourage everyone to invite anyone they know that might be interested to the channel!",
        "user": "U0101DKUALV",
        "ts": "1586283877.167100",
        "team": "TUU48M0T1",
        "user_team": "TUU48M0T1",
        "source_team": "TUU48M0T1",
        "user_profile": {
            "avatar_hash": "b0aee06ed3e5",
            "image_72": "https:\/\/avatars.slack-edge.com\/2020-04-22\/1072886325190_b0aee06ed3e501ebdf56_72.png",
            "first_name": "",
            "real_name": "Pauline Chane",
            "display_name": "Pauline Chane",
            "team": "TUU48M0T1",
            "name": "pauline.chane",
            "is_restricted": false,
            "is_ultra_restricted": false
        },
        "blocks": [
            {
                "type": "rich_text",
                "block_id": "9k+jK",
                "elements": [
                    {
                        "type": "rich_text_section",
                        "elements": [
                            {
                                "type": "text",
                                "text": "Awesome! I still need to set up a pinned post in there, but I encourage everyone to invite anyone they know that might be interested to the channel!"
                            }
                        ]
                    }
                ]
            }
        ],
        "thread_ts": "1586281842.162600",
        "parent_user_id": "U0101DKUALV"
    },
    {
        "client_msg_id": "8980db7b-bc26-4441-b4a5-718cc275b1a8",
        "type": "message",
        "text": "An interesting link to Helpful Engineering gallery of projects: <https:\/\/airtable.com\/shrZ8pIj3rV6BAqdq\/tblaQ1M283TuaV2Im?blocks=hide> with brief summary, slack handle, links and phase of each project.",
        "user": "UUWR0FJ7M",
        "ts": "1586310771.170800",
        "team": "TUU48M0T1",
        "user_team": "TUU48M0T1",
        "source_team": "TUU48M0T1",
        "user_profile": {
            "avatar_hash": "g0851a85aef5",
            "image_72": "https:\/\/secure.gravatar.com\/avatar\/0851a85aef59ee4069c5669edd21a593.jpg?s=72&d=https%3A%2F%2Fa.slack-edge.com%2Fdf10d%2Fimg%2Favatars%2Fava_0004-72.png",
            "first_name": "manuel",
            "real_name": "manuel lannaud",
            "display_name": "manu lannaud",
            "team": "TUU48M0T1",
            "name": "slack1260",
            "is_restricted": false,
            "is_ultra_restricted": false
        },
        "attachments": [
            {
                "service_name": "Airtable",
                "title": "Helpful Engineering Project Gallery - Airtable",
                "title_link": "https:\/\/airtable.com\/shrZ8pIj3rV6BAqdq\/tblaQ1M283TuaV2Im?blocks=hide",
                "text": "Explore the \"Helpful Engineering Project Gallery\" view on Airtable.",
                "fallback": "Airtable: Helpful Engineering Project Gallery - Airtable",
                "image_url": "https:\/\/static.airtable.com\/images\/oembed\/airtable.png",
                "from_url": "https:\/\/airtable.com\/shrZ8pIj3rV6BAqdq\/tblaQ1M283TuaV2Im?blocks=hide",
                "image_width": 476,
                "image_height": 250,
                "image_bytes": 42745,
                "service_icon": "https:\/\/airtable.com\/images\/favicon\/baymax\/apple-touch-icon.png",
                "id": 1,
                "original_url": "https:\/\/airtable.com\/shrZ8pIj3rV6BAqdq\/tblaQ1M283TuaV2Im?blocks=hide"
            }
        ],
        "blocks": [
            {
                "type": "rich_text",
                "block_id": "Htg",
                "elements": [
                    {
                        "type": "rich_text_section",
                        "elements": [
                            {
                                "type": "text",
                                "text": "An interesting link to Helpful Engineering gallery of projects: "
                            },
                            {
                                "type": "link",
                                "url": "https:\/\/airtable.com\/shrZ8pIj3rV6BAqdq\/tblaQ1M283TuaV2Im?blocks=hide"
                            },
                            {
                                "type": "text",
                                "text": " with brief summary, slack handle, links and phase of each project."
                            }
                        ]
                    }
                ]
            }
        ],
        "thread_ts": "1586310771.170800",
        "reply_count": 6,
        "reply_users_count": 4,
        "latest_reply": "1586452571.211700",
        "reply_users": [
            "UV0QTJCMT",
            "UUWR0FJ7M",
            "UV87UQ37A",
            "U01072UT127"
        ],
        "replies": [
            {
                "user": "UV0QTJCMT",
                "ts": "1586313057.172300"
            },
            {
                "user": "UUWR0FJ7M",
                "ts": "1586313148.172500"
            },
            {
                "user": "UV87UQ37A",
                "ts": "1586316243.175600"
            },
            {
                "user": "UV0QTJCMT",
                "ts": "1586322397.177400"
            },
            {
                "user": "UV87UQ37A",
                "ts": "1586326810.177600"
            },
            {
                "user": "U01072UT127",
                "ts": "1586452571.211700"
            }
        ],
        "subscribed": false
    },
    {
        "client_msg_id": "3E6169D9-5482-4B28-AD54-52244E802F97",
        "type": "message",
        "text": "do you know if this automatically updates if there are changes to the slack channels? ",
        "user": "UV0QTJCMT",
        "ts": "1586313057.172300",
        "team": "TUU48M0T1",
        "user_team": "TUU48M0T1",
        "source_team": "TUU48M0T1",
        "user_profile": {
            "avatar_hash": "06a6ae8f69d1",
            "image_72": "https:\/\/avatars.slack-edge.com\/2020-04-13\/1060635499315_06a6ae8f69d18f1ad464_72.png",
            "first_name": "Katherine",
            "real_name": "Katherine Holo",
            "display_name": "Kat Holo - Co-Organizer of OpenCOVID19",
            "team": "TUU48M0T1",
            "name": "katherineh245",
            "is_restricted": false,
            "is_ultra_restricted": false
        },
        "blocks": [
            {
                "type": "rich_text",
                "block_id": "6JO",
                "elements": [
                    {
                        "type": "rich_text_section",
                        "elements": [
                            {
                                "type": "text",
                                "text": "do you know if this automatically updates if there are changes to the slack channels? "
                            }
                        ]
                    }
                ]
            }
        ],
        "thread_ts": "1586310771.170800",
        "parent_user_id": "UUWR0FJ7M"
    },
    {
        "client_msg_id": "413031bc-e55f-47d2-9929-9120b89fec67",
        "type": "message",
        "text": "Good question... no idea.",
        "user": "UUWR0FJ7M",
        "ts": "1586313148.172500",
        "team": "TUU48M0T1",
        "user_team": "TUU48M0T1",
        "source_team": "TUU48M0T1",
        "user_profile": {
            "avatar_hash": "g0851a85aef5",
            "image_72": "https:\/\/secure.gravatar.com\/avatar\/0851a85aef59ee4069c5669edd21a593.jpg?s=72&d=https%3A%2F%2Fa.slack-edge.com%2Fdf10d%2Fimg%2Favatars%2Fava_0004-72.png",
            "first_name": "manuel",
            "real_name": "manuel lannaud",
            "display_name": "manu lannaud",
            "team": "TUU48M0T1",
            "name": "slack1260",
            "is_restricted": false,
            "is_ultra_restricted": false
        },
        "blocks": [
            {
                "type": "rich_text",
                "block_id": "0QBUK",
                "elements": [
                    {
                        "type": "rich_text_section",
                        "elements": [
                            {
                                "type": "text",
                                "text": "Good question... no idea."
                            }
                        ]
                    }
                ]
            }
        ],
        "thread_ts": "1586310771.170800",
        "parent_user_id": "UUWR0FJ7M"
    },
    {
        "type": "message",
        "text": "basic definitions around the community structure -- what do you think? (also on doc0.2) <https:\/\/docs.google.com\/document\/d\/101DPBG4yQmv7jBAOQ4yr81JCIHn_gmLSVe06OPQR13U\/edit?usp=sharing>",
        "files": [
            {
                "id": "F011D7NE1LK",
                "created": 1586315682,
                "timestamp": 1586315682,
                "name": "image.png",
                "title": "image.png",
                "mimetype": "image\/png",
                "filetype": "png",
                "pretty_type": "PNG",
                "user": "UV87UQ37A",
                "editable": false,
                "size": 188415,
                "mode": "hosted",
                "is_external": false,
                "external_type": "",
                "is_public": true,
                "public_url_shared": false,
                "display_as_bot": false,
                "username": "",
                "url_private": "https:\/\/files.slack.com\/files-pri\/TUU48M0T1-F011D7NE1LK\/image.png?t=xoxe-980144714919-1133254701825-1120841107731-daf595b5a7d6c9028b0b02a925032e36",
                "url_private_download": "https:\/\/files.slack.com\/files-pri\/TUU48M0T1-F011D7NE1LK\/download\/image.png?t=xoxe-980144714919-1133254701825-1120841107731-daf595b5a7d6c9028b0b02a925032e36",
                "thumb_64": "https:\/\/files.slack.com\/files-tmb\/TUU48M0T1-F011D7NE1LK-cafecbf146\/image_64.png?t=xoxe-980144714919-1133254701825-1120841107731-daf595b5a7d6c9028b0b02a925032e36",
                "thumb_80": "https:\/\/files.slack.com\/files-tmb\/TUU48M0T1-F011D7NE1LK-cafecbf146\/image_80.png?t=xoxe-980144714919-1133254701825-1120841107731-daf595b5a7d6c9028b0b02a925032e36",
                "thumb_360": "https:\/\/files.slack.com\/files-tmb\/TUU48M0T1-F011D7NE1LK-cafecbf146\/image_360.png?t=xoxe-980144714919-1133254701825-1120841107731-daf595b5a7d6c9028b0b02a925032e36",
                "thumb_360_w": 360,
                "thumb_360_h": 208,
                "thumb_480": "https:\/\/files.slack.com\/files-tmb\/TUU48M0T1-F011D7NE1LK-cafecbf146\/image_480.png?t=xoxe-980144714919-1133254701825-1120841107731-daf595b5a7d6c9028b0b02a925032e36",
                "thumb_480_w": 480,
                "thumb_480_h": 278,
                "thumb_160": "https:\/\/files.slack.com\/files-tmb\/TUU48M0T1-F011D7NE1LK-cafecbf146\/image_160.png?t=xoxe-980144714919-1133254701825-1120841107731-daf595b5a7d6c9028b0b02a925032e36",
                "thumb_720": "https:\/\/files.slack.com\/files-tmb\/TUU48M0T1-F011D7NE1LK-cafecbf146\/image_720.png?t=xoxe-980144714919-1133254701825-1120841107731-daf595b5a7d6c9028b0b02a925032e36",
                "thumb_720_w": 720,
                "thumb_720_h": 417,
                "thumb_800": "https:\/\/files.slack.com\/files-tmb\/TUU48M0T1-F011D7NE1LK-cafecbf146\/image_800.png?t=xoxe-980144714919-1133254701825-1120841107731-daf595b5a7d6c9028b0b02a925032e36",
                "thumb_800_w": 800,
                "thumb_800_h": 463,
                "image_exif_rotation": 1,
                "original_w": 914,
                "original_h": 529,
                "thumb_tiny": "AwAbADC+eDSnlc0Hr1x9aDjb1B96AEUHOdppDgHGD+dOUH1pGBLcc0AK3K5x0pE57Gl5285\/GkX8KAJMUjfdP0ozSHkUANQZOfSh\/vUADNDcmgBwUYxRsApF4FOzQB\/\/2Q==",
                "permalink": "https:\/\/open-covid19.slack.com\/files\/UV87UQ37A\/F011D7NE1LK\/image.png",
                "permalink_public": "https:\/\/slack-files.com\/TUU48M0T1-F011D7NE1LK-be7e6ae078",
                "is_starred": false,
                "has_rich_preview": false
            }
        ],
        "upload": true,
        "blocks": [
            {
                "type": "rich_text",
                "block_id": "Zf55A",
                "elements": [
                    {
                        "type": "rich_text_section",
                        "elements": [
                            {
                                "type": "text",
                                "text": "basic definitions around the community structure -- what do you think? (also on doc0.2) "
                            },
                            {
                                "type": "link",
                                "url": "https:\/\/docs.google.com\/document\/d\/101DPBG4yQmv7jBAOQ4yr81JCIHn_gmLSVe06OPQR13U\/edit?usp=sharing"
                            }
                        ]
                    }
                ]
            }
        ],
        "user": "UV87UQ37A",
        "display_as_bot": false,
        "ts": "1586315686.174800",
        "edited": {
            "user": "UV87UQ37A",
            "ts": "1586315699.000000"
        },
        "client_msg_id": "033846d8-defd-4621-97f3-bbc28e6dd2a8",
        "thread_ts": "1586315686.174800",
        "reply_count": 6,
        "reply_users_count": 2,
        "latest_reply": "1586366184.183400",
        "reply_users": [
            "U010HTBUHS9",
            "UV87UQ37A"
        ],
        "replies": [
            {
                "user": "U010HTBUHS9",
                "ts": "1586316091.175400"
            },
            {
                "user": "UV87UQ37A",
                "ts": "1586316444.175800"
            },
            {
                "user": "U010HTBUHS9",
                "ts": "1586360600.181200"
            },
            {
                "user": "UV87UQ37A",
                "ts": "1586360791.182600"
            },
            {
                "user": "UV87UQ37A",
                "ts": "1586366126.183200"
            },
            {
                "user": "UV87UQ37A",
                "ts": "1586366184.183400"
            }
        ],
        "subscribed": false,
        "reactions": [
            {
                "name": "heart_eyes",
                "users": [
                    "U011D8T1Z61"
                ],
                "count": 1
            }
        ]
    },
    {
        "client_msg_id": "fa8f0033-24e8-4c8d-b7a6-66f08e9d83e9",
        "type": "message",
        "text": "In the interest of thinking long term is it possible to rephrase from the opencovid19 focus to something more general that would relate to all projects now and in the future?  Each project can self organize around their own needs but I'd like to be thinking more broadly about the long term and make sure decisions are broadly relevant not just immidiately relevant.",
        "user": "U010HTBUHS9",
        "ts": "1586316091.175400",
        "team": "TUU48M0T1",
        "user_team": "TUU48M0T1",
        "source_team": "TUU48M0T1",
        "user_profile": {
            "avatar_hash": "e7bdbebff0d9",
            "image_72": "https:\/\/avatars.slack-edge.com\/2020-03-22\/1017951251813_e7bdbebff0d9ad1e8f12_72.jpg",
            "first_name": "",
            "real_name": "Adam Arabian",
            "display_name": "Adam Arabian",
            "team": "TUU48M0T1",
            "name": "adam.arabian",
            "is_restricted": false,
            "is_ultra_restricted": false
        },
        "blocks": [
            {
                "type": "rich_text",
                "block_id": "2mxho",
                "elements": [
                    {
                        "type": "rich_text_section",
                        "elements": [
                            {
                                "type": "text",
                                "text": "In the interest of thinking long term is it possible to rephrase from the opencovid19 focus to something more general that would relate to all projects now and in the future?  Each project can self organize around their own needs but I'd like to be thinking more broadly about the long term and make sure decisions are broadly relevant not just immidiately relevant."
                            }
                        ]
                    }
                ]
            }
        ],
        "thread_ts": "1586315686.174800",
        "parent_user_id": "UV87UQ37A"
    },
    {
        "client_msg_id": "5ea91ba9-b29e-40ce-a8bd-32aa118edafa",
        "type": "message",
        "text": "I don't think AirTable provides that support -- I imagine it was manually input. AirTable operates much like a normal spreadsheet, but allows a broader spectrum of sorting and visualization",
        "user": "UV87UQ37A",
        "ts": "1586316243.175600",
        "team": "TUU48M0T1",
        "user_team": "TUU48M0T1",
        "source_team": "TUU48M0T1",
        "user_profile": {
            "avatar_hash": "g7c78d2f0258",
            "image_72": "https:\/\/secure.gravatar.com\/avatar\/7c78d2f0258f7bdf78a86301cfd6b712.jpg?s=72&d=https%3A%2F%2Fa.slack-edge.com%2Fdf10d%2Fimg%2Favatars%2Fava_0014-72.png",
            "first_name": "Victoria",
            "real_name": "Victoria Costa",
            "display_name": "Victoria Costa",
            "team": "TUU48M0T1",
            "name": "victorycoast",
            "is_restricted": false,
            "is_ultra_restricted": false
        },
        "blocks": [
            {
                "type": "rich_text",
                "block_id": "tm0Zy",
                "elements": [
                    {
                        "type": "rich_text_section",
                        "elements": [
                            {
                                "type": "text",
                                "text": "I don't think AirTable provides that support -- I imagine it was manually input. AirTable operates much like a normal spreadsheet, but allows a broader spectrum of sorting and visualization"
                            }
                        ]
                    }
                ]
            }
        ],
        "thread_ts": "1586310771.170800",
        "parent_user_id": "UUWR0FJ7M"
    },
    {
        "client_msg_id": "d1e90ca3-4b9e-4cff-a3f3-5d02aa99bcb9",
        "type": "message",
        "text": "I think it is easily transferrable to a more innocuous structure, but I don't know that the will or commitment of the community will persist beyond the pandemic -- that is a question we have discussed a couple times on governance calls. for now, the community is completely tethered to JOGL's opencovid program for infrastructure, personnel and support. would it be disingenuous to broaden out our definitions at this point?",
        "user": "UV87UQ37A",
        "ts": "1586316444.175800",
        "team": "TUU48M0T1",
        "user_team": "TUU48M0T1",
        "source_team": "TUU48M0T1",
        "user_profile": {
            "avatar_hash": "g7c78d2f0258",
            "image_72": "https:\/\/secure.gravatar.com\/avatar\/7c78d2f0258f7bdf78a86301cfd6b712.jpg?s=72&d=https%3A%2F%2Fa.slack-edge.com%2Fdf10d%2Fimg%2Favatars%2Fava_0014-72.png",
            "first_name": "Victoria",
            "real_name": "Victoria Costa",
            "display_name": "Victoria Costa",
            "team": "TUU48M0T1",
            "name": "victorycoast",
            "is_restricted": false,
            "is_ultra_restricted": false
        },
        "blocks": [
            {
                "type": "rich_text",
                "block_id": "ZpV",
                "elements": [
                    {
                        "type": "rich_text_section",
                        "elements": [
                            {
                                "type": "text",
                                "text": "I think it is easily transferrable to a more innocuous structure, but I don't know that the will or commitment of the community will persist beyond the pandemic -- that is a question we have discussed a couple times on governance calls. for now, the community is completely tethered to JOGL's opencovid program for infrastructure, personnel and support. would it be disingenuous to broaden out our definitions at this point?"
                            }
                        ]
                    }
                ]
            }
        ],
        "thread_ts": "1586315686.174800",
        "parent_user_id": "UV87UQ37A"
    },
    {
        "client_msg_id": "8F5F8380-8776-4821-8B51-EECD5D1FC8E8",
        "type": "message",
        "text": "in that case i think we should just use a google sheet it’s much more easily accessible for people to update\/see and i think someone in <#CURG6ALTC|prgm-communications-team> or even in this channel started a sheet but you’d have to ask",
        "user": "UV0QTJCMT",
        "ts": "1586322397.177400",
        "team": "TUU48M0T1",
        "user_team": "TUU48M0T1",
        "source_team": "TUU48M0T1",
        "user_profile": {
            "avatar_hash": "06a6ae8f69d1",
            "image_72": "https:\/\/avatars.slack-edge.com\/2020-04-13\/1060635499315_06a6ae8f69d18f1ad464_72.png",
            "first_name": "Katherine",
            "real_name": "Katherine Holo",
            "display_name": "Kat Holo - Co-Organizer of OpenCOVID19",
            "team": "TUU48M0T1",
            "name": "katherineh245",
            "is_restricted": false,
            "is_ultra_restricted": false
        },
        "blocks": [
            {
                "type": "rich_text",
                "block_id": "WL9",
                "elements": [
                    {
                        "type": "rich_text_section",
                        "elements": [
                            {
                                "type": "text",
                                "text": "in that case i think we should just use a google sheet it’s much more easily accessible for people to update\/see and i think someone in "
                            },
                            {
                                "type": "channel",
                                "channel_id": "CURG6ALTC"
                            },
                            {
                                "type": "text",
                                "text": " or even in this channel started a sheet but you’d have to ask"
                            }
                        ]
                    }
                ]
            }
        ],
        "thread_ts": "1586310771.170800",
        "parent_user_id": "UUWR0FJ7M"
    },
    {
        "client_msg_id": "ba462c87-09bd-4b9d-8e40-c9fe8d28397e",
        "type": "message",
        "text": "<@U011B6VLM2A> and <@U011D8T1Z61> are working on a comprehensive list. if you like the card format, Manu, I reckon taking their sheet and copying it into an AirTable could make that happen quickly without having to add another tool to the pile",
        "user": "UV87UQ37A",
        "ts": "1586326810.177600",
        "team": "TUU48M0T1",
        "user_team": "TUU48M0T1",
        "source_team": "TUU48M0T1",
        "user_profile": {
            "avatar_hash": "g7c78d2f0258",
            "image_72": "https:\/\/secure.gravatar.com\/avatar\/7c78d2f0258f7bdf78a86301cfd6b712.jpg?s=72&d=https%3A%2F%2Fa.slack-edge.com%2Fdf10d%2Fimg%2Favatars%2Fava_0014-72.png",
            "first_name": "Victoria",
            "real_name": "Victoria Costa",
            "display_name": "Victoria Costa",
            "team": "TUU48M0T1",
            "name": "victorycoast",
            "is_restricted": false,
            "is_ultra_restricted": false
        },
        "blocks": [
            {
                "type": "rich_text",
                "block_id": "ucwN",
                "elements": [
                    {
                        "type": "rich_text_section",
                        "elements": [
                            {
                                "type": "user",
                                "user_id": "U011B6VLM2A"
                            },
                            {
                                "type": "text",
                                "text": " and "
                            },
                            {
                                "type": "user",
                                "user_id": "U011D8T1Z61"
                            },
                            {
                                "type": "text",
                                "text": " are working on a comprehensive list. if you like the card format, Manu, I reckon taking their sheet and copying it into an AirTable could make that happen quickly without having to add another tool to the pile"
                            }
                        ]
                    }
                ]
            }
        ],
        "thread_ts": "1586310771.170800",
        "parent_user_id": "UUWR0FJ7M",
        "reactions": [
            {
                "name": "+1",
                "users": [
                    "U01072UT127"
                ],
                "count": 1
            }
        ]
    }
]