[
    {
        "client_msg_id": "9823900f-584e-4769-ad9f-77b20700d1fd",
        "type": "message",
        "text": "Hey guys,\nI will have to take a couple of decisions today and tomorrow and I may need advice. Ideally in the form of a short 10 minutes call or so, from someone with some previous experience in commercial research and an overview over the OpenCovid19 initiative. I really want to see this project succeed and I have to find a role for me in it (and this during a time where the whole environment I am working and living in rapidly changes on an hourly basis).\nYours Florian",
        "user": "U010X9FPMS8",
        "ts": "1585728087.081600",
        "team": "TUU48M0T1",
        "user_team": "TUU48M0T1",
        "source_team": "TUU48M0T1",
        "user_profile": {
            "avatar_hash": "faff4edf8af2",
            "image_72": "https:\/\/avatars.slack-edge.com\/2020-03-27\/1031471711236_faff4edf8af2cc7b11dd_72.jpg",
            "first_name": "Florian",
            "real_name": "Florian Schulte",
            "display_name": "Florian Schulte",
            "team": "TUU48M0T1",
            "name": "schulte.florian",
            "is_restricted": false,
            "is_ultra_restricted": false
        },
        "edited": {
            "user": "U010X9FPMS8",
            "ts": "1585728110.000000"
        },
        "blocks": [
            {
                "type": "rich_text",
                "block_id": "m94wN",
                "elements": [
                    {
                        "type": "rich_text_section",
                        "elements": [
                            {
                                "type": "text",
                                "text": "Hey guys,\nI will have to take a couple of decisions today and tomorrow and I may need advice. Ideally in the form of a short 10 minutes call or so, from someone with some previous experience in commercial research and an overview over the OpenCovid19 initiative. I really want to see this project succeed and I have to find a role for me in it (and this during a time where the whole environment I am working and living in rapidly changes on an hourly basis).\nYours Florian"
                            }
                        ]
                    }
                ]
            }
        ]
    },
    {
        "client_msg_id": "c288cd4d-ea1a-437c-a87f-387ed766e9cd",
        "type": "message",
        "text": "Hey there :slightly_smiling_face:\nDo you have an update you’d like to share during the global community call?\nIf yes, please put your name in this document: <https:\/\/docs.google.com\/document\/d\/1H0v-5KD1eATfnkD1U_XnoxfCT-BLIKl7sD3-tL1lmMQ\/edit>",
        "user": "UV02WET96",
        "ts": "1585756317.083200",
        "team": "TUU48M0T1",
        "user_team": "TUU48M0T1",
        "source_team": "TUU48M0T1",
        "user_profile": {
            "avatar_hash": "a99c74a194f8",
            "image_72": "https:\/\/avatars.slack-edge.com\/2020-03-07\/975708504851_a99c74a194f86715ca7d_72.png",
            "first_name": "Thomas",
            "real_name": "Thomas Landrain",
            "display_name": "Thomas Landrain - JOGL CoFounder \/ CEO",
            "team": "TUU48M0T1",
            "name": "thomas",
            "is_restricted": false,
            "is_ultra_restricted": false
        },
        "blocks": [
            {
                "type": "rich_text",
                "block_id": "1+O0",
                "elements": [
                    {
                        "type": "rich_text_section",
                        "elements": [
                            {
                                "type": "text",
                                "text": "Hey there "
                            },
                            {
                                "type": "emoji",
                                "name": "slightly_smiling_face"
                            },
                            {
                                "type": "text",
                                "text": "\nDo you have an update you’d like to share during the global community call?\nIf yes, please put your name in this document: "
                            },
                            {
                                "type": "link",
                                "url": "https:\/\/docs.google.com\/document\/d\/1H0v-5KD1eATfnkD1U_XnoxfCT-BLIKl7sD3-tL1lmMQ\/edit"
                            }
                        ]
                    }
                ]
            }
        ],
        "thread_ts": "1585756317.083200",
        "reply_count": 1,
        "reply_users_count": 1,
        "latest_reply": "1585756838.083600",
        "reply_users": [
            "UV87UQ37A"
        ],
        "replies": [
            {
                "user": "UV87UQ37A",
                "ts": "1585756838.083600"
            }
        ],
        "subscribed": false
    },
    {
        "client_msg_id": "ae58deee-f6b7-4af6-b479-8e0024cb4b75",
        "type": "message",
        "text": "unfortunately on another call for this one and will miss it -- excited about all the progress this week!",
        "user": "UV87UQ37A",
        "ts": "1585756838.083600",
        "team": "TUU48M0T1",
        "user_team": "TUU48M0T1",
        "source_team": "TUU48M0T1",
        "user_profile": {
            "avatar_hash": "g7c78d2f0258",
            "image_72": "https:\/\/secure.gravatar.com\/avatar\/7c78d2f0258f7bdf78a86301cfd6b712.jpg?s=72&d=https%3A%2F%2Fa.slack-edge.com%2Fdf10d%2Fimg%2Favatars%2Fava_0014-72.png",
            "first_name": "Victoria",
            "real_name": "Victoria Costa",
            "display_name": "Victoria Costa",
            "team": "TUU48M0T1",
            "name": "victorycoast",
            "is_restricted": false,
            "is_ultra_restricted": false
        },
        "edited": {
            "user": "UV87UQ37A",
            "ts": "1585756864.000000"
        },
        "blocks": [
            {
                "type": "rich_text",
                "block_id": "v6jt",
                "elements": [
                    {
                        "type": "rich_text_section",
                        "elements": [
                            {
                                "type": "text",
                                "text": "unfortunately on another call for this one and will miss it -- excited about all the progress this week!"
                            }
                        ]
                    }
                ]
            }
        ],
        "thread_ts": "1585756317.083200",
        "parent_user_id": "UV02WET96",
        "reactions": [
            {
                "name": "+1",
                "users": [
                    "UV02WET96"
                ],
                "count": 1
            }
        ]
    }
]