[
    {
        "client_msg_id": "89af1d8e-076d-495b-bbcc-41c842ec9aca",
        "type": "message",
        "text": "Hi,  Could there be a channel for those of us unlucky enough to have a covid infection in our house? I guess we, who have an active case to study, are in a position to provide valuable information. My husband has a cough and fever just now. Thanks, Jen",
        "user": "U01016B7KPY",
        "ts": "1585039764.393900",
        "team": "TUU48M0T1",
        "user_team": "TUU48M0T1",
        "source_team": "TUU48M0T1",
        "user_profile": {
            "avatar_hash": "9a7d8bed69ad",
            "image_72": "https:\/\/avatars.slack-edge.com\/2020-03-13\/1001221150774_9a7d8bed69ad082201d0_72.jpg",
            "first_name": "",
            "real_name": "Jennifer Deegan",
            "display_name": "Jennifer Deegan",
            "team": "TUU48M0T1",
            "name": "jendeegan",
            "is_restricted": false,
            "is_ultra_restricted": false
        },
        "blocks": [
            {
                "type": "rich_text",
                "block_id": "WyKnd",
                "elements": [
                    {
                        "type": "rich_text_section",
                        "elements": [
                            {
                                "type": "text",
                                "text": "Hi,  Could there be a channel for those of us unlucky enough to have a covid infection in our house? I guess we, who have an active case to study, are in a position to provide valuable information. My husband has a cough and fever just now. Thanks, Jen"
                            }
                        ]
                    }
                ]
            }
        ]
    },
    {
        "client_msg_id": "d76b73e2-4c14-4256-ae78-7e25b3465d9d",
        "type": "message",
        "text": "Helpful Engineering was created specifically as a solution to COVID, and is more focussed on engineering than biological or computational aspects. Theyre truly a team within the same initiative and already have people on the ground, with a large brand recognition due to recent media articles, and an admin structure outside JOGL so they have a little more independence and their own funding additional to JOGL. However their administration is young, entities need setting up, and we dont have a platform to facilitate collaboration. Its likely as time passes efforts we will work together. We want to help people solve the crisis honestly, whichever is more efficient, and more suited to the creator.",
        "user": "UV0RRGB6H",
        "ts": "1585054563.394200",
        "team": "TUU48M0T1",
        "user_team": "TUU48M0T1",
        "source_team": "TUU48M0T1",
        "user_profile": {
            "avatar_hash": "48d4ab64c90c",
            "image_72": "https:\/\/avatars.slack-edge.com\/2020-03-26\/1029789176912_48d4ab64c90c03f3af4a_72.jpg",
            "first_name": "",
            "real_name": "Chris LB Graham",
            "display_name": "",
            "team": "TUU48M0T1",
            "name": "chris.graham",
            "is_restricted": false,
            "is_ultra_restricted": false
        },
        "blocks": [
            {
                "type": "rich_text",
                "block_id": "AwM",
                "elements": [
                    {
                        "type": "rich_text_section",
                        "elements": [
                            {
                                "type": "text",
                                "text": "Helpful Engineering was created specifically as a solution to COVID, and is more focussed on engineering than biological or computational aspects. Theyre truly a team within the same initiative and already have people on the ground, with a large brand recognition due to recent media articles, and an admin structure outside JOGL so they have a little more independence and their own funding additional to JOGL. However their administration is young, entities need setting up, and we dont have a platform to facilitate collaboration. Its likely as time passes efforts we will work together. We want to help people solve the crisis honestly, whichever is more efficient, and more suited to the creator."
                            }
                        ]
                    }
                ]
            }
        ],
        "thread_ts": "1585016626.392000",
        "parent_user_id": "U010HTBUHS9"
    },
    {
        "client_msg_id": "759c2c30-f96b-4a6a-8d64-68f26108a942",
        "type": "message",
        "text": "Hi <!channel>! [Minutes] from <https:\/\/docs.google.com\/document\/d\/1bPvMYZ-uaMxFsCCA-iDPvgk_w2dnq4yO2fwYAa0-ofY\/edit#|23th of March governance call here>!\n*To sum up:*\n• <@UV02WET96> and <@UV0QTJCMT> presented the <https:\/\/docs.google.com\/document\/d\/1_9wJ-iUacNkxQL8VFcB5NinGLTGnMrcbeYU8cfu3las\/edit?usp=sharing|Opencovid19 vision and cooperation needs> which was subsequently discussed by people attending the call. All comments are in the document, feel free to have a look!\n• Points 3 to 5 of the agenda were not discussed\n*TO DOs:*\n1. <@UV9V03C8Y>:  Merge the <https:\/\/docs.google.com\/document\/d\/1_9wJ-iUacNkxQL8VFcB5NinGLTGnMrcbeYU8cfu3las\/edit?usp=sharing|OpenCOVID19 Vision and Cooperation Needs> and <https:\/\/docs.google.com\/document\/d\/1XieaaUdIHxG5uciTS6Tu9jhPOniBMc1hL5uV6JCqSe0\/edit#heading=h.qci3vz6obqw0|proposed governance structure> and submit to the prgm-governance channel (by today)\n2. <@UV9V03C8Y>:  design program task management spreadsheet (done)\n3. <@U01080CJ6P3>\/<@U010HTBUHS9> : start project management 101 documentation (in process)\n4. <@UV0QTJCMT>: Continues work on identifying the point of contact and subject leaders, via a form. Camille can help reviewing the form (by 25th of March - community call?)\n5. <@UV0QTJCMT> and <@UV87UQ37A>: coordinate badges proposition (That \"fill out this form\" for a badge is a great idea - it will help to assess who is actually involved and who is sideline.) ; Also have badges for recognizing admins\/managers\/experts in the slack (Profile strengthening) (by 25th of March - community call?)\n6. <@UV0QTJCMT> <@UV02WET96> :  fill in the program task managment spreadsheet with emergencies to be delegate asap to anymember of the community (in process)\n7. <@UV9V03C8Y>: Reach out to Lou (data4good) who developed a project management tool in ruby that could be put on JOGL and link with Leo, also with April and Adam in a second time (by the end of the week)\n*Additional comment:* Victoria “We talked about not having project leads or owners, rather stewards of the project, or ambassadors — that are represented in our program communication chain\/meeting structure. Their obligation is to be transparent to the community and feed the information back in, and the person who comes in to request support”\n\nPlease comment below if you have any question, comment, or suggestion! Happy to collaborate!\nCheers everyone!",
        "user": "UV9V03C8Y",
        "ts": "1585073473.401400",
        "team": "TUU48M0T1",
        "user_team": "TUU48M0T1",
        "source_team": "TUU48M0T1",
        "user_profile": {
            "avatar_hash": "177697fb7b8f",
            "image_72": "https:\/\/avatars.slack-edge.com\/2020-03-12\/996126178096_177697fb7b8ffa57649c_72.jpg",
            "first_name": "Camille",
            "real_name": "Camille Masselot - JOGL Program coordinator",
            "display_name": "Camille Masselot - JOGL coordinator",
            "team": "TUU48M0T1",
            "name": "masselot.camille",
            "is_restricted": false,
            "is_ultra_restricted": false
        },
        "blocks": [
            {
                "type": "rich_text",
                "block_id": "QDRF",
                "elements": [
                    {
                        "type": "rich_text_section",
                        "elements": [
                            {
                                "type": "text",
                                "text": "Hi "
                            },
                            {
                                "type": "broadcast",
                                "range": "channel"
                            },
                            {
                                "type": "text",
                                "text": "! [Minutes] from "
                            },
                            {
                                "type": "link",
                                "url": "https:\/\/docs.google.com\/document\/d\/1bPvMYZ-uaMxFsCCA-iDPvgk_w2dnq4yO2fwYAa0-ofY\/edit#",
                                "text": "23th of March governance call here"
                            },
                            {
                                "type": "text",
                                "text": "!\n"
                            },
                            {
                                "type": "text",
                                "text": "To sum up:",
                                "style": {
                                    "bold": true
                                }
                            },
                            {
                                "type": "text",
                                "text": "\n"
                            }
                        ]
                    },
                    {
                        "type": "rich_text_list",
                        "elements": [
                            {
                                "type": "rich_text_section",
                                "elements": [
                                    {
                                        "type": "user",
                                        "user_id": "UV02WET96"
                                    },
                                    {
                                        "type": "text",
                                        "text": " and "
                                    },
                                    {
                                        "type": "user",
                                        "user_id": "UV0QTJCMT"
                                    },
                                    {
                                        "type": "text",
                                        "text": " presented the "
                                    },
                                    {
                                        "type": "link",
                                        "url": "https:\/\/docs.google.com\/document\/d\/1_9wJ-iUacNkxQL8VFcB5NinGLTGnMrcbeYU8cfu3las\/edit?usp=sharing",
                                        "text": "Opencovid19 vision and cooperation needs"
                                    },
                                    {
                                        "type": "text",
                                        "text": " which was subsequently discussed by people attending the call. All comments are in the document, feel free to have a look!"
                                    }
                                ]
                            },
                            {
                                "type": "rich_text_section",
                                "elements": [
                                    {
                                        "type": "text",
                                        "text": "Points 3 to 5 of the agenda were not discussed"
                                    }
                                ]
                            }
                        ],
                        "style": "bullet",
                        "indent": 0
                    },
                    {
                        "type": "rich_text_section",
                        "elements": [
                            {
                                "type": "text",
                                "text": "TO DOs:",
                                "style": {
                                    "bold": true
                                }
                            },
                            {
                                "type": "text",
                                "text": "\n"
                            }
                        ]
                    },
                    {
                        "type": "rich_text_list",
                        "elements": [
                            {
                                "type": "rich_text_section",
                                "elements": [
                                    {
                                        "type": "user",
                                        "user_id": "UV9V03C8Y"
                                    },
                                    {
                                        "type": "text",
                                        "text": ":  Merge the "
                                    },
                                    {
                                        "type": "link",
                                        "url": "https:\/\/docs.google.com\/document\/d\/1_9wJ-iUacNkxQL8VFcB5NinGLTGnMrcbeYU8cfu3las\/edit?usp=sharing",
                                        "text": "OpenCOVID19 Vision and Cooperation Needs"
                                    },
                                    {
                                        "type": "text",
                                        "text": " and "
                                    },
                                    {
                                        "type": "link",
                                        "url": "https:\/\/docs.google.com\/document\/d\/1XieaaUdIHxG5uciTS6Tu9jhPOniBMc1hL5uV6JCqSe0\/edit#heading=h.qci3vz6obqw0",
                                        "text": "proposed governance structure"
                                    },
                                    {
                                        "type": "text",
                                        "text": " and submit to the prgm-governance channel (by today)"
                                    }
                                ]
                            },
                            {
                                "type": "rich_text_section",
                                "elements": [
                                    {
                                        "type": "user",
                                        "user_id": "UV9V03C8Y"
                                    },
                                    {
                                        "type": "text",
                                        "text": ":  design program task management spreadsheet (done)"
                                    }
                                ]
                            },
                            {
                                "type": "rich_text_section",
                                "elements": [
                                    {
                                        "type": "user",
                                        "user_id": "U01080CJ6P3"
                                    },
                                    {
                                        "type": "text",
                                        "text": "\/"
                                    },
                                    {
                                        "type": "user",
                                        "user_id": "U010HTBUHS9"
                                    },
                                    {
                                        "type": "text",
                                        "text": " : start project management 101 documentation (in process)"
                                    }
                                ]
                            },
                            {
                                "type": "rich_text_section",
                                "elements": [
                                    {
                                        "type": "user",
                                        "user_id": "UV0QTJCMT"
                                    },
                                    {
                                        "type": "text",
                                        "text": ": Continues work on identifying the point of contact and subject leaders, via a form. Camille can help reviewing the form (by 25th of March - community call?)"
                                    }
                                ]
                            },
                            {
                                "type": "rich_text_section",
                                "elements": [
                                    {
                                        "type": "user",
                                        "user_id": "UV0QTJCMT"
                                    },
                                    {
                                        "type": "text",
                                        "text": " and "
                                    },
                                    {
                                        "type": "user",
                                        "user_id": "UV87UQ37A"
                                    },
                                    {
                                        "type": "text",
                                        "text": ": coordinate badges proposition (That \"fill out this form\" for a badge is a great idea - it will help to assess who is actually involved and who is sideline.) ; Also have badges for recognizing admins\/managers\/experts in the slack (Profile strengthening) (by 25th of March - community call?)"
                                    }
                                ]
                            },
                            {
                                "type": "rich_text_section",
                                "elements": [
                                    {
                                        "type": "user",
                                        "user_id": "UV0QTJCMT"
                                    },
                                    {
                                        "type": "text",
                                        "text": " "
                                    },
                                    {
                                        "type": "user",
                                        "user_id": "UV02WET96"
                                    },
                                    {
                                        "type": "text",
                                        "text": " :  fill in the program task managment spreadsheet with emergencies to be delegate asap to anymember of the community (in process)"
                                    }
                                ]
                            },
                            {
                                "type": "rich_text_section",
                                "elements": [
                                    {
                                        "type": "user",
                                        "user_id": "UV9V03C8Y"
                                    },
                                    {
                                        "type": "text",
                                        "text": ": Reach out to Lou (data4good) who developed a project management tool in ruby that could be put on JOGL and link with Leo, also with April and Adam in a second time (by the end of the week)"
                                    }
                                ]
                            }
                        ],
                        "style": "ordered",
                        "indent": 0
                    },
                    {
                        "type": "rich_text_section",
                        "elements": [
                            {
                                "type": "text",
                                "text": "Additional comment:",
                                "style": {
                                    "bold": true
                                }
                            },
                            {
                                "type": "text",
                                "text": " Victoria “We talked about not having project leads or owners, rather stewards of the project, or ambassadors — that are represented in our program communication chain\/meeting structure. Their obligation is to be transparent to the community and feed the information back in, and the person who comes in to request support”\n\nPlease comment below if you have any question, comment, or suggestion! Happy to collaborate!\nCheers everyone!"
                            }
                        ]
                    }
                ]
            }
        ]
    },
    {
        "client_msg_id": "aa842e6c-1f31-4701-a170-54d9c58ced23",
        "type": "message",
        "text": "I need to review some of the progress you and others have made <@UV9V03C8Y> but there is a really important need to build a process around community input while still having relevant experts' assessments easily identifiable",
        "user": "UV87UQ37A",
        "ts": "1585084101.404700",
        "team": "TUU48M0T1",
        "user_team": "TUU48M0T1",
        "source_team": "TUU48M0T1",
        "user_profile": {
            "avatar_hash": "g7c78d2f0258",
            "image_72": "https:\/\/secure.gravatar.com\/avatar\/7c78d2f0258f7bdf78a86301cfd6b712.jpg?s=72&d=https%3A%2F%2Fa.slack-edge.com%2Fdf10d%2Fimg%2Favatars%2Fava_0014-72.png",
            "first_name": "Victoria",
            "real_name": "Victoria Costa",
            "display_name": "Victoria Costa",
            "team": "TUU48M0T1",
            "name": "victorycoast",
            "is_restricted": false,
            "is_ultra_restricted": false
        },
        "blocks": [
            {
                "type": "rich_text",
                "block_id": "muACp",
                "elements": [
                    {
                        "type": "rich_text_section",
                        "elements": [
                            {
                                "type": "text",
                                "text": "I need to review some of the progress you and others have made "
                            },
                            {
                                "type": "user",
                                "user_id": "UV9V03C8Y"
                            },
                            {
                                "type": "text",
                                "text": " but there is a really important need to build a process around community input while still having relevant experts' assessments easily identifiable"
                            }
                        ]
                    }
                ]
            }
        ],
        "reactions": [
            {
                "name": "100",
                "users": [
                    "UV9V03C8Y"
                ],
                "count": 1
            },
            {
                "name": "+1",
                "users": [
                    "UV39M083H"
                ],
                "count": 1
            }
        ]
    },
    {
        "client_msg_id": "ca05f043-02ce-41ed-9583-45bb5a5c373f",
        "type": "message",
        "text": "I think having the searchable database of community members and the badge system could work towards this goal",
        "user": "UV87UQ37A",
        "ts": "1585084127.405200",
        "team": "TUU48M0T1",
        "user_team": "TUU48M0T1",
        "source_team": "TUU48M0T1",
        "user_profile": {
            "avatar_hash": "g7c78d2f0258",
            "image_72": "https:\/\/secure.gravatar.com\/avatar\/7c78d2f0258f7bdf78a86301cfd6b712.jpg?s=72&d=https%3A%2F%2Fa.slack-edge.com%2Fdf10d%2Fimg%2Favatars%2Fava_0014-72.png",
            "first_name": "Victoria",
            "real_name": "Victoria Costa",
            "display_name": "Victoria Costa",
            "team": "TUU48M0T1",
            "name": "victorycoast",
            "is_restricted": false,
            "is_ultra_restricted": false
        },
        "blocks": [
            {
                "type": "rich_text",
                "block_id": "hdtp",
                "elements": [
                    {
                        "type": "rich_text_section",
                        "elements": [
                            {
                                "type": "text",
                                "text": "I think having the searchable database of community members and the badge system could work towards this goal"
                            }
                        ]
                    }
                ]
            }
        ]
    },
    {
        "client_msg_id": "3df393ea-0e35-454b-9bac-801c8547ac8f",
        "type": "message",
        "text": "the need to go in one direction or another in regards to decision making and the proposal process is more dire than I thought it was on our call and working to this point",
        "user": "UV87UQ37A",
        "ts": "1585084188.406100",
        "team": "TUU48M0T1",
        "user_team": "TUU48M0T1",
        "source_team": "TUU48M0T1",
        "user_profile": {
            "avatar_hash": "g7c78d2f0258",
            "image_72": "https:\/\/secure.gravatar.com\/avatar\/7c78d2f0258f7bdf78a86301cfd6b712.jpg?s=72&d=https%3A%2F%2Fa.slack-edge.com%2Fdf10d%2Fimg%2Favatars%2Fava_0014-72.png",
            "first_name": "Victoria",
            "real_name": "Victoria Costa",
            "display_name": "Victoria Costa",
            "team": "TUU48M0T1",
            "name": "victorycoast",
            "is_restricted": false,
            "is_ultra_restricted": false
        },
        "blocks": [
            {
                "type": "rich_text",
                "block_id": "lb=nv",
                "elements": [
                    {
                        "type": "rich_text_section",
                        "elements": [
                            {
                                "type": "text",
                                "text": "the need to go in one direction or another in regards to decision making and the proposal process is more dire than I thought it was on our call and working to this point"
                            }
                        ]
                    }
                ]
            }
        ]
    },
    {
        "client_msg_id": "42aa2f23-cf66-411c-89fc-ca32c92a421a",
        "type": "message",
        "text": "I was talking with the hardware folks about the consensus model and I want to borrow a template I've made with another group as a starting point for a proposal template. if our holacratic stewards had other examples they could lead us to as a starting point, let us know <@UV8519NFK> <@UUWR0FJ7M> -- I don't really have a preference for the consensus model as a whole, but I do think the proposal process offers the opportunity to gather input from the entire community while remaining transparent",
        "user": "UV87UQ37A",
        "ts": "1585084365.408300",
        "team": "TUU48M0T1",
        "user_team": "TUU48M0T1",
        "source_team": "TUU48M0T1",
        "user_profile": {
            "avatar_hash": "g7c78d2f0258",
            "image_72": "https:\/\/secure.gravatar.com\/avatar\/7c78d2f0258f7bdf78a86301cfd6b712.jpg?s=72&d=https%3A%2F%2Fa.slack-edge.com%2Fdf10d%2Fimg%2Favatars%2Fava_0014-72.png",
            "first_name": "Victoria",
            "real_name": "Victoria Costa",
            "display_name": "Victoria Costa",
            "team": "TUU48M0T1",
            "name": "victorycoast",
            "is_restricted": false,
            "is_ultra_restricted": false
        },
        "blocks": [
            {
                "type": "rich_text",
                "block_id": "FD10m",
                "elements": [
                    {
                        "type": "rich_text_section",
                        "elements": [
                            {
                                "type": "text",
                                "text": "I was talking with the hardware folks about the consensus model and I want to borrow a template I've made with another group as a starting point for a proposal template. if our holacratic stewards had other examples they could lead us to as a starting point, let us know "
                            },
                            {
                                "type": "user",
                                "user_id": "UV8519NFK"
                            },
                            {
                                "type": "text",
                                "text": " "
                            },
                            {
                                "type": "user",
                                "user_id": "UUWR0FJ7M"
                            },
                            {
                                "type": "text",
                                "text": " -- I don't really have a preference for the consensus model as a whole, but I do think the proposal process offers the opportunity to gather input from the entire community while remaining transparent"
                            }
                        ]
                    }
                ]
            }
        ],
        "thread_ts": "1585084365.408300",
        "reply_count": 8,
        "reply_users_count": 4,
        "latest_reply": "1585136208.002300",
        "reply_users": [
            "UV9V03C8Y",
            "UV87UQ37A",
            "UUWR0FJ7M",
            "UVC9WMA7N"
        ],
        "replies": [
            {
                "user": "UV9V03C8Y",
                "ts": "1585085016.411600"
            },
            {
                "user": "UV87UQ37A",
                "ts": "1585085139.412000"
            },
            {
                "user": "UUWR0FJ7M",
                "ts": "1585085188.412500"
            },
            {
                "user": "UUWR0FJ7M",
                "ts": "1585085227.412700"
            },
            {
                "user": "UV87UQ37A",
                "ts": "1585085264.413100"
            },
            {
                "user": "UUWR0FJ7M",
                "ts": "1585085272.413500"
            },
            {
                "user": "UV87UQ37A",
                "ts": "1585085275.413700"
            },
            {
                "user": "UVC9WMA7N",
                "ts": "1585136208.002300"
            }
        ],
        "subscribed": false
    },
    {
        "type": "message",
        "text": "",
        "files": [
            {
                "id": "F010PAUPE6Q",
                "created": 1585083860,
                "timestamp": 1585083860,
                "name": "Screen Shot 2020-03-24 at 5.01.29 PM.png",
                "title": "Screen Shot 2020-03-24 at 5.01.29 PM.png",
                "mimetype": "image\/png",
                "filetype": "png",
                "pretty_type": "PNG",
                "user": "UV87UQ37A",
                "editable": false,
                "size": 61815,
                "mode": "hosted",
                "is_external": false,
                "external_type": "",
                "is_public": true,
                "public_url_shared": false,
                "display_as_bot": false,
                "username": "",
                "url_private": "https:\/\/files.slack.com\/files-pri\/TUU48M0T1-F010PAUPE6Q\/screen_shot_2020-03-24_at_5.01.29_pm.png?t=xoxe-980144714919-1133254701825-1120841107731-daf595b5a7d6c9028b0b02a925032e36",
                "url_private_download": "https:\/\/files.slack.com\/files-pri\/TUU48M0T1-F010PAUPE6Q\/download\/screen_shot_2020-03-24_at_5.01.29_pm.png?t=xoxe-980144714919-1133254701825-1120841107731-daf595b5a7d6c9028b0b02a925032e36",
                "thumb_64": "https:\/\/files.slack.com\/files-tmb\/TUU48M0T1-F010PAUPE6Q-9a563626f4\/screen_shot_2020-03-24_at_5.01.29_pm_64.png?t=xoxe-980144714919-1133254701825-1120841107731-daf595b5a7d6c9028b0b02a925032e36",
                "thumb_80": "https:\/\/files.slack.com\/files-tmb\/TUU48M0T1-F010PAUPE6Q-9a563626f4\/screen_shot_2020-03-24_at_5.01.29_pm_80.png?t=xoxe-980144714919-1133254701825-1120841107731-daf595b5a7d6c9028b0b02a925032e36",
                "thumb_360": "https:\/\/files.slack.com\/files-tmb\/TUU48M0T1-F010PAUPE6Q-9a563626f4\/screen_shot_2020-03-24_at_5.01.29_pm_360.png?t=xoxe-980144714919-1133254701825-1120841107731-daf595b5a7d6c9028b0b02a925032e36",
                "thumb_360_w": 282,
                "thumb_360_h": 360,
                "thumb_480": "https:\/\/files.slack.com\/files-tmb\/TUU48M0T1-F010PAUPE6Q-9a563626f4\/screen_shot_2020-03-24_at_5.01.29_pm_480.png?t=xoxe-980144714919-1133254701825-1120841107731-daf595b5a7d6c9028b0b02a925032e36",
                "thumb_480_w": 376,
                "thumb_480_h": 480,
                "thumb_160": "https:\/\/files.slack.com\/files-tmb\/TUU48M0T1-F010PAUPE6Q-9a563626f4\/screen_shot_2020-03-24_at_5.01.29_pm_160.png?t=xoxe-980144714919-1133254701825-1120841107731-daf595b5a7d6c9028b0b02a925032e36",
                "image_exif_rotation": 1,
                "original_w": 465,
                "original_h": 593,
                "thumb_tiny": "AwAwACVszv8AaXHmEDce\/ApJS6bcO\/I7mp5Y4DK5bzM55wRTfKg6fvfzFZXR1prQSV38uHBb7nrURZ\/Vv++qtSJDsjzvxt4xio9kH\/TT8xQ2hRatsTWDFg+SeMdTmrdQWqoobZu5xnJqetFsYT+IpSI\/msQhPPpSOsjnPlsPwq07EBiO1MRmyQxz0rlc1qWpsjdGKx\/K3C+lR+W3ZG\/KrbkgDBxTQx9c05TVxKbEtVKhsgj6ip6ZHnBySfrT63g7xRnJ3dyq9zGJGQqxOccd6b58cfHluufpUTo4uXbYxGT0FMaNwgVUc85yVxUOK7GXNItvOm1CVY5GRimfaYx\/A9Ryxvsi+RuF7CovLk\/55t+RocV2BzkaEEiyA7QRj1qWqtirKr7lI5HUVarSKsi07rU\/\/9k=",
                "permalink": "https:\/\/open-covid19.slack.com\/files\/UV87UQ37A\/F010PAUPE6Q\/screen_shot_2020-03-24_at_5.01.29_pm.png",
                "permalink_public": "https:\/\/slack-files.com\/TUU48M0T1-F010PAUPE6Q-83d3878c35",
                "is_starred": false,
                "has_rich_preview": false
            }
        ],
        "upload": false,
        "user": "UV87UQ37A",
        "display_as_bot": false,
        "ts": "1585084381.408400"
    },
    {
        "client_msg_id": "57cda6aa-32db-4176-8663-fd5a219cc028",
        "type": "message",
        "text": "in terms of rapid community response, the standaside allows folks without expertise to let the prevailing voices be heard. and people could simply approve a project, or raise objections",
        "user": "UV87UQ37A",
        "ts": "1585084443.409500",
        "team": "TUU48M0T1",
        "user_team": "TUU48M0T1",
        "source_team": "TUU48M0T1",
        "user_profile": {
            "avatar_hash": "g7c78d2f0258",
            "image_72": "https:\/\/secure.gravatar.com\/avatar\/7c78d2f0258f7bdf78a86301cfd6b712.jpg?s=72&d=https%3A%2F%2Fa.slack-edge.com%2Fdf10d%2Fimg%2Favatars%2Fava_0014-72.png",
            "first_name": "Victoria",
            "real_name": "Victoria Costa",
            "display_name": "Victoria Costa",
            "team": "TUU48M0T1",
            "name": "victorycoast",
            "is_restricted": false,
            "is_ultra_restricted": false
        },
        "blocks": [
            {
                "type": "rich_text",
                "block_id": "o268q",
                "elements": [
                    {
                        "type": "rich_text_section",
                        "elements": [
                            {
                                "type": "text",
                                "text": "in terms of rapid community response, the standaside allows folks without expertise to let the prevailing voices be heard. and people could simply approve a project, or raise objections"
                            }
                        ]
                    }
                ]
            }
        ]
    },
    {
        "client_msg_id": "a1c1d4d9-575f-49de-928e-4fd221251d94",
        "type": "message",
        "text": "it would be super awesome <@UVC9WMA7N> if people could search proposal responses by badge so they can easily get to the experts' opinion",
        "user": "UV87UQ37A",
        "ts": "1585084547.410600",
        "team": "TUU48M0T1",
        "user_team": "TUU48M0T1",
        "source_team": "TUU48M0T1",
        "user_profile": {
            "avatar_hash": "g7c78d2f0258",
            "image_72": "https:\/\/secure.gravatar.com\/avatar\/7c78d2f0258f7bdf78a86301cfd6b712.jpg?s=72&d=https%3A%2F%2Fa.slack-edge.com%2Fdf10d%2Fimg%2Favatars%2Fava_0014-72.png",
            "first_name": "Victoria",
            "real_name": "Victoria Costa",
            "display_name": "Victoria Costa",
            "team": "TUU48M0T1",
            "name": "victorycoast",
            "is_restricted": false,
            "is_ultra_restricted": false
        },
        "blocks": [
            {
                "type": "rich_text",
                "block_id": "2Kv6T",
                "elements": [
                    {
                        "type": "rich_text_section",
                        "elements": [
                            {
                                "type": "text",
                                "text": "it would be super awesome "
                            },
                            {
                                "type": "user",
                                "user_id": "UVC9WMA7N"
                            },
                            {
                                "type": "text",
                                "text": " if people could search proposal responses by badge so they can easily get to the experts' opinion"
                            }
                        ]
                    }
                ]
            }
        ],
        "thread_ts": "1585084547.410600",
        "reply_count": 1,
        "reply_users_count": 1,
        "latest_reply": "1585135914.001900",
        "reply_users": [
            "UVC9WMA7N"
        ],
        "replies": [
            {
                "user": "UVC9WMA7N",
                "ts": "1585135914.001900"
            }
        ],
        "subscribed": false
    },
    {
        "client_msg_id": "0422830e-ac36-4da7-893e-1401f98d5aaa",
        "type": "message",
        "text": "to that end <@UV0QTJCMT> we need to think about a verification system",
        "user": "UV87UQ37A",
        "ts": "1585084594.411000",
        "team": "TUU48M0T1",
        "user_team": "TUU48M0T1",
        "source_team": "TUU48M0T1",
        "user_profile": {
            "avatar_hash": "g7c78d2f0258",
            "image_72": "https:\/\/secure.gravatar.com\/avatar\/7c78d2f0258f7bdf78a86301cfd6b712.jpg?s=72&d=https%3A%2F%2Fa.slack-edge.com%2Fdf10d%2Fimg%2Favatars%2Fava_0014-72.png",
            "first_name": "Victoria",
            "real_name": "Victoria Costa",
            "display_name": "Victoria Costa",
            "team": "TUU48M0T1",
            "name": "victorycoast",
            "is_restricted": false,
            "is_ultra_restricted": false
        },
        "blocks": [
            {
                "type": "rich_text",
                "block_id": "L8zoA",
                "elements": [
                    {
                        "type": "rich_text_section",
                        "elements": [
                            {
                                "type": "text",
                                "text": "to that end "
                            },
                            {
                                "type": "user",
                                "user_id": "UV0QTJCMT"
                            },
                            {
                                "type": "text",
                                "text": " we need to think about a verification system"
                            }
                        ]
                    }
                ]
            }
        ],
        "thread_ts": "1585084594.411000",
        "reply_count": 13,
        "reply_users_count": 4,
        "latest_reply": "1585107019.000200",
        "reply_users": [
            "UV0RRGB6H",
            "U010HTBUHS9",
            "UV9V03C8Y",
            "UV87UQ37A"
        ],
        "replies": [
            {
                "user": "UV0RRGB6H",
                "ts": "1585084913.411400"
            },
            {
                "user": "U010HTBUHS9",
                "ts": "1585085138.411800"
            },
            {
                "user": "UV9V03C8Y",
                "ts": "1585085142.412200"
            },
            {
                "user": "U010HTBUHS9",
                "ts": "1585085271.413300"
            },
            {
                "user": "U010HTBUHS9",
                "ts": "1585085310.413900"
            },
            {
                "user": "UV87UQ37A",
                "ts": "1585085366.414200"
            },
            {
                "user": "UV0RRGB6H",
                "ts": "1585085412.414400"
            },
            {
                "user": "UV87UQ37A",
                "ts": "1585085430.414600"
            },
            {
                "user": "UV0RRGB6H",
                "ts": "1585085459.414900"
            },
            {
                "user": "UV87UQ37A",
                "ts": "1585085670.415100"
            },
            {
                "user": "UV87UQ37A",
                "ts": "1585085698.415400"
            },
            {
                "user": "U010HTBUHS9",
                "ts": "1585088385.416000"
            },
            {
                "user": "UV87UQ37A",
                "ts": "1585107019.000200"
            }
        ],
        "subscribed": false
    },
    {
        "client_msg_id": "0fc2585a-6d64-44b3-8a55-f165197438c5",
        "type": "message",
        "text": "Bring this to the project-review page :slightly_smiling_face: This brings questions on- is this review process double blind.-Are reviewers anonymous etc  What do you mean by search for proposal responses by badge? That seems interesting.  Is this figure new?",
        "user": "UV0RRGB6H",
        "ts": "1585084913.411400",
        "team": "TUU48M0T1",
        "user_team": "TUU48M0T1",
        "source_team": "TUU48M0T1",
        "user_profile": {
            "avatar_hash": "48d4ab64c90c",
            "image_72": "https:\/\/avatars.slack-edge.com\/2020-03-26\/1029789176912_48d4ab64c90c03f3af4a_72.jpg",
            "first_name": "",
            "real_name": "Chris LB Graham",
            "display_name": "",
            "team": "TUU48M0T1",
            "name": "chris.graham",
            "is_restricted": false,
            "is_ultra_restricted": false
        },
        "blocks": [
            {
                "type": "rich_text",
                "block_id": "CfJ",
                "elements": [
                    {
                        "type": "rich_text_section",
                        "elements": [
                            {
                                "type": "text",
                                "text": "Bring this to the project-review page "
                            },
                            {
                                "type": "emoji",
                                "name": "slightly_smiling_face"
                            },
                            {
                                "type": "text",
                                "text": " This brings questions on- is this review process double blind.-Are reviewers anonymous etc  What do you mean by search for proposal responses by badge? That seems interesting.  Is this figure new?"
                            }
                        ]
                    }
                ]
            }
        ],
        "thread_ts": "1585084594.411000",
        "parent_user_id": "UV87UQ37A"
    },
    {
        "client_msg_id": "6dd234eb-8337-42d1-9f0a-18f553df8873",
        "type": "message",
        "text": "Nice! Thanks <@UV87UQ37A>! I am a little bit confused about which decisions you are talking about. Could you maybe give an example, please?",
        "user": "UV9V03C8Y",
        "ts": "1585085016.411600",
        "team": "TUU48M0T1",
        "user_team": "TUU48M0T1",
        "source_team": "TUU48M0T1",
        "user_profile": {
            "avatar_hash": "177697fb7b8f",
            "image_72": "https:\/\/avatars.slack-edge.com\/2020-03-12\/996126178096_177697fb7b8ffa57649c_72.jpg",
            "first_name": "Camille",
            "real_name": "Camille Masselot - JOGL Program coordinator",
            "display_name": "Camille Masselot - JOGL coordinator",
            "team": "TUU48M0T1",
            "name": "masselot.camille",
            "is_restricted": false,
            "is_ultra_restricted": false
        },
        "blocks": [
            {
                "type": "rich_text",
                "block_id": "oL7Ct",
                "elements": [
                    {
                        "type": "rich_text_section",
                        "elements": [
                            {
                                "type": "text",
                                "text": "Nice! Thanks "
                            },
                            {
                                "type": "user",
                                "user_id": "UV87UQ37A"
                            },
                            {
                                "type": "text",
                                "text": "! I am a little bit confused about which decisions you are talking about. Could you maybe give an example, please?"
                            }
                        ]
                    }
                ]
            }
        ],
        "thread_ts": "1585084365.408300",
        "parent_user_id": "UV87UQ37A"
    },
    {
        "client_msg_id": "5d04aaed-4945-4c5a-9136-3f25c5c8fb27",
        "type": "message",
        "text": "I don't know about this figure in particular but the consensus model for decision making that Victoria is talking about is kind of a standard thing in industry.",
        "user": "U010HTBUHS9",
        "ts": "1585085138.411800",
        "team": "TUU48M0T1",
        "user_team": "TUU48M0T1",
        "source_team": "TUU48M0T1",
        "user_profile": {
            "avatar_hash": "e7bdbebff0d9",
            "image_72": "https:\/\/avatars.slack-edge.com\/2020-03-22\/1017951251813_e7bdbebff0d9ad1e8f12_72.jpg",
            "first_name": "",
            "real_name": "Adam Arabian",
            "display_name": "Adam Arabian",
            "team": "TUU48M0T1",
            "name": "adam.arabian",
            "is_restricted": false,
            "is_ultra_restricted": false
        },
        "blocks": [
            {
                "type": "rich_text",
                "block_id": "Xq3Ll",
                "elements": [
                    {
                        "type": "rich_text_section",
                        "elements": [
                            {
                                "type": "text",
                                "text": "I don't know about this figure in particular but the consensus model for decision making that Victoria is talking about is kind of a standard thing in industry."
                            }
                        ]
                    }
                ]
            }
        ],
        "thread_ts": "1585084594.411000",
        "parent_user_id": "UV87UQ37A",
        "reactions": [
            {
                "name": "+1",
                "users": [
                    "UV9V03C8Y"
                ],
                "count": 1
            }
        ]
    },
    {
        "client_msg_id": "c3630668-154b-4330-bcb7-537dcf181d6e",
        "type": "message",
        "text": "all decisions! our governance model of decision making -- we need to work our values into a template that all teams can use. I don't think they have to use it if something else works for them, but there is a struggle around how to gather and integrate broader community input and source relevant experts",
        "user": "UV87UQ37A",
        "ts": "1585085139.412000",
        "team": "TUU48M0T1",
        "user_team": "TUU48M0T1",
        "source_team": "TUU48M0T1",
        "user_profile": {
            "avatar_hash": "g7c78d2f0258",
            "image_72": "https:\/\/secure.gravatar.com\/avatar\/7c78d2f0258f7bdf78a86301cfd6b712.jpg?s=72&d=https%3A%2F%2Fa.slack-edge.com%2Fdf10d%2Fimg%2Favatars%2Fava_0014-72.png",
            "first_name": "Victoria",
            "real_name": "Victoria Costa",
            "display_name": "Victoria Costa",
            "team": "TUU48M0T1",
            "name": "victorycoast",
            "is_restricted": false,
            "is_ultra_restricted": false
        },
        "blocks": [
            {
                "type": "rich_text",
                "block_id": "tiyV0",
                "elements": [
                    {
                        "type": "rich_text_section",
                        "elements": [
                            {
                                "type": "text",
                                "text": "all decisions! our governance model of decision making -- we need to work our values into a template that all teams can use. I don't think they have to use it if something else works for them, but there is a struggle around how to gather and integrate broader community input and source relevant experts"
                            }
                        ]
                    }
                ]
            }
        ],
        "thread_ts": "1585084365.408300",
        "parent_user_id": "UV87UQ37A"
    },
    {
        "client_msg_id": "19094e9c-f2cf-499a-85ce-e0a077ead803",
        "type": "message",
        "text": "Also <@UV87UQ37A> if you're talking about reviewers, I think it would be nice if they could declare their interest, in link with Axa research Found, so that we ensure there is no conflict of interest. For verification, I can share with you what we implemented for Co-Immune (if that can help)",
        "user": "UV9V03C8Y",
        "ts": "1585085142.412200",
        "team": "TUU48M0T1",
        "user_team": "TUU48M0T1",
        "source_team": "TUU48M0T1",
        "user_profile": {
            "avatar_hash": "177697fb7b8f",
            "image_72": "https:\/\/avatars.slack-edge.com\/2020-03-12\/996126178096_177697fb7b8ffa57649c_72.jpg",
            "first_name": "Camille",
            "real_name": "Camille Masselot - JOGL Program coordinator",
            "display_name": "Camille Masselot - JOGL coordinator",
            "team": "TUU48M0T1",
            "name": "masselot.camille",
            "is_restricted": false,
            "is_ultra_restricted": false
        },
        "blocks": [
            {
                "type": "rich_text",
                "block_id": "toX",
                "elements": [
                    {
                        "type": "rich_text_section",
                        "elements": [
                            {
                                "type": "text",
                                "text": "Also "
                            },
                            {
                                "type": "user",
                                "user_id": "UV87UQ37A"
                            },
                            {
                                "type": "text",
                                "text": " if you're talking about reviewers, I think it would be nice if they could declare their interest, in link with Axa research Found, so that we ensure there is no conflict of interest. For verification, I can share with you what we implemented for Co-Immune (if that can help)"
                            }
                        ]
                    }
                ]
            }
        ],
        "thread_ts": "1585084594.411000",
        "parent_user_id": "UV87UQ37A"
    },
    {
        "client_msg_id": "7d099648-5e20-4f4b-a4d0-9b2ed5191a3f",
        "type": "message",
        "text": "<@UV87UQ37A> I think the notion of consent is more interesting - and more efficient - than consensus. It means that all proposals with no valid objections can be implemented. Some details here: <https:\/\/evolvingcollaboration.com\/category\/sociocracy\/>",
        "user": "UUWR0FJ7M",
        "ts": "1585085188.412500",
        "team": "TUU48M0T1",
        "user_team": "TUU48M0T1",
        "source_team": "TUU48M0T1",
        "user_profile": {
            "avatar_hash": "g0851a85aef5",
            "image_72": "https:\/\/secure.gravatar.com\/avatar\/0851a85aef59ee4069c5669edd21a593.jpg?s=72&d=https%3A%2F%2Fa.slack-edge.com%2Fdf10d%2Fimg%2Favatars%2Fava_0004-72.png",
            "first_name": "manuel",
            "real_name": "manuel lannaud",
            "display_name": "manu lannaud",
            "team": "TUU48M0T1",
            "name": "slack1260",
            "is_restricted": false,
            "is_ultra_restricted": false
        },
        "blocks": [
            {
                "type": "rich_text",
                "block_id": "3PB",
                "elements": [
                    {
                        "type": "rich_text_section",
                        "elements": [
                            {
                                "type": "user",
                                "user_id": "UV87UQ37A"
                            },
                            {
                                "type": "text",
                                "text": " I think the notion of consent is more interesting - and more efficient - than consensus. It means that all proposals with no valid objections can be implemented. Some details here: "
                            },
                            {
                                "type": "link",
                                "url": "https:\/\/evolvingcollaboration.com\/category\/sociocracy\/"
                            }
                        ]
                    }
                ]
            }
        ],
        "thread_ts": "1585084365.408300",
        "parent_user_id": "UV87UQ37A"
    },
    {
        "type": "message",
        "text": "From the sociocracy 3.0 guideline.",
        "files": [
            {
                "id": "F010PRN0HH6",
                "created": 1585085222,
                "timestamp": 1585085222,
                "name": "Screenshot from 2020-03-24 14-25-51.png",
                "title": "Screenshot from 2020-03-24 14-25-51.png",
                "mimetype": "image\/png",
                "filetype": "png",
                "pretty_type": "PNG",
                "user": "UUWR0FJ7M",
                "editable": false,
                "size": 60333,
                "mode": "hosted",
                "is_external": false,
                "external_type": "",
                "is_public": true,
                "public_url_shared": false,
                "display_as_bot": false,
                "username": "",
                "url_private": "https:\/\/files.slack.com\/files-pri\/TUU48M0T1-F010PRN0HH6\/screenshot_from_2020-03-24_14-25-51.png?t=xoxe-980144714919-1133254701825-1120841107731-daf595b5a7d6c9028b0b02a925032e36",
                "url_private_download": "https:\/\/files.slack.com\/files-pri\/TUU48M0T1-F010PRN0HH6\/download\/screenshot_from_2020-03-24_14-25-51.png?t=xoxe-980144714919-1133254701825-1120841107731-daf595b5a7d6c9028b0b02a925032e36",
                "thumb_64": "https:\/\/files.slack.com\/files-tmb\/TUU48M0T1-F010PRN0HH6-2c891f6bee\/screenshot_from_2020-03-24_14-25-51_64.png?t=xoxe-980144714919-1133254701825-1120841107731-daf595b5a7d6c9028b0b02a925032e36",
                "thumb_80": "https:\/\/files.slack.com\/files-tmb\/TUU48M0T1-F010PRN0HH6-2c891f6bee\/screenshot_from_2020-03-24_14-25-51_80.png?t=xoxe-980144714919-1133254701825-1120841107731-daf595b5a7d6c9028b0b02a925032e36",
                "thumb_360": "https:\/\/files.slack.com\/files-tmb\/TUU48M0T1-F010PRN0HH6-2c891f6bee\/screenshot_from_2020-03-24_14-25-51_360.png?t=xoxe-980144714919-1133254701825-1120841107731-daf595b5a7d6c9028b0b02a925032e36",
                "thumb_360_w": 326,
                "thumb_360_h": 360,
                "thumb_480": "https:\/\/files.slack.com\/files-tmb\/TUU48M0T1-F010PRN0HH6-2c891f6bee\/screenshot_from_2020-03-24_14-25-51_480.png?t=xoxe-980144714919-1133254701825-1120841107731-daf595b5a7d6c9028b0b02a925032e36",
                "thumb_480_w": 435,
                "thumb_480_h": 480,
                "thumb_160": "https:\/\/files.slack.com\/files-tmb\/TUU48M0T1-F010PRN0HH6-2c891f6bee\/screenshot_from_2020-03-24_14-25-51_160.png?t=xoxe-980144714919-1133254701825-1120841107731-daf595b5a7d6c9028b0b02a925032e36",
                "image_exif_rotation": 1,
                "original_w": 640,
                "original_h": 706,
                "thumb_tiny": "AwAwACvQbGcZb8KaMD+J\/wA6ew5\/+tSY9v0oATj+81KGAHc0Y9v0ox\/nFAC7xThyKT8T+VLQAmATk0YHoKWigAwPQUYHoKKKAEwPQUtFFAERjiBwRz9TRsi\/yTUh9qTn3oAaI4j0H6ml8lPT9TS8+9HPvQAnkp6fqaPJT0\/U04DjvS0Af\/\/Z",
                "permalink": "https:\/\/open-covid19.slack.com\/files\/UUWR0FJ7M\/F010PRN0HH6\/screenshot_from_2020-03-24_14-25-51.png",
                "permalink_public": "https:\/\/slack-files.com\/TUU48M0T1-F010PRN0HH6-d86ad23f47",
                "is_starred": false,
                "has_rich_preview": false
            }
        ],
        "upload": true,
        "blocks": [
            {
                "type": "rich_text",
                "block_id": "D5e",
                "elements": [
                    {
                        "type": "rich_text_section",
                        "elements": [
                            {
                                "type": "text",
                                "text": "From the sociocracy 3.0 guideline."
                            }
                        ]
                    }
                ]
            }
        ],
        "user": "UUWR0FJ7M",
        "display_as_bot": false,
        "ts": "1585085227.412700",
        "client_msg_id": "9d4bc5f4-455b-4172-85f0-6df634c00a3a",
        "thread_ts": "1585084365.408300",
        "parent_user_id": "UV87UQ37A"
    },
    {
        "client_msg_id": "4de64871-9da3-470d-9c7b-64adb19bbbd0",
        "type": "message",
        "text": "thanks for the link <@UUWR0FJ7M> -- that is ultimately how we function, but we don't use that terminology.",
        "user": "UV87UQ37A",
        "ts": "1585085264.413100",
        "team": "TUU48M0T1",
        "user_team": "TUU48M0T1",
        "source_team": "TUU48M0T1",
        "user_profile": {
            "avatar_hash": "g7c78d2f0258",
            "image_72": "https:\/\/secure.gravatar.com\/avatar\/7c78d2f0258f7bdf78a86301cfd6b712.jpg?s=72&d=https%3A%2F%2Fa.slack-edge.com%2Fdf10d%2Fimg%2Favatars%2Fava_0014-72.png",
            "first_name": "Victoria",
            "real_name": "Victoria Costa",
            "display_name": "Victoria Costa",
            "team": "TUU48M0T1",
            "name": "victorycoast",
            "is_restricted": false,
            "is_ultra_restricted": false
        },
        "blocks": [
            {
                "type": "rich_text",
                "block_id": "RHJt",
                "elements": [
                    {
                        "type": "rich_text_section",
                        "elements": [
                            {
                                "type": "text",
                                "text": "thanks for the link "
                            },
                            {
                                "type": "user",
                                "user_id": "UUWR0FJ7M"
                            },
                            {
                                "type": "text",
                                "text": " -- that is ultimately how we function, but we don't use that terminology."
                            }
                        ]
                    }
                ]
            }
        ],
        "thread_ts": "1585084365.408300",
        "parent_user_id": "UV87UQ37A"
    },
    {
        "client_msg_id": "cd1630f0-dbb1-452b-b84f-dda3a57cb06f",
        "type": "message",
        "text": "WRT expert opinions I think we need to distinguish between REVIEWS and MENTORING\/GUIDANCE.  Mentors can be available for team support but that should be a different phase than reviews.  Its probably not a big deal for small grants but we may want to be clear about the distinction and offer a conflict of interest model whereby people can step back from a particular review if they feel like they can't make an honest assessment.  This may not have anything to do with mentoring - maybe a faculty member at a univerisity has a student team working on something for instance.",
        "user": "U010HTBUHS9",
        "ts": "1585085271.413300",
        "team": "TUU48M0T1",
        "user_team": "TUU48M0T1",
        "source_team": "TUU48M0T1",
        "user_profile": {
            "avatar_hash": "e7bdbebff0d9",
            "image_72": "https:\/\/avatars.slack-edge.com\/2020-03-22\/1017951251813_e7bdbebff0d9ad1e8f12_72.jpg",
            "first_name": "",
            "real_name": "Adam Arabian",
            "display_name": "Adam Arabian",
            "team": "TUU48M0T1",
            "name": "adam.arabian",
            "is_restricted": false,
            "is_ultra_restricted": false
        },
        "blocks": [
            {
                "type": "rich_text",
                "block_id": "XYYbh",
                "elements": [
                    {
                        "type": "rich_text_section",
                        "elements": [
                            {
                                "type": "text",
                                "text": "WRT expert opinions I think we need to distinguish between REVIEWS and MENTORING\/GUIDANCE.  Mentors can be available for team support but that should be a different phase than reviews.  Its probably not a big deal for small grants but we may want to be clear about the distinction and offer a conflict of interest model whereby people can step back from a particular review if they feel like they can't make an honest assessment.  This may not have anything to do with mentoring - maybe a faculty member at a univerisity has a student team working on something for instance."
                            }
                        ]
                    }
                ]
            }
        ],
        "thread_ts": "1585084594.411000",
        "parent_user_id": "UV87UQ37A"
    },
    {
        "client_msg_id": "5f27ce52-d603-47c3-8d0e-85e42c10e91e",
        "type": "message",
        "text": "Then routine processes can be used in meetings to make sure all proposals and objections are heard.",
        "user": "UUWR0FJ7M",
        "ts": "1585085272.413500",
        "team": "TUU48M0T1",
        "user_team": "TUU48M0T1",
        "source_team": "TUU48M0T1",
        "user_profile": {
            "avatar_hash": "g0851a85aef5",
            "image_72": "https:\/\/secure.gravatar.com\/avatar\/0851a85aef59ee4069c5669edd21a593.jpg?s=72&d=https%3A%2F%2Fa.slack-edge.com%2Fdf10d%2Fimg%2Favatars%2Fava_0004-72.png",
            "first_name": "manuel",
            "real_name": "manuel lannaud",
            "display_name": "manu lannaud",
            "team": "TUU48M0T1",
            "name": "slack1260",
            "is_restricted": false,
            "is_ultra_restricted": false
        },
        "blocks": [
            {
                "type": "rich_text",
                "block_id": "Qi2sj",
                "elements": [
                    {
                        "type": "rich_text_section",
                        "elements": [
                            {
                                "type": "text",
                                "text": "Then routine processes can be used in meetings to make sure all proposals and objections are heard."
                            }
                        ]
                    }
                ]
            }
        ],
        "thread_ts": "1585084365.408300",
        "parent_user_id": "UV87UQ37A"
    },
    {
        "client_msg_id": "d00254bd-3f90-4901-a40f-52ca85a0d132",
        "type": "message",
        "text": "we being the other org",
        "user": "UV87UQ37A",
        "ts": "1585085275.413700",
        "team": "TUU48M0T1",
        "user_team": "TUU48M0T1",
        "source_team": "TUU48M0T1",
        "user_profile": {
            "avatar_hash": "g7c78d2f0258",
            "image_72": "https:\/\/secure.gravatar.com\/avatar\/7c78d2f0258f7bdf78a86301cfd6b712.jpg?s=72&d=https%3A%2F%2Fa.slack-edge.com%2Fdf10d%2Fimg%2Favatars%2Fava_0014-72.png",
            "first_name": "Victoria",
            "real_name": "Victoria Costa",
            "display_name": "Victoria Costa",
            "team": "TUU48M0T1",
            "name": "victorycoast",
            "is_restricted": false,
            "is_ultra_restricted": false
        },
        "blocks": [
            {
                "type": "rich_text",
                "block_id": "4Km",
                "elements": [
                    {
                        "type": "rich_text_section",
                        "elements": [
                            {
                                "type": "text",
                                "text": "we being the other org"
                            }
                        ]
                    }
                ]
            }
        ],
        "thread_ts": "1585084365.408300",
        "parent_user_id": "UV87UQ37A",
        "reactions": [
            {
                "name": "+1",
                "users": [
                    "UUWR0FJ7M"
                ],
                "count": 1
            }
        ]
    },
    {
        "client_msg_id": "6ae697f0-9e9c-424f-8365-5282d938aa1a",
        "type": "message",
        "text": "I think the community is small enough that we can trust but decide if that works int he long run",
        "user": "U010HTBUHS9",
        "ts": "1585085310.413900",
        "team": "TUU48M0T1",
        "user_team": "TUU48M0T1",
        "source_team": "TUU48M0T1",
        "user_profile": {
            "avatar_hash": "e7bdbebff0d9",
            "image_72": "https:\/\/avatars.slack-edge.com\/2020-03-22\/1017951251813_e7bdbebff0d9ad1e8f12_72.jpg",
            "first_name": "",
            "real_name": "Adam Arabian",
            "display_name": "Adam Arabian",
            "team": "TUU48M0T1",
            "name": "adam.arabian",
            "is_restricted": false,
            "is_ultra_restricted": false
        },
        "blocks": [
            {
                "type": "rich_text",
                "block_id": "5oq3d",
                "elements": [
                    {
                        "type": "rich_text_section",
                        "elements": [
                            {
                                "type": "text",
                                "text": "I think the community is small enough that we can trust but decide if that works int he long run"
                            }
                        ]
                    }
                ]
            }
        ],
        "thread_ts": "1585084594.411000",
        "parent_user_id": "UV87UQ37A"
    },
    {
        "client_msg_id": "bab9f7c4-7bc4-4cc0-90b1-babdeae1f904",
        "type": "message",
        "text": "I think if we open every proposal to the community and comments are searchable by interest\/experience\/badge, it would amazing",
        "user": "UV87UQ37A",
        "ts": "1585085366.414200",
        "team": "TUU48M0T1",
        "user_team": "TUU48M0T1",
        "source_team": "TUU48M0T1",
        "user_profile": {
            "avatar_hash": "g7c78d2f0258",
            "image_72": "https:\/\/secure.gravatar.com\/avatar\/7c78d2f0258f7bdf78a86301cfd6b712.jpg?s=72&d=https%3A%2F%2Fa.slack-edge.com%2Fdf10d%2Fimg%2Favatars%2Fava_0014-72.png",
            "first_name": "Victoria",
            "real_name": "Victoria Costa",
            "display_name": "Victoria Costa",
            "team": "TUU48M0T1",
            "name": "victorycoast",
            "is_restricted": false,
            "is_ultra_restricted": false
        },
        "blocks": [
            {
                "type": "rich_text",
                "block_id": "3P=6I",
                "elements": [
                    {
                        "type": "rich_text_section",
                        "elements": [
                            {
                                "type": "text",
                                "text": "I think if we open every proposal to the community and comments are searchable by interest\/experience\/badge, it would amazing"
                            }
                        ]
                    }
                ]
            }
        ],
        "thread_ts": "1585084594.411000",
        "parent_user_id": "UV87UQ37A"
    },
    {
        "client_msg_id": "9cbd0819-850f-4a88-9547-a9a515ace06e",
        "type": "message",
        "text": "Do you think we should MVP a simple review and build upon this in later iterations for now?",
        "user": "UV0RRGB6H",
        "ts": "1585085412.414400",
        "team": "TUU48M0T1",
        "user_team": "TUU48M0T1",
        "source_team": "TUU48M0T1",
        "user_profile": {
            "avatar_hash": "48d4ab64c90c",
            "image_72": "https:\/\/avatars.slack-edge.com\/2020-03-26\/1029789176912_48d4ab64c90c03f3af4a_72.jpg",
            "first_name": "",
            "real_name": "Chris LB Graham",
            "display_name": "",
            "team": "TUU48M0T1",
            "name": "chris.graham",
            "is_restricted": false,
            "is_ultra_restricted": false
        },
        "blocks": [
            {
                "type": "rich_text",
                "block_id": "1ciq",
                "elements": [
                    {
                        "type": "rich_text_section",
                        "elements": [
                            {
                                "type": "text",
                                "text": "Do you think we should MVP a simple review and build upon this in later iterations for now?"
                            }
                        ]
                    }
                ]
            }
        ],
        "thread_ts": "1585084594.411000",
        "parent_user_id": "UV87UQ37A",
        "reactions": [
            {
                "name": "100",
                "users": [
                    "UV87UQ37A"
                ],
                "count": 1
            }
        ]
    },
    {
        "client_msg_id": "65ad29f6-0964-4164-bcdc-ace8fc328b22",
        "type": "message",
        "text": "yes!",
        "user": "UV87UQ37A",
        "ts": "1585085430.414600",
        "team": "TUU48M0T1",
        "user_team": "TUU48M0T1",
        "source_team": "TUU48M0T1",
        "user_profile": {
            "avatar_hash": "g7c78d2f0258",
            "image_72": "https:\/\/secure.gravatar.com\/avatar\/7c78d2f0258f7bdf78a86301cfd6b712.jpg?s=72&d=https%3A%2F%2Fa.slack-edge.com%2Fdf10d%2Fimg%2Favatars%2Fava_0014-72.png",
            "first_name": "Victoria",
            "real_name": "Victoria Costa",
            "display_name": "Victoria Costa",
            "team": "TUU48M0T1",
            "name": "victorycoast",
            "is_restricted": false,
            "is_ultra_restricted": false
        },
        "blocks": [
            {
                "type": "rich_text",
                "block_id": "sIsi5",
                "elements": [
                    {
                        "type": "rich_text_section",
                        "elements": [
                            {
                                "type": "text",
                                "text": "yes!"
                            }
                        ]
                    }
                ]
            }
        ],
        "thread_ts": "1585084594.411000",
        "parent_user_id": "UV87UQ37A"
    },
    {
        "client_msg_id": "2b46242a-52e1-4953-a2d4-cb11db402df3",
        "type": "message",
        "text": "these are such good ideas, but may be a version 1.1-1.2 kind of thing",
        "user": "UV0RRGB6H",
        "ts": "1585085459.414900",
        "team": "TUU48M0T1",
        "user_team": "TUU48M0T1",
        "source_team": "TUU48M0T1",
        "user_profile": {
            "avatar_hash": "48d4ab64c90c",
            "image_72": "https:\/\/avatars.slack-edge.com\/2020-03-26\/1029789176912_48d4ab64c90c03f3af4a_72.jpg",
            "first_name": "",
            "real_name": "Chris LB Graham",
            "display_name": "",
            "team": "TUU48M0T1",
            "name": "chris.graham",
            "is_restricted": false,
            "is_ultra_restricted": false
        },
        "blocks": [
            {
                "type": "rich_text",
                "block_id": "hOg\/j",
                "elements": [
                    {
                        "type": "rich_text_section",
                        "elements": [
                            {
                                "type": "text",
                                "text": "these are such good ideas, but may be a version 1.1-1.2 kind of thing"
                            }
                        ]
                    }
                ]
            }
        ],
        "thread_ts": "1585084594.411000",
        "parent_user_id": "UV87UQ37A",
        "reactions": [
            {
                "name": "+1",
                "users": [
                    "U010HTBUHS9"
                ],
                "count": 1
            }
        ]
    },
    {
        "client_msg_id": "3ba9fbce-a4a4-4310-b295-a003bd44fd95",
        "type": "message",
        "text": "the teams are moving with or without structure and support from the central body so it's a matter of seeing where we can be most useful from a high level to help them make progress quickly. I've sat it on a few meetings and everybody seems to be discussing communication with and feedback into the central org. it's a major priority.",
        "user": "UV87UQ37A",
        "ts": "1585085670.415100",
        "team": "TUU48M0T1",
        "user_team": "TUU48M0T1",
        "source_team": "TUU48M0T1",
        "user_profile": {
            "avatar_hash": "g7c78d2f0258",
            "image_72": "https:\/\/secure.gravatar.com\/avatar\/7c78d2f0258f7bdf78a86301cfd6b712.jpg?s=72&d=https%3A%2F%2Fa.slack-edge.com%2Fdf10d%2Fimg%2Favatars%2Fava_0014-72.png",
            "first_name": "Victoria",
            "real_name": "Victoria Costa",
            "display_name": "Victoria Costa",
            "team": "TUU48M0T1",
            "name": "victorycoast",
            "is_restricted": false,
            "is_ultra_restricted": false
        },
        "blocks": [
            {
                "type": "rich_text",
                "block_id": "4bXvC",
                "elements": [
                    {
                        "type": "rich_text_section",
                        "elements": [
                            {
                                "type": "text",
                                "text": "the teams are moving with or without structure and support from the central body so it's a matter of seeing where we can be most useful from a high level to help them make progress quickly. I've sat it on a few meetings and everybody seems to be discussing communication with and feedback into the central org. it's a major priority."
                            }
                        ]
                    }
                ]
            }
        ],
        "thread_ts": "1585084594.411000",
        "parent_user_id": "UV87UQ37A",
        "reactions": [
            {
                "name": "100",
                "users": [
                    "UV9V03C8Y"
                ],
                "count": 1
            }
        ]
    },
    {
        "client_msg_id": "d955c989-7d6c-4942-a1bb-a73fe6e2fb23",
        "type": "message",
        "text": "we haven't even set up a communication chain of command yet though so I hear you!",
        "user": "UV87UQ37A",
        "ts": "1585085698.415400",
        "team": "TUU48M0T1",
        "user_team": "TUU48M0T1",
        "source_team": "TUU48M0T1",
        "user_profile": {
            "avatar_hash": "g7c78d2f0258",
            "image_72": "https:\/\/secure.gravatar.com\/avatar\/7c78d2f0258f7bdf78a86301cfd6b712.jpg?s=72&d=https%3A%2F%2Fa.slack-edge.com%2Fdf10d%2Fimg%2Favatars%2Fava_0014-72.png",
            "first_name": "Victoria",
            "real_name": "Victoria Costa",
            "display_name": "Victoria Costa",
            "team": "TUU48M0T1",
            "name": "victorycoast",
            "is_restricted": false,
            "is_ultra_restricted": false
        },
        "blocks": [
            {
                "type": "rich_text",
                "block_id": "fpW",
                "elements": [
                    {
                        "type": "rich_text_section",
                        "elements": [
                            {
                                "type": "text",
                                "text": "we haven't even set up a communication chain of command yet though so I hear you!"
                            }
                        ]
                    }
                ]
            }
        ],
        "thread_ts": "1585084594.411000",
        "parent_user_id": "UV87UQ37A"
    },
    {
        "client_msg_id": "19654c32-9571-4a10-baa0-226008880c45",
        "type": "message",
        "text": "To Chris's point, we need expedient answers now but we need to make sure we're learning so that we can put intelligent structures in place that will persist past the current crisis.",
        "user": "U010HTBUHS9",
        "ts": "1585088385.416000",
        "team": "TUU48M0T1",
        "user_team": "TUU48M0T1",
        "source_team": "TUU48M0T1",
        "user_profile": {
            "avatar_hash": "e7bdbebff0d9",
            "image_72": "https:\/\/avatars.slack-edge.com\/2020-03-22\/1017951251813_e7bdbebff0d9ad1e8f12_72.jpg",
            "first_name": "",
            "real_name": "Adam Arabian",
            "display_name": "Adam Arabian",
            "team": "TUU48M0T1",
            "name": "adam.arabian",
            "is_restricted": false,
            "is_ultra_restricted": false
        },
        "blocks": [
            {
                "type": "rich_text",
                "block_id": "a37w",
                "elements": [
                    {
                        "type": "rich_text_section",
                        "elements": [
                            {
                                "type": "text",
                                "text": "To Chris's point, we need expedient answers now but we need to make sure we're learning so that we can put intelligent structures in place that will persist past the current crisis."
                            }
                        ]
                    }
                ]
            }
        ],
        "thread_ts": "1585084594.411000",
        "parent_user_id": "UV87UQ37A"
    },
    {
        "client_msg_id": "96b4d635-553f-4872-bea9-ae76c287be3b",
        "type": "message",
        "text": "I think most of us are super comfortable with agile development",
        "user": "UV87UQ37A",
        "ts": "1585107019.000200",
        "team": "TUU48M0T1",
        "user_team": "TUU48M0T1",
        "source_team": "TUU48M0T1",
        "user_profile": {
            "avatar_hash": "g7c78d2f0258",
            "image_72": "https:\/\/secure.gravatar.com\/avatar\/7c78d2f0258f7bdf78a86301cfd6b712.jpg?s=72&d=https%3A%2F%2Fa.slack-edge.com%2Fdf10d%2Fimg%2Favatars%2Fava_0014-72.png",
            "first_name": "Victoria",
            "real_name": "Victoria Costa",
            "display_name": "Victoria Costa",
            "team": "TUU48M0T1",
            "name": "victorycoast",
            "is_restricted": false,
            "is_ultra_restricted": false
        },
        "blocks": [
            {
                "type": "rich_text",
                "block_id": "MZkFc",
                "elements": [
                    {
                        "type": "rich_text_section",
                        "elements": [
                            {
                                "type": "text",
                                "text": "I think most of us are super comfortable with agile development"
                            }
                        ]
                    }
                ]
            }
        ],
        "thread_ts": "1585084594.411000",
        "parent_user_id": "UV87UQ37A"
    },
    {
        "client_msg_id": "37ba052c-06a0-4001-a56d-d60be98a1efe",
        "type": "message",
        "text": "this is free during covid for unlimited deciders <https:\/\/www.cloverpop.com\/for-slack-teams>",
        "user": "UV87UQ37A",
        "ts": "1585107674.001200",
        "team": "TUU48M0T1",
        "user_team": "TUU48M0T1",
        "source_team": "TUU48M0T1",
        "user_profile": {
            "avatar_hash": "g7c78d2f0258",
            "image_72": "https:\/\/secure.gravatar.com\/avatar\/7c78d2f0258f7bdf78a86301cfd6b712.jpg?s=72&d=https%3A%2F%2Fa.slack-edge.com%2Fdf10d%2Fimg%2Favatars%2Fava_0014-72.png",
            "first_name": "Victoria",
            "real_name": "Victoria Costa",
            "display_name": "Victoria Costa",
            "team": "TUU48M0T1",
            "name": "victorycoast",
            "is_restricted": false,
            "is_ultra_restricted": false
        },
        "attachments": [
            {
                "title": "Cloverpop For Slack Teams: The Way To Keep Track Of Decisions In Slack",
                "title_link": "https:\/\/www.cloverpop.com\/for-slack-teams",
                "text": "Cloverpop is the way agile teams keep track of decisions in Slack with decision-making polls, announcements, and approvals.",
                "fallback": "Cloverpop For Slack Teams: The Way To Keep Track Of Decisions In Slack",
                "image_url": "https:\/\/www.cloverpop.com\/hubfs\/Six%20UX%20Challenges%20When%20Designing%20A%20Slack%20App%20And%20How%20We%20Fixed%20Them.png#keepProtocol",
                "image_width": 444,
                "image_height": 250,
                "from_url": "https:\/\/www.cloverpop.com\/for-slack-teams",
                "image_bytes": 50932,
                "service_icon": "https:\/\/www.cloverpop.com\/hubfs\/Cloverpop%20Logo%20Pips.png",
                "service_name": "cloverpop.com",
                "id": 1,
                "original_url": "https:\/\/www.cloverpop.com\/for-slack-teams"
            }
        ],
        "blocks": [
            {
                "type": "rich_text",
                "block_id": "kW4",
                "elements": [
                    {
                        "type": "rich_text_section",
                        "elements": [
                            {
                                "type": "text",
                                "text": "this is free during covid for unlimited deciders "
                            },
                            {
                                "type": "link",
                                "url": "https:\/\/www.cloverpop.com\/for-slack-teams"
                            }
                        ]
                    }
                ]
            }
        ]
    }
]