[
    {
        "type": "message",
        "subtype": "channel_topic",
        "ts": "1584956361.031900",
        "user": "UV3HA9MM4",
        "text": "<@UV3HA9MM4> set the channel topic: Daily call at 2 pm UTC: <https:\/\/zoom.us\/j\/201183902>",
        "topic": "Daily call at 2 pm UTC: <https:\/\/zoom.us\/j\/201183902>"
    },
    {
        "client_msg_id": "b06357c9-54f5-4e0a-bba0-108b11f0b4c6",
        "type": "message",
        "text": "Have some friends that have tried (edit)rpa**, but unafortunately not in my case. I could ask!",
        "user": "UV3URUKK5",
        "ts": "1584959876.032100",
        "team": "TUU48M0T1",
        "user_team": "TUU48M0T1",
        "source_team": "TUU48M0T1",
        "user_profile": {
            "avatar_hash": "64c99c2ed974",
            "image_72": "https:\/\/avatars.slack-edge.com\/2020-03-15\/1000999702004_64c99c2ed97497e08ca9_72.jpg",
            "first_name": "",
            "real_name": "Francisco Javier Quero",
            "display_name": "Francisco Javier Quero",
            "team": "TUU48M0T1",
            "name": "franxi2953",
            "is_restricted": false,
            "is_ultra_restricted": false
        },
        "edited": {
            "user": "UV3URUKK5",
            "ts": "1584973982.000000"
        },
        "blocks": [
            {
                "type": "rich_text",
                "block_id": "XVi",
                "elements": [
                    {
                        "type": "rich_text_section",
                        "elements": [
                            {
                                "type": "text",
                                "text": "Have some friends that have tried (edit)rpa**, but unafortunately not in my case. I could ask!"
                            }
                        ]
                    }
                ]
            }
        ],
        "thread_ts": "1584911974.025400",
        "parent_user_id": "UV3URUKK5"
    },
    {
        "client_msg_id": "8aa4ec2f-9a85-42c3-bd35-7a481da8fea0",
        "type": "message",
        "text": "Let me write the Thessaly team, i will tell you when they reply me!",
        "user": "UV3URUKK5",
        "ts": "1584959933.032700",
        "team": "TUU48M0T1",
        "user_team": "TUU48M0T1",
        "source_team": "TUU48M0T1",
        "user_profile": {
            "avatar_hash": "64c99c2ed974",
            "image_72": "https:\/\/avatars.slack-edge.com\/2020-03-15\/1000999702004_64c99c2ed97497e08ca9_72.jpg",
            "first_name": "",
            "real_name": "Francisco Javier Quero",
            "display_name": "Francisco Javier Quero",
            "team": "TUU48M0T1",
            "name": "franxi2953",
            "is_restricted": false,
            "is_ultra_restricted": false
        },
        "blocks": [
            {
                "type": "rich_text",
                "block_id": "hHL",
                "elements": [
                    {
                        "type": "rich_text_section",
                        "elements": [
                            {
                                "type": "text",
                                "text": "Let me write the Thessaly team, i will tell you when they reply me!"
                            }
                        ]
                    }
                ]
            }
        ],
        "reactions": [
            {
                "name": "+1",
                "users": [
                    "UV3HA9MM4"
                ],
                "count": 1
            }
        ]
    },
    {
        "client_msg_id": "110b835e-c52b-447c-9a6c-6f16bba0090d",
        "type": "message",
        "text": "<@UV20M5HGQ> <@UV1A22N3W> <@UUNGFHSV8> <@UV7LUJG1Y>… sorry all I made a mistake and closed meeting before Jim could get your email addresses.  Can you DM me please.\n\nWas there anybody else in the meeting that I’ve missed?",
        "user": "UV3HA9MM4",
        "ts": "1584976901.034900",
        "team": "TUU48M0T1",
        "user_team": "TUU48M0T1",
        "source_team": "TUU48M0T1",
        "user_profile": {
            "avatar_hash": "b2f89757c831",
            "image_72": "https:\/\/avatars.slack-edge.com\/2020-03-07\/987455908032_b2f89757c8312ec04011_72.jpg",
            "first_name": "AJP",
            "real_name": "AJP",
            "display_name": "AJP",
            "team": "TUU48M0T1",
            "name": "bioajp",
            "is_restricted": false,
            "is_ultra_restricted": false
        },
        "edited": {
            "user": "UV3HA9MM4",
            "ts": "1584976946.000000"
        },
        "blocks": [
            {
                "type": "rich_text",
                "block_id": "zFI",
                "elements": [
                    {
                        "type": "rich_text_section",
                        "elements": [
                            {
                                "type": "user",
                                "user_id": "UV20M5HGQ"
                            },
                            {
                                "type": "text",
                                "text": " "
                            },
                            {
                                "type": "user",
                                "user_id": "UV1A22N3W"
                            },
                            {
                                "type": "text",
                                "text": " "
                            },
                            {
                                "type": "user",
                                "user_id": "UUNGFHSV8"
                            },
                            {
                                "type": "text",
                                "text": " "
                            },
                            {
                                "type": "user",
                                "user_id": "UV7LUJG1Y"
                            },
                            {
                                "type": "text",
                                "text": "… sorry all I made a mistake and closed meeting before Jim could get your email addresses.  Can you DM me please.\n\nWas there anybody else in the meeting that I’ve missed?"
                            }
                        ]
                    }
                ]
            }
        ]
    },
    {
        "type": "message",
        "subtype": "channel_join",
        "ts": "1584976905.035100",
        "user": "UV1A22N3W",
        "text": "<@UV1A22N3W> has joined the channel",
        "inviter": "UV3HA9MM4"
    },
    {
        "client_msg_id": "d5930a13-d919-4a67-8cec-4e657a735462",
        "type": "message",
        "text": "Might it be useful for everyone to also introduce themselves, where they’re based, and their backgrounds\/areas of expertise in this channel? Maybe in a thread to keep it from getting cluttered",
        "user": "UUNGFHSV8",
        "ts": "1584977092.036700",
        "team": "TUU48M0T1",
        "user_team": "TUU48M0T1",
        "source_team": "TUU48M0T1",
        "user_profile": {
            "avatar_hash": "1c55ee32397a",
            "image_72": "https:\/\/avatars.slack-edge.com\/2020-03-07\/987349161984_1c55ee32397a85a87ec4_72.png",
            "first_name": "Isaac",
            "real_name": "Isaac Larkin",
            "display_name": "Isaac Larkin",
            "team": "TUU48M0T1",
            "name": "eyesmo",
            "is_restricted": false,
            "is_ultra_restricted": false
        },
        "blocks": [
            {
                "type": "rich_text",
                "block_id": "rNj",
                "elements": [
                    {
                        "type": "rich_text_section",
                        "elements": [
                            {
                                "type": "text",
                                "text": "Might it be useful for everyone to also introduce themselves, where they’re based, and their backgrounds\/areas of expertise in this channel? Maybe in a thread to keep it from getting cluttered"
                            }
                        ]
                    }
                ]
            }
        ],
        "reactions": [
            {
                "name": "+1",
                "users": [
                    "UV20M5HGQ",
                    "UV3HA9MM4"
                ],
                "count": 2
            }
        ]
    },
    {
        "client_msg_id": "7c97636c-cc1c-442f-b15d-d174469e0554",
        "type": "message",
        "text": "Hi all, here is the paper describing the hammerhead ribozyme design software which I mentioned in todays call. Designs from this software were tested in our lab a few years ago.  Ribozymes are RNA structures which can cleave RNA upon detection of a specific target sequence. <https:\/\/www.ncbi.nlm.nih.gov\/pmc\/articles\/PMC4770207\/>. The link to the software reported in the paper is not working but here is the current link: <https:\/\/ribosoft2.fungalgenomics.ca\/>",
        "user": "UV20M5HGQ",
        "ts": "1584978962.040900",
        "team": "TUU48M0T1",
        "user_team": "TUU48M0T1",
        "source_team": "TUU48M0T1",
        "user_profile": {
            "avatar_hash": "de7ea7b7e14e",
            "image_72": "https:\/\/avatars.slack-edge.com\/2020-03-11\/981865374050_de7ea7b7e14e7b4316b9_72.jpg",
            "first_name": "",
            "real_name": "Vesta Korniakova",
            "display_name": "Vesta Korniakova",
            "team": "TUU48M0T1",
            "name": "riboswitchvesta",
            "is_restricted": false,
            "is_ultra_restricted": false
        },
        "attachments": [
            {
                "service_name": "PubMed Central (PMC)",
                "title": "Automated design of hammerhead ribozymes and validation by targeting the PABPN1 gene transcript",
                "title_link": "https:\/\/www.ncbi.nlm.nih.gov\/pmc\/articles\/PMC4770207\/",
                "text": "We present a new publicly accessible web-service, RiboSoft, which implements a comprehensive hammerhead ribozyme design procedure. It accepts as input a target sequence (and some design parameters) then generates a set of ranked hammerhead ribozymes, ...",
                "fallback": "PubMed Central (PMC): Automated design of hammerhead ribozymes and validation by targeting the PABPN1 gene transcript",
                "thumb_url": "https:\/\/www.ncbi.nlm.nih.gov\/corehtml\/pmc\/pmcgifs\/pmc-logo-share.png",
                "from_url": "https:\/\/www.ncbi.nlm.nih.gov\/pmc\/articles\/PMC4770207\/",
                "thumb_width": 1200,
                "thumb_height": 630,
                "service_icon": "http:\/\/www.ncbi.nlm.nih.gov\/favicon.ico",
                "id": 1,
                "original_url": "https:\/\/www.ncbi.nlm.nih.gov\/pmc\/articles\/PMC4770207\/"
            }
        ],
        "blocks": [
            {
                "type": "rich_text",
                "block_id": "wbC",
                "elements": [
                    {
                        "type": "rich_text_section",
                        "elements": [
                            {
                                "type": "text",
                                "text": "Hi all, here is the paper describing the hammerhead ribozyme design software which I mentioned in todays call. Designs from this software were tested in our lab a few years ago.  Ribozymes are RNA structures which can cleave RNA upon detection of a specific target sequence. "
                            },
                            {
                                "type": "link",
                                "url": "https:\/\/www.ncbi.nlm.nih.gov\/pmc\/articles\/PMC4770207\/"
                            },
                            {
                                "type": "text",
                                "text": ". The link to the software reported in the paper is not working but here is the current link: "
                            },
                            {
                                "type": "link",
                                "url": "https:\/\/ribosoft2.fungalgenomics.ca\/"
                            }
                        ]
                    }
                ]
            }
        ],
        "reactions": [
            {
                "name": "heart_eyes",
                "users": [
                    "UV1A22N3W",
                    "UV3URUKK5",
                    "UV3HA9MM4"
                ],
                "count": 3
            }
        ]
    },
    {
        "client_msg_id": "fe9f1b7c-7b10-4d6d-926c-20c121d75f5a",
        "type": "message",
        "text": "It's amazing! Would love to give it a try!",
        "user": "UV3URUKK5",
        "ts": "1584980577.041600",
        "team": "TUU48M0T1",
        "user_team": "TUU48M0T1",
        "source_team": "TUU48M0T1",
        "user_profile": {
            "avatar_hash": "64c99c2ed974",
            "image_72": "https:\/\/avatars.slack-edge.com\/2020-03-15\/1000999702004_64c99c2ed97497e08ca9_72.jpg",
            "first_name": "",
            "real_name": "Francisco Javier Quero",
            "display_name": "Francisco Javier Quero",
            "team": "TUU48M0T1",
            "name": "franxi2953",
            "is_restricted": false,
            "is_ultra_restricted": false
        },
        "blocks": [
            {
                "type": "rich_text",
                "block_id": "5k1z",
                "elements": [
                    {
                        "type": "rich_text_section",
                        "elements": [
                            {
                                "type": "text",
                                "text": "It's amazing! Would love to give it a try!"
                            }
                        ]
                    }
                ]
            }
        ],
        "reactions": [
            {
                "name": "+1",
                "users": [
                    "UV20M5HGQ",
                    "UV3HA9MM4",
                    "UV0RRGB6H",
                    "UV1A22N3W"
                ],
                "count": 4
            }
        ]
    },
    {
        "client_msg_id": "593a6f8e-86e8-4ba8-b6de-77a25fcc06c1",
        "type": "message",
        "text": "<!channel> I have all supplies necessary for the Mammoth protocol in carts with NEB, Synthego, TwistDX and IDT EXCEPT the \"*reporter substrate*\" from IDT.  Could someone please help me figure out what I am supposed to be ordering\/ how I am supposed to be ordering for that???  Thank you!",
        "user": "UV10KBUQG",
        "ts": "1584991379.043900",
        "team": "TUU48M0T1",
        "user_team": "TUU48M0T1",
        "source_team": "TUU48M0T1",
        "user_profile": {
            "avatar_hash": "2deebbf6be3d",
            "image_72": "https:\/\/avatars.slack-edge.com\/2020-03-06\/976932190641_2deebbf6be3d17141d91_72.jpg",
            "first_name": "Sarah",
            "real_name": "Sarah Blossom Ware",
            "display_name": "Sarah Blossom Ware - BioBlaze Community Bio Lab",
            "team": "TUU48M0T1",
            "name": "ware.sarah",
            "is_restricted": false,
            "is_ultra_restricted": false
        },
        "edited": {
            "user": "UV10KBUQG",
            "ts": "1584991466.000000"
        },
        "blocks": [
            {
                "type": "rich_text",
                "block_id": "IrG",
                "elements": [
                    {
                        "type": "rich_text_section",
                        "elements": [
                            {
                                "type": "broadcast",
                                "range": "channel"
                            },
                            {
                                "type": "text",
                                "text": " I have all supplies necessary for the Mammoth protocol in carts with NEB, Synthego, TwistDX and IDT EXCEPT the \""
                            },
                            {
                                "type": "text",
                                "text": "reporter substrate",
                                "style": {
                                    "bold": true
                                }
                            },
                            {
                                "type": "text",
                                "text": "\" from IDT.  Could someone please help me figure out what I am supposed to be ordering\/ how I am supposed to be ordering for that???  Thank you!"
                            }
                        ]
                    }
                ]
            }
        ],
        "thread_ts": "1584991379.043900",
        "reply_count": 25,
        "reply_users_count": 4,
        "latest_reply": "1585023148.052600",
        "reply_users": [
            "UV3HA9MM4",
            "UV10KBUQG",
            "UUNGFHSV8",
            "UUPFF4TC3"
        ],
        "replies": [
            {
                "user": "UV3HA9MM4",
                "ts": "1584991590.044500"
            },
            {
                "user": "UV3HA9MM4",
                "ts": "1584991610.044800"
            },
            {
                "user": "UV10KBUQG",
                "ts": "1584991744.045000"
            },
            {
                "user": "UV3HA9MM4",
                "ts": "1584991942.045300"
            },
            {
                "user": "UV3HA9MM4",
                "ts": "1584992007.045600"
            },
            {
                "user": "UV3HA9MM4",
                "ts": "1584992037.045800"
            },
            {
                "user": "UV10KBUQG",
                "ts": "1584992145.046000"
            },
            {
                "user": "UV3HA9MM4",
                "ts": "1584992320.046200"
            },
            {
                "user": "UV3HA9MM4",
                "ts": "1584992350.046500"
            },
            {
                "user": "UV10KBUQG",
                "ts": "1584992480.046700"
            },
            {
                "user": "UUNGFHSV8",
                "ts": "1584993454.046900"
            },
            {
                "user": "UUNGFHSV8",
                "ts": "1584993509.047100"
            },
            {
                "user": "UUNGFHSV8",
                "ts": "1584993739.047300"
            },
            {
                "user": "UV10KBUQG",
                "ts": "1584995053.047700"
            },
            {
                "user": "UV3HA9MM4",
                "ts": "1584995822.048000"
            },
            {
                "user": "UUNGFHSV8",
                "ts": "1584995922.048300"
            },
            {
                "user": "UUNGFHSV8",
                "ts": "1584995981.048500"
            },
            {
                "user": "UV10KBUQG",
                "ts": "1584999401.048700"
            },
            {
                "user": "UUPFF4TC3",
                "ts": "1585008769.050100"
            },
            {
                "user": "UV3HA9MM4",
                "ts": "1585010827.050300"
            },
            {
                "user": "UV10KBUQG",
                "ts": "1585013395.050600"
            },
            {
                "user": "UV10KBUQG",
                "ts": "1585015623.050900"
            },
            {
                "user": "UUPFF4TC3",
                "ts": "1585016531.051100"
            },
            {
                "user": "UV10KBUQG",
                "ts": "1585017255.051400"
            },
            {
                "user": "UV10KBUQG",
                "ts": "1585023148.052600"
            }
        ],
        "subscribed": true,
        "last_read": "1584991379.043900"
    },
    {
        "client_msg_id": "a6cb8914-638a-4fc1-ba9b-85cf1da88105",
        "type": "message",
        "text": "Good question <@UV10KBUQG> not sure.\nI’m taking a look now.",
        "user": "UV3HA9MM4",
        "ts": "1584991590.044500",
        "team": "TUU48M0T1",
        "user_team": "TUU48M0T1",
        "source_team": "TUU48M0T1",
        "user_profile": {
            "avatar_hash": "b2f89757c831",
            "image_72": "https:\/\/avatars.slack-edge.com\/2020-03-07\/987455908032_b2f89757c8312ec04011_72.jpg",
            "first_name": "AJP",
            "real_name": "AJP",
            "display_name": "AJP",
            "team": "TUU48M0T1",
            "name": "bioajp",
            "is_restricted": false,
            "is_ultra_restricted": false
        },
        "edited": {
            "user": "UV3HA9MM4",
            "ts": "1584991596.000000"
        },
        "blocks": [
            {
                "type": "rich_text",
                "block_id": "psZp",
                "elements": [
                    {
                        "type": "rich_text_section",
                        "elements": [
                            {
                                "type": "text",
                                "text": "Good question "
                            },
                            {
                                "type": "user",
                                "user_id": "UV10KBUQG"
                            },
                            {
                                "type": "text",
                                "text": " not sure.\nI’m taking a look now."
                            }
                        ]
                    }
                ]
            }
        ],
        "thread_ts": "1584991379.043900",
        "parent_user_id": "UV10KBUQG"
    },
    {
        "client_msg_id": "1df12e10-2bd3-4b69-831c-ecfb5e0d4e9c",
        "type": "message",
        "text": "<@UUPFF4TC3> or <@UUUEFQW8N> might be able to guide you better than I can",
        "user": "UV3HA9MM4",
        "ts": "1584991610.044800",
        "team": "TUU48M0T1",
        "user_team": "TUU48M0T1",
        "source_team": "TUU48M0T1",
        "user_profile": {
            "avatar_hash": "b2f89757c831",
            "image_72": "https:\/\/avatars.slack-edge.com\/2020-03-07\/987455908032_b2f89757c8312ec04011_72.jpg",
            "first_name": "AJP",
            "real_name": "AJP",
            "display_name": "AJP",
            "team": "TUU48M0T1",
            "name": "bioajp",
            "is_restricted": false,
            "is_ultra_restricted": false
        },
        "blocks": [
            {
                "type": "rich_text",
                "block_id": "onG",
                "elements": [
                    {
                        "type": "rich_text_section",
                        "elements": [
                            {
                                "type": "user",
                                "user_id": "UUPFF4TC3"
                            },
                            {
                                "type": "text",
                                "text": " or "
                            },
                            {
                                "type": "user",
                                "user_id": "UUUEFQW8N"
                            },
                            {
                                "type": "text",
                                "text": " might be able to guide you better than I can"
                            }
                        ]
                    }
                ]
            }
        ],
        "thread_ts": "1584991379.043900",
        "parent_user_id": "UV10KBUQG"
    },
    {
        "client_msg_id": "3503a59b-5594-4c13-8682-1fc739206c6d",
        "type": "message",
        "text": "I'm looking at the excellent protocol that <@UUPFF4TC3> wrote up.  On page 3 #3 it says \"Add reporter substrate to final concentration of 500 nm.\"",
        "user": "UV10KBUQG",
        "ts": "1584991744.045000",
        "team": "TUU48M0T1",
        "user_team": "TUU48M0T1",
        "source_team": "TUU48M0T1",
        "user_profile": {
            "avatar_hash": "2deebbf6be3d",
            "image_72": "https:\/\/avatars.slack-edge.com\/2020-03-06\/976932190641_2deebbf6be3d17141d91_72.jpg",
            "first_name": "Sarah",
            "real_name": "Sarah Blossom Ware",
            "display_name": "Sarah Blossom Ware - BioBlaze Community Bio Lab",
            "team": "TUU48M0T1",
            "name": "ware.sarah",
            "is_restricted": false,
            "is_ultra_restricted": false
        },
        "blocks": [
            {
                "type": "rich_text",
                "block_id": "TWJ",
                "elements": [
                    {
                        "type": "rich_text_section",
                        "elements": [
                            {
                                "type": "text",
                                "text": "I'm looking at the excellent protocol that "
                            },
                            {
                                "type": "user",
                                "user_id": "UUPFF4TC3"
                            },
                            {
                                "type": "text",
                                "text": " wrote up.  On page 3 #3 it says \"Add reporter substrate to final concentration of 500 nm.\""
                            }
                        ]
                    }
                ]
            }
        ],
        "thread_ts": "1584991379.043900",
        "parent_user_id": "UV10KBUQG"
    },
    {
        "client_msg_id": "7f24010e-6a76-43c2-b7b7-8f1dc674bcd6",
        "type": "message",
        "text": "I think it’s this: `Reporter \/56-FAM\/TTATTATT\/3Bio\/`",
        "user": "UV3HA9MM4",
        "ts": "1584991942.045300",
        "team": "TUU48M0T1",
        "user_team": "TUU48M0T1",
        "source_team": "TUU48M0T1",
        "user_profile": {
            "avatar_hash": "b2f89757c831",
            "image_72": "https:\/\/avatars.slack-edge.com\/2020-03-07\/987455908032_b2f89757c8312ec04011_72.jpg",
            "first_name": "AJP",
            "real_name": "AJP",
            "display_name": "AJP",
            "team": "TUU48M0T1",
            "name": "bioajp",
            "is_restricted": false,
            "is_ultra_restricted": false
        },
        "edited": {
            "user": "UV3HA9MM4",
            "ts": "1584991948.000000"
        },
        "blocks": [
            {
                "type": "rich_text",
                "block_id": "g51G",
                "elements": [
                    {
                        "type": "rich_text_section",
                        "elements": [
                            {
                                "type": "text",
                                "text": "I think it’s this: "
                            },
                            {
                                "type": "text",
                                "text": "Reporter \/56-FAM\/TTATTATT\/3Bio\/",
                                "style": {
                                    "code": true
                                }
                            }
                        ]
                    }
                ]
            }
        ],
        "thread_ts": "1584991379.043900",
        "parent_user_id": "UV10KBUQG",
        "reactions": [
            {
                "name": "100",
                "users": [
                    "UV3URUKK5"
                ],
                "count": 1
            }
        ]
    },
    {
        "client_msg_id": "1039ac8e-ab08-498c-9004-b18addabc8ad",
        "type": "message",
        "text": "Because then you have RNP complexes, ready to bind the target DNA and they’re with the ssDNA with fluorscent marker and quencher.",
        "user": "UV3HA9MM4",
        "ts": "1584992007.045600",
        "team": "TUU48M0T1",
        "user_team": "TUU48M0T1",
        "source_team": "TUU48M0T1",
        "user_profile": {
            "avatar_hash": "b2f89757c831",
            "image_72": "https:\/\/avatars.slack-edge.com\/2020-03-07\/987455908032_b2f89757c8312ec04011_72.jpg",
            "first_name": "AJP",
            "real_name": "AJP",
            "display_name": "AJP",
            "team": "TUU48M0T1",
            "name": "bioajp",
            "is_restricted": false,
            "is_ultra_restricted": false
        },
        "blocks": [
            {
                "type": "rich_text",
                "block_id": "qFq",
                "elements": [
                    {
                        "type": "rich_text_section",
                        "elements": [
                            {
                                "type": "text",
                                "text": "Because then you have RNP complexes, ready to bind the target DNA and they’re with the ssDNA with fluorscent marker and quencher."
                            }
                        ]
                    }
                ]
            }
        ],
        "thread_ts": "1584991379.043900",
        "parent_user_id": "UV10KBUQG"
    },
    {
        "client_msg_id": "8e22244a-6fbe-468a-bdcd-51b0fed2cf70",
        "type": "message",
        "text": "Then you just add all of that to your amplified DNA and boom. You should see if you’ve got that gene or not.",
        "user": "UV3HA9MM4",
        "ts": "1584992037.045800",
        "team": "TUU48M0T1",
        "user_team": "TUU48M0T1",
        "source_team": "TUU48M0T1",
        "user_profile": {
            "avatar_hash": "b2f89757c831",
            "image_72": "https:\/\/avatars.slack-edge.com\/2020-03-07\/987455908032_b2f89757c8312ec04011_72.jpg",
            "first_name": "AJP",
            "real_name": "AJP",
            "display_name": "AJP",
            "team": "TUU48M0T1",
            "name": "bioajp",
            "is_restricted": false,
            "is_ultra_restricted": false
        },
        "blocks": [
            {
                "type": "rich_text",
                "block_id": "QBd4K",
                "elements": [
                    {
                        "type": "rich_text_section",
                        "elements": [
                            {
                                "type": "text",
                                "text": "Then you just add all of that to your amplified DNA and boom. You should see if you’ve got that gene or not."
                            }
                        ]
                    }
                ]
            }
        ],
        "thread_ts": "1584991379.043900",
        "parent_user_id": "UV10KBUQG"
    },
    {
        "client_msg_id": "887f0904-8d4d-4409-830f-6b08dd7f0f80",
        "type": "message",
        "text": "Yes, in the also amazing Excel sheet by <@UUPFF4TC3> called \"MAP: List of things to buy\", Cas12 reporter \/56-FAM\/TTATTATT\/3Bio\/ is listed to buy from IDT but I'm not sure how to buy this.",
        "user": "UV10KBUQG",
        "ts": "1584992145.046000",
        "team": "TUU48M0T1",
        "user_team": "TUU48M0T1",
        "source_team": "TUU48M0T1",
        "user_profile": {
            "avatar_hash": "2deebbf6be3d",
            "image_72": "https:\/\/avatars.slack-edge.com\/2020-03-06\/976932190641_2deebbf6be3d17141d91_72.jpg",
            "first_name": "Sarah",
            "real_name": "Sarah Blossom Ware",
            "display_name": "Sarah Blossom Ware - BioBlaze Community Bio Lab",
            "team": "TUU48M0T1",
            "name": "ware.sarah",
            "is_restricted": false,
            "is_ultra_restricted": false
        },
        "blocks": [
            {
                "type": "rich_text",
                "block_id": "+=578",
                "elements": [
                    {
                        "type": "rich_text_section",
                        "elements": [
                            {
                                "type": "text",
                                "text": "Yes, in the also amazing Excel sheet by "
                            },
                            {
                                "type": "user",
                                "user_id": "UUPFF4TC3"
                            },
                            {
                                "type": "text",
                                "text": " called \"MAP: List of things to buy\", Cas12 reporter \/56-FAM\/TTATTATT\/3Bio\/ is listed to buy from IDT but I'm not sure how to buy this."
                            }
                        ]
                    }
                ]
            }
        ],
        "thread_ts": "1584991379.043900",
        "parent_user_id": "UV10KBUQG"
    },
    {
        "client_msg_id": "7007b2df-9e9f-48b2-ba1c-ba8e3b202ce0",
        "type": "message",
        "text": "Right.  Not sure about that.  Can look in a bit",
        "user": "UV3HA9MM4",
        "ts": "1584992320.046200",
        "team": "TUU48M0T1",
        "user_team": "TUU48M0T1",
        "source_team": "TUU48M0T1",
        "user_profile": {
            "avatar_hash": "b2f89757c831",
            "image_72": "https:\/\/avatars.slack-edge.com\/2020-03-07\/987455908032_b2f89757c8312ec04011_72.jpg",
            "first_name": "AJP",
            "real_name": "AJP",
            "display_name": "AJP",
            "team": "TUU48M0T1",
            "name": "bioajp",
            "is_restricted": false,
            "is_ultra_restricted": false
        },
        "edited": {
            "user": "UV3HA9MM4",
            "ts": "1584992335.000000"
        },
        "blocks": [
            {
                "type": "rich_text",
                "block_id": "C=E",
                "elements": [
                    {
                        "type": "rich_text_section",
                        "elements": [
                            {
                                "type": "text",
                                "text": "Right.  Not sure about that.  Can look in a bit"
                            }
                        ]
                    }
                ]
            }
        ],
        "thread_ts": "1584991379.043900",
        "parent_user_id": "UV10KBUQG"
    },
    {
        "client_msg_id": "7e205e68-2141-4a4f-af64-2cb236073413",
        "type": "message",
        "text": "I’m mainly still confused how the Biotin \/ FITC lateral flow strip works.  <https:\/\/www.twistdx.co.uk\/en\/products\/product\/milenia-hybridetect-1>",
        "user": "UV3HA9MM4",
        "ts": "1584992350.046500",
        "team": "TUU48M0T1",
        "user_team": "TUU48M0T1",
        "source_team": "TUU48M0T1",
        "user_profile": {
            "avatar_hash": "b2f89757c831",
            "image_72": "https:\/\/avatars.slack-edge.com\/2020-03-07\/987455908032_b2f89757c8312ec04011_72.jpg",
            "first_name": "AJP",
            "real_name": "AJP",
            "display_name": "AJP",
            "team": "TUU48M0T1",
            "name": "bioajp",
            "is_restricted": false,
            "is_ultra_restricted": false
        },
        "edited": {
            "user": "UV3HA9MM4",
            "ts": "1584995888.000000"
        },
        "blocks": [
            {
                "type": "rich_text",
                "block_id": "mHDHS",
                "elements": [
                    {
                        "type": "rich_text_section",
                        "elements": [
                            {
                                "type": "text",
                                "text": "I’m mainly still confused how the Biotin \/ FITC lateral flow strip works.  "
                            },
                            {
                                "type": "link",
                                "url": "https:\/\/www.twistdx.co.uk\/en\/products\/product\/milenia-hybridetect-1"
                            }
                        ]
                    }
                ]
            }
        ],
        "thread_ts": "1584991379.043900",
        "parent_user_id": "UV10KBUQG"
    },
    {
        "client_msg_id": "5b8e68f4-2361-48c9-8c1e-e3be0b9634b7",
        "type": "message",
        "text": "I'm going to dig more into the protocol today too.",
        "user": "UV10KBUQG",
        "ts": "1584992480.046700",
        "team": "TUU48M0T1",
        "user_team": "TUU48M0T1",
        "source_team": "TUU48M0T1",
        "user_profile": {
            "avatar_hash": "2deebbf6be3d",
            "image_72": "https:\/\/avatars.slack-edge.com\/2020-03-06\/976932190641_2deebbf6be3d17141d91_72.jpg",
            "first_name": "Sarah",
            "real_name": "Sarah Blossom Ware",
            "display_name": "Sarah Blossom Ware - BioBlaze Community Bio Lab",
            "team": "TUU48M0T1",
            "name": "ware.sarah",
            "is_restricted": false,
            "is_ultra_restricted": false
        },
        "blocks": [
            {
                "type": "rich_text",
                "block_id": "2fu",
                "elements": [
                    {
                        "type": "rich_text_section",
                        "elements": [
                            {
                                "type": "text",
                                "text": "I'm going to dig more into the protocol today too."
                            }
                        ]
                    }
                ]
            }
        ],
        "thread_ts": "1584991379.043900",
        "parent_user_id": "UV10KBUQG"
    },
    {
        "client_msg_id": "f4718d67-40a3-43ad-8913-38e8b574ea72",
        "type": "message",
        "text": "It’s also probably worth buying a reporter that can be read out in a plate reader \/ fluorescence imager, as shown in the original DETECTR paper. e.g. \/56-FAM\/TTATT\/3IABkFQ\/",
        "user": "UUNGFHSV8",
        "ts": "1584993454.046900",
        "team": "TUU48M0T1",
        "user_team": "TUU48M0T1",
        "source_team": "TUU48M0T1",
        "user_profile": {
            "avatar_hash": "1c55ee32397a",
            "image_72": "https:\/\/avatars.slack-edge.com\/2020-03-07\/987349161984_1c55ee32397a85a87ec4_72.png",
            "first_name": "Isaac",
            "real_name": "Isaac Larkin",
            "display_name": "Isaac Larkin",
            "team": "TUU48M0T1",
            "name": "eyesmo",
            "is_restricted": false,
            "is_ultra_restricted": false
        },
        "blocks": [
            {
                "type": "rich_text",
                "block_id": "UZO",
                "elements": [
                    {
                        "type": "rich_text_section",
                        "elements": [
                            {
                                "type": "text",
                                "text": "It’s also probably worth buying a reporter that can be read out in a plate reader \/ fluorescence imager, as shown in the original DETECTR paper. e.g. \/56-FAM\/TTATT\/3IABkFQ\/"
                            }
                        ]
                    }
                ]
            }
        ],
        "thread_ts": "1584991379.043900",
        "parent_user_id": "UV10KBUQG"
    },
    {
        "client_msg_id": "5e7e5fa1-d8a9-4cf6-be24-6a602edc290b",
        "type": "message",
        "text": "<@UV10KBUQG> the way to buy it is to add 5' and 3' modifications in the IDT oligo order form",
        "user": "UUNGFHSV8",
        "ts": "1584993509.047100",
        "team": "TUU48M0T1",
        "user_team": "TUU48M0T1",
        "source_team": "TUU48M0T1",
        "user_profile": {
            "avatar_hash": "1c55ee32397a",
            "image_72": "https:\/\/avatars.slack-edge.com\/2020-03-07\/987349161984_1c55ee32397a85a87ec4_72.png",
            "first_name": "Isaac",
            "real_name": "Isaac Larkin",
            "display_name": "Isaac Larkin",
            "team": "TUU48M0T1",
            "name": "eyesmo",
            "is_restricted": false,
            "is_ultra_restricted": false
        },
        "blocks": [
            {
                "type": "rich_text",
                "block_id": "puiN",
                "elements": [
                    {
                        "type": "rich_text_section",
                        "elements": [
                            {
                                "type": "user",
                                "user_id": "UV10KBUQG"
                            },
                            {
                                "type": "text",
                                "text": " the way to buy it is to add 5' and 3' modifications in the IDT oligo order form"
                            }
                        ]
                    }
                ]
            }
        ],
        "thread_ts": "1584991379.043900",
        "parent_user_id": "UV10KBUQG"
    },
    {
        "type": "message",
        "text": "",
        "files": [
            {
                "id": "F0107MBD5T4",
                "created": 1584993735,
                "timestamp": 1584993735,
                "name": "Screen Shot 2020-03-23 at 3.01.45 PM.png",
                "title": "Screen Shot 2020-03-23 at 3.01.45 PM.png",
                "mimetype": "image\/png",
                "filetype": "png",
                "pretty_type": "PNG",
                "user": "UUNGFHSV8",
                "editable": false,
                "size": 97240,
                "mode": "hosted",
                "is_external": false,
                "external_type": "",
                "is_public": true,
                "public_url_shared": false,
                "display_as_bot": false,
                "username": "",
                "url_private": "https:\/\/files.slack.com\/files-pri\/TUU48M0T1-F0107MBD5T4\/screen_shot_2020-03-23_at_3.01.45_pm.png?t=xoxe-980144714919-1106606678066-1105227127893-6f722bb664235052954ad46852628b64",
                "url_private_download": "https:\/\/files.slack.com\/files-pri\/TUU48M0T1-F0107MBD5T4\/download\/screen_shot_2020-03-23_at_3.01.45_pm.png?t=xoxe-980144714919-1106606678066-1105227127893-6f722bb664235052954ad46852628b64",
                "thumb_64": "https:\/\/files.slack.com\/files-tmb\/TUU48M0T1-F0107MBD5T4-6a7f6f728a\/screen_shot_2020-03-23_at_3.01.45_pm_64.png?t=xoxe-980144714919-1106606678066-1105227127893-6f722bb664235052954ad46852628b64",
                "thumb_80": "https:\/\/files.slack.com\/files-tmb\/TUU48M0T1-F0107MBD5T4-6a7f6f728a\/screen_shot_2020-03-23_at_3.01.45_pm_80.png?t=xoxe-980144714919-1106606678066-1105227127893-6f722bb664235052954ad46852628b64",
                "thumb_360": "https:\/\/files.slack.com\/files-tmb\/TUU48M0T1-F0107MBD5T4-6a7f6f728a\/screen_shot_2020-03-23_at_3.01.45_pm_360.png?t=xoxe-980144714919-1106606678066-1105227127893-6f722bb664235052954ad46852628b64",
                "thumb_360_w": 360,
                "thumb_360_h": 338,
                "thumb_480": "https:\/\/files.slack.com\/files-tmb\/TUU48M0T1-F0107MBD5T4-6a7f6f728a\/screen_shot_2020-03-23_at_3.01.45_pm_480.png?t=xoxe-980144714919-1106606678066-1105227127893-6f722bb664235052954ad46852628b64",
                "thumb_480_w": 480,
                "thumb_480_h": 451,
                "thumb_160": "https:\/\/files.slack.com\/files-tmb\/TUU48M0T1-F0107MBD5T4-6a7f6f728a\/screen_shot_2020-03-23_at_3.01.45_pm_160.png?t=xoxe-980144714919-1106606678066-1105227127893-6f722bb664235052954ad46852628b64",
                "thumb_720": "https:\/\/files.slack.com\/files-tmb\/TUU48M0T1-F0107MBD5T4-6a7f6f728a\/screen_shot_2020-03-23_at_3.01.45_pm_720.png?t=xoxe-980144714919-1106606678066-1105227127893-6f722bb664235052954ad46852628b64",
                "thumb_720_w": 720,
                "thumb_720_h": 677,
                "thumb_800": "https:\/\/files.slack.com\/files-tmb\/TUU48M0T1-F0107MBD5T4-6a7f6f728a\/screen_shot_2020-03-23_at_3.01.45_pm_800.png?t=xoxe-980144714919-1106606678066-1105227127893-6f722bb664235052954ad46852628b64",
                "thumb_800_w": 800,
                "thumb_800_h": 752,
                "image_exif_rotation": 1,
                "original_w": 894,
                "original_h": 840,
                "thumb_tiny": "AwAtADC+0eSSHINHl\/8ATRvzpzKD3I+hpNg9T+dACqNo+9n607I9aYFA70uKAHZHrRketNIz3oAx3oARuvQmlwM5pruobBxSCRPVaAJPxpNozTfNj\/v0\/wDGgAwPU0YHrTTIgYgtyKBIjMAGyfSgBWCk84zSbU9f5U4jJ6\/pSbT6\/pQAgVc+v4CncelABHf9KMH1oAT5D2FAC5GAM07AoxQB\/9k=",
                "permalink": "https:\/\/open-covid19.slack.com\/files\/UUNGFHSV8\/F0107MBD5T4\/screen_shot_2020-03-23_at_3.01.45_pm.png",
                "permalink_public": "https:\/\/slack-files.com\/TUU48M0T1-F0107MBD5T4-bcfe06050e",
                "is_starred": false,
                "has_rich_preview": false
            }
        ],
        "upload": true,
        "user": "UUNGFHSV8",
        "display_as_bot": false,
        "ts": "1584993739.047300",
        "client_msg_id": "6958d47e-fb66-4b28-9d5c-1dda77fb5d3d",
        "thread_ts": "1584991379.043900",
        "parent_user_id": "UV10KBUQG"
    },
    {
        "client_msg_id": "5771f121-cd61-4995-8b3e-86a7943405e1",
        "type": "message",
        "text": "Thanks <@UUNGFHSV8>! it's expensive, so I don't want to screw it up.",
        "user": "UV10KBUQG",
        "ts": "1584995053.047700",
        "team": "TUU48M0T1",
        "user_team": "TUU48M0T1",
        "source_team": "TUU48M0T1",
        "user_profile": {
            "avatar_hash": "2deebbf6be3d",
            "image_72": "https:\/\/avatars.slack-edge.com\/2020-03-06\/976932190641_2deebbf6be3d17141d91_72.jpg",
            "first_name": "Sarah",
            "real_name": "Sarah Blossom Ware",
            "display_name": "Sarah Blossom Ware - BioBlaze Community Bio Lab",
            "team": "TUU48M0T1",
            "name": "ware.sarah",
            "is_restricted": false,
            "is_ultra_restricted": false
        },
        "blocks": [
            {
                "type": "rich_text",
                "block_id": "7IO",
                "elements": [
                    {
                        "type": "rich_text_section",
                        "elements": [
                            {
                                "type": "text",
                                "text": "Thanks "
                            },
                            {
                                "type": "user",
                                "user_id": "UUNGFHSV8"
                            },
                            {
                                "type": "text",
                                "text": "! it's expensive, so I don't want to screw it up."
                            }
                        ]
                    }
                ]
            }
        ],
        "thread_ts": "1584991379.043900",
        "parent_user_id": "UV10KBUQG",
        "reactions": [
            {
                "name": "100",
                "users": [
                    "UUNGFHSV8"
                ],
                "count": 1
            }
        ]
    },
    {
        "client_msg_id": "a9b7b5f4-a83f-4a55-9920-ac9c73148a39",
        "type": "message",
        "text": "<@UUNGFHSV8> I’m not familiar with 3IABkFQ,  The lateral flow strips require Biotin.",
        "user": "UV3HA9MM4",
        "ts": "1584995822.048000",
        "team": "TUU48M0T1",
        "user_team": "TUU48M0T1",
        "source_team": "TUU48M0T1",
        "user_profile": {
            "avatar_hash": "b2f89757c831",
            "image_72": "https:\/\/avatars.slack-edge.com\/2020-03-07\/987455908032_b2f89757c8312ec04011_72.jpg",
            "first_name": "AJP",
            "real_name": "AJP",
            "display_name": "AJP",
            "team": "TUU48M0T1",
            "name": "bioajp",
            "is_restricted": false,
            "is_ultra_restricted": false
        },
        "blocks": [
            {
                "type": "rich_text",
                "block_id": "VyXYb",
                "elements": [
                    {
                        "type": "rich_text_section",
                        "elements": [
                            {
                                "type": "user",
                                "user_id": "UUNGFHSV8"
                            },
                            {
                                "type": "text",
                                "text": " I’m not familiar with 3IABkFQ,  The lateral flow strips require Biotin."
                            }
                        ]
                    }
                ]
            }
        ],
        "thread_ts": "1584991379.043900",
        "parent_user_id": "UV10KBUQG"
    },
    {
        "client_msg_id": "b947e3a3-4fc5-4250-ac37-22b320249d71",
        "type": "message",
        "text": "3IABkFQ is a black hole quencher; it suppresses the fluorescence of the nearby FAM fluorophore via FRET. However, if the oligo tether is cleaved, the fluorophore and the quencher diffuse away from each other and the proximity-dependent quenching stops, resulting in a fluorescent signal",
        "user": "UUNGFHSV8",
        "ts": "1584995922.048300",
        "team": "TUU48M0T1",
        "user_team": "TUU48M0T1",
        "source_team": "TUU48M0T1",
        "user_profile": {
            "avatar_hash": "1c55ee32397a",
            "image_72": "https:\/\/avatars.slack-edge.com\/2020-03-07\/987349161984_1c55ee32397a85a87ec4_72.png",
            "first_name": "Isaac",
            "real_name": "Isaac Larkin",
            "display_name": "Isaac Larkin",
            "team": "TUU48M0T1",
            "name": "eyesmo",
            "is_restricted": false,
            "is_ultra_restricted": false
        },
        "blocks": [
            {
                "type": "rich_text",
                "block_id": "Z0CzB",
                "elements": [
                    {
                        "type": "rich_text_section",
                        "elements": [
                            {
                                "type": "text",
                                "text": "3IABkFQ is a black hole quencher; it suppresses the fluorescence of the nearby FAM fluorophore via FRET. However, if the oligo tether is cleaved, the fluorophore and the quencher diffuse away from each other and the proximity-dependent quenching stops, resulting in a fluorescent signal"
                            }
                        ]
                    }
                ]
            }
        ],
        "thread_ts": "1584991379.043900",
        "parent_user_id": "UV10KBUQG"
    },
    {
        "client_msg_id": "d80aabd0-7309-41c4-a18e-1ee9c6b830bb",
        "type": "message",
        "text": "So basically you can run the DETECTR protocol in a 96-well plate with the quencher modification, while the biotin mod allows you to run the lateral flow assay",
        "user": "UUNGFHSV8",
        "ts": "1584995981.048500",
        "team": "TUU48M0T1",
        "user_team": "TUU48M0T1",
        "source_team": "TUU48M0T1",
        "user_profile": {
            "avatar_hash": "1c55ee32397a",
            "image_72": "https:\/\/avatars.slack-edge.com\/2020-03-07\/987349161984_1c55ee32397a85a87ec4_72.png",
            "first_name": "Isaac",
            "real_name": "Isaac Larkin",
            "display_name": "Isaac Larkin",
            "team": "TUU48M0T1",
            "name": "eyesmo",
            "is_restricted": false,
            "is_ultra_restricted": false
        },
        "blocks": [
            {
                "type": "rich_text",
                "block_id": "vLD",
                "elements": [
                    {
                        "type": "rich_text_section",
                        "elements": [
                            {
                                "type": "text",
                                "text": "So basically you can run the DETECTR protocol in a 96-well plate with the quencher modification, while the biotin mod allows you to run the lateral flow assay"
                            }
                        ]
                    }
                ]
            }
        ],
        "thread_ts": "1584991379.043900",
        "parent_user_id": "UV10KBUQG"
    },
    {
        "client_msg_id": "b8bc917e-c604-4c27-abd1-e83850e1c905",
        "type": "message",
        "text": "So would it be a good idea to order both?",
        "user": "UV10KBUQG",
        "ts": "1584999401.048700",
        "team": "TUU48M0T1",
        "user_team": "TUU48M0T1",
        "source_team": "TUU48M0T1",
        "user_profile": {
            "avatar_hash": "2deebbf6be3d",
            "image_72": "https:\/\/avatars.slack-edge.com\/2020-03-06\/976932190641_2deebbf6be3d17141d91_72.jpg",
            "first_name": "Sarah",
            "real_name": "Sarah Blossom Ware",
            "display_name": "Sarah Blossom Ware - BioBlaze Community Bio Lab",
            "team": "TUU48M0T1",
            "name": "ware.sarah",
            "is_restricted": false,
            "is_ultra_restricted": false
        },
        "blocks": [
            {
                "type": "rich_text",
                "block_id": "+YD=z",
                "elements": [
                    {
                        "type": "rich_text_section",
                        "elements": [
                            {
                                "type": "text",
                                "text": "So would it be a good idea to order both?"
                            }
                        ]
                    }
                ]
            }
        ],
        "thread_ts": "1584991379.043900",
        "parent_user_id": "UV10KBUQG"
    },
    {
        "client_msg_id": "A60E2660-D8F5-497D-9D07-46B9162598A3",
        "type": "message",
        "text": "Just checked slack for the first time today sorry! (Online school is picking up pace...) <@UUNGFHSV8> said everything I had to say. Not sure if it’s worth buying both...",
        "user": "UUPFF4TC3",
        "ts": "1585008769.050100",
        "team": "TUU48M0T1",
        "user_team": "TUU48M0T1",
        "source_team": "TUU48M0T1",
        "user_profile": {
            "avatar_hash": "g563e1ed9e36",
            "image_72": "https:\/\/secure.gravatar.com\/avatar\/563e1ed9e362af0ce5867baad4d7c568.jpg?s=72&d=https%3A%2F%2Fa.slack-edge.com%2Fdf10d%2Fimg%2Favatars%2Fava_0007-72.png",
            "first_name": "Sophie",
            "real_name": "Sophie Liu",
            "display_name": "Sophie Liu",
            "team": "TUU48M0T1",
            "name": "sophie006liu",
            "is_restricted": false,
            "is_ultra_restricted": false
        },
        "blocks": [
            {
                "type": "rich_text",
                "block_id": "hUf",
                "elements": [
                    {
                        "type": "rich_text_section",
                        "elements": [
                            {
                                "type": "text",
                                "text": "Just checked slack for the first time today sorry! (Online school is picking up pace...) "
                            },
                            {
                                "type": "user",
                                "user_id": "UUNGFHSV8"
                            },
                            {
                                "type": "text",
                                "text": " said everything I had to say. Not sure if it’s worth buying both..."
                            }
                        ]
                    }
                ]
            }
        ],
        "thread_ts": "1584991379.043900",
        "parent_user_id": "UV10KBUQG"
    },
    {
        "client_msg_id": "8706e736-f91f-4f85-a474-892fab2a99ae",
        "type": "message",
        "text": "I’m also wondering about the ethical aspects of buying RNA extraction kits.  Well firstly they just might not sell it to you but if they did, we might be depriving someone of a test and resulting in someone’’s death.  To get around this perhaps buy from a non CDC approved source?",
        "user": "UV3HA9MM4",
        "ts": "1585010827.050300",
        "team": "TUU48M0T1",
        "user_team": "TUU48M0T1",
        "source_team": "TUU48M0T1",
        "user_profile": {
            "avatar_hash": "b2f89757c831",
            "image_72": "https:\/\/avatars.slack-edge.com\/2020-03-07\/987455908032_b2f89757c8312ec04011_72.jpg",
            "first_name": "AJP",
            "real_name": "AJP",
            "display_name": "AJP",
            "team": "TUU48M0T1",
            "name": "bioajp",
            "is_restricted": false,
            "is_ultra_restricted": false
        },
        "edited": {
            "user": "UV3HA9MM4",
            "ts": "1585010856.000000"
        },
        "blocks": [
            {
                "type": "rich_text",
                "block_id": "Yaqx",
                "elements": [
                    {
                        "type": "rich_text_section",
                        "elements": [
                            {
                                "type": "text",
                                "text": "I’m also wondering about the ethical aspects of buying RNA extraction kits.  Well firstly they just might not sell it to you but if they did, we might be depriving someone of a test and resulting in someone’’s death.  To get around this perhaps buy from a non CDC approved source?"
                            }
                        ]
                    }
                ]
            }
        ],
        "thread_ts": "1584991379.043900",
        "parent_user_id": "UV10KBUQG"
    },
    {
        "client_msg_id": "e1152238-906f-4a51-9121-8cbad5306bf6",
        "type": "message",
        "text": "We don't need RNA extraction kits for this protocol.",
        "user": "UV10KBUQG",
        "ts": "1585013395.050600",
        "team": "TUU48M0T1",
        "user_team": "TUU48M0T1",
        "source_team": "TUU48M0T1",
        "user_profile": {
            "avatar_hash": "2deebbf6be3d",
            "image_72": "https:\/\/avatars.slack-edge.com\/2020-03-06\/976932190641_2deebbf6be3d17141d91_72.jpg",
            "first_name": "Sarah",
            "real_name": "Sarah Blossom Ware",
            "display_name": "Sarah Blossom Ware - BioBlaze Community Bio Lab",
            "team": "TUU48M0T1",
            "name": "ware.sarah",
            "is_restricted": false,
            "is_ultra_restricted": false
        },
        "blocks": [
            {
                "type": "rich_text",
                "block_id": "+lr4",
                "elements": [
                    {
                        "type": "rich_text_section",
                        "elements": [
                            {
                                "type": "text",
                                "text": "We don't need RNA extraction kits for this protocol."
                            }
                        ]
                    }
                ]
            }
        ],
        "thread_ts": "1584991379.043900",
        "parent_user_id": "UV10KBUQG",
        "reactions": [
            {
                "name": "100",
                "users": [
                    "UUPFF4TC3"
                ],
                "count": 1
            }
        ]
    },
    {
        "client_msg_id": "973be91e-da52-41ef-bca5-3fd4449e940c",
        "type": "message",
        "text": "When trying to order the reporter DNA oligo as \/56-FAM\/TTATTATT\/3Bio\/ I get an error message that says the oligo length of 8 is not allowed.  It must be 10-90 bases.  It does not help to change the scale.",
        "user": "UV10KBUQG",
        "ts": "1585015623.050900",
        "team": "TUU48M0T1",
        "user_team": "TUU48M0T1",
        "source_team": "TUU48M0T1",
        "user_profile": {
            "avatar_hash": "2deebbf6be3d",
            "image_72": "https:\/\/avatars.slack-edge.com\/2020-03-06\/976932190641_2deebbf6be3d17141d91_72.jpg",
            "first_name": "Sarah",
            "real_name": "Sarah Blossom Ware",
            "display_name": "Sarah Blossom Ware - BioBlaze Community Bio Lab",
            "team": "TUU48M0T1",
            "name": "ware.sarah",
            "is_restricted": false,
            "is_ultra_restricted": false
        },
        "blocks": [
            {
                "type": "rich_text",
                "block_id": "Tyfkz",
                "elements": [
                    {
                        "type": "rich_text_section",
                        "elements": [
                            {
                                "type": "text",
                                "text": "When trying to order the reporter DNA oligo as \/56-FAM\/TTATTATT\/3Bio\/ I get an error message that says the oligo length of 8 is not allowed.  It must be 10-90 bases.  It does not help to change the scale."
                            }
                        ]
                    }
                ]
            }
        ],
        "thread_ts": "1584991379.043900",
        "parent_user_id": "UV10KBUQG"
    },
    {
        "client_msg_id": "67995f58-a449-4e91-949c-697b0b85f772",
        "type": "message",
        "text": "Try changing it to 250 nmole? That's the concentration that works for me and I just checked",
        "user": "UUPFF4TC3",
        "ts": "1585016531.051100",
        "team": "TUU48M0T1",
        "user_team": "TUU48M0T1",
        "source_team": "TUU48M0T1",
        "user_profile": {
            "avatar_hash": "g563e1ed9e36",
            "image_72": "https:\/\/secure.gravatar.com\/avatar\/563e1ed9e362af0ce5867baad4d7c568.jpg?s=72&d=https%3A%2F%2Fa.slack-edge.com%2Fdf10d%2Fimg%2Favatars%2Fava_0007-72.png",
            "first_name": "Sophie",
            "real_name": "Sophie Liu",
            "display_name": "Sophie Liu",
            "team": "TUU48M0T1",
            "name": "sophie006liu",
            "is_restricted": false,
            "is_ultra_restricted": false
        },
        "blocks": [
            {
                "type": "rich_text",
                "block_id": "N8fL2",
                "elements": [
                    {
                        "type": "rich_text_section",
                        "elements": [
                            {
                                "type": "text",
                                "text": "Try changing it to 250 nmole? That's the concentration that works for me and I just checked"
                            }
                        ]
                    }
                ]
            }
        ],
        "thread_ts": "1584991379.043900",
        "parent_user_id": "UV10KBUQG",
        "reactions": [
            {
                "name": "heart",
                "users": [
                    "UV10KBUQG"
                ],
                "count": 1
            }
        ]
    },
    {
        "client_msg_id": "2e77f6c3-4097-436c-97fa-5278a7d2ac07",
        "type": "message",
        "text": "Yes, it's ok at 250 nmole!",
        "user": "UV10KBUQG",
        "ts": "1585017255.051400",
        "team": "TUU48M0T1",
        "user_team": "TUU48M0T1",
        "source_team": "TUU48M0T1",
        "user_profile": {
            "avatar_hash": "2deebbf6be3d",
            "image_72": "https:\/\/avatars.slack-edge.com\/2020-03-06\/976932190641_2deebbf6be3d17141d91_72.jpg",
            "first_name": "Sarah",
            "real_name": "Sarah Blossom Ware",
            "display_name": "Sarah Blossom Ware - BioBlaze Community Bio Lab",
            "team": "TUU48M0T1",
            "name": "ware.sarah",
            "is_restricted": false,
            "is_ultra_restricted": false
        },
        "blocks": [
            {
                "type": "rich_text",
                "block_id": "4+8Y",
                "elements": [
                    {
                        "type": "rich_text_section",
                        "elements": [
                            {
                                "type": "text",
                                "text": "Yes, it's ok at 250 nmole!"
                            }
                        ]
                    }
                ]
            }
        ],
        "thread_ts": "1584991379.043900",
        "parent_user_id": "UV10KBUQG"
    },
    {
        "client_msg_id": "4d3b0375-db47-4805-9c78-04fe6fd6844f",
        "type": "message",
        "text": "Synthego for gRNAs says shipping is estimated 17 days after payment!  Is there a quicker alternative?  There is a statement saying they will fast-track any Covid-19 related orders.  I submitted the request, but no one contacted my today.  I can try calling tomorrow.",
        "user": "UV10KBUQG",
        "ts": "1585018551.052300",
        "team": "TUU48M0T1",
        "user_team": "TUU48M0T1",
        "source_team": "TUU48M0T1",
        "user_profile": {
            "avatar_hash": "2deebbf6be3d",
            "image_72": "https:\/\/avatars.slack-edge.com\/2020-03-06\/976932190641_2deebbf6be3d17141d91_72.jpg",
            "first_name": "Sarah",
            "real_name": "Sarah Blossom Ware",
            "display_name": "Sarah Blossom Ware - BioBlaze Community Bio Lab",
            "team": "TUU48M0T1",
            "name": "ware.sarah",
            "is_restricted": false,
            "is_ultra_restricted": false
        },
        "edited": {
            "user": "UV10KBUQG",
            "ts": "1585018671.000000"
        },
        "blocks": [
            {
                "type": "rich_text",
                "block_id": "AI525",
                "elements": [
                    {
                        "type": "rich_text_section",
                        "elements": [
                            {
                                "type": "text",
                                "text": "Synthego for gRNAs says shipping is estimated 17 days after payment!  Is there a quicker alternative?  There is a statement saying they will fast-track any Covid-19 related orders.  I submitted the request, but no one contacted my today.  I can try calling tomorrow."
                            }
                        ]
                    }
                ]
            }
        ],
        "reactions": [
            {
                "name": "+1",
                "users": [
                    "U010PEV8VS4"
                ],
                "count": 1
            }
        ]
    },
    {
        "client_msg_id": "cbfd5267-a28e-4a4c-b707-8b01b9cf1d78",
        "type": "message",
        "text": "<@UUNGFHSV8> your probe is ~$350 :disappointed:  but then there is no need for lateral flow strips, which are $374 :slightly_smiling_face:",
        "user": "UV10KBUQG",
        "ts": "1585023148.052600",
        "team": "TUU48M0T1",
        "user_team": "TUU48M0T1",
        "source_team": "TUU48M0T1",
        "user_profile": {
            "avatar_hash": "2deebbf6be3d",
            "image_72": "https:\/\/avatars.slack-edge.com\/2020-03-06\/976932190641_2deebbf6be3d17141d91_72.jpg",
            "first_name": "Sarah",
            "real_name": "Sarah Blossom Ware",
            "display_name": "Sarah Blossom Ware - BioBlaze Community Bio Lab",
            "team": "TUU48M0T1",
            "name": "ware.sarah",
            "is_restricted": false,
            "is_ultra_restricted": false
        },
        "blocks": [
            {
                "type": "rich_text",
                "block_id": "+oqT",
                "elements": [
                    {
                        "type": "rich_text_section",
                        "elements": [
                            {
                                "type": "user",
                                "user_id": "UUNGFHSV8"
                            },
                            {
                                "type": "text",
                                "text": " your probe is ~$350 "
                            },
                            {
                                "type": "emoji",
                                "name": "disappointed"
                            },
                            {
                                "type": "text",
                                "text": "  but then there is no need for lateral flow strips, which are $374 "
                            },
                            {
                                "type": "emoji",
                                "name": "slightly_smiling_face"
                            }
                        ]
                    }
                ]
            }
        ],
        "thread_ts": "1584991379.043900",
        "parent_user_id": "UV10KBUQG"
    }
]