[
    {
        "client_msg_id": "8e3ef741-b3aa-4ddf-a909-5534f4759129",
        "type": "message",
        "text": "There are already RNAse free versions of E. coli",
        "user": "UUPQGNNTV",
        "ts": "1584808113.016800",
        "team": "TUU48M0T1",
        "user_team": "TUU48M0T1",
        "source_team": "TUU48M0T1",
        "user_profile": {
            "avatar_hash": "c28127caf7eb",
            "image_72": "https:\/\/avatars.slack-edge.com\/2020-03-07\/989562470694_c28127caf7ebfe67df97_72.jpg",
            "first_name": "",
            "real_name": "Ellen Jorgensen",
            "display_name": "",
            "team": "TUU48M0T1",
            "name": "ejorgensen",
            "is_restricted": false,
            "is_ultra_restricted": false
        },
        "blocks": [
            {
                "type": "rich_text",
                "block_id": "ZbCc",
                "elements": [
                    {
                        "type": "rich_text_section",
                        "elements": [
                            {
                                "type": "text",
                                "text": "There are already RNAse free versions of E. coli"
                            }
                        ]
                    }
                ]
            }
        ],
        "thread_ts": "1584391810.008900",
        "parent_user_id": "UV3HA9MM4"
    },
    {
        "client_msg_id": "e7b41ca8-fe47-4385-97bb-67f6990676dc",
        "type": "message",
        "text": "We used this strain in an iGEM project where we were producing siRNA:  Escherichia coli HT115 (DE3) which is RNAse minus",
        "user": "UUPQGNNTV",
        "ts": "1584808234.017000",
        "team": "TUU48M0T1",
        "user_team": "TUU48M0T1",
        "source_team": "TUU48M0T1",
        "user_profile": {
            "avatar_hash": "c28127caf7eb",
            "image_72": "https:\/\/avatars.slack-edge.com\/2020-03-07\/989562470694_c28127caf7ebfe67df97_72.jpg",
            "first_name": "",
            "real_name": "Ellen Jorgensen",
            "display_name": "",
            "team": "TUU48M0T1",
            "name": "ejorgensen",
            "is_restricted": false,
            "is_ultra_restricted": false
        },
        "blocks": [
            {
                "type": "rich_text",
                "block_id": "ctfV",
                "elements": [
                    {
                        "type": "rich_text_section",
                        "elements": [
                            {
                                "type": "text",
                                "text": "We used this strain in an iGEM project where we were producing siRNA:  Escherichia coli HT115 (DE3) which is RNAse minus"
                            }
                        ]
                    }
                ]
            }
        ],
        "thread_ts": "1584391810.008900",
        "parent_user_id": "UV3HA9MM4"
    },
    {
        "client_msg_id": "c2cea1bf-5eb0-4c0f-b654-f4e3871f8808",
        "type": "message",
        "text": "I probably have some in a freezer somewhere",
        "user": "UUPQGNNTV",
        "ts": "1584808261.017200",
        "team": "TUU48M0T1",
        "user_team": "TUU48M0T1",
        "source_team": "TUU48M0T1",
        "user_profile": {
            "avatar_hash": "c28127caf7eb",
            "image_72": "https:\/\/avatars.slack-edge.com\/2020-03-07\/989562470694_c28127caf7ebfe67df97_72.jpg",
            "first_name": "",
            "real_name": "Ellen Jorgensen",
            "display_name": "",
            "team": "TUU48M0T1",
            "name": "ejorgensen",
            "is_restricted": false,
            "is_ultra_restricted": false
        },
        "blocks": [
            {
                "type": "rich_text",
                "block_id": "65d1X",
                "elements": [
                    {
                        "type": "rich_text_section",
                        "elements": [
                            {
                                "type": "text",
                                "text": "I probably have some in a freezer somewhere"
                            }
                        ]
                    }
                ]
            }
        ],
        "thread_ts": "1584391810.008900",
        "parent_user_id": "UV3HA9MM4"
    },
    {
        "client_msg_id": "aff0e38c-b1ab-4849-a56e-16de46f407ce",
        "type": "message",
        "text": "How’s it going <@UUPFF4TC3>?",
        "user": "UV3HA9MM4",
        "ts": "1584814849.017500",
        "team": "TUU48M0T1",
        "user_team": "TUU48M0T1",
        "source_team": "TUU48M0T1",
        "user_profile": {
            "avatar_hash": "b2f89757c831",
            "image_72": "https:\/\/avatars.slack-edge.com\/2020-03-07\/987455908032_b2f89757c8312ec04011_72.jpg",
            "first_name": "AJP",
            "real_name": "AJP",
            "display_name": "AJP",
            "team": "TUU48M0T1",
            "name": "bioajp",
            "is_restricted": false,
            "is_ultra_restricted": false
        },
        "blocks": [
            {
                "type": "rich_text",
                "block_id": "+gz",
                "elements": [
                    {
                        "type": "rich_text_section",
                        "elements": [
                            {
                                "type": "text",
                                "text": "How’s it going "
                            },
                            {
                                "type": "user",
                                "user_id": "UUPFF4TC3"
                            },
                            {
                                "type": "text",
                                "text": "?"
                            }
                        ]
                    }
                ]
            }
        ],
        "thread_ts": "1584814849.017500",
        "reply_count": 1,
        "reply_users_count": 1,
        "latest_reply": "1584912833.026500",
        "reply_users": [
            "UUPFF4TC3"
        ],
        "replies": [
            {
                "user": "UUPFF4TC3",
                "ts": "1584912833.026500"
            }
        ],
        "subscribed": false
    }
]