[
    {
        "type": "message",
        "subtype": "channel_name",
        "ts": "1587370699.000100",
        "user": "U010YT4BM34",
        "text": "<@U010YT4BM34> has renamed the channel from \"proj-cov-19community-kits\" to \"proj-cov19-open-automated-dispenser\"",
        "old_name": "proj-cov-19community-kits",
        "name": "proj-cov19-open-automated-dispenser"
    }
]