[
    {
        "type": "message",
        "subtype": "channel_join",
        "ts": "1584722824.000200",
        "user": "UVADMLUB0",
        "text": "<@UVADMLUB0> has joined the channel"
    },
    {
        "type": "message",
        "subtype": "channel_join",
        "ts": "1584726001.000200",
        "user": "UV8FL0JCA",
        "text": "<@UV8FL0JCA> has joined the channel"
    },
    {
        "type": "message",
        "subtype": "channel_join",
        "ts": "1584727259.000400",
        "user": "UUNGFHSV8",
        "text": "<@UUNGFHSV8> has joined the channel"
    },
    {
        "type": "message",
        "subtype": "channel_join",
        "ts": "1584728325.000600",
        "user": "U0106PLV8PJ",
        "text": "<@U0106PLV8PJ> has joined the channel"
    },
    {
        "type": "message",
        "subtype": "channel_join",
        "ts": "1584745116.000200",
        "user": "U0109B6RAJ0",
        "text": "<@U0109B6RAJ0> has joined the channel"
    },
    {
        "type": "message",
        "subtype": "channel_join",
        "ts": "1584754300.000400",
        "user": "U0109LRFM3Q",
        "text": "<@U0109LRFM3Q> has joined the channel"
    }
]