[
    {
        "type": "message",
        "subtype": "channel_join",
        "ts": "1588792326.115900",
        "user": "U01022HL5PZ",
        "text": "<@U01022HL5PZ> has joined the channel",
        "inviter": "U0101DKUALV"
    },
    {
        "type": "message",
        "subtype": "channel_join",
        "ts": "1588792327.116100",
        "user": "UV6T1KU0K",
        "text": "<@UV6T1KU0K> has joined the channel",
        "inviter": "U0101DKUALV"
    },
    {
        "type": "message",
        "subtype": "channel_join",
        "ts": "1588792327.116300",
        "user": "U0102FNSTK6",
        "text": "<@U0102FNSTK6> has joined the channel",
        "inviter": "U0101DKUALV"
    },
    {
        "type": "message",
        "subtype": "channel_join",
        "ts": "1588792327.116500",
        "user": "UV6LNPJ3C",
        "text": "<@UV6LNPJ3C> has joined the channel",
        "inviter": "U0101DKUALV"
    },
    {
        "type": "message",
        "subtype": "channel_join",
        "ts": "1588792327.116700",
        "user": "U0106PLV8PJ",
        "text": "<@U0106PLV8PJ> has joined the channel",
        "inviter": "U0101DKUALV"
    },
    {
        "type": "message",
        "subtype": "channel_join",
        "ts": "1588792327.116900",
        "user": "U0108DBLQSZ",
        "text": "<@U0108DBLQSZ> has joined the channel",
        "inviter": "U0101DKUALV"
    },
    {
        "type": "message",
        "subtype": "channel_join",
        "ts": "1588792327.117100",
        "user": "U010APQC76J",
        "text": "<@U010APQC76J> has joined the channel",
        "inviter": "U0101DKUALV"
    },
    {
        "type": "message",
        "subtype": "channel_join",
        "ts": "1588792327.117300",
        "user": "U010FE5HAT1",
        "text": "<@U010FE5HAT1> has joined the channel",
        "inviter": "U0101DKUALV"
    },
    {
        "type": "message",
        "subtype": "channel_join",
        "ts": "1588792327.117500",
        "user": "U010J948MUP",
        "text": "<@U010J948MUP> has joined the channel",
        "inviter": "U0101DKUALV"
    },
    {
        "type": "message",
        "subtype": "channel_join",
        "ts": "1588792327.117700",
        "user": "U0103TXPP1Q",
        "text": "<@U0103TXPP1Q> has joined the channel",
        "inviter": "U0101DKUALV"
    },
    {
        "type": "message",
        "subtype": "channel_join",
        "ts": "1588792327.117900",
        "user": "U0106T9TL3T",
        "text": "<@U0106T9TL3T> has joined the channel",
        "inviter": "U0101DKUALV"
    },
    {
        "type": "message",
        "subtype": "channel_join",
        "ts": "1588792327.118100",
        "user": "U010GD6AALC",
        "text": "<@U010GD6AALC> has joined the channel",
        "inviter": "U0101DKUALV"
    },
    {
        "type": "message",
        "subtype": "channel_join",
        "ts": "1588792327.118300",
        "user": "U010GL9T3QC",
        "text": "<@U010GL9T3QC> has joined the channel",
        "inviter": "U0101DKUALV"
    },
    {
        "type": "message",
        "subtype": "channel_join",
        "ts": "1588792328.118500",
        "user": "UVA9QC7C3",
        "text": "<@UVA9QC7C3> has joined the channel",
        "inviter": "U0101DKUALV"
    },
    {
        "type": "message",
        "subtype": "channel_join",
        "ts": "1588792328.118700",
        "user": "U010H59SZFE",
        "text": "<@U010H59SZFE> has joined the channel",
        "inviter": "U0101DKUALV"
    },
    {
        "type": "message",
        "subtype": "channel_join",
        "ts": "1588792328.118900",
        "user": "U010HSZFE4V",
        "text": "<@U010HSZFE4V> has joined the channel",
        "inviter": "U0101DKUALV"
    },
    {
        "type": "message",
        "subtype": "channel_join",
        "ts": "1588792328.119100",
        "user": "U0108BNJX5G",
        "text": "<@U0108BNJX5G> has joined the channel",
        "inviter": "U0101DKUALV"
    },
    {
        "type": "message",
        "subtype": "channel_join",
        "ts": "1588792328.119300",
        "user": "U010RMADF2T",
        "text": "<@U010RMADF2T> has joined the channel",
        "inviter": "U0101DKUALV"
    },
    {
        "type": "message",
        "subtype": "channel_join",
        "ts": "1588792328.119500",
        "user": "U010QGMD5CM",
        "text": "<@U010QGMD5CM> has joined the channel",
        "inviter": "U0101DKUALV"
    },
    {
        "type": "message",
        "subtype": "channel_join",
        "ts": "1588792328.119700",
        "user": "U010W8C1LBF",
        "text": "<@U010W8C1LBF> has joined the channel",
        "inviter": "U0101DKUALV"
    },
    {
        "type": "message",
        "subtype": "channel_join",
        "ts": "1588792328.119900",
        "user": "U011D32H1PX",
        "text": "<@U011D32H1PX> has joined the channel",
        "inviter": "U0101DKUALV"
    },
    {
        "type": "message",
        "subtype": "channel_join",
        "ts": "1588792328.120100",
        "user": "U011F2CSS3W",
        "text": "<@U011F2CSS3W> has joined the channel",
        "inviter": "U0101DKUALV"
    },
    {
        "type": "message",
        "subtype": "channel_join",
        "ts": "1588792329.120300",
        "user": "U0119U5N3T3",
        "text": "<@U0119U5N3T3> has joined the channel",
        "inviter": "U0101DKUALV"
    },
    {
        "type": "message",
        "subtype": "channel_join",
        "ts": "1588792329.120500",
        "user": "U011EJX7MB8",
        "text": "<@U011EJX7MB8> has joined the channel",
        "inviter": "U0101DKUALV"
    }
]