[
    {
        "type": "message",
        "text": "Hello <!channel> (namely <!subteam^S013M65LN7K|@college-students>, <!subteam^S013ENRV14L|@high-school-students>, and <!subteam^S013M6CS9K3|@phd-students>!)\n\nWe would love to hear what you have been up to in OpenCOVID19 these days. Please feel free to share in this channel what projects and programs you have been working on!\n\nIf you are still looking to get involved with a project, feel free to get in touch through this channel or our weekly meetings --- *we meet every Thursday, 10AM PST\/ 1PM EST\/ 7PM CET and would love for you to stop by!*",
        "files": [
            {
                "id": "F013JEKR9SP",
                "created": 1589338348,
                "timestamp": 1589338348,
                "name": "CHECKINmeetings icon.png",
                "title": "CHECKINmeetings icon.png",
                "mimetype": "image\/png",
                "filetype": "png",
                "pretty_type": "PNG",
                "user": "U0101DKUALV",
                "editable": false,
                "size": 452127,
                "mode": "hosted",
                "is_external": false,
                "external_type": "",
                "is_public": true,
                "public_url_shared": false,
                "display_as_bot": false,
                "username": "",
                "url_private": "https:\/\/files.slack.com\/files-pri\/TUU48M0T1-F013JEKR9SP\/checkinmeetings_icon.png?t=xoxe-980144714919-1133254701825-1120841107731-daf595b5a7d6c9028b0b02a925032e36",
                "url_private_download": "https:\/\/files.slack.com\/files-pri\/TUU48M0T1-F013JEKR9SP\/download\/checkinmeetings_icon.png?t=xoxe-980144714919-1133254701825-1120841107731-daf595b5a7d6c9028b0b02a925032e36",
                "thumb_64": "https:\/\/files.slack.com\/files-tmb\/TUU48M0T1-F013JEKR9SP-3178a62c11\/checkinmeetings_icon_64.png?t=xoxe-980144714919-1133254701825-1120841107731-daf595b5a7d6c9028b0b02a925032e36",
                "thumb_80": "https:\/\/files.slack.com\/files-tmb\/TUU48M0T1-F013JEKR9SP-3178a62c11\/checkinmeetings_icon_80.png?t=xoxe-980144714919-1133254701825-1120841107731-daf595b5a7d6c9028b0b02a925032e36",
                "thumb_360": "https:\/\/files.slack.com\/files-tmb\/TUU48M0T1-F013JEKR9SP-3178a62c11\/checkinmeetings_icon_360.png?t=xoxe-980144714919-1133254701825-1120841107731-daf595b5a7d6c9028b0b02a925032e36",
                "thumb_360_w": 360,
                "thumb_360_h": 224,
                "thumb_480": "https:\/\/files.slack.com\/files-tmb\/TUU48M0T1-F013JEKR9SP-3178a62c11\/checkinmeetings_icon_480.png?t=xoxe-980144714919-1133254701825-1120841107731-daf595b5a7d6c9028b0b02a925032e36",
                "thumb_480_w": 480,
                "thumb_480_h": 299,
                "thumb_160": "https:\/\/files.slack.com\/files-tmb\/TUU48M0T1-F013JEKR9SP-3178a62c11\/checkinmeetings_icon_160.png?t=xoxe-980144714919-1133254701825-1120841107731-daf595b5a7d6c9028b0b02a925032e36",
                "thumb_720": "https:\/\/files.slack.com\/files-tmb\/TUU48M0T1-F013JEKR9SP-3178a62c11\/checkinmeetings_icon_720.png?t=xoxe-980144714919-1133254701825-1120841107731-daf595b5a7d6c9028b0b02a925032e36",
                "thumb_720_w": 720,
                "thumb_720_h": 448,
                "thumb_800": "https:\/\/files.slack.com\/files-tmb\/TUU48M0T1-F013JEKR9SP-3178a62c11\/checkinmeetings_icon_800.png?t=xoxe-980144714919-1133254701825-1120841107731-daf595b5a7d6c9028b0b02a925032e36",
                "thumb_800_w": 800,
                "thumb_800_h": 498,
                "thumb_960": "https:\/\/files.slack.com\/files-tmb\/TUU48M0T1-F013JEKR9SP-3178a62c11\/checkinmeetings_icon_960.png?t=xoxe-980144714919-1133254701825-1120841107731-daf595b5a7d6c9028b0b02a925032e36",
                "thumb_960_w": 960,
                "thumb_960_h": 598,
                "thumb_1024": "https:\/\/files.slack.com\/files-tmb\/TUU48M0T1-F013JEKR9SP-3178a62c11\/checkinmeetings_icon_1024.png?t=xoxe-980144714919-1133254701825-1120841107731-daf595b5a7d6c9028b0b02a925032e36",
                "thumb_1024_w": 1024,
                "thumb_1024_h": 637,
                "original_w": 1645,
                "original_h": 1024,
                "permalink": "https:\/\/open-covid19.slack.com\/files\/U0101DKUALV\/F013JEKR9SP\/checkinmeetings_icon.png",
                "permalink_public": "https:\/\/slack-files.com\/TUU48M0T1-F013JEKR9SP-8d27946584",
                "is_starred": false,
                "has_rich_preview": false
            }
        ],
        "upload": true,
        "blocks": [
            {
                "type": "rich_text",
                "block_id": "6oj4U",
                "elements": [
                    {
                        "type": "rich_text_section",
                        "elements": [
                            {
                                "type": "text",
                                "text": "Hello "
                            },
                            {
                                "type": "broadcast",
                                "range": "channel"
                            },
                            {
                                "type": "text",
                                "text": " (namely "
                            },
                            {
                                "type": "usergroup",
                                "usergroup_id": "S013M65LN7K"
                            },
                            {
                                "type": "text",
                                "text": ", "
                            },
                            {
                                "type": "usergroup",
                                "usergroup_id": "S013ENRV14L"
                            },
                            {
                                "type": "text",
                                "text": ", and "
                            },
                            {
                                "type": "usergroup",
                                "usergroup_id": "S013M6CS9K3"
                            },
                            {
                                "type": "text",
                                "text": "!)\n\nWe would love to hear what you have been up to in OpenCOVID19 these days. Please feel free to share in this channel what projects and programs you have been working on!\n\nIf you are still looking to get involved with a project, feel free to get in touch through this channel or our weekly meetings --- "
                            },
                            {
                                "type": "text",
                                "text": "we meet every Thursday, 10AM PST\/ 1PM EST\/ 7PM CET and would love for you to stop by!",
                                "style": {
                                    "bold": true
                                }
                            }
                        ]
                    }
                ]
            }
        ],
        "user": "U0101DKUALV",
        "display_as_bot": false,
        "ts": "1589338352.131800",
        "client_msg_id": "93b8fd11-c678-4d99-b19c-2117aa832a8a"
    },
    {
        "type": "message",
        "subtype": "channel_join",
        "ts": "1589349665.132400",
        "user": "UV4BCQ11P",
        "text": "<@UV4BCQ11P> has joined the channel",
        "inviter": "U0101DKUALV"
    },
    {
        "type": "message",
        "text": "Hello fellow students!",
        "user": "UV4BCQ11P",
        "ts": "1589351411.132500",
        "team": "TUU48M0T1",
        "user_team": "TUU48M0T1",
        "source_team": "TUU48M0T1",
        "user_profile": {
            "avatar_hash": "49caac283d02",
            "image_72": "https:\/\/avatars.slack-edge.com\/2020-03-16\/1003952583750_49caac283d02479ba7d2_72.png",
            "first_name": "Kahlil",
            "real_name": "Kahlil Corazo",
            "display_name": "Kahlil Corazo",
            "team": "TUU48M0T1",
            "name": "bio",
            "is_restricted": false,
            "is_ultra_restricted": false
        },
        "attachments": [
            {
                "fallback": "[May 13th, 2020 4:52 AM] bio: Hello. I'm Kahlil Corazo, an entrepreneur from the Philippines :flag-ph: I'm also currently in my second year of MS Biology. I've been part of this group since mid March. Saying hello now since this week I'll complete my draft for a proposal to a government agency to pilot a low-cost genomic surveillance lab using the Oxford Nanopore MinION sequencer. Would appreciate links to relevant papers and case studies. Here's a 29-tweet thread as background if you're in the why: <https:\/\/twitter.com\/kcorazo\/status\/1258698778606858240>",
                "ts": "1589316772.138300",
                "author_id": "UV4BCQ11P",
                "author_subname": "Kahlil Corazo",
                "channel_id": "C0102E5J2S3",
                "channel_name": "prgm-introductions",
                "is_msg_unfurl": true,
                "is_thread_root_unfurl": true,
                "text": "Hello. I'm Kahlil Corazo, an entrepreneur from the Philippines :flag-ph: I'm also currently in my second year of MS Biology. I've been part of this group since mid March. Saying hello now since this week I'll complete my draft for a proposal to a government agency to pilot a low-cost genomic surveillance lab using the Oxford Nanopore MinION sequencer. Would appreciate links to relevant papers and case studies. Here's a 29-tweet thread as background if you're in the why: <https:\/\/twitter.com\/kcorazo\/status\/1258698778606858240>",
                "author_name": "Kahlil Corazo",
                "author_link": "https:\/\/open-covid19.slack.com\/team\/UV4BCQ11P",
                "author_icon": "https:\/\/avatars.slack-edge.com\/2020-03-16\/1003952583750_49caac283d02479ba7d2_48.png",
                "mrkdwn_in": [
                    "text"
                ],
                "color": "D0D0D0",
                "from_url": "https:\/\/open-covid19.slack.com\/archives\/C0102E5J2S3\/p1589316772138300?thread_ts=1589316772138300&cid=C0102E5J2S3",
                "is_share": true,
                "footer": "Thread in #prgm-introductions"
            }
        ],
        "blocks": [
            {
                "type": "rich_text",
                "block_id": "KRl",
                "elements": [
                    {
                        "type": "rich_text_section",
                        "elements": [
                            {
                                "type": "text",
                                "text": "Hello fellow students!"
                            }
                        ]
                    }
                ]
            }
        ]
    }
]