[
    {
        "client_msg_id": "6C50EDE1-8FF9-4A84-9838-D031D1CB94AE",
        "type": "message",
        "text": "<!channel> i’ve been talking with a few people about a possible student-led project—are there any student web developers or students knowledgeable in UI\/UX design here that would be interested in a dev project\/creating an online resource? if so, it’d be great if you could either DM me or reply to this message w a small description of your experience. will share some more info next week—thx!!",
        "user": "UV0QTJCMT",
        "ts": "1588218344.101600",
        "team": "TUU48M0T1",
        "user_team": "TUU48M0T1",
        "source_team": "TUU48M0T1",
        "user_profile": {
            "avatar_hash": "06a6ae8f69d1",
            "image_72": "https:\/\/avatars.slack-edge.com\/2020-04-13\/1060635499315_06a6ae8f69d18f1ad464_72.png",
            "first_name": "Katherine",
            "real_name": "Katherine Holo",
            "display_name": "Kat Holo - Co-Organizer of OpenCOVID19",
            "team": "TUU48M0T1",
            "name": "katherineh245",
            "is_restricted": false,
            "is_ultra_restricted": false
        },
        "blocks": [
            {
                "type": "rich_text",
                "block_id": "n6fI=",
                "elements": [
                    {
                        "type": "rich_text_section",
                        "elements": [
                            {
                                "type": "broadcast",
                                "range": "channel"
                            },
                            {
                                "type": "text",
                                "text": " i’ve been talking with a few people about a possible student-led project—are there any student web developers or students knowledgeable in UI\/UX design here that would be interested in a dev project\/creating an online resource? if so, it’d be great if you could either DM me or reply to this message w a small description of your experience. will share some more info next week—thx!!"
                            }
                        ]
                    }
                ]
            }
        ],
        "reactions": [
            {
                "name": "heart",
                "users": [
                    "U0101DKUALV",
                    "U010ZRNUQ0J",
                    "U011D8T1Z61"
                ],
                "count": 3
            },
            {
                "name": "wave",
                "users": [
                    "U0101DKUALV",
                    "U010ZRNUQ0J",
                    "U010Q3372P3"
                ],
                "count": 3
            },
            {
                "name": "first_place_medal",
                "users": [
                    "UV87UQ37A"
                ],
                "count": 1
            },
            {
                "name": "+1",
                "users": [
                    "U0115G1A03D"
                ],
                "count": 1
            }
        ]
    },
    {
        "client_msg_id": "8e52c2bc-2dd7-4ffa-866f-2b5006f4613b",
        "type": "message",
        "text": "Hi <@U0101DKUALV> I wanted to see if you need anything and if there’s a plan for another student meeting this week? I thought they were Thursdays at 4 pm ET, but I don’t see it on calendar anymore!",
        "user": "U010Q3372P3",
        "ts": "1588219699.103100",
        "team": "TUU48M0T1",
        "user_team": "TUU48M0T1",
        "source_team": "TUU48M0T1",
        "user_profile": {
            "avatar_hash": "95066184973b",
            "image_72": "https:\/\/avatars.slack-edge.com\/2020-03-30\/1036274198128_95066184973b1de50d1a_72.png",
            "first_name": "Kathryn",
            "real_name": "Kathryn Rowe",
            "display_name": "Kathryn Rowe",
            "team": "TUU48M0T1",
            "name": "kathryn.rowe",
            "is_restricted": false,
            "is_ultra_restricted": false
        },
        "blocks": [
            {
                "type": "rich_text",
                "block_id": "jbTg",
                "elements": [
                    {
                        "type": "rich_text_section",
                        "elements": [
                            {
                                "type": "text",
                                "text": "Hi "
                            },
                            {
                                "type": "user",
                                "user_id": "U0101DKUALV"
                            },
                            {
                                "type": "text",
                                "text": " I wanted to see if you need anything and if there’s a plan for another student meeting this week? I thought they were Thursdays at 4 pm ET, but I don’t see it on calendar anymore!"
                            }
                        ]
                    }
                ]
            }
        ],
        "thread_ts": "1588219699.103100",
        "reply_count": 3,
        "reply_users_count": 2,
        "latest_reply": "1588265960.106900",
        "reply_users": [
            "U0101DKUALV",
            "UV10KBUQG"
        ],
        "replies": [
            {
                "user": "U0101DKUALV",
                "ts": "1588219868.103300"
            },
            {
                "user": "UV10KBUQG",
                "ts": "1588265494.106600"
            },
            {
                "user": "U0101DKUALV",
                "ts": "1588265960.106900"
            }
        ],
        "subscribed": false,
        "reactions": [
            {
                "name": "+1",
                "users": [
                    "UV10KBUQG"
                ],
                "count": 1
            }
        ]
    },
    {
        "client_msg_id": "ee88a6ca-eb12-43d3-abbe-5bad39fe32f0",
        "type": "message",
        "text": "Hi Kathryn! That's strange, I know the first two meetings are on the calendar...\n\nWe will be meeting at 9 AM PST (12PM EST) tomorrow on Thursday!\n\nOther than that, other than what I had approached with you earlier for communications, I know <@UV02WET96> was hoping we could develop a sort of info package to promote the program for students? I will try to think of something if I can!",
        "user": "U0101DKUALV",
        "ts": "1588219868.103300",
        "team": "TUU48M0T1",
        "user_team": "TUU48M0T1",
        "source_team": "TUU48M0T1",
        "user_profile": {
            "avatar_hash": "b0aee06ed3e5",
            "image_72": "https:\/\/avatars.slack-edge.com\/2020-04-22\/1072886325190_b0aee06ed3e501ebdf56_72.png",
            "first_name": "",
            "real_name": "Pauline Chane",
            "display_name": "Pauline Chane",
            "team": "TUU48M0T1",
            "name": "pauline.chane",
            "is_restricted": false,
            "is_ultra_restricted": false
        },
        "blocks": [
            {
                "type": "rich_text",
                "block_id": "sUwN",
                "elements": [
                    {
                        "type": "rich_text_section",
                        "elements": [
                            {
                                "type": "text",
                                "text": "Hi Kathryn! That's strange, I know the first two meetings are on the calendar...\n\nWe will be meeting at 9 AM PST (12PM EST) tomorrow on Thursday!\n\nOther than that, other than what I had approached with you earlier for communications, I know "
                            },
                            {
                                "type": "user",
                                "user_id": "UV02WET96"
                            },
                            {
                                "type": "text",
                                "text": " was hoping we could develop a sort of info package to promote the program for students? I will try to think of something if I can!"
                            }
                        ]
                    }
                ]
            }
        ],
        "thread_ts": "1588219699.103100",
        "parent_user_id": "U010Q3372P3",
        "reactions": [
            {
                "name": "+1",
                "users": [
                    "UV10KBUQG",
                    "UV02WET96"
                ],
                "count": 2
            }
        ]
    }
]