[
    {
        "client_msg_id": "08D3A08F-F619-4633-B93C-1D2D396C5EDD",
        "type": "message",
        "text": "the lyophilized test we hope to make can go anywhere - and hot water is ok for incubation !  however if the colors don’t work reliably, we might need fluor readout... (can be done relatively cheaply)",
        "user": "UV1A22N3W",
        "ts": "1585897636.047900",
        "team": "TUU48M0T1",
        "user_team": "TUU48M0T1",
        "source_team": "TUU48M0T1",
        "user_profile": {
            "avatar_hash": "71f827776ad6",
            "image_72": "https:\/\/avatars.slack-edge.com\/2020-03-09\/988125642964_71f827776ad610af05a2_72.jpg",
            "first_name": "",
            "real_name": "RachelA",
            "display_name": "RachelA",
            "team": "TUU48M0T1",
            "name": "raronoff",
            "is_restricted": false,
            "is_ultra_restricted": false
        },
        "blocks": [
            {
                "type": "rich_text",
                "block_id": "XfD8q",
                "elements": [
                    {
                        "type": "rich_text_section",
                        "elements": [
                            {
                                "type": "text",
                                "text": "the lyophilized test we hope to make can go anywhere - and hot water is ok for incubation !  however if the colors don’t work reliably, we might need fluor readout... (can be done relatively cheaply)"
                            }
                        ]
                    }
                ]
            }
        ],
        "thread_ts": "1585809597.038100",
        "parent_user_id": "U010X9FPMS8"
    }
]