[
    {
        "type": "message",
        "text": "<!channel> if you're interested in suggesting changes to the biosafety guidelines the board has created, here is the document. *please look at the section titled \"document changes\" at the very bottom for instructions on _how_ to suggest\/leave your changes (*<https:\/\/docs.google.com\/document\/d\/1ldQ1aRxHjuj-U7kNqwWlkwwwW54U6ls8xMI9l0LBFrQ\/edit#>)",
        "files": [
            {
                "id": "F01091A6J14",
                "created": 1584472839,
                "timestamp": 1584472839,
                "name": "Biosafety Guidelines for the OpenCOVID19 Initiative",
                "title": "Biosafety Guidelines for the OpenCOVID19 Initiative",
                "mimetype": "application\/vnd.google-apps.document",
                "filetype": "gdoc",
                "pretty_type": "GSuite Document",
                "user": "UV0QTJCMT",
                "editable": false,
                "size": 3476,
                "mode": "external",
                "is_external": true,
                "external_type": "gdrive",
                "is_public": true,
                "public_url_shared": false,
                "display_as_bot": false,
                "username": "",
                "url_private": "https:\/\/docs.google.com\/document\/d\/1ldQ1aRxHjuj-U7kNqwWlkwwwW54U6ls8xMI9l0LBFrQ\/edit?usp=sharing",
                "thumb_64": "https:\/\/files.slack.com\/files-tmb\/TUU48M0T1-F01091A6J14-c36baee80e\/biosafety_guidelines_for_the_opencovid19_initiative_64.png?t=xoxe-980144714919-1106606678066-1105227127893-6f722bb664235052954ad46852628b64",
                "thumb_80": "https:\/\/files.slack.com\/files-tmb\/TUU48M0T1-F01091A6J14-c36baee80e\/biosafety_guidelines_for_the_opencovid19_initiative_80.png?t=xoxe-980144714919-1106606678066-1105227127893-6f722bb664235052954ad46852628b64",
                "thumb_360": "https:\/\/files.slack.com\/files-tmb\/TUU48M0T1-F01091A6J14-c36baee80e\/biosafety_guidelines_for_the_opencovid19_initiative_360.png?t=xoxe-980144714919-1106606678066-1105227127893-6f722bb664235052954ad46852628b64",
                "thumb_360_w": 278,
                "thumb_360_h": 360,
                "thumb_480": "https:\/\/files.slack.com\/files-tmb\/TUU48M0T1-F01091A6J14-c36baee80e\/biosafety_guidelines_for_the_opencovid19_initiative_480.png?t=xoxe-980144714919-1106606678066-1105227127893-6f722bb664235052954ad46852628b64",
                "thumb_480_w": 371,
                "thumb_480_h": 480,
                "thumb_160": "https:\/\/files.slack.com\/files-tmb\/TUU48M0T1-F01091A6J14-c36baee80e\/biosafety_guidelines_for_the_opencovid19_initiative_160.png?t=xoxe-980144714919-1106606678066-1105227127893-6f722bb664235052954ad46852628b64",
                "thumb_720": "https:\/\/files.slack.com\/files-tmb\/TUU48M0T1-F01091A6J14-c36baee80e\/biosafety_guidelines_for_the_opencovid19_initiative_720.png?t=xoxe-980144714919-1106606678066-1105227127893-6f722bb664235052954ad46852628b64",
                "thumb_720_w": 557,
                "thumb_720_h": 720,
                "thumb_800": "https:\/\/files.slack.com\/files-tmb\/TUU48M0T1-F01091A6J14-c36baee80e\/biosafety_guidelines_for_the_opencovid19_initiative_800.png?t=xoxe-980144714919-1106606678066-1105227127893-6f722bb664235052954ad46852628b64",
                "thumb_800_w": 800,
                "thumb_800_h": 1035,
                "thumb_960": "https:\/\/files.slack.com\/files-tmb\/TUU48M0T1-F01091A6J14-c36baee80e\/biosafety_guidelines_for_the_opencovid19_initiative_960.png?t=xoxe-980144714919-1106606678066-1105227127893-6f722bb664235052954ad46852628b64",
                "thumb_960_w": 742,
                "thumb_960_h": 960,
                "thumb_1024": "https:\/\/files.slack.com\/files-tmb\/TUU48M0T1-F01091A6J14-c36baee80e\/biosafety_guidelines_for_the_opencovid19_initiative_1024.png?t=xoxe-980144714919-1106606678066-1105227127893-6f722bb664235052954ad46852628b64",
                "thumb_1024_w": 791,
                "thumb_1024_h": 1024,
                "image_exif_rotation": 1,
                "original_w": 800,
                "original_h": 1035,
                "thumb_tiny": "AwAwACXTopHBKEKcE96iSOURKplwwPJxnNAE1FM2t\/f\/AEpNsn96gCSiiigBDjHNJhPQUrdKZz6fpQAuEHpS4TPQUgz6U4fSgBaKKKAGSEgDCFvahCSoLR4PocU+j8KAG\/8AAaP+A06igAooooA\/\/9k=",
                "permalink": "https:\/\/open-covid19.slack.com\/files\/UV0QTJCMT\/F01091A6J14\/biosafety_guidelines_for_the_opencovid19_initiative",
                "is_starred": false,
                "external_id": "1ldQ1aRxHjuj-U7kNqwWlkwwwW54U6ls8xMI9l0LBFrQ",
                "external_url": "https:\/\/docs.google.com\/document\/d\/1ldQ1aRxHjuj-U7kNqwWlkwwwW54U6ls8xMI9l0LBFrQ\/edit?usp=sharing",
                "has_rich_preview": true
            }
        ],
        "upload": false,
        "blocks": [
            {
                "type": "rich_text",
                "block_id": "alciM",
                "elements": [
                    {
                        "type": "rich_text_section",
                        "elements": [
                            {
                                "type": "broadcast",
                                "range": "channel"
                            },
                            {
                                "type": "text",
                                "text": " if you're interested in suggesting changes to the biosafety guidelines the board has created, here is the document. "
                            },
                            {
                                "type": "text",
                                "text": "please look at the section titled \"document changes\" at the very bottom for instructions on ",
                                "style": {
                                    "bold": true
                                }
                            },
                            {
                                "type": "text",
                                "text": "how",
                                "style": {
                                    "bold": true,
                                    "italic": true
                                }
                            },
                            {
                                "type": "text",
                                "text": " to suggest\/leave your changes (",
                                "style": {
                                    "bold": true
                                }
                            },
                            {
                                "type": "link",
                                "url": "https:\/\/docs.google.com\/document\/d\/1ldQ1aRxHjuj-U7kNqwWlkwwwW54U6ls8xMI9l0LBFrQ\/edit#"
                            },
                            {
                                "type": "text",
                                "text": ")"
                            }
                        ]
                    }
                ]
            }
        ],
        "user": "UV0QTJCMT",
        "display_as_bot": false,
        "x_files": [
            "F01091A6J14"
        ],
        "ts": "1585529761.027100",
        "client_msg_id": "2c2a41ea-1302-4b7b-8e7e-0cda6c4cd6a0",
        "reactions": [
            {
                "name": "+1",
                "users": [
                    "UVADMLUB0",
                    "UV02WET96",
                    "UV2SC7ZE3"
                ],
                "count": 3
            }
        ]
    }
]