[
    {
        "client_msg_id": "f2171509-0823-4b00-8259-55ed09cf331c",
        "type": "message",
        "text": "Welcome Jenny! Very happy to have you here :slightly_smiling_face:",
        "user": "UV02WET96",
        "ts": "1584356736.025300",
        "team": "TUU48M0T1",
        "user_team": "TUU48M0T1",
        "source_team": "TUU48M0T1",
        "user_profile": {
            "avatar_hash": "a99c74a194f8",
            "image_72": "https:\/\/avatars.slack-edge.com\/2020-03-07\/975708504851_a99c74a194f86715ca7d_72.png",
            "first_name": "Thomas",
            "real_name": "Thomas Landrain",
            "display_name": "Thomas Landrain - JOGL CoFounder \/ CEO",
            "team": "TUU48M0T1",
            "name": "thomas",
            "is_restricted": false,
            "is_ultra_restricted": false
        },
        "blocks": [
            {
                "type": "rich_text",
                "block_id": "wvgZ",
                "elements": [
                    {
                        "type": "rich_text_section",
                        "elements": [
                            {
                                "type": "text",
                                "text": "Welcome Jenny! Very happy to have you here "
                            },
                            {
                                "type": "emoji",
                                "name": "slightly_smiling_face"
                            }
                        ]
                    }
                ]
            }
        ],
        "thread_ts": "1584329106.023800",
        "parent_user_id": "UV1V637PU"
    },
    {
        "client_msg_id": "22ec4e6a-2c35-492c-a4ce-4e4a4f03b4d3",
        "type": "message",
        "text": "Very happy to have you too Patrick! :slightly_smiling_face:",
        "user": "UV02WET96",
        "ts": "1584356807.025500",
        "team": "TUU48M0T1",
        "user_team": "TUU48M0T1",
        "source_team": "TUU48M0T1",
        "user_profile": {
            "avatar_hash": "a99c74a194f8",
            "image_72": "https:\/\/avatars.slack-edge.com\/2020-03-07\/975708504851_a99c74a194f86715ca7d_72.png",
            "first_name": "Thomas",
            "real_name": "Thomas Landrain",
            "display_name": "Thomas Landrain - JOGL CoFounder \/ CEO",
            "team": "TUU48M0T1",
            "name": "thomas",
            "is_restricted": false,
            "is_ultra_restricted": false
        },
        "blocks": [
            {
                "type": "rich_text",
                "block_id": "tKL\/",
                "elements": [
                    {
                        "type": "rich_text_section",
                        "elements": [
                            {
                                "type": "text",
                                "text": "Very happy to have you too Patrick! "
                            },
                            {
                                "type": "emoji",
                                "name": "slightly_smiling_face"
                            }
                        ]
                    }
                ]
            }
        ],
        "thread_ts": "1584329106.023800",
        "parent_user_id": "UV1V637PU"
    },
    {
        "client_msg_id": "25336751-3d0b-44aa-ac59-af20f1053549",
        "type": "message",
        "text": "Yes, I'd be happy to serve in an advisory role on the biosafety board for this initiative.",
        "user": "UUU098YEN",
        "ts": "1584358631.025900",
        "team": "TUU48M0T1",
        "user_team": "TUU48M0T1",
        "source_team": "TUU48M0T1",
        "user_profile": {
            "avatar_hash": "g866dc1d9ef1",
            "image_72": "https:\/\/secure.gravatar.com\/avatar\/866dc1d9ef1bfc04a3c668deae8301ea.jpg?s=72&d=https%3A%2F%2Fa.slack-edge.com%2Fdf10d%2Fimg%2Favatars%2Fava_0019-72.png",
            "first_name": "",
            "real_name": "Angela A.",
            "display_name": "",
            "team": "TUU48M0T1",
            "name": "aarmendariz",
            "is_restricted": false,
            "is_ultra_restricted": false
        },
        "blocks": [
            {
                "type": "rich_text",
                "block_id": "\/Mwg+",
                "elements": [
                    {
                        "type": "rich_text_section",
                        "elements": [
                            {
                                "type": "text",
                                "text": "Yes, I'd be happy to serve in an advisory role on the biosafety board for this initiative."
                            }
                        ]
                    }
                ]
            }
        ],
        "thread_ts": "1584329106.023800",
        "parent_user_id": "UV1V637PU",
        "reactions": [
            {
                "name": "+1",
                "users": [
                    "UV02WET96"
                ],
                "count": 1
            }
        ]
    },
    {
        "client_msg_id": "5d17decd-086d-471c-a8d3-f6dae3232da3",
        "type": "message",
        "text": "Hi Jenny! So nice to see you over here!",
        "user": "UV3URUKK5",
        "ts": "1584360495.027700",
        "team": "TUU48M0T1",
        "user_team": "TUU48M0T1",
        "source_team": "TUU48M0T1",
        "user_profile": {
            "avatar_hash": "64c99c2ed974",
            "image_72": "https:\/\/avatars.slack-edge.com\/2020-03-15\/1000999702004_64c99c2ed97497e08ca9_72.jpg",
            "first_name": "",
            "real_name": "Francisco Javier Quero",
            "display_name": "Francisco Javier Quero",
            "team": "TUU48M0T1",
            "name": "franxi2953",
            "is_restricted": false,
            "is_ultra_restricted": false
        },
        "edited": {
            "user": "UV3URUKK5",
            "ts": "1584360501.000000"
        },
        "blocks": [
            {
                "type": "rich_text",
                "block_id": "MnSv6",
                "elements": [
                    {
                        "type": "rich_text_section",
                        "elements": [
                            {
                                "type": "text",
                                "text": "Hi Jenny! So nice to see you over here!"
                            }
                        ]
                    }
                ]
            }
        ],
        "thread_ts": "1584329106.023800",
        "parent_user_id": "UV1V637PU"
    },
    {
        "client_msg_id": "4534df7b-234a-48fd-9a94-b83e7ed46483",
        "type": "message",
        "text": "Zach, if you are the owner of the Google doc draft guidelines, can you please give us all access? Thanks!",
        "user": "UUPQGNNTV",
        "ts": "1584387530.029000",
        "team": "TUU48M0T1",
        "user_team": "TUU48M0T1",
        "source_team": "TUU48M0T1",
        "user_profile": {
            "avatar_hash": "c28127caf7eb",
            "image_72": "https:\/\/avatars.slack-edge.com\/2020-03-07\/989562470694_c28127caf7ebfe67df97_72.jpg",
            "first_name": "",
            "real_name": "Ellen Jorgensen",
            "display_name": "",
            "team": "TUU48M0T1",
            "name": "ejorgensen",
            "is_restricted": false,
            "is_ultra_restricted": false
        },
        "blocks": [
            {
                "type": "rich_text",
                "block_id": "T48LZ",
                "elements": [
                    {
                        "type": "rich_text_section",
                        "elements": [
                            {
                                "type": "text",
                                "text": "Zach, if you are the owner of the Google doc draft guidelines, can you please give us all access? Thanks!"
                            }
                        ]
                    }
                ]
            }
        ],
        "thread_ts": "1584387530.029000",
        "reply_count": 6,
        "reply_users_count": 2,
        "latest_reply": "1584391862.034800",
        "reply_users": [
            "UV0QTJCMT",
            "UUPQGNNTV"
        ],
        "replies": [
            {
                "user": "UV0QTJCMT",
                "ts": "1584388080.030700"
            },
            {
                "user": "UV0QTJCMT",
                "ts": "1584388147.032100"
            },
            {
                "user": "UUPQGNNTV",
                "ts": "1584388193.032300"
            },
            {
                "user": "UV0QTJCMT",
                "ts": "1584391690.033300"
            },
            {
                "user": "UUPQGNNTV",
                "ts": "1584391799.033500"
            },
            {
                "user": "UV0QTJCMT",
                "ts": "1584391862.034800"
            }
        ],
        "subscribed": false
    },
    {
        "client_msg_id": "f761b4b3-83fa-49b3-a5cd-6ccc5c3c0db5",
        "type": "message",
        "text": "Patrik, if you are working on those guidelines for community labs under the Open Philanthropy grant, can we steal them :grin:",
        "user": "UUPQGNNTV",
        "ts": "1584387601.029900",
        "team": "TUU48M0T1",
        "user_team": "TUU48M0T1",
        "source_team": "TUU48M0T1",
        "user_profile": {
            "avatar_hash": "c28127caf7eb",
            "image_72": "https:\/\/avatars.slack-edge.com\/2020-03-07\/989562470694_c28127caf7ebfe67df97_72.jpg",
            "first_name": "",
            "real_name": "Ellen Jorgensen",
            "display_name": "",
            "team": "TUU48M0T1",
            "name": "ejorgensen",
            "is_restricted": false,
            "is_ultra_restricted": false
        },
        "blocks": [
            {
                "type": "rich_text",
                "block_id": "9xkZ\/",
                "elements": [
                    {
                        "type": "rich_text_section",
                        "elements": [
                            {
                                "type": "text",
                                "text": "Patrik, if you are working on those guidelines for community labs under the Open Philanthropy grant, can we steal them "
                            },
                            {
                                "type": "emoji",
                                "name": "grin"
                            }
                        ]
                    }
                ]
            }
        ],
        "thread_ts": "1584387601.029900",
        "reply_count": 1,
        "reply_users_count": 1,
        "latest_reply": "1584391865.035100",
        "reply_users": [
            "UV02WET96"
        ],
        "replies": [
            {
                "user": "UV02WET96",
                "ts": "1584391865.035100"
            }
        ],
        "subscribed": false
    },
    {
        "client_msg_id": "359E2F47-EC67-4868-BF72-427426966D37",
        "type": "message",
        "text": "i think <@UV5CCJ9RC>  made the guidelines? i’ll check to see if it’s in the overall program folder ",
        "user": "UV0QTJCMT",
        "ts": "1584388080.030700",
        "team": "TUU48M0T1",
        "user_team": "TUU48M0T1",
        "source_team": "TUU48M0T1",
        "user_profile": {
            "avatar_hash": "06a6ae8f69d1",
            "image_72": "https:\/\/avatars.slack-edge.com\/2020-04-13\/1060635499315_06a6ae8f69d18f1ad464_72.png",
            "first_name": "Katherine",
            "real_name": "Katherine Holo",
            "display_name": "Kat Holo - Co-Organizer of OpenCOVID19",
            "team": "TUU48M0T1",
            "name": "katherineh245",
            "is_restricted": false,
            "is_ultra_restricted": false
        },
        "blocks": [
            {
                "type": "rich_text",
                "block_id": "e6Rkh",
                "elements": [
                    {
                        "type": "rich_text_section",
                        "elements": [
                            {
                                "type": "text",
                                "text": "i think "
                            },
                            {
                                "type": "user",
                                "user_id": "UV5CCJ9RC"
                            },
                            {
                                "type": "text",
                                "text": "  made the guidelines? i’ll check to see if it’s in the overall program folder "
                            }
                        ]
                    }
                ]
            }
        ],
        "thread_ts": "1584387530.029000",
        "parent_user_id": "UUPQGNNTV"
    },
    {
        "client_msg_id": "B17DA230-6EF0-47D8-8E73-B37102419A25",
        "type": "message",
        "text": "ok yea it looks like it’s in the operations folder, <@UUPQGNNTV> have you been able to edit any of the other files for the initiative? i believe we’ve added you to the google groups but perhaps it’s not working ",
        "user": "UV0QTJCMT",
        "ts": "1584388147.032100",
        "team": "TUU48M0T1",
        "user_team": "TUU48M0T1",
        "source_team": "TUU48M0T1",
        "user_profile": {
            "avatar_hash": "06a6ae8f69d1",
            "image_72": "https:\/\/avatars.slack-edge.com\/2020-04-13\/1060635499315_06a6ae8f69d18f1ad464_72.png",
            "first_name": "Katherine",
            "real_name": "Katherine Holo",
            "display_name": "Kat Holo - Co-Organizer of OpenCOVID19",
            "team": "TUU48M0T1",
            "name": "katherineh245",
            "is_restricted": false,
            "is_ultra_restricted": false
        },
        "blocks": [
            {
                "type": "rich_text",
                "block_id": "hq2",
                "elements": [
                    {
                        "type": "rich_text_section",
                        "elements": [
                            {
                                "type": "text",
                                "text": "ok yea it looks like it’s in the operations folder, "
                            },
                            {
                                "type": "user",
                                "user_id": "UUPQGNNTV"
                            },
                            {
                                "type": "text",
                                "text": " have you been able to edit any of the other files for the initiative? i believe we’ve added you to the google groups but perhaps it’s not working "
                            }
                        ]
                    }
                ]
            }
        ],
        "thread_ts": "1584387530.029000",
        "parent_user_id": "UUPQGNNTV"
    },
    {
        "client_msg_id": "2c7a5969-2e73-4a73-a184-de7e4342c98b",
        "type": "message",
        "text": "I tried to edit the biosafety guidelines, and I can't.",
        "user": "UUPQGNNTV",
        "ts": "1584388193.032300",
        "team": "TUU48M0T1",
        "user_team": "TUU48M0T1",
        "source_team": "TUU48M0T1",
        "user_profile": {
            "avatar_hash": "c28127caf7eb",
            "image_72": "https:\/\/avatars.slack-edge.com\/2020-03-07\/989562470694_c28127caf7ebfe67df97_72.jpg",
            "first_name": "",
            "real_name": "Ellen Jorgensen",
            "display_name": "",
            "team": "TUU48M0T1",
            "name": "ejorgensen",
            "is_restricted": false,
            "is_ultra_restricted": false
        },
        "blocks": [
            {
                "type": "rich_text",
                "block_id": "Jnyoa",
                "elements": [
                    {
                        "type": "rich_text_section",
                        "elements": [
                            {
                                "type": "text",
                                "text": "I tried to edit the biosafety guidelines, and I can't."
                            }
                        ]
                    }
                ]
            }
        ],
        "thread_ts": "1584387530.029000",
        "parent_user_id": "UUPQGNNTV"
    },
    {
        "client_msg_id": "11E22F35-822A-4710-8986-84E7A347A692",
        "type": "message",
        "text": "<@UUPQGNNTV> sorry was away from my computer for a bit could you try it again? i just made it editable by anyone w the link ",
        "user": "UV0QTJCMT",
        "ts": "1584391690.033300",
        "team": "TUU48M0T1",
        "user_team": "TUU48M0T1",
        "source_team": "TUU48M0T1",
        "user_profile": {
            "avatar_hash": "06a6ae8f69d1",
            "image_72": "https:\/\/avatars.slack-edge.com\/2020-04-13\/1060635499315_06a6ae8f69d18f1ad464_72.png",
            "first_name": "Katherine",
            "real_name": "Katherine Holo",
            "display_name": "Kat Holo - Co-Organizer of OpenCOVID19",
            "team": "TUU48M0T1",
            "name": "katherineh245",
            "is_restricted": false,
            "is_ultra_restricted": false
        },
        "blocks": [
            {
                "type": "rich_text",
                "block_id": "9ICJ",
                "elements": [
                    {
                        "type": "rich_text_section",
                        "elements": [
                            {
                                "type": "user",
                                "user_id": "UUPQGNNTV"
                            },
                            {
                                "type": "text",
                                "text": " sorry was away from my computer for a bit could you try it again? i just made it editable by anyone w the link "
                            }
                        ]
                    }
                ]
            }
        ],
        "thread_ts": "1584387530.029000",
        "parent_user_id": "UUPQGNNTV"
    },
    {
        "client_msg_id": "b89641bf-de8a-47b2-b523-212b117cc174",
        "type": "message",
        "text": "When I click on the link posted by Chris above, it still takes me to a doc I cannot edit",
        "user": "UUPQGNNTV",
        "ts": "1584391799.033500",
        "team": "TUU48M0T1",
        "user_team": "TUU48M0T1",
        "source_team": "TUU48M0T1",
        "user_profile": {
            "avatar_hash": "c28127caf7eb",
            "image_72": "https:\/\/avatars.slack-edge.com\/2020-03-07\/989562470694_c28127caf7ebfe67df97_72.jpg",
            "first_name": "",
            "real_name": "Ellen Jorgensen",
            "display_name": "",
            "team": "TUU48M0T1",
            "name": "ejorgensen",
            "is_restricted": false,
            "is_ultra_restricted": false
        },
        "blocks": [
            {
                "type": "rich_text",
                "block_id": "D4q5",
                "elements": [
                    {
                        "type": "rich_text_section",
                        "elements": [
                            {
                                "type": "text",
                                "text": "When I click on the link posted by Chris above, it still takes me to a doc I cannot edit"
                            }
                        ]
                    }
                ]
            }
        ],
        "thread_ts": "1584387530.029000",
        "parent_user_id": "UUPQGNNTV"
    },
    {
        "client_msg_id": "7A5DC778-49CC-4F7E-B368-8A57912A45B2",
        "type": "message",
        "text": "hmmm that’s really strange could u let me know what email to share it with and see if that works? ",
        "user": "UV0QTJCMT",
        "ts": "1584391862.034800",
        "team": "TUU48M0T1",
        "user_team": "TUU48M0T1",
        "source_team": "TUU48M0T1",
        "user_profile": {
            "avatar_hash": "06a6ae8f69d1",
            "image_72": "https:\/\/avatars.slack-edge.com\/2020-04-13\/1060635499315_06a6ae8f69d18f1ad464_72.png",
            "first_name": "Katherine",
            "real_name": "Katherine Holo",
            "display_name": "Kat Holo - Co-Organizer of OpenCOVID19",
            "team": "TUU48M0T1",
            "name": "katherineh245",
            "is_restricted": false,
            "is_ultra_restricted": false
        },
        "blocks": [
            {
                "type": "rich_text",
                "block_id": "rJM",
                "elements": [
                    {
                        "type": "rich_text_section",
                        "elements": [
                            {
                                "type": "text",
                                "text": "hmmm that’s really strange could u let me know what email to share it with and see if that works? "
                            }
                        ]
                    }
                ]
            }
        ],
        "thread_ts": "1584387530.029000",
        "parent_user_id": "UUPQGNNTV"
    },
    {
        "client_msg_id": "341E0BE4-21D3-428A-9F2E-B14AF68B4F04",
        "type": "message",
        "text": "<@U0102NEMRTR> :point_up_2: ;)",
        "user": "UV02WET96",
        "ts": "1584391865.035100",
        "team": "TUU48M0T1",
        "user_team": "TUU48M0T1",
        "source_team": "TUU48M0T1",
        "user_profile": {
            "avatar_hash": "a99c74a194f8",
            "image_72": "https:\/\/avatars.slack-edge.com\/2020-03-07\/975708504851_a99c74a194f86715ca7d_72.png",
            "first_name": "Thomas",
            "real_name": "Thomas Landrain",
            "display_name": "Thomas Landrain - JOGL CoFounder \/ CEO",
            "team": "TUU48M0T1",
            "name": "thomas",
            "is_restricted": false,
            "is_ultra_restricted": false
        },
        "blocks": [
            {
                "type": "rich_text",
                "block_id": "u3mUe",
                "elements": [
                    {
                        "type": "rich_text_section",
                        "elements": [
                            {
                                "type": "user",
                                "user_id": "U0102NEMRTR"
                            },
                            {
                                "type": "text",
                                "text": " "
                            },
                            {
                                "type": "emoji",
                                "name": "point_up_2"
                            },
                            {
                                "type": "text",
                                "text": " ;)"
                            }
                        ]
                    }
                ]
            }
        ],
        "thread_ts": "1584387601.029900",
        "parent_user_id": "UUPQGNNTV"
    },
    {
        "type": "message",
        "text": "Hey <!channel> could someone take care of making a nice presentation of the member of the board like here? I’ll incorporate it in the presentation of the program",
        "files": [
            {
                "id": "F01047TKL5T",
                "created": 1584396637,
                "timestamp": 1584396637,
                "name": "Screenshot 2020-03-16 at 23.09.57.png",
                "title": "Screenshot 2020-03-16 at 23.09.57.png",
                "mimetype": "image\/png",
                "filetype": "png",
                "pretty_type": "PNG",
                "user": "UV02WET96",
                "editable": false,
                "size": 1432410,
                "mode": "hosted",
                "is_external": false,
                "external_type": "",
                "is_public": true,
                "public_url_shared": false,
                "display_as_bot": false,
                "username": "",
                "url_private": "https:\/\/files.slack.com\/files-pri\/TUU48M0T1-F01047TKL5T\/screenshot_2020-03-16_at_23.09.57.png?t=xoxe-980144714919-1106606678066-1105227127893-6f722bb664235052954ad46852628b64",
                "url_private_download": "https:\/\/files.slack.com\/files-pri\/TUU48M0T1-F01047TKL5T\/download\/screenshot_2020-03-16_at_23.09.57.png?t=xoxe-980144714919-1106606678066-1105227127893-6f722bb664235052954ad46852628b64",
                "thumb_64": "https:\/\/files.slack.com\/files-tmb\/TUU48M0T1-F01047TKL5T-03f014534b\/screenshot_2020-03-16_at_23.09.57_64.png?t=xoxe-980144714919-1106606678066-1105227127893-6f722bb664235052954ad46852628b64",
                "thumb_80": "https:\/\/files.slack.com\/files-tmb\/TUU48M0T1-F01047TKL5T-03f014534b\/screenshot_2020-03-16_at_23.09.57_80.png?t=xoxe-980144714919-1106606678066-1105227127893-6f722bb664235052954ad46852628b64",
                "thumb_360": "https:\/\/files.slack.com\/files-tmb\/TUU48M0T1-F01047TKL5T-03f014534b\/screenshot_2020-03-16_at_23.09.57_360.png?t=xoxe-980144714919-1106606678066-1105227127893-6f722bb664235052954ad46852628b64",
                "thumb_360_w": 360,
                "thumb_360_h": 172,
                "thumb_480": "https:\/\/files.slack.com\/files-tmb\/TUU48M0T1-F01047TKL5T-03f014534b\/screenshot_2020-03-16_at_23.09.57_480.png?t=xoxe-980144714919-1106606678066-1105227127893-6f722bb664235052954ad46852628b64",
                "thumb_480_w": 480,
                "thumb_480_h": 229,
                "thumb_160": "https:\/\/files.slack.com\/files-tmb\/TUU48M0T1-F01047TKL5T-03f014534b\/screenshot_2020-03-16_at_23.09.57_160.png?t=xoxe-980144714919-1106606678066-1105227127893-6f722bb664235052954ad46852628b64",
                "thumb_720": "https:\/\/files.slack.com\/files-tmb\/TUU48M0T1-F01047TKL5T-03f014534b\/screenshot_2020-03-16_at_23.09.57_720.png?t=xoxe-980144714919-1106606678066-1105227127893-6f722bb664235052954ad46852628b64",
                "thumb_720_w": 720,
                "thumb_720_h": 343,
                "thumb_800": "https:\/\/files.slack.com\/files-tmb\/TUU48M0T1-F01047TKL5T-03f014534b\/screenshot_2020-03-16_at_23.09.57_800.png?t=xoxe-980144714919-1106606678066-1105227127893-6f722bb664235052954ad46852628b64",
                "thumb_800_w": 800,
                "thumb_800_h": 381,
                "thumb_960": "https:\/\/files.slack.com\/files-tmb\/TUU48M0T1-F01047TKL5T-03f014534b\/screenshot_2020-03-16_at_23.09.57_960.png?t=xoxe-980144714919-1106606678066-1105227127893-6f722bb664235052954ad46852628b64",
                "thumb_960_w": 960,
                "thumb_960_h": 457,
                "thumb_1024": "https:\/\/files.slack.com\/files-tmb\/TUU48M0T1-F01047TKL5T-03f014534b\/screenshot_2020-03-16_at_23.09.57_1024.png?t=xoxe-980144714919-1106606678066-1105227127893-6f722bb664235052954ad46852628b64",
                "thumb_1024_w": 1024,
                "thumb_1024_h": 488,
                "image_exif_rotation": 1,
                "original_w": 1864,
                "original_h": 888,
                "thumb_tiny": "AwAWADCWbcJyTnb0HJqaFj9nznnPWkmnCuwK529aljIkj6DFIZBDL86qz8k8AmmNFI80mdwBJwd1WIWVpGHl4K96bM7KzYUcDvnmmBBMxSzDOxBDnv8AWmWb7pUIZj2O496tyt+4VggPfBqKGRzMB5KgZ+8M+lKwEklqHZzuPzjn2qRItkWwMfrUlFMRDFB5TswY\/N1p0ke+pKKAGsm5cUyGERjHXHOalooA\/9k=",
                "permalink": "https:\/\/open-covid19.slack.com\/files\/UV02WET96\/F01047TKL5T\/screenshot_2020-03-16_at_23.09.57.png",
                "permalink_public": "https:\/\/slack-files.com\/TUU48M0T1-F01047TKL5T-71cb6a9dcb",
                "is_starred": false,
                "has_rich_preview": false
            }
        ],
        "upload": true,
        "blocks": [
            {
                "type": "rich_text",
                "block_id": "Zyi",
                "elements": [
                    {
                        "type": "rich_text_section",
                        "elements": [
                            {
                                "type": "text",
                                "text": "Hey "
                            },
                            {
                                "type": "broadcast",
                                "range": "channel"
                            },
                            {
                                "type": "text",
                                "text": " could someone take care of making a nice presentation of the member of the board like here? I’ll incorporate it in the presentation of the program"
                            }
                        ]
                    }
                ]
            }
        ],
        "user": "UV02WET96",
        "display_as_bot": false,
        "ts": "1584396647.036400",
        "client_msg_id": "5b84fc16-5c4b-404a-8a71-08c486ae072a",
        "thread_ts": "1584396647.036400",
        "reply_count": 5,
        "reply_users_count": 3,
        "latest_reply": "1584480819.072500",
        "reply_users": [
            "U0101DKUALV",
            "UUPQGNNTV",
            "UV02WET96"
        ],
        "replies": [
            {
                "user": "U0101DKUALV",
                "ts": "1584396716.036700"
            },
            {
                "user": "UUPQGNNTV",
                "ts": "1584396795.036900"
            },
            {
                "user": "UUPQGNNTV",
                "ts": "1584396888.037100"
            },
            {
                "user": "UV02WET96",
                "ts": "1584401465.039000"
            },
            {
                "user": "UUPQGNNTV",
                "ts": "1584480819.072500"
            }
        ],
        "subscribed": false
    },
    {
        "client_msg_id": "e7e99ffa-564c-49f6-b85b-8d09dd95d65c",
        "type": "message",
        "text": "Hi Thomas! Is the a style guide or a place to find the list of board members and their pictures? Thanks!",
        "user": "U0101DKUALV",
        "ts": "1584396716.036700",
        "team": "TUU48M0T1",
        "user_team": "TUU48M0T1",
        "source_team": "TUU48M0T1",
        "user_profile": {
            "avatar_hash": "b0aee06ed3e5",
            "image_72": "https:\/\/avatars.slack-edge.com\/2020-04-22\/1072886325190_b0aee06ed3e501ebdf56_72.png",
            "first_name": "",
            "real_name": "Pauline Chane",
            "display_name": "Pauline Chane",
            "team": "TUU48M0T1",
            "name": "pauline.chane",
            "is_restricted": false,
            "is_ultra_restricted": false
        },
        "blocks": [
            {
                "type": "rich_text",
                "block_id": "gsF",
                "elements": [
                    {
                        "type": "rich_text_section",
                        "elements": [
                            {
                                "type": "text",
                                "text": "Hi Thomas! Is the a style guide or a place to find the list of board members and their pictures? Thanks!"
                            }
                        ]
                    }
                ]
            }
        ],
        "thread_ts": "1584396647.036400",
        "parent_user_id": "UV02WET96"
    },
    {
        "client_msg_id": "d2e8c86b-8fdf-49da-ad61-8116c7226c57",
        "type": "message",
        "text": "Yeah, and is the board anyone who wants to join? And dies everyone who is taking on this thread want the responsibility of being on the board?",
        "user": "UUPQGNNTV",
        "ts": "1584396795.036900",
        "team": "TUU48M0T1",
        "user_team": "TUU48M0T1",
        "source_team": "TUU48M0T1",
        "user_profile": {
            "avatar_hash": "c28127caf7eb",
            "image_72": "https:\/\/avatars.slack-edge.com\/2020-03-07\/989562470694_c28127caf7ebfe67df97_72.jpg",
            "first_name": "",
            "real_name": "Ellen Jorgensen",
            "display_name": "",
            "team": "TUU48M0T1",
            "name": "ejorgensen",
            "is_restricted": false,
            "is_ultra_restricted": false
        },
        "blocks": [
            {
                "type": "rich_text",
                "block_id": "m3EN",
                "elements": [
                    {
                        "type": "rich_text_section",
                        "elements": [
                            {
                                "type": "text",
                                "text": "Yeah, and is the board anyone who wants to join? And dies everyone who is taking on this thread want the responsibility of being on the board?"
                            }
                        ]
                    }
                ]
            }
        ],
        "thread_ts": "1584396647.036400",
        "parent_user_id": "UV02WET96"
    },
    {
        "client_msg_id": "4f404b66-f503-4a6c-a185-23ee36e1f0b5",
        "type": "message",
        "text": "Do we have a Google folder for biosafety, and can everyone then upload their headshot and brief bio?",
        "user": "UUPQGNNTV",
        "ts": "1584396888.037100",
        "team": "TUU48M0T1",
        "user_team": "TUU48M0T1",
        "source_team": "TUU48M0T1",
        "user_profile": {
            "avatar_hash": "c28127caf7eb",
            "image_72": "https:\/\/avatars.slack-edge.com\/2020-03-07\/989562470694_c28127caf7ebfe67df97_72.jpg",
            "first_name": "",
            "real_name": "Ellen Jorgensen",
            "display_name": "",
            "team": "TUU48M0T1",
            "name": "ejorgensen",
            "is_restricted": false,
            "is_ultra_restricted": false
        },
        "blocks": [
            {
                "type": "rich_text",
                "block_id": "kWZ",
                "elements": [
                    {
                        "type": "rich_text_section",
                        "elements": [
                            {
                                "type": "text",
                                "text": "Do we have a Google folder for biosafety, and can everyone then upload their headshot and brief bio?"
                            }
                        ]
                    }
                ]
            }
        ],
        "thread_ts": "1584396647.036400",
        "parent_user_id": "UV02WET96"
    },
    {
        "client_msg_id": "32b03fe7-8273-43fe-b149-bbdc4b28398c",
        "type": "message",
        "text": "<!channel> created a quick form for current\/future biosafety board members to submit bio &amp; headshot (<https:\/\/docs.google.com\/forms\/d\/1axZlDbtUe8fpiLiz5hMvGX2TD_4jcf-2bgN-kw0Zi_o\/edit>) -- feel free to edit it!",
        "user": "UV0QTJCMT",
        "ts": "1584400900.038200",
        "team": "TUU48M0T1",
        "user_team": "TUU48M0T1",
        "source_team": "TUU48M0T1",
        "user_profile": {
            "avatar_hash": "06a6ae8f69d1",
            "image_72": "https:\/\/avatars.slack-edge.com\/2020-04-13\/1060635499315_06a6ae8f69d18f1ad464_72.png",
            "first_name": "Katherine",
            "real_name": "Katherine Holo",
            "display_name": "Kat Holo - Co-Organizer of OpenCOVID19",
            "team": "TUU48M0T1",
            "name": "katherineh245",
            "is_restricted": false,
            "is_ultra_restricted": false
        },
        "blocks": [
            {
                "type": "rich_text",
                "block_id": "BPG",
                "elements": [
                    {
                        "type": "rich_text_section",
                        "elements": [
                            {
                                "type": "broadcast",
                                "range": "channel"
                            },
                            {
                                "type": "text",
                                "text": " created a quick form for current\/future biosafety board members to submit bio & headshot ("
                            },
                            {
                                "type": "link",
                                "url": "https:\/\/docs.google.com\/forms\/d\/1axZlDbtUe8fpiLiz5hMvGX2TD_4jcf-2bgN-kw0Zi_o\/edit"
                            },
                            {
                                "type": "text",
                                "text": ") -- feel free to edit it!"
                            }
                        ]
                    }
                ]
            }
        ],
        "thread_ts": "1584400900.038200",
        "reply_count": 5,
        "reply_users_count": 4,
        "latest_reply": "1584472936.049300",
        "reply_users": [
            "UV02WET96",
            "UV5CCJ9RC",
            "UV1A22N3W",
            "UV0QTJCMT"
        ],
        "replies": [
            {
                "user": "UV02WET96",
                "ts": "1584446506.039600"
            },
            {
                "user": "UV5CCJ9RC",
                "ts": "1584454348.039900"
            },
            {
                "user": "UV02WET96",
                "ts": "1584454630.040100"
            },
            {
                "user": "UV1A22N3W",
                "ts": "1584458954.040300"
            },
            {
                "user": "UV0QTJCMT",
                "ts": "1584472936.049300"
            }
        ],
        "subscribed": false,
        "reactions": [
            {
                "name": "raised_hands",
                "users": [
                    "UV02WET96",
                    "UV10KBUQG"
                ],
                "count": 2
            }
        ]
    },
    {
        "client_msg_id": "DE907158-602E-4E74-A9EE-70623E2FADFC",
        "type": "message",
        "text": "If not we should :)\nDo you have access to the drive?",
        "user": "UV02WET96",
        "ts": "1584401465.039000",
        "team": "TUU48M0T1",
        "user_team": "TUU48M0T1",
        "source_team": "TUU48M0T1",
        "user_profile": {
            "avatar_hash": "a99c74a194f8",
            "image_72": "https:\/\/avatars.slack-edge.com\/2020-03-07\/975708504851_a99c74a194f86715ca7d_72.png",
            "first_name": "Thomas",
            "real_name": "Thomas Landrain",
            "display_name": "Thomas Landrain - JOGL CoFounder \/ CEO",
            "team": "TUU48M0T1",
            "name": "thomas",
            "is_restricted": false,
            "is_ultra_restricted": false
        },
        "blocks": [
            {
                "type": "rich_text",
                "block_id": "KZ+",
                "elements": [
                    {
                        "type": "rich_text_section",
                        "elements": [
                            {
                                "type": "text",
                                "text": "If not we should :)\nDo you have access to the drive?"
                            }
                        ]
                    }
                ]
            }
        ],
        "thread_ts": "1584396647.036400",
        "parent_user_id": "UV02WET96"
    }
]