[
    {
        "type": "message",
        "subtype": "channel_name",
        "ts": "1585499034.006800",
        "user": "UV02WET96",
        "text": "<@UV02WET96> has renamed the channel from \"prgm-mammoth-multiplier\" to \"proj-mammoth-multiplier\"",
        "old_name": "prgm-mammoth-multiplier",
        "name": "proj-mammoth-multiplier"
    }
]