[
    {
        "client_msg_id": "7AAACF3B-6854-4688-88CC-B22522365474",
        "type": "message",
        "text": "<@UV10KBUQG>  can you please put more info about the gRNA you want - length &amp; sequence? ",
        "user": "UV1A22N3W",
        "ts": "1585036360.055800",
        "team": "TUU48M0T1",
        "user_team": "TUU48M0T1",
        "source_team": "TUU48M0T1",
        "user_profile": {
            "avatar_hash": "71f827776ad6",
            "image_72": "https:\/\/avatars.slack-edge.com\/2020-03-09\/988125642964_71f827776ad610af05a2_72.jpg",
            "first_name": "",
            "real_name": "RachelA",
            "display_name": "RachelA",
            "team": "TUU48M0T1",
            "name": "raronoff",
            "is_restricted": false,
            "is_ultra_restricted": false
        },
        "blocks": [
            {
                "type": "rich_text",
                "block_id": "Lnw",
                "elements": [
                    {
                        "type": "rich_text_section",
                        "elements": [
                            {
                                "type": "user",
                                "user_id": "UV10KBUQG"
                            },
                            {
                                "type": "text",
                                "text": "  can you please put more info about the gRNA you want - length & sequence? "
                            }
                        ]
                    }
                ]
            }
        ],
        "thread_ts": "1585036360.055800",
        "reply_count": 5,
        "reply_users_count": 2,
        "latest_reply": "1585062098.066000",
        "reply_users": [
            "UV10KBUQG",
            "UV1A22N3W"
        ],
        "replies": [
            {
                "user": "UV10KBUQG",
                "ts": "1585060938.064000"
            },
            {
                "user": "UV1A22N3W",
                "ts": "1585061554.064800"
            },
            {
                "user": "UV10KBUQG",
                "ts": "1585061593.065200"
            },
            {
                "user": "UV1A22N3W",
                "ts": "1585061648.065400"
            },
            {
                "user": "UV10KBUQG",
                "ts": "1585062098.066000"
            }
        ],
        "subscribed": false
    },
    {
        "client_msg_id": "E2FF64A2-4A62-4F62-96ED-B15DDC1A4723",
        "type": "message",
        "text": "also, did you see the messages about risks of simply opening the lamp reaction tubes for the strategy of crispr detection ?  (esp by me &amp; GuyA)  One must keep all reagents strictly separate from post rxn detection manips!! (and be prepared to use lots of bleach &amp; have separate lab coats for each area too)  :crossed_fingers: ",
        "user": "UV1A22N3W",
        "ts": "1585036890.061500",
        "team": "TUU48M0T1",
        "user_team": "TUU48M0T1",
        "source_team": "TUU48M0T1",
        "user_profile": {
            "avatar_hash": "71f827776ad6",
            "image_72": "https:\/\/avatars.slack-edge.com\/2020-03-09\/988125642964_71f827776ad610af05a2_72.jpg",
            "first_name": "",
            "real_name": "RachelA",
            "display_name": "RachelA",
            "team": "TUU48M0T1",
            "name": "raronoff",
            "is_restricted": false,
            "is_ultra_restricted": false
        },
        "edited": {
            "user": "UV1A22N3W",
            "ts": "1585036921.000000"
        },
        "blocks": [
            {
                "type": "rich_text",
                "block_id": "lmYG",
                "elements": [
                    {
                        "type": "rich_text_section",
                        "elements": [
                            {
                                "type": "text",
                                "text": "also, did you see the messages about risks of simply opening the lamp reaction tubes for the strategy of crispr detection ?  (esp by me & GuyA)  One must keep all reagents strictly separate from post rxn detection manips!! (and be prepared to use lots of bleach & have separate lab coats for each area too)  "
                            },
                            {
                                "type": "emoji",
                                "name": "crossed_fingers"
                            },
                            {
                                "type": "text",
                                "text": " "
                            }
                        ]
                    }
                ]
            }
        ],
        "thread_ts": "1585036890.061500",
        "reply_count": 12,
        "reply_users_count": 4,
        "latest_reply": "1585065247.067900",
        "reply_users": [
            "UV10KBUQG",
            "UV1A22N3W",
            "UV7LUJG1Y",
            "UV3URUKK5"
        ],
        "replies": [
            {
                "user": "UV10KBUQG",
                "ts": "1585060607.063500"
            },
            {
                "user": "UV1A22N3W",
                "ts": "1585061381.064200"
            },
            {
                "user": "UV1A22N3W",
                "ts": "1585061413.064400"
            },
            {
                "user": "UV7LUJG1Y",
                "ts": "1585061443.064600"
            },
            {
                "user": "UV10KBUQG",
                "ts": "1585061772.065600"
            },
            {
                "user": "UV1A22N3W",
                "ts": "1585062085.065800"
            },
            {
                "user": "UV1A22N3W",
                "ts": "1585062291.066200"
            },
            {
                "user": "UV3URUKK5",
                "ts": "1585062414.066400"
            },
            {
                "user": "UV1A22N3W",
                "ts": "1585062894.067200"
            },
            {
                "user": "UV1A22N3W",
                "ts": "1585062902.067500"
            },
            {
                "user": "UV10KBUQG",
                "ts": "1585063038.067700"
            },
            {
                "user": "UV1A22N3W",
                "ts": "1585065247.067900"
            }
        ],
        "subscribed": false,
        "reactions": [
            {
                "name": "100",
                "users": [
                    "UV3URUKK5"
                ],
                "count": 1
            }
        ]
    },
    {
        "client_msg_id": "0b8493c3-8be2-4376-b11b-200474ab2976",
        "type": "message",
        "text": "Guys, people from the Thessaly iGEM team are up to make a video call with us for giving us feedback about toehold switches design",
        "user": "UV3URUKK5",
        "ts": "1585047949.062900",
        "team": "TUU48M0T1",
        "user_team": "TUU48M0T1",
        "source_team": "TUU48M0T1",
        "user_profile": {
            "avatar_hash": "64c99c2ed974",
            "image_72": "https:\/\/avatars.slack-edge.com\/2020-03-15\/1000999702004_64c99c2ed97497e08ca9_72.jpg",
            "first_name": "",
            "real_name": "Francisco Javier Quero",
            "display_name": "Francisco Javier Quero",
            "team": "TUU48M0T1",
            "name": "franxi2953",
            "is_restricted": false,
            "is_ultra_restricted": false
        },
        "blocks": [
            {
                "type": "rich_text",
                "block_id": "YUP",
                "elements": [
                    {
                        "type": "rich_text_section",
                        "elements": [
                            {
                                "type": "text",
                                "text": "Guys, people from the Thessaly iGEM team are up to make a video call with us for giving us feedback about toehold switches design"
                            }
                        ]
                    }
                ]
            }
        ],
        "reactions": [
            {
                "name": "pray",
                "users": [
                    "UV0RRGB6H",
                    "UUPFF4TC3"
                ],
                "count": 2
            },
            {
                "name": "+1",
                "users": [
                    "UV1A22N3W",
                    "UUPFF4TC3"
                ],
                "count": 2
            }
        ]
    },
    {
        "client_msg_id": "ce884cbe-9b1d-43b7-8f40-49f9d6ebe6c9",
        "type": "message",
        "text": "saturday at 4pm CET",
        "user": "UV3URUKK5",
        "ts": "1585047958.063200",
        "team": "TUU48M0T1",
        "user_team": "TUU48M0T1",
        "source_team": "TUU48M0T1",
        "user_profile": {
            "avatar_hash": "64c99c2ed974",
            "image_72": "https:\/\/avatars.slack-edge.com\/2020-03-15\/1000999702004_64c99c2ed97497e08ca9_72.jpg",
            "first_name": "",
            "real_name": "Francisco Javier Quero",
            "display_name": "Francisco Javier Quero",
            "team": "TUU48M0T1",
            "name": "franxi2953",
            "is_restricted": false,
            "is_ultra_restricted": false
        },
        "blocks": [
            {
                "type": "rich_text",
                "block_id": "Cm+e",
                "elements": [
                    {
                        "type": "rich_text_section",
                        "elements": [
                            {
                                "type": "text",
                                "text": "saturday at 4pm CET"
                            }
                        ]
                    }
                ]
            }
        ]
    },
    {
        "client_msg_id": "57399c6a-c2cf-4d3f-8475-122c47803241",
        "type": "message",
        "text": "<@UV1A22N3W> My lab (and hopefully other community labs) will not work with any potentially \"live\" samples. We are only going to try to replicate the DETECTR protocol using synthetic positive controls. Is there a risk in opening LAMP reaction tubes when no live virus is brought into the lab?",
        "user": "UV10KBUQG",
        "ts": "1585060607.063500",
        "team": "TUU48M0T1",
        "user_team": "TUU48M0T1",
        "source_team": "TUU48M0T1",
        "user_profile": {
            "avatar_hash": "2deebbf6be3d",
            "image_72": "https:\/\/avatars.slack-edge.com\/2020-03-06\/976932190641_2deebbf6be3d17141d91_72.jpg",
            "first_name": "Sarah",
            "real_name": "Sarah Blossom Ware",
            "display_name": "Sarah Blossom Ware - BioBlaze Community Bio Lab",
            "team": "TUU48M0T1",
            "name": "ware.sarah",
            "is_restricted": false,
            "is_ultra_restricted": false
        },
        "edited": {
            "user": "UV10KBUQG",
            "ts": "1585060816.000000"
        },
        "blocks": [
            {
                "type": "rich_text",
                "block_id": "jaJ2",
                "elements": [
                    {
                        "type": "rich_text_section",
                        "elements": [
                            {
                                "type": "user",
                                "user_id": "UV1A22N3W"
                            },
                            {
                                "type": "text",
                                "text": " My lab (and hopefully other community labs) will not work with any potentially \"live\" samples. We are only going to try to replicate the DETECTR protocol using synthetic positive controls. Is there a risk in opening LAMP reaction tubes when no live virus is brought into the lab?"
                            }
                        ]
                    }
                ]
            }
        ],
        "thread_ts": "1585036890.061500",
        "parent_user_id": "UV1A22N3W"
    },
    {
        "client_msg_id": "db363998-556b-4401-a797-3851d7b8a6a4",
        "type": "message",
        "text": "<@UV1A22N3W> These are the gRNA sequences used in the DETECTR protocol: N gene gRNA (SARS-CoV-2 specific) UAAUUUCUACUAAGUGUAGAUCCCCCAGCGCUUCAGCGUUCE      gene gRNA (pan-coronavirus) UAAUUUCUACUAAGUGUAGAUGUGGUAUUCUUGCUAGUUAC     RNase P gRNA (Sample control) UAAUUUCUACUAAGUGUAGAUAAUUACUUGGGUGUGACCCU",
        "user": "UV10KBUQG",
        "ts": "1585060938.064000",
        "team": "TUU48M0T1",
        "user_team": "TUU48M0T1",
        "source_team": "TUU48M0T1",
        "user_profile": {
            "avatar_hash": "2deebbf6be3d",
            "image_72": "https:\/\/avatars.slack-edge.com\/2020-03-06\/976932190641_2deebbf6be3d17141d91_72.jpg",
            "first_name": "Sarah",
            "real_name": "Sarah Blossom Ware",
            "display_name": "Sarah Blossom Ware - BioBlaze Community Bio Lab",
            "team": "TUU48M0T1",
            "name": "ware.sarah",
            "is_restricted": false,
            "is_ultra_restricted": false
        },
        "blocks": [
            {
                "type": "rich_text",
                "block_id": "92mT",
                "elements": [
                    {
                        "type": "rich_text_section",
                        "elements": [
                            {
                                "type": "user",
                                "user_id": "UV1A22N3W"
                            },
                            {
                                "type": "text",
                                "text": " These are the gRNA sequences used in the DETECTR protocol: N gene gRNA (SARS-CoV-2 specific) UAAUUUCUACUAAGUGUAGAUCCCCCAGCGCUUCAGCGUUCE      gene gRNA (pan-coronavirus) UAAUUUCUACUAAGUGUAGAUGUGGUAUUCUUGCUAGUUAC     RNase P gRNA (Sample control) UAAUUUCUACUAAGUGUAGAUAAUUACUUGGGUGUGACCCU"
                            }
                        ]
                    }
                ]
            }
        ],
        "thread_ts": "1585036360.055800",
        "parent_user_id": "UV1A22N3W"
    },
    {
        "client_msg_id": "cbfa515e-33a7-460f-93a4-586de09fcd5d",
        "type": "message",
        "text": "the risk is of amplicon contamination that results in false positives, that is difficult to get rid of (lamp product isn't just ordinary - you get lots of hammerhead structures in concatamers...)",
        "user": "UV1A22N3W",
        "ts": "1585061381.064200",
        "team": "TUU48M0T1",
        "user_team": "TUU48M0T1",
        "source_team": "TUU48M0T1",
        "user_profile": {
            "avatar_hash": "71f827776ad6",
            "image_72": "https:\/\/avatars.slack-edge.com\/2020-03-09\/988125642964_71f827776ad610af05a2_72.jpg",
            "first_name": "",
            "real_name": "RachelA",
            "display_name": "RachelA",
            "team": "TUU48M0T1",
            "name": "raronoff",
            "is_restricted": false,
            "is_ultra_restricted": false
        },
        "blocks": [
            {
                "type": "rich_text",
                "block_id": "wPTn",
                "elements": [
                    {
                        "type": "rich_text_section",
                        "elements": [
                            {
                                "type": "text",
                                "text": "the risk is of amplicon contamination that results in false positives, that is difficult to get rid of (lamp product isn't just ordinary - you get lots of hammerhead structures in concatamers...)"
                            }
                        ]
                    }
                ]
            }
        ],
        "thread_ts": "1585036890.061500",
        "parent_user_id": "UV1A22N3W",
        "reactions": [
            {
                "name": "100",
                "users": [
                    "UV3URUKK5"
                ],
                "count": 1
            }
        ]
    },
    {
        "client_msg_id": "44bb4f13-c7dc-40b2-b20e-62e77a37616f",
        "type": "message",
        "text": "not a question of virus here, of good diagnostics...",
        "user": "UV1A22N3W",
        "ts": "1585061413.064400",
        "team": "TUU48M0T1",
        "user_team": "TUU48M0T1",
        "source_team": "TUU48M0T1",
        "user_profile": {
            "avatar_hash": "71f827776ad6",
            "image_72": "https:\/\/avatars.slack-edge.com\/2020-03-09\/988125642964_71f827776ad610af05a2_72.jpg",
            "first_name": "",
            "real_name": "RachelA",
            "display_name": "RachelA",
            "team": "TUU48M0T1",
            "name": "raronoff",
            "is_restricted": false,
            "is_ultra_restricted": false
        },
        "blocks": [
            {
                "type": "rich_text",
                "block_id": "tV95y",
                "elements": [
                    {
                        "type": "rich_text_section",
                        "elements": [
                            {
                                "type": "text",
                                "text": "not a question of virus here, of good diagnostics..."
                            }
                        ]
                    }
                ]
            }
        ],
        "thread_ts": "1585036890.061500",
        "parent_user_id": "UV1A22N3W"
    },
    {
        "client_msg_id": "95be3766-e5a1-4f05-b69d-b8ee3bef815a",
        "type": "message",
        "text": "and it makes more than 100 times as much DNA as a pcr does",
        "user": "UV7LUJG1Y",
        "ts": "1585061443.064600",
        "team": "TUU48M0T1",
        "user_team": "TUU48M0T1",
        "source_team": "TUU48M0T1",
        "user_profile": {
            "avatar_hash": "048307b17644",
            "image_72": "https:\/\/avatars.slack-edge.com\/2020-04-04\/1043242365313_048307b17644844abd87_72.jpg",
            "first_name": "",
            "real_name": "Guy Aidelberg",
            "display_name": "Guy Aidelberg",
            "team": "TUU48M0T1",
            "name": "guyaidelberg",
            "is_restricted": false,
            "is_ultra_restricted": false
        },
        "blocks": [
            {
                "type": "rich_text",
                "block_id": "\/QoI",
                "elements": [
                    {
                        "type": "rich_text_section",
                        "elements": [
                            {
                                "type": "text",
                                "text": "and it makes more than 100 times as much DNA as a pcr does"
                            }
                        ]
                    }
                ]
            }
        ],
        "thread_ts": "1585036890.061500",
        "parent_user_id": "UV1A22N3W",
        "reactions": [
            {
                "name": "100",
                "users": [
                    "UV3URUKK5"
                ],
                "count": 1
            }
        ]
    },
    {
        "client_msg_id": "d7d01c5c-1480-45a9-bd54-8323c3bc6b16",
        "type": "message",
        "text": "and these guide RNAs are expressed in bacteria with the Crispr components, or bought purified and added after?",
        "user": "UV1A22N3W",
        "ts": "1585061554.064800",
        "team": "TUU48M0T1",
        "user_team": "TUU48M0T1",
        "source_team": "TUU48M0T1",
        "user_profile": {
            "avatar_hash": "71f827776ad6",
            "image_72": "https:\/\/avatars.slack-edge.com\/2020-03-09\/988125642964_71f827776ad610af05a2_72.jpg",
            "first_name": "",
            "real_name": "RachelA",
            "display_name": "RachelA",
            "team": "TUU48M0T1",
            "name": "raronoff",
            "is_restricted": false,
            "is_ultra_restricted": false
        },
        "blocks": [
            {
                "type": "rich_text",
                "block_id": "\/3=I",
                "elements": [
                    {
                        "type": "rich_text_section",
                        "elements": [
                            {
                                "type": "text",
                                "text": "and these guide RNAs are expressed in bacteria with the Crispr components, or bought purified and added after?"
                            }
                        ]
                    }
                ]
            }
        ],
        "thread_ts": "1585036360.055800",
        "parent_user_id": "UV1A22N3W"
    },
    {
        "client_msg_id": "63885e89-4157-44aa-898a-abb016d4b7b4",
        "type": "message",
        "text": "These are bought purified",
        "user": "UV10KBUQG",
        "ts": "1585061593.065200",
        "team": "TUU48M0T1",
        "user_team": "TUU48M0T1",
        "source_team": "TUU48M0T1",
        "user_profile": {
            "avatar_hash": "2deebbf6be3d",
            "image_72": "https:\/\/avatars.slack-edge.com\/2020-03-06\/976932190641_2deebbf6be3d17141d91_72.jpg",
            "first_name": "Sarah",
            "real_name": "Sarah Blossom Ware",
            "display_name": "Sarah Blossom Ware - BioBlaze Community Bio Lab",
            "team": "TUU48M0T1",
            "name": "ware.sarah",
            "is_restricted": false,
            "is_ultra_restricted": false
        },
        "blocks": [
            {
                "type": "rich_text",
                "block_id": "UJ1",
                "elements": [
                    {
                        "type": "rich_text_section",
                        "elements": [
                            {
                                "type": "text",
                                "text": "These are bought purified"
                            }
                        ]
                    }
                ]
            }
        ],
        "thread_ts": "1585036360.055800",
        "parent_user_id": "UV1A22N3W"
    },
    {
        "client_msg_id": "93b2ad5d-bcf5-42ce-a4a7-146e2e0af80f",
        "type": "message",
        "text": "sounds super expensive...",
        "user": "UV1A22N3W",
        "ts": "1585061648.065400",
        "team": "TUU48M0T1",
        "user_team": "TUU48M0T1",
        "source_team": "TUU48M0T1",
        "user_profile": {
            "avatar_hash": "71f827776ad6",
            "image_72": "https:\/\/avatars.slack-edge.com\/2020-03-09\/988125642964_71f827776ad610af05a2_72.jpg",
            "first_name": "",
            "real_name": "RachelA",
            "display_name": "RachelA",
            "team": "TUU48M0T1",
            "name": "raronoff",
            "is_restricted": false,
            "is_ultra_restricted": false
        },
        "blocks": [
            {
                "type": "rich_text",
                "block_id": "E76",
                "elements": [
                    {
                        "type": "rich_text_section",
                        "elements": [
                            {
                                "type": "text",
                                "text": "sounds super expensive..."
                            }
                        ]
                    }
                ]
            }
        ],
        "thread_ts": "1585036360.055800",
        "parent_user_id": "UV1A22N3W"
    },
    {
        "client_msg_id": "30286287-2c9d-4b76-9616-0b4c959cc432",
        "type": "message",
        "text": "So the CRISPR aspect should bring in the specificity, no?",
        "user": "UV10KBUQG",
        "ts": "1585061772.065600",
        "team": "TUU48M0T1",
        "user_team": "TUU48M0T1",
        "source_team": "TUU48M0T1",
        "user_profile": {
            "avatar_hash": "2deebbf6be3d",
            "image_72": "https:\/\/avatars.slack-edge.com\/2020-03-06\/976932190641_2deebbf6be3d17141d91_72.jpg",
            "first_name": "Sarah",
            "real_name": "Sarah Blossom Ware",
            "display_name": "Sarah Blossom Ware - BioBlaze Community Bio Lab",
            "team": "TUU48M0T1",
            "name": "ware.sarah",
            "is_restricted": false,
            "is_ultra_restricted": false
        },
        "blocks": [
            {
                "type": "rich_text",
                "block_id": "Orzh",
                "elements": [
                    {
                        "type": "rich_text_section",
                        "elements": [
                            {
                                "type": "text",
                                "text": "So the CRISPR aspect should bring in the specificity, no?"
                            }
                        ]
                    }
                ]
            }
        ],
        "thread_ts": "1585036890.061500",
        "parent_user_id": "UV1A22N3W"
    },
    {
        "client_msg_id": "ba06eec4-27a3-4c25-a527-ecff2c54660a",
        "type": "message",
        "text": "I guess that is the idea ...   but at the expense of potentially never having clean negative controls. :confused:",
        "user": "UV1A22N3W",
        "ts": "1585062085.065800",
        "team": "TUU48M0T1",
        "user_team": "TUU48M0T1",
        "source_team": "TUU48M0T1",
        "user_profile": {
            "avatar_hash": "71f827776ad6",
            "image_72": "https:\/\/avatars.slack-edge.com\/2020-03-09\/988125642964_71f827776ad610af05a2_72.jpg",
            "first_name": "",
            "real_name": "RachelA",
            "display_name": "RachelA",
            "team": "TUU48M0T1",
            "name": "raronoff",
            "is_restricted": false,
            "is_ultra_restricted": false
        },
        "blocks": [
            {
                "type": "rich_text",
                "block_id": "miAX",
                "elements": [
                    {
                        "type": "rich_text_section",
                        "elements": [
                            {
                                "type": "text",
                                "text": "I guess that is the idea ...   but at the expense of potentially never having clean negative controls. "
                            },
                            {
                                "type": "emoji",
                                "name": "confused"
                            }
                        ]
                    }
                ]
            }
        ],
        "thread_ts": "1585036890.061500",
        "parent_user_id": "UV1A22N3W"
    },
    {
        "client_msg_id": "1c94416a-f304-4d2c-87a3-92829136d524",
        "type": "message",
        "text": "$125 each",
        "user": "UV10KBUQG",
        "ts": "1585062098.066000",
        "team": "TUU48M0T1",
        "user_team": "TUU48M0T1",
        "source_team": "TUU48M0T1",
        "user_profile": {
            "avatar_hash": "2deebbf6be3d",
            "image_72": "https:\/\/avatars.slack-edge.com\/2020-03-06\/976932190641_2deebbf6be3d17141d91_72.jpg",
            "first_name": "Sarah",
            "real_name": "Sarah Blossom Ware",
            "display_name": "Sarah Blossom Ware - BioBlaze Community Bio Lab",
            "team": "TUU48M0T1",
            "name": "ware.sarah",
            "is_restricted": false,
            "is_ultra_restricted": false
        },
        "blocks": [
            {
                "type": "rich_text",
                "block_id": "uQcyu",
                "elements": [
                    {
                        "type": "rich_text_section",
                        "elements": [
                            {
                                "type": "text",
                                "text": "$125 each"
                            }
                        ]
                    }
                ]
            }
        ],
        "thread_ts": "1585036360.055800",
        "parent_user_id": "UV1A22N3W"
    },
    {
        "client_msg_id": "1a31f2bc-55ff-4688-b271-41d073a90a48",
        "type": "message",
        "text": "just the lamp first seems good to test, with an intercalating dye...",
        "user": "UV1A22N3W",
        "ts": "1585062291.066200",
        "team": "TUU48M0T1",
        "user_team": "TUU48M0T1",
        "source_team": "TUU48M0T1",
        "user_profile": {
            "avatar_hash": "71f827776ad6",
            "image_72": "https:\/\/avatars.slack-edge.com\/2020-03-09\/988125642964_71f827776ad610af05a2_72.jpg",
            "first_name": "",
            "real_name": "RachelA",
            "display_name": "RachelA",
            "team": "TUU48M0T1",
            "name": "raronoff",
            "is_restricted": false,
            "is_ultra_restricted": false
        },
        "blocks": [
            {
                "type": "rich_text",
                "block_id": "f\/sh",
                "elements": [
                    {
                        "type": "rich_text_section",
                        "elements": [
                            {
                                "type": "text",
                                "text": "just the lamp first seems good to test, with an intercalating dye..."
                            }
                        ]
                    }
                ]
            }
        ],
        "thread_ts": "1585036890.061500",
        "parent_user_id": "UV1A22N3W"
    },
    {
        "client_msg_id": "674aa161-786d-4785-a51b-0b7f6c257335",
        "type": "message",
        "text": "I think that having DNA contamination of super stable amplicons at the lab is never a good idea... Even if you use CRISPR to patch it for this experiment, you never know when are you going to try a normal PCR or just a Lamp after that... You are compromising your entire lab so you will always need to buy the cas12 with the 350 $ gRNA for nCov protocols after the moment you open the tubes for doing the mammoth protocol.",
        "user": "UV3URUKK5",
        "ts": "1585062414.066400",
        "team": "TUU48M0T1",
        "user_team": "TUU48M0T1",
        "source_team": "TUU48M0T1",
        "user_profile": {
            "avatar_hash": "64c99c2ed974",
            "image_72": "https:\/\/avatars.slack-edge.com\/2020-03-15\/1000999702004_64c99c2ed97497e08ca9_72.jpg",
            "first_name": "",
            "real_name": "Francisco Javier Quero",
            "display_name": "Francisco Javier Quero",
            "team": "TUU48M0T1",
            "name": "franxi2953",
            "is_restricted": false,
            "is_ultra_restricted": false
        },
        "edited": {
            "user": "UV3URUKK5",
            "ts": "1585062808.000000"
        },
        "blocks": [
            {
                "type": "rich_text",
                "block_id": "jBc",
                "elements": [
                    {
                        "type": "rich_text_section",
                        "elements": [
                            {
                                "type": "text",
                                "text": "I think that having DNA contamination of super stable amplicons at the lab is never a good idea... Even if you use CRISPR to patch it for this experiment, you never know when are you going to try a normal PCR or just a Lamp after that... You are compromising your entire lab so you will always need to buy the cas12 with the 350 $ gRNA for nCov protocols after the moment you open the tubes for doing the mammoth protocol."
                            }
                        ]
                    }
                ]
            }
        ],
        "thread_ts": "1585036890.061500",
        "parent_user_id": "UV1A22N3W"
    },
    {
        "client_msg_id": "65649ad4-b0d6-4063-9bf5-56f4debe8c8b",
        "type": "message",
        "text": "do you want to join in here, we are chatting now. <https:\/\/whereby.com\/dna4all>",
        "user": "UV1A22N3W",
        "ts": "1585062894.067200",
        "team": "TUU48M0T1",
        "user_team": "TUU48M0T1",
        "source_team": "TUU48M0T1",
        "user_profile": {
            "avatar_hash": "71f827776ad6",
            "image_72": "https:\/\/avatars.slack-edge.com\/2020-03-09\/988125642964_71f827776ad610af05a2_72.jpg",
            "first_name": "",
            "real_name": "RachelA",
            "display_name": "RachelA",
            "team": "TUU48M0T1",
            "name": "raronoff",
            "is_restricted": false,
            "is_ultra_restricted": false
        },
        "attachments": [
            {
                "title": "Whereby",
                "title_link": "https:\/\/whereby.com\/dna4all",
                "text": "Easy video meetings with no login or downloads. Video conferencing with screen sharing, recording and much more.",
                "fallback": "Whereby",
                "thumb_url": "https:\/\/d2qulvgqu65efe.cloudfront.net\/facebook-opengraph.png",
                "from_url": "https:\/\/whereby.com\/dna4all",
                "thumb_width": 1200,
                "thumb_height": 628,
                "service_icon": "https:\/\/d2qulvgqu65efe.cloudfront.net\/favicon.png",
                "service_name": "whereby.com",
                "id": 1,
                "original_url": "https:\/\/whereby.com\/dna4all"
            }
        ],
        "blocks": [
            {
                "type": "rich_text",
                "block_id": "TVyWY",
                "elements": [
                    {
                        "type": "rich_text_section",
                        "elements": [
                            {
                                "type": "text",
                                "text": "do you want to join in here, we are chatting now. "
                            },
                            {
                                "type": "link",
                                "url": "https:\/\/whereby.com\/dna4all"
                            }
                        ]
                    }
                ]
            }
        ],
        "thread_ts": "1585036890.061500",
        "parent_user_id": "UV1A22N3W"
    },
    {
        "client_msg_id": "93585b58-69ca-4864-a01f-95f893175fcb",
        "type": "message",
        "text": "<@UV10KBUQG>",
        "user": "UV1A22N3W",
        "ts": "1585062902.067500",
        "team": "TUU48M0T1",
        "user_team": "TUU48M0T1",
        "source_team": "TUU48M0T1",
        "user_profile": {
            "avatar_hash": "71f827776ad6",
            "image_72": "https:\/\/avatars.slack-edge.com\/2020-03-09\/988125642964_71f827776ad610af05a2_72.jpg",
            "first_name": "",
            "real_name": "RachelA",
            "display_name": "RachelA",
            "team": "TUU48M0T1",
            "name": "raronoff",
            "is_restricted": false,
            "is_ultra_restricted": false
        },
        "blocks": [
            {
                "type": "rich_text",
                "block_id": "a4fN",
                "elements": [
                    {
                        "type": "rich_text_section",
                        "elements": [
                            {
                                "type": "user",
                                "user_id": "UV10KBUQG"
                            }
                        ]
                    }
                ]
            }
        ],
        "thread_ts": "1585036890.061500",
        "parent_user_id": "UV1A22N3W"
    },
    {
        "client_msg_id": "b81e44bf-004c-4f03-9a45-026aaae7b43a",
        "type": "message",
        "text": "Yes, will join on my computer",
        "user": "UV10KBUQG",
        "ts": "1585063038.067700",
        "team": "TUU48M0T1",
        "user_team": "TUU48M0T1",
        "source_team": "TUU48M0T1",
        "user_profile": {
            "avatar_hash": "2deebbf6be3d",
            "image_72": "https:\/\/avatars.slack-edge.com\/2020-03-06\/976932190641_2deebbf6be3d17141d91_72.jpg",
            "first_name": "Sarah",
            "real_name": "Sarah Blossom Ware",
            "display_name": "Sarah Blossom Ware - BioBlaze Community Bio Lab",
            "team": "TUU48M0T1",
            "name": "ware.sarah",
            "is_restricted": false,
            "is_ultra_restricted": false
        },
        "blocks": [
            {
                "type": "rich_text",
                "block_id": "ZOyk",
                "elements": [
                    {
                        "type": "rich_text_section",
                        "elements": [
                            {
                                "type": "text",
                                "text": "Yes, will join on my computer"
                            }
                        ]
                    }
                ]
            }
        ],
        "thread_ts": "1585036890.061500",
        "parent_user_id": "UV1A22N3W"
    },
    {
        "client_msg_id": "2ad9ac99-f4ef-417c-8e13-cab35b66bc3b",
        "type": "message",
        "text": "this might be the quencher seq for the mammoth FAM-Fip  - ATTGGCCGCA-QUENCH",
        "user": "UV1A22N3W",
        "ts": "1585065247.067900",
        "team": "TUU48M0T1",
        "user_team": "TUU48M0T1",
        "source_team": "TUU48M0T1",
        "user_profile": {
            "avatar_hash": "71f827776ad6",
            "image_72": "https:\/\/avatars.slack-edge.com\/2020-03-09\/988125642964_71f827776ad610af05a2_72.jpg",
            "first_name": "",
            "real_name": "RachelA",
            "display_name": "RachelA",
            "team": "TUU48M0T1",
            "name": "raronoff",
            "is_restricted": false,
            "is_ultra_restricted": false
        },
        "blocks": [
            {
                "type": "rich_text",
                "block_id": "fI6",
                "elements": [
                    {
                        "type": "rich_text_section",
                        "elements": [
                            {
                                "type": "text",
                                "text": "this might be the quencher seq for the mammoth FAM-Fip  - ATTGGCCGCA-QUENCH"
                            }
                        ]
                    }
                ]
            }
        ],
        "thread_ts": "1585036890.061500",
        "parent_user_id": "UV1A22N3W"
    },
    {
        "client_msg_id": "c9667a26-e912-4660-9547-14b0704d3c14",
        "type": "message",
        "text": "Materials for different LAMP reactions for nCov. Look at the second sheet <https:\/\/docs.google.com\/spreadsheets\/d\/1Dp0_LgHDNM6a2QW5RT3o58iuxLb3C5knTXzhTFye4as\/edit?usp=sharing>",
        "user": "UV3URUKK5",
        "ts": "1585065266.068200",
        "team": "TUU48M0T1",
        "user_team": "TUU48M0T1",
        "source_team": "TUU48M0T1",
        "user_profile": {
            "avatar_hash": "64c99c2ed974",
            "image_72": "https:\/\/avatars.slack-edge.com\/2020-03-15\/1000999702004_64c99c2ed97497e08ca9_72.jpg",
            "first_name": "",
            "real_name": "Francisco Javier Quero",
            "display_name": "Francisco Javier Quero",
            "team": "TUU48M0T1",
            "name": "franxi2953",
            "is_restricted": false,
            "is_ultra_restricted": false
        },
        "edited": {
            "user": "UV3URUKK5",
            "ts": "1585065301.000000"
        },
        "blocks": [
            {
                "type": "rich_text",
                "block_id": "A+NbI",
                "elements": [
                    {
                        "type": "rich_text_section",
                        "elements": [
                            {
                                "type": "text",
                                "text": "Materials for different LAMP reactions for nCov. Look at the second sheet "
                            },
                            {
                                "type": "link",
                                "url": "https:\/\/docs.google.com\/spreadsheets\/d\/1Dp0_LgHDNM6a2QW5RT3o58iuxLb3C5knTXzhTFye4as\/edit?usp=sharing"
                            }
                        ]
                    }
                ]
            }
        ],
        "reactions": [
            {
                "name": "+1",
                "users": [
                    "UV1A22N3W"
                ],
                "count": 1
            }
        ]
    }
]