[
    {
        "client_msg_id": "fcb3bd49-a59a-4918-a254-489ce1d1f7d3",
        "type": "message",
        "text": "Should we go ahead and make a 'front end' JOGL project finally?  DIT Covid19 Detective ??",
        "user": "UV1A22N3W",
        "ts": "1585207694.001200",
        "team": "TUU48M0T1",
        "user_team": "TUU48M0T1",
        "source_team": "TUU48M0T1",
        "user_profile": {
            "avatar_hash": "71f827776ad6",
            "image_72": "https:\/\/avatars.slack-edge.com\/2020-03-09\/988125642964_71f827776ad610af05a2_72.jpg",
            "first_name": "",
            "real_name": "RachelA",
            "display_name": "RachelA",
            "team": "TUU48M0T1",
            "name": "raronoff",
            "is_restricted": false,
            "is_ultra_restricted": false
        },
        "blocks": [
            {
                "type": "rich_text",
                "block_id": "fcg9",
                "elements": [
                    {
                        "type": "rich_text_section",
                        "elements": [
                            {
                                "type": "text",
                                "text": "Should we go ahead and make a 'front end' JOGL project finally?  DIT Covid19 Detective ??"
                            }
                        ]
                    }
                ]
            }
        ],
        "thread_ts": "1585207694.001200",
        "reply_count": 1,
        "reply_users_count": 1,
        "latest_reply": "1585452948.001600",
        "reply_users": [
            "UUPFF4TC3"
        ],
        "replies": [
            {
                "user": "UUPFF4TC3",
                "ts": "1585452948.001600"
            }
        ],
        "subscribed": false
    }
]