[
    {
        "client_msg_id": "69cd5979-35e3-46e2-8423-11bf1753a166",
        "type": "message",
        "text": "Sorry!",
        "user": "UUPFF4TC3",
        "ts": "1586917191.003300",
        "team": "TUU48M0T1",
        "user_team": "TUU48M0T1",
        "source_team": "TUU48M0T1",
        "user_profile": {
            "avatar_hash": "g563e1ed9e36",
            "image_72": "https:\/\/secure.gravatar.com\/avatar\/563e1ed9e362af0ce5867baad4d7c568.jpg?s=72&d=https%3A%2F%2Fa.slack-edge.com%2Fdf10d%2Fimg%2Favatars%2Fava_0007-72.png",
            "first_name": "Sophie",
            "real_name": "Sophie Liu",
            "display_name": "Sophie Liu",
            "team": "TUU48M0T1",
            "name": "sophie006liu",
            "is_restricted": false,
            "is_ultra_restricted": false
        },
        "blocks": [
            {
                "type": "rich_text",
                "block_id": "ZXkW0",
                "elements": [
                    {
                        "type": "rich_text_section",
                        "elements": [
                            {
                                "type": "text",
                                "text": "Sorry!"
                            }
                        ]
                    }
                ]
            }
        ],
        "thread_ts": "1585453251.006500",
        "parent_user_id": "UUPFF4TC3"
    },
    {
        "client_msg_id": "fd451558-7afd-473d-823e-aa92fa1d2ac9",
        "type": "message",
        "text": "I was finalizing the protocol'",
        "user": "UUPFF4TC3",
        "ts": "1586917198.003500",
        "team": "TUU48M0T1",
        "user_team": "TUU48M0T1",
        "source_team": "TUU48M0T1",
        "user_profile": {
            "avatar_hash": "g563e1ed9e36",
            "image_72": "https:\/\/secure.gravatar.com\/avatar\/563e1ed9e362af0ce5867baad4d7c568.jpg?s=72&d=https%3A%2F%2Fa.slack-edge.com%2Fdf10d%2Fimg%2Favatars%2Fava_0007-72.png",
            "first_name": "Sophie",
            "real_name": "Sophie Liu",
            "display_name": "Sophie Liu",
            "team": "TUU48M0T1",
            "name": "sophie006liu",
            "is_restricted": false,
            "is_ultra_restricted": false
        },
        "blocks": [
            {
                "type": "rich_text",
                "block_id": "9NH",
                "elements": [
                    {
                        "type": "rich_text_section",
                        "elements": [
                            {
                                "type": "text",
                                "text": "I was finalizing the protocol'"
                            }
                        ]
                    }
                ]
            }
        ],
        "thread_ts": "1585453251.006500",
        "parent_user_id": "UUPFF4TC3"
    },
    {
        "client_msg_id": "ae43ad5c-6e0c-4915-81bd-95807da1c4b8",
        "type": "message",
        "text": "Here is the think to how to use Sequence and Ligation Independent Assembly to make a One Plasmid System for CRISPR",
        "user": "UUPFF4TC3",
        "ts": "1586917225.003700",
        "team": "TUU48M0T1",
        "user_team": "TUU48M0T1",
        "source_team": "TUU48M0T1",
        "user_profile": {
            "avatar_hash": "g563e1ed9e36",
            "image_72": "https:\/\/secure.gravatar.com\/avatar\/563e1ed9e362af0ce5867baad4d7c568.jpg?s=72&d=https%3A%2F%2Fa.slack-edge.com%2Fdf10d%2Fimg%2Favatars%2Fava_0007-72.png",
            "first_name": "Sophie",
            "real_name": "Sophie Liu",
            "display_name": "Sophie Liu",
            "team": "TUU48M0T1",
            "name": "sophie006liu",
            "is_restricted": false,
            "is_ultra_restricted": false
        },
        "blocks": [
            {
                "type": "rich_text",
                "block_id": "Bdz",
                "elements": [
                    {
                        "type": "rich_text_section",
                        "elements": [
                            {
                                "type": "text",
                                "text": "Here is the think to how to use Sequence and Ligation Independent Assembly to make a One Plasmid System for CRISPR"
                            }
                        ]
                    }
                ]
            }
        ],
        "thread_ts": "1585453251.006500",
        "parent_user_id": "UUPFF4TC3"
    },
    {
        "client_msg_id": "1087516c-b5b5-49d5-a2cc-1d45a3a3f244",
        "type": "message",
        "text": "<https:\/\/docs.google.com\/document\/d\/1zWtZDrvHHteMiAaihEXYmQLNztP7Mn56FkAPpRdWxWc\/edit#heading=h.6ch3iermp01l>",
        "user": "UUPFF4TC3",
        "ts": "1586917243.004300",
        "team": "TUU48M0T1",
        "user_team": "TUU48M0T1",
        "source_team": "TUU48M0T1",
        "user_profile": {
            "avatar_hash": "g563e1ed9e36",
            "image_72": "https:\/\/secure.gravatar.com\/avatar\/563e1ed9e362af0ce5867baad4d7c568.jpg?s=72&d=https%3A%2F%2Fa.slack-edge.com%2Fdf10d%2Fimg%2Favatars%2Fava_0007-72.png",
            "first_name": "Sophie",
            "real_name": "Sophie Liu",
            "display_name": "Sophie Liu",
            "team": "TUU48M0T1",
            "name": "sophie006liu",
            "is_restricted": false,
            "is_ultra_restricted": false
        },
        "blocks": [
            {
                "type": "rich_text",
                "block_id": "sFw",
                "elements": [
                    {
                        "type": "rich_text_section",
                        "elements": [
                            {
                                "type": "link",
                                "url": "https:\/\/docs.google.com\/document\/d\/1zWtZDrvHHteMiAaihEXYmQLNztP7Mn56FkAPpRdWxWc\/edit#heading=h.6ch3iermp01l"
                            }
                        ]
                    }
                ]
            }
        ],
        "thread_ts": "1585453251.006500",
        "parent_user_id": "UUPFF4TC3"
    }
]