[
    {
        "client_msg_id": "63a3e82f-b274-4354-8536-47462dc6ad89",
        "type": "message",
        "text": "<https:\/\/open-covid19.slack.com\/archives\/C0102DVT3HV\/p1584732289132600>",
        "user": "U0103LPAWQ4",
        "ts": "1586028948.082400",
        "team": "TUU48M0T1",
        "user_team": "TUU48M0T1",
        "source_team": "TUU48M0T1",
        "user_profile": {
            "avatar_hash": "7b345029e813",
            "image_72": "https:\/\/avatars.slack-edge.com\/2020-03-17\/1004213082549_7b345029e8137cbdc6b0_72.jpg",
            "first_name": "Bre",
            "real_name": "Bre",
            "display_name": "Bre",
            "team": "TUU48M0T1",
            "name": "info",
            "is_restricted": false,
            "is_ultra_restricted": false
        },
        "attachments": [
            {
                "from_url": "https:\/\/open-covid19.slack.com\/archives\/C0102DVT3HV\/p1584732289132600",
                "fallback": "[March 20th, 2020 12:24 PM] katherineh245: <!channel> -- if all the designers here could fill out this spreadsheet with the design-related resources you have, that would be amazing!",
                "ts": "1584732289.132600",
                "author_id": "UV0QTJCMT",
                "author_subname": "Katherine Holo",
                "channel_id": "C0102DVT3HV",
                "channel_name": "prgm-design-team",
                "is_msg_unfurl": true,
                "is_thread_root_unfurl": true,
                "text": "<!channel> -- if all the designers here could fill out this spreadsheet with the design-related resources you have, that would be amazing!",
                "author_name": "Katherine Holo",
                "author_link": "https:\/\/open-covid19.slack.com\/team\/UV0QTJCMT",
                "author_icon": "https:\/\/avatars.slack-edge.com\/2020-03-06\/986844736421_11e3deb6d1a949327ddd_48.png",
                "mrkdwn_in": [
                    "text"
                ],
                "id": 1,
                "original_url": "https:\/\/open-covid19.slack.com\/archives\/C0102DVT3HV\/p1584732289132600",
                "footer": "Thread in #prgm-design-team"
            }
        ],
        "blocks": [
            {
                "type": "rich_text",
                "block_id": "aXiXX",
                "elements": [
                    {
                        "type": "rich_text_section",
                        "elements": [
                            {
                                "type": "link",
                                "url": "https:\/\/open-covid19.slack.com\/archives\/C0102DVT3HV\/p1584732289132600"
                            }
                        ]
                    }
                ]
            }
        ]
    },
    {
        "type": "message",
        "text": "Can someone make the picture into Twitter image format ? 1024×512 pixels",
        "files": [
            {
                "id": "F011CG8TG3A",
                "created": 1585846163,
                "timestamp": 1585846163,
                "name": "image.png",
                "title": "image.png",
                "mimetype": "image\/png",
                "filetype": "png",
                "pretty_type": "PNG",
                "user": "UVC9WMA7N",
                "editable": false,
                "size": 268655,
                "mode": "hosted",
                "is_external": false,
                "external_type": "",
                "is_public": true,
                "public_url_shared": false,
                "display_as_bot": false,
                "username": "",
                "url_private": "https:\/\/files.slack.com\/files-pri\/TUU48M0T1-F011CG8TG3A\/image.png?t=xoxe-980144714919-1106606678066-1105227127893-6f722bb664235052954ad46852628b64",
                "url_private_download": "https:\/\/files.slack.com\/files-pri\/TUU48M0T1-F011CG8TG3A\/download\/image.png?t=xoxe-980144714919-1106606678066-1105227127893-6f722bb664235052954ad46852628b64",
                "thumb_64": "https:\/\/files.slack.com\/files-tmb\/TUU48M0T1-F011CG8TG3A-84d565faa6\/image_64.png?t=xoxe-980144714919-1106606678066-1105227127893-6f722bb664235052954ad46852628b64",
                "thumb_80": "https:\/\/files.slack.com\/files-tmb\/TUU48M0T1-F011CG8TG3A-84d565faa6\/image_80.png?t=xoxe-980144714919-1106606678066-1105227127893-6f722bb664235052954ad46852628b64",
                "thumb_360": "https:\/\/files.slack.com\/files-tmb\/TUU48M0T1-F011CG8TG3A-84d565faa6\/image_360.png?t=xoxe-980144714919-1106606678066-1105227127893-6f722bb664235052954ad46852628b64",
                "thumb_360_w": 360,
                "thumb_360_h": 263,
                "thumb_480": "https:\/\/files.slack.com\/files-tmb\/TUU48M0T1-F011CG8TG3A-84d565faa6\/image_480.png?t=xoxe-980144714919-1106606678066-1105227127893-6f722bb664235052954ad46852628b64",
                "thumb_480_w": 480,
                "thumb_480_h": 351,
                "thumb_160": "https:\/\/files.slack.com\/files-tmb\/TUU48M0T1-F011CG8TG3A-84d565faa6\/image_160.png?t=xoxe-980144714919-1106606678066-1105227127893-6f722bb664235052954ad46852628b64",
                "thumb_720": "https:\/\/files.slack.com\/files-tmb\/TUU48M0T1-F011CG8TG3A-84d565faa6\/image_720.png?t=xoxe-980144714919-1106606678066-1105227127893-6f722bb664235052954ad46852628b64",
                "thumb_720_w": 720,
                "thumb_720_h": 526,
                "thumb_800": "https:\/\/files.slack.com\/files-tmb\/TUU48M0T1-F011CG8TG3A-84d565faa6\/image_800.png?t=xoxe-980144714919-1106606678066-1105227127893-6f722bb664235052954ad46852628b64",
                "thumb_800_w": 800,
                "thumb_800_h": 584,
                "thumb_960": "https:\/\/files.slack.com\/files-tmb\/TUU48M0T1-F011CG8TG3A-84d565faa6\/image_960.png?t=xoxe-980144714919-1106606678066-1105227127893-6f722bb664235052954ad46852628b64",
                "thumb_960_w": 960,
                "thumb_960_h": 701,
                "thumb_1024": "https:\/\/files.slack.com\/files-tmb\/TUU48M0T1-F011CG8TG3A-84d565faa6\/image_1024.png?t=xoxe-980144714919-1106606678066-1105227127893-6f722bb664235052954ad46852628b64",
                "thumb_1024_w": 1024,
                "thumb_1024_h": 748,
                "image_exif_rotation": 1,
                "original_w": 1038,
                "original_h": 758,
                "thumb_tiny": "AwAjADChSgClAB6daGGCR6UAIwxSU5VMjBV5PpTni2MRnOOKAI6KfimnFAArbWDDqKneQPEdigHqTnmq9PiKq3zfd70AOhfbKGAXIHAp8sgblwQw6EVAzbmJxj2pSwOOOnrQBKyoT8r8cfrUBoBxTm2nGODjmgBtFFFABRRRQAUUUUAf\/9k=",
                "permalink": "https:\/\/open-covid19.slack.com\/files\/UVC9WMA7N\/F011CG8TG3A\/image.png",
                "permalink_public": "https:\/\/slack-files.com\/TUU48M0T1-F011CG8TG3A-9d94f92780",
                "is_starred": false,
                "has_rich_preview": false
            }
        ],
        "upload": false,
        "blocks": [
            {
                "type": "rich_text",
                "block_id": "4Sb",
                "elements": [
                    {
                        "type": "rich_text_section",
                        "elements": [
                            {
                                "type": "text",
                                "text": "Can someone make the picture into Twitter image format ? 1024×512 pixels"
                            }
                        ]
                    }
                ]
            }
        ],
        "user": "U01019BQXM3",
        "display_as_bot": false,
        "ts": "1586034734.082700"
    },
    {
        "client_msg_id": "bb9d92fd-686b-4af9-9636-5340647a8228",
        "type": "message",
        "text": "*<!here>*\nWe are officially launching the social media ! Help us gain visibility ! Follow the initiative !\nFacebook : <https:\/\/www.facebook.com\/opencovid19>\nTwitter : <https:\/\/twitter.com\/opencovid19>\nInstagram : <https:\/\/www.instagram.com\/opencovid19\/>\nLinkedIn : <https:\/\/www.linkedin.com\/company\/opencovid19\/>\n\nIf you want to publish something, write in the comm channel !",
        "user": "U01019BQXM3",
        "ts": "1586035185.083600",
        "team": "TUU48M0T1",
        "user_team": "TUU48M0T1",
        "source_team": "TUU48M0T1",
        "user_profile": {
            "avatar_hash": "7e0f35d8cc55",
            "image_72": "https:\/\/avatars.slack-edge.com\/2020-03-15\/988667349730_7e0f35d8cc556cd89565_72.jpg",
            "first_name": "Marc",
            "real_name": "Marc Bokobza",
            "display_name": "Marc Bokobza",
            "team": "TUU48M0T1",
            "name": "marcbokobza1",
            "is_restricted": false,
            "is_ultra_restricted": false
        },
        "attachments": [
            {
                "title": "The OpenCovid19 Initiative :microscope: (@opencovid19) | Twitter",
                "title_link": "https:\/\/twitter.com\/opencovid19",
                "text": "The latest Tweets from The OpenCovid19 Initiative :microscope: (@opencovid19). :earth_africa: The OpenCovid19 Initiative is a giant open science 🧬 and innovation coalition that aims to fight the ongoing COVID-19 🦠 pandemic. Join now! :point_down:",
                "fallback": "The OpenCovid19 Initiative 🔬 (@opencovid19) | Twitter",
                "from_url": "https:\/\/twitter.com\/opencovid19",
                "service_icon": "https:\/\/abs.twimg.com\/icons\/apple-touch-icon-192x192.png",
                "service_name": "twitter.com",
                "id": 1,
                "original_url": "https:\/\/twitter.com\/opencovid19"
            },
            {
                "title": " Login • Instagram ",
                "title_link": "https:\/\/www.instagram.com\/opencovid19\/",
                "text": "Welcome back to Instagram. Sign in to check out what your friends, family &amp; interests have been capturing &amp; sharing around the world.",
                "fallback": " Login • Instagram ",
                "from_url": "https:\/\/www.instagram.com\/opencovid19\/",
                "service_icon": "https:\/\/www.instagram.com\/static\/images\/ico\/apple-touch-icon-76x76-precomposed.png\/666282be8229.png",
                "service_name": "instagram.com",
                "id": 2,
                "original_url": "https:\/\/www.instagram.com\/opencovid19\/"
            }
        ],
        "blocks": [
            {
                "type": "rich_text",
                "block_id": "CWT",
                "elements": [
                    {
                        "type": "rich_text_section",
                        "elements": [
                            {
                                "type": "broadcast",
                                "range": "here",
                                "style": {
                                    "bold": true
                                }
                            },
                            {
                                "type": "text",
                                "text": "\nWe are officially launching the social media ! Help us gain visibility ! Follow the initiative !\nFacebook : "
                            },
                            {
                                "type": "link",
                                "url": "https:\/\/www.facebook.com\/opencovid19"
                            },
                            {
                                "type": "text",
                                "text": "\nTwitter : "
                            },
                            {
                                "type": "link",
                                "url": "https:\/\/twitter.com\/opencovid19"
                            },
                            {
                                "type": "text",
                                "text": "\nInstagram : "
                            },
                            {
                                "type": "link",
                                "url": "https:\/\/www.instagram.com\/opencovid19\/"
                            },
                            {
                                "type": "text",
                                "text": "\nLinkedIn : "
                            },
                            {
                                "type": "link",
                                "url": "https:\/\/www.linkedin.com\/company\/opencovid19\/"
                            },
                            {
                                "type": "text",
                                "text": "\n\nIf you want to publish something, write in the comm channel !"
                            }
                        ]
                    }
                ]
            }
        ],
        "reactions": [
            {
                "name": "+1",
                "users": [
                    "UV2SC7ZE3"
                ],
                "count": 1
            }
        ]
    }
]