[
    {
        "client_msg_id": "5c63135f-0ea7-4d21-b7e8-56d445461734",
        "type": "message",
        "text": "Dear All, Looking for a small 30 sec animation to be put together.",
        "user": "U01072UT127",
        "ts": "1585642696.069400",
        "team": "TUU48M0T1",
        "user_team": "TUU48M0T1",
        "source_team": "TUU48M0T1",
        "user_profile": {
            "avatar_hash": "65a47b12fd55",
            "image_72": "https:\/\/avatars.slack-edge.com\/2020-03-23\/1018603039072_65a47b12fd55dde2b3ca_72.jpg",
            "first_name": "David",
            "real_name": "David Suter",
            "display_name": "David Suter",
            "team": "TUU48M0T1",
            "name": "davidsuter01",
            "is_restricted": false,
            "is_ultra_restricted": false
        },
        "blocks": [
            {
                "type": "rich_text",
                "block_id": "OOr",
                "elements": [
                    {
                        "type": "rich_text_section",
                        "elements": [
                            {
                                "type": "text",
                                "text": "Dear All, Looking for a small 30 sec animation to be put together."
                            }
                        ]
                    }
                ]
            }
        ]
    },
    {
        "client_msg_id": "7F6AF539-C6D2-4FC5-A45E-6578DE470A39",
        "type": "message",
        "text": "<!channel> ^",
        "user": "UV0QTJCMT",
        "ts": "1585670120.069800",
        "team": "TUU48M0T1",
        "user_team": "TUU48M0T1",
        "source_team": "TUU48M0T1",
        "user_profile": {
            "avatar_hash": "06a6ae8f69d1",
            "image_72": "https:\/\/avatars.slack-edge.com\/2020-04-13\/1060635499315_06a6ae8f69d18f1ad464_72.png",
            "first_name": "Katherine",
            "real_name": "Katherine Holo",
            "display_name": "Kat Holo - Co-Organizer of OpenCOVID19",
            "team": "TUU48M0T1",
            "name": "katherineh245",
            "is_restricted": false,
            "is_ultra_restricted": false
        },
        "blocks": [
            {
                "type": "rich_text",
                "block_id": "IrKO1",
                "elements": [
                    {
                        "type": "rich_text_section",
                        "elements": [
                            {
                                "type": "broadcast",
                                "range": "channel"
                            },
                            {
                                "type": "text",
                                "text": " ^"
                            }
                        ]
                    }
                ]
            }
        ]
    },
    {
        "type": "message",
        "subtype": "channel_join",
        "ts": "1585677951.070900",
        "user": "U011487FG3X",
        "text": "<@U011487FG3X> has joined the channel",
        "inviter": "U0113TTNECF"
    },
    {
        "type": "message",
        "text": "Hi <@UV8T52QJ3>, Sorry for the late reply, I was busy with company work till late yesterday. I do not have a GitHub account unfortunately, i'll set it up by myself later.\n\nRegarding the logo, i can send you the working file, SVG, and the different formats. However I personally think the bright blue is a little too close to the facebook messenger app, but it still looks different as well.\n\nWhat are your thoughts? If its good to go i'll export the file :)",
        "files": [
            {
                "id": "F010V7HHTFT",
                "created": 1585679309,
                "timestamp": 1585679309,
                "name": "Screen Shot 2020-03-31 at 11.26.48 AM.png",
                "title": "Screen Shot 2020-03-31 at 11.26.48 AM.png",
                "mimetype": "image\/png",
                "filetype": "png",
                "pretty_type": "PNG",
                "user": "U010HGKFDNE",
                "editable": false,
                "size": 169905,
                "mode": "hosted",
                "is_external": false,
                "external_type": "",
                "is_public": true,
                "public_url_shared": false,
                "display_as_bot": false,
                "username": "",
                "url_private": "https:\/\/files.slack.com\/files-pri\/TUU48M0T1-F010V7HHTFT\/screen_shot_2020-03-31_at_11.26.48_am.png?t=xoxe-980144714919-1106606678066-1105227127893-6f722bb664235052954ad46852628b64",
                "url_private_download": "https:\/\/files.slack.com\/files-pri\/TUU48M0T1-F010V7HHTFT\/download\/screen_shot_2020-03-31_at_11.26.48_am.png?t=xoxe-980144714919-1106606678066-1105227127893-6f722bb664235052954ad46852628b64",
                "thumb_64": "https:\/\/files.slack.com\/files-tmb\/TUU48M0T1-F010V7HHTFT-83db978236\/screen_shot_2020-03-31_at_11.26.48_am_64.png?t=xoxe-980144714919-1106606678066-1105227127893-6f722bb664235052954ad46852628b64",
                "thumb_80": "https:\/\/files.slack.com\/files-tmb\/TUU48M0T1-F010V7HHTFT-83db978236\/screen_shot_2020-03-31_at_11.26.48_am_80.png?t=xoxe-980144714919-1106606678066-1105227127893-6f722bb664235052954ad46852628b64",
                "thumb_360": "https:\/\/files.slack.com\/files-tmb\/TUU48M0T1-F010V7HHTFT-83db978236\/screen_shot_2020-03-31_at_11.26.48_am_360.png?t=xoxe-980144714919-1106606678066-1105227127893-6f722bb664235052954ad46852628b64",
                "thumb_360_w": 360,
                "thumb_360_h": 201,
                "thumb_480": "https:\/\/files.slack.com\/files-tmb\/TUU48M0T1-F010V7HHTFT-83db978236\/screen_shot_2020-03-31_at_11.26.48_am_480.png?t=xoxe-980144714919-1106606678066-1105227127893-6f722bb664235052954ad46852628b64",
                "thumb_480_w": 480,
                "thumb_480_h": 268,
                "thumb_160": "https:\/\/files.slack.com\/files-tmb\/TUU48M0T1-F010V7HHTFT-83db978236\/screen_shot_2020-03-31_at_11.26.48_am_160.png?t=xoxe-980144714919-1106606678066-1105227127893-6f722bb664235052954ad46852628b64",
                "thumb_720": "https:\/\/files.slack.com\/files-tmb\/TUU48M0T1-F010V7HHTFT-83db978236\/screen_shot_2020-03-31_at_11.26.48_am_720.png?t=xoxe-980144714919-1106606678066-1105227127893-6f722bb664235052954ad46852628b64",
                "thumb_720_w": 720,
                "thumb_720_h": 402,
                "thumb_800": "https:\/\/files.slack.com\/files-tmb\/TUU48M0T1-F010V7HHTFT-83db978236\/screen_shot_2020-03-31_at_11.26.48_am_800.png?t=xoxe-980144714919-1106606678066-1105227127893-6f722bb664235052954ad46852628b64",
                "thumb_800_w": 800,
                "thumb_800_h": 447,
                "thumb_960": "https:\/\/files.slack.com\/files-tmb\/TUU48M0T1-F010V7HHTFT-83db978236\/screen_shot_2020-03-31_at_11.26.48_am_960.png?t=xoxe-980144714919-1106606678066-1105227127893-6f722bb664235052954ad46852628b64",
                "thumb_960_w": 960,
                "thumb_960_h": 536,
                "thumb_1024": "https:\/\/files.slack.com\/files-tmb\/TUU48M0T1-F010V7HHTFT-83db978236\/screen_shot_2020-03-31_at_11.26.48_am_1024.png?t=xoxe-980144714919-1106606678066-1105227127893-6f722bb664235052954ad46852628b64",
                "thumb_1024_w": 1024,
                "thumb_1024_h": 572,
                "image_exif_rotation": 1,
                "original_w": 1182,
                "original_h": 660,
                "thumb_tiny": "AwAaADC7cuyBQDtB6mo1lZoh8+SGxn14qeV1QfNznoPWhGSRMgcehHSq6bC6lUTOeBLn8KfHchQS77h7DpzUgliZ9u3rwDjg0sjxowG3LHsBRZhclHIoqPzkCKw5B6AU5HDrkUrMLobLH5gGDgiiKIxggtuz7VJRRd2sOxXFsQwxIdoOQMVI8W6QOGwcEVJRRzMViA2+EVUYqV71JFH5anksSckmn0UXbCx\/\/9k=",
                "permalink": "https:\/\/open-covid19.slack.com\/files\/U010HGKFDNE\/F010V7HHTFT\/screen_shot_2020-03-31_at_11.26.48_am.png",
                "permalink_public": "https:\/\/slack-files.com\/TUU48M0T1-F010V7HHTFT-b1c17b0756",
                "is_starred": false,
                "has_rich_preview": false
            }
        ],
        "upload": true,
        "blocks": [
            {
                "type": "rich_text",
                "block_id": "NU3",
                "elements": [
                    {
                        "type": "rich_text_section",
                        "elements": [
                            {
                                "type": "text",
                                "text": "Hi "
                            },
                            {
                                "type": "user",
                                "user_id": "UV8T52QJ3"
                            },
                            {
                                "type": "text",
                                "text": ", Sorry for the late reply, I was busy with company work till late yesterday. I do not have a GitHub account unfortunately, i'll set it up by myself later.\n\nRegarding the logo, i can send you the working file, SVG, and the different formats. However I personally think the bright blue is a little too close to the facebook messenger app, but it still looks different as well.\n\nWhat are your thoughts? If its good to go i'll export the file :)"
                            }
                        ]
                    }
                ]
            }
        ],
        "user": "U010HGKFDNE",
        "display_as_bot": false,
        "ts": "1585679319.071100",
        "client_msg_id": "58c5d656-13e5-4b5a-9b73-ff627820a2d6",
        "thread_ts": "1585428921.036100",
        "parent_user_id": "U01072UT127"
    },
    {
        "type": "message",
        "subtype": "channel_join",
        "ts": "1585679892.071600",
        "user": "U01155M7M62",
        "text": "<@U01155M7M62> has joined the channel",
        "inviter": "U010HGKFDNE"
    },
    {
        "client_msg_id": "9c4de2f8-40d2-4eea-ae64-1cdbac27bf5b",
        "type": "message",
        "text": "Hey <@U010HGKFDNE> no problem, it’s an open community so we all have our time contraints. You’re right the color looks like the FB logo, but that could be nice if people can get confused and open the App :smile: . Seriously, I like it but if you feel it should be particularly different then add some imagination or a little touch to it. Let me know :slightly_smiling_face:",
        "user": "UV8T52QJ3",
        "ts": "1585681660.071700",
        "team": "TUU48M0T1",
        "user_team": "TUU48M0T1",
        "source_team": "TUU48M0T1",
        "user_profile": {
            "avatar_hash": "g96f14063d73",
            "image_72": "https:\/\/secure.gravatar.com\/avatar\/96f14063d73cc7867772731f881de414.jpg?s=72&d=https%3A%2F%2Fa.slack-edge.com%2Fdf10d%2Fimg%2Favatars%2Fava_0005-72.png",
            "first_name": "Hernán",
            "real_name": "Hernán Morales Durand",
            "display_name": "Hernán Morales Durand",
            "team": "TUU48M0T1",
            "name": "hernan.morales",
            "is_restricted": false,
            "is_ultra_restricted": false
        },
        "blocks": [
            {
                "type": "rich_text",
                "block_id": "hj+L",
                "elements": [
                    {
                        "type": "rich_text_section",
                        "elements": [
                            {
                                "type": "text",
                                "text": "Hey "
                            },
                            {
                                "type": "user",
                                "user_id": "U010HGKFDNE"
                            },
                            {
                                "type": "text",
                                "text": " no problem, it’s an open community so we all have our time contraints. You’re right the color looks like the FB logo, but that could be nice if people can get confused and open the App "
                            },
                            {
                                "type": "emoji",
                                "name": "smile"
                            },
                            {
                                "type": "text",
                                "text": " . Seriously, I like it but if you feel it should be particularly different then add some imagination or a little touch to it. Let me know "
                            },
                            {
                                "type": "emoji",
                                "name": "slightly_smiling_face"
                            }
                        ]
                    }
                ]
            }
        ],
        "thread_ts": "1585428921.036100",
        "parent_user_id": "U01072UT127",
        "reactions": [
            {
                "name": "rolling_on_the_floor_laughing",
                "users": [
                    "U010HGKFDNE"
                ],
                "count": 1
            }
        ]
    },
    {
        "client_msg_id": "51fe95d0-6aad-4f2a-abee-7f0d55b47d04",
        "type": "message",
        "text": "I also like it! Its absolutely fantastic",
        "user": "U01072UT127",
        "ts": "1585689594.071900",
        "team": "TUU48M0T1",
        "user_team": "TUU48M0T1",
        "source_team": "TUU48M0T1",
        "user_profile": {
            "avatar_hash": "65a47b12fd55",
            "image_72": "https:\/\/avatars.slack-edge.com\/2020-03-23\/1018603039072_65a47b12fd55dde2b3ca_72.jpg",
            "first_name": "David",
            "real_name": "David Suter",
            "display_name": "David Suter",
            "team": "TUU48M0T1",
            "name": "davidsuter01",
            "is_restricted": false,
            "is_ultra_restricted": false
        },
        "blocks": [
            {
                "type": "rich_text",
                "block_id": "YWhA",
                "elements": [
                    {
                        "type": "rich_text_section",
                        "elements": [
                            {
                                "type": "text",
                                "text": "I also like it! Its absolutely fantastic"
                            }
                        ]
                    }
                ]
            }
        ],
        "thread_ts": "1585428921.036100",
        "parent_user_id": "U01072UT127"
    }
]