[
    {
        "client_msg_id": "7d4c4357-7c64-4706-8be2-08646261a6dd",
        "type": "message",
        "text": "Dear all, <!channel> *meeting today at 8pm CET* with <@UV02WET96> and <@UV0QTJCMT> , and maybe <@UV85V64SD> and <@UVC9WMA7N>\n\n*They will tell us about the history behind the creation of this initiative, their vision when it was created and their vision for the futur, in order to feed the communication strategy* <@U011VF29MK2>\nThe meeting will be recorded! Feel free to join!\n\n<@U011VF29MK2>, <@U010Q3372P3> do you maybe have a list of questions they could prepare for the meeting?\n\nStay tuned!",
        "user": "UV9V03C8Y",
        "ts": "1587463578.107600",
        "team": "TUU48M0T1",
        "user_team": "TUU48M0T1",
        "source_team": "TUU48M0T1",
        "user_profile": {
            "avatar_hash": "177697fb7b8f",
            "image_72": "https:\/\/avatars.slack-edge.com\/2020-03-12\/996126178096_177697fb7b8ffa57649c_72.jpg",
            "first_name": "Camille",
            "real_name": "Camille Masselot - JOGL Program coordinator",
            "display_name": "Camille Masselot - JOGL coordinator",
            "team": "TUU48M0T1",
            "name": "masselot.camille",
            "is_restricted": false,
            "is_ultra_restricted": false
        },
        "blocks": [
            {
                "type": "rich_text",
                "block_id": "gryO",
                "elements": [
                    {
                        "type": "rich_text_section",
                        "elements": [
                            {
                                "type": "text",
                                "text": "Dear all, "
                            },
                            {
                                "type": "broadcast",
                                "range": "channel"
                            },
                            {
                                "type": "text",
                                "text": " "
                            },
                            {
                                "type": "text",
                                "text": "meeting today at 8pm CET ",
                                "style": {
                                    "bold": true
                                }
                            },
                            {
                                "type": "text",
                                "text": "with "
                            },
                            {
                                "type": "user",
                                "user_id": "UV02WET96"
                            },
                            {
                                "type": "text",
                                "text": " and "
                            },
                            {
                                "type": "user",
                                "user_id": "UV0QTJCMT"
                            },
                            {
                                "type": "text",
                                "text": " , and maybe "
                            },
                            {
                                "type": "user",
                                "user_id": "UV85V64SD"
                            },
                            {
                                "type": "text",
                                "text": " and "
                            },
                            {
                                "type": "user",
                                "user_id": "UVC9WMA7N"
                            },
                            {
                                "type": "text",
                                "text": "\n\n"
                            },
                            {
                                "type": "text",
                                "text": "They will tell us about the history behind the creation of this initiative, their vision when it was created and their vision for the futur, in order to feed the communication strategy",
                                "style": {
                                    "bold": true
                                }
                            },
                            {
                                "type": "text",
                                "text": " "
                            },
                            {
                                "type": "user",
                                "user_id": "U011VF29MK2"
                            },
                            {
                                "type": "text",
                                "text": "\nThe meeting will be recorded! Feel free to join!\n\n"
                            },
                            {
                                "type": "user",
                                "user_id": "U011VF29MK2"
                            },
                            {
                                "type": "text",
                                "text": ", "
                            },
                            {
                                "type": "user",
                                "user_id": "U010Q3372P3"
                            },
                            {
                                "type": "text",
                                "text": " do you maybe have a list of questions they could prepare for the meeting?\n\nStay tuned!"
                            }
                        ]
                    }
                ]
            }
        ],
        "reactions": [
            {
                "name": "+1",
                "users": [
                    "U011B6VLM2A",
                    "UV2SC7ZE3"
                ],
                "count": 2
            }
        ]
    },
    {
        "client_msg_id": "853297a4-a196-4064-8e7b-154ee6fd70aa",
        "type": "message",
        "text": "Hi David, All good, Camille coordinated.",
        "user": "U011VF29MK2",
        "ts": "1587484478.108100",
        "team": "TUU48M0T1",
        "user_team": "TUU48M0T1",
        "source_team": "TUU48M0T1",
        "user_profile": {
            "avatar_hash": "0ef0287e69f4",
            "image_72": "https:\/\/avatars.slack-edge.com\/2020-04-07\/1045707527815_0ef0287e69f4d3296eaf_72.jpg",
            "first_name": "Catherine",
            "real_name": "Catherine Coykendall",
            "display_name": "Catherine Coykendall - Marketing Consultant",
            "team": "TUU48M0T1",
            "name": "c.coyken1978",
            "is_restricted": false,
            "is_ultra_restricted": false
        },
        "blocks": [
            {
                "type": "rich_text",
                "block_id": "gXfN\/",
                "elements": [
                    {
                        "type": "rich_text_section",
                        "elements": [
                            {
                                "type": "text",
                                "text": "Hi David, All good, Camille coordinated."
                            }
                        ]
                    }
                ]
            }
        ],
        "thread_ts": "1587441874.103100",
        "parent_user_id": "UV2SC7ZE3"
    },
    {
        "client_msg_id": "88b5722a-540a-4c45-a4dd-51c37a823959",
        "type": "message",
        "text": "Anybody on the call in 2 min? Has anyone got an agenda?",
        "user": "U010APQC76J",
        "ts": "1587484720.111000",
        "team": "TUU48M0T1",
        "user_team": "TUU48M0T1",
        "source_team": "TUU48M0T1",
        "user_profile": {
            "avatar_hash": "751a8e7a94a5",
            "image_72": "https:\/\/avatars.slack-edge.com\/2020-03-25\/1026091401893_751a8e7a94a519bfd1d7_72.jpg",
            "first_name": "Hans",
            "real_name": "Hans Pfalzgraf",
            "display_name": "Hans P",
            "team": "TUU48M0T1",
            "name": "h.pfalzgraf",
            "is_restricted": false,
            "is_ultra_restricted": false
        },
        "blocks": [
            {
                "type": "rich_text",
                "block_id": "c7wk",
                "elements": [
                    {
                        "type": "rich_text_section",
                        "elements": [
                            {
                                "type": "text",
                                "text": "Anybody on the call in 2 min? Has anyone got an agenda?"
                            }
                        ]
                    }
                ]
            }
        ]
    },
    {
        "client_msg_id": "abc8d5d9-5d18-4ee4-b749-b99aa0c93a86",
        "type": "message",
        "text": "Hi <@UV9V03C8Y> <@U010Q3372P3> - do they have any presentation materials? If there's anything please send in advance.",
        "user": "U011VF29MK2",
        "ts": "1587484791.112000",
        "team": "TUU48M0T1",
        "user_team": "TUU48M0T1",
        "source_team": "TUU48M0T1",
        "user_profile": {
            "avatar_hash": "0ef0287e69f4",
            "image_72": "https:\/\/avatars.slack-edge.com\/2020-04-07\/1045707527815_0ef0287e69f4d3296eaf_72.jpg",
            "first_name": "Catherine",
            "real_name": "Catherine Coykendall",
            "display_name": "Catherine Coykendall - Marketing Consultant",
            "team": "TUU48M0T1",
            "name": "c.coyken1978",
            "is_restricted": false,
            "is_ultra_restricted": false
        },
        "blocks": [
            {
                "type": "rich_text",
                "block_id": "ORuYh",
                "elements": [
                    {
                        "type": "rich_text_section",
                        "elements": [
                            {
                                "type": "text",
                                "text": "Hi "
                            },
                            {
                                "type": "user",
                                "user_id": "UV9V03C8Y"
                            },
                            {
                                "type": "text",
                                "text": " "
                            },
                            {
                                "type": "user",
                                "user_id": "U010Q3372P3"
                            },
                            {
                                "type": "text",
                                "text": " - do they have any presentation materials? If there's anything please send in advance."
                            }
                        ]
                    }
                ]
            }
        ]
    },
    {
        "client_msg_id": "8a07c427-277f-4470-88d4-ee0dd3351788",
        "type": "message",
        "text": "We haven’t prepared an agenda from what i’ve checked let’s log in, we’ll figure it out",
        "user": "U01019BQXM3",
        "ts": "1587484898.112500",
        "team": "TUU48M0T1",
        "user_team": "TUU48M0T1",
        "source_team": "TUU48M0T1",
        "user_profile": {
            "avatar_hash": "7e0f35d8cc55",
            "image_72": "https:\/\/avatars.slack-edge.com\/2020-03-15\/988667349730_7e0f35d8cc556cd89565_72.jpg",
            "first_name": "Marc",
            "real_name": "Marc Bokobza",
            "display_name": "Marc Bokobza",
            "team": "TUU48M0T1",
            "name": "marcbokobza1",
            "is_restricted": false,
            "is_ultra_restricted": false
        },
        "blocks": [
            {
                "type": "rich_text",
                "block_id": "ABH\/",
                "elements": [
                    {
                        "type": "rich_text_section",
                        "elements": [
                            {
                                "type": "text",
                                "text": "We haven’t prepared an agenda from what i’ve checked let’s log in, we’ll figure it out"
                            }
                        ]
                    }
                ]
            }
        ]
    },
    {
        "client_msg_id": "b1745bf3-16d2-457f-b955-87ac67fb8e4d",
        "type": "message",
        "text": "<@UV2SC7ZE3> are you coming on the call?",
        "user": "U010APQC76J",
        "ts": "1587484929.112900",
        "team": "TUU48M0T1",
        "user_team": "TUU48M0T1",
        "source_team": "TUU48M0T1",
        "user_profile": {
            "avatar_hash": "751a8e7a94a5",
            "image_72": "https:\/\/avatars.slack-edge.com\/2020-03-25\/1026091401893_751a8e7a94a519bfd1d7_72.jpg",
            "first_name": "Hans",
            "real_name": "Hans Pfalzgraf",
            "display_name": "Hans P",
            "team": "TUU48M0T1",
            "name": "h.pfalzgraf",
            "is_restricted": false,
            "is_ultra_restricted": false
        },
        "blocks": [
            {
                "type": "rich_text",
                "block_id": "FMWa",
                "elements": [
                    {
                        "type": "rich_text_section",
                        "elements": [
                            {
                                "type": "user",
                                "user_id": "UV2SC7ZE3"
                            },
                            {
                                "type": "text",
                                "text": " are you coming on the call?"
                            }
                        ]
                    }
                ]
            }
        ]
    },
    {
        "client_msg_id": "e38e9cc2-bdfe-4baa-8845-dd94e5895d16",
        "type": "message",
        "text": "I’m on, sorry I didn’t get to see all the conversation stream until now",
        "user": "U010Q3372P3",
        "ts": "1587485284.113300",
        "team": "TUU48M0T1",
        "user_team": "TUU48M0T1",
        "source_team": "TUU48M0T1",
        "user_profile": {
            "avatar_hash": "95066184973b",
            "image_72": "https:\/\/avatars.slack-edge.com\/2020-03-30\/1036274198128_95066184973b1de50d1a_72.png",
            "first_name": "Kathryn",
            "real_name": "Kathryn Rowe",
            "display_name": "Kathryn Rowe",
            "team": "TUU48M0T1",
            "name": "kathryn.rowe",
            "is_restricted": false,
            "is_ultra_restricted": false
        },
        "blocks": [
            {
                "type": "rich_text",
                "block_id": "XewM",
                "elements": [
                    {
                        "type": "rich_text_section",
                        "elements": [
                            {
                                "type": "text",
                                "text": "I’m on, sorry I didn’t get to see all the conversation stream until now"
                            }
                        ]
                    }
                ]
            }
        ]
    },
    {
        "client_msg_id": "0c9049b9-da7e-45d8-a31c-07394f225636",
        "type": "message",
        "text": "<@U011B6VLM2A> these are the keywords I found there <https:\/\/docs.google.com\/document\/d\/1hEtUvcphnLp36zJLlLHoKfeNLZRLiOUvzViMr4hyIkg\/edit#>\n\"We are : \n• Open\n• Inclusive\n• Collaborative\n• Transdisciplinary\n•  Non governmental \"\n",
        "user": "U010APQC76J",
        "ts": "1587485959.114100",
        "team": "TUU48M0T1",
        "user_team": "TUU48M0T1",
        "source_team": "TUU48M0T1",
        "user_profile": {
            "avatar_hash": "751a8e7a94a5",
            "image_72": "https:\/\/avatars.slack-edge.com\/2020-03-25\/1026091401893_751a8e7a94a519bfd1d7_72.jpg",
            "first_name": "Hans",
            "real_name": "Hans Pfalzgraf",
            "display_name": "Hans P",
            "team": "TUU48M0T1",
            "name": "h.pfalzgraf",
            "is_restricted": false,
            "is_ultra_restricted": false
        },
        "blocks": [
            {
                "type": "rich_text",
                "block_id": "uyFIu",
                "elements": [
                    {
                        "type": "rich_text_section",
                        "elements": [
                            {
                                "type": "user",
                                "user_id": "U011B6VLM2A"
                            },
                            {
                                "type": "text",
                                "text": " these are the keywords I found there "
                            },
                            {
                                "type": "link",
                                "url": "https:\/\/docs.google.com\/document\/d\/1hEtUvcphnLp36zJLlLHoKfeNLZRLiOUvzViMr4hyIkg\/edit#"
                            },
                            {
                                "type": "text",
                                "text": "\n\"We are : \n"
                            }
                        ]
                    },
                    {
                        "type": "rich_text_list",
                        "elements": [
                            {
                                "type": "rich_text_section",
                                "elements": [
                                    {
                                        "type": "text",
                                        "text": "Open"
                                    }
                                ]
                            },
                            {
                                "type": "rich_text_section",
                                "elements": [
                                    {
                                        "type": "text",
                                        "text": "Inclusive"
                                    }
                                ]
                            },
                            {
                                "type": "rich_text_section",
                                "elements": [
                                    {
                                        "type": "text",
                                        "text": "Collaborative"
                                    }
                                ]
                            },
                            {
                                "type": "rich_text_section",
                                "elements": [
                                    {
                                        "type": "text",
                                        "text": "Transdisciplinary"
                                    }
                                ]
                            },
                            {
                                "type": "rich_text_section",
                                "elements": [
                                    {
                                        "type": "text",
                                        "text": " Non governmental \""
                                    }
                                ]
                            }
                        ],
                        "style": "bullet",
                        "indent": 0
                    },
                    {
                        "type": "rich_text_section",
                        "elements": []
                    }
                ]
            }
        ],
        "reactions": [
            {
                "name": "+1",
                "users": [
                    "U011B6VLM2A"
                ],
                "count": 1
            }
        ]
    },
    {
        "client_msg_id": "98aee66a-32d0-4a31-81a4-f31336ec0d04",
        "type": "message",
        "text": "And in this document, under \"Audience objectives\", there are many different ideas of what our communications effort could achieve. It would be nice to know if any of those objectives are particularly important right now\n<https:\/\/docs.google.com\/document\/d\/1JzwV3uq88xpBbJgmAP3xv1r6O05Z3TRU_FFR60U7Bcs\/edit#>",
        "user": "U010APQC76J",
        "ts": "1587486222.115100",
        "team": "TUU48M0T1",
        "user_team": "TUU48M0T1",
        "source_team": "TUU48M0T1",
        "user_profile": {
            "avatar_hash": "751a8e7a94a5",
            "image_72": "https:\/\/avatars.slack-edge.com\/2020-03-25\/1026091401893_751a8e7a94a519bfd1d7_72.jpg",
            "first_name": "Hans",
            "real_name": "Hans Pfalzgraf",
            "display_name": "Hans P",
            "team": "TUU48M0T1",
            "name": "h.pfalzgraf",
            "is_restricted": false,
            "is_ultra_restricted": false
        },
        "blocks": [
            {
                "type": "rich_text",
                "block_id": "QEP",
                "elements": [
                    {
                        "type": "rich_text_section",
                        "elements": [
                            {
                                "type": "text",
                                "text": "And in this document, under \"Audience objectives\", there are many different ideas of what our communications effort could achieve. It would be nice to know if any of those objectives are particularly important right now\n"
                            },
                            {
                                "type": "link",
                                "url": "https:\/\/docs.google.com\/document\/d\/1JzwV3uq88xpBbJgmAP3xv1r6O05Z3TRU_FFR60U7Bcs\/edit#"
                            }
                        ]
                    }
                ]
            }
        ]
    },
    {
        "client_msg_id": "9da362ed-faae-41fe-90bd-046a2840f804",
        "type": "message",
        "text": "<@U011VF29MK2> I pasted and added to your deck outline in our comms drive: <https:\/\/docs.google.com\/document\/d\/1IautcpBmTclgx6fo0hg19RWQj7EwY-x1txptEhijb3M\/edit>",
        "user": "U010APQC76J",
        "ts": "1587487803.115600",
        "team": "TUU48M0T1",
        "user_team": "TUU48M0T1",
        "source_team": "TUU48M0T1",
        "user_profile": {
            "avatar_hash": "751a8e7a94a5",
            "image_72": "https:\/\/avatars.slack-edge.com\/2020-03-25\/1026091401893_751a8e7a94a519bfd1d7_72.jpg",
            "first_name": "Hans",
            "real_name": "Hans Pfalzgraf",
            "display_name": "Hans P",
            "team": "TUU48M0T1",
            "name": "h.pfalzgraf",
            "is_restricted": false,
            "is_ultra_restricted": false
        },
        "edited": {
            "user": "U010APQC76J",
            "ts": "1587487895.000000"
        },
        "blocks": [
            {
                "type": "rich_text",
                "block_id": "vnD",
                "elements": [
                    {
                        "type": "rich_text_section",
                        "elements": [
                            {
                                "type": "user",
                                "user_id": "U011VF29MK2"
                            },
                            {
                                "type": "text",
                                "text": " I pasted and added to your deck outline in our comms drive: "
                            },
                            {
                                "type": "link",
                                "url": "https:\/\/docs.google.com\/document\/d\/1IautcpBmTclgx6fo0hg19RWQj7EwY-x1txptEhijb3M\/edit"
                            }
                        ]
                    }
                ]
            }
        ]
    },
    {
        "client_msg_id": "607a5c1c-cc4c-4d77-9fc4-fdcb2645fcb0",
        "type": "message",
        "text": "I also wanted to talk about the global community call too. Last time, it was hard to keep to time as we get more and more projects with exciting updates. Would it make sense to split this call? Have one call with mainly project updates, and one with mainly programme and workgroup updates?",
        "user": "U010APQC76J",
        "ts": "1587488875.117100",
        "team": "TUU48M0T1",
        "user_team": "TUU48M0T1",
        "source_team": "TUU48M0T1",
        "user_profile": {
            "avatar_hash": "751a8e7a94a5",
            "image_72": "https:\/\/avatars.slack-edge.com\/2020-03-25\/1026091401893_751a8e7a94a519bfd1d7_72.jpg",
            "first_name": "Hans",
            "real_name": "Hans Pfalzgraf",
            "display_name": "Hans P",
            "team": "TUU48M0T1",
            "name": "h.pfalzgraf",
            "is_restricted": false,
            "is_ultra_restricted": false
        },
        "blocks": [
            {
                "type": "rich_text",
                "block_id": "IzS",
                "elements": [
                    {
                        "type": "rich_text_section",
                        "elements": [
                            {
                                "type": "text",
                                "text": "I also wanted to talk about the global community call too. Last time, it was hard to keep to time as we get more and more projects with exciting updates. Would it make sense to split this call? Have one call with mainly project updates, and one with mainly programme and workgroup updates?"
                            }
                        ]
                    }
                ]
            }
        ],
        "thread_ts": "1587488875.117100",
        "reply_count": 6,
        "reply_users_count": 4,
        "latest_reply": "1587595950.152300",
        "reply_users": [
            "U010APQC76J",
            "UV2SC7ZE3",
            "U011B6VLM2A",
            "UV02WET96"
        ],
        "replies": [
            {
                "user": "U010APQC76J",
                "ts": "1587489396.120200"
            },
            {
                "user": "UV2SC7ZE3",
                "ts": "1587490174.122400"
            },
            {
                "user": "UV2SC7ZE3",
                "ts": "1587490207.122600"
            },
            {
                "user": "U011B6VLM2A",
                "ts": "1587490356.123000"
            },
            {
                "user": "U010APQC76J",
                "ts": "1587575259.134800"
            },
            {
                "user": "UV02WET96",
                "ts": "1587595950.152300"
            }
        ],
        "subscribed": false
    },
    {
        "client_msg_id": "57247446-4dc0-4814-86e8-48a169238c06",
        "type": "message",
        "text": "Sorry. Let me get rid of it.",
        "user": "UV2SC7ZE3",
        "ts": "1587489096.118800",
        "team": "TUU48M0T1",
        "user_team": "TUU48M0T1",
        "source_team": "TUU48M0T1",
        "user_profile": {
            "avatar_hash": "d28dd0d076e8",
            "image_72": "https:\/\/avatars.slack-edge.com\/2020-03-14\/987873094258_d28dd0d076e8fa9a8409_72.png",
            "first_name": "David",
            "real_name": "David Lu",
            "display_name": "David Lu",
            "team": "TUU48M0T1",
            "name": "ludavidyi",
            "is_restricted": false,
            "is_ultra_restricted": false
        },
        "blocks": [
            {
                "type": "rich_text",
                "block_id": "vzr",
                "elements": [
                    {
                        "type": "rich_text_section",
                        "elements": [
                            {
                                "type": "text",
                                "text": "Sorry. Let me get rid of it."
                            }
                        ]
                    }
                ]
            }
        ]
    },
    {
        "client_msg_id": "8db9cccf-208e-4981-abcc-8840cc917300",
        "type": "message",
        "text": "For the Edugame recruitment, have the posts in the schedule been published already? I was wondering if the call to action was easy to follow. Will there be some text added to the image? For example with clickable links, hopefully bringing people to the Edugame project already <@U0103LPAWQ4> <@U01019BQXM3>",
        "user": "U010APQC76J",
        "ts": "1587489147.119500",
        "team": "TUU48M0T1",
        "user_team": "TUU48M0T1",
        "source_team": "TUU48M0T1",
        "user_profile": {
            "avatar_hash": "751a8e7a94a5",
            "image_72": "https:\/\/avatars.slack-edge.com\/2020-03-25\/1026091401893_751a8e7a94a519bfd1d7_72.jpg",
            "first_name": "Hans",
            "real_name": "Hans Pfalzgraf",
            "display_name": "Hans P",
            "team": "TUU48M0T1",
            "name": "h.pfalzgraf",
            "is_restricted": false,
            "is_ultra_restricted": false
        },
        "blocks": [
            {
                "type": "rich_text",
                "block_id": "JWEz",
                "elements": [
                    {
                        "type": "rich_text_section",
                        "elements": [
                            {
                                "type": "text",
                                "text": "For the Edugame recruitment, have the posts in the schedule been published already? I was wondering if the call to action was easy to follow. Will there be some text added to the image? For example with clickable links, hopefully bringing people to the Edugame project already "
                            },
                            {
                                "type": "user",
                                "user_id": "U0103LPAWQ4"
                            },
                            {
                                "type": "text",
                                "text": " "
                            },
                            {
                                "type": "user",
                                "user_id": "U01019BQXM3"
                            }
                        ]
                    }
                ]
            }
        ],
        "thread_ts": "1587489147.119500",
        "reply_count": 4,
        "reply_users_count": 2,
        "latest_reply": "1587575453.136000",
        "reply_users": [
            "U0103LPAWQ4",
            "U010APQC76J"
        ],
        "replies": [
            {
                "user": "U0103LPAWQ4",
                "ts": "1587514811.131100"
            },
            {
                "user": "U0103LPAWQ4",
                "ts": "1587514975.131500"
            },
            {
                "user": "U010APQC76J",
                "ts": "1587575287.135000"
            },
            {
                "user": "U010APQC76J",
                "ts": "1587575453.136000"
            }
        ],
        "subscribed": false
    },
    {
        "client_msg_id": "3198d4bb-4bde-421d-94cd-4145d1127f8f",
        "type": "message",
        "text": "<@UV9V03C8Y> Can you kick workstreams out of communications? I accidentally added it but I can't remove it",
        "user": "UV2SC7ZE3",
        "ts": "1587489265.120100",
        "team": "TUU48M0T1",
        "user_team": "TUU48M0T1",
        "source_team": "TUU48M0T1",
        "user_profile": {
            "avatar_hash": "d28dd0d076e8",
            "image_72": "https:\/\/avatars.slack-edge.com\/2020-03-14\/987873094258_d28dd0d076e8fa9a8409_72.png",
            "first_name": "David",
            "real_name": "David Lu",
            "display_name": "David Lu",
            "team": "TUU48M0T1",
            "name": "ludavidyi",
            "is_restricted": false,
            "is_ultra_restricted": false
        },
        "blocks": [
            {
                "type": "rich_text",
                "block_id": "7bTl",
                "elements": [
                    {
                        "type": "rich_text_section",
                        "elements": [
                            {
                                "type": "user",
                                "user_id": "UV9V03C8Y"
                            },
                            {
                                "type": "text",
                                "text": " Can you kick workstreams out of communications? I accidentally added it but I can't remove it"
                            }
                        ]
                    }
                ]
            }
        ],
        "thread_ts": "1587489265.120100",
        "reply_count": 2,
        "reply_users_count": 2,
        "latest_reply": "1587490227.122800",
        "reply_users": [
            "UV0QTJCMT",
            "UV2SC7ZE3"
        ],
        "replies": [
            {
                "user": "UV0QTJCMT",
                "ts": "1587489849.120900"
            },
            {
                "user": "UV2SC7ZE3",
                "ts": "1587490227.122800"
            }
        ],
        "subscribed": false
    },
    {
        "client_msg_id": "03e93161-3be0-4dae-acd4-08c60d6b6f66",
        "type": "message",
        "text": "<@UV02WET96> didn't you also think that the global community calls would be getting a bit too long? Do you have any ideas for keeping them within a reasonable time?",
        "user": "U010APQC76J",
        "ts": "1587489396.120200",
        "team": "TUU48M0T1",
        "user_team": "TUU48M0T1",
        "source_team": "TUU48M0T1",
        "user_profile": {
            "avatar_hash": "751a8e7a94a5",
            "image_72": "https:\/\/avatars.slack-edge.com\/2020-03-25\/1026091401893_751a8e7a94a519bfd1d7_72.jpg",
            "first_name": "Hans",
            "real_name": "Hans Pfalzgraf",
            "display_name": "Hans P",
            "team": "TUU48M0T1",
            "name": "h.pfalzgraf",
            "is_restricted": false,
            "is_ultra_restricted": false
        },
        "blocks": [
            {
                "type": "rich_text",
                "block_id": "uBj",
                "elements": [
                    {
                        "type": "rich_text_section",
                        "elements": [
                            {
                                "type": "user",
                                "user_id": "UV02WET96"
                            },
                            {
                                "type": "text",
                                "text": " didn't you also think that the global community calls would be getting a bit too long? Do you have any ideas for keeping them within a reasonable time?"
                            }
                        ]
                    }
                ]
            }
        ],
        "thread_ts": "1587488875.117100",
        "parent_user_id": "U010APQC76J"
    },
    {
        "client_msg_id": "A640704C-A056-4C5E-BF6E-CB21A5900CE0",
        "type": "message",
        "text": "i think i removed it—does it show up as removed for u",
        "user": "UV0QTJCMT",
        "ts": "1587489849.120900",
        "team": "TUU48M0T1",
        "user_team": "TUU48M0T1",
        "source_team": "TUU48M0T1",
        "user_profile": {
            "avatar_hash": "06a6ae8f69d1",
            "image_72": "https:\/\/avatars.slack-edge.com\/2020-04-13\/1060635499315_06a6ae8f69d18f1ad464_72.png",
            "first_name": "Katherine",
            "real_name": "Katherine Holo",
            "display_name": "Kat Holo - Co-Organizer of OpenCOVID19",
            "team": "TUU48M0T1",
            "name": "katherineh245",
            "is_restricted": false,
            "is_ultra_restricted": false
        },
        "blocks": [
            {
                "type": "rich_text",
                "block_id": "rN1",
                "elements": [
                    {
                        "type": "rich_text_section",
                        "elements": [
                            {
                                "type": "text",
                                "text": "i think i removed it—does it show up as removed for u"
                            }
                        ]
                    }
                ]
            }
        ],
        "thread_ts": "1587489265.120100",
        "parent_user_id": "UV2SC7ZE3"
    },
    {
        "client_msg_id": "0ADA9B70-8CCE-45CE-8C48-41EDC6A0620C",
        "type": "message",
        "text": "did someone @here create the update slideshow for this week’s global community call? or if we’re using the same slideshow did someone reset the dates? ",
        "user": "UV0QTJCMT",
        "ts": "1587489979.122200",
        "team": "TUU48M0T1",
        "user_team": "TUU48M0T1",
        "source_team": "TUU48M0T1",
        "user_profile": {
            "avatar_hash": "06a6ae8f69d1",
            "image_72": "https:\/\/avatars.slack-edge.com\/2020-04-13\/1060635499315_06a6ae8f69d18f1ad464_72.png",
            "first_name": "Katherine",
            "real_name": "Katherine Holo",
            "display_name": "Kat Holo - Co-Organizer of OpenCOVID19",
            "team": "TUU48M0T1",
            "name": "katherineh245",
            "is_restricted": false,
            "is_ultra_restricted": false
        },
        "edited": {
            "user": "UV0QTJCMT",
            "ts": "1587490004.000000"
        },
        "blocks": [
            {
                "type": "rich_text",
                "block_id": "j6gw",
                "elements": [
                    {
                        "type": "rich_text_section",
                        "elements": [
                            {
                                "type": "text",
                                "text": "did someone "
                            },
                            {
                                "type": "text",
                                "text": "@here"
                            },
                            {
                                "type": "text",
                                "text": " create the update slideshow for this week’s global community call? or if we’re using the same slideshow did someone reset the dates? "
                            }
                        ]
                    }
                ]
            }
        ]
    },
    {
        "client_msg_id": "f3d361b3-9f02-4772-bfaf-5da9fa4bf21b",
        "type": "message",
        "text": "<@U011B6VLM2A> had a suggestion as to how the community calls should be organized. She introduced it at a meeting earlier today",
        "user": "UV2SC7ZE3",
        "ts": "1587490174.122400",
        "team": "TUU48M0T1",
        "user_team": "TUU48M0T1",
        "source_team": "TUU48M0T1",
        "user_profile": {
            "avatar_hash": "d28dd0d076e8",
            "image_72": "https:\/\/avatars.slack-edge.com\/2020-03-14\/987873094258_d28dd0d076e8fa9a8409_72.png",
            "first_name": "David",
            "real_name": "David Lu",
            "display_name": "David Lu",
            "team": "TUU48M0T1",
            "name": "ludavidyi",
            "is_restricted": false,
            "is_ultra_restricted": false
        },
        "blocks": [
            {
                "type": "rich_text",
                "block_id": "k0m6",
                "elements": [
                    {
                        "type": "rich_text_section",
                        "elements": [
                            {
                                "type": "user",
                                "user_id": "U011B6VLM2A"
                            },
                            {
                                "type": "text",
                                "text": " had a suggestion as to how the community calls should be organized. She introduced it at a meeting earlier today"
                            }
                        ]
                    }
                ]
            }
        ],
        "thread_ts": "1587488875.117100",
        "parent_user_id": "U010APQC76J"
    },
    {
        "client_msg_id": "32c4f22f-684c-4283-9f89-08d2e9014540",
        "type": "message",
        "text": "Not sure if you were able to make the meeting <@U010APQC76J> but one idea was to limit prgm and prj updates to 30 minutes and leave the remaining time to open discussion",
        "user": "UV2SC7ZE3",
        "ts": "1587490207.122600",
        "team": "TUU48M0T1",
        "user_team": "TUU48M0T1",
        "source_team": "TUU48M0T1",
        "user_profile": {
            "avatar_hash": "d28dd0d076e8",
            "image_72": "https:\/\/avatars.slack-edge.com\/2020-03-14\/987873094258_d28dd0d076e8fa9a8409_72.png",
            "first_name": "David",
            "real_name": "David Lu",
            "display_name": "David Lu",
            "team": "TUU48M0T1",
            "name": "ludavidyi",
            "is_restricted": false,
            "is_ultra_restricted": false
        },
        "blocks": [
            {
                "type": "rich_text",
                "block_id": "3Fm\/W",
                "elements": [
                    {
                        "type": "rich_text_section",
                        "elements": [
                            {
                                "type": "text",
                                "text": "Not sure if you were able to make the meeting "
                            },
                            {
                                "type": "user",
                                "user_id": "U010APQC76J"
                            },
                            {
                                "type": "text",
                                "text": " but one idea was to limit prgm and prj updates to 30 minutes and leave the remaining time to open discussion"
                            }
                        ]
                    }
                ]
            }
        ],
        "thread_ts": "1587488875.117100",
        "parent_user_id": "U010APQC76J"
    },
    {
        "client_msg_id": "48ce3dde-19df-4a80-a80f-e5039f8fcb95",
        "type": "message",
        "text": "It does not, but I don't think it should matter",
        "user": "UV2SC7ZE3",
        "ts": "1587490227.122800",
        "team": "TUU48M0T1",
        "user_team": "TUU48M0T1",
        "source_team": "TUU48M0T1",
        "user_profile": {
            "avatar_hash": "d28dd0d076e8",
            "image_72": "https:\/\/avatars.slack-edge.com\/2020-03-14\/987873094258_d28dd0d076e8fa9a8409_72.png",
            "first_name": "David",
            "real_name": "David Lu",
            "display_name": "David Lu",
            "team": "TUU48M0T1",
            "name": "ludavidyi",
            "is_restricted": false,
            "is_ultra_restricted": false
        },
        "blocks": [
            {
                "type": "rich_text",
                "block_id": "wjNQ",
                "elements": [
                    {
                        "type": "rich_text_section",
                        "elements": [
                            {
                                "type": "text",
                                "text": "It does not, but I don't think it should matter"
                            }
                        ]
                    }
                ]
            }
        ],
        "thread_ts": "1587489265.120100",
        "parent_user_id": "UV2SC7ZE3",
        "reactions": [
            {
                "name": "+1",
                "users": [
                    "UV0QTJCMT"
                ],
                "count": 1
            }
        ]
    },
    {
        "client_msg_id": "022b3ba6-35bf-45d3-ae16-726f205da31f",
        "type": "message",
        "text": "<@U010APQC76J> — just a suggestion:\n• 10-15 minutes of *program updates:* \nNew systems, tools, processes _(e.g.: changes to onboarding process)_\nNew partnerships\nNew types of support for community _(e.g.: new rounds of funding)_\nOther current events _(e.g. announcing grant recipients)_\n• 15 minutes of *project teams updates:* \n5 minutes: new projects or members (max. 30 seconds each)\n5 minutes: existing project successes (max. 30 seconds each)\n5 minutes: important requests or needs (max. 30 seconds each) \n• 30 minutes: *Open conversation* (conversation prompts and\/or project spotlight)",
        "user": "U011B6VLM2A",
        "ts": "1587490356.123000",
        "team": "TUU48M0T1",
        "user_team": "TUU48M0T1",
        "source_team": "TUU48M0T1",
        "user_profile": {
            "avatar_hash": "4231dc598cfc",
            "image_72": "https:\/\/avatars.slack-edge.com\/2020-04-02\/1044784558839_4231dc598cfc2e59c4c4_72.jpg",
            "first_name": "Alix",
            "real_name": "Alix Mains",
            "display_name": "Alix Mains - JOGL Coordinator",
            "team": "TUU48M0T1",
            "name": "alixhmains",
            "is_restricted": false,
            "is_ultra_restricted": false
        },
        "blocks": [
            {
                "type": "rich_text",
                "block_id": "r2c+",
                "elements": [
                    {
                        "type": "rich_text_section",
                        "elements": [
                            {
                                "type": "user",
                                "user_id": "U010APQC76J"
                            },
                            {
                                "type": "text",
                                "text": " — just a suggestion:\n"
                            }
                        ]
                    },
                    {
                        "type": "rich_text_list",
                        "elements": [
                            {
                                "type": "rich_text_section",
                                "elements": [
                                    {
                                        "type": "text",
                                        "text": "10-15 minutes of "
                                    },
                                    {
                                        "type": "text",
                                        "text": "program updates: ",
                                        "style": {
                                            "bold": true
                                        }
                                    }
                                ]
                            }
                        ],
                        "style": "bullet",
                        "indent": 0
                    },
                    {
                        "type": "rich_text_section",
                        "elements": [
                            {
                                "type": "text",
                                "text": "New systems, tools, processes "
                            },
                            {
                                "type": "text",
                                "text": "(e.g.: changes to onboarding process)",
                                "style": {
                                    "italic": true
                                }
                            },
                            {
                                "type": "text",
                                "text": "\nNew partnerships\nNew types of support for community "
                            },
                            {
                                "type": "text",
                                "text": "(e.g.: new rounds of funding)",
                                "style": {
                                    "italic": true
                                }
                            },
                            {
                                "type": "text",
                                "text": "\nOther current events "
                            },
                            {
                                "type": "text",
                                "text": "(e.g. announcing grant recipients)",
                                "style": {
                                    "italic": true
                                }
                            },
                            {
                                "type": "text",
                                "text": "\n"
                            }
                        ]
                    },
                    {
                        "type": "rich_text_list",
                        "elements": [
                            {
                                "type": "rich_text_section",
                                "elements": [
                                    {
                                        "type": "text",
                                        "text": "15 minutes of "
                                    },
                                    {
                                        "type": "text",
                                        "text": "project teams updates: ",
                                        "style": {
                                            "bold": true
                                        }
                                    }
                                ]
                            }
                        ],
                        "style": "bullet",
                        "indent": 0
                    },
                    {
                        "type": "rich_text_section",
                        "elements": [
                            {
                                "type": "text",
                                "text": "5 minutes: new projects or members (max. 30 seconds each)\n5 minutes: existing project successes (max. 30 seconds each)\n5 minutes: important requests or needs (max. 30 seconds each) \n"
                            }
                        ]
                    },
                    {
                        "type": "rich_text_list",
                        "elements": [
                            {
                                "type": "rich_text_section",
                                "elements": [
                                    {
                                        "type": "text",
                                        "text": "30 minutes: "
                                    },
                                    {
                                        "type": "text",
                                        "text": "Open conversation",
                                        "style": {
                                            "bold": true
                                        }
                                    },
                                    {
                                        "type": "text",
                                        "text": " (conversation prompts and\/or project spotlight)"
                                    }
                                ]
                            }
                        ],
                        "style": "bullet",
                        "indent": 0
                    }
                ]
            }
        ],
        "thread_ts": "1587488875.117100",
        "parent_user_id": "U010APQC76J"
    },
    {
        "type": "message",
        "text": "<@U011VF29MK2> not sure if this helps with the differences\/overlaps between JOGL and OpenCovid19 (it's not a comprehensive list of everything but has some of the key points)",
        "files": [
            {
                "id": "F0127LUJ8A1",
                "created": 1587496391,
                "timestamp": 1587496391,
                "name": "image.png",
                "title": "image.png",
                "mimetype": "image\/png",
                "filetype": "png",
                "pretty_type": "PNG",
                "user": "UV0QTJCMT",
                "editable": false,
                "size": 196555,
                "mode": "hosted",
                "is_external": false,
                "external_type": "",
                "is_public": true,
                "public_url_shared": false,
                "display_as_bot": false,
                "username": "",
                "url_private": "https:\/\/files.slack.com\/files-pri\/TUU48M0T1-F0127LUJ8A1\/image.png?t=xoxe-980144714919-1133254701825-1120841107731-daf595b5a7d6c9028b0b02a925032e36",
                "url_private_download": "https:\/\/files.slack.com\/files-pri\/TUU48M0T1-F0127LUJ8A1\/download\/image.png?t=xoxe-980144714919-1133254701825-1120841107731-daf595b5a7d6c9028b0b02a925032e36",
                "thumb_64": "https:\/\/files.slack.com\/files-tmb\/TUU48M0T1-F0127LUJ8A1-aa2d079904\/image_64.png?t=xoxe-980144714919-1133254701825-1120841107731-daf595b5a7d6c9028b0b02a925032e36",
                "thumb_80": "https:\/\/files.slack.com\/files-tmb\/TUU48M0T1-F0127LUJ8A1-aa2d079904\/image_80.png?t=xoxe-980144714919-1133254701825-1120841107731-daf595b5a7d6c9028b0b02a925032e36",
                "thumb_360": "https:\/\/files.slack.com\/files-tmb\/TUU48M0T1-F0127LUJ8A1-aa2d079904\/image_360.png?t=xoxe-980144714919-1133254701825-1120841107731-daf595b5a7d6c9028b0b02a925032e36",
                "thumb_360_w": 360,
                "thumb_360_h": 204,
                "thumb_480": "https:\/\/files.slack.com\/files-tmb\/TUU48M0T1-F0127LUJ8A1-aa2d079904\/image_480.png?t=xoxe-980144714919-1133254701825-1120841107731-daf595b5a7d6c9028b0b02a925032e36",
                "thumb_480_w": 480,
                "thumb_480_h": 271,
                "thumb_160": "https:\/\/files.slack.com\/files-tmb\/TUU48M0T1-F0127LUJ8A1-aa2d079904\/image_160.png?t=xoxe-980144714919-1133254701825-1120841107731-daf595b5a7d6c9028b0b02a925032e36",
                "thumb_720": "https:\/\/files.slack.com\/files-tmb\/TUU48M0T1-F0127LUJ8A1-aa2d079904\/image_720.png?t=xoxe-980144714919-1133254701825-1120841107731-daf595b5a7d6c9028b0b02a925032e36",
                "thumb_720_w": 720,
                "thumb_720_h": 407,
                "thumb_800": "https:\/\/files.slack.com\/files-tmb\/TUU48M0T1-F0127LUJ8A1-aa2d079904\/image_800.png?t=xoxe-980144714919-1133254701825-1120841107731-daf595b5a7d6c9028b0b02a925032e36",
                "thumb_800_w": 800,
                "thumb_800_h": 452,
                "thumb_960": "https:\/\/files.slack.com\/files-tmb\/TUU48M0T1-F0127LUJ8A1-aa2d079904\/image_960.png?t=xoxe-980144714919-1133254701825-1120841107731-daf595b5a7d6c9028b0b02a925032e36",
                "thumb_960_w": 960,
                "thumb_960_h": 543,
                "thumb_1024": "https:\/\/files.slack.com\/files-tmb\/TUU48M0T1-F0127LUJ8A1-aa2d079904\/image_1024.png?t=xoxe-980144714919-1133254701825-1120841107731-daf595b5a7d6c9028b0b02a925032e36",
                "thumb_1024_w": 1024,
                "thumb_1024_h": 579,
                "original_w": 1047,
                "original_h": 592,
                "thumb_tiny": "AwAbADDTqCOcTSSRgMu3ofWh5JAxAK8H0pgeQE4K8+x\/xp2Asbf9pqNn+0351HG8jMASv5U0yvzyv5UWAlQncykNgfxHvT6rCRwSQVyevy\/\/AF6ejuzAEjH0osK4x8b2470nHp+tWCik5IpPLT+7QMiixvFJjk8ipwoB4FHlp\/douBXwPUU+MYYcg1L5af3aUIo6Ci4j\/9k=",
                "permalink": "https:\/\/open-covid19.slack.com\/files\/UV0QTJCMT\/F0127LUJ8A1\/image.png",
                "permalink_public": "https:\/\/slack-files.com\/TUU48M0T1-F0127LUJ8A1-77d3eb7100",
                "is_starred": false,
                "has_rich_preview": false
            }
        ],
        "upload": true,
        "blocks": [
            {
                "type": "rich_text",
                "block_id": "oIJh",
                "elements": [
                    {
                        "type": "rich_text_section",
                        "elements": [
                            {
                                "type": "user",
                                "user_id": "U011VF29MK2"
                            },
                            {
                                "type": "text",
                                "text": " not sure if this helps with the differences\/overlaps between JOGL and OpenCovid19 (it's not a comprehensive list of everything but has some of the key points)"
                            }
                        ]
                    }
                ]
            }
        ],
        "user": "UV0QTJCMT",
        "display_as_bot": false,
        "ts": "1587496394.123500",
        "edited": {
            "user": "UV0QTJCMT",
            "ts": "1587496436.000000"
        },
        "client_msg_id": "5ac77b4c-2be1-41d5-acd3-e12c1b1296ed",
        "thread_ts": "1587496394.123500",
        "reply_count": 1,
        "reply_users_count": 1,
        "latest_reply": "1587568982.133900",
        "reply_users": [
            "UV02WET96"
        ],
        "replies": [
            {
                "user": "UV02WET96",
                "ts": "1587568982.133900"
            }
        ],
        "subscribed": false,
        "reactions": [
            {
                "name": "100",
                "users": [
                    "UV2SC7ZE3",
                    "U011VF29MK2",
                    "UVC9WMA7N",
                    "U010APQC76J"
                ],
                "count": 4
            },
            {
                "name": "+1",
                "users": [
                    "U011VF29MK2",
                    "UVC9WMA7N"
                ],
                "count": 2
            },
            {
                "name": "slightly_smiling_face",
                "users": [
                    "U011VF29MK2"
                ],
                "count": 1
            }
        ]
    },
    {
        "client_msg_id": "75d66209-4d42-4ba5-a6cc-65bf155ad128",
        "type": "message",
        "text": "Hi <@UV02WET96> <@UV0QTJCMT> <@U01019BQXM3> <@UV9V03C8Y> <@U010Q3372P3> <@UV2SC7ZE3>  - many thanks for your time earlier today regarding reviewing the outline for the digital brand strategy. Tomorrow I will be in touch with a go forward plan for the strategy deck, including  any data that needs to be sourced.",
        "user": "U011VF29MK2",
        "ts": "1587511733.130700",
        "team": "TUU48M0T1",
        "user_team": "TUU48M0T1",
        "source_team": "TUU48M0T1",
        "user_profile": {
            "avatar_hash": "0ef0287e69f4",
            "image_72": "https:\/\/avatars.slack-edge.com\/2020-04-07\/1045707527815_0ef0287e69f4d3296eaf_72.jpg",
            "first_name": "Catherine",
            "real_name": "Catherine Coykendall",
            "display_name": "Catherine Coykendall - Marketing Consultant",
            "team": "TUU48M0T1",
            "name": "c.coyken1978",
            "is_restricted": false,
            "is_ultra_restricted": false
        },
        "blocks": [
            {
                "type": "rich_text",
                "block_id": "dfdO",
                "elements": [
                    {
                        "type": "rich_text_section",
                        "elements": [
                            {
                                "type": "text",
                                "text": "Hi "
                            },
                            {
                                "type": "user",
                                "user_id": "UV02WET96"
                            },
                            {
                                "type": "text",
                                "text": " "
                            },
                            {
                                "type": "user",
                                "user_id": "UV0QTJCMT"
                            },
                            {
                                "type": "text",
                                "text": " "
                            },
                            {
                                "type": "user",
                                "user_id": "U01019BQXM3"
                            },
                            {
                                "type": "text",
                                "text": " "
                            },
                            {
                                "type": "user",
                                "user_id": "UV9V03C8Y"
                            },
                            {
                                "type": "text",
                                "text": " "
                            },
                            {
                                "type": "user",
                                "user_id": "U010Q3372P3"
                            },
                            {
                                "type": "text",
                                "text": " "
                            },
                            {
                                "type": "user",
                                "user_id": "UV2SC7ZE3"
                            },
                            {
                                "type": "text",
                                "text": "  - many thanks for your time earlier today regarding reviewing the outline for the digital brand strategy. Tomorrow I will be in touch with a go forward plan for the strategy deck, including  any data that needs to be sourced."
                            }
                        ]
                    }
                ]
            }
        ],
        "reactions": [
            {
                "name": "+1",
                "users": [
                    "UV2SC7ZE3",
                    "U0101DKUALV",
                    "UV85V64SD"
                ],
                "count": 3
            }
        ]
    },
    {
        "client_msg_id": "c1d0cf50-760a-42b3-88a0-63ca2d158129",
        "type": "message",
        "text": "Hi Hans. I created the posts, but I thought that protocol dictated that someone else would have to review them. The link on the graphic is not clickable. I would need to create the post outside of Canva if I wanted to add that level of interactivity into it.",
        "user": "U0103LPAWQ4",
        "ts": "1587514811.131100",
        "team": "TUU48M0T1",
        "user_team": "TUU48M0T1",
        "source_team": "TUU48M0T1",
        "user_profile": {
            "avatar_hash": "7b345029e813",
            "image_72": "https:\/\/avatars.slack-edge.com\/2020-03-17\/1004213082549_7b345029e8137cbdc6b0_72.jpg",
            "first_name": "Bre",
            "real_name": "Bre",
            "display_name": "Bre",
            "team": "TUU48M0T1",
            "name": "info",
            "is_restricted": false,
            "is_ultra_restricted": false
        },
        "edited": {
            "user": "U0103LPAWQ4",
            "ts": "1587514889.000000"
        },
        "blocks": [
            {
                "type": "rich_text",
                "block_id": "ukIT",
                "elements": [
                    {
                        "type": "rich_text_section",
                        "elements": [
                            {
                                "type": "text",
                                "text": "Hi Hans. I created the posts, but I thought that protocol dictated that someone else would have to review them. The link on the graphic is not clickable. I would need to create the post outside of Canva if I wanted to add that level of interactivity into it."
                            }
                        ]
                    }
                ]
            }
        ],
        "thread_ts": "1587489147.119500",
        "parent_user_id": "U010APQC76J"
    },
    {
        "client_msg_id": "cd7ad622-0e39-4b20-ab59-ba09324806bd",
        "type": "message",
        "text": "The links in the text work though. <@U010J80FY3E> created a tiny URL that links directly to the Slack project. I also added a link to the sign-up page for the Slack because that would be the first step.",
        "user": "U0103LPAWQ4",
        "ts": "1587514975.131500",
        "team": "TUU48M0T1",
        "user_team": "TUU48M0T1",
        "source_team": "TUU48M0T1",
        "user_profile": {
            "avatar_hash": "7b345029e813",
            "image_72": "https:\/\/avatars.slack-edge.com\/2020-03-17\/1004213082549_7b345029e8137cbdc6b0_72.jpg",
            "first_name": "Bre",
            "real_name": "Bre",
            "display_name": "Bre",
            "team": "TUU48M0T1",
            "name": "info",
            "is_restricted": false,
            "is_ultra_restricted": false
        },
        "blocks": [
            {
                "type": "rich_text",
                "block_id": "SsO",
                "elements": [
                    {
                        "type": "rich_text_section",
                        "elements": [
                            {
                                "type": "text",
                                "text": "The links in the text work though. "
                            },
                            {
                                "type": "user",
                                "user_id": "U010J80FY3E"
                            },
                            {
                                "type": "text",
                                "text": " created a tiny URL that links directly to the Slack project. I also added a link to the sign-up page for the Slack because that would be the first step."
                            }
                        ]
                    }
                ]
            }
        ],
        "thread_ts": "1587489147.119500",
        "parent_user_id": "U010APQC76J"
    }
]