[
    {
        "client_msg_id": "87aa455d-2fed-4e00-abf7-d5684aafc352",
        "type": "message",
        "text": "<@UV2SC7ZE3> yes, this is very good to discuss, also as respirators and so on might be very helpful (and likely simpler in terms of biosec and IP and more...)",
        "user": "UV1A22N3W",
        "ts": "1585206677.036000",
        "team": "TUU48M0T1",
        "user_team": "TUU48M0T1",
        "source_team": "TUU48M0T1",
        "user_profile": {
            "avatar_hash": "71f827776ad6",
            "image_72": "https:\/\/avatars.slack-edge.com\/2020-03-09\/988125642964_71f827776ad610af05a2_72.jpg",
            "first_name": "",
            "real_name": "RachelA",
            "display_name": "RachelA",
            "team": "TUU48M0T1",
            "name": "raronoff",
            "is_restricted": false,
            "is_ultra_restricted": false
        },
        "blocks": [
            {
                "type": "rich_text",
                "block_id": "R0K",
                "elements": [
                    {
                        "type": "rich_text_section",
                        "elements": [
                            {
                                "type": "user",
                                "user_id": "UV2SC7ZE3"
                            },
                            {
                                "type": "text",
                                "text": " yes, this is very good to discuss, also as respirators and so on might be very helpful (and likely simpler in terms of biosec and IP and more...)"
                            }
                        ]
                    }
                ]
            }
        ]
    },
    {
        "client_msg_id": "3C9C59A3-898B-4772-BE8F-8814FDDCCD1F",
        "type": "message",
        "text": "<@UV2SC7ZE3> we are to communicate about the entire program. Even though it started on diagnostics, it has now branched out into three challenges. \nAt the end we want to share the news from active projects in the community and the ones documented on the platform. Groups such as HE are partially part of the JOGL community (the inverse is true also) so there will be projects started there that will come to JOGL to. ",
        "user": "UV02WET96",
        "ts": "1585210853.041200",
        "team": "TUU48M0T1",
        "user_team": "TUU48M0T1",
        "source_team": "TUU48M0T1",
        "user_profile": {
            "avatar_hash": "a99c74a194f8",
            "image_72": "https:\/\/avatars.slack-edge.com\/2020-03-07\/975708504851_a99c74a194f86715ca7d_72.png",
            "first_name": "Thomas",
            "real_name": "Thomas Landrain",
            "display_name": "Thomas Landrain - JOGL CoFounder \/ CEO",
            "team": "TUU48M0T1",
            "name": "thomas",
            "is_restricted": false,
            "is_ultra_restricted": false
        },
        "blocks": [
            {
                "type": "rich_text",
                "block_id": "3lI9",
                "elements": [
                    {
                        "type": "rich_text_section",
                        "elements": [
                            {
                                "type": "user",
                                "user_id": "UV2SC7ZE3"
                            },
                            {
                                "type": "text",
                                "text": " we are to communicate about the entire program. Even though it started on diagnostics, it has now branched out into three challenges. \nAt the end we want to share the news from active projects in the community and the ones documented on the platform. Groups such as HE are partially part of the JOGL community (the inverse is true also) so there will be projects started there that will come to JOGL to. "
                            }
                        ]
                    }
                ]
            }
        ],
        "thread_ts": "1585210853.041200",
        "reply_count": 2,
        "reply_users_count": 2,
        "latest_reply": "1585233048.047600",
        "reply_users": [
            "UV2SC7ZE3",
            "UV02WET96"
        ],
        "replies": [
            {
                "user": "UV2SC7ZE3",
                "ts": "1585232968.046700"
            },
            {
                "user": "UV02WET96",
                "ts": "1585233048.047600"
            }
        ],
        "subscribed": false,
        "reactions": [
            {
                "name": "+1",
                "users": [
                    "U010APQC76J",
                    "UV0RRGB6H",
                    "UV2SC7ZE3",
                    "UV0QTJCMT"
                ],
                "count": 4
            }
        ]
    },
    {
        "client_msg_id": "fc50f862-dbcf-48b3-9ff1-d6a13aa741d6",
        "type": "message",
        "text": "<@U01019BQXM3> I think the mystery \"A P\" for the Helpful engineering project may be <@UV3HA9MM4> as he posted this in the mammoth program: \"I’ve submitted an application to the Helpful Engineering group (which I’m currently CTO of) to take this proposal forward:\"",
        "user": "U010APQC76J",
        "ts": "1585225389.042500",
        "team": "TUU48M0T1",
        "user_team": "TUU48M0T1",
        "source_team": "TUU48M0T1",
        "user_profile": {
            "avatar_hash": "751a8e7a94a5",
            "image_72": "https:\/\/avatars.slack-edge.com\/2020-03-25\/1026091401893_751a8e7a94a519bfd1d7_72.jpg",
            "first_name": "Hans",
            "real_name": "Hans Pfalzgraf",
            "display_name": "Hans P",
            "team": "TUU48M0T1",
            "name": "h.pfalzgraf",
            "is_restricted": false,
            "is_ultra_restricted": false
        },
        "blocks": [
            {
                "type": "rich_text",
                "block_id": "mRRP",
                "elements": [
                    {
                        "type": "rich_text_section",
                        "elements": [
                            {
                                "type": "user",
                                "user_id": "U01019BQXM3"
                            },
                            {
                                "type": "text",
                                "text": " I think the mystery \"A P\" for the Helpful engineering project may be "
                            },
                            {
                                "type": "user",
                                "user_id": "UV3HA9MM4"
                            },
                            {
                                "type": "text",
                                "text": " as he posted this in the mammoth program: \"I’ve submitted an application to the Helpful Engineering group (which I’m currently CTO of) to take this proposal forward:\""
                            }
                        ]
                    }
                ]
            }
        ],
        "thread_ts": "1585225389.042500",
        "reply_count": 2,
        "reply_users_count": 2,
        "latest_reply": "1585309581.066900",
        "reply_users": [
            "UV3HA9MM4",
            "U010APQC76J"
        ],
        "replies": [
            {
                "user": "UV3HA9MM4",
                "ts": "1585241382.050000"
            },
            {
                "user": "U010APQC76J",
                "ts": "1585309581.066900"
            }
        ],
        "subscribed": false
    },
    {
        "client_msg_id": "2a866518-7ac9-4798-835a-bfdebe8dbad3",
        "type": "message",
        "text": "I asked my two #chlg channels (prevent and detect) to make sure their projects was on JOGL!",
        "user": "U010APQC76J",
        "ts": "1585226199.043200",
        "team": "TUU48M0T1",
        "user_team": "TUU48M0T1",
        "source_team": "TUU48M0T1",
        "user_profile": {
            "avatar_hash": "751a8e7a94a5",
            "image_72": "https:\/\/avatars.slack-edge.com\/2020-03-25\/1026091401893_751a8e7a94a519bfd1d7_72.jpg",
            "first_name": "Hans",
            "real_name": "Hans Pfalzgraf",
            "display_name": "Hans P",
            "team": "TUU48M0T1",
            "name": "h.pfalzgraf",
            "is_restricted": false,
            "is_ultra_restricted": false
        },
        "blocks": [
            {
                "type": "rich_text",
                "block_id": "ugxM",
                "elements": [
                    {
                        "type": "rich_text_section",
                        "elements": [
                            {
                                "type": "text",
                                "text": "I asked my two #chlg channels (prevent and detect) to make sure their projects was on JOGL!"
                            }
                        ]
                    }
                ]
            }
        ]
    },
    {
        "client_msg_id": "40ba1858-de35-4be0-874c-9bc04822c708",
        "type": "message",
        "text": "Hey, this is not a critical capacity right noe, but something to keep in mind, as I have just experienced it with the project I am working on: What happens once a project is completed or due to a change in circumstances a project is paused, there should be an offboarding process. Just like there is an onborading process. Especially as some projects will have done some important ground work that need not be repeated in the future when it may become relevant again. This is relevant to comms and identifying and remaining in contact wit active project leads suggests knowing when a project is archived.",
        "user": "U010566NJHG",
        "ts": "1585230221.046300",
        "team": "TUU48M0T1",
        "user_team": "TUU48M0T1",
        "source_team": "TUU48M0T1",
        "user_profile": {
            "avatar_hash": "103225790dbb",
            "image_72": "https:\/\/avatars.slack-edge.com\/2020-03-23\/1018037453952_103225790dbb62abe3e8_72.jpg",
            "first_name": "Avi",
            "real_name": "Avi Khalil",
            "display_name": "Avi",
            "team": "TUU48M0T1",
            "name": "kavb",
            "is_restricted": false,
            "is_ultra_restricted": false
        },
        "blocks": [
            {
                "type": "rich_text",
                "block_id": "AsZ",
                "elements": [
                    {
                        "type": "rich_text_section",
                        "elements": [
                            {
                                "type": "text",
                                "text": "Hey, this is not a critical capacity right noe, but something to keep in mind, as I have just experienced it with the project I am working on: What happens once a project is completed or due to a change in circumstances a project is paused, there should be an offboarding process. Just like there is an onborading process. Especially as some projects will have done some important ground work that need not be repeated in the future when it may become relevant again. This is relevant to comms and identifying and remaining in contact wit active project leads suggests knowing when a project is archived."
                            }
                        ]
                    }
                ]
            }
        ],
        "thread_ts": "1585230221.046300",
        "reply_count": 2,
        "reply_users_count": 2,
        "latest_reply": "1585243583.050600",
        "reply_users": [
            "UV2SC7ZE3",
            "U010566NJHG"
        ],
        "replies": [
            {
                "user": "UV2SC7ZE3",
                "ts": "1585232483.046500"
            },
            {
                "user": "U010566NJHG",
                "ts": "1585243583.050600"
            }
        ],
        "subscribed": false,
        "reactions": [
            {
                "name": "+1",
                "users": [
                    "UV02WET96",
                    "UV2SC7ZE3"
                ],
                "count": 2
            }
        ]
    },
    {
        "client_msg_id": "c831ba9d-bfde-4c0b-9b29-585a3bbfbeda",
        "type": "message",
        "text": "I agree. That's something important to consider",
        "user": "UV2SC7ZE3",
        "ts": "1585232483.046500",
        "team": "TUU48M0T1",
        "user_team": "TUU48M0T1",
        "source_team": "TUU48M0T1",
        "user_profile": {
            "avatar_hash": "d28dd0d076e8",
            "image_72": "https:\/\/avatars.slack-edge.com\/2020-03-14\/987873094258_d28dd0d076e8fa9a8409_72.png",
            "first_name": "David",
            "real_name": "David Lu",
            "display_name": "David Lu",
            "team": "TUU48M0T1",
            "name": "ludavidyi",
            "is_restricted": false,
            "is_ultra_restricted": false
        },
        "blocks": [
            {
                "type": "rich_text",
                "block_id": "ZLG",
                "elements": [
                    {
                        "type": "rich_text_section",
                        "elements": [
                            {
                                "type": "text",
                                "text": "I agree. That's something important to consider"
                            }
                        ]
                    }
                ]
            }
        ],
        "thread_ts": "1585230221.046300",
        "parent_user_id": "U010566NJHG"
    },
    {
        "client_msg_id": "1c5f0a93-fcfb-41c5-8622-11e39f98b79d",
        "type": "message",
        "text": "So what if HE already has their own communications group?",
        "user": "UV2SC7ZE3",
        "ts": "1585232968.046700",
        "team": "TUU48M0T1",
        "user_team": "TUU48M0T1",
        "source_team": "TUU48M0T1",
        "user_profile": {
            "avatar_hash": "d28dd0d076e8",
            "image_72": "https:\/\/avatars.slack-edge.com\/2020-03-14\/987873094258_d28dd0d076e8fa9a8409_72.png",
            "first_name": "David",
            "real_name": "David Lu",
            "display_name": "David Lu",
            "team": "TUU48M0T1",
            "name": "ludavidyi",
            "is_restricted": false,
            "is_ultra_restricted": false
        },
        "blocks": [
            {
                "type": "rich_text",
                "block_id": "GzB",
                "elements": [
                    {
                        "type": "rich_text_section",
                        "elements": [
                            {
                                "type": "text",
                                "text": "So what if HE already has their own communications group?"
                            }
                        ]
                    }
                ]
            }
        ],
        "thread_ts": "1585210853.041200",
        "parent_user_id": "UV02WET96"
    },
    {
        "client_msg_id": "15F75F43-46A7-4E39-97E0-D155319D8E1C",
        "type": "message",
        "text": "Double communication for the projects that will be in both communities:) ",
        "user": "UV02WET96",
        "ts": "1585233048.047600",
        "team": "TUU48M0T1",
        "user_team": "TUU48M0T1",
        "source_team": "TUU48M0T1",
        "user_profile": {
            "avatar_hash": "a99c74a194f8",
            "image_72": "https:\/\/avatars.slack-edge.com\/2020-03-07\/975708504851_a99c74a194f86715ca7d_72.png",
            "first_name": "Thomas",
            "real_name": "Thomas Landrain",
            "display_name": "Thomas Landrain - JOGL CoFounder \/ CEO",
            "team": "TUU48M0T1",
            "name": "thomas",
            "is_restricted": false,
            "is_ultra_restricted": false
        },
        "blocks": [
            {
                "type": "rich_text",
                "block_id": "4gj\/",
                "elements": [
                    {
                        "type": "rich_text_section",
                        "elements": [
                            {
                                "type": "text",
                                "text": "Double communication for the projects that will be in both communities:) "
                            }
                        ]
                    }
                ]
            }
        ],
        "thread_ts": "1585210853.041200",
        "parent_user_id": "UV02WET96"
    },
    {
        "client_msg_id": "e7aa2102-ae48-43f1-a39c-062f98f6417e",
        "type": "message",
        "text": "<@U010APQC76J> <@UV0PCSG58> Did you get to talk to with some of the project creators ?",
        "user": "U01019BQXM3",
        "ts": "1585234526.048100",
        "team": "TUU48M0T1",
        "user_team": "TUU48M0T1",
        "source_team": "TUU48M0T1",
        "user_profile": {
            "avatar_hash": "7e0f35d8cc55",
            "image_72": "https:\/\/avatars.slack-edge.com\/2020-03-15\/988667349730_7e0f35d8cc556cd89565_72.jpg",
            "first_name": "Marc",
            "real_name": "Marc Bokobza",
            "display_name": "Marc Bokobza",
            "team": "TUU48M0T1",
            "name": "marcbokobza1",
            "is_restricted": false,
            "is_ultra_restricted": false
        },
        "blocks": [
            {
                "type": "rich_text",
                "block_id": "LA0",
                "elements": [
                    {
                        "type": "rich_text_section",
                        "elements": [
                            {
                                "type": "user",
                                "user_id": "U010APQC76J"
                            },
                            {
                                "type": "text",
                                "text": " "
                            },
                            {
                                "type": "user",
                                "user_id": "UV0PCSG58"
                            },
                            {
                                "type": "text",
                                "text": " Did you get to talk to with some of the project creators ?"
                            }
                        ]
                    }
                ]
            }
        ]
    },
    {
        "client_msg_id": "602cd4fc-83f2-4cee-a2c8-b5136811c259",
        "type": "message",
        "text": "<@U01019BQXM3> yes got in touch w those for whom I could find slack handles. And responses from 2 hopefully 3. But there are four I cannot find. Wondering how to? Pascal, Catharine Villeret, Sana, Anteneh. Search for people and handles. No luck.",
        "user": "UV0PCSG58",
        "ts": "1585240930.049700",
        "team": "TUU48M0T1",
        "user_team": "TUU48M0T1",
        "source_team": "TUU48M0T1",
        "user_profile": {
            "avatar_hash": "f39dcc98ce27",
            "image_72": "https:\/\/avatars.slack-edge.com\/2020-03-25\/1026668986768_f39dcc98ce2701046e27_72.jpg",
            "first_name": "",
            "real_name": "emilym",
            "display_name": "emilym",
            "team": "TUU48M0T1",
            "name": "emonosson",
            "is_restricted": false,
            "is_ultra_restricted": false
        },
        "blocks": [
            {
                "type": "rich_text",
                "block_id": "8B=KH",
                "elements": [
                    {
                        "type": "rich_text_section",
                        "elements": [
                            {
                                "type": "user",
                                "user_id": "U01019BQXM3"
                            },
                            {
                                "type": "text",
                                "text": " yes got in touch w those for whom I could find slack handles. And responses from 2 hopefully 3. But there are four I cannot find. Wondering how to? Pascal, Catharine Villeret, Sana, Anteneh. Search for people and handles. No luck."
                            }
                        ]
                    }
                ]
            }
        ]
    },
    {
        "type": "message",
        "subtype": "thread_broadcast",
        "text": "Hey, how can I help you <@U010APQC76J> ?",
        "user": "UV3HA9MM4",
        "ts": "1585241382.050000",
        "thread_ts": "1585225389.042500",
        "root": {
            "client_msg_id": "fc50f862-dbcf-48b3-9ff1-d6a13aa741d6",
            "type": "message",
            "text": "<@U01019BQXM3> I think the mystery \"A P\" for the Helpful engineering project may be <@UV3HA9MM4> as he posted this in the mammoth program: \"I’ve submitted an application to the Helpful Engineering group (which I’m currently CTO of) to take this proposal forward:\"",
            "user": "U010APQC76J",
            "ts": "1585225389.042500",
            "team": "TUU48M0T1",
            "blocks": [
                {
                    "type": "rich_text",
                    "block_id": "mRRP",
                    "elements": [
                        {
                            "type": "rich_text_section",
                            "elements": [
                                {
                                    "type": "user",
                                    "user_id": "U01019BQXM3"
                                },
                                {
                                    "type": "text",
                                    "text": " I think the mystery \"A P\" for the Helpful engineering project may be "
                                },
                                {
                                    "type": "user",
                                    "user_id": "UV3HA9MM4"
                                },
                                {
                                    "type": "text",
                                    "text": " as he posted this in the mammoth program: \"I’ve submitted an application to the Helpful Engineering group (which I’m currently CTO of) to take this proposal forward:\""
                                }
                            ]
                        }
                    ]
                }
            ],
            "thread_ts": "1585225389.042500",
            "reply_count": 2,
            "reply_users_count": 2,
            "latest_reply": "1585309581.066900",
            "reply_users": [
                "UV3HA9MM4",
                "U010APQC76J"
            ],
            "subscribed": false
        },
        "blocks": [
            {
                "type": "rich_text",
                "block_id": "S\/O",
                "elements": [
                    {
                        "type": "rich_text_section",
                        "elements": [
                            {
                                "type": "text",
                                "text": "Hey, how can I help you "
                            },
                            {
                                "type": "user",
                                "user_id": "U010APQC76J"
                            },
                            {
                                "type": "text",
                                "text": " ?"
                            }
                        ]
                    }
                ]
            }
        ],
        "client_msg_id": "e8ca6095-6b45-4dfe-a110-8e467deaac94"
    },
    {
        "client_msg_id": "3e03e118-b603-4b00-aded-45969325240f",
        "type": "message",
        "text": "Things change so quickly the project I work on is rebooting in a different guide :joy:",
        "user": "U010566NJHG",
        "ts": "1585243583.050600",
        "team": "TUU48M0T1",
        "user_team": "TUU48M0T1",
        "source_team": "TUU48M0T1",
        "user_profile": {
            "avatar_hash": "103225790dbb",
            "image_72": "https:\/\/avatars.slack-edge.com\/2020-03-23\/1018037453952_103225790dbb62abe3e8_72.jpg",
            "first_name": "Avi",
            "real_name": "Avi Khalil",
            "display_name": "Avi",
            "team": "TUU48M0T1",
            "name": "kavb",
            "is_restricted": false,
            "is_ultra_restricted": false
        },
        "blocks": [
            {
                "type": "rich_text",
                "block_id": "zYE",
                "elements": [
                    {
                        "type": "rich_text_section",
                        "elements": [
                            {
                                "type": "text",
                                "text": "Things change so quickly the project I work on is rebooting in a different guide "
                            },
                            {
                                "type": "emoji",
                                "name": "joy"
                            }
                        ]
                    }
                ]
            }
        ],
        "thread_ts": "1585230221.046300",
        "parent_user_id": "U010566NJHG"
    },
    {
        "client_msg_id": "18dd0729-43d4-4f90-8b5c-0b79c3c5a7a8",
        "type": "message",
        "text": "Hi team. Does anyone here know how to find out how to get a license to use a song that has been played on the radio? I normally use audio libraries, but I want to create a ... slideshow type video about people around the world and I have a specific song in mind but don't know how expensive it is or how to access it. Any help would be greatly appreciated. Also, I have 1 other video idea and I could use some help\/feedback with it. Not sure if that would be a separate project, because they could both just be social media posts.",
        "user": "U0103LPAWQ4",
        "ts": "1585245411.054900",
        "team": "TUU48M0T1",
        "user_team": "TUU48M0T1",
        "source_team": "TUU48M0T1",
        "user_profile": {
            "avatar_hash": "7b345029e813",
            "image_72": "https:\/\/avatars.slack-edge.com\/2020-03-17\/1004213082549_7b345029e8137cbdc6b0_72.jpg",
            "first_name": "Bre",
            "real_name": "Bre",
            "display_name": "Bre",
            "team": "TUU48M0T1",
            "name": "info",
            "is_restricted": false,
            "is_ultra_restricted": false
        },
        "blocks": [
            {
                "type": "rich_text",
                "block_id": "o1d",
                "elements": [
                    {
                        "type": "rich_text_section",
                        "elements": [
                            {
                                "type": "text",
                                "text": "Hi team. Does anyone here know how to find out how to get a license to use a song that has been played on the radio? I normally use audio libraries, but I want to create a ... slideshow type video about people around the world and I have a specific song in mind but don't know how expensive it is or how to access it. Any help would be greatly appreciated. Also, I have 1 other video idea and I could use some help\/feedback with it. Not sure if that would be a separate project, because they could both just be social media posts."
                            }
                        ]
                    }
                ]
            }
        ]
    },
    {
        "client_msg_id": "38e82f37-76a3-43ff-aaea-f2840201d449",
        "type": "message",
        "text": "<@UV0PCSG58> For contacts : have you checked here ? : <https:\/\/app.jogl.io\/people>",
        "user": "U01019BQXM3",
        "ts": "1585245752.055300",
        "team": "TUU48M0T1",
        "user_team": "TUU48M0T1",
        "source_team": "TUU48M0T1",
        "user_profile": {
            "avatar_hash": "7e0f35d8cc55",
            "image_72": "https:\/\/avatars.slack-edge.com\/2020-03-15\/988667349730_7e0f35d8cc556cd89565_72.jpg",
            "first_name": "Marc",
            "real_name": "Marc Bokobza",
            "display_name": "Marc Bokobza",
            "team": "TUU48M0T1",
            "name": "marcbokobza1",
            "is_restricted": false,
            "is_ultra_restricted": false
        },
        "attachments": [
            {
                "title": "JOGL - Just One Giant Lab",
                "title_link": "https:\/\/app.jogl.io\/people",
                "text": "JOGL helps sync humanity onto solving our most important social &amp; environmental problems using open science, responsible innovation &amp; continuous learning.",
                "fallback": "JOGL - Just One Giant Lab",
                "thumb_url": "https:\/\/app.jogl.io\/planet.jpg",
                "from_url": "https:\/\/app.jogl.io\/people",
                "thumb_width": 2049,
                "thumb_height": 1011,
                "service_icon": "https:\/\/app.jogl.io\/favicon.ico",
                "service_name": "app.jogl.io",
                "id": 1,
                "original_url": "https:\/\/app.jogl.io\/people"
            }
        ],
        "blocks": [
            {
                "type": "rich_text",
                "block_id": "s\/reU",
                "elements": [
                    {
                        "type": "rich_text_section",
                        "elements": [
                            {
                                "type": "user",
                                "user_id": "UV0PCSG58"
                            },
                            {
                                "type": "text",
                                "text": " For contacts : have you checked here ? : "
                            },
                            {
                                "type": "link",
                                "url": "https:\/\/app.jogl.io\/people"
                            }
                        ]
                    }
                ]
            }
        ],
        "thread_ts": "1585245752.055300",
        "reply_count": 3,
        "reply_users_count": 2,
        "latest_reply": "1585418027.095000",
        "reply_users": [
            "UV0PCSG58",
            "U01019BQXM3"
        ],
        "replies": [
            {
                "user": "UV0PCSG58",
                "ts": "1585315277.070300"
            },
            {
                "user": "UV0PCSG58",
                "ts": "1585315451.070500"
            },
            {
                "user": "U01019BQXM3",
                "ts": "1585418027.095000"
            }
        ],
        "subscribed": false
    },
    {
        "client_msg_id": "74ad41b1-b195-49c9-b936-c8c4ce0c4a3f",
        "type": "message",
        "text": "Hey! Quick question: I'm preparing the guidelines to communicate with the press for the community - should we create guidelines for people who want to reach out to the press themselves or do we want them to go through us?  So far, I'm creating guidelines if they've been approached by the press (ongoing work :P) .",
        "user": "UV76CQTB4",
        "ts": "1585257420.058000",
        "team": "TUU48M0T1",
        "user_team": "TUU48M0T1",
        "source_team": "TUU48M0T1",
        "user_profile": {
            "avatar_hash": "07668a20a751",
            "image_72": "https:\/\/avatars.slack-edge.com\/2020-03-17\/993297059666_07668a20a751afe52104_72.png",
            "first_name": "",
            "real_name": "Julie Legault",
            "display_name": "Julie Legault",
            "team": "TUU48M0T1",
            "name": "julie",
            "is_restricted": false,
            "is_ultra_restricted": false
        },
        "blocks": [
            {
                "type": "rich_text",
                "block_id": "NCwV",
                "elements": [
                    {
                        "type": "rich_text_section",
                        "elements": [
                            {
                                "type": "text",
                                "text": "Hey! Quick question: I'm preparing the guidelines to communicate with the press for the community - should we create guidelines for people who want to reach out to the press themselves or do we want them to go through us?  So far, I'm creating guidelines if they've been approached by the press (ongoing work :P) ."
                            }
                        ]
                    }
                ]
            }
        ],
        "thread_ts": "1585257420.058000",
        "reply_count": 5,
        "reply_users_count": 2,
        "latest_reply": "1585274738.062300",
        "reply_users": [
            "UV2SC7ZE3",
            "U010BM4M81M"
        ],
        "replies": [
            {
                "user": "UV2SC7ZE3",
                "ts": "1585271698.058900"
            },
            {
                "user": "UV2SC7ZE3",
                "ts": "1585272094.060800"
            },
            {
                "user": "UV2SC7ZE3",
                "ts": "1585272203.061000"
            },
            {
                "user": "U010BM4M81M",
                "ts": "1585274430.062000"
            },
            {
                "user": "U010BM4M81M",
                "ts": "1585274738.062300"
            }
        ],
        "subscribed": false
    },
    {
        "client_msg_id": "dcaf32a1-29c1-4d27-8def-155073f394fc",
        "type": "message",
        "text": "This is something we could probably talk about tomorrow.",
        "user": "UV2SC7ZE3",
        "ts": "1585271698.058900",
        "team": "TUU48M0T1",
        "user_team": "TUU48M0T1",
        "source_team": "TUU48M0T1",
        "user_profile": {
            "avatar_hash": "d28dd0d076e8",
            "image_72": "https:\/\/avatars.slack-edge.com\/2020-03-14\/987873094258_d28dd0d076e8fa9a8409_72.png",
            "first_name": "David",
            "real_name": "David Lu",
            "display_name": "David Lu",
            "team": "TUU48M0T1",
            "name": "ludavidyi",
            "is_restricted": false,
            "is_ultra_restricted": false
        },
        "blocks": [
            {
                "type": "rich_text",
                "block_id": "ZEmP",
                "elements": [
                    {
                        "type": "rich_text_section",
                        "elements": [
                            {
                                "type": "text",
                                "text": "This is something we could probably talk about tomorrow."
                            }
                        ]
                    }
                ]
            }
        ],
        "thread_ts": "1585257420.058000",
        "parent_user_id": "UV76CQTB4"
    },
    {
        "client_msg_id": "64329cf3-eb19-4836-a11f-81e164f422ca",
        "type": "message",
        "text": "<!channel> Hey all! Reminder that there is a call tomorrow 3\/27 at 6 pm CET. Link to agenda is here: <https:\/\/docs.google.com\/document\/d\/1eae4Y1M8pJNnAMipBtFErTSTDmdVh4GwZQf2c-rgfc4\/edit#>\nIf you have anything that you want to discuss, please add to it! Otherwise, I think we can go through what people have accomplished so far and perhaps finalize the second half of the communications checklist.",
        "user": "UV2SC7ZE3",
        "ts": "1585271995.060500",
        "team": "TUU48M0T1",
        "user_team": "TUU48M0T1",
        "source_team": "TUU48M0T1",
        "user_profile": {
            "avatar_hash": "d28dd0d076e8",
            "image_72": "https:\/\/avatars.slack-edge.com\/2020-03-14\/987873094258_d28dd0d076e8fa9a8409_72.png",
            "first_name": "David",
            "real_name": "David Lu",
            "display_name": "David Lu",
            "team": "TUU48M0T1",
            "name": "ludavidyi",
            "is_restricted": false,
            "is_ultra_restricted": false
        },
        "edited": {
            "user": "UV2SC7ZE3",
            "ts": "1585272006.000000"
        },
        "blocks": [
            {
                "type": "rich_text",
                "block_id": "8ay4",
                "elements": [
                    {
                        "type": "rich_text_section",
                        "elements": [
                            {
                                "type": "broadcast",
                                "range": "channel"
                            },
                            {
                                "type": "text",
                                "text": " Hey all! Reminder that there is a call tomorrow 3\/27 at 6 pm CET. Link to agenda is here: "
                            },
                            {
                                "type": "link",
                                "url": "https:\/\/docs.google.com\/document\/d\/1eae4Y1M8pJNnAMipBtFErTSTDmdVh4GwZQf2c-rgfc4\/edit#"
                            },
                            {
                                "type": "text",
                                "text": "\nIf you have anything that you want to discuss, please add to it! Otherwise, I think we can go through what people have accomplished so far and perhaps finalize the second half of the communications checklist."
                            }
                        ]
                    }
                ]
            }
        ]
    },
    {
        "client_msg_id": "cd4a2af8-5bf1-4a6b-93e1-0a4e6fd461b7",
        "type": "message",
        "text": "I'll add that to the agenda",
        "user": "UV2SC7ZE3",
        "ts": "1585272094.060800",
        "team": "TUU48M0T1",
        "user_team": "TUU48M0T1",
        "source_team": "TUU48M0T1",
        "user_profile": {
            "avatar_hash": "d28dd0d076e8",
            "image_72": "https:\/\/avatars.slack-edge.com\/2020-03-14\/987873094258_d28dd0d076e8fa9a8409_72.png",
            "first_name": "David",
            "real_name": "David Lu",
            "display_name": "David Lu",
            "team": "TUU48M0T1",
            "name": "ludavidyi",
            "is_restricted": false,
            "is_ultra_restricted": false
        },
        "blocks": [
            {
                "type": "rich_text",
                "block_id": "h68k",
                "elements": [
                    {
                        "type": "rich_text_section",
                        "elements": [
                            {
                                "type": "text",
                                "text": "I'll add that to the agenda"
                            }
                        ]
                    }
                ]
            }
        ],
        "thread_ts": "1585257420.058000",
        "parent_user_id": "UV76CQTB4",
        "reactions": [
            {
                "name": "+1",
                "users": [
                    "UV76CQTB4"
                ],
                "count": 1
            }
        ]
    },
    {
        "client_msg_id": "8b2ce414-1b2e-4b0b-86f4-8863a75f72b9",
        "type": "message",
        "text": "But my first thought is that we should be making guidelines for people when approached by the press. And that the communications group should be responsible for actively reaching out to the press.",
        "user": "UV2SC7ZE3",
        "ts": "1585272203.061000",
        "team": "TUU48M0T1",
        "user_team": "TUU48M0T1",
        "source_team": "TUU48M0T1",
        "user_profile": {
            "avatar_hash": "d28dd0d076e8",
            "image_72": "https:\/\/avatars.slack-edge.com\/2020-03-14\/987873094258_d28dd0d076e8fa9a8409_72.png",
            "first_name": "David",
            "real_name": "David Lu",
            "display_name": "David Lu",
            "team": "TUU48M0T1",
            "name": "ludavidyi",
            "is_restricted": false,
            "is_ultra_restricted": false
        },
        "blocks": [
            {
                "type": "rich_text",
                "block_id": "MS5q",
                "elements": [
                    {
                        "type": "rich_text_section",
                        "elements": [
                            {
                                "type": "text",
                                "text": "But my first thought is that we should be making guidelines for people when approached by the press. And that the communications group should be responsible for actively reaching out to the press."
                            }
                        ]
                    }
                ]
            }
        ],
        "thread_ts": "1585257420.058000",
        "parent_user_id": "UV76CQTB4",
        "reactions": [
            {
                "name": "+1",
                "users": [
                    "UV76CQTB4",
                    "U010APQC76J"
                ],
                "count": 2
            }
        ]
    },
    {
        "client_msg_id": "602d861b-55af-4af1-8a8b-0339b4e1bf28",
        "type": "message",
        "text": "Definitely makes sense to discuss; from what I've seen, the best practice is usually to have press communications pass through a point person or at least a central communications team. That helps avoid a reporter getting conflicting answers from different people associated with the effort, for example, or publishing accidental errors that the comms team can't catch and correct ahead of time because they didn't know about the piece.",
        "user": "U010BM4M81M",
        "ts": "1585274430.062000",
        "team": "TUU48M0T1",
        "user_team": "TUU48M0T1",
        "source_team": "TUU48M0T1",
        "user_profile": {
            "avatar_hash": "239bb0434c48",
            "image_72": "https:\/\/avatars.slack-edge.com\/2020-03-18\/1009894044181_239bb0434c487ceb1374_72.jpg",
            "first_name": "Daniel",
            "real_name": "Daniel Lawhon",
            "display_name": "Daniel Lawhon",
            "team": "TUU48M0T1",
            "name": "dtlawhon",
            "is_restricted": false,
            "is_ultra_restricted": false
        },
        "blocks": [
            {
                "type": "rich_text",
                "block_id": "XSY=",
                "elements": [
                    {
                        "type": "rich_text_section",
                        "elements": [
                            {
                                "type": "text",
                                "text": "Definitely makes sense to discuss; from what I've seen, the best practice is usually to have press communications pass through a point person or at least a central communications team. That helps avoid a reporter getting conflicting answers from different people associated with the effort, for example, or publishing accidental errors that the comms team can't catch and correct ahead of time because they didn't know about the piece."
                            }
                        ]
                    }
                ]
            }
        ],
        "thread_ts": "1585257420.058000",
        "parent_user_id": "UV76CQTB4",
        "reactions": [
            {
                "name": "+1",
                "users": [
                    "UV2SC7ZE3",
                    "U010APQC76J"
                ],
                "count": 2
            }
        ]
    },
    {
        "client_msg_id": "a9b2f824-477b-42de-a77e-1fbd19da4002",
        "type": "message",
        "text": "One model is the comms team acts as facilitators. So a press-only email account receives a request for interview or request for a quote; comms figures out which project or collaborator matches the request the best and puts them in touch, and then comms follows up with the reporter to review\/factcheck the piece before it's published. All messages flowing out end up factchecked and consistent with each other, but all of the amazing collaborators here are the ones giving quotes and sharing their work.",
        "user": "U010BM4M81M",
        "ts": "1585274738.062300",
        "team": "TUU48M0T1",
        "user_team": "TUU48M0T1",
        "source_team": "TUU48M0T1",
        "user_profile": {
            "avatar_hash": "239bb0434c48",
            "image_72": "https:\/\/avatars.slack-edge.com\/2020-03-18\/1009894044181_239bb0434c487ceb1374_72.jpg",
            "first_name": "Daniel",
            "real_name": "Daniel Lawhon",
            "display_name": "Daniel Lawhon",
            "team": "TUU48M0T1",
            "name": "dtlawhon",
            "is_restricted": false,
            "is_ultra_restricted": false
        },
        "blocks": [
            {
                "type": "rich_text",
                "block_id": "RgeR",
                "elements": [
                    {
                        "type": "rich_text_section",
                        "elements": [
                            {
                                "type": "text",
                                "text": "One model is the comms team acts as facilitators. So a press-only email account receives a request for interview or request for a quote; comms figures out which project or collaborator matches the request the best and puts them in touch, and then comms follows up with the reporter to review\/factcheck the piece before it's published. All messages flowing out end up factchecked and consistent with each other, but all of the amazing collaborators here are the ones giving quotes and sharing their work."
                            }
                        ]
                    }
                ]
            }
        ],
        "thread_ts": "1585257420.058000",
        "parent_user_id": "UV76CQTB4",
        "reactions": [
            {
                "name": "+1",
                "users": [
                    "UV2SC7ZE3",
                    "U010APQC76J"
                ],
                "count": 2
            }
        ]
    }
]