[
    {
        "client_msg_id": "a2af844b-0442-45ee-a856-ffc7dbe3fc5c",
        "type": "message",
        "text": "Hi Camille. Yes!  <@UV2SC7ZE3> and I discussed last week. The intent to be would be for  <@UV02WET96> see if he think it's something we should go froward with, and of course <@U010Q3372P3>",
        "user": "U011VF29MK2",
        "ts": "1586792578.485500",
        "team": "TUU48M0T1",
        "user_team": "TUU48M0T1",
        "source_team": "TUU48M0T1",
        "user_profile": {
            "avatar_hash": "0ef0287e69f4",
            "image_72": "https:\/\/avatars.slack-edge.com\/2020-04-07\/1045707527815_0ef0287e69f4d3296eaf_72.jpg",
            "first_name": "Catherine",
            "real_name": "Catherine Coykendall",
            "display_name": "Catherine Coykendall - Marketing Consultant",
            "team": "TUU48M0T1",
            "name": "c.coyken1978",
            "is_restricted": false,
            "is_ultra_restricted": false
        },
        "blocks": [
            {
                "type": "rich_text",
                "block_id": "TRdu9",
                "elements": [
                    {
                        "type": "rich_text_section",
                        "elements": [
                            {
                                "type": "text",
                                "text": "Hi Camille. Yes!  "
                            },
                            {
                                "type": "user",
                                "user_id": "UV2SC7ZE3"
                            },
                            {
                                "type": "text",
                                "text": " and I discussed last week. The intent to be would be for  "
                            },
                            {
                                "type": "user",
                                "user_id": "UV02WET96"
                            },
                            {
                                "type": "text",
                                "text": " see if he think it's something we should go froward with, and of course "
                            },
                            {
                                "type": "user",
                                "user_id": "U010Q3372P3"
                            }
                        ]
                    }
                ]
            }
        ],
        "thread_ts": "1586543179.474100",
        "parent_user_id": "U011VF29MK2"
    },
    {
        "client_msg_id": "9d2de847-bf8b-461f-9fa9-6adccba26cb8",
        "type": "message",
        "text": "Hi Camille, let",
        "user": "U011VF29MK2",
        "ts": "1586792604.485700",
        "team": "TUU48M0T1",
        "user_team": "TUU48M0T1",
        "source_team": "TUU48M0T1",
        "user_profile": {
            "avatar_hash": "0ef0287e69f4",
            "image_72": "https:\/\/avatars.slack-edge.com\/2020-04-07\/1045707527815_0ef0287e69f4d3296eaf_72.jpg",
            "first_name": "Catherine",
            "real_name": "Catherine Coykendall",
            "display_name": "Catherine Coykendall - Marketing Consultant",
            "team": "TUU48M0T1",
            "name": "c.coyken1978",
            "is_restricted": false,
            "is_ultra_restricted": false
        },
        "blocks": [
            {
                "type": "rich_text",
                "block_id": "5mF",
                "elements": [
                    {
                        "type": "rich_text_section",
                        "elements": [
                            {
                                "type": "text",
                                "text": "Hi Camille, let"
                            }
                        ]
                    }
                ]
            }
        ],
        "thread_ts": "1586542769.473400",
        "parent_user_id": "U011VF29MK2"
    },
    {
        "client_msg_id": "d864765a-30ee-4329-992b-7e6693b2bcf3",
        "type": "message",
        "text": "We are backtracking from the ambassadors meeting, and I would love to have your help - can you touch base later?",
        "user": "U011VF29MK2",
        "ts": "1586792680.485900",
        "team": "TUU48M0T1",
        "user_team": "TUU48M0T1",
        "source_team": "TUU48M0T1",
        "user_profile": {
            "avatar_hash": "0ef0287e69f4",
            "image_72": "https:\/\/avatars.slack-edge.com\/2020-04-07\/1045707527815_0ef0287e69f4d3296eaf_72.jpg",
            "first_name": "Catherine",
            "real_name": "Catherine Coykendall",
            "display_name": "Catherine Coykendall - Marketing Consultant",
            "team": "TUU48M0T1",
            "name": "c.coyken1978",
            "is_restricted": false,
            "is_ultra_restricted": false
        },
        "blocks": [
            {
                "type": "rich_text",
                "block_id": "DuO",
                "elements": [
                    {
                        "type": "rich_text_section",
                        "elements": [
                            {
                                "type": "text",
                                "text": "We are backtracking from the ambassadors meeting, and I would love to have your help - can you touch base later?"
                            }
                        ]
                    }
                ]
            }
        ],
        "thread_ts": "1586542769.473400",
        "parent_user_id": "U011VF29MK2"
    },
    {
        "client_msg_id": "c3ccb4bd-9f7e-4c38-b22e-1b440a72784f",
        "type": "message",
        "text": "Sure! Ping me on Slack when you need it",
        "user": "UV9V03C8Y",
        "ts": "1586793189.486100",
        "team": "TUU48M0T1",
        "user_team": "TUU48M0T1",
        "source_team": "TUU48M0T1",
        "user_profile": {
            "avatar_hash": "177697fb7b8f",
            "image_72": "https:\/\/avatars.slack-edge.com\/2020-03-12\/996126178096_177697fb7b8ffa57649c_72.jpg",
            "first_name": "Camille",
            "real_name": "Camille Masselot - JOGL Program coordinator",
            "display_name": "Camille Masselot - JOGL coordinator",
            "team": "TUU48M0T1",
            "name": "masselot.camille",
            "is_restricted": false,
            "is_ultra_restricted": false
        },
        "blocks": [
            {
                "type": "rich_text",
                "block_id": "YR+h",
                "elements": [
                    {
                        "type": "rich_text_section",
                        "elements": [
                            {
                                "type": "text",
                                "text": "Sure! Ping me on Slack when you need it"
                            }
                        ]
                    }
                ]
            }
        ],
        "thread_ts": "1586542769.473400",
        "parent_user_id": "U011VF29MK2"
    },
    {
        "client_msg_id": "46cabdd4-16a8-4972-b3df-fa6e84b63131",
        "type": "message",
        "text": "<@U01072UT127> Hi, Do you have time to tounchbase today?",
        "user": "U011VF29MK2",
        "ts": "1586794143.486300",
        "team": "TUU48M0T1",
        "user_team": "TUU48M0T1",
        "source_team": "TUU48M0T1",
        "user_profile": {
            "avatar_hash": "0ef0287e69f4",
            "image_72": "https:\/\/avatars.slack-edge.com\/2020-04-07\/1045707527815_0ef0287e69f4d3296eaf_72.jpg",
            "first_name": "Catherine",
            "real_name": "Catherine Coykendall",
            "display_name": "Catherine Coykendall - Marketing Consultant",
            "team": "TUU48M0T1",
            "name": "c.coyken1978",
            "is_restricted": false,
            "is_ultra_restricted": false
        },
        "blocks": [
            {
                "type": "rich_text",
                "block_id": "DavaR",
                "elements": [
                    {
                        "type": "rich_text_section",
                        "elements": [
                            {
                                "type": "user",
                                "user_id": "U01072UT127"
                            },
                            {
                                "type": "text",
                                "text": " Hi, Do you have time to tounchbase today?"
                            }
                        ]
                    }
                ]
            }
        ],
        "thread_ts": "1586542769.473400",
        "parent_user_id": "U011VF29MK2"
    },
    {
        "client_msg_id": "18524300-8a6c-4ca6-8f5b-e91c4f7ac754",
        "type": "message",
        "text": "I requested a demo for HootSuite, and they sent me this link: <https:\/\/app.goconsensus.com\/play\/43b37ca2>. Can people look through this and share their thoughts (if you haven't used HootSuite before)? I'm not sure if this link will work for everybody. If it doesn't, let me know.",
        "user": "UV2SC7ZE3",
        "ts": "1586798098.488600",
        "team": "TUU48M0T1",
        "user_team": "TUU48M0T1",
        "source_team": "TUU48M0T1",
        "user_profile": {
            "avatar_hash": "d28dd0d076e8",
            "image_72": "https:\/\/avatars.slack-edge.com\/2020-03-14\/987873094258_d28dd0d076e8fa9a8409_72.png",
            "first_name": "David",
            "real_name": "David Lu",
            "display_name": "David Lu",
            "team": "TUU48M0T1",
            "name": "ludavidyi",
            "is_restricted": false,
            "is_ultra_restricted": false
        },
        "blocks": [
            {
                "type": "rich_text",
                "block_id": "s9R",
                "elements": [
                    {
                        "type": "rich_text_section",
                        "elements": [
                            {
                                "type": "text",
                                "text": "I requested a demo for HootSuite, and they sent me this link: "
                            },
                            {
                                "type": "link",
                                "url": "https:\/\/app.goconsensus.com\/play\/43b37ca2"
                            },
                            {
                                "type": "text",
                                "text": ". Can people look through this and share their thoughts (if you haven't used HootSuite before)? I'm not sure if this link will work for everybody. If it doesn't, let me know."
                            }
                        ]
                    }
                ]
            }
        ]
    },
    {
        "client_msg_id": "20e75b93-be4b-4a39-bb62-8acd2ee633c8",
        "type": "message",
        "text": "We can also do a live demo on Friday April 17th at 2:30 pm EDT (which also coincides with our scheduled Friday meetings at 8 pm CEST. If you guys want that, please let me know. Once people get an idea of how Hootsuite works, we can make a decision as to whether we want to use it or not.",
        "user": "UV2SC7ZE3",
        "ts": "1586798487.490700",
        "team": "TUU48M0T1",
        "user_team": "TUU48M0T1",
        "source_team": "TUU48M0T1",
        "user_profile": {
            "avatar_hash": "d28dd0d076e8",
            "image_72": "https:\/\/avatars.slack-edge.com\/2020-03-14\/987873094258_d28dd0d076e8fa9a8409_72.png",
            "first_name": "David",
            "real_name": "David Lu",
            "display_name": "David Lu",
            "team": "TUU48M0T1",
            "name": "ludavidyi",
            "is_restricted": false,
            "is_ultra_restricted": false
        },
        "blocks": [
            {
                "type": "rich_text",
                "block_id": "KsgL",
                "elements": [
                    {
                        "type": "rich_text_section",
                        "elements": [
                            {
                                "type": "text",
                                "text": "We can also do a live demo on Friday April 17th at 2:30 pm EDT (which also coincides with our scheduled Friday meetings at 8 pm CEST. If you guys want that, please let me know. Once people get an idea of how Hootsuite works, we can make a decision as to whether we want to use it or not."
                            }
                        ]
                    }
                ]
            }
        ]
    },
    {
        "client_msg_id": "2058136B-DF35-4C25-926E-D7B3069ADC1F",
        "type": "message",
        "text": "<@U011VF29MK2> I’m a little snowed under today. How are you fixed tmr?",
        "user": "U01072UT127",
        "ts": "1586807546.497000",
        "team": "TUU48M0T1",
        "user_team": "TUU48M0T1",
        "source_team": "TUU48M0T1",
        "user_profile": {
            "avatar_hash": "65a47b12fd55",
            "image_72": "https:\/\/avatars.slack-edge.com\/2020-03-23\/1018603039072_65a47b12fd55dde2b3ca_72.jpg",
            "first_name": "David",
            "real_name": "David Suter",
            "display_name": "David Suter",
            "team": "TUU48M0T1",
            "name": "davidsuter01",
            "is_restricted": false,
            "is_ultra_restricted": false
        },
        "thread_ts": "1586542769.473400",
        "parent_user_id": "U011VF29MK2"
    },
    {
        "client_msg_id": "62400c5b-28a5-4718-8871-4254f8215e1e",
        "type": "message",
        "text": "<@U01072UT127> <@UVC9WMA7N> <@UV9V03C8Y> <@UV2SC7ZE3>  Hi All! When is a good time to touch base on a brand\/social media strategy?  I would like to use this time to review a list of elements that I feel need to be addressed, and give everyone an opportunity to provide feedback so we can align on the contents for a deck. Is there a good time tomorrow afternoon?",
        "user": "U011VF29MK2",
        "ts": "1586807650.498400",
        "team": "TUU48M0T1",
        "user_team": "TUU48M0T1",
        "source_team": "TUU48M0T1",
        "user_profile": {
            "avatar_hash": "0ef0287e69f4",
            "image_72": "https:\/\/avatars.slack-edge.com\/2020-04-07\/1045707527815_0ef0287e69f4d3296eaf_72.jpg",
            "first_name": "Catherine",
            "real_name": "Catherine Coykendall",
            "display_name": "Catherine Coykendall - Marketing Consultant",
            "team": "TUU48M0T1",
            "name": "c.coyken1978",
            "is_restricted": false,
            "is_ultra_restricted": false
        },
        "blocks": [
            {
                "type": "rich_text",
                "block_id": "wNVT",
                "elements": [
                    {
                        "type": "rich_text_section",
                        "elements": [
                            {
                                "type": "user",
                                "user_id": "U01072UT127"
                            },
                            {
                                "type": "text",
                                "text": " "
                            },
                            {
                                "type": "user",
                                "user_id": "UVC9WMA7N"
                            },
                            {
                                "type": "text",
                                "text": " "
                            },
                            {
                                "type": "user",
                                "user_id": "UV9V03C8Y"
                            },
                            {
                                "type": "text",
                                "text": " "
                            },
                            {
                                "type": "user",
                                "user_id": "UV2SC7ZE3"
                            },
                            {
                                "type": "text",
                                "text": "  Hi All! When is a good time to touch base on a brand\/social media strategy?  I would like to use this time to review a list of elements that I feel need to be addressed, and give everyone an opportunity to provide feedback so we can align on the contents for a deck. Is there a good time tomorrow afternoon?"
                            }
                        ]
                    }
                ]
            }
        ],
        "thread_ts": "1586807650.498400",
        "reply_count": 2,
        "reply_users_count": 1,
        "latest_reply": "1586840517.003400",
        "reply_users": [
            "UV2SC7ZE3"
        ],
        "replies": [
            {
                "user": "UV2SC7ZE3",
                "ts": "1586840456.003200"
            },
            {
                "user": "UV2SC7ZE3",
                "ts": "1586840517.003400"
            }
        ],
        "subscribed": false
    },
    {
        "client_msg_id": "26d55ae7-cd46-403d-b3bc-5656df855045",
        "type": "message",
        "text": "<@U011VF29MK2>, we can set a meeting for Thursday or Friday with <@UV02WET96> and <@UVC9WMA7N>. In the meantime, if you need us to work to that, I'm free from tomorrow 3PM UTC. Also I'm happy to provide you with presentation of JOGL and other similar documents.",
        "user": "UV9V03C8Y",
        "ts": "1586809044.498500",
        "team": "TUU48M0T1",
        "user_team": "TUU48M0T1",
        "source_team": "TUU48M0T1",
        "user_profile": {
            "avatar_hash": "177697fb7b8f",
            "image_72": "https:\/\/avatars.slack-edge.com\/2020-03-12\/996126178096_177697fb7b8ffa57649c_72.jpg",
            "first_name": "Camille",
            "real_name": "Camille Masselot - JOGL Program coordinator",
            "display_name": "Camille Masselot - JOGL coordinator",
            "team": "TUU48M0T1",
            "name": "masselot.camille",
            "is_restricted": false,
            "is_ultra_restricted": false
        },
        "blocks": [
            {
                "type": "rich_text",
                "block_id": "isqT",
                "elements": [
                    {
                        "type": "rich_text_section",
                        "elements": [
                            {
                                "type": "user",
                                "user_id": "U011VF29MK2"
                            },
                            {
                                "type": "text",
                                "text": ", we can set a meeting for Thursday or Friday with "
                            },
                            {
                                "type": "user",
                                "user_id": "UV02WET96"
                            },
                            {
                                "type": "text",
                                "text": " and "
                            },
                            {
                                "type": "user",
                                "user_id": "UVC9WMA7N"
                            },
                            {
                                "type": "text",
                                "text": ". In the meantime, if you need us to work to that, I'm free from tomorrow 3PM UTC. Also I'm happy to provide you with presentation of JOGL and other similar documents."
                            }
                        ]
                    }
                ]
            }
        ],
        "thread_ts": "1586542769.473400",
        "parent_user_id": "U011VF29MK2"
    },
    {
        "client_msg_id": "f48577a2-a222-4a54-9294-1f079d7bffca",
        "type": "message",
        "text": "Hi Camille, Thank you, I would love that, do you mind scheduling? I’d like all of us to be aligned on the contents of the deck but defer to you as to what is best",
        "user": "U011VF29MK2",
        "ts": "1586809206.498700",
        "team": "TUU48M0T1",
        "user_team": "TUU48M0T1",
        "source_team": "TUU48M0T1",
        "user_profile": {
            "avatar_hash": "0ef0287e69f4",
            "image_72": "https:\/\/avatars.slack-edge.com\/2020-04-07\/1045707527815_0ef0287e69f4d3296eaf_72.jpg",
            "first_name": "Catherine",
            "real_name": "Catherine Coykendall",
            "display_name": "Catherine Coykendall - Marketing Consultant",
            "team": "TUU48M0T1",
            "name": "c.coyken1978",
            "is_restricted": false,
            "is_ultra_restricted": false
        },
        "blocks": [
            {
                "type": "rich_text",
                "block_id": "10M",
                "elements": [
                    {
                        "type": "rich_text_section",
                        "elements": [
                            {
                                "type": "text",
                                "text": "Hi Camille, Thank you, I would love that, do you mind scheduling? I’d like all of us to be aligned on the contents of the deck but defer to you as to what is best"
                            }
                        ]
                    }
                ]
            }
        ],
        "thread_ts": "1586542769.473400",
        "parent_user_id": "U011VF29MK2"
    },
    {
        "client_msg_id": "bf9a0da6-63d8-4ccc-9ac8-8503526a26ab",
        "type": "message",
        "text": "Hi, I have three posts that are almost ready for social media. They're just graphics to get volunteers for 1 of the project. Feedback is welcome. When the edgame team has provided feedback, do I just place the posts in the social media folder (different sizes for different platforms) and schedule 1 per week in the calendar template?\n<https:\/\/www.canva.com\/design\/DAD5YEpCSyY\/Jv_IjDhKcfFw9WKtl7XGeQ\/view?utm_content=DAD5YEpCSyY&amp;utm_campaign=designshare&amp;utm_medium=link&amp;utm_source=sharebutton>",
        "user": "U0103LPAWQ4",
        "ts": "1586827141.002600",
        "team": "TUU48M0T1",
        "user_team": "TUU48M0T1",
        "source_team": "TUU48M0T1",
        "user_profile": {
            "avatar_hash": "7b345029e813",
            "image_72": "https:\/\/avatars.slack-edge.com\/2020-03-17\/1004213082549_7b345029e8137cbdc6b0_72.jpg",
            "first_name": "Bre",
            "real_name": "Bre",
            "display_name": "Bre",
            "team": "TUU48M0T1",
            "name": "info",
            "is_restricted": false,
            "is_ultra_restricted": false
        },
        "attachments": [
            {
                "service_name": "Canva",
                "title": "Volunteers Proj EdGame",
                "title_link": "https:\/\/www.canva.com\/design\/DAD5YEpCSyY\/Jv_IjDhKcfFw9WKtl7XGeQ\/view?utm_content=DAD5YEpCSyY&utm_campaign=designshare&utm_medium=link&utm_source=sharebutton",
                "text": "An awesome Facebook post designed in Canva by Bre.",
                "fallback": "Canva: Volunteers Proj EdGame",
                "image_url": "https:\/\/document-export.canva.com\/DAD5YEpCSyY\/1\/preview\/0001-6004459669.png",
                "image_width": 179,
                "image_height": 250,
                "from_url": "https:\/\/www.canva.com\/design\/DAD5YEpCSyY\/Jv_IjDhKcfFw9WKtl7XGeQ\/view?utm_content=DAD5YEpCSyY&utm_campaign=designshare&utm_medium=link&utm_source=sharebutton",
                "image_bytes": 73353,
                "service_icon": "https:\/\/static.canva.com\/static\/images\/apple-touch-120x120.png",
                "id": 1,
                "original_url": "https:\/\/www.canva.com\/design\/DAD5YEpCSyY\/Jv_IjDhKcfFw9WKtl7XGeQ\/view?utm_content=DAD5YEpCSyY&amp;utm_campaign=designshare&amp;utm_medium=link&amp;utm_source=sharebutton"
            }
        ],
        "blocks": [
            {
                "type": "rich_text",
                "block_id": "Uzp",
                "elements": [
                    {
                        "type": "rich_text_section",
                        "elements": [
                            {
                                "type": "text",
                                "text": "Hi, I have three posts that are almost ready for social media. They're just graphics to get volunteers for 1 of the project. Feedback is welcome. When the edgame team has provided feedback, do I just place the posts in the social media folder (different sizes for different platforms) and schedule 1 per week in the calendar template?\n"
                            },
                            {
                                "type": "link",
                                "url": "https:\/\/www.canva.com\/design\/DAD5YEpCSyY\/Jv_IjDhKcfFw9WKtl7XGeQ\/view?utm_content=DAD5YEpCSyY&utm_campaign=designshare&utm_medium=link&utm_source=sharebutton"
                            }
                        ]
                    }
                ]
            }
        ],
        "thread_ts": "1586827141.002600",
        "reply_count": 9,
        "reply_users_count": 4,
        "latest_reply": "1586905072.026400",
        "reply_users": [
            "UV2SC7ZE3",
            "U0103LPAWQ4",
            "U010BMYLX36",
            "U010APQC76J"
        ],
        "replies": [
            {
                "user": "UV2SC7ZE3",
                "ts": "1586841109.003800"
            },
            {
                "user": "UV2SC7ZE3",
                "ts": "1586841144.004000"
            },
            {
                "user": "U0103LPAWQ4",
                "ts": "1586854084.004400"
            },
            {
                "user": "U010BMYLX36",
                "ts": "1586868376.005200"
            },
            {
                "user": "U010APQC76J",
                "ts": "1586875069.006800"
            },
            {
                "user": "U0103LPAWQ4",
                "ts": "1586894884.020400"
            },
            {
                "user": "U0103LPAWQ4",
                "ts": "1586895061.020600"
            },
            {
                "user": "U0103LPAWQ4",
                "ts": "1586904092.026200"
            },
            {
                "user": "U0103LPAWQ4",
                "ts": "1586905072.026400"
            }
        ],
        "subscribed": false
    },
    {
        "client_msg_id": "2e555776-8afd-434d-af62-3ebe92a943f6",
        "type": "message",
        "text": "Tomorrow early afternoon should work for me. Anytime after 2 pm CET should work",
        "user": "UV2SC7ZE3",
        "ts": "1586840456.003200",
        "team": "TUU48M0T1",
        "user_team": "TUU48M0T1",
        "source_team": "TUU48M0T1",
        "user_profile": {
            "avatar_hash": "d28dd0d076e8",
            "image_72": "https:\/\/avatars.slack-edge.com\/2020-03-14\/987873094258_d28dd0d076e8fa9a8409_72.png",
            "first_name": "David",
            "real_name": "David Lu",
            "display_name": "David Lu",
            "team": "TUU48M0T1",
            "name": "ludavidyi",
            "is_restricted": false,
            "is_ultra_restricted": false
        },
        "blocks": [
            {
                "type": "rich_text",
                "block_id": "hS+Ki",
                "elements": [
                    {
                        "type": "rich_text_section",
                        "elements": [
                            {
                                "type": "text",
                                "text": "Tomorrow early afternoon should work for me. Anytime after 2 pm CET should work"
                            }
                        ]
                    }
                ]
            }
        ],
        "thread_ts": "1586807650.498400",
        "parent_user_id": "U011VF29MK2"
    },
    {
        "client_msg_id": "0acee745-3dde-4804-b902-c6c6d8da52ae",
        "type": "message",
        "text": "There was also a weekly scheduled meeting on Tuesday at 6 pm CET. However, I'm not sure how active people are...",
        "user": "UV2SC7ZE3",
        "ts": "1586840517.003400",
        "team": "TUU48M0T1",
        "user_team": "TUU48M0T1",
        "source_team": "TUU48M0T1",
        "user_profile": {
            "avatar_hash": "d28dd0d076e8",
            "image_72": "https:\/\/avatars.slack-edge.com\/2020-03-14\/987873094258_d28dd0d076e8fa9a8409_72.png",
            "first_name": "David",
            "real_name": "David Lu",
            "display_name": "David Lu",
            "team": "TUU48M0T1",
            "name": "ludavidyi",
            "is_restricted": false,
            "is_ultra_restricted": false
        },
        "blocks": [
            {
                "type": "rich_text",
                "block_id": "YSKv",
                "elements": [
                    {
                        "type": "rich_text_section",
                        "elements": [
                            {
                                "type": "text",
                                "text": "There was also a weekly scheduled meeting on Tuesday at 6 pm CET. However, I'm not sure how active people are..."
                            }
                        ]
                    }
                ]
            }
        ],
        "thread_ts": "1586807650.498400",
        "parent_user_id": "U011VF29MK2"
    },
    {
        "client_msg_id": "ca3d0218-043e-4585-ae38-65210c357988",
        "type": "message",
        "text": "Hey Bre! I like them! Can you follow the directions on this doc: <https:\/\/docs.google.com\/document\/d\/1DrckucsfcHW_TuhZW1nJhV739U876kPIOdzP5garmSM\/edit>",
        "user": "UV2SC7ZE3",
        "ts": "1586841109.003800",
        "team": "TUU48M0T1",
        "user_team": "TUU48M0T1",
        "source_team": "TUU48M0T1",
        "user_profile": {
            "avatar_hash": "d28dd0d076e8",
            "image_72": "https:\/\/avatars.slack-edge.com\/2020-03-14\/987873094258_d28dd0d076e8fa9a8409_72.png",
            "first_name": "David",
            "real_name": "David Lu",
            "display_name": "David Lu",
            "team": "TUU48M0T1",
            "name": "ludavidyi",
            "is_restricted": false,
            "is_ultra_restricted": false
        },
        "blocks": [
            {
                "type": "rich_text",
                "block_id": "k6w=n",
                "elements": [
                    {
                        "type": "rich_text_section",
                        "elements": [
                            {
                                "type": "text",
                                "text": "Hey Bre! I like them! Can you follow the directions on this doc: "
                            },
                            {
                                "type": "link",
                                "url": "https:\/\/docs.google.com\/document\/d\/1DrckucsfcHW_TuhZW1nJhV739U876kPIOdzP5garmSM\/edit"
                            }
                        ]
                    }
                ]
            }
        ],
        "thread_ts": "1586827141.002600",
        "parent_user_id": "U0103LPAWQ4",
        "reactions": [
            {
                "name": "+1::skin-tone-4",
                "users": [
                    "U0103LPAWQ4"
                ],
                "count": 1
            }
        ]
    },
    {
        "client_msg_id": "490590cb-63ac-44af-994a-c59126024c90",
        "type": "message",
        "text": "Please comment if anything is confusing, this is a temporary solution to get our message out there",
        "user": "UV2SC7ZE3",
        "ts": "1586841144.004000",
        "team": "TUU48M0T1",
        "user_team": "TUU48M0T1",
        "source_team": "TUU48M0T1",
        "user_profile": {
            "avatar_hash": "d28dd0d076e8",
            "image_72": "https:\/\/avatars.slack-edge.com\/2020-03-14\/987873094258_d28dd0d076e8fa9a8409_72.png",
            "first_name": "David",
            "real_name": "David Lu",
            "display_name": "David Lu",
            "team": "TUU48M0T1",
            "name": "ludavidyi",
            "is_restricted": false,
            "is_ultra_restricted": false
        },
        "blocks": [
            {
                "type": "rich_text",
                "block_id": "dqYcz",
                "elements": [
                    {
                        "type": "rich_text_section",
                        "elements": [
                            {
                                "type": "text",
                                "text": "Please comment if anything is confusing, this is a temporary solution to get our message out there"
                            }
                        ]
                    }
                ]
            }
        ],
        "thread_ts": "1586827141.002600",
        "parent_user_id": "U0103LPAWQ4"
    }
]