[
    {
        "client_msg_id": "a5d890e1-93fb-4944-9432-d01062231c90",
        "type": "message",
        "text": "<@UUWPKNE2E> could you maybe help <@U011VF29MK2> with google analytics related to social media please :slightly_smiling_face:?",
        "user": "UV9V03C8Y",
        "ts": "1587637047.153200",
        "team": "TUU48M0T1",
        "user_team": "TUU48M0T1",
        "source_team": "TUU48M0T1",
        "user_profile": {
            "avatar_hash": "177697fb7b8f",
            "image_72": "https:\/\/avatars.slack-edge.com\/2020-03-12\/996126178096_177697fb7b8ffa57649c_72.jpg",
            "first_name": "Camille",
            "real_name": "Camille Masselot - JOGL Program coordinator",
            "display_name": "Camille Masselot - JOGL coordinator",
            "team": "TUU48M0T1",
            "name": "masselot.camille",
            "is_restricted": false,
            "is_ultra_restricted": false
        },
        "blocks": [
            {
                "type": "rich_text",
                "block_id": "rNta",
                "elements": [
                    {
                        "type": "rich_text_section",
                        "elements": [
                            {
                                "type": "user",
                                "user_id": "UUWPKNE2E"
                            },
                            {
                                "type": "text",
                                "text": " could you maybe help "
                            },
                            {
                                "type": "user",
                                "user_id": "U011VF29MK2"
                            },
                            {
                                "type": "text",
                                "text": " with google analytics related to social media please "
                            },
                            {
                                "type": "emoji",
                                "name": "slightly_smiling_face"
                            },
                            {
                                "type": "text",
                                "text": "?"
                            }
                        ]
                    }
                ]
            }
        ],
        "thread_ts": "1587590448.147300",
        "parent_user_id": "U011VF29MK2"
    },
    {
        "client_msg_id": "b1c2262b-8415-4a8f-99b8-0f65459fa5a1",
        "type": "message",
        "text": "Hi <@U011VF29MK2>, feel free to mp me or create a private conversation just for this :slightly_smiling_face:",
        "user": "UUWPKNE2E",
        "ts": "1587651754.153700",
        "team": "TUU48M0T1",
        "user_team": "TUU48M0T1",
        "source_team": "TUU48M0T1",
        "user_profile": {
            "avatar_hash": "f620efd9688e",
            "image_72": "https:\/\/avatars.slack-edge.com\/2020-03-12\/997456647751_f620efd9688ed753ecfc_72.jpg",
            "first_name": "Luca",
            "real_name": "Luca Haenel",
            "display_name": "Luca Haenel - JOGL Developer",
            "team": "TUU48M0T1",
            "name": "luca.haenel",
            "is_restricted": false,
            "is_ultra_restricted": false
        },
        "blocks": [
            {
                "type": "rich_text",
                "block_id": "yb7J",
                "elements": [
                    {
                        "type": "rich_text_section",
                        "elements": [
                            {
                                "type": "text",
                                "text": "Hi "
                            },
                            {
                                "type": "user",
                                "user_id": "U011VF29MK2"
                            },
                            {
                                "type": "text",
                                "text": ", feel free to mp me or create a private conversation just for this "
                            },
                            {
                                "type": "emoji",
                                "name": "slightly_smiling_face"
                            }
                        ]
                    }
                ]
            }
        ],
        "thread_ts": "1587590448.147300",
        "parent_user_id": "U011VF29MK2"
    },
    {
        "client_msg_id": "90a0e03a-9417-4f04-9965-54cf8c2acf5f",
        "type": "message",
        "text": "<@U0101DKUALV> just saw this message stream, please let me know if you need any comms documents to promote the work through AWIS or Bellevue College, one of my clients is University of Puget Sound, so perhaps we can share the same message to help grow awareness. We’ll also want to work on an engagement piece to determine how best to keep those volunteers active in the community. Sorry if I’m stating the obvious, wanting to make introductions and see how to best use the Comms team to help your immediate needs.",
        "user": "U010Q3372P3",
        "ts": "1587665234.157200",
        "team": "TUU48M0T1",
        "user_team": "TUU48M0T1",
        "source_team": "TUU48M0T1",
        "user_profile": {
            "avatar_hash": "95066184973b",
            "image_72": "https:\/\/avatars.slack-edge.com\/2020-03-30\/1036274198128_95066184973b1de50d1a_72.png",
            "first_name": "Kathryn",
            "real_name": "Kathryn Rowe",
            "display_name": "Kathryn Rowe",
            "team": "TUU48M0T1",
            "name": "kathryn.rowe",
            "is_restricted": false,
            "is_ultra_restricted": false
        },
        "blocks": [
            {
                "type": "rich_text",
                "block_id": "=7f",
                "elements": [
                    {
                        "type": "rich_text_section",
                        "elements": [
                            {
                                "type": "user",
                                "user_id": "U0101DKUALV"
                            },
                            {
                                "type": "text",
                                "text": " just saw this message stream, please let me know if you need any comms documents to promote the work through AWIS or Bellevue College, one of my clients is University of Puget Sound, so perhaps we can share the same message to help grow awareness. We’ll also want to work on an engagement piece to determine how best to keep those volunteers active in the community. Sorry if I’m stating the obvious, wanting to make introductions and see how to best use the Comms team to help your immediate needs."
                            }
                        ]
                    }
                ]
            }
        ],
        "thread_ts": "1587665234.157200",
        "reply_count": 2,
        "reply_users_count": 2,
        "latest_reply": "1587745628.159900",
        "reply_users": [
            "U0101DKUALV",
            "UV9V03C8Y"
        ],
        "replies": [
            {
                "user": "U0101DKUALV",
                "ts": "1587665556.157400"
            },
            {
                "user": "UV9V03C8Y",
                "ts": "1587745628.159900"
            }
        ],
        "subscribed": false
    },
    {
        "client_msg_id": "c1396f96-e00e-4764-bc19-4e81f1507f18",
        "type": "message",
        "text": "Kathryn, that would be super awesome! I also agree it would be very helpful to have one cohesive... package? (Kit, if you will) to forward to orgs in this area. What will you need from Student Engagement?",
        "user": "U0101DKUALV",
        "ts": "1587665556.157400",
        "team": "TUU48M0T1",
        "user_team": "TUU48M0T1",
        "source_team": "TUU48M0T1",
        "user_profile": {
            "avatar_hash": "b0aee06ed3e5",
            "image_72": "https:\/\/avatars.slack-edge.com\/2020-04-22\/1072886325190_b0aee06ed3e501ebdf56_72.png",
            "first_name": "",
            "real_name": "Pauline Chane",
            "display_name": "Pauline Chane",
            "team": "TUU48M0T1",
            "name": "pauline.chane",
            "is_restricted": false,
            "is_ultra_restricted": false
        },
        "blocks": [
            {
                "type": "rich_text",
                "block_id": "jjZB",
                "elements": [
                    {
                        "type": "rich_text_section",
                        "elements": [
                            {
                                "type": "text",
                                "text": "Kathryn, that would be super awesome! I also agree it would be very helpful to have one cohesive... package? (Kit, if you will) to forward to orgs in this area. What will you need from Student Engagement?"
                            }
                        ]
                    }
                ]
            }
        ],
        "thread_ts": "1587665234.157200",
        "parent_user_id": "U010Q3372P3"
    },
    {
        "client_msg_id": "c4b6f7a3-7ee5-432d-925f-dff19228ce4d",
        "type": "message",
        "text": "<@UUWPKNE2E> Terrific! thank you, let me review in more detail and I'll reach out shortly.",
        "user": "U011VF29MK2",
        "ts": "1587668910.158200",
        "team": "TUU48M0T1",
        "user_team": "TUU48M0T1",
        "source_team": "TUU48M0T1",
        "user_profile": {
            "avatar_hash": "0ef0287e69f4",
            "image_72": "https:\/\/avatars.slack-edge.com\/2020-04-07\/1045707527815_0ef0287e69f4d3296eaf_72.jpg",
            "first_name": "Catherine",
            "real_name": "Catherine Coykendall",
            "display_name": "Catherine Coykendall - Marketing Consultant",
            "team": "TUU48M0T1",
            "name": "c.coyken1978",
            "is_restricted": false,
            "is_ultra_restricted": false
        },
        "blocks": [
            {
                "type": "rich_text",
                "block_id": "Sg4IC",
                "elements": [
                    {
                        "type": "rich_text_section",
                        "elements": [
                            {
                                "type": "user",
                                "user_id": "UUWPKNE2E"
                            },
                            {
                                "type": "text",
                                "text": " Terrific! thank you, let me review in more detail and I'll reach out shortly."
                            }
                        ]
                    }
                ]
            }
        ],
        "thread_ts": "1587590448.147300",
        "parent_user_id": "U011VF29MK2"
    },
    {
        "client_msg_id": "93a4a1a7-48e0-4ce0-92a9-f22b14ff2c62",
        "type": "message",
        "text": "ok great!",
        "user": "UUWPKNE2E",
        "ts": "1587671882.158400",
        "team": "TUU48M0T1",
        "user_team": "TUU48M0T1",
        "source_team": "TUU48M0T1",
        "user_profile": {
            "avatar_hash": "f620efd9688e",
            "image_72": "https:\/\/avatars.slack-edge.com\/2020-03-12\/997456647751_f620efd9688ed753ecfc_72.jpg",
            "first_name": "Luca",
            "real_name": "Luca Haenel",
            "display_name": "Luca Haenel - JOGL Developer",
            "team": "TUU48M0T1",
            "name": "luca.haenel",
            "is_restricted": false,
            "is_ultra_restricted": false
        },
        "blocks": [
            {
                "type": "rich_text",
                "block_id": "HIh9F",
                "elements": [
                    {
                        "type": "rich_text_section",
                        "elements": [
                            {
                                "type": "text",
                                "text": "ok great!"
                            }
                        ]
                    }
                ]
            }
        ],
        "thread_ts": "1587590448.147300",
        "parent_user_id": "U011VF29MK2"
    }
]