[
    {
        "client_msg_id": "bdf4c1e5-0f4c-4b58-9063-e52f6c03b44f",
        "type": "message",
        "text": "<@UV02WET96> Great work on the form! One comment: Since the function of the mask is protection, we could replace \"effective\" by \"protective\"",
        "user": "U01081Y0TBP",
        "ts": "1585119945.000300",
        "team": "TUU48M0T1",
        "user_team": "TUU48M0T1",
        "source_team": "TUU48M0T1",
        "user_profile": {
            "avatar_hash": "60ec5b47107a",
            "image_72": "https:\/\/avatars.slack-edge.com\/2020-03-18\/995274181218_60ec5b47107a3bd2ca7d_72.jpg",
            "first_name": "Peter",
            "real_name": "Peter Kooren",
            "display_name": "Peter Kooren",
            "team": "TUU48M0T1",
            "name": "peterkooren",
            "is_restricted": false,
            "is_ultra_restricted": false
        },
        "blocks": [
            {
                "type": "rich_text",
                "block_id": "15s",
                "elements": [
                    {
                        "type": "rich_text_section",
                        "elements": [
                            {
                                "type": "user",
                                "user_id": "UV02WET96"
                            },
                            {
                                "type": "text",
                                "text": " Great work on the form! One comment: Since the function of the mask is protection, we could replace \"effective\" by \"protective\""
                            }
                        ]
                    }
                ]
            }
        ],
        "thread_ts": "1585094264.038300",
        "parent_user_id": "UV02WET96"
    },
    {
        "client_msg_id": "df209abc-61ca-449f-a35c-9ee24aed2278",
        "type": "message",
        "text": "Regarding the separation. The standard for face masks talks about type I, type II and type IIR masks",
        "user": "U01081Y0TBP",
        "ts": "1585137039.000500",
        "team": "TUU48M0T1",
        "user_team": "TUU48M0T1",
        "source_team": "TUU48M0T1",
        "user_profile": {
            "avatar_hash": "60ec5b47107a",
            "image_72": "https:\/\/avatars.slack-edge.com\/2020-03-18\/995274181218_60ec5b47107a3bd2ca7d_72.jpg",
            "first_name": "Peter",
            "real_name": "Peter Kooren",
            "display_name": "Peter Kooren",
            "team": "TUU48M0T1",
            "name": "peterkooren",
            "is_restricted": false,
            "is_ultra_restricted": false
        },
        "blocks": [
            {
                "type": "rich_text",
                "block_id": "jboc",
                "elements": [
                    {
                        "type": "rich_text_section",
                        "elements": [
                            {
                                "type": "text",
                                "text": "Regarding the separation. The standard for face masks talks about type I, type II and type IIR masks"
                            }
                        ]
                    }
                ]
            }
        ],
        "thread_ts": "1585094264.038300",
        "parent_user_id": "UV02WET96"
    },
    {
        "client_msg_id": "465e02b8-8560-4b40-be85-ebe704457f2b",
        "type": "message",
        "text": "<@U01081Y0TBP> The goal for using effective was to alllow this approach to be used for anything - i.e. effective simply means effective at doing its intended job.  This means we use the same phrasing and forms for ventilators as we do for masks etc.",
        "user": "U010HTBUHS9",
        "ts": "1585139735.000800",
        "team": "TUU48M0T1",
        "user_team": "TUU48M0T1",
        "source_team": "TUU48M0T1",
        "user_profile": {
            "avatar_hash": "e7bdbebff0d9",
            "image_72": "https:\/\/avatars.slack-edge.com\/2020-03-22\/1017951251813_e7bdbebff0d9ad1e8f12_72.jpg",
            "first_name": "",
            "real_name": "Adam Arabian",
            "display_name": "Adam Arabian",
            "team": "TUU48M0T1",
            "name": "adam.arabian",
            "is_restricted": false,
            "is_ultra_restricted": false
        },
        "blocks": [
            {
                "type": "rich_text",
                "block_id": "er6",
                "elements": [
                    {
                        "type": "rich_text_section",
                        "elements": [
                            {
                                "type": "user",
                                "user_id": "U01081Y0TBP"
                            },
                            {
                                "type": "text",
                                "text": " The goal for using effective was to alllow this approach to be used for anything - i.e. effective simply means effective at doing its intended job.  This means we use the same phrasing and forms for ventilators as we do for masks etc."
                            }
                        ]
                    }
                ]
            }
        ],
        "thread_ts": "1585094264.038300",
        "parent_user_id": "UV02WET96",
        "reactions": [
            {
                "name": "+1",
                "users": [
                    "UV02WET96",
                    "U01081Y0TBP"
                ],
                "count": 2
            }
        ]
    },
    {
        "client_msg_id": "2d6d1c1a-f451-49b4-979f-58eb4ad6aa5d",
        "type": "message",
        "text": "Put edits in to the survey with instructions and a <http:\/\/bit.ly|bit.ly> link to the survey itself.",
        "user": "U010HTBUHS9",
        "ts": "1585141092.001000",
        "team": "TUU48M0T1",
        "user_team": "TUU48M0T1",
        "source_team": "TUU48M0T1",
        "user_profile": {
            "avatar_hash": "e7bdbebff0d9",
            "image_72": "https:\/\/avatars.slack-edge.com\/2020-03-22\/1017951251813_e7bdbebff0d9ad1e8f12_72.jpg",
            "first_name": "",
            "real_name": "Adam Arabian",
            "display_name": "Adam Arabian",
            "team": "TUU48M0T1",
            "name": "adam.arabian",
            "is_restricted": false,
            "is_ultra_restricted": false
        },
        "blocks": [
            {
                "type": "rich_text",
                "block_id": "7G8",
                "elements": [
                    {
                        "type": "rich_text_section",
                        "elements": [
                            {
                                "type": "text",
                                "text": "Put edits in to the survey with instructions and a "
                            },
                            {
                                "type": "link",
                                "url": "http:\/\/bit.ly",
                                "text": "bit.ly"
                            },
                            {
                                "type": "text",
                                "text": " link to the survey itself."
                            }
                        ]
                    }
                ]
            }
        ],
        "thread_ts": "1585094264.038300",
        "parent_user_id": "UV02WET96"
    },
    {
        "client_msg_id": "f89bcc18-c2fc-48c2-a18c-91eb2a18271b",
        "type": "message",
        "text": "I'm realising that the surgical mask\/fpp2 distinction is not always clear in the spreadsheet entries. Some designs could be used as both depending on the filtering material.",
        "user": "UV2P3AQEN",
        "ts": "1585147590.001400",
        "team": "TUU48M0T1",
        "user_team": "TUU48M0T1",
        "source_team": "TUU48M0T1",
        "user_profile": {
            "avatar_hash": "82d977ce9645",
            "image_72": "https:\/\/avatars.slack-edge.com\/2020-03-16\/1003452392327_82d977ce9645ebc30917_72.jpg",
            "first_name": "Antonio",
            "real_name": "Antonio Mangiapane",
            "display_name": "Antonio Mangiapane",
            "team": "TUU48M0T1",
            "name": "antonio.mangiapane29",
            "is_restricted": false,
            "is_ultra_restricted": false
        },
        "blocks": [
            {
                "type": "rich_text",
                "block_id": "Tl1k2",
                "elements": [
                    {
                        "type": "rich_text_section",
                        "elements": [
                            {
                                "type": "text",
                                "text": "I'm realising that the surgical mask\/fpp2 distinction is not always clear in the spreadsheet entries. Some designs could be used as both depending on the filtering material."
                            }
                        ]
                    }
                ]
            }
        ],
        "thread_ts": "1585094264.038300",
        "parent_user_id": "UV02WET96"
    },
    {
        "client_msg_id": "64046fcd-94bb-4f55-a8f9-85e0df39f1b7",
        "type": "message",
        "text": "That looks great! Sorry im distracted today trying to source plastic for face shields here in chicago, but ill respond to the survey later if I can.",
        "user": "UV8FL0JCA",
        "ts": "1585147881.001600",
        "team": "TUU48M0T1",
        "user_team": "TUU48M0T1",
        "source_team": "TUU48M0T1",
        "user_profile": {
            "avatar_hash": "920c820f5900",
            "image_72": "https:\/\/avatars.slack-edge.com\/2020-03-17\/1009529536646_920c820f5900215fb339_72.jpg",
            "first_name": "Eric",
            "real_name": "Eric Chaves",
            "display_name": "Eric Chaves",
            "team": "TUU48M0T1",
            "name": "eric.chaves.llc",
            "is_restricted": false,
            "is_ultra_restricted": false
        },
        "blocks": [
            {
                "type": "rich_text",
                "block_id": "H0n",
                "elements": [
                    {
                        "type": "rich_text_section",
                        "elements": [
                            {
                                "type": "text",
                                "text": "That looks great! Sorry im distracted today trying to source plastic for face shields here in chicago, but ill respond to the survey later if I can."
                            }
                        ]
                    }
                ]
            }
        ],
        "thread_ts": "1585094264.038300",
        "parent_user_id": "UV02WET96"
    },
    {
        "client_msg_id": "4af8416c-add0-4070-a12a-21f07489a008",
        "type": "message",
        "text": "A workmate of mine manufactured shields made in transparent PVC with a 2D laser cutter. He said that a throughput of 1000 shields\/day could be easily reached with one machine",
        "user": "UV2P3AQEN",
        "ts": "1585148234.001800",
        "team": "TUU48M0T1",
        "user_team": "TUU48M0T1",
        "source_team": "TUU48M0T1",
        "user_profile": {
            "avatar_hash": "82d977ce9645",
            "image_72": "https:\/\/avatars.slack-edge.com\/2020-03-16\/1003452392327_82d977ce9645ebc30917_72.jpg",
            "first_name": "Antonio",
            "real_name": "Antonio Mangiapane",
            "display_name": "Antonio Mangiapane",
            "team": "TUU48M0T1",
            "name": "antonio.mangiapane29",
            "is_restricted": false,
            "is_ultra_restricted": false
        },
        "blocks": [
            {
                "type": "rich_text",
                "block_id": "VGB8",
                "elements": [
                    {
                        "type": "rich_text_section",
                        "elements": [
                            {
                                "type": "text",
                                "text": "A workmate of mine manufactured shields made in transparent PVC with a 2D laser cutter. He said that a throughput of 1000 shields\/day could be easily reached with one machine"
                            }
                        ]
                    }
                ]
            }
        ],
        "thread_ts": "1585094264.038300",
        "parent_user_id": "UV02WET96",
        "reactions": [
            {
                "name": "+1",
                "users": [
                    "UV02WET96"
                ],
                "count": 1
            }
        ]
    },
    {
        "client_msg_id": "3c17a77d-0ae5-41fe-9183-ec32e938225f",
        "type": "message",
        "text": "Nice. Quick note - folks should take care about laser cutting plastic and see recommendations about what is safe and what is not. I don’t think PVC is safe to laser cut, maybe they meant PET which I think is safe (but I don’t have expertise on this)",
        "user": "UV8FL0JCA",
        "ts": "1585156193.002100",
        "team": "TUU48M0T1",
        "user_team": "TUU48M0T1",
        "source_team": "TUU48M0T1",
        "user_profile": {
            "avatar_hash": "920c820f5900",
            "image_72": "https:\/\/avatars.slack-edge.com\/2020-03-17\/1009529536646_920c820f5900215fb339_72.jpg",
            "first_name": "Eric",
            "real_name": "Eric Chaves",
            "display_name": "Eric Chaves",
            "team": "TUU48M0T1",
            "name": "eric.chaves.llc",
            "is_restricted": false,
            "is_ultra_restricted": false
        },
        "edited": {
            "user": "UV8FL0JCA",
            "ts": "1585156230.000000"
        },
        "blocks": [
            {
                "type": "rich_text",
                "block_id": "OHD6L",
                "elements": [
                    {
                        "type": "rich_text_section",
                        "elements": [
                            {
                                "type": "text",
                                "text": "Nice. Quick note - folks should take care about laser cutting plastic and see recommendations about what is safe and what is not. I don’t think PVC is safe to laser cut, maybe they meant PET which I think is safe (but I don’t have expertise on this)"
                            }
                        ]
                    }
                ]
            }
        ],
        "thread_ts": "1585094264.038300",
        "parent_user_id": "UV02WET96"
    },
    {
        "client_msg_id": "35737621-e6ce-4159-b2b2-395a4442ff7b",
        "type": "message",
        "text": "Clear PVC is more translucent than transparent - you can see thorugh it but its not something (I don't think?) you would use?  But maybe.... Dunno.",
        "user": "U010HTBUHS9",
        "ts": "1585158766.002600",
        "team": "TUU48M0T1",
        "user_team": "TUU48M0T1",
        "source_team": "TUU48M0T1",
        "user_profile": {
            "avatar_hash": "e7bdbebff0d9",
            "image_72": "https:\/\/avatars.slack-edge.com\/2020-03-22\/1017951251813_e7bdbebff0d9ad1e8f12_72.jpg",
            "first_name": "",
            "real_name": "Adam Arabian",
            "display_name": "Adam Arabian",
            "team": "TUU48M0T1",
            "name": "adam.arabian",
            "is_restricted": false,
            "is_ultra_restricted": false
        },
        "blocks": [
            {
                "type": "rich_text",
                "block_id": "dojy2",
                "elements": [
                    {
                        "type": "rich_text_section",
                        "elements": [
                            {
                                "type": "text",
                                "text": "Clear PVC is more translucent than transparent - you can see thorugh it but its not something (I don't think?) you would use?  But maybe.... Dunno."
                            }
                        ]
                    }
                ]
            }
        ],
        "thread_ts": "1585094264.038300",
        "parent_user_id": "UV02WET96"
    },
    {
        "client_msg_id": "243e4406-1a14-4043-90f1-46221a4a40fe",
        "type": "message",
        "text": "I'll have to check, let you know",
        "user": "UV2P3AQEN",
        "ts": "1585158840.002800",
        "team": "TUU48M0T1",
        "user_team": "TUU48M0T1",
        "source_team": "TUU48M0T1",
        "user_profile": {
            "avatar_hash": "82d977ce9645",
            "image_72": "https:\/\/avatars.slack-edge.com\/2020-03-16\/1003452392327_82d977ce9645ebc30917_72.jpg",
            "first_name": "Antonio",
            "real_name": "Antonio Mangiapane",
            "display_name": "Antonio Mangiapane",
            "team": "TUU48M0T1",
            "name": "antonio.mangiapane29",
            "is_restricted": false,
            "is_ultra_restricted": false
        },
        "blocks": [
            {
                "type": "rich_text",
                "block_id": "q+z",
                "elements": [
                    {
                        "type": "rich_text_section",
                        "elements": [
                            {
                                "type": "text",
                                "text": "I'll have to check, let you know"
                            }
                        ]
                    }
                ]
            }
        ],
        "thread_ts": "1585094264.038300",
        "parent_user_id": "UV02WET96"
    },
    {
        "client_msg_id": "38477327-e566-474b-b254-1bcda8384dd3",
        "type": "message",
        "text": "PET or PETG is what we’ve been using. Here in chicago, this supplier has been coming through for us when we couldn’t find it anywhere else. Thanks Peterson’s! <http:\/\/petersenplastics.com\/item\/petg-2\/>",
        "user": "UV8FL0JCA",
        "ts": "1585159951.003200",
        "team": "TUU48M0T1",
        "user_team": "TUU48M0T1",
        "source_team": "TUU48M0T1",
        "user_profile": {
            "avatar_hash": "920c820f5900",
            "image_72": "https:\/\/avatars.slack-edge.com\/2020-03-17\/1009529536646_920c820f5900215fb339_72.jpg",
            "first_name": "Eric",
            "real_name": "Eric Chaves",
            "display_name": "Eric Chaves",
            "team": "TUU48M0T1",
            "name": "eric.chaves.llc",
            "is_restricted": false,
            "is_ultra_restricted": false
        },
        "attachments": [
            {
                "service_name": "Petersen Brother's Plastics",
                "title": "PETG - Petersen Brother's Plastics",
                "title_link": "http:\/\/petersenplastics.com\/item\/petg-2\/",
                "text": "Great as a front or backer to signage and framing. Light weight and flexible.",
                "fallback": "Petersen Brother's Plastics: PETG - Petersen Brother's Plastics",
                "image_url": "http:\/\/petersenplastics.com\/wp-content\/uploads\/2015\/01\/petg.jpg",
                "image_width": 317,
                "image_height": 250,
                "from_url": "http:\/\/petersenplastics.com\/item\/petg-2\/",
                "image_bytes": 15236,
                "id": 1,
                "original_url": "http:\/\/petersenplastics.com\/item\/petg-2\/"
            }
        ],
        "blocks": [
            {
                "type": "rich_text",
                "block_id": "l3OH",
                "elements": [
                    {
                        "type": "rich_text_section",
                        "elements": [
                            {
                                "type": "text",
                                "text": "PET or PETG is what we’ve been using. Here in chicago, this supplier has been coming through for us when we couldn’t find it anywhere else. Thanks Peterson’s! "
                            },
                            {
                                "type": "link",
                                "url": "http:\/\/petersenplastics.com\/item\/petg-2\/"
                            }
                        ]
                    }
                ]
            }
        ],
        "thread_ts": "1585094264.038300",
        "parent_user_id": "UV02WET96"
    },
    {
        "client_msg_id": "218d541a-a862-4253-9b9b-4f222135a7e2",
        "type": "message",
        "text": "We’re using .03in (.8mm) .02in (.5mm) should also work.",
        "user": "UV8FL0JCA",
        "ts": "1585159989.003500",
        "team": "TUU48M0T1",
        "user_team": "TUU48M0T1",
        "source_team": "TUU48M0T1",
        "user_profile": {
            "avatar_hash": "920c820f5900",
            "image_72": "https:\/\/avatars.slack-edge.com\/2020-03-17\/1009529536646_920c820f5900215fb339_72.jpg",
            "first_name": "Eric",
            "real_name": "Eric Chaves",
            "display_name": "Eric Chaves",
            "team": "TUU48M0T1",
            "name": "eric.chaves.llc",
            "is_restricted": false,
            "is_ultra_restricted": false
        },
        "blocks": [
            {
                "type": "rich_text",
                "block_id": "39sj5",
                "elements": [
                    {
                        "type": "rich_text_section",
                        "elements": [
                            {
                                "type": "text",
                                "text": "We’re using .03in (.8mm) .02in (.5mm) should also work."
                            }
                        ]
                    }
                ]
            }
        ],
        "thread_ts": "1585094264.038300",
        "parent_user_id": "UV02WET96"
    },
    {
        "client_msg_id": "3a8c5cf9-413a-4752-baea-5522487df472",
        "type": "message",
        "text": "Hi all, I would like to tell you about an initiative in our country (Slovakia) called \"Help the hospital\" or \"Pomôž nemocnici!\". It is about mass 3d-printing of face shields by community of people having 3d printers at home. Few individuals got together to build a website with instructions on what to print and how. They organize collection of prints from people who print at least 18 pcs of the shield holders and in return they give a 1 kg PETG spool (which yelds another 18 pcs). There are 150+ printers involved. The shield plates are laser cut and assembled centrally by people from the initiative. The hospitals may apply for receiving any number of shields they need on the website. I think this is worth sharing, even though the page is in Slovak. Maybe it will inspire someone. <https:\/\/pomoznemocnici.sk\/> BTW the original <https:\/\/grabcad.com\/library\/coronavirus-flu-reusable-mask-1|shield model> is from grabcad and was further improved. There is an article (in Czech) about printing masks and shields from the creator of PRUSA printers, Jozef Prusa: <https:\/\/josefprusa.cz\/od-navrhu-k-hromadnemu-3d-tisku-zdravotnickych-stitu-behem-tri-dnu\/>",
        "user": "U010B4EJG2C",
        "ts": "1585165714.012600",
        "team": "TUU48M0T1",
        "user_team": "TUU48M0T1",
        "source_team": "TUU48M0T1",
        "user_profile": {
            "avatar_hash": "5c9626d7b328",
            "image_72": "https:\/\/avatars.slack-edge.com\/2020-03-19\/1011171782821_5c9626d7b328e5dc84ea_72.jpg",
            "first_name": "Adam",
            "real_name": "Adam Krovina",
            "display_name": "Adam Krovina",
            "team": "TUU48M0T1",
            "name": "adam",
            "is_restricted": false,
            "is_ultra_restricted": false
        },
        "edited": {
            "user": "U010B4EJG2C",
            "ts": "1585165749.000000"
        },
        "blocks": [
            {
                "type": "rich_text",
                "block_id": "ym7e",
                "elements": [
                    {
                        "type": "rich_text_section",
                        "elements": [
                            {
                                "type": "text",
                                "text": "Hi all, I would like to tell you about an initiative in our country (Slovakia) called \"Help the hospital\" or \"Pomôž nemocnici!\". It is about mass 3d-printing of face shields by community of people having 3d printers at home. Few individuals got together to build a website with instructions on what to print and how. They organize collection of prints from people who print at least 18 pcs of the shield holders and in return they give a 1 kg PETG spool (which yelds another 18 pcs). There are 150+ printers involved. The shield plates are laser cut and assembled centrally by people from the initiative. The hospitals may apply for receiving any number of shields they need on the website. I think this is worth sharing, even though the page is in Slovak. Maybe it will inspire someone. "
                            },
                            {
                                "type": "link",
                                "url": "https:\/\/pomoznemocnici.sk\/"
                            },
                            {
                                "type": "text",
                                "text": " BTW the original "
                            },
                            {
                                "type": "link",
                                "url": "https:\/\/grabcad.com\/library\/coronavirus-flu-reusable-mask-1",
                                "text": "shield model"
                            },
                            {
                                "type": "text",
                                "text": " is from grabcad and was further improved. There is an article (in Czech) about printing masks and shields from the creator of PRUSA printers, Jozef Prusa: "
                            },
                            {
                                "type": "link",
                                "url": "https:\/\/josefprusa.cz\/od-navrhu-k-hromadnemu-3d-tisku-zdravotnickych-stitu-behem-tri-dnu\/"
                            }
                        ]
                    }
                ]
            }
        ]
    }
]