[
    {
        "type": "message",
        "subtype": "channel_join",
        "ts": "1587573730.000200",
        "user": "U011B6VLM2A",
        "text": "<@U011B6VLM2A> has joined the channel"
    },
    {
        "type": "message",
        "subtype": "channel_purpose",
        "ts": "1587573731.000300",
        "user": "U011B6VLM2A",
        "text": "<@U011B6VLM2A> set the channel purpose: For community members who are looking to get involved with projects, please use this channel to share a few sentences about what skills and expertise you have to offer. Project teams can use this channel to browse through posts and search keywords.",
        "purpose": "For community members who are looking to get involved with projects, please use this channel to share a few sentences about what skills and expertise you have to offer. Project teams can use this channel to browse through posts and search keywords."
    },
    {
        "type": "message",
        "subtype": "channel_join",
        "ts": "1587573742.000500",
        "user": "UV9V03C8Y",
        "text": "<@UV9V03C8Y> has joined the channel",
        "inviter": "U011B6VLM2A"
    },
    {
        "type": "message",
        "subtype": "channel_topic",
        "ts": "1587573748.000600",
        "user": "U011B6VLM2A",
        "text": "<@U011B6VLM2A> set the channel topic: For community members who are looking to get involved with projects, please use this channel to share a few sentences about what skills and expertise you have to offer. Project teams can use this channel to browse through posts and search keywords.",
        "topic": "For community members who are looking to get involved with projects, please use this channel to share a few sentences about what skills and expertise you have to offer. Project teams can use this channel to browse through posts and search keywords."
    },
    {
        "client_msg_id": "d95e1ff6-b866-4deb-b657-bf2a53a46c68",
        "type": "message",
        "text": "<@UV9V03C8Y> - can you make this channel auto-join for new members? Thanks!",
        "user": "U011B6VLM2A",
        "ts": "1587573764.000900",
        "team": "TUU48M0T1",
        "user_team": "TUU48M0T1",
        "source_team": "TUU48M0T1",
        "user_profile": {
            "avatar_hash": "4231dc598cfc",
            "image_72": "https:\/\/avatars.slack-edge.com\/2020-04-02\/1044784558839_4231dc598cfc2e59c4c4_72.jpg",
            "first_name": "Alix",
            "real_name": "Alix Mains",
            "display_name": "Alix Mains - JOGL Coordinator",
            "team": "TUU48M0T1",
            "name": "alixhmains",
            "is_restricted": false,
            "is_ultra_restricted": false
        },
        "blocks": [
            {
                "type": "rich_text",
                "block_id": "nRfM",
                "elements": [
                    {
                        "type": "rich_text_section",
                        "elements": [
                            {
                                "type": "user",
                                "user_id": "UV9V03C8Y"
                            },
                            {
                                "type": "text",
                                "text": " - can you make this channel auto-join for new members? Thanks!"
                            }
                        ]
                    }
                ]
            }
        ]
    },
    {
        "type": "message",
        "subtype": "channel_topic",
        "ts": "1587574104.001000",
        "user": "U011B6VLM2A",
        "text": "<@U011B6VLM2A> set the channel topic: This channel is for community members who are looking to get involved with projects. Share a few sentences about what skills and expertise you have to offer. Project teams can use this channel to browse through posts and search keywords.",
        "topic": "This channel is for community members who are looking to get involved with projects. Share a few sentences about what skills and expertise you have to offer. Project teams can use this channel to browse through posts and search keywords."
    }
]