[
    {
        "client_msg_id": "43274359-5b52-4bc7-ae5c-aa3a91058013",
        "type": "message",
        "text": "sent a note to our swiss NEB distributor and intlNEB address too (with Fran and Guy in cc) - will be open again Tuesday, to try another phone call...",
        "user": "UV1A22N3W",
        "ts": "1586442025.101500",
        "team": "TUU48M0T1",
        "user_team": "TUU48M0T1",
        "source_team": "TUU48M0T1",
        "user_profile": {
            "avatar_hash": "71f827776ad6",
            "image_72": "https:\/\/avatars.slack-edge.com\/2020-03-09\/988125642964_71f827776ad610af05a2_72.jpg",
            "first_name": "",
            "real_name": "RachelA",
            "display_name": "RachelA",
            "team": "TUU48M0T1",
            "name": "raronoff",
            "is_restricted": false,
            "is_ultra_restricted": false
        },
        "blocks": [
            {
                "type": "rich_text",
                "block_id": "8b7Ik",
                "elements": [
                    {
                        "type": "rich_text_section",
                        "elements": [
                            {
                                "type": "text",
                                "text": "sent a note to our swiss NEB distributor and intlNEB address too (with Fran and Guy in cc) - will be open again Tuesday, to try another phone call..."
                            }
                        ]
                    }
                ]
            }
        ],
        "thread_ts": "1586442025.101500",
        "reply_count": 1,
        "reply_users_count": 1,
        "latest_reply": "1586448122.107200",
        "reply_users": [
            "U010LNECEHE"
        ],
        "replies": [
            {
                "user": "U010LNECEHE",
                "ts": "1586448122.107200"
            }
        ],
        "subscribed": false,
        "reactions": [
            {
                "name": "heart_eyes",
                "users": [
                    "UV3URUKK5",
                    "UV10KBUQG"
                ],
                "count": 2
            }
        ]
    },
    {
        "client_msg_id": "1ba804fa-ee82-405f-8b1f-68c580d18fc4",
        "type": "message",
        "text": "is our call on soon?  that was all I had to report, but I would love to hear more from you guys in america!  (Chris probably isn't the only one with results?!) :slightly_smiling_face:",
        "user": "UV1A22N3W",
        "ts": "1586443155.102800",
        "team": "TUU48M0T1",
        "user_team": "TUU48M0T1",
        "source_team": "TUU48M0T1",
        "user_profile": {
            "avatar_hash": "71f827776ad6",
            "image_72": "https:\/\/avatars.slack-edge.com\/2020-03-09\/988125642964_71f827776ad610af05a2_72.jpg",
            "first_name": "",
            "real_name": "RachelA",
            "display_name": "RachelA",
            "team": "TUU48M0T1",
            "name": "raronoff",
            "is_restricted": false,
            "is_ultra_restricted": false
        },
        "blocks": [
            {
                "type": "rich_text",
                "block_id": "T6Jt",
                "elements": [
                    {
                        "type": "rich_text_section",
                        "elements": [
                            {
                                "type": "text",
                                "text": "is our call on soon?  that was all I had to report, but I would love to hear more from you guys in america!  (Chris probably isn't the only one with results?!) "
                            },
                            {
                                "type": "emoji",
                                "name": "slightly_smiling_face"
                            }
                        ]
                    }
                ]
            }
        ]
    },
    {
        "client_msg_id": "913b4e21-c8af-432e-a556-d163ad2f728d",
        "type": "message",
        "text": "Our call is in a few minutes",
        "user": "UV10KBUQG",
        "ts": "1586443672.103200",
        "team": "TUU48M0T1",
        "user_team": "TUU48M0T1",
        "source_team": "TUU48M0T1",
        "user_profile": {
            "avatar_hash": "2deebbf6be3d",
            "image_72": "https:\/\/avatars.slack-edge.com\/2020-03-06\/976932190641_2deebbf6be3d17141d91_72.jpg",
            "first_name": "Sarah",
            "real_name": "Sarah Blossom Ware",
            "display_name": "Sarah Blossom Ware - BioBlaze Community Bio Lab",
            "team": "TUU48M0T1",
            "name": "ware.sarah",
            "is_restricted": false,
            "is_ultra_restricted": false
        },
        "blocks": [
            {
                "type": "rich_text",
                "block_id": "fKh",
                "elements": [
                    {
                        "type": "rich_text_section",
                        "elements": [
                            {
                                "type": "text",
                                "text": "Our call is in a few minutes"
                            }
                        ]
                    }
                ]
            }
        ],
        "thread_ts": "1586443672.103200",
        "reply_count": 3,
        "reply_users_count": 3,
        "latest_reply": "1586448031.104400",
        "reply_users": [
            "UUNGFHSV8",
            "UV10KBUQG",
            "U010LNECEHE"
        ],
        "replies": [
            {
                "user": "UUNGFHSV8",
                "ts": "1586444290.103500"
            },
            {
                "user": "UV10KBUQG",
                "ts": "1586444344.103700"
            },
            {
                "user": "U010LNECEHE",
                "ts": "1586448031.104400"
            }
        ],
        "subscribed": false
    },
    {
        "client_msg_id": "61B459D9-454F-4484-AA64-878AA34C469F",
        "type": "message",
        "text": "Zoom link?",
        "user": "UUNGFHSV8",
        "ts": "1586444290.103500",
        "team": "TUU48M0T1",
        "user_team": "TUU48M0T1",
        "source_team": "TUU48M0T1",
        "user_profile": {
            "avatar_hash": "1c55ee32397a",
            "image_72": "https:\/\/avatars.slack-edge.com\/2020-03-07\/987349161984_1c55ee32397a85a87ec4_72.png",
            "first_name": "Isaac",
            "real_name": "Isaac Larkin",
            "display_name": "Isaac Larkin",
            "team": "TUU48M0T1",
            "name": "eyesmo",
            "is_restricted": false,
            "is_ultra_restricted": false
        },
        "blocks": [
            {
                "type": "rich_text",
                "block_id": "KnXfH",
                "elements": [
                    {
                        "type": "rich_text_section",
                        "elements": [
                            {
                                "type": "text",
                                "text": "Zoom link?"
                            }
                        ]
                    }
                ]
            }
        ],
        "thread_ts": "1586443672.103200",
        "parent_user_id": "UV10KBUQG"
    },
    {
        "client_msg_id": "1597a80a-849a-4416-b8d7-15ef6f7daf17",
        "type": "message",
        "text": "This should be the link: <https:\/\/zoom.us\/j\/7804345815?pwd=Y25OZWRBL3pMNG5NZDN4VHM1Mlc3UT09>",
        "user": "UV10KBUQG",
        "ts": "1586444344.103700",
        "team": "TUU48M0T1",
        "user_team": "TUU48M0T1",
        "source_team": "TUU48M0T1",
        "user_profile": {
            "avatar_hash": "2deebbf6be3d",
            "image_72": "https:\/\/avatars.slack-edge.com\/2020-03-06\/976932190641_2deebbf6be3d17141d91_72.jpg",
            "first_name": "Sarah",
            "real_name": "Sarah Blossom Ware",
            "display_name": "Sarah Blossom Ware - BioBlaze Community Bio Lab",
            "team": "TUU48M0T1",
            "name": "ware.sarah",
            "is_restricted": false,
            "is_ultra_restricted": false
        },
        "edited": {
            "user": "UV10KBUQG",
            "ts": "1586444369.000000"
        },
        "blocks": [
            {
                "type": "rich_text",
                "block_id": "uEb",
                "elements": [
                    {
                        "type": "rich_text_section",
                        "elements": [
                            {
                                "type": "text",
                                "text": "This should be the link: "
                            },
                            {
                                "type": "link",
                                "url": "https:\/\/zoom.us\/j\/7804345815?pwd=Y25OZWRBL3pMNG5NZDN4VHM1Mlc3UT09"
                            }
                        ]
                    }
                ]
            }
        ],
        "thread_ts": "1586443672.103200",
        "parent_user_id": "UV10KBUQG"
    },
    {
        "client_msg_id": "10ED52AE-1768-4D46-A2CC-D4A58915BB7B",
        "type": "message",
        "text": "Missed this call. Are there notes?",
        "user": "U010LNECEHE",
        "ts": "1586448031.104400",
        "team": "TUU48M0T1",
        "user_team": "TUU48M0T1",
        "source_team": "TUU48M0T1",
        "user_profile": {
            "avatar_hash": "58bda3258fcd",
            "image_72": "https:\/\/avatars.slack-edge.com\/2020-03-30\/1036110784064_58bda3258fcd726472e4_72.png",
            "first_name": "Ali",
            "real_name": "Ali Bektaş",
            "display_name": "Ali",
            "team": "TUU48M0T1",
            "name": "cinalibektas",
            "is_restricted": false,
            "is_ultra_restricted": false
        },
        "blocks": [
            {
                "type": "rich_text",
                "block_id": "ySZU=",
                "elements": [
                    {
                        "type": "rich_text_section",
                        "elements": [
                            {
                                "type": "text",
                                "text": "Missed this call. Are there notes?"
                            }
                        ]
                    }
                ]
            }
        ],
        "thread_ts": "1586443672.103200",
        "parent_user_id": "UV10KBUQG"
    },
    {
        "client_msg_id": "DF016600-C6F7-44A5-8994-5D4C92EFD768",
        "type": "message",
        "text": "I don’t know if this is viable but if it comes down to it maybe I could ship reagents from here? I usually get NEB orders the next day, but we would have to look into international shipping costs. Might make sense for quantity",
        "user": "U010LNECEHE",
        "ts": "1586448122.107200",
        "team": "TUU48M0T1",
        "user_team": "TUU48M0T1",
        "source_team": "TUU48M0T1",
        "user_profile": {
            "avatar_hash": "58bda3258fcd",
            "image_72": "https:\/\/avatars.slack-edge.com\/2020-03-30\/1036110784064_58bda3258fcd726472e4_72.png",
            "first_name": "Ali",
            "real_name": "Ali Bektaş",
            "display_name": "Ali",
            "team": "TUU48M0T1",
            "name": "cinalibektas",
            "is_restricted": false,
            "is_ultra_restricted": false
        },
        "blocks": [
            {
                "type": "rich_text",
                "block_id": "XIuPq",
                "elements": [
                    {
                        "type": "rich_text_section",
                        "elements": [
                            {
                                "type": "text",
                                "text": "I don’t know if this is viable but if it comes down to it maybe I could ship reagents from here? I usually get NEB orders the next day, but we would have to look into international shipping costs. Might make sense for quantity"
                            }
                        ]
                    }
                ]
            }
        ],
        "thread_ts": "1586442025.101500",
        "parent_user_id": "UV1A22N3W"
    },
    {
        "client_msg_id": "9e7c61ce-1180-47f5-9c45-d0ad45e3b918",
        "type": "message",
        "text": "Hello nucleic acid amplification people! I just reviewed the optimizing RT-LAMP grant application on JOGL and I think it is an awesome idea! I have a couple of ideas for improving this assay I would like to share: \n\n1) I wonder if the reagents can be prepared in a centrifuge tube sealed with a plastic, puncturable septum and lyophilized for later use? This would make the test easier to use at the testing site, reducing the amount of equipment and expertise needed. Also if the tests are prepared in a sterile production environment, the chances of contamination in a given test through manual pipetting are reduced. Ideally the septum would only be punctured by a single pipette tip or swab carrying the sample. Another idea of a reaction vessel with a septum is a gas chromatography headspace vial that is used in organic chemistry labs. They are already cheap and mass produced. \n\n2) I wonder if in order to have a clear colour comparison for the person reading the results, the test could come with  printed paper with different colours that correspond to positive and negative results. I feel this could give the test reader, who may not have previous experience using the technique more confidence in their analysis.\n\nI run a microbiology lab at a brewery in Canada, we are still open as alcohol is considered an essential service (lucky me haha) and I would like to help in any other way for optimizing this test. Here are some ways I can think of that I can help:\n\n1) I can do positive control RT-PCR reactions for the N gene of COVID, so I can do some tests comparing sensitivity of this RT-LAMP assay to the CDC RT-PCR assay.\n\n2) I have experience making cheap ELISA plates out of filter paper and a material called DATAK which has been used for ELISA assays previously. I can test this RT-LAMP reaction in these plates. The wells have a higher surface area than standard 96 well plates, increasing reaction time, and are much cheaper.\n\n3) I have a heating block, pipettes and I can do test runs of the procedure as is",
        "user": "U010WKVUFFY",
        "ts": "1586464606.108500",
        "team": "TUU48M0T1",
        "user_team": "TUU48M0T1",
        "source_team": "TUU48M0T1",
        "user_profile": {
            "avatar_hash": "gf0c9e06eebd",
            "image_72": "https:\/\/secure.gravatar.com\/avatar\/f0c9e06eebd0184ffae109da36b04f9d.jpg?s=72&d=https%3A%2F%2Fa.slack-edge.com%2Fdf10d%2Fimg%2Favatars%2Fava_0024-72.png",
            "first_name": "",
            "real_name": "Nicholas Crudele",
            "display_name": "Nicholas Crudele",
            "team": "TUU48M0T1",
            "name": "nicoharacrudele4",
            "is_restricted": false,
            "is_ultra_restricted": false
        },
        "blocks": [
            {
                "type": "rich_text",
                "block_id": "\/rFG",
                "elements": [
                    {
                        "type": "rich_text_section",
                        "elements": [
                            {
                                "type": "text",
                                "text": "Hello nucleic acid amplification people! I just reviewed the optimizing RT-LAMP grant application on JOGL and I think it is an awesome idea! I have a couple of ideas for improving this assay I would like to share: \n\n1) I wonder if the reagents can be prepared in a centrifuge tube sealed with a plastic, puncturable septum and lyophilized for later use? This would make the test easier to use at the testing site, reducing the amount of equipment and expertise needed. Also if the tests are prepared in a sterile production environment, the chances of contamination in a given test through manual pipetting are reduced. Ideally the septum would only be punctured by a single pipette tip or swab carrying the sample. Another idea of a reaction vessel with a septum is a gas chromatography headspace vial that is used in organic chemistry labs. They are already cheap and mass produced. \n\n2) I wonder if in order to have a clear colour comparison for the person reading the results, the test could come with  printed paper with different colours that correspond to positive and negative results. I feel this could give the test reader, who may not have previous experience using the technique more confidence in their analysis.\n\nI run a microbiology lab at a brewery in Canada, we are still open as alcohol is considered an essential service (lucky me haha) and I would like to help in any other way for optimizing this test. Here are some ways I can think of that I can help:\n\n1) I can do positive control RT-PCR reactions for the N gene of COVID, so I can do some tests comparing sensitivity of this RT-LAMP assay to the CDC RT-PCR assay.\n\n2) I have experience making cheap ELISA plates out of filter paper and a material called DATAK which has been used for ELISA assays previously. I can test this RT-LAMP reaction in these plates. The wells have a higher surface area than standard 96 well plates, increasing reaction time, and are much cheaper.\n\n3) I have a heating block, pipettes and I can do test runs of the procedure as is"
                            }
                        ]
                    }
                ]
            }
        ],
        "reactions": [
            {
                "name": "heavy_check_mark",
                "users": [
                    "UV10KBUQG"
                ],
                "count": 1
            }
        ]
    },
    {
        "client_msg_id": "c55f3576-46bb-4751-9d1a-76f05881f6bd",
        "type": "message",
        "text": "<@U010WKVUFFY> Thank you for your willingness to help out!  We can use as many independent labs as possible to validate and reproduce results!  One main thing to keep in mind is that :AMP reactions should always be run in individual tubes that seal tightly and once LAMP reactions have taken place, the tubes should never be opened.  I just learned this myself so wanted to pass it on.  We do also have a plan to try to reproduce a DIY version of the LAMP mastermix and lyophilize it.  By all means, please get the mastermix, primers and synthetic DNA positive control plasmid and give it a try with us.  We have so far tried two different primer sets and have decided to move forward with the set from the Mammoth protocol.  If you're not sure what to order, please let me know and I will make a list for you.  Also, please do not try to test any actual patient samples unless your lab is BSL 2 or higher.",
        "user": "UV10KBUQG",
        "ts": "1586478497.115000",
        "team": "TUU48M0T1",
        "user_team": "TUU48M0T1",
        "source_team": "TUU48M0T1",
        "user_profile": {
            "avatar_hash": "2deebbf6be3d",
            "image_72": "https:\/\/avatars.slack-edge.com\/2020-03-06\/976932190641_2deebbf6be3d17141d91_72.jpg",
            "first_name": "Sarah",
            "real_name": "Sarah Blossom Ware",
            "display_name": "Sarah Blossom Ware - BioBlaze Community Bio Lab",
            "team": "TUU48M0T1",
            "name": "ware.sarah",
            "is_restricted": false,
            "is_ultra_restricted": false
        },
        "blocks": [
            {
                "type": "rich_text",
                "block_id": "iwfvZ",
                "elements": [
                    {
                        "type": "rich_text_section",
                        "elements": [
                            {
                                "type": "user",
                                "user_id": "U010WKVUFFY"
                            },
                            {
                                "type": "text",
                                "text": " Thank you for your willingness to help out!  We can use as many independent labs as possible to validate and reproduce results!  One main thing to keep in mind is that :AMP reactions should always be run in individual tubes that seal tightly and once LAMP reactions have taken place, the tubes should never be opened.  I just learned this myself so wanted to pass it on.  We do also have a plan to try to reproduce a DIY version of the LAMP mastermix and lyophilize it.  By all means, please get the mastermix, primers and synthetic DNA positive control plasmid and give it a try with us.  We have so far tried two different primer sets and have decided to move forward with the set from the Mammoth protocol.  If you're not sure what to order, please let me know and I will make a list for you.  Also, please do not try to test any actual patient samples unless your lab is BSL 2 or higher."
                            }
                        ]
                    }
                ]
            }
        ],
        "reactions": [
            {
                "name": "100",
                "users": [
                    "UV1A22N3W",
                    "UV3URUKK5"
                ],
                "count": 2
            }
        ]
    },
    {
        "client_msg_id": "cea110b0-b0af-4c48-932f-c2aa6b12a1dc",
        "type": "message",
        "text": "Hi <@UV10KBUQG>, a reagent list would be great! I won't test patients, I don't have access to a Bsl2 lab.",
        "user": "U010WKVUFFY",
        "ts": "1586494898.116600",
        "team": "TUU48M0T1",
        "user_team": "TUU48M0T1",
        "source_team": "TUU48M0T1",
        "user_profile": {
            "avatar_hash": "gf0c9e06eebd",
            "image_72": "https:\/\/secure.gravatar.com\/avatar\/f0c9e06eebd0184ffae109da36b04f9d.jpg?s=72&d=https%3A%2F%2Fa.slack-edge.com%2Fdf10d%2Fimg%2Favatars%2Fava_0024-72.png",
            "first_name": "",
            "real_name": "Nicholas Crudele",
            "display_name": "Nicholas Crudele",
            "team": "TUU48M0T1",
            "name": "nicoharacrudele4",
            "is_restricted": false,
            "is_ultra_restricted": false
        },
        "edited": {
            "user": "U010WKVUFFY",
            "ts": "1586494934.000000"
        },
        "blocks": [
            {
                "type": "rich_text",
                "block_id": "vAL",
                "elements": [
                    {
                        "type": "rich_text_section",
                        "elements": [
                            {
                                "type": "text",
                                "text": "Hi "
                            },
                            {
                                "type": "user",
                                "user_id": "UV10KBUQG"
                            },
                            {
                                "type": "text",
                                "text": ", a reagent list would be great! I won't test patients, I don't have access to a Bsl2 lab."
                            }
                        ]
                    }
                ]
            }
        ]
    }
]