[
    {
        "type": "message",
        "text": "probably still need to calibrate correctly (not just with Fluorescein !) ...  RNaseP control rxns (4 tubes have cell RNA - two with old school Bst &amp; 2 with Bst2.0 - no RTx)",
        "files": [
            {
                "id": "F01394RM7EY",
                "created": 1588693772,
                "timestamp": 1588693772,
                "name": "IMG_8531.JPG",
                "title": "File from iOS",
                "mimetype": "image\/jpeg",
                "filetype": "jpg",
                "pretty_type": "JPEG",
                "user": "UV1A22N3W",
                "editable": false,
                "size": 3067403,
                "mode": "hosted",
                "is_external": false,
                "external_type": "",
                "is_public": true,
                "public_url_shared": false,
                "display_as_bot": false,
                "username": "",
                "url_private": "https:\/\/files.slack.com\/files-pri\/TUU48M0T1-F01394RM7EY\/img_8531.jpg?t=xoxe-980144714919-1106606678066-1105227127893-6f722bb664235052954ad46852628b64",
                "url_private_download": "https:\/\/files.slack.com\/files-pri\/TUU48M0T1-F01394RM7EY\/download\/img_8531.jpg?t=xoxe-980144714919-1106606678066-1105227127893-6f722bb664235052954ad46852628b64",
                "thumb_64": "https:\/\/files.slack.com\/files-tmb\/TUU48M0T1-F01394RM7EY-a638c8c2fe\/img_8531_64.jpg?t=xoxe-980144714919-1106606678066-1105227127893-6f722bb664235052954ad46852628b64",
                "thumb_80": "https:\/\/files.slack.com\/files-tmb\/TUU48M0T1-F01394RM7EY-a638c8c2fe\/img_8531_80.jpg?t=xoxe-980144714919-1106606678066-1105227127893-6f722bb664235052954ad46852628b64",
                "thumb_360": "https:\/\/files.slack.com\/files-tmb\/TUU48M0T1-F01394RM7EY-a638c8c2fe\/img_8531_360.jpg?t=xoxe-980144714919-1106606678066-1105227127893-6f722bb664235052954ad46852628b64",
                "thumb_360_w": 360,
                "thumb_360_h": 270,
                "thumb_480": "https:\/\/files.slack.com\/files-tmb\/TUU48M0T1-F01394RM7EY-a638c8c2fe\/img_8531_480.jpg?t=xoxe-980144714919-1106606678066-1105227127893-6f722bb664235052954ad46852628b64",
                "thumb_480_w": 480,
                "thumb_480_h": 360,
                "thumb_160": "https:\/\/files.slack.com\/files-tmb\/TUU48M0T1-F01394RM7EY-a638c8c2fe\/img_8531_160.jpg?t=xoxe-980144714919-1106606678066-1105227127893-6f722bb664235052954ad46852628b64",
                "thumb_720": "https:\/\/files.slack.com\/files-tmb\/TUU48M0T1-F01394RM7EY-a638c8c2fe\/img_8531_720.jpg?t=xoxe-980144714919-1106606678066-1105227127893-6f722bb664235052954ad46852628b64",
                "thumb_720_w": 720,
                "thumb_720_h": 540,
                "thumb_800": "https:\/\/files.slack.com\/files-tmb\/TUU48M0T1-F01394RM7EY-a638c8c2fe\/img_8531_800.jpg?t=xoxe-980144714919-1106606678066-1105227127893-6f722bb664235052954ad46852628b64",
                "thumb_800_w": 800,
                "thumb_800_h": 600,
                "thumb_960": "https:\/\/files.slack.com\/files-tmb\/TUU48M0T1-F01394RM7EY-a638c8c2fe\/img_8531_960.jpg?t=xoxe-980144714919-1106606678066-1105227127893-6f722bb664235052954ad46852628b64",
                "thumb_960_w": 960,
                "thumb_960_h": 720,
                "thumb_1024": "https:\/\/files.slack.com\/files-tmb\/TUU48M0T1-F01394RM7EY-a638c8c2fe\/img_8531_1024.jpg?t=xoxe-980144714919-1106606678066-1105227127893-6f722bb664235052954ad46852628b64",
                "thumb_1024_w": 1024,
                "thumb_1024_h": 768,
                "original_w": 4032,
                "original_h": 3024,
                "thumb_tiny": "AwAkADCHaT\/E350eUT3P51aVQW56U\/aOy\/rSAo+Uvct+dHkr6Gruxf7oo2AdqYFTyR\/d\/WlEQ9KtMg28CmgA9zmgB6jBFP3exqAOeOaA7cc0ATbhnvQTnsahDHjntRuPHPagCY8jpTQPXio9x9e1JuPr2oGCngcCpFAJ6Co16D6VIvWgQ7YvpS7F9KWloAb5a+lMkUBSRUtMm+4aBn\/\/2Q==",
                "permalink": "https:\/\/open-covid19.slack.com\/files\/UV1A22N3W\/F01394RM7EY\/img_8531.jpg",
                "permalink_public": "https:\/\/slack-files.com\/TUU48M0T1-F01394RM7EY-fc06be7633",
                "is_starred": false,
                "has_rich_preview": false
            }
        ],
        "upload": true,
        "user": "UV1A22N3W",
        "display_as_bot": false,
        "ts": "1588693777.409500",
        "reactions": [
            {
                "name": "star-struck",
                "users": [
                    "U011B5424FR"
                ],
                "count": 1
            }
        ]
    },
    {
        "client_msg_id": "F88253C4-5BFE-4B3E-9ABD-8E9776F3A71B",
        "type": "message",
        "text": "‘cycle’ 36 already... hacked the big beast in more than one way, but still hoping for a reasonable offer from ThermoF for their calibration set! :sweat_smile:",
        "user": "UV1A22N3W",
        "ts": "1588693913.411900",
        "team": "TUU48M0T1",
        "user_team": "TUU48M0T1",
        "source_team": "TUU48M0T1",
        "user_profile": {
            "avatar_hash": "71f827776ad6",
            "image_72": "https:\/\/avatars.slack-edge.com\/2020-03-09\/988125642964_71f827776ad610af05a2_72.jpg",
            "first_name": "",
            "real_name": "RachelA",
            "display_name": "RachelA",
            "team": "TUU48M0T1",
            "name": "raronoff",
            "is_restricted": false,
            "is_ultra_restricted": false
        },
        "blocks": [
            {
                "type": "rich_text",
                "block_id": "eqa",
                "elements": [
                    {
                        "type": "rich_text_section",
                        "elements": [
                            {
                                "type": "text",
                                "text": "‘cycle’ 36 already... hacked the big beast in more than one way, but still hoping for a reasonable offer from ThermoF for their calibration set! "
                            },
                            {
                                "type": "emoji",
                                "name": "sweat_smile"
                            }
                        ]
                    }
                ]
            }
        ],
        "thread_ts": "1588693913.411900",
        "reply_count": 2,
        "reply_users_count": 2,
        "latest_reply": "1588694408.413400",
        "reply_users": [
            "UV7LUJG1Y",
            "UV1A22N3W"
        ],
        "replies": [
            {
                "user": "UV7LUJG1Y",
                "ts": "1588694124.412100"
            },
            {
                "user": "UV1A22N3W",
                "ts": "1588694408.413400"
            }
        ],
        "subscribed": false,
        "reactions": [
            {
                "name": "star-struck",
                "users": [
                    "U011B5424FR"
                ],
                "count": 1
            },
            {
                "name": "pray",
                "users": [
                    "U011B5424FR"
                ],
                "count": 1
            }
        ]
    },
    {
        "client_msg_id": "47b373bf-7f0b-43fc-b1d5-dc6b12adaaec",
        "type": "message",
        "text": "Just raise the threshold to one or so I think it will look a lot better...",
        "user": "UV7LUJG1Y",
        "ts": "1588694124.412100",
        "team": "TUU48M0T1",
        "user_team": "TUU48M0T1",
        "source_team": "TUU48M0T1",
        "user_profile": {
            "avatar_hash": "048307b17644",
            "image_72": "https:\/\/avatars.slack-edge.com\/2020-04-04\/1043242365313_048307b17644844abd87_72.jpg",
            "first_name": "",
            "real_name": "Guy Aidelberg",
            "display_name": "Guy Aidelberg",
            "team": "TUU48M0T1",
            "name": "guyaidelberg",
            "is_restricted": false,
            "is_ultra_restricted": false
        },
        "blocks": [
            {
                "type": "rich_text",
                "block_id": "NiwVd",
                "elements": [
                    {
                        "type": "rich_text_section",
                        "elements": [
                            {
                                "type": "text",
                                "text": "Just raise the threshold to one or so I think it will look a lot better..."
                            }
                        ]
                    }
                ]
            }
        ],
        "thread_ts": "1588693913.411900",
        "parent_user_id": "UV1A22N3W"
    },
    {
        "client_msg_id": "8F14BBE2-DF9F-41A7-85F3-E372D4E09C8B",
        "type": "message",
        "text": "yes, will go through result review steps very soon - almost done ! :sweat_smile:",
        "user": "UV1A22N3W",
        "ts": "1588694408.413400",
        "team": "TUU48M0T1",
        "user_team": "TUU48M0T1",
        "source_team": "TUU48M0T1",
        "user_profile": {
            "avatar_hash": "71f827776ad6",
            "image_72": "https:\/\/avatars.slack-edge.com\/2020-03-09\/988125642964_71f827776ad610af05a2_72.jpg",
            "first_name": "",
            "real_name": "RachelA",
            "display_name": "RachelA",
            "team": "TUU48M0T1",
            "name": "raronoff",
            "is_restricted": false,
            "is_ultra_restricted": false
        },
        "blocks": [
            {
                "type": "rich_text",
                "block_id": "v5i",
                "elements": [
                    {
                        "type": "rich_text_section",
                        "elements": [
                            {
                                "type": "text",
                                "text": "yes, will go through result review steps very soon - almost done ! "
                            },
                            {
                                "type": "emoji",
                                "name": "sweat_smile"
                            }
                        ]
                    }
                ]
            }
        ],
        "thread_ts": "1588693913.411900",
        "parent_user_id": "UV1A22N3W"
    },
    {
        "client_msg_id": "50222a67-ba17-408b-832e-17e3ff1d67f0",
        "type": "message",
        "text": "From Shingo:\n&gt; Hi,\n&gt; \n&gt; Thank you for sharing Miriam. I think they use air to heat tubes and all leds are always on.\n&gt; Here's another example.\n&gt; <https:\/\/journals.plos.org\/plosone\/article?id=10.1371%2Fjournal.pone.0227476&amp;fbclid=IwAR0Jsez-0knMTHACquvNguciWiU_Cjt5fOk2aawkEgKwPxZCvL7iGG8QWXM>\n&gt; \n&gt; I finished NinjaLAMP and back to qPCR. let me try to design multipurpose tube holder that can be used not only qPCR but also LAMP.\n&gt; \n&gt; Shingo",
        "user": "UV3URUKK5",
        "ts": "1588709880.414400",
        "team": "TUU48M0T1",
        "user_team": "TUU48M0T1",
        "source_team": "TUU48M0T1",
        "user_profile": {
            "avatar_hash": "64c99c2ed974",
            "image_72": "https:\/\/avatars.slack-edge.com\/2020-03-15\/1000999702004_64c99c2ed97497e08ca9_72.jpg",
            "first_name": "",
            "real_name": "Francisco Javier Quero",
            "display_name": "Francisco Javier Quero",
            "team": "TUU48M0T1",
            "name": "franxi2953",
            "is_restricted": false,
            "is_ultra_restricted": false
        },
        "attachments": [
            {
                "title": "Point-of-care diagnostic (POCD) method for detecting Bursaphelenchus xylophilus in pinewood using recombinase polymerase amplification (RPA) with the portable optical isothermal device (POID)",
                "title_link": "https:\/\/journals.plos.org\/plosone\/article?id=10.1371%2Fjournal.pone.0227476&fbclid=IwAR0Jsez-0knMTHACquvNguciWiU_Cjt5fOk2aawkEgKwPxZCvL7iGG8QWXM",
                "text": "The pinewood nematode (PWN), Bursaphelenchus xylophilus, is a causative agent of pine wilt disease (PWD). To date, although several molecular diagnostic methods have been developed, rapid on-site diagnostic tools for detecting PWN in pinewood are limited. In this study, a point of care diagnostic (POCD) method for detecting PWN in pinewood using recombinase polymerase amplification (RPA) assay was developed. This method comprises quick gDNA extraction buffer (DAP buffer) for the direct extraction of gDNA of PWN from pinewood and a battery-mounted portable optical isothermal device (POID) for the detection of PWD in the field. The RPA assay can distinguish between the PWN and its conspecies which exist in pinewood and can complete diagnostic procedures within 25 min in the field. Moreover, the RPA assay can detect PWN in old wood samples in both natural and stored conditions. The POCD-RPA assay to detect PWN will be useful for epidemiological investigations in the field as well as for quarantine processes in the wood trade.",
                "fallback": "Point-of-care diagnostic (POCD) method for detecting Bursaphelenchus xylophilus in pinewood using recombinase polymerase amplification (RPA) with the portable optical isothermal device (POID)",
                "thumb_url": "https:\/\/journals.plos.org\/plosone\/article\/figure\/image?id=10.1371\/journal.pone.0227476.g006&size=inline",
                "from_url": "https:\/\/journals.plos.org\/plosone\/article?id=10.1371%2Fjournal.pone.0227476&fbclid=IwAR0Jsez-0knMTHACquvNguciWiU_Cjt5fOk2aawkEgKwPxZCvL7iGG8QWXM",
                "thumb_width": 320,
                "thumb_height": 124,
                "service_icon": "https:\/\/journals.plos.org\/plosone\/resource\/img\/favicon.ico",
                "service_name": "journals.plos.org",
                "id": 1,
                "original_url": "https:\/\/journals.plos.org\/plosone\/article?id=10.1371%2Fjournal.pone.0227476&amp;fbclid=IwAR0Jsez-0knMTHACquvNguciWiU_Cjt5fOk2aawkEgKwPxZCvL7iGG8QWXM"
            }
        ],
        "blocks": [
            {
                "type": "rich_text",
                "block_id": "ka9",
                "elements": [
                    {
                        "type": "rich_text_section",
                        "elements": [
                            {
                                "type": "text",
                                "text": "From Shingo:\n"
                            }
                        ]
                    },
                    {
                        "type": "rich_text_quote",
                        "elements": [
                            {
                                "type": "text",
                                "text": "Hi,\n\nThank you for sharing Miriam. I think they use air to heat tubes and all leds are always on.\nHere's another example.\n"
                            },
                            {
                                "type": "link",
                                "url": "https:\/\/journals.plos.org\/plosone\/article?id=10.1371%2Fjournal.pone.0227476&fbclid=IwAR0Jsez-0knMTHACquvNguciWiU_Cjt5fOk2aawkEgKwPxZCvL7iGG8QWXM"
                            },
                            {
                                "type": "text",
                                "text": "\n\nI finished NinjaLAMP and back to qPCR. let me try to design multipurpose tube holder that can be used not only qPCR but also LAMP.\n\nShingo"
                            }
                        ]
                    }
                ]
            }
        ]
    }
]