[
    {
        "client_msg_id": "543318F5-7800-4AF6-9238-0C47FE3A0F3E",
        "type": "message",
        "text": "even for qpcr tests?? will make side-by-side more tricky... probably two sets for each temp will be valuable to start... will have first machine test this afternoon &amp; hope first primers arrive!",
        "user": "UV1A22N3W",
        "ts": "1587367435.414200",
        "team": "TUU48M0T1",
        "user_team": "TUU48M0T1",
        "source_team": "TUU48M0T1",
        "user_profile": {
            "avatar_hash": "71f827776ad6",
            "image_72": "https:\/\/avatars.slack-edge.com\/2020-03-09\/988125642964_71f827776ad610af05a2_72.jpg",
            "first_name": "",
            "real_name": "RachelA",
            "display_name": "RachelA",
            "team": "TUU48M0T1",
            "name": "raronoff",
            "is_restricted": false,
            "is_ultra_restricted": false
        },
        "blocks": [
            {
                "type": "rich_text",
                "block_id": "obr",
                "elements": [
                    {
                        "type": "rich_text_section",
                        "elements": [
                            {
                                "type": "text",
                                "text": "even for qpcr tests?? will make side-by-side more tricky... probably two sets for each temp will be valuable to start... will have first machine test this afternoon & hope first primers arrive!"
                            }
                        ]
                    }
                ]
            }
        ],
        "thread_ts": "1587351916.395000",
        "parent_user_id": "UV7LUJG1Y"
    },
    {
        "client_msg_id": "ACC9619B-9D45-403C-8830-E6A06837FBCD",
        "type": "message",
        "text": "I didn’t order RNase-Free DNase yet! which is best?? I think RQ1 DNase is what I remember.  Does RTx need pre-incubation on sample, or in with master mix???",
        "user": "UV1A22N3W",
        "ts": "1587368619.417200",
        "team": "TUU48M0T1",
        "user_team": "TUU48M0T1",
        "source_team": "TUU48M0T1",
        "user_profile": {
            "avatar_hash": "71f827776ad6",
            "image_72": "https:\/\/avatars.slack-edge.com\/2020-03-09\/988125642964_71f827776ad610af05a2_72.jpg",
            "first_name": "",
            "real_name": "RachelA",
            "display_name": "RachelA",
            "team": "TUU48M0T1",
            "name": "raronoff",
            "is_restricted": false,
            "is_ultra_restricted": false
        },
        "blocks": [
            {
                "type": "rich_text",
                "block_id": "Gi4K",
                "elements": [
                    {
                        "type": "rich_text_section",
                        "elements": [
                            {
                                "type": "text",
                                "text": "I didn’t order RNase-Free DNase yet! which is best?? I think RQ1 DNase is what I remember.  Does RTx need pre-incubation on sample, or in with master mix???"
                            }
                        ]
                    }
                ]
            }
        ]
    },
    {
        "client_msg_id": "CA2C7D99-0725-41DA-9EA7-03EC761E41DD",
        "type": "message",
        "text": "-&gt; early tests will be with the rActin &amp; RNaseP sets, not just NM &amp; NZ (A) sets! :crossed_fingers:",
        "user": "UV1A22N3W",
        "ts": "1587368774.420200",
        "team": "TUU48M0T1",
        "user_team": "TUU48M0T1",
        "source_team": "TUU48M0T1",
        "user_profile": {
            "avatar_hash": "71f827776ad6",
            "image_72": "https:\/\/avatars.slack-edge.com\/2020-03-09\/988125642964_71f827776ad610af05a2_72.jpg",
            "first_name": "",
            "real_name": "RachelA",
            "display_name": "RachelA",
            "team": "TUU48M0T1",
            "name": "raronoff",
            "is_restricted": false,
            "is_ultra_restricted": false
        },
        "blocks": [
            {
                "type": "rich_text",
                "block_id": "hkF",
                "elements": [
                    {
                        "type": "rich_text_section",
                        "elements": [
                            {
                                "type": "text",
                                "text": "-> early tests will be with the rActin & RNaseP sets, not just NM & NZ (A) sets! "
                            },
                            {
                                "type": "emoji",
                                "name": "crossed_fingers"
                            }
                        ]
                    }
                ]
            }
        ]
    },
    {
        "client_msg_id": "37BBC3C6-5EEE-4BDC-961A-33442A99F143",
        "type": "message",
        "text": "For sure. For know I’d rather just send the protocol directly to people who want to try it out. With the preprint it’ll be accesible to all.",
        "user": "U010LNECEHE",
        "ts": "1587369101.421700",
        "team": "TUU48M0T1",
        "user_team": "TUU48M0T1",
        "source_team": "TUU48M0T1",
        "user_profile": {
            "avatar_hash": "58bda3258fcd",
            "image_72": "https:\/\/avatars.slack-edge.com\/2020-03-30\/1036110784064_58bda3258fcd726472e4_72.png",
            "first_name": "Ali",
            "real_name": "Ali Bektaş",
            "display_name": "Ali",
            "team": "TUU48M0T1",
            "name": "cinalibektas",
            "is_restricted": false,
            "is_ultra_restricted": false
        },
        "blocks": [
            {
                "type": "rich_text",
                "block_id": "l5JqX",
                "elements": [
                    {
                        "type": "rich_text_section",
                        "elements": [
                            {
                                "type": "text",
                                "text": "For sure. For know I’d rather just send the protocol directly to people who want to try it out. With the preprint it’ll be accesible to all."
                            }
                        ]
                    }
                ]
            }
        ],
        "thread_ts": "1587363834.409400",
        "parent_user_id": "UV1A22N3W"
    },
    {
        "client_msg_id": "08367c3f-0741-4849-ae4a-a7c3dfa971bb",
        "type": "message",
        "text": "Which RNAse inhibitor do you use? For what do you need the phusion for? We are expressing \"our\" MMLV-RT right now.....excited if we can reproduce the outcome of the lab who gave this one to us :)",
        "user": "U011CLVJMQX",
        "ts": "1587378262.422100",
        "team": "TUU48M0T1",
        "user_team": "TUU48M0T1",
        "source_team": "TUU48M0T1",
        "user_profile": {
            "avatar_hash": "g4aba3616047",
            "image_72": "https:\/\/secure.gravatar.com\/avatar\/4aba3616047410f5bf6118588d544768.jpg?s=72&d=https%3A%2F%2Fa.slack-edge.com%2Fdf10d%2Fimg%2Favatars%2Fava_0022-72.png",
            "first_name": "",
            "real_name": "Kathrin Hadasch",
            "display_name": "Kathrin Hadasch",
            "team": "TUU48M0T1",
            "name": "khada",
            "is_restricted": false,
            "is_ultra_restricted": false
        },
        "blocks": [
            {
                "type": "rich_text",
                "block_id": "qdkM",
                "elements": [
                    {
                        "type": "rich_text_section",
                        "elements": [
                            {
                                "type": "text",
                                "text": "Which RNAse inhibitor do you use? For what do you need the phusion for? We are expressing \"our\" MMLV-RT right now.....excited if we can reproduce the outcome of the lab who gave this one to us :)"
                            }
                        ]
                    }
                ]
            }
        ],
        "thread_ts": "1585106447.000200",
        "parent_user_id": "U0103U82Q2K"
    },
    {
        "client_msg_id": "c811f944-5822-4f5a-b31a-6daa79f68ad2",
        "type": "message",
        "text": "Did you already try some of these mutations: <https:\/\/www.ncbi.nlm.nih.gov\/pmc\/articles\/PMC5131239\/> ? We will try them asap the gene is finally there.....delivery takes some time nowadays :slightly_smiling_face:",
        "user": "U011CLVJMQX",
        "ts": "1587378529.422300",
        "team": "TUU48M0T1",
        "user_team": "TUU48M0T1",
        "source_team": "TUU48M0T1",
        "user_profile": {
            "avatar_hash": "g4aba3616047",
            "image_72": "https:\/\/secure.gravatar.com\/avatar\/4aba3616047410f5bf6118588d544768.jpg?s=72&d=https%3A%2F%2Fa.slack-edge.com%2Fdf10d%2Fimg%2Favatars%2Fava_0022-72.png",
            "first_name": "",
            "real_name": "Kathrin Hadasch",
            "display_name": "Kathrin Hadasch",
            "team": "TUU48M0T1",
            "name": "khada",
            "is_restricted": false,
            "is_ultra_restricted": false
        },
        "attachments": [
            {
                "service_name": "PubMed Central (PMC)",
                "title": "Enhancement of Polymerase Activity of the Large Fragment in DNA Polymerase I from Geobacillus stearothermophilus by Site-Directed Mutagenesis at the Active Site",
                "title_link": "https:\/\/www.ncbi.nlm.nih.gov\/pmc\/articles\/PMC5131239\/",
                "text": "The large fragment of DNA polymerase I from Geobacillus stearothermophilus GIM1.543 (Bst DNA polymerase) with 5′-3′ DNA polymerase activity while in absence of 5′-3′ exonuclease activity possesses high thermal stability ...",
                "fallback": "PubMed Central (PMC): Enhancement of Polymerase Activity of the Large Fragment in DNA Polymerase I from Geobacillus stearothermophilus by Site-Directed Mutagenesis at the Active Site",
                "thumb_url": "https:\/\/www.ncbi.nlm.nih.gov\/corehtml\/pmc\/pmcgifs\/pmc-logo-share.png",
                "from_url": "https:\/\/www.ncbi.nlm.nih.gov\/pmc\/articles\/PMC5131239\/",
                "thumb_width": 1200,
                "thumb_height": 630,
                "service_icon": "http:\/\/www.ncbi.nlm.nih.gov\/favicon.ico",
                "id": 1,
                "original_url": "https:\/\/www.ncbi.nlm.nih.gov\/pmc\/articles\/PMC5131239\/"
            }
        ],
        "blocks": [
            {
                "type": "rich_text",
                "block_id": "oWX=",
                "elements": [
                    {
                        "type": "rich_text_section",
                        "elements": [
                            {
                                "type": "text",
                                "text": "Did you already try some of these mutations: "
                            },
                            {
                                "type": "link",
                                "url": "https:\/\/www.ncbi.nlm.nih.gov\/pmc\/articles\/PMC5131239\/"
                            },
                            {
                                "type": "text",
                                "text": " ? We will try them asap the gene is finally there.....delivery takes some time nowadays "
                            },
                            {
                                "type": "emoji",
                                "name": "slightly_smiling_face"
                            }
                        ]
                    }
                ]
            }
        ],
        "thread_ts": "1585106447.000200",
        "parent_user_id": "U0103U82Q2K"
    },
    {
        "client_msg_id": "B71F2248-059D-4D0B-B4E3-14FBC4630DE9",
        "type": "message",
        "text": "And you’re using the Zhang primer set, correct?",
        "user": "UV5CCJ9RC",
        "ts": "1587380794.423200",
        "team": "TUU48M0T1",
        "user_team": "TUU48M0T1",
        "source_team": "TUU48M0T1",
        "user_profile": {
            "avatar_hash": "2c79fe05f7e7",
            "image_72": "https:\/\/avatars.slack-edge.com\/2020-03-10\/992653932501_2c79fe05f7e75be19699_72.png",
            "first_name": "Chris",
            "real_name": "Chris Monaco",
            "display_name": "",
            "team": "TUU48M0T1",
            "name": "cmonaco.hr",
            "is_restricted": false,
            "is_ultra_restricted": false
        },
        "blocks": [
            {
                "type": "rich_text",
                "block_id": "zz8jD",
                "elements": [
                    {
                        "type": "rich_text_section",
                        "elements": [
                            {
                                "type": "text",
                                "text": "And you’re using the Zhang primer set, correct?"
                            }
                        ]
                    }
                ]
            }
        ],
        "thread_ts": "1587354543.407300",
        "parent_user_id": "U010LNECEHE"
    },
    {
        "client_msg_id": "5e07d0cf-6ce4-47eb-b774-fcd26ceac94b",
        "type": "message",
        "text": "What LOD are you shooting for?",
        "user": "UV10KBUQG",
        "ts": "1587382663.423500",
        "team": "TUU48M0T1",
        "user_team": "TUU48M0T1",
        "source_team": "TUU48M0T1",
        "user_profile": {
            "avatar_hash": "2deebbf6be3d",
            "image_72": "https:\/\/avatars.slack-edge.com\/2020-03-06\/976932190641_2deebbf6be3d17141d91_72.jpg",
            "first_name": "Sarah",
            "real_name": "Sarah Blossom Ware",
            "display_name": "Sarah Blossom Ware - BioBlaze Community Bio Lab",
            "team": "TUU48M0T1",
            "name": "ware.sarah",
            "is_restricted": false,
            "is_ultra_restricted": false
        },
        "blocks": [
            {
                "type": "rich_text",
                "block_id": "itmrx",
                "elements": [
                    {
                        "type": "rich_text_section",
                        "elements": [
                            {
                                "type": "text",
                                "text": "What LOD are you shooting for?"
                            }
                        ]
                    }
                ]
            }
        ],
        "thread_ts": "1587354543.407300",
        "parent_user_id": "U010LNECEHE"
    },
    {
        "client_msg_id": "3313d726-57e0-46c8-ac61-84622ce6e425",
        "type": "message",
        "text": "Yes, please send the protocol!",
        "user": "UV10KBUQG",
        "ts": "1587382724.423700",
        "team": "TUU48M0T1",
        "user_team": "TUU48M0T1",
        "source_team": "TUU48M0T1",
        "user_profile": {
            "avatar_hash": "2deebbf6be3d",
            "image_72": "https:\/\/avatars.slack-edge.com\/2020-03-06\/976932190641_2deebbf6be3d17141d91_72.jpg",
            "first_name": "Sarah",
            "real_name": "Sarah Blossom Ware",
            "display_name": "Sarah Blossom Ware - BioBlaze Community Bio Lab",
            "team": "TUU48M0T1",
            "name": "ware.sarah",
            "is_restricted": false,
            "is_ultra_restricted": false
        },
        "blocks": [
            {
                "type": "rich_text",
                "block_id": "USzl",
                "elements": [
                    {
                        "type": "rich_text_section",
                        "elements": [
                            {
                                "type": "text",
                                "text": "Yes, please send the protocol!"
                            }
                        ]
                    }
                ]
            }
        ],
        "thread_ts": "1587363834.409400",
        "parent_user_id": "UV1A22N3W"
    },
    {
        "type": "message",
        "text": "Here's a better shot in morning light",
        "files": [
            {
                "id": "F012V2SQ5RN",
                "created": 1587384050,
                "timestamp": 1587384050,
                "name": "00000IMG_00000_BURST20200420075758447_COVER.jpg",
                "title": "Image from Android",
                "mimetype": "image\/jpeg",
                "filetype": "jpg",
                "pretty_type": "JPEG",
                "user": "UUPQGNNTV",
                "editable": false,
                "size": 248281,
                "mode": "hosted",
                "is_external": false,
                "external_type": "",
                "is_public": true,
                "public_url_shared": false,
                "display_as_bot": false,
                "username": "",
                "url_private": "https:\/\/files.slack.com\/files-pri\/TUU48M0T1-F012V2SQ5RN\/00000img_00000_burst20200420075758447_cover.jpg?t=xoxe-980144714919-1106606678066-1105227127893-6f722bb664235052954ad46852628b64",
                "url_private_download": "https:\/\/files.slack.com\/files-pri\/TUU48M0T1-F012V2SQ5RN\/download\/00000img_00000_burst20200420075758447_cover.jpg?t=xoxe-980144714919-1106606678066-1105227127893-6f722bb664235052954ad46852628b64",
                "thumb_64": "https:\/\/files.slack.com\/files-tmb\/TUU48M0T1-F012V2SQ5RN-6bb7779760\/00000img_00000_burst20200420075758447_cover_64.jpg?t=xoxe-980144714919-1106606678066-1105227127893-6f722bb664235052954ad46852628b64",
                "thumb_80": "https:\/\/files.slack.com\/files-tmb\/TUU48M0T1-F012V2SQ5RN-6bb7779760\/00000img_00000_burst20200420075758447_cover_80.jpg?t=xoxe-980144714919-1106606678066-1105227127893-6f722bb664235052954ad46852628b64",
                "thumb_360": "https:\/\/files.slack.com\/files-tmb\/TUU48M0T1-F012V2SQ5RN-6bb7779760\/00000img_00000_burst20200420075758447_cover_360.jpg?t=xoxe-980144714919-1106606678066-1105227127893-6f722bb664235052954ad46852628b64",
                "thumb_360_w": 360,
                "thumb_360_h": 166,
                "thumb_480": "https:\/\/files.slack.com\/files-tmb\/TUU48M0T1-F012V2SQ5RN-6bb7779760\/00000img_00000_burst20200420075758447_cover_480.jpg?t=xoxe-980144714919-1106606678066-1105227127893-6f722bb664235052954ad46852628b64",
                "thumb_480_w": 480,
                "thumb_480_h": 221,
                "thumb_160": "https:\/\/files.slack.com\/files-tmb\/TUU48M0T1-F012V2SQ5RN-6bb7779760\/00000img_00000_burst20200420075758447_cover_160.jpg?t=xoxe-980144714919-1106606678066-1105227127893-6f722bb664235052954ad46852628b64",
                "thumb_720": "https:\/\/files.slack.com\/files-tmb\/TUU48M0T1-F012V2SQ5RN-6bb7779760\/00000img_00000_burst20200420075758447_cover_720.jpg?t=xoxe-980144714919-1106606678066-1105227127893-6f722bb664235052954ad46852628b64",
                "thumb_720_w": 720,
                "thumb_720_h": 332,
                "thumb_800": "https:\/\/files.slack.com\/files-tmb\/TUU48M0T1-F012V2SQ5RN-6bb7779760\/00000img_00000_burst20200420075758447_cover_800.jpg?t=xoxe-980144714919-1106606678066-1105227127893-6f722bb664235052954ad46852628b64",
                "thumb_800_w": 800,
                "thumb_800_h": 369,
                "thumb_960": "https:\/\/files.slack.com\/files-tmb\/TUU48M0T1-F012V2SQ5RN-6bb7779760\/00000img_00000_burst20200420075758447_cover_960.jpg?t=xoxe-980144714919-1106606678066-1105227127893-6f722bb664235052954ad46852628b64",
                "thumb_960_w": 960,
                "thumb_960_h": 442,
                "thumb_1024": "https:\/\/files.slack.com\/files-tmb\/TUU48M0T1-F012V2SQ5RN-6bb7779760\/00000img_00000_burst20200420075758447_cover_1024.jpg?t=xoxe-980144714919-1106606678066-1105227127893-6f722bb664235052954ad46852628b64",
                "thumb_1024_w": 1024,
                "thumb_1024_h": 472,
                "original_w": 3837,
                "original_h": 1768,
                "thumb_tiny": "AwAWADCycUhA9aXjmg45696AGFfQimlT2wakOOaO9AERU+gpMH2qUgdKQAZoAkooopgFFFJQAYpMUtJSA\/\/Z",
                "permalink": "https:\/\/open-covid19.slack.com\/files\/UUPQGNNTV\/F012V2SQ5RN\/00000img_00000_burst20200420075758447_cover.jpg",
                "permalink_public": "https:\/\/slack-files.com\/TUU48M0T1-F012V2SQ5RN-abba9f8bfb",
                "is_starred": false,
                "has_rich_preview": false
            }
        ],
        "upload": true,
        "blocks": [
            {
                "type": "rich_text",
                "block_id": "j\/0",
                "elements": [
                    {
                        "type": "rich_text_section",
                        "elements": [
                            {
                                "type": "text",
                                "text": "Here's a better shot in morning light"
                            }
                        ]
                    }
                ]
            }
        ],
        "user": "UUPQGNNTV",
        "display_as_bot": false,
        "ts": "1587384053.423900",
        "client_msg_id": "4cbc570e-0f21-4f38-9658-75339d250c01"
    },
    {
        "client_msg_id": "9cfb0e2e-1adc-44a3-a962-aa1c5067e1ea",
        "type": "message",
        "text": "Yes, I looked into this a couple of weeks ago and they require registration similar to ATCC",
        "user": "UUPQGNNTV",
        "ts": "1587384294.424300",
        "team": "TUU48M0T1",
        "user_team": "TUU48M0T1",
        "source_team": "TUU48M0T1",
        "user_profile": {
            "avatar_hash": "c28127caf7eb",
            "image_72": "https:\/\/avatars.slack-edge.com\/2020-03-07\/989562470694_c28127caf7ebfe67df97_72.jpg",
            "first_name": "",
            "real_name": "Ellen Jorgensen",
            "display_name": "",
            "team": "TUU48M0T1",
            "name": "ejorgensen",
            "is_restricted": false,
            "is_ultra_restricted": false
        },
        "blocks": [
            {
                "type": "rich_text",
                "block_id": "z5R",
                "elements": [
                    {
                        "type": "rich_text_section",
                        "elements": [
                            {
                                "type": "text",
                                "text": "Yes, I looked into this a couple of weeks ago and they require registration similar to ATCC"
                            }
                        ]
                    }
                ]
            }
        ],
        "thread_ts": "1587352018.396300",
        "parent_user_id": "UV7LUJG1Y"
    },
    {
        "client_msg_id": "ad89e314-4f6f-46e4-8a12-38d31960dd9b",
        "type": "message",
        "text": "Cool",
        "user": "UUPQGNNTV",
        "ts": "1587384361.424500",
        "team": "TUU48M0T1",
        "user_team": "TUU48M0T1",
        "source_team": "TUU48M0T1",
        "user_profile": {
            "avatar_hash": "c28127caf7eb",
            "image_72": "https:\/\/avatars.slack-edge.com\/2020-03-07\/989562470694_c28127caf7ebfe67df97_72.jpg",
            "first_name": "",
            "real_name": "Ellen Jorgensen",
            "display_name": "",
            "team": "TUU48M0T1",
            "name": "ejorgensen",
            "is_restricted": false,
            "is_ultra_restricted": false
        },
        "blocks": [
            {
                "type": "rich_text",
                "block_id": "x2V",
                "elements": [
                    {
                        "type": "rich_text_section",
                        "elements": [
                            {
                                "type": "text",
                                "text": "Cool"
                            }
                        ]
                    }
                ]
            }
        ],
        "thread_ts": "1587345122.382400",
        "parent_user_id": "UUPQGNNTV"
    },
    {
        "client_msg_id": "4582B5C1-A357-430C-982D-8CD0BCDC870A",
        "type": "message",
        "text": "after night in frig or rt?",
        "user": "UV1A22N3W",
        "ts": "1587386184.425100",
        "team": "TUU48M0T1",
        "user_team": "TUU48M0T1",
        "source_team": "TUU48M0T1",
        "user_profile": {
            "avatar_hash": "71f827776ad6",
            "image_72": "https:\/\/avatars.slack-edge.com\/2020-03-09\/988125642964_71f827776ad610af05a2_72.jpg",
            "first_name": "",
            "real_name": "RachelA",
            "display_name": "RachelA",
            "team": "TUU48M0T1",
            "name": "raronoff",
            "is_restricted": false,
            "is_ultra_restricted": false
        },
        "blocks": [
            {
                "type": "rich_text",
                "block_id": "JYIM",
                "elements": [
                    {
                        "type": "rich_text_section",
                        "elements": [
                            {
                                "type": "text",
                                "text": "after night in frig or rt?"
                            }
                        ]
                    }
                ]
            }
        ]
    },
    {
        "client_msg_id": "ca5fa319-81a3-46e9-a967-d3b86830fde9",
        "type": "message",
        "text": "Yes, I don't like the pinkish in the Mammoth for the higher copy #s.  We have consistently gotten detection limits of ~300 copies for Zhang - sometimes as low as 100 but consistently 300-400.  I like how nice and yellow the Zhang ones stay.",
        "user": "UV10KBUQG",
        "ts": "1587386891.427900",
        "team": "TUU48M0T1",
        "user_team": "TUU48M0T1",
        "source_team": "TUU48M0T1",
        "user_profile": {
            "avatar_hash": "2deebbf6be3d",
            "image_72": "https:\/\/avatars.slack-edge.com\/2020-03-06\/976932190641_2deebbf6be3d17141d91_72.jpg",
            "first_name": "Sarah",
            "real_name": "Sarah Blossom Ware",
            "display_name": "Sarah Blossom Ware - BioBlaze Community Bio Lab",
            "team": "TUU48M0T1",
            "name": "ware.sarah",
            "is_restricted": false,
            "is_ultra_restricted": false
        },
        "edited": {
            "user": "UV10KBUQG",
            "ts": "1587387397.000000"
        },
        "blocks": [
            {
                "type": "rich_text",
                "block_id": "1mzh",
                "elements": [
                    {
                        "type": "rich_text_section",
                        "elements": [
                            {
                                "type": "text",
                                "text": "Yes, I don't like the pinkish in the Mammoth for the higher copy #s.  We have consistently gotten detection limits of ~300 copies for Zhang - sometimes as low as 100 but consistently 300-400.  I like how nice and yellow the Zhang ones stay."
                            }
                        ]
                    }
                ]
            }
        ]
    },
    {
        "client_msg_id": "088d5f48-cc2a-42bd-bb3a-80fcf5b3da0a",
        "type": "message",
        "text": "<!channel> friendly reminder that we have a call about 45 minutes. For your convenience: <https:\/\/zoom.us\/j\/7804345815>",
        "user": "UV5CCJ9RC",
        "ts": "1587392163.429100",
        "team": "TUU48M0T1",
        "user_team": "TUU48M0T1",
        "source_team": "TUU48M0T1",
        "user_profile": {
            "avatar_hash": "2c79fe05f7e7",
            "image_72": "https:\/\/avatars.slack-edge.com\/2020-03-10\/992653932501_2c79fe05f7e75be19699_72.png",
            "first_name": "Chris",
            "real_name": "Chris Monaco",
            "display_name": "",
            "team": "TUU48M0T1",
            "name": "cmonaco.hr",
            "is_restricted": false,
            "is_ultra_restricted": false
        },
        "blocks": [
            {
                "type": "rich_text",
                "block_id": "0NBi",
                "elements": [
                    {
                        "type": "rich_text_section",
                        "elements": [
                            {
                                "type": "broadcast",
                                "range": "channel"
                            },
                            {
                                "type": "text",
                                "text": " friendly reminder that we have a call about 45 minutes. For your convenience: "
                            },
                            {
                                "type": "link",
                                "url": "https:\/\/zoom.us\/j\/7804345815"
                            }
                        ]
                    }
                ]
            }
        ],
        "reactions": [
            {
                "name": "+1",
                "users": [
                    "UV10KBUQG",
                    "UV7LUJG1Y"
                ],
                "count": 2
            }
        ]
    },
    {
        "client_msg_id": "3f697a71-a59e-4058-b49b-4c240ff62c20",
        "type": "message",
        "text": "<@UUPQGNNTV> this is the LAMP assay that passed FDA...",
        "user": "UV7LUJG1Y",
        "ts": "1587399923.430500",
        "team": "TUU48M0T1",
        "user_team": "TUU48M0T1",
        "source_team": "TUU48M0T1",
        "user_profile": {
            "avatar_hash": "048307b17644",
            "image_72": "https:\/\/avatars.slack-edge.com\/2020-04-04\/1043242365313_048307b17644844abd87_72.jpg",
            "first_name": "",
            "real_name": "Guy Aidelberg",
            "display_name": "Guy Aidelberg",
            "team": "TUU48M0T1",
            "name": "guyaidelberg",
            "is_restricted": false,
            "is_ultra_restricted": false
        },
        "blocks": [
            {
                "type": "rich_text",
                "block_id": "zjJw0",
                "elements": [
                    {
                        "type": "rich_text_section",
                        "elements": [
                            {
                                "type": "user",
                                "user_id": "UUPQGNNTV"
                            },
                            {
                                "type": "text",
                                "text": " this is the LAMP assay that passed FDA..."
                            }
                        ]
                    }
                ]
            }
        ],
        "thread_ts": "1587294585.354700",
        "parent_user_id": "UV7LUJG1Y"
    },
    {
        "client_msg_id": "C43A4CB1-2FDA-46E7-A295-EAE23AD7420F",
        "type": "message",
        "text": "hi! just saw this! was battling with software &amp; connecting for the old qpcr rig in lab. now thermofisher know exactly which machine hackuarium will be using for all this! ;)",
        "user": "UV1A22N3W",
        "ts": "1587401724.432800",
        "team": "TUU48M0T1",
        "user_team": "TUU48M0T1",
        "source_team": "TUU48M0T1",
        "user_profile": {
            "avatar_hash": "71f827776ad6",
            "image_72": "https:\/\/avatars.slack-edge.com\/2020-03-09\/988125642964_71f827776ad610af05a2_72.jpg",
            "first_name": "",
            "real_name": "RachelA",
            "display_name": "RachelA",
            "team": "TUU48M0T1",
            "name": "raronoff",
            "is_restricted": false,
            "is_ultra_restricted": false
        },
        "blocks": [
            {
                "type": "rich_text",
                "block_id": "+GNp",
                "elements": [
                    {
                        "type": "rich_text_section",
                        "elements": [
                            {
                                "type": "text",
                                "text": "hi! just saw this! was battling with software & connecting for the old qpcr rig in lab. now thermofisher know exactly which machine hackuarium will be using for all this! ;)"
                            }
                        ]
                    }
                ]
            }
        ]
    },
    {
        "client_msg_id": "C734D32C-8333-4D1A-89F5-9F827009BC56",
        "type": "message",
        "text": "any news?? my primer order just needs payment to be delivered now (started at lab, then realised I didn’t have card with me, &amp; now it wont let me in! grrr",
        "user": "UV1A22N3W",
        "ts": "1587401808.435100",
        "team": "TUU48M0T1",
        "user_team": "TUU48M0T1",
        "source_team": "TUU48M0T1",
        "user_profile": {
            "avatar_hash": "71f827776ad6",
            "image_72": "https:\/\/avatars.slack-edge.com\/2020-03-09\/988125642964_71f827776ad610af05a2_72.jpg",
            "first_name": "",
            "real_name": "RachelA",
            "display_name": "RachelA",
            "team": "TUU48M0T1",
            "name": "raronoff",
            "is_restricted": false,
            "is_ultra_restricted": false
        },
        "blocks": [
            {
                "type": "rich_text",
                "block_id": "gZDqu",
                "elements": [
                    {
                        "type": "rich_text_section",
                        "elements": [
                            {
                                "type": "text",
                                "text": "any news?? my primer order just needs payment to be delivered now (started at lab, then realised I didn’t have card with me, & now it wont let me in! grrr"
                            }
                        ]
                    }
                ]
            }
        ]
    },
    {
        "client_msg_id": "90e149ab-c24a-4090-b9c0-802d57868409",
        "type": "message",
        "text": "yup using the Zhang NB set modified for quasr",
        "user": "U010LNECEHE",
        "ts": "1587404981.435200",
        "team": "TUU48M0T1",
        "user_team": "TUU48M0T1",
        "source_team": "TUU48M0T1",
        "user_profile": {
            "avatar_hash": "58bda3258fcd",
            "image_72": "https:\/\/avatars.slack-edge.com\/2020-03-30\/1036110784064_58bda3258fcd726472e4_72.png",
            "first_name": "Ali",
            "real_name": "Ali Bektaş",
            "display_name": "Ali",
            "team": "TUU48M0T1",
            "name": "cinalibektas",
            "is_restricted": false,
            "is_ultra_restricted": false
        },
        "blocks": [
            {
                "type": "rich_text",
                "block_id": "RZs3",
                "elements": [
                    {
                        "type": "rich_text_section",
                        "elements": [
                            {
                                "type": "text",
                                "text": "yup using the Zhang NB set modified for quasr"
                            }
                        ]
                    }
                ]
            }
        ],
        "thread_ts": "1587354543.407300",
        "parent_user_id": "U010LNECEHE"
    },
    {
        "client_msg_id": "918db433-5b5b-4fa8-a026-fd5ee2958973",
        "type": "message",
        "text": "in terms of LOD I’m feeling a little conflicted. Looks like the the Atila EUA got it down to 4copies\/ul with 5ul of sample being added so 20copies in a 25ul reaction.",
        "user": "U010LNECEHE",
        "ts": "1587405029.435400",
        "team": "TUU48M0T1",
        "user_team": "TUU48M0T1",
        "source_team": "TUU48M0T1",
        "user_profile": {
            "avatar_hash": "58bda3258fcd",
            "image_72": "https:\/\/avatars.slack-edge.com\/2020-03-30\/1036110784064_58bda3258fcd726472e4_72.png",
            "first_name": "Ali",
            "real_name": "Ali Bektaş",
            "display_name": "Ali",
            "team": "TUU48M0T1",
            "name": "cinalibektas",
            "is_restricted": false,
            "is_ultra_restricted": false
        },
        "blocks": [
            {
                "type": "rich_text",
                "block_id": "zIh",
                "elements": [
                    {
                        "type": "rich_text_section",
                        "elements": [
                            {
                                "type": "text",
                                "text": "in terms of LOD I’m feeling a little conflicted. Looks like the the Atila EUA got it down to 4copies\/ul with 5ul of sample being added so 20copies in a 25ul reaction."
                            }
                        ]
                    }
                ]
            }
        ],
        "thread_ts": "1587354543.407300",
        "parent_user_id": "U010LNECEHE"
    },
    {
        "client_msg_id": "dfde8b49-2610-4018-9bdc-93f8c2067df8",
        "type": "message",
        "text": "but I just heard that researchers in Germany are finding that you can’t isolate the virus after the copy number is below 100 copies\/ul so maybe that’s a better goal from an epidemiological perspective?\nmy personal feeling right now is that getting an FDA EUA is going to be a major hassle. I’d like to figure out a way to put this out as a not-for-profit “research use only” but still get the LOD to be comparable with methods that are getting FDA EUAs",
        "user": "U010LNECEHE",
        "ts": "1587405304.435900",
        "team": "TUU48M0T1",
        "user_team": "TUU48M0T1",
        "source_team": "TUU48M0T1",
        "user_profile": {
            "avatar_hash": "58bda3258fcd",
            "image_72": "https:\/\/avatars.slack-edge.com\/2020-03-30\/1036110784064_58bda3258fcd726472e4_72.png",
            "first_name": "Ali",
            "real_name": "Ali Bektaş",
            "display_name": "Ali",
            "team": "TUU48M0T1",
            "name": "cinalibektas",
            "is_restricted": false,
            "is_ultra_restricted": false
        },
        "blocks": [
            {
                "type": "rich_text",
                "block_id": "rpxs",
                "elements": [
                    {
                        "type": "rich_text_section",
                        "elements": [
                            {
                                "type": "text",
                                "text": "but I just heard that researchers in Germany are finding that you can’t isolate the virus after the copy number is below 100 copies\/ul so maybe that’s a better goal from an epidemiological perspective?\nmy personal feeling right now is that getting an FDA EUA is going to be a major hassle. I’d like to figure out a way to put this out as a not-for-profit “research use only” but still get the LOD to be comparable with methods that are getting FDA EUAs"
                            }
                        ]
                    }
                ]
            }
        ],
        "thread_ts": "1587354543.407300",
        "parent_user_id": "U010LNECEHE"
    },
    {
        "client_msg_id": "9c3e20c9-a10f-4de4-ba69-3561bc5791be",
        "type": "message",
        "text": "Per our discussion today on the call regarding stool samples. I mentioned that infected individuals (as determined by pharyngeal swab RT-PCRs) also show positive results in stool samples. I might have said all patients, that was incorrect.\nBut what I was trying to also say is that, these stool RT-PCRs remain positive long after the virus isn’t detectable from pharyngeal swabs. I think that one theory is that it is still able to replicate in the stomach\/duodenum. But after passing through the intestine it isn’t active because I don’t think they have been able to isolate from stool even though they can detect, might be wrong. Here is one study with n=22\n<https:\/\/annals.org\/aim\/fullarticle\/2764036\/sars-cov-2-positive-sputum-feces-after-conversion-pharyngeal-samples>\nhere 66% infected patients had positive stool samples\n<https:\/\/onlinelibrary.wiley.com\/doi\/abs\/10.1002\/jmv.25825>\nhere 50% infected patients had positive stool samples\n<https:\/\/www.gastrojournal.org\/article\/S0016-5085(20)30282-1\/pdf>",
        "user": "U010LNECEHE",
        "ts": "1587406519.441400",
        "team": "TUU48M0T1",
        "user_team": "TUU48M0T1",
        "source_team": "TUU48M0T1",
        "user_profile": {
            "avatar_hash": "58bda3258fcd",
            "image_72": "https:\/\/avatars.slack-edge.com\/2020-03-30\/1036110784064_58bda3258fcd726472e4_72.png",
            "first_name": "Ali",
            "real_name": "Ali Bektaş",
            "display_name": "Ali",
            "team": "TUU48M0T1",
            "name": "cinalibektas",
            "is_restricted": false,
            "is_ultra_restricted": false
        },
        "blocks": [
            {
                "type": "rich_text",
                "block_id": "e4Ndt",
                "elements": [
                    {
                        "type": "rich_text_section",
                        "elements": [
                            {
                                "type": "text",
                                "text": "Per our discussion today on the call regarding stool samples. I mentioned that infected individuals (as determined by pharyngeal swab RT-PCRs) also show positive results in stool samples. I might have said all patients, that was incorrect.\nBut what I was trying to also say is that, these stool RT-PCRs remain positive long after the virus isn’t detectable from pharyngeal swabs. I think that one theory is that it is still able to replicate in the stomach\/duodenum. But after passing through the intestine it isn’t active because I don’t think they have been able to isolate from stool even though they can detect, might be wrong. Here is one study with n=22\n"
                            },
                            {
                                "type": "link",
                                "url": "https:\/\/annals.org\/aim\/fullarticle\/2764036\/sars-cov-2-positive-sputum-feces-after-conversion-pharyngeal-samples"
                            },
                            {
                                "type": "text",
                                "text": "\nhere 66% infected patients had positive stool samples\n"
                            },
                            {
                                "type": "link",
                                "url": "https:\/\/onlinelibrary.wiley.com\/doi\/abs\/10.1002\/jmv.25825"
                            },
                            {
                                "type": "text",
                                "text": "\nhere 50% infected patients had positive stool samples\n"
                            },
                            {
                                "type": "link",
                                "url": "https:\/\/www.gastrojournal.org\/article\/S0016-5085(20)30282-1\/pdf"
                            }
                        ]
                    }
                ]
            }
        ]
    },
    {
        "client_msg_id": "d477553c-b1da-4bef-9498-241f13c3d53f",
        "type": "message",
        "text": "Per a Wang paper from 2017.  This was for E. coli, but have you guys used these additives? \"The existing LAMP assays were modified via adding 1% tetramethylene sulfoxide and 5% dimethyl sulfoxide as well as optimizing reaction temperature. Results: The detection limit of the modified LAMP assays was 0.1-1 pg per reaction, equivalent to 25-250 cfu per reaction, the non-specific amplification can completely be eliminated with optimal amplifying temperature.\"",
        "user": "UV10KBUQG",
        "ts": "1587407183.442800",
        "team": "TUU48M0T1",
        "user_team": "TUU48M0T1",
        "source_team": "TUU48M0T1",
        "user_profile": {
            "avatar_hash": "2deebbf6be3d",
            "image_72": "https:\/\/avatars.slack-edge.com\/2020-03-06\/976932190641_2deebbf6be3d17141d91_72.jpg",
            "first_name": "Sarah",
            "real_name": "Sarah Blossom Ware",
            "display_name": "Sarah Blossom Ware - BioBlaze Community Bio Lab",
            "team": "TUU48M0T1",
            "name": "ware.sarah",
            "is_restricted": false,
            "is_ultra_restricted": false
        },
        "blocks": [
            {
                "type": "rich_text",
                "block_id": "YXRD",
                "elements": [
                    {
                        "type": "rich_text_section",
                        "elements": [
                            {
                                "type": "text",
                                "text": "Per a Wang paper from 2017.  This was for E. coli, but have you guys used these additives? \"The existing LAMP assays were modified via adding 1% tetramethylene sulfoxide and 5% dimethyl sulfoxide as well as optimizing reaction temperature. Results: The detection limit of the modified LAMP assays was 0.1-1 pg per reaction, equivalent to 25-250 cfu per reaction, the non-specific amplification can completely be eliminated with optimal amplifying temperature.\""
                            }
                        ]
                    }
                ]
            }
        ]
    },
    {
        "client_msg_id": "46bc491e-796d-4120-9339-af908dd21843",
        "type": "message",
        "text": "I haven't tried DMSO ever, only the touchdown which did help..not sure how it would interact with the pH, and it evaporates fast I think",
        "user": "UV7LUJG1Y",
        "ts": "1587408650.444900",
        "team": "TUU48M0T1",
        "user_team": "TUU48M0T1",
        "source_team": "TUU48M0T1",
        "user_profile": {
            "avatar_hash": "048307b17644",
            "image_72": "https:\/\/avatars.slack-edge.com\/2020-04-04\/1043242365313_048307b17644844abd87_72.jpg",
            "first_name": "",
            "real_name": "Guy Aidelberg",
            "display_name": "Guy Aidelberg",
            "team": "TUU48M0T1",
            "name": "guyaidelberg",
            "is_restricted": false,
            "is_ultra_restricted": false
        },
        "blocks": [
            {
                "type": "rich_text",
                "block_id": "Wyg0=",
                "elements": [
                    {
                        "type": "rich_text_section",
                        "elements": [
                            {
                                "type": "text",
                                "text": "I haven't tried DMSO ever, only the touchdown which did help..not sure how it would interact with the pH, and it evaporates fast I think"
                            }
                        ]
                    }
                ]
            }
        ],
        "reactions": [
            {
                "name": "heavy_check_mark",
                "users": [
                    "UV10KBUQG"
                ],
                "count": 1
            }
        ]
    },
    {
        "client_msg_id": "f9edaaa3-3a71-424a-b614-8421af027b52",
        "type": "message",
        "text": "<@U011CLVJMQX> The Phusion is largely for routine PCRs we do in the lab, but we had been in talk with the hospital here to utilize it to make our own RT-PCR mastermix to supplement the current nuceleic acid testing the hospital is doing. Taq would also work and we have that too. But this was mostly a back up plan in the event there was a global shortage of the needed enzymes for testing. The Bst-LF I have is domesticated and sequence optimized but doesn't have any engineered mutations. Seems to express ok but I haven't been able to validate it as a drop in substitute for LAMP. I think <@UUNGFHSV8> has a google spreadsheet which has the sequence for the high fidelity Bst bearing the mutations in that paper, and I think it was off patent.. I think the plan was to have Ginko synthesize and validate this, but I'm not sure what stage this plan is at.\nThe RNAse inhibitor has point mutations to prevent oxidation under reducing conditions which would otherwise make it non functional. But I cloned it from a mouse liver so its best to express it in Rosetta E. Coli, just to be safe. <@U010QHBTBPY> has designed a domesticated, sequence optimized variant for this, but its not synthesized yet.\nI also am studying for my comprehensive exams, so anything COVID-19 related is put on pause. Both <@UUNGFHSV8> <@U010QHBTBPY>and a few other people here have the plasmids mentioned so I would suggest asking them for a copy of anything. They are all under an OpenMTA.\nMMLV and its derivatives do a great job expressing. a 1L culture reliably can yield 100K - 1 million RT Rxns. Alex Kelnov at the <https:\/\/pipettejockey.com\/> blog has a great protocol which has been optimized to express and store his engineered RT, but also works great with MMLV RT mutants. So try that if you run into any issues with MMLV-RT expression.",
        "user": "U010D014546",
        "ts": "1587410752.445000",
        "team": "TUU48M0T1",
        "user_team": "TUU48M0T1",
        "source_team": "TUU48M0T1",
        "user_profile": {
            "avatar_hash": "gf60ced8560b",
            "image_72": "https:\/\/secure.gravatar.com\/avatar\/f60ced8560b19f702db2ea35c88e3b39.jpg?s=72&d=https%3A%2F%2Fa.slack-edge.com%2Fdf10d%2Fimg%2Favatars%2Fava_0013-72.png",
            "first_name": "Alex",
            "real_name": "Alex Brown",
            "display_name": "Alex Brown",
            "team": "TUU48M0T1",
            "name": "abrown",
            "is_restricted": false,
            "is_ultra_restricted": false
        },
        "attachments": [
            {
                "title": "Pipette Jockey",
                "title_link": "https:\/\/pipettejockey.com\/",
                "text": "I make, optimize and reverse engineer methods and reagents for the molecular biology lab. I also make other cool stuff like lab equipment. What follows are my adventures.",
                "fallback": "Pipette Jockey",
                "from_url": "https:\/\/pipettejockey.com\/",
                "thumb_url": "https:\/\/s0.wp.com\/i\/blank.jpg",
                "thumb_width": 200,
                "thumb_height": 200,
                "service_icon": "https:\/\/pipettejockey.com\/favicon.ico",
                "service_name": "pipettejockey.com",
                "id": 1,
                "original_url": "https:\/\/pipettejockey.com\/"
            }
        ],
        "blocks": [
            {
                "type": "rich_text",
                "block_id": "VxHi",
                "elements": [
                    {
                        "type": "rich_text_section",
                        "elements": [
                            {
                                "type": "user",
                                "user_id": "U011CLVJMQX"
                            },
                            {
                                "type": "text",
                                "text": " The Phusion is largely for routine PCRs we do in the lab, but we had been in talk with the hospital here to utilize it to make our own RT-PCR mastermix to supplement the current nuceleic acid testing the hospital is doing. Taq would also work and we have that too. But this was mostly a back up plan in the event there was a global shortage of the needed enzymes for testing. The Bst-LF I have is domesticated and sequence optimized but doesn't have any engineered mutations. Seems to express ok but I haven't been able to validate it as a drop in substitute for LAMP. I think "
                            },
                            {
                                "type": "user",
                                "user_id": "UUNGFHSV8"
                            },
                            {
                                "type": "text",
                                "text": " has a google spreadsheet which has the sequence for the high fidelity Bst bearing the mutations in that paper, and I think it was off patent.. I think the plan was to have Ginko synthesize and validate this, but I'm not sure what stage this plan is at.\nThe RNAse inhibitor has point mutations to prevent oxidation under reducing conditions which would otherwise make it non functional. But I cloned it from a mouse liver so its best to express it in Rosetta E. Coli, just to be safe. "
                            },
                            {
                                "type": "user",
                                "user_id": "U010QHBTBPY"
                            },
                            {
                                "type": "text",
                                "text": " has designed a domesticated, sequence optimized variant for this, but its not synthesized yet.\nI also am studying for my comprehensive exams, so anything COVID-19 related is put on pause. Both "
                            },
                            {
                                "type": "user",
                                "user_id": "UUNGFHSV8"
                            },
                            {
                                "type": "text",
                                "text": " "
                            },
                            {
                                "type": "user",
                                "user_id": "U010QHBTBPY"
                            },
                            {
                                "type": "text",
                                "text": "and a few other people here have the plasmids mentioned so I would suggest asking them for a copy of anything. They are all under an OpenMTA.\nMMLV and its derivatives do a great job expressing. a 1L culture reliably can yield 100K - 1 million RT Rxns. Alex Kelnov at the "
                            },
                            {
                                "type": "link",
                                "url": "https:\/\/pipettejockey.com\/"
                            },
                            {
                                "type": "text",
                                "text": " blog has a great protocol which has been optimized to express and store his engineered RT, but also works great with MMLV RT mutants. So try that if you run into any issues with MMLV-RT expression."
                            }
                        ]
                    }
                ]
            }
        ],
        "thread_ts": "1585106447.000200",
        "parent_user_id": "U0103U82Q2K"
    },
    {
        "client_msg_id": "7e7a92e1-d037-4497-8eb3-ef48f666c3bf",
        "type": "message",
        "text": "I've only used DMSO in GC-rich PCRs, it helps there.",
        "user": "UUPQGNNTV",
        "ts": "1587412215.446400",
        "team": "TUU48M0T1",
        "user_team": "TUU48M0T1",
        "source_team": "TUU48M0T1",
        "user_profile": {
            "avatar_hash": "c28127caf7eb",
            "image_72": "https:\/\/avatars.slack-edge.com\/2020-03-07\/989562470694_c28127caf7ebfe67df97_72.jpg",
            "first_name": "",
            "real_name": "Ellen Jorgensen",
            "display_name": "",
            "team": "TUU48M0T1",
            "name": "ejorgensen",
            "is_restricted": false,
            "is_ultra_restricted": false
        },
        "blocks": [
            {
                "type": "rich_text",
                "block_id": "2nMm8",
                "elements": [
                    {
                        "type": "rich_text_section",
                        "elements": [
                            {
                                "type": "text",
                                "text": "I've only used DMSO in GC-rich PCRs, it helps there."
                            }
                        ]
                    }
                ]
            }
        ],
        "reactions": [
            {
                "name": "heavy_check_mark",
                "users": [
                    "UV10KBUQG"
                ],
                "count": 1
            }
        ]
    },
    {
        "client_msg_id": "062dffcc-90cb-44c5-a3b8-f491c5e168c2",
        "type": "message",
        "text": "I don't think evaporation is an issue.",
        "user": "UUPQGNNTV",
        "ts": "1587412251.446900",
        "team": "TUU48M0T1",
        "user_team": "TUU48M0T1",
        "source_team": "TUU48M0T1",
        "user_profile": {
            "avatar_hash": "c28127caf7eb",
            "image_72": "https:\/\/avatars.slack-edge.com\/2020-03-07\/989562470694_c28127caf7ebfe67df97_72.jpg",
            "first_name": "",
            "real_name": "Ellen Jorgensen",
            "display_name": "",
            "team": "TUU48M0T1",
            "name": "ejorgensen",
            "is_restricted": false,
            "is_ultra_restricted": false
        },
        "blocks": [
            {
                "type": "rich_text",
                "block_id": "uYxx",
                "elements": [
                    {
                        "type": "rich_text_section",
                        "elements": [
                            {
                                "type": "text",
                                "text": "I don't think evaporation is an issue."
                            }
                        ]
                    }
                ]
            }
        ]
    },
    {
        "client_msg_id": "879cd1db-7a80-4291-854a-e6ea3709c9d7",
        "type": "message",
        "text": "I received Alex’s plasmids last week (along with a bunch of other DNA from other sources) as both glycerol filter bug blots and plain DNA. Sadly the bug blots didn’t survive the misplaced delayed shipment. I’ll be putting the plasmids in BL2(DE3) or BL2(DE3)pLys. The murine RNAse inhibitor needs to be put into Rosetta (DE3) since it is not domesticated for E. coli but I don’t have that strain. A number of both Alex’s and <@UV1V637PU>’s OBL plasmids will be shipped out through *FreeGenes*. <@UV4Q15S5Q> can update you on when those will go out. I know they are working hard on the Ginkgo plasmids so patiences is important. You might also be able to request from Freegenes <@UV1V637PU>’s full *Open Enzyme Collection 1* which contains 42 IP free enzyme genes (<https:\/\/openbioeconomy.org\/projects\/open-enzyme-collections\/>) If you want anything from me I’m willing to share. This would most likely be DNA rather than bug-bearing DNA. As an aside I have been juggling paid work and this volunteer work. I’ve had to focus on the paid work as well as triaging all of the incoming DNA as a priority to working on the JOGL grant this cycle.",
        "user": "U010QHBTBPY",
        "ts": "1587414115.447000",
        "team": "TUU48M0T1",
        "user_team": "TUU48M0T1",
        "source_team": "TUU48M0T1",
        "user_profile": {
            "avatar_hash": "g4e30c4af69a",
            "image_72": "https:\/\/secure.gravatar.com\/avatar\/4e30c4af69a6429e53cd9cce9da9f65c.jpg?s=72&d=https%3A%2F%2Fa.slack-edge.com%2Fdf10d%2Fimg%2Favatars%2Fava_0015-72.png",
            "first_name": "",
            "real_name": "osn_scott",
            "display_name": "osn_scott",
            "team": "TUU48M0T1",
            "name": "scott527",
            "is_restricted": false,
            "is_ultra_restricted": false
        },
        "edited": {
            "user": "U010QHBTBPY",
            "ts": "1587414241.000000"
        },
        "blocks": [
            {
                "type": "rich_text",
                "block_id": "v+hN3",
                "elements": [
                    {
                        "type": "rich_text_section",
                        "elements": [
                            {
                                "type": "text",
                                "text": "I received Alex’s plasmids last week (along with a bunch of other DNA from other sources) as both glycerol filter bug blots and plain DNA. Sadly the bug blots didn’t survive the misplaced delayed shipment. I’ll be putting the plasmids in BL2(DE3) or BL2(DE3)pLys. The murine RNAse inhibitor needs to be put into Rosetta (DE3) since it is not domesticated for E. coli but I don’t have that strain. A number of both Alex’s and "
                            },
                            {
                                "type": "user",
                                "user_id": "UV1V637PU"
                            },
                            {
                                "type": "text",
                                "text": "’s OBL plasmids will be shipped out through "
                            },
                            {
                                "type": "text",
                                "text": "FreeGenes",
                                "style": {
                                    "bold": true
                                }
                            },
                            {
                                "type": "text",
                                "text": ". "
                            },
                            {
                                "type": "user",
                                "user_id": "UV4Q15S5Q"
                            },
                            {
                                "type": "text",
                                "text": " can update you on when those will go out. I know they are working hard on the Ginkgo plasmids so patiences is important. You might also be able to request from Freegenes "
                            },
                            {
                                "type": "user",
                                "user_id": "UV1V637PU"
                            },
                            {
                                "type": "text",
                                "text": "’s full "
                            },
                            {
                                "type": "text",
                                "text": "Open Enzyme Collection 1",
                                "style": {
                                    "bold": true
                                }
                            },
                            {
                                "type": "text",
                                "text": " which contains 42 IP free enzyme genes ("
                            },
                            {
                                "type": "link",
                                "url": "https:\/\/openbioeconomy.org\/projects\/open-enzyme-collections\/"
                            },
                            {
                                "type": "text",
                                "text": ") If you want anything from me I’m willing to share. This would most likely be DNA rather than bug-bearing DNA. As an aside I have been juggling paid work and this volunteer work. I’ve had to focus on the paid work as well as triaging all of the incoming DNA as a priority to working on the JOGL grant this cycle."
                            }
                        ]
                    }
                ]
            }
        ],
        "thread_ts": "1585106447.000200",
        "parent_user_id": "U0103U82Q2K",
        "reactions": [
            {
                "name": "super-brain",
                "users": [
                    "U010D014546"
                ],
                "count": 1
            }
        ]
    },
    {
        "client_msg_id": "361b6859-d605-4b4f-98bb-56615f03cc13",
        "type": "message",
        "text": "I tried DMSO last week, in a titration series for DMSO, but not as a level of detection series yet. Can go up to 10% DMSO. (didn't try more than that) It will slow the color change to 40min with 250copies of gblock, but may make it more specific? Need to test it out more but working on other things at the moment.",
        "user": "U0123D6FZ41",
        "ts": "1587421319.450900",
        "team": "TUU48M0T1",
        "user_team": "TUU48M0T1",
        "source_team": "TUU48M0T1",
        "user_profile": {
            "avatar_hash": "gdb31a491f65",
            "image_72": "https:\/\/secure.gravatar.com\/avatar\/db31a491f6513e21730395227a8b0a66.jpg?s=72&d=https%3A%2F%2Fa.slack-edge.com%2Fdf10d%2Fimg%2Favatars%2Fava_0005-72.png",
            "first_name": "",
            "real_name": "Beth Martin",
            "display_name": "Beth Martin",
            "team": "TUU48M0T1",
            "name": "bethkarenmartin",
            "is_restricted": false,
            "is_ultra_restricted": false
        },
        "blocks": [
            {
                "type": "rich_text",
                "block_id": "m0l+",
                "elements": [
                    {
                        "type": "rich_text_section",
                        "elements": [
                            {
                                "type": "text",
                                "text": "I tried DMSO last week, in a titration series for DMSO, but not as a level of detection series yet. Can go up to 10% DMSO. (didn't try more than that) It will slow the color change to 40min with 250copies of gblock, but may make it more specific? Need to test it out more but working on other things at the moment."
                            }
                        ]
                    }
                ]
            }
        ],
        "reactions": [
            {
                "name": "heavy_check_mark",
                "users": [
                    "UV10KBUQG",
                    "UV1A22N3W"
                ],
                "count": 2
            }
        ]
    },
    {
        "client_msg_id": "3cd286c2-1ab7-4cde-a607-b5de1673da6c",
        "type": "message",
        "text": "just saw why Guy asked for help pulling out seqs - the ones from Lu et al for RdRp are not so easy to parse directly...   I added the Lamb et al ones to the doc in the drive at least, based on an aligned consensus of 23 different strains of the virus.",
        "user": "UV1A22N3W",
        "ts": "1587451417.453100",
        "team": "TUU48M0T1",
        "user_team": "TUU48M0T1",
        "source_team": "TUU48M0T1",
        "user_profile": {
            "avatar_hash": "71f827776ad6",
            "image_72": "https:\/\/avatars.slack-edge.com\/2020-03-09\/988125642964_71f827776ad610af05a2_72.jpg",
            "first_name": "",
            "real_name": "RachelA",
            "display_name": "RachelA",
            "team": "TUU48M0T1",
            "name": "raronoff",
            "is_restricted": false,
            "is_ultra_restricted": false
        },
        "blocks": [
            {
                "type": "rich_text",
                "block_id": "iVh",
                "elements": [
                    {
                        "type": "rich_text_section",
                        "elements": [
                            {
                                "type": "text",
                                "text": "just saw why Guy asked for help pulling out seqs - the ones from Lu et al for RdRp are not so easy to parse directly...   I added the Lamb et al ones to the doc in the drive at least, based on an aligned consensus of 23 different strains of the virus."
                            }
                        ]
                    }
                ]
            }
        ]
    },
    {
        "client_msg_id": "d67059be-2cb4-4480-9383-2506d8b1e265",
        "type": "message",
        "text": "If I am lucky I still have some Q5 pol in the lab- otherwise should order it too, when I get the RQ1 DNase, right?  (any opinions about the best for that, again?)",
        "user": "UV1A22N3W",
        "ts": "1587451870.454100",
        "team": "TUU48M0T1",
        "user_team": "TUU48M0T1",
        "source_team": "TUU48M0T1",
        "user_profile": {
            "avatar_hash": "71f827776ad6",
            "image_72": "https:\/\/avatars.slack-edge.com\/2020-03-09\/988125642964_71f827776ad610af05a2_72.jpg",
            "first_name": "",
            "real_name": "RachelA",
            "display_name": "RachelA",
            "team": "TUU48M0T1",
            "name": "raronoff",
            "is_restricted": false,
            "is_ultra_restricted": false
        },
        "blocks": [
            {
                "type": "rich_text",
                "block_id": "Ch3w",
                "elements": [
                    {
                        "type": "rich_text_section",
                        "elements": [
                            {
                                "type": "text",
                                "text": "If I am lucky I still have some Q5 pol in the lab- otherwise should order it too, when I get the RQ1 DNase, right?  (any opinions about the best for that, again?)"
                            }
                        ]
                    }
                ]
            }
        ],
        "thread_ts": "1587451870.454100",
        "reply_count": 10,
        "reply_users_count": 4,
        "latest_reply": "1587571611.001100",
        "reply_users": [
            "UV7LUJG1Y",
            "UV1A22N3W",
            "UV10KBUQG",
            "U010LNECEHE"
        ],
        "replies": [
            {
                "user": "UV7LUJG1Y",
                "ts": "1587452751.454200"
            },
            {
                "user": "UV1A22N3W",
                "ts": "1587452901.454400"
            },
            {
                "user": "UV1A22N3W",
                "ts": "1587452926.454600"
            },
            {
                "user": "UV1A22N3W",
                "ts": "1587452930.454800"
            },
            {
                "user": "UV10KBUQG",
                "ts": "1587509222.456000"
            },
            {
                "user": "UV1A22N3W",
                "ts": "1587537529.457600"
            },
            {
                "user": "U010LNECEHE",
                "ts": "1587570514.494300"
            },
            {
                "user": "UV1A22N3W",
                "ts": "1587570822.499000"
            },
            {
                "user": "U010LNECEHE",
                "ts": "1587570963.000700"
            },
            {
                "user": "UV1A22N3W",
                "ts": "1587571611.001100"
            }
        ],
        "subscribed": false
    }
]