[
    {
        "client_msg_id": "048f809b-6146-4889-96c6-a8e7c9875307",
        "type": "message",
        "text": "Agree that the conversations specifically about student engagement should happen in the student channel :slightly_smiling_face:",
        "user": "U011B6VLM2A",
        "ts": "1587460137.015400",
        "team": "TUU48M0T1",
        "user_team": "TUU48M0T1",
        "source_team": "TUU48M0T1",
        "user_profile": {
            "avatar_hash": "4231dc598cfc",
            "image_72": "https:\/\/avatars.slack-edge.com\/2020-04-02\/1044784558839_4231dc598cfc2e59c4c4_72.jpg",
            "first_name": "Alix",
            "real_name": "Alix Mains",
            "display_name": "Alix Mains - JOGL Coordinator",
            "team": "TUU48M0T1",
            "name": "alixhmains",
            "is_restricted": false,
            "is_ultra_restricted": false
        },
        "blocks": [
            {
                "type": "rich_text",
                "block_id": "aLh+",
                "elements": [
                    {
                        "type": "rich_text_section",
                        "elements": [
                            {
                                "type": "text",
                                "text": "Agree that the conversations specifically about student engagement should happen in the student channel "
                            },
                            {
                                "type": "emoji",
                                "name": "slightly_smiling_face"
                            }
                        ]
                    }
                ]
            }
        ],
        "thread_ts": "1587415385.014300",
        "parent_user_id": "U0101DKUALV"
    },
    {
        "client_msg_id": "f79b6a43-4aa0-4aa0-b916-0f06f641615f",
        "type": "message",
        "text": "Agree with all of you!",
        "user": "UV9V03C8Y",
        "ts": "1587460872.015600",
        "team": "TUU48M0T1",
        "user_team": "TUU48M0T1",
        "source_team": "TUU48M0T1",
        "user_profile": {
            "avatar_hash": "177697fb7b8f",
            "image_72": "https:\/\/avatars.slack-edge.com\/2020-03-12\/996126178096_177697fb7b8ffa57649c_72.jpg",
            "first_name": "Camille",
            "real_name": "Camille Masselot - JOGL Program coordinator",
            "display_name": "Camille Masselot - JOGL coordinator",
            "team": "TUU48M0T1",
            "name": "masselot.camille",
            "is_restricted": false,
            "is_ultra_restricted": false
        },
        "blocks": [
            {
                "type": "rich_text",
                "block_id": "EDnLa",
                "elements": [
                    {
                        "type": "rich_text_section",
                        "elements": [
                            {
                                "type": "text",
                                "text": "Agree with all of you!"
                            }
                        ]
                    }
                ]
            }
        ],
        "thread_ts": "1587415385.014300",
        "parent_user_id": "U0101DKUALV"
    },
    {
        "client_msg_id": "058f66be-5f26-4bdf-b41b-2c1718217d9d",
        "type": "message",
        "text": "Hi <@U0101DKUALV> i would be happy to participate in this.\nWith <@U012G0X589F> in <#C012G5T0EEM|proj-free-edu-webinars-viruses> we would be happy to engage students for making webinars if they are able to make lectures in virology or related topics.",
        "user": "U010B412MF1",
        "ts": "1587473923.015900",
        "team": "TUU48M0T1",
        "user_team": "TUU48M0T1",
        "source_team": "TUU48M0T1",
        "user_profile": {
            "avatar_hash": "218d963a797f",
            "image_72": "https:\/\/avatars.slack-edge.com\/2020-03-19\/1013072792629_218d963a797fbf4410c0_72.png",
            "first_name": "",
            "real_name": "liu",
            "display_name": "liu",
            "team": "TUU48M0T1",
            "name": "liubov.tupikina",
            "is_restricted": false,
            "is_ultra_restricted": false
        },
        "blocks": [
            {
                "type": "rich_text",
                "block_id": "xo+u",
                "elements": [
                    {
                        "type": "rich_text_section",
                        "elements": [
                            {
                                "type": "text",
                                "text": "Hi "
                            },
                            {
                                "type": "user",
                                "user_id": "U0101DKUALV"
                            },
                            {
                                "type": "text",
                                "text": " i would be happy to participate in this.\nWith "
                            },
                            {
                                "type": "user",
                                "user_id": "U012G0X589F"
                            },
                            {
                                "type": "text",
                                "text": " in "
                            },
                            {
                                "type": "channel",
                                "channel_id": "C012G5T0EEM"
                            },
                            {
                                "type": "text",
                                "text": " we would be happy to engage students for making webinars if they are able to make lectures in virology or related topics."
                            }
                        ]
                    }
                ]
            }
        ],
        "thread_ts": "1587415385.014300",
        "parent_user_id": "U0101DKUALV"
    }
]