[
    {
        "type": "message",
        "subtype": "channel_join",
        "ts": "1587402250.000200",
        "user": "U011B6VLM2A",
        "text": "<@U011B6VLM2A> has joined the channel"
    },
    {
        "type": "message",
        "subtype": "channel_purpose",
        "ts": "1587402250.000300",
        "user": "U011B6VLM2A",
        "text": "<@U011B6VLM2A> set the channel purpose: A place to coordinate capacity-building workshops and webinars. These virtual sessions will feature experts from the community and help community members develop skills for individual, team, and project success.",
        "purpose": "A place to coordinate capacity-building workshops and webinars. These virtual sessions will feature experts from the community and help community members develop skills for individual, team, and project success."
    },
    {
        "type": "message",
        "subtype": "channel_join",
        "ts": "1587402299.000500",
        "user": "UV9V03C8Y",
        "text": "<@UV9V03C8Y> has joined the channel",
        "inviter": "U011B6VLM2A",
        "reactions": [
            {
                "name": "+1",
                "users": [
                    "U010HTBUHS9"
                ],
                "count": 1
            }
        ]
    },
    {
        "type": "message",
        "subtype": "channel_join",
        "ts": "1587402299.000700",
        "user": "U010HTBUHS9",
        "text": "<@U010HTBUHS9> has joined the channel",
        "inviter": "U011B6VLM2A"
    },
    {
        "type": "message",
        "subtype": "channel_join",
        "ts": "1587402300.000900",
        "user": "U010Q3372P3",
        "text": "<@U010Q3372P3> has joined the channel",
        "inviter": "U011B6VLM2A"
    },
    {
        "type": "message",
        "subtype": "channel_join",
        "ts": "1587402300.001100",
        "user": "U011VF29MK2",
        "text": "<@U011VF29MK2> has joined the channel",
        "inviter": "U011B6VLM2A"
    },
    {
        "type": "message",
        "subtype": "channel_join",
        "ts": "1587402300.001300",
        "user": "U011D8T1Z61",
        "text": "<@U011D8T1Z61> has joined the channel",
        "inviter": "U011B6VLM2A"
    },
    {
        "type": "message",
        "subtype": "channel_join",
        "ts": "1587402300.001500",
        "user": "UV87UQ37A",
        "text": "<@UV87UQ37A> has joined the channel",
        "inviter": "U011B6VLM2A"
    },
    {
        "type": "message",
        "subtype": "channel_join",
        "ts": "1587402343.001800",
        "user": "UVATPEW2W",
        "text": "<@UVATPEW2W> has joined the channel",
        "inviter": "U011B6VLM2A"
    },
    {
        "type": "message",
        "subtype": "channel_join",
        "ts": "1587402343.002000",
        "user": "U0101DKUALV",
        "text": "<@U0101DKUALV> has joined the channel",
        "inviter": "U011B6VLM2A"
    },
    {
        "type": "message",
        "subtype": "channel_topic",
        "ts": "1587402359.002100",
        "user": "U011B6VLM2A",
        "text": "<@U011B6VLM2A> set the channel topic: A place to coordinate capacity-building workshops and webinars. These virtual sessions will feature experts from the community and help community members develop skills for individual, team, and project success.",
        "topic": "A place to coordinate capacity-building workshops and webinars. These virtual sessions will feature experts from the community and help community members develop skills for individual, team, and project success."
    },
    {
        "client_msg_id": "5b729bf1-e55b-4d74-8e74-c671af2f934c",
        "type": "message",
        "text": "Idea for first webinar topic : “Introduction to this community”  (thanks <@UV87UQ37A> for the idea!)",
        "user": "U011B6VLM2A",
        "ts": "1587402512.002700",
        "team": "TUU48M0T1",
        "user_team": "TUU48M0T1",
        "source_team": "TUU48M0T1",
        "user_profile": {
            "avatar_hash": "4231dc598cfc",
            "image_72": "https:\/\/avatars.slack-edge.com\/2020-04-02\/1044784558839_4231dc598cfc2e59c4c4_72.jpg",
            "first_name": "Alix",
            "real_name": "Alix Mains",
            "display_name": "Alix Mains - JOGL Coordinator",
            "team": "TUU48M0T1",
            "name": "alixhmains",
            "is_restricted": false,
            "is_ultra_restricted": false
        },
        "blocks": [
            {
                "type": "rich_text",
                "block_id": "\/Fh",
                "elements": [
                    {
                        "type": "rich_text_section",
                        "elements": [
                            {
                                "type": "text",
                                "text": "Idea for first webinar topic : “Introduction to this community”  (thanks "
                            },
                            {
                                "type": "user",
                                "user_id": "UV87UQ37A"
                            },
                            {
                                "type": "text",
                                "text": " for the idea!)"
                            }
                        ]
                    }
                ]
            }
        ]
    },
    {
        "client_msg_id": "0402ba88-379d-419c-aead-082fe4db088e",
        "type": "message",
        "text": "Awesome :confetti_ball:! Thanks!",
        "user": "UV9V03C8Y",
        "ts": "1587403261.003100",
        "team": "TUU48M0T1",
        "user_team": "TUU48M0T1",
        "source_team": "TUU48M0T1",
        "user_profile": {
            "avatar_hash": "177697fb7b8f",
            "image_72": "https:\/\/avatars.slack-edge.com\/2020-03-12\/996126178096_177697fb7b8ffa57649c_72.jpg",
            "first_name": "Camille",
            "real_name": "Camille Masselot - JOGL Program coordinator",
            "display_name": "Camille Masselot - JOGL coordinator",
            "team": "TUU48M0T1",
            "name": "masselot.camille",
            "is_restricted": false,
            "is_ultra_restricted": false
        },
        "blocks": [
            {
                "type": "rich_text",
                "block_id": "tb3a",
                "elements": [
                    {
                        "type": "rich_text_section",
                        "elements": [
                            {
                                "type": "text",
                                "text": "Awesome "
                            },
                            {
                                "type": "emoji",
                                "name": "confetti_ball"
                            },
                            {
                                "type": "text",
                                "text": "! Thanks!"
                            }
                        ]
                    }
                ]
            }
        ]
    },
    {
        "type": "message",
        "subtype": "channel_join",
        "ts": "1587403283.003300",
        "user": "U012G0X589F",
        "text": "<@U012G0X589F> has joined the channel",
        "inviter": "UV9V03C8Y"
    },
    {
        "type": "message",
        "subtype": "channel_join",
        "ts": "1587403328.003500",
        "user": "UV0QTJCMT",
        "text": "<@UV0QTJCMT> has joined the channel",
        "inviter": "UV9V03C8Y"
    },
    {
        "type": "message",
        "subtype": "channel_join",
        "ts": "1587403328.003700",
        "user": "UV02WET96",
        "text": "<@UV02WET96> has joined the channel",
        "inviter": "UV9V03C8Y"
    },
    {
        "type": "message",
        "subtype": "channel_join",
        "ts": "1587403329.003900",
        "user": "U010B412MF1",
        "text": "<@U010B412MF1> has joined the channel",
        "inviter": "UV9V03C8Y"
    },
    {
        "type": "message",
        "subtype": "channel_join",
        "ts": "1587403329.004100",
        "user": "UVC9WMA7N",
        "text": "<@UVC9WMA7N> has joined the channel",
        "inviter": "UV9V03C8Y"
    },
    {
        "type": "message",
        "subtype": "channel_join",
        "ts": "1587403329.004300",
        "user": "UV85V64SD",
        "text": "<@UV85V64SD> has joined the channel",
        "inviter": "UV9V03C8Y"
    },
    {
        "client_msg_id": "9d514c56-adc1-41cf-8e8b-af90b5ce43da",
        "type": "message",
        "text": "Team, <@U010B412MF1> and <@U012G0X589F> are working on a webinar projects for students: <https:\/\/app.jogl.io\/project\/216#news>\nThis could be part of the webinars series!",
        "user": "UV9V03C8Y",
        "ts": "1587403432.005400",
        "team": "TUU48M0T1",
        "user_team": "TUU48M0T1",
        "source_team": "TUU48M0T1",
        "user_profile": {
            "avatar_hash": "177697fb7b8f",
            "image_72": "https:\/\/avatars.slack-edge.com\/2020-03-12\/996126178096_177697fb7b8ffa57649c_72.jpg",
            "first_name": "Camille",
            "real_name": "Camille Masselot - JOGL Program coordinator",
            "display_name": "Camille Masselot - JOGL coordinator",
            "team": "TUU48M0T1",
            "name": "masselot.camille",
            "is_restricted": false,
            "is_ultra_restricted": false
        },
        "attachments": [
            {
                "title": "JOGL - Just One Giant Lab",
                "title_link": "https:\/\/app.jogl.io\/project\/216#news",
                "text": "JOGL helps sync humanity onto solving our most important social &amp; environmental problems using open science, responsible innovation &amp; continuous learning.",
                "fallback": "JOGL - Just One Giant Lab",
                "thumb_url": "https:\/\/app.jogl.io\/planet.jpg",
                "from_url": "https:\/\/app.jogl.io\/project\/216#news",
                "thumb_width": 2049,
                "thumb_height": 1011,
                "service_icon": "https:\/\/app.jogl.io\/favicon.ico",
                "service_name": "app.jogl.io",
                "id": 1,
                "original_url": "https:\/\/app.jogl.io\/project\/216#news"
            }
        ],
        "blocks": [
            {
                "type": "rich_text",
                "block_id": "R\/KD",
                "elements": [
                    {
                        "type": "rich_text_section",
                        "elements": [
                            {
                                "type": "text",
                                "text": "Team, "
                            },
                            {
                                "type": "user",
                                "user_id": "U010B412MF1"
                            },
                            {
                                "type": "text",
                                "text": " and "
                            },
                            {
                                "type": "user",
                                "user_id": "U012G0X589F"
                            },
                            {
                                "type": "text",
                                "text": " are working on a webinar projects for students: "
                            },
                            {
                                "type": "link",
                                "url": "https:\/\/app.jogl.io\/project\/216#news"
                            },
                            {
                                "type": "text",
                                "text": "\nThis could be part of the webinars series!"
                            }
                        ]
                    }
                ]
            }
        ],
        "thread_ts": "1587403432.005400",
        "reply_count": 1,
        "reply_users_count": 1,
        "latest_reply": "1587408119.006600",
        "reply_users": [
            "U010B412MF1"
        ],
        "replies": [
            {
                "user": "U010B412MF1",
                "ts": "1587408119.006600"
            }
        ],
        "subscribed": false,
        "reactions": [
            {
                "name": "earth_africa",
                "users": [
                    "U010B412MF1"
                ],
                "count": 1
            }
        ]
    },
    {
        "client_msg_id": "53aad1a0-8bbe-47c0-9b19-2bc98d392c2e",
        "type": "message",
        "text": "Yes we can discuss this. Which exactly webinars are talking about?",
        "user": "U010B412MF1",
        "ts": "1587408119.006600",
        "team": "TUU48M0T1",
        "user_team": "TUU48M0T1",
        "source_team": "TUU48M0T1",
        "user_profile": {
            "avatar_hash": "218d963a797f",
            "image_72": "https:\/\/avatars.slack-edge.com\/2020-03-19\/1013072792629_218d963a797fbf4410c0_72.png",
            "first_name": "",
            "real_name": "liu",
            "display_name": "liu",
            "team": "TUU48M0T1",
            "name": "liubov.tupikina",
            "is_restricted": false,
            "is_ultra_restricted": false
        },
        "blocks": [
            {
                "type": "rich_text",
                "block_id": "+3m",
                "elements": [
                    {
                        "type": "rich_text_section",
                        "elements": [
                            {
                                "type": "text",
                                "text": "Yes we can discuss this. Which exactly webinars are talking about?"
                            }
                        ]
                    }
                ]
            }
        ],
        "thread_ts": "1587403432.005400",
        "parent_user_id": "UV9V03C8Y"
    },
    {
        "client_msg_id": "95eace04-cf69-49f3-9533-4f601184e640",
        "type": "message",
        "text": "Ok, my notes have that our next step is to draft a survey so we can be making relevant content for our community - we had talked (or... maybe I had talked... :stuck_out_tongue: ) about sending it broadly but also focusing in on grant recipients with more focused messages.  Once we have the results of that we can create our first timeline of events.  I think it would be great if we can announce an actual schedule for a \"series\" when we launch both to build excitement and also to commit US to performing :slightly_smiling_face:",
        "user": "U010HTBUHS9",
        "ts": "1587409309.008500",
        "team": "TUU48M0T1",
        "user_team": "TUU48M0T1",
        "source_team": "TUU48M0T1",
        "user_profile": {
            "avatar_hash": "e7bdbebff0d9",
            "image_72": "https:\/\/avatars.slack-edge.com\/2020-03-22\/1017951251813_e7bdbebff0d9ad1e8f12_72.jpg",
            "first_name": "",
            "real_name": "Adam Arabian",
            "display_name": "Adam Arabian",
            "team": "TUU48M0T1",
            "name": "adam.arabian",
            "is_restricted": false,
            "is_ultra_restricted": false
        },
        "blocks": [
            {
                "type": "rich_text",
                "block_id": "kvwN",
                "elements": [
                    {
                        "type": "rich_text_section",
                        "elements": [
                            {
                                "type": "text",
                                "text": "Ok, my notes have that our next step is to draft a survey so we can be making relevant content for our community - we had talked (or... maybe I had talked... "
                            },
                            {
                                "type": "emoji",
                                "name": "stuck_out_tongue"
                            },
                            {
                                "type": "text",
                                "text": " ) about sending it broadly but also focusing in on grant recipients with more focused messages.  Once we have the results of that we can create our first timeline of events.  I think it would be great if we can announce an actual schedule for a \"series\" when we launch both to build excitement and also to commit US to performing "
                            },
                            {
                                "type": "emoji",
                                "name": "slightly_smiling_face"
                            }
                        ]
                    }
                ]
            }
        ],
        "thread_ts": "1587409309.008500",
        "reply_count": 2,
        "reply_users_count": 1,
        "latest_reply": "1587409707.010500",
        "reply_users": [
            "UV87UQ37A"
        ],
        "replies": [
            {
                "user": "UV87UQ37A",
                "ts": "1587409543.010300"
            },
            {
                "user": "UV87UQ37A",
                "ts": "1587409707.010500"
            }
        ],
        "subscribed": false
    },
    {
        "client_msg_id": "d8843250-39c6-473d-8348-09ef226b45af",
        "type": "message",
        "text": "Should our meetings be the same as the ambassadors meeting or is this a different channel?  Also oddly my calendar link from google (OpenCovid19 Initiative) does not seem to have most of the JOGL meetings - it only has the community call on Wednesday and metastudy on friday for instance.  Do I have the wrong calendar linked (it doesn't have the ambassadors meeting on it for instance).",
        "user": "U010HTBUHS9",
        "ts": "1587409433.009800",
        "team": "TUU48M0T1",
        "user_team": "TUU48M0T1",
        "source_team": "TUU48M0T1",
        "user_profile": {
            "avatar_hash": "e7bdbebff0d9",
            "image_72": "https:\/\/avatars.slack-edge.com\/2020-03-22\/1017951251813_e7bdbebff0d9ad1e8f12_72.jpg",
            "first_name": "",
            "real_name": "Adam Arabian",
            "display_name": "Adam Arabian",
            "team": "TUU48M0T1",
            "name": "adam.arabian",
            "is_restricted": false,
            "is_ultra_restricted": false
        },
        "blocks": [
            {
                "type": "rich_text",
                "block_id": "QgFS",
                "elements": [
                    {
                        "type": "rich_text_section",
                        "elements": [
                            {
                                "type": "text",
                                "text": "Should our meetings be the same as the ambassadors meeting or is this a different channel?  Also oddly my calendar link from google (OpenCovid19 Initiative) does not seem to have most of the JOGL meetings - it only has the community call on Wednesday and metastudy on friday for instance.  Do I have the wrong calendar linked (it doesn't have the ambassadors meeting on it for instance)."
                            }
                        ]
                    }
                ]
            }
        ],
        "thread_ts": "1587409433.009800",
        "reply_count": 3,
        "reply_users_count": 2,
        "latest_reply": "1587409763.010700",
        "reply_users": [
            "UV87UQ37A",
            "U010HTBUHS9"
        ],
        "replies": [
            {
                "user": "UV87UQ37A",
                "ts": "1587409495.009900"
            },
            {
                "user": "U010HTBUHS9",
                "ts": "1587409510.010100"
            },
            {
                "user": "UV87UQ37A",
                "ts": "1587409763.010700"
            }
        ],
        "subscribed": false
    },
    {
        "client_msg_id": "e9a4a78a-3084-49d5-ab99-9313c85b8ce2",
        "type": "message",
        "text": "I think it should be its own thing. and the calendar changed on us at some point -- they are using a different one now",
        "user": "UV87UQ37A",
        "ts": "1587409495.009900",
        "team": "TUU48M0T1",
        "user_team": "TUU48M0T1",
        "source_team": "TUU48M0T1",
        "user_profile": {
            "avatar_hash": "g7c78d2f0258",
            "image_72": "https:\/\/secure.gravatar.com\/avatar\/7c78d2f0258f7bdf78a86301cfd6b712.jpg?s=72&d=https%3A%2F%2Fa.slack-edge.com%2Fdf10d%2Fimg%2Favatars%2Fava_0014-72.png",
            "first_name": "Victoria",
            "real_name": "Victoria Costa",
            "display_name": "Victoria Costa",
            "team": "TUU48M0T1",
            "name": "victorycoast",
            "is_restricted": false,
            "is_ultra_restricted": false
        },
        "blocks": [
            {
                "type": "rich_text",
                "block_id": "UA+T",
                "elements": [
                    {
                        "type": "rich_text_section",
                        "elements": [
                            {
                                "type": "text",
                                "text": "I think it should be its own thing. and the calendar changed on us at some point -- they are using a different one now"
                            }
                        ]
                    }
                ]
            }
        ],
        "thread_ts": "1587409433.009800",
        "parent_user_id": "U010HTBUHS9",
        "reactions": [
            {
                "name": "+1",
                "users": [
                    "UV9V03C8Y"
                ],
                "count": 1
            }
        ]
    },
    {
        "client_msg_id": "77d12d15-ab27-4d56-aaba-b8cc297d5223",
        "type": "message",
        "text": "Oh dear... any idea how to find the new one?",
        "user": "U010HTBUHS9",
        "ts": "1587409510.010100",
        "team": "TUU48M0T1",
        "user_team": "TUU48M0T1",
        "source_team": "TUU48M0T1",
        "user_profile": {
            "avatar_hash": "e7bdbebff0d9",
            "image_72": "https:\/\/avatars.slack-edge.com\/2020-03-22\/1017951251813_e7bdbebff0d9ad1e8f12_72.jpg",
            "first_name": "",
            "real_name": "Adam Arabian",
            "display_name": "Adam Arabian",
            "team": "TUU48M0T1",
            "name": "adam.arabian",
            "is_restricted": false,
            "is_ultra_restricted": false
        },
        "blocks": [
            {
                "type": "rich_text",
                "block_id": "JuW",
                "elements": [
                    {
                        "type": "rich_text_section",
                        "elements": [
                            {
                                "type": "text",
                                "text": "Oh dear... any idea how to find the new one?"
                            }
                        ]
                    }
                ]
            }
        ],
        "thread_ts": "1587409433.009800",
        "parent_user_id": "U010HTBUHS9"
    },
    {
        "client_msg_id": "a3273624-bf8c-4a6a-bbf5-3659c372e9b8",
        "type": "message",
        "text": "I think this sounds good -- let's just make an additional consideration that the current funded projects are heavy on the bio engineering",
        "user": "UV87UQ37A",
        "ts": "1587409543.010300",
        "team": "TUU48M0T1",
        "user_team": "TUU48M0T1",
        "source_team": "TUU48M0T1",
        "user_profile": {
            "avatar_hash": "g7c78d2f0258",
            "image_72": "https:\/\/secure.gravatar.com\/avatar\/7c78d2f0258f7bdf78a86301cfd6b712.jpg?s=72&d=https%3A%2F%2Fa.slack-edge.com%2Fdf10d%2Fimg%2Favatars%2Fava_0014-72.png",
            "first_name": "Victoria",
            "real_name": "Victoria Costa",
            "display_name": "Victoria Costa",
            "team": "TUU48M0T1",
            "name": "victorycoast",
            "is_restricted": false,
            "is_ultra_restricted": false
        },
        "blocks": [
            {
                "type": "rich_text",
                "block_id": "OVmez",
                "elements": [
                    {
                        "type": "rich_text_section",
                        "elements": [
                            {
                                "type": "text",
                                "text": "I think this sounds good -- let's just make an additional consideration that the current funded projects are heavy on the bio engineering"
                            }
                        ]
                    }
                ]
            }
        ],
        "thread_ts": "1587409309.008500",
        "parent_user_id": "U010HTBUHS9"
    },
    {
        "client_msg_id": "71f48015-bfd2-4adb-85a6-f32d4d852d90",
        "type": "message",
        "text": "we should also be heavy on bio engineering programming :wink: but be more broadly relevant so that we can be inclusive and see where the gaps are and make initiatives to fill them. I think as projects finalize and look to deploy, this will be particularly relevant",
        "user": "UV87UQ37A",
        "ts": "1587409707.010500",
        "team": "TUU48M0T1",
        "user_team": "TUU48M0T1",
        "source_team": "TUU48M0T1",
        "user_profile": {
            "avatar_hash": "g7c78d2f0258",
            "image_72": "https:\/\/secure.gravatar.com\/avatar\/7c78d2f0258f7bdf78a86301cfd6b712.jpg?s=72&d=https%3A%2F%2Fa.slack-edge.com%2Fdf10d%2Fimg%2Favatars%2Fava_0014-72.png",
            "first_name": "Victoria",
            "real_name": "Victoria Costa",
            "display_name": "Victoria Costa",
            "team": "TUU48M0T1",
            "name": "victorycoast",
            "is_restricted": false,
            "is_ultra_restricted": false
        },
        "blocks": [
            {
                "type": "rich_text",
                "block_id": "857",
                "elements": [
                    {
                        "type": "rich_text_section",
                        "elements": [
                            {
                                "type": "text",
                                "text": "we should also be heavy on bio engineering programming "
                            },
                            {
                                "type": "emoji",
                                "name": "wink"
                            },
                            {
                                "type": "text",
                                "text": " but be more broadly relevant so that we can be inclusive and see where the gaps are and make initiatives to fill them. I think as projects finalize and look to deploy, this will be particularly relevant"
                            }
                        ]
                    }
                ]
            }
        ],
        "thread_ts": "1587409309.008500",
        "parent_user_id": "U010HTBUHS9"
    },
    {
        "client_msg_id": "685238ea-9adb-4487-b00f-db7ac948f87b",
        "type": "message",
        "text": "<https:\/\/calendar.google.com\/calendar\/b\/1\/r?cid=c2xpZmZxNmUwN2lpcHVoMHI5cW1nMjhtMWdAZ3JvdXAuY2FsZW5kYXIuZ29vZ2xlLmNvbQ>",
        "user": "UV87UQ37A",
        "ts": "1587409763.010700",
        "team": "TUU48M0T1",
        "user_team": "TUU48M0T1",
        "source_team": "TUU48M0T1",
        "user_profile": {
            "avatar_hash": "g7c78d2f0258",
            "image_72": "https:\/\/secure.gravatar.com\/avatar\/7c78d2f0258f7bdf78a86301cfd6b712.jpg?s=72&d=https%3A%2F%2Fa.slack-edge.com%2Fdf10d%2Fimg%2Favatars%2Fava_0014-72.png",
            "first_name": "Victoria",
            "real_name": "Victoria Costa",
            "display_name": "Victoria Costa",
            "team": "TUU48M0T1",
            "name": "victorycoast",
            "is_restricted": false,
            "is_ultra_restricted": false
        },
        "attachments": [
            {
                "title": "Google Calendar",
                "title_link": "https:\/\/calendar.google.com\/calendar\/b\/1\/r?cid=c2xpZmZxNmUwN2lpcHVoMHI5cW1nMjhtMWdAZ3JvdXAuY2FsZW5kYXIuZ29vZ2xlLmNvbQ",
                "text": "With Google's free online calendar, it’s easy to keep track of life’s important events all in one place.",
                "fallback": "Google Calendar",
                "from_url": "https:\/\/calendar.google.com\/calendar\/b\/1\/r?cid=c2xpZmZxNmUwN2lpcHVoMHI5cW1nMjhtMWdAZ3JvdXAuY2FsZW5kYXIuZ29vZ2xlLmNvbQ",
                "service_icon": "https:\/\/accounts.google.com\/favicon.ico",
                "service_name": "accounts.google.com",
                "id": 1,
                "original_url": "https:\/\/calendar.google.com\/calendar\/b\/1\/r?cid=c2xpZmZxNmUwN2lpcHVoMHI5cW1nMjhtMWdAZ3JvdXAuY2FsZW5kYXIuZ29vZ2xlLmNvbQ"
            }
        ],
        "blocks": [
            {
                "type": "rich_text",
                "block_id": "Ei7",
                "elements": [
                    {
                        "type": "rich_text_section",
                        "elements": [
                            {
                                "type": "link",
                                "url": "https:\/\/calendar.google.com\/calendar\/b\/1\/r?cid=c2xpZmZxNmUwN2lpcHVoMHI5cW1nMjhtMWdAZ3JvdXAuY2FsZW5kYXIuZ29vZ2xlLmNvbQ"
                            }
                        ]
                    }
                ]
            }
        ],
        "thread_ts": "1587409433.009800",
        "parent_user_id": "U010HTBUHS9"
    },
    {
        "type": "message",
        "text": "Please find notes of our improvised meeting in <https:\/\/docs.google.com\/document\/d\/1l3Y6Mu7Sxu1SWsqVrFMOB-oBvak95DJYxImfJQER538\/edit#heading=h.1822jk8isiof|this governance minutes> under the section \"20, April - Post Ninth Governance Call (7PM UTC)\"",
        "files": [
            {
                "id": "F01243K9PBP",
                "created": 1587390543,
                "timestamp": 1587390543,
                "name": "Governance Meetings",
                "title": "Governance Meetings",
                "mimetype": "application\/vnd.google-apps.document",
                "filetype": "gdoc",
                "pretty_type": "GSuite Document",
                "user": "UV9V03C8Y",
                "editable": false,
                "size": 3200,
                "mode": "external",
                "is_external": true,
                "external_type": "gdrive",
                "is_public": true,
                "public_url_shared": false,
                "display_as_bot": false,
                "username": "",
                "url_private": "https:\/\/docs.google.com\/document\/d\/1l3Y6Mu7Sxu1SWsqVrFMOB-oBvak95DJYxImfJQER538\/edit#heading=h.qhf4bph2ejti",
                "thumb_64": "https:\/\/files.slack.com\/files-tmb\/TUU48M0T1-F01243K9PBP-c9bd8ebab6\/governance_meetings_64.png?t=xoxe-980144714919-1133254701825-1120841107731-daf595b5a7d6c9028b0b02a925032e36",
                "thumb_80": "https:\/\/files.slack.com\/files-tmb\/TUU48M0T1-F01243K9PBP-c9bd8ebab6\/governance_meetings_80.png?t=xoxe-980144714919-1133254701825-1120841107731-daf595b5a7d6c9028b0b02a925032e36",
                "thumb_360": "https:\/\/files.slack.com\/files-tmb\/TUU48M0T1-F01243K9PBP-c9bd8ebab6\/governance_meetings_360.png?t=xoxe-980144714919-1133254701825-1120841107731-daf595b5a7d6c9028b0b02a925032e36",
                "thumb_360_w": 255,
                "thumb_360_h": 360,
                "thumb_480": "https:\/\/files.slack.com\/files-tmb\/TUU48M0T1-F01243K9PBP-c9bd8ebab6\/governance_meetings_480.png?t=xoxe-980144714919-1133254701825-1120841107731-daf595b5a7d6c9028b0b02a925032e36",
                "thumb_480_w": 340,
                "thumb_480_h": 480,
                "thumb_160": "https:\/\/files.slack.com\/files-tmb\/TUU48M0T1-F01243K9PBP-c9bd8ebab6\/governance_meetings_160.png?t=xoxe-980144714919-1133254701825-1120841107731-daf595b5a7d6c9028b0b02a925032e36",
                "thumb_720": "https:\/\/files.slack.com\/files-tmb\/TUU48M0T1-F01243K9PBP-c9bd8ebab6\/governance_meetings_720.png?t=xoxe-980144714919-1133254701825-1120841107731-daf595b5a7d6c9028b0b02a925032e36",
                "thumb_720_w": 509,
                "thumb_720_h": 720,
                "thumb_800": "https:\/\/files.slack.com\/files-tmb\/TUU48M0T1-F01243K9PBP-c9bd8ebab6\/governance_meetings_800.png?t=xoxe-980144714919-1133254701825-1120841107731-daf595b5a7d6c9028b0b02a925032e36",
                "thumb_800_w": 800,
                "thumb_800_h": 1131,
                "thumb_960": "https:\/\/files.slack.com\/files-tmb\/TUU48M0T1-F01243K9PBP-c9bd8ebab6\/governance_meetings_960.png?t=xoxe-980144714919-1133254701825-1120841107731-daf595b5a7d6c9028b0b02a925032e36",
                "thumb_960_w": 679,
                "thumb_960_h": 960,
                "thumb_1024": "https:\/\/files.slack.com\/files-tmb\/TUU48M0T1-F01243K9PBP-c9bd8ebab6\/governance_meetings_1024.png?t=xoxe-980144714919-1133254701825-1120841107731-daf595b5a7d6c9028b0b02a925032e36",
                "thumb_1024_w": 724,
                "thumb_1024_h": 1024,
                "image_exif_rotation": 1,
                "original_w": 800,
                "original_h": 1131,
                "thumb_tiny": "AwAwACHSJpME\/wAVKVB60cDt+lABg\/3jSijNFABRRRQA1uOnWky1ObpTRQAoLd8U6m5pQaAFooooAQ9KZj6\/lTyPwox7mgBAp\/yKUA+tLRQAUUUUAf\/Z",
                "permalink": "https:\/\/open-covid19.slack.com\/files\/UV9V03C8Y\/F01243K9PBP\/governance_meetings",
                "is_starred": false,
                "external_id": "1l3Y6Mu7Sxu1SWsqVrFMOB-oBvak95DJYxImfJQER538",
                "external_url": "https:\/\/docs.google.com\/document\/d\/1l3Y6Mu7Sxu1SWsqVrFMOB-oBvak95DJYxImfJQER538\/edit#heading=h.qhf4bph2ejti",
                "has_rich_preview": true
            }
        ],
        "upload": false,
        "blocks": [
            {
                "type": "rich_text",
                "block_id": "ZPfzL",
                "elements": [
                    {
                        "type": "rich_text_section",
                        "elements": [
                            {
                                "type": "text",
                                "text": "Please find notes of our improvised meeting in "
                            },
                            {
                                "type": "link",
                                "url": "https:\/\/docs.google.com\/document\/d\/1l3Y6Mu7Sxu1SWsqVrFMOB-oBvak95DJYxImfJQER538\/edit#heading=h.1822jk8isiof",
                                "text": "this governance minutes"
                            },
                            {
                                "type": "text",
                                "text": " under the section \"20, April - Post Ninth Governance Call (7PM UTC)\""
                            }
                        ]
                    }
                ]
            }
        ],
        "user": "UV9V03C8Y",
        "display_as_bot": false,
        "x_files": [
            "F01243K9PBP"
        ],
        "ts": "1587410532.011700",
        "client_msg_id": "383dd73c-eebf-49a2-b829-0d779b215b99"
    },
    {
        "client_msg_id": "c500a343-eba5-49c2-9d9f-585a5b3dd6d2",
        "type": "message",
        "text": "<@UV9V03C8Y>, should we organize future student engagement meetings here or perhaps open it up to the channel? We are hoping to have a call with Aravinth and another with Eugenia soon (and I have yet another possibly planned with RISE Learning Institute from Bellevue Colllege) but it seems like most everyone is here, as well...",
        "user": "U0101DKUALV",
        "ts": "1587415385.014300",
        "team": "TUU48M0T1",
        "user_team": "TUU48M0T1",
        "source_team": "TUU48M0T1",
        "user_profile": {
            "avatar_hash": "b0aee06ed3e5",
            "image_72": "https:\/\/avatars.slack-edge.com\/2020-04-22\/1072886325190_b0aee06ed3e501ebdf56_72.png",
            "first_name": "",
            "real_name": "Pauline Chane",
            "display_name": "Pauline Chane",
            "team": "TUU48M0T1",
            "name": "pauline.chane",
            "is_restricted": false,
            "is_ultra_restricted": false
        },
        "blocks": [
            {
                "type": "rich_text",
                "block_id": "DpJo3",
                "elements": [
                    {
                        "type": "rich_text_section",
                        "elements": [
                            {
                                "type": "user",
                                "user_id": "UV9V03C8Y"
                            },
                            {
                                "type": "text",
                                "text": ", should we organize future student engagement meetings here or perhaps open it up to the channel? We are hoping to have a call with Aravinth and another with Eugenia soon (and I have yet another possibly planned with RISE Learning Institute from Bellevue Colllege) but it seems like most everyone is here, as well..."
                            }
                        ]
                    }
                ]
            }
        ],
        "thread_ts": "1587415385.014300",
        "reply_count": 6,
        "reply_users_count": 5,
        "latest_reply": "1587473923.015900",
        "reply_users": [
            "UV87UQ37A",
            "U0101DKUALV",
            "U011B6VLM2A",
            "UV9V03C8Y",
            "U010B412MF1"
        ],
        "replies": [
            {
                "user": "UV87UQ37A",
                "ts": "1587419804.014500"
            },
            {
                "user": "U0101DKUALV",
                "ts": "1587419874.014700"
            },
            {
                "user": "UV87UQ37A",
                "ts": "1587419943.015000"
            },
            {
                "user": "U011B6VLM2A",
                "ts": "1587460137.015400"
            },
            {
                "user": "UV9V03C8Y",
                "ts": "1587460872.015600"
            },
            {
                "user": "U010B412MF1",
                "ts": "1587473923.015900"
            }
        ],
        "subscribed": false
    },
    {
        "client_msg_id": "eab7e0a0-77d9-411a-a1d6-03ddbda17913",
        "type": "message",
        "text": "I am not speaking for Camille or the group, but I think it's good to keep them separate. we have specific goals here to empower the community, and I think that channel has the specific goal to get students involved. I imagine there will be a lot of cross pollination, and I definitely feel like you should invite us to those meetings and vice versa so as to take advantage of each other's work and resources, and so we don't work across purposes.",
        "user": "UV87UQ37A",
        "ts": "1587419804.014500",
        "team": "TUU48M0T1",
        "user_team": "TUU48M0T1",
        "source_team": "TUU48M0T1",
        "user_profile": {
            "avatar_hash": "g7c78d2f0258",
            "image_72": "https:\/\/secure.gravatar.com\/avatar\/7c78d2f0258f7bdf78a86301cfd6b712.jpg?s=72&d=https%3A%2F%2Fa.slack-edge.com%2Fdf10d%2Fimg%2Favatars%2Fava_0014-72.png",
            "first_name": "Victoria",
            "real_name": "Victoria Costa",
            "display_name": "Victoria Costa",
            "team": "TUU48M0T1",
            "name": "victorycoast",
            "is_restricted": false,
            "is_ultra_restricted": false
        },
        "blocks": [
            {
                "type": "rich_text",
                "block_id": "1VY",
                "elements": [
                    {
                        "type": "rich_text_section",
                        "elements": [
                            {
                                "type": "text",
                                "text": "I am not speaking for Camille or the group, but I think it's good to keep them separate. we have specific goals here to empower the community, and I think that channel has the specific goal to get students involved. I imagine there will be a lot of cross pollination, and I definitely feel like you should invite us to those meetings and vice versa so as to take advantage of each other's work and resources, and so we don't work across purposes."
                            }
                        ]
                    }
                ]
            }
        ],
        "thread_ts": "1587415385.014300",
        "parent_user_id": "U0101DKUALV"
    },
    {
        "client_msg_id": "a8beccf5-a069-4d38-a2a5-ff8e122a15b1",
        "type": "message",
        "text": "Got it, just want to make sure :)))",
        "user": "U0101DKUALV",
        "ts": "1587419874.014700",
        "team": "TUU48M0T1",
        "user_team": "TUU48M0T1",
        "source_team": "TUU48M0T1",
        "user_profile": {
            "avatar_hash": "b0aee06ed3e5",
            "image_72": "https:\/\/avatars.slack-edge.com\/2020-04-22\/1072886325190_b0aee06ed3e501ebdf56_72.png",
            "first_name": "",
            "real_name": "Pauline Chane",
            "display_name": "Pauline Chane",
            "team": "TUU48M0T1",
            "name": "pauline.chane",
            "is_restricted": false,
            "is_ultra_restricted": false
        },
        "blocks": [
            {
                "type": "rich_text",
                "block_id": "K0lc",
                "elements": [
                    {
                        "type": "rich_text_section",
                        "elements": [
                            {
                                "type": "text",
                                "text": "Got it, just want to make sure :)))"
                            }
                        ]
                    }
                ]
            }
        ],
        "thread_ts": "1587415385.014300",
        "parent_user_id": "U0101DKUALV"
    },
    {
        "client_msg_id": "69eb2dc0-b018-4bee-8130-3d773857bdcb",
        "type": "message",
        "text": "the rapid movement in that channel is inspiring! looking forward to seeing it flourish",
        "user": "UV87UQ37A",
        "ts": "1587419943.015000",
        "team": "TUU48M0T1",
        "user_team": "TUU48M0T1",
        "source_team": "TUU48M0T1",
        "user_profile": {
            "avatar_hash": "g7c78d2f0258",
            "image_72": "https:\/\/secure.gravatar.com\/avatar\/7c78d2f0258f7bdf78a86301cfd6b712.jpg?s=72&d=https%3A%2F%2Fa.slack-edge.com%2Fdf10d%2Fimg%2Favatars%2Fava_0014-72.png",
            "first_name": "Victoria",
            "real_name": "Victoria Costa",
            "display_name": "Victoria Costa",
            "team": "TUU48M0T1",
            "name": "victorycoast",
            "is_restricted": false,
            "is_ultra_restricted": false
        },
        "blocks": [
            {
                "type": "rich_text",
                "block_id": "VRh1",
                "elements": [
                    {
                        "type": "rich_text_section",
                        "elements": [
                            {
                                "type": "text",
                                "text": "the rapid movement in that channel is inspiring! looking forward to seeing it flourish"
                            }
                        ]
                    }
                ]
            }
        ],
        "thread_ts": "1587415385.014300",
        "parent_user_id": "U0101DKUALV",
        "reactions": [
            {
                "name": "heart",
                "users": [
                    "U0101DKUALV"
                ],
                "count": 1
            }
        ]
    }
]