[
    {
        "client_msg_id": "a82c818f-dced-4f5b-b346-3f686ddb479a",
        "type": "message",
        "text": "<https:\/\/docs.google.com\/document\/d\/1L4qW9OtJ09hbvqDmOgxLRL_K4Mgnj-8bN4Ouso7d724\/edit?usp=sharing|https:\/\/docs.google.com\/document\/d\/1L4qW9OtJ09hbvqDmOgxLRL_K4Mgnj-8bN4Ouso7d724\/edit?usp=sharing>",
        "user": "U010566NJHG",
        "ts": "1585307300.044700",
        "team": "TUU48M0T1",
        "user_team": "TUU48M0T1",
        "source_team": "TUU48M0T1",
        "user_profile": {
            "avatar_hash": "103225790dbb",
            "image_72": "https:\/\/avatars.slack-edge.com\/2020-03-23\/1018037453952_103225790dbb62abe3e8_72.jpg",
            "first_name": "Avi",
            "real_name": "Avi Khalil",
            "display_name": "Avi",
            "team": "TUU48M0T1",
            "name": "kavb",
            "is_restricted": false,
            "is_ultra_restricted": false
        },
        "blocks": [
            {
                "type": "rich_text",
                "block_id": "8i3",
                "elements": [
                    {
                        "type": "rich_text_section",
                        "elements": [
                            {
                                "type": "link",
                                "url": "https:\/\/docs.google.com\/document\/d\/1L4qW9OtJ09hbvqDmOgxLRL_K4Mgnj-8bN4Ouso7d724\/edit?usp=sharing",
                                "text": "https:\/\/docs.google.com\/document\/d\/1L4qW9OtJ09hbvqDmOgxLRL_K4Mgnj-8bN4Ouso7d724\/edit?usp=sharing"
                            }
                        ]
                    }
                ]
            }
        ],
        "thread_ts": "1585252540.044500",
        "parent_user_id": "UV10KBUQG"
    }
]