[
    {
        "client_msg_id": "729d1cc1-5f82-4f42-82f7-78497ed2b96a",
        "type": "message",
        "text": "Me too! That’s impressive, congrats!",
        "user": "UV85V64SD",
        "ts": "1586762536.340300",
        "team": "TUU48M0T1",
        "user_team": "TUU48M0T1",
        "source_team": "TUU48M0T1",
        "user_profile": {
            "avatar_hash": "1e73a651bdfe",
            "image_72": "https:\/\/avatars.slack-edge.com\/2020-03-16\/1004297548853_1e73a651bdfef2c41501_72.jpg",
            "first_name": "Marc",
            "real_name": "Marc Santolini",
            "display_name": "Marc Santolini - JOGL CoFounder \/ CSO",
            "team": "TUU48M0T1",
            "name": "marc.santolini",
            "is_restricted": false,
            "is_ultra_restricted": false
        },
        "blocks": [
            {
                "type": "rich_text",
                "block_id": "PaiE",
                "elements": [
                    {
                        "type": "rich_text_section",
                        "elements": [
                            {
                                "type": "text",
                                "text": "Me too! That’s impressive, congrats!"
                            }
                        ]
                    }
                ]
            }
        ],
        "reactions": [
            {
                "name": "heart",
                "users": [
                    "U0119SR5LMT",
                    "UV0RRGB6H"
                ],
                "count": 2
            }
        ]
    },
    {
        "client_msg_id": "c5351e6c-514e-4384-ac1d-bc029bad7b74",
        "type": "message",
        "text": "Hi, Elliot and I just talking about the presentation we are about to give on the projects. Is there a zoom link :slightly_smiling_face:?",
        "user": "UV0RRGB6H",
        "ts": "1586768741.343100",
        "team": "TUU48M0T1",
        "user_team": "TUU48M0T1",
        "source_team": "TUU48M0T1",
        "user_profile": {
            "avatar_hash": "48d4ab64c90c",
            "image_72": "https:\/\/avatars.slack-edge.com\/2020-03-26\/1029789176912_48d4ab64c90c03f3af4a_72.jpg",
            "first_name": "",
            "real_name": "Chris LB Graham",
            "display_name": "",
            "team": "TUU48M0T1",
            "name": "chris.graham",
            "is_restricted": false,
            "is_ultra_restricted": false
        },
        "blocks": [
            {
                "type": "rich_text",
                "block_id": "VUYr",
                "elements": [
                    {
                        "type": "rich_text_section",
                        "elements": [
                            {
                                "type": "text",
                                "text": "Hi, Elliot and I just talking about the presentation we are about to give on the projects. Is there a zoom link "
                            },
                            {
                                "type": "emoji",
                                "name": "slightly_smiling_face"
                            },
                            {
                                "type": "text",
                                "text": "?"
                            }
                        ]
                    }
                ]
            }
        ]
    },
    {
        "client_msg_id": "2f86e447-19ee-4fda-b35b-38ad3c5172e2",
        "type": "message",
        "text": "we will post the presentation here",
        "user": "UV0RRGB6H",
        "ts": "1586768752.343300",
        "team": "TUU48M0T1",
        "user_team": "TUU48M0T1",
        "source_team": "TUU48M0T1",
        "user_profile": {
            "avatar_hash": "48d4ab64c90c",
            "image_72": "https:\/\/avatars.slack-edge.com\/2020-03-26\/1029789176912_48d4ab64c90c03f3af4a_72.jpg",
            "first_name": "",
            "real_name": "Chris LB Graham",
            "display_name": "",
            "team": "TUU48M0T1",
            "name": "chris.graham",
            "is_restricted": false,
            "is_ultra_restricted": false
        },
        "blocks": [
            {
                "type": "rich_text",
                "block_id": "mCo",
                "elements": [
                    {
                        "type": "rich_text_section",
                        "elements": [
                            {
                                "type": "text",
                                "text": "we will post the presentation here"
                            }
                        ]
                    }
                ]
            }
        ]
    },
    {
        "client_msg_id": "3677F843-1B3A-4929-8BE5-8A18EF16AAE7",
        "type": "message",
        "text": "<https:\/\/zoom.us\/j\/7804345815|https:\/\/zoom.us\/j\/7804345815>",
        "user": "UV02WET96",
        "ts": "1586768776.343500",
        "team": "TUU48M0T1",
        "user_team": "TUU48M0T1",
        "source_team": "TUU48M0T1",
        "user_profile": {
            "avatar_hash": "a99c74a194f8",
            "image_72": "https:\/\/avatars.slack-edge.com\/2020-03-07\/975708504851_a99c74a194f86715ca7d_72.png",
            "first_name": "Thomas",
            "real_name": "Thomas Landrain",
            "display_name": "Thomas Landrain - JOGL CoFounder \/ CEO",
            "team": "TUU48M0T1",
            "name": "thomas",
            "is_restricted": false,
            "is_ultra_restricted": false
        },
        "blocks": [
            {
                "type": "rich_text",
                "block_id": "qsP",
                "elements": [
                    {
                        "type": "rich_text_section",
                        "elements": [
                            {
                                "type": "link",
                                "url": "https:\/\/zoom.us\/j\/7804345815",
                                "text": "https:\/\/zoom.us\/j\/7804345815"
                            }
                        ]
                    }
                ]
            }
        ]
    },
    {
        "type": "message",
        "text": "",
        "files": [
            {
                "id": "F011QAT75TP",
                "created": 1586769094,
                "timestamp": 1586769094,
                "name": "Wave 1 Analysis.pptx",
                "title": "Wave 1 Analysis.pptx",
                "mimetype": "application\/vnd.openxmlformats-officedocument.presentationml.presentation",
                "filetype": "pptx",
                "pretty_type": "PowerPoint Presentation",
                "user": "U0119SR5LMT",
                "editable": false,
                "size": 9432679,
                "mode": "hosted",
                "is_external": false,
                "external_type": "",
                "is_public": true,
                "public_url_shared": false,
                "display_as_bot": false,
                "username": "",
                "url_private": "https:\/\/files.slack.com\/files-pri\/TUU48M0T1-F011QAT75TP\/wave_1_analysis.pptx?t=xoxe-980144714919-1106606678066-1105227127893-6f722bb664235052954ad46852628b64",
                "url_private_download": "https:\/\/files.slack.com\/files-pri\/TUU48M0T1-F011QAT75TP\/download\/wave_1_analysis.pptx?t=xoxe-980144714919-1106606678066-1105227127893-6f722bb664235052954ad46852628b64",
                "converted_pdf": "https:\/\/files.slack.com\/files-tmb\/TUU48M0T1-F011QAT75TP-7798d6b898\/wave_1_analysis_converted.pdf?t=xoxe-980144714919-1106606678066-1105227127893-6f722bb664235052954ad46852628b64",
                "thumb_pdf": "https:\/\/files.slack.com\/files-tmb\/TUU48M0T1-F011QAT75TP-7798d6b898\/wave_1_analysis_thumb_pdf.png?t=xoxe-980144714919-1106606678066-1105227127893-6f722bb664235052954ad46852628b64",
                "thumb_pdf_w": 1467,
                "thumb_pdf_h": 825,
                "permalink": "https:\/\/open-covid19.slack.com\/files\/U0119SR5LMT\/F011QAT75TP\/wave_1_analysis.pptx",
                "permalink_public": "https:\/\/slack-files.com\/TUU48M0T1-F011QAT75TP-2a3d0430e8",
                "is_starred": false,
                "has_rich_preview": false
            }
        ],
        "upload": true,
        "user": "U0119SR5LMT",
        "display_as_bot": false,
        "ts": "1586769207.343600",
        "client_msg_id": "c4a106e5-19c1-42a6-8259-ec7653f3780d"
    },
    {
        "client_msg_id": "151da572-0153-4151-9239-fb90f7f5ada4",
        "type": "message",
        "text": "I am having some connection issues, but I heard PCA",
        "user": "UV0RRGB6H",
        "ts": "1586771530.344500",
        "team": "TUU48M0T1",
        "user_team": "TUU48M0T1",
        "source_team": "TUU48M0T1",
        "user_profile": {
            "avatar_hash": "48d4ab64c90c",
            "image_72": "https:\/\/avatars.slack-edge.com\/2020-03-26\/1029789176912_48d4ab64c90c03f3af4a_72.jpg",
            "first_name": "",
            "real_name": "Chris LB Graham",
            "display_name": "",
            "team": "TUU48M0T1",
            "name": "chris.graham",
            "is_restricted": false,
            "is_ultra_restricted": false
        },
        "blocks": [
            {
                "type": "rich_text",
                "block_id": "shA",
                "elements": [
                    {
                        "type": "rich_text_section",
                        "elements": [
                            {
                                "type": "text",
                                "text": "I am having some connection issues, but I heard PCA"
                            }
                        ]
                    }
                ]
            }
        ]
    },
    {
        "client_msg_id": "5513fe21-072f-4d7a-90d6-2b76f7031cd2",
        "type": "message",
        "text": "Im ready.",
        "user": "UV0RRGB6H",
        "ts": "1586771530.344600",
        "team": "TUU48M0T1",
        "user_team": "TUU48M0T1",
        "source_team": "TUU48M0T1",
        "user_profile": {
            "avatar_hash": "48d4ab64c90c",
            "image_72": "https:\/\/avatars.slack-edge.com\/2020-03-26\/1029789176912_48d4ab64c90c03f3af4a_72.jpg",
            "first_name": "",
            "real_name": "Chris LB Graham",
            "display_name": "",
            "team": "TUU48M0T1",
            "name": "chris.graham",
            "is_restricted": false,
            "is_ultra_restricted": false
        },
        "blocks": [
            {
                "type": "rich_text",
                "block_id": "HxkR",
                "elements": [
                    {
                        "type": "rich_text_section",
                        "elements": [
                            {
                                "type": "text",
                                "text": "Im ready."
                            }
                        ]
                    }
                ]
            }
        ]
    },
    {
        "client_msg_id": "fb28f854-2f62-41d1-9920-3a3261b0af97",
        "type": "message",
        "text": "<@UV0RRGB6H> <@U0119SR5LMT> do you know this? <https:\/\/docs.google.com\/spreadsheets\/u\/1\/d\/e\/2PACX-1vTYAfldxoIiO46VAWH1NlhrwFBn9mguqS2bh1spnLEu4AVVN1cj1vaEm6vOp5Z6UnaAbUwd8dslCXdM\/pubhtml?fbclid=IwAR3G7qJK3ED4qki_nhByL8bM9360TankvN2iPy9YwkU9D3sJHbTBT0ZNSrc&amp;urp=gmail_link>",
        "user": "UV85V64SD",
        "ts": "1586774557.344900",
        "team": "TUU48M0T1",
        "user_team": "TUU48M0T1",
        "source_team": "TUU48M0T1",
        "user_profile": {
            "avatar_hash": "1e73a651bdfe",
            "image_72": "https:\/\/avatars.slack-edge.com\/2020-03-16\/1004297548853_1e73a651bdfef2c41501_72.jpg",
            "first_name": "Marc",
            "real_name": "Marc Santolini",
            "display_name": "Marc Santolini - JOGL CoFounder \/ CSO",
            "team": "TUU48M0T1",
            "name": "marc.santolini",
            "is_restricted": false,
            "is_ultra_restricted": false
        },
        "blocks": [
            {
                "type": "rich_text",
                "block_id": "jTRT",
                "elements": [
                    {
                        "type": "rich_text_section",
                        "elements": [
                            {
                                "type": "user",
                                "user_id": "UV0RRGB6H"
                            },
                            {
                                "type": "text",
                                "text": " "
                            },
                            {
                                "type": "user",
                                "user_id": "U0119SR5LMT"
                            },
                            {
                                "type": "text",
                                "text": " do you know this? "
                            },
                            {
                                "type": "link",
                                "url": "https:\/\/docs.google.com\/spreadsheets\/u\/1\/d\/e\/2PACX-1vTYAfldxoIiO46VAWH1NlhrwFBn9mguqS2bh1spnLEu4AVVN1cj1vaEm6vOp5Z6UnaAbUwd8dslCXdM\/pubhtml?fbclid=IwAR3G7qJK3ED4qki_nhByL8bM9360TankvN2iPy9YwkU9D3sJHbTBT0ZNSrc&urp=gmail_link"
                            }
                        ]
                    }
                ]
            }
        ],
        "reactions": [
            {
                "name": "heart",
                "users": [
                    "U0119SR5LMT",
                    "U0103SR759U"
                ],
                "count": 2
            }
        ]
    },
    {
        "client_msg_id": "8bf20954-e5cb-4136-ac1b-701fc19db917",
        "type": "message",
        "text": "Yes! We circulated this at HE. Its so simple!",
        "user": "UV0RRGB6H",
        "ts": "1586775290.346600",
        "team": "TUU48M0T1",
        "user_team": "TUU48M0T1",
        "source_team": "TUU48M0T1",
        "user_profile": {
            "avatar_hash": "48d4ab64c90c",
            "image_72": "https:\/\/avatars.slack-edge.com\/2020-03-26\/1029789176912_48d4ab64c90c03f3af4a_72.jpg",
            "first_name": "",
            "real_name": "Chris LB Graham",
            "display_name": "",
            "team": "TUU48M0T1",
            "name": "chris.graham",
            "is_restricted": false,
            "is_ultra_restricted": false
        },
        "blocks": [
            {
                "type": "rich_text",
                "block_id": "lzCzU",
                "elements": [
                    {
                        "type": "rich_text_section",
                        "elements": [
                            {
                                "type": "text",
                                "text": "Yes! We circulated this at HE. Its so simple!"
                            }
                        ]
                    }
                ]
            }
        ]
    },
    {
        "client_msg_id": "5dd39039-c0c8-461d-82ec-873e4c49b172",
        "type": "message",
        "text": "(and therefore good)",
        "user": "UV0RRGB6H",
        "ts": "1586775296.346800",
        "team": "TUU48M0T1",
        "user_team": "TUU48M0T1",
        "source_team": "TUU48M0T1",
        "user_profile": {
            "avatar_hash": "48d4ab64c90c",
            "image_72": "https:\/\/avatars.slack-edge.com\/2020-03-26\/1029789176912_48d4ab64c90c03f3af4a_72.jpg",
            "first_name": "",
            "real_name": "Chris LB Graham",
            "display_name": "",
            "team": "TUU48M0T1",
            "name": "chris.graham",
            "is_restricted": false,
            "is_ultra_restricted": false
        },
        "blocks": [
            {
                "type": "rich_text",
                "block_id": "aBdK",
                "elements": [
                    {
                        "type": "rich_text_section",
                        "elements": [
                            {
                                "type": "text",
                                "text": "(and therefore good)"
                            }
                        ]
                    }
                ]
            }
        ]
    },
    {
        "client_msg_id": "756ac4a8-a8cc-4e89-b5ef-014d854a2669",
        "type": "message",
        "text": "The colour coding makes it friendlier- we will put that in this afternoons stuff and for publishing",
        "user": "UV0RRGB6H",
        "ts": "1586775379.347500",
        "team": "TUU48M0T1",
        "user_team": "TUU48M0T1",
        "source_team": "TUU48M0T1",
        "user_profile": {
            "avatar_hash": "48d4ab64c90c",
            "image_72": "https:\/\/avatars.slack-edge.com\/2020-03-26\/1029789176912_48d4ab64c90c03f3af4a_72.jpg",
            "first_name": "",
            "real_name": "Chris LB Graham",
            "display_name": "",
            "team": "TUU48M0T1",
            "name": "chris.graham",
            "is_restricted": false,
            "is_ultra_restricted": false
        },
        "blocks": [
            {
                "type": "rich_text",
                "block_id": "g2Q",
                "elements": [
                    {
                        "type": "rich_text_section",
                        "elements": [
                            {
                                "type": "text",
                                "text": "The colour coding makes it friendlier- we will put that in this afternoons stuff and for publishing"
                            }
                        ]
                    }
                ]
            }
        ],
        "reactions": [
            {
                "name": "+1",
                "users": [
                    "U0119SR5LMT"
                ],
                "count": 1
            }
        ]
    },
    {
        "client_msg_id": "4e59c1d8-d0e5-449e-b7df-bd3c9d9d7edc",
        "type": "message",
        "text": "we will have to delay the meeting unfortunately- had a quick review and a lot of data got mixed up. Will post the summary here as soon as possible- sorry for this.",
        "user": "UV0RRGB6H",
        "ts": "1586788358.349700",
        "team": "TUU48M0T1",
        "user_team": "TUU48M0T1",
        "source_team": "TUU48M0T1",
        "user_profile": {
            "avatar_hash": "48d4ab64c90c",
            "image_72": "https:\/\/avatars.slack-edge.com\/2020-03-26\/1029789176912_48d4ab64c90c03f3af4a_72.jpg",
            "first_name": "",
            "real_name": "Chris LB Graham",
            "display_name": "",
            "team": "TUU48M0T1",
            "name": "chris.graham",
            "is_restricted": false,
            "is_ultra_restricted": false
        },
        "blocks": [
            {
                "type": "rich_text",
                "block_id": "cH=FF",
                "elements": [
                    {
                        "type": "rich_text_section",
                        "elements": [
                            {
                                "type": "text",
                                "text": "we will have to delay the meeting unfortunately- had a quick review and a lot of data got mixed up. Will post the summary here as soon as possible- sorry for this."
                            }
                        ]
                    }
                ]
            }
        ]
    },
    {
        "client_msg_id": "a61d0669-74f6-4a1c-8563-e5e10e15cb00",
        "type": "message",
        "text": "not catastrophic- just a few graphs that were needed arent right",
        "user": "UV0RRGB6H",
        "ts": "1586788391.350400",
        "team": "TUU48M0T1",
        "user_team": "TUU48M0T1",
        "source_team": "TUU48M0T1",
        "user_profile": {
            "avatar_hash": "48d4ab64c90c",
            "image_72": "https:\/\/avatars.slack-edge.com\/2020-03-26\/1029789176912_48d4ab64c90c03f3af4a_72.jpg",
            "first_name": "",
            "real_name": "Chris LB Graham",
            "display_name": "",
            "team": "TUU48M0T1",
            "name": "chris.graham",
            "is_restricted": false,
            "is_ultra_restricted": false
        },
        "blocks": [
            {
                "type": "rich_text",
                "block_id": "08GK",
                "elements": [
                    {
                        "type": "rich_text_section",
                        "elements": [
                            {
                                "type": "text",
                                "text": "not catastrophic- just a few graphs that were needed arent right"
                            }
                        ]
                    }
                ]
            }
        ]
    },
    {
        "client_msg_id": "80c336d0-1ab4-4d35-bde7-deb659bf2a8b",
        "type": "message",
        "text": "ok, can you give us a time?",
        "user": "UV02WET96",
        "ts": "1586788397.350600",
        "team": "TUU48M0T1",
        "user_team": "TUU48M0T1",
        "source_team": "TUU48M0T1",
        "user_profile": {
            "avatar_hash": "a99c74a194f8",
            "image_72": "https:\/\/avatars.slack-edge.com\/2020-03-07\/975708504851_a99c74a194f86715ca7d_72.png",
            "first_name": "Thomas",
            "real_name": "Thomas Landrain",
            "display_name": "Thomas Landrain - JOGL CoFounder \/ CEO",
            "team": "TUU48M0T1",
            "name": "thomas",
            "is_restricted": false,
            "is_ultra_restricted": false
        },
        "blocks": [
            {
                "type": "rich_text",
                "block_id": "PD5",
                "elements": [
                    {
                        "type": "rich_text_section",
                        "elements": [
                            {
                                "type": "text",
                                "text": "ok, can you give us a time?"
                            }
                        ]
                    }
                ]
            }
        ]
    },
    {
        "client_msg_id": "1cf6910e-623d-46b9-8736-e80b7ba49b48",
        "type": "message",
        "text": "Whenever suits you- I think to fix it will be an hour at least to make sure everything is good to send out.",
        "user": "UV0RRGB6H",
        "ts": "1586788445.351200",
        "team": "TUU48M0T1",
        "user_team": "TUU48M0T1",
        "source_team": "TUU48M0T1",
        "user_profile": {
            "avatar_hash": "48d4ab64c90c",
            "image_72": "https:\/\/avatars.slack-edge.com\/2020-03-26\/1029789176912_48d4ab64c90c03f3af4a_72.jpg",
            "first_name": "",
            "real_name": "Chris LB Graham",
            "display_name": "",
            "team": "TUU48M0T1",
            "name": "chris.graham",
            "is_restricted": false,
            "is_ultra_restricted": false
        },
        "blocks": [
            {
                "type": "rich_text",
                "block_id": "vQohj",
                "elements": [
                    {
                        "type": "rich_text_section",
                        "elements": [
                            {
                                "type": "text",
                                "text": "Whenever suits you- I think to fix it will be an hour at least to make sure everything is good to send out."
                            }
                        ]
                    }
                ]
            }
        ]
    },
    {
        "client_msg_id": "2dce1725-fff2-444e-b70f-e0f1f64fe5f5",
        "type": "message",
        "text": "ok",
        "user": "UV02WET96",
        "ts": "1586788624.351400",
        "team": "TUU48M0T1",
        "user_team": "TUU48M0T1",
        "source_team": "TUU48M0T1",
        "user_profile": {
            "avatar_hash": "a99c74a194f8",
            "image_72": "https:\/\/avatars.slack-edge.com\/2020-03-07\/975708504851_a99c74a194f86715ca7d_72.png",
            "first_name": "Thomas",
            "real_name": "Thomas Landrain",
            "display_name": "Thomas Landrain - JOGL CoFounder \/ CEO",
            "team": "TUU48M0T1",
            "name": "thomas",
            "is_restricted": false,
            "is_ultra_restricted": false
        },
        "blocks": [
            {
                "type": "rich_text",
                "block_id": "UyY\/",
                "elements": [
                    {
                        "type": "rich_text_section",
                        "elements": [
                            {
                                "type": "text",
                                "text": "ok"
                            }
                        ]
                    }
                ]
            }
        ]
    },
    {
        "client_msg_id": "c929ad54-911d-4dbe-899b-f4fee2d6bd2e",
        "type": "message",
        "text": "I’m moved our meeting at 7pm Paris time (5pm UTC)",
        "user": "UV02WET96",
        "ts": "1586788892.352000",
        "team": "TUU48M0T1",
        "user_team": "TUU48M0T1",
        "source_team": "TUU48M0T1",
        "user_profile": {
            "avatar_hash": "a99c74a194f8",
            "image_72": "https:\/\/avatars.slack-edge.com\/2020-03-07\/975708504851_a99c74a194f86715ca7d_72.png",
            "first_name": "Thomas",
            "real_name": "Thomas Landrain",
            "display_name": "Thomas Landrain - JOGL CoFounder \/ CEO",
            "team": "TUU48M0T1",
            "name": "thomas",
            "is_restricted": false,
            "is_ultra_restricted": false
        },
        "blocks": [
            {
                "type": "rich_text",
                "block_id": "TQ1iq",
                "elements": [
                    {
                        "type": "rich_text_section",
                        "elements": [
                            {
                                "type": "text",
                                "text": "I’m moved our meeting at 7pm Paris time (5pm UTC)"
                            }
                        ]
                    }
                ]
            }
        ]
    },
    {
        "client_msg_id": "d9ac351c-4ac8-4f07-abaa-1cb5b4dd768a",
        "type": "message",
        "text": "Thanks, itll be ready to publish too :slightly_smiling_face: Sorry about that. The data issue is sorted.",
        "user": "UV0RRGB6H",
        "ts": "1586789975.352800",
        "team": "TUU48M0T1",
        "user_team": "TUU48M0T1",
        "source_team": "TUU48M0T1",
        "user_profile": {
            "avatar_hash": "48d4ab64c90c",
            "image_72": "https:\/\/avatars.slack-edge.com\/2020-03-26\/1029789176912_48d4ab64c90c03f3af4a_72.jpg",
            "first_name": "",
            "real_name": "Chris LB Graham",
            "display_name": "",
            "team": "TUU48M0T1",
            "name": "chris.graham",
            "is_restricted": false,
            "is_ultra_restricted": false
        },
        "blocks": [
            {
                "type": "rich_text",
                "block_id": "Ew93Z",
                "elements": [
                    {
                        "type": "rich_text_section",
                        "elements": [
                            {
                                "type": "text",
                                "text": "Thanks, itll be ready to publish too "
                            },
                            {
                                "type": "emoji",
                                "name": "slightly_smiling_face"
                            },
                            {
                                "type": "text",
                                "text": " Sorry about that. The data issue is sorted."
                            }
                        ]
                    }
                ]
            }
        ]
    },
    {
        "client_msg_id": "261e339b-3cc8-4a14-9bdf-25af78fd3bfb",
        "type": "message",
        "text": "cool",
        "user": "UV02WET96",
        "ts": "1586793761.353000",
        "team": "TUU48M0T1",
        "user_team": "TUU48M0T1",
        "source_team": "TUU48M0T1",
        "user_profile": {
            "avatar_hash": "a99c74a194f8",
            "image_72": "https:\/\/avatars.slack-edge.com\/2020-03-07\/975708504851_a99c74a194f86715ca7d_72.png",
            "first_name": "Thomas",
            "real_name": "Thomas Landrain",
            "display_name": "Thomas Landrain - JOGL CoFounder \/ CEO",
            "team": "TUU48M0T1",
            "name": "thomas",
            "is_restricted": false,
            "is_ultra_restricted": false
        },
        "blocks": [
            {
                "type": "rich_text",
                "block_id": "EAhj0",
                "elements": [
                    {
                        "type": "rich_text_section",
                        "elements": [
                            {
                                "type": "text",
                                "text": "cool"
                            }
                        ]
                    }
                ]
            }
        ]
    },
    {
        "client_msg_id": "fb089044-4339-4a4e-b94d-e614a2fcdc10",
        "type": "message",
        "text": "For Elliot :  <https:\/\/zoom.us\/j\/7804345815>",
        "user": "UV0RRGB6H",
        "ts": "1586797176.353700",
        "team": "TUU48M0T1",
        "user_team": "TUU48M0T1",
        "source_team": "TUU48M0T1",
        "user_profile": {
            "avatar_hash": "48d4ab64c90c",
            "image_72": "https:\/\/avatars.slack-edge.com\/2020-03-26\/1029789176912_48d4ab64c90c03f3af4a_72.jpg",
            "first_name": "",
            "real_name": "Chris LB Graham",
            "display_name": "",
            "team": "TUU48M0T1",
            "name": "chris.graham",
            "is_restricted": false,
            "is_ultra_restricted": false
        },
        "blocks": [
            {
                "type": "rich_text",
                "block_id": "=A3",
                "elements": [
                    {
                        "type": "rich_text_section",
                        "elements": [
                            {
                                "type": "text",
                                "text": "For Elliot :  "
                            },
                            {
                                "type": "link",
                                "url": "https:\/\/zoom.us\/j\/7804345815"
                            }
                        ]
                    }
                ]
            }
        ],
        "reactions": [
            {
                "name": "heart",
                "users": [
                    "U0119SR5LMT"
                ],
                "count": 1
            }
        ]
    },
    {
        "client_msg_id": "71c6514a-37fb-4cc0-aa0b-b53cf219202b",
        "type": "message",
        "text": "Excited!",
        "user": "UV0RRGB6H",
        "ts": "1586797185.353900",
        "team": "TUU48M0T1",
        "user_team": "TUU48M0T1",
        "source_team": "TUU48M0T1",
        "user_profile": {
            "avatar_hash": "48d4ab64c90c",
            "image_72": "https:\/\/avatars.slack-edge.com\/2020-03-26\/1029789176912_48d4ab64c90c03f3af4a_72.jpg",
            "first_name": "",
            "real_name": "Chris LB Graham",
            "display_name": "",
            "team": "TUU48M0T1",
            "name": "chris.graham",
            "is_restricted": false,
            "is_ultra_restricted": false
        },
        "blocks": [
            {
                "type": "rich_text",
                "block_id": "zwot",
                "elements": [
                    {
                        "type": "rich_text_section",
                        "elements": [
                            {
                                "type": "text",
                                "text": "Excited!"
                            }
                        ]
                    }
                ]
            }
        ]
    },
    {
        "client_msg_id": "0f4dd7cc-569e-4c57-b6a1-58091bdbb9c6",
        "type": "message",
        "text": "<@UV0RRGB6H> I am not sure, but does the document above mean that Optimizing the NEB LAMP project is being funded but only for one lab?  <@UV02WET96> had told us we (Ellen and I) could each submit a separate budget for this proposal and that we could each be eligible for funding.  Thank you for your clarification.",
        "user": "UV10KBUQG",
        "ts": "1586797761.356300",
        "team": "TUU48M0T1",
        "user_team": "TUU48M0T1",
        "source_team": "TUU48M0T1",
        "user_profile": {
            "avatar_hash": "2deebbf6be3d",
            "image_72": "https:\/\/avatars.slack-edge.com\/2020-03-06\/976932190641_2deebbf6be3d17141d91_72.jpg",
            "first_name": "Sarah",
            "real_name": "Sarah Blossom Ware",
            "display_name": "Sarah Blossom Ware - BioBlaze Community Bio Lab",
            "team": "TUU48M0T1",
            "name": "ware.sarah",
            "is_restricted": false,
            "is_ultra_restricted": false
        },
        "blocks": [
            {
                "type": "rich_text",
                "block_id": "b3F9",
                "elements": [
                    {
                        "type": "rich_text_section",
                        "elements": [
                            {
                                "type": "user",
                                "user_id": "UV0RRGB6H"
                            },
                            {
                                "type": "text",
                                "text": " I am not sure, but does the document above mean that Optimizing the NEB LAMP project is being funded but only for one lab?  "
                            },
                            {
                                "type": "user",
                                "user_id": "UV02WET96"
                            },
                            {
                                "type": "text",
                                "text": " had told us we (Ellen and I) could each submit a separate budget for this proposal and that we could each be eligible for funding.  Thank you for your clarification."
                            }
                        ]
                    }
                ]
            }
        ]
    },
    {
        "client_msg_id": "53f94b2d-241d-45c6-a6f0-f25c6704bd4d",
        "type": "message",
        "text": "<@UV10KBUQG> no worries. This doc is there to help JOGL understand where to put the cut-off for funding :slightly_smiling_face:",
        "user": "UV02WET96",
        "ts": "1586797971.357400",
        "team": "TUU48M0T1",
        "user_team": "TUU48M0T1",
        "source_team": "TUU48M0T1",
        "user_profile": {
            "avatar_hash": "a99c74a194f8",
            "image_72": "https:\/\/avatars.slack-edge.com\/2020-03-07\/975708504851_a99c74a194f86715ca7d_72.png",
            "first_name": "Thomas",
            "real_name": "Thomas Landrain",
            "display_name": "Thomas Landrain - JOGL CoFounder \/ CEO",
            "team": "TUU48M0T1",
            "name": "thomas",
            "is_restricted": false,
            "is_ultra_restricted": false
        },
        "blocks": [
            {
                "type": "rich_text",
                "block_id": "NlhrB",
                "elements": [
                    {
                        "type": "rich_text_section",
                        "elements": [
                            {
                                "type": "user",
                                "user_id": "UV10KBUQG"
                            },
                            {
                                "type": "text",
                                "text": " no worries. This doc is there to help JOGL understand where to put the cut-off for funding "
                            },
                            {
                                "type": "emoji",
                                "name": "slightly_smiling_face"
                            }
                        ]
                    }
                ]
            }
        ]
    },
    {
        "client_msg_id": "f74c42a7-0c48-4aa0-a13d-647e457d9c6b",
        "type": "message",
        "text": "<@UV02WET96> Oh, ok.  It's not an official announcement?",
        "user": "UV10KBUQG",
        "ts": "1586798006.357900",
        "team": "TUU48M0T1",
        "user_team": "TUU48M0T1",
        "source_team": "TUU48M0T1",
        "user_profile": {
            "avatar_hash": "2deebbf6be3d",
            "image_72": "https:\/\/avatars.slack-edge.com\/2020-03-06\/976932190641_2deebbf6be3d17141d91_72.jpg",
            "first_name": "Sarah",
            "real_name": "Sarah Blossom Ware",
            "display_name": "Sarah Blossom Ware - BioBlaze Community Bio Lab",
            "team": "TUU48M0T1",
            "name": "ware.sarah",
            "is_restricted": false,
            "is_ultra_restricted": false
        },
        "blocks": [
            {
                "type": "rich_text",
                "block_id": "KRjL",
                "elements": [
                    {
                        "type": "rich_text_section",
                        "elements": [
                            {
                                "type": "user",
                                "user_id": "UV02WET96"
                            },
                            {
                                "type": "text",
                                "text": " Oh, ok.  It's not an official announcement?"
                            }
                        ]
                    }
                ]
            }
        ]
    },
    {
        "client_msg_id": "09eaab40-b7c4-4c1a-a6c3-d2ce5a29bb2d",
        "type": "message",
        "text": "it’s not :slightly_smiling_face:",
        "user": "UV02WET96",
        "ts": "1586798016.358100",
        "team": "TUU48M0T1",
        "user_team": "TUU48M0T1",
        "source_team": "TUU48M0T1",
        "user_profile": {
            "avatar_hash": "a99c74a194f8",
            "image_72": "https:\/\/avatars.slack-edge.com\/2020-03-07\/975708504851_a99c74a194f86715ca7d_72.png",
            "first_name": "Thomas",
            "real_name": "Thomas Landrain",
            "display_name": "Thomas Landrain - JOGL CoFounder \/ CEO",
            "team": "TUU48M0T1",
            "name": "thomas",
            "is_restricted": false,
            "is_ultra_restricted": false
        },
        "blocks": [
            {
                "type": "rich_text",
                "block_id": "Zgei",
                "elements": [
                    {
                        "type": "rich_text_section",
                        "elements": [
                            {
                                "type": "text",
                                "text": "it’s not "
                            },
                            {
                                "type": "emoji",
                                "name": "slightly_smiling_face"
                            }
                        ]
                    }
                ]
            }
        ],
        "reactions": [
            {
                "name": "heavy_check_mark",
                "users": [
                    "UV10KBUQG",
                    "UV0RRGB6H"
                ],
                "count": 2
            }
        ]
    },
    {
        "client_msg_id": "2ca53cd7-c102-4ab0-a797-fef5403c6475",
        "type": "message",
        "text": "we are currently working in it",
        "user": "UV02WET96",
        "ts": "1586798027.358400",
        "team": "TUU48M0T1",
        "user_team": "TUU48M0T1",
        "source_team": "TUU48M0T1",
        "user_profile": {
            "avatar_hash": "a99c74a194f8",
            "image_72": "https:\/\/avatars.slack-edge.com\/2020-03-07\/975708504851_a99c74a194f86715ca7d_72.png",
            "first_name": "Thomas",
            "real_name": "Thomas Landrain",
            "display_name": "Thomas Landrain - JOGL CoFounder \/ CEO",
            "team": "TUU48M0T1",
            "name": "thomas",
            "is_restricted": false,
            "is_ultra_restricted": false
        },
        "blocks": [
            {
                "type": "rich_text",
                "block_id": "5INrW",
                "elements": [
                    {
                        "type": "rich_text_section",
                        "elements": [
                            {
                                "type": "text",
                                "text": "we are currently working in it"
                            }
                        ]
                    }
                ]
            }
        ]
    },
    {
        "client_msg_id": "6ad4e585-93cd-4b95-b13e-25f41cac7b32",
        "type": "message",
        "text": "Results will come at 8pm Paris time :slightly_smiling_face:",
        "user": "UV02WET96",
        "ts": "1586800326.358800",
        "team": "TUU48M0T1",
        "user_team": "TUU48M0T1",
        "source_team": "TUU48M0T1",
        "user_profile": {
            "avatar_hash": "a99c74a194f8",
            "image_72": "https:\/\/avatars.slack-edge.com\/2020-03-07\/975708504851_a99c74a194f86715ca7d_72.png",
            "first_name": "Thomas",
            "real_name": "Thomas Landrain",
            "display_name": "Thomas Landrain - JOGL CoFounder \/ CEO",
            "team": "TUU48M0T1",
            "name": "thomas",
            "is_restricted": false,
            "is_ultra_restricted": false
        },
        "blocks": [
            {
                "type": "rich_text",
                "block_id": "6zD",
                "elements": [
                    {
                        "type": "rich_text_section",
                        "elements": [
                            {
                                "type": "text",
                                "text": "Results will come at 8pm Paris time "
                            },
                            {
                                "type": "emoji",
                                "name": "slightly_smiling_face"
                            }
                        ]
                    }
                ]
            }
        ]
    },
    {
        "type": "message",
        "subtype": "channel_join",
        "ts": "1586809769.360100",
        "user": "U011Y788MEY",
        "text": "<@U011Y788MEY> has joined the channel",
        "inviter": "U0119SR5LMT"
    },
    {
        "client_msg_id": "D87A0ED5-24EC-40ED-A4AF-458B22D47F40",
        "type": "message",
        "text": "Here’s our final project review summary. The announcement is awesome. So happy ",
        "user": "UV0RRGB6H",
        "ts": "1586816354.361300",
        "team": "TUU48M0T1",
        "user_team": "TUU48M0T1",
        "source_team": "TUU48M0T1",
        "user_profile": {
            "avatar_hash": "48d4ab64c90c",
            "image_72": "https:\/\/avatars.slack-edge.com\/2020-03-26\/1029789176912_48d4ab64c90c03f3af4a_72.jpg",
            "first_name": "",
            "real_name": "Chris LB Graham",
            "display_name": "",
            "team": "TUU48M0T1",
            "name": "chris.graham",
            "is_restricted": false,
            "is_ultra_restricted": false
        },
        "blocks": [
            {
                "type": "rich_text",
                "block_id": "NytN",
                "elements": [
                    {
                        "type": "rich_text_section",
                        "elements": [
                            {
                                "type": "text",
                                "text": "Here’s our final project review summary. The announcement is awesome. So happy "
                            }
                        ]
                    }
                ]
            }
        ]
    },
    {
        "client_msg_id": "68097DC7-08E5-4232-815B-FF7FF2396F5A",
        "type": "message",
        "text": "Congrats to everyone and thanks <@UV9V03C8Y> <@U0119SR5LMT> <@UV85V64SD> <@UVC9WMA7N> <@UV10KBUQG> <@U010HTBUHS9> <@UV87UQ37A> <@UV02WET96> ",
        "user": "UV0RRGB6H",
        "ts": "1586816456.363100",
        "team": "TUU48M0T1",
        "user_team": "TUU48M0T1",
        "source_team": "TUU48M0T1",
        "user_profile": {
            "avatar_hash": "48d4ab64c90c",
            "image_72": "https:\/\/avatars.slack-edge.com\/2020-03-26\/1029789176912_48d4ab64c90c03f3af4a_72.jpg",
            "first_name": "",
            "real_name": "Chris LB Graham",
            "display_name": "",
            "team": "TUU48M0T1",
            "name": "chris.graham",
            "is_restricted": false,
            "is_ultra_restricted": false
        },
        "edited": {
            "user": "UV0RRGB6H",
            "ts": "1586818312.000000"
        },
        "blocks": [
            {
                "type": "rich_text",
                "block_id": "8NR7",
                "elements": [
                    {
                        "type": "rich_text_section",
                        "elements": [
                            {
                                "type": "text",
                                "text": "Congrats to everyone and thanks "
                            },
                            {
                                "type": "user",
                                "user_id": "UV9V03C8Y"
                            },
                            {
                                "type": "text",
                                "text": " "
                            },
                            {
                                "type": "user",
                                "user_id": "U0119SR5LMT"
                            },
                            {
                                "type": "text",
                                "text": " "
                            },
                            {
                                "type": "user",
                                "user_id": "UV85V64SD"
                            },
                            {
                                "type": "text",
                                "text": " "
                            },
                            {
                                "type": "user",
                                "user_id": "UVC9WMA7N"
                            },
                            {
                                "type": "text",
                                "text": " "
                            },
                            {
                                "type": "user",
                                "user_id": "UV10KBUQG"
                            },
                            {
                                "type": "text",
                                "text": " "
                            },
                            {
                                "type": "user",
                                "user_id": "U010HTBUHS9"
                            },
                            {
                                "type": "text",
                                "text": " "
                            },
                            {
                                "type": "user",
                                "user_id": "UV87UQ37A"
                            },
                            {
                                "type": "text",
                                "text": " "
                            },
                            {
                                "type": "user",
                                "user_id": "UV02WET96"
                            },
                            {
                                "type": "text",
                                "text": " "
                            }
                        ]
                    }
                ]
            }
        ]
    },
    {
        "client_msg_id": "121416CF-ACBA-497E-9C0A-F1758307CCC2",
        "type": "message",
        "text": "The first ever open grant review and assignment process :P kinda cool ",
        "user": "UV0RRGB6H",
        "ts": "1586816493.363900",
        "team": "TUU48M0T1",
        "user_team": "TUU48M0T1",
        "source_team": "TUU48M0T1",
        "user_profile": {
            "avatar_hash": "48d4ab64c90c",
            "image_72": "https:\/\/avatars.slack-edge.com\/2020-03-26\/1029789176912_48d4ab64c90c03f3af4a_72.jpg",
            "first_name": "",
            "real_name": "Chris LB Graham",
            "display_name": "",
            "team": "TUU48M0T1",
            "name": "chris.graham",
            "is_restricted": false,
            "is_ultra_restricted": false
        },
        "blocks": [
            {
                "type": "rich_text",
                "block_id": "Bx\/",
                "elements": [
                    {
                        "type": "rich_text_section",
                        "elements": [
                            {
                                "type": "text",
                                "text": "The first ever open grant review and assignment process :P kinda cool "
                            }
                        ]
                    }
                ]
            }
        ],
        "reactions": [
            {
                "name": "100",
                "users": [
                    "UV87UQ37A",
                    "UV10KBUQG",
                    "UUNGFHSV8",
                    "UV0QTJCMT",
                    "UV85V64SD"
                ],
                "count": 5
            },
            {
                "name": "first_place_medal",
                "users": [
                    "UV87UQ37A"
                ],
                "count": 1
            },
            {
                "name": "boom",
                "users": [
                    "UV87UQ37A",
                    "UUNGFHSV8",
                    "UV85V64SD"
                ],
                "count": 3
            },
            {
                "name": "astonished",
                "users": [
                    "U0119SR5LMT"
                ],
                "count": 1
            }
        ]
    }
]