[
    {
        "type": "message",
        "subtype": "channel_join",
        "ts": "1587573931.000200",
        "user": "U011B6VLM2A",
        "text": "<@U011B6VLM2A> has joined the channel"
    },
    {
        "type": "message",
        "subtype": "channel_purpose",
        "ts": "1587573931.000300",
        "user": "U011B6VLM2A",
        "text": "<@U011B6VLM2A> set the channel purpose: For community members who have a project idea but are looking for a team to help them build their project. Please share an announcement with 2-3 sentences about your idea and the skills that you need in order to make your idea a reality!",
        "purpose": "For community members who have a project idea but are looking for a team to help them build their project. Please share an announcement with 2-3 sentences about your idea and the skills that you need in order to make your idea a reality!"
    },
    {
        "type": "message",
        "subtype": "channel_join",
        "ts": "1587573936.000500",
        "user": "UV9V03C8Y",
        "text": "<@UV9V03C8Y> has joined the channel",
        "inviter": "U011B6VLM2A"
    },
    {
        "type": "message",
        "subtype": "channel_topic",
        "ts": "1587573940.000600",
        "user": "U011B6VLM2A",
        "text": "<@U011B6VLM2A> set the channel topic: For community members who have a project idea but are looking for a team to help them build their project. Please share an announcement with 2-3 sentences about your idea and the skills that you need in order to make your idea a reality!",
        "topic": "For community members who have a project idea but are looking for a team to help them build their project. Please share an announcement with 2-3 sentences about your idea and the skills that you need in order to make your idea a reality!"
    },
    {
        "client_msg_id": "4558a56c-a6dc-4389-b105-f99482cfa5a0",
        "type": "message",
        "text": "<@UV9V03C8Y>  - can you make this channel auto-join for new members? Thanks!",
        "user": "U011B6VLM2A",
        "ts": "1587573954.000800",
        "team": "TUU48M0T1",
        "user_team": "TUU48M0T1",
        "source_team": "TUU48M0T1",
        "user_profile": {
            "avatar_hash": "4231dc598cfc",
            "image_72": "https:\/\/avatars.slack-edge.com\/2020-04-02\/1044784558839_4231dc598cfc2e59c4c4_72.jpg",
            "first_name": "Alix",
            "real_name": "Alix Mains",
            "display_name": "Alix Mains - JOGL Coordinator",
            "team": "TUU48M0T1",
            "name": "alixhmains",
            "is_restricted": false,
            "is_ultra_restricted": false
        },
        "blocks": [
            {
                "type": "rich_text",
                "block_id": "Nzx",
                "elements": [
                    {
                        "type": "rich_text_section",
                        "elements": [
                            {
                                "type": "user",
                                "user_id": "UV9V03C8Y"
                            },
                            {
                                "type": "text",
                                "text": "  - can you make this channel auto-join for new members? Thanks!"
                            }
                        ]
                    }
                ]
            }
        ]
    },
    {
        "type": "message",
        "subtype": "channel_name",
        "ts": "1587574028.000900",
        "user": "U011B6VLM2A",
        "text": "<@U011B6VLM2A> has renamed the channel from \"looking-for-a-team\" to \"looking-for-skills\"",
        "old_name": "looking-for-a-team",
        "name": "looking-for-skills"
    },
    {
        "type": "message",
        "subtype": "channel_topic",
        "ts": "1587574065.001000",
        "user": "U011B6VLM2A",
        "text": "<@U011B6VLM2A> set the channel topic: This channel is for project teams and community members who have a project idea. Please share an announcement with 2-3 sentences about your project and the skills that you need in order to make your idea a reality!",
        "topic": "This channel is for project teams and community members who have a project idea. Please share an announcement with 2-3 sentences about your project and the skills that you need in order to make your idea a reality!"
    }
]