[
    {
        "type": "message",
        "subtype": "channel_join",
        "ts": "1587799893.000200",
        "user": "U011NP2GGJJ",
        "text": "<@U011NP2GGJJ> has joined the channel"
    },
    {
        "client_msg_id": "78f08b0f-4518-435c-bdc9-c7ec5a6ab971",
        "type": "message",
        "text": "Hi are there web designers, and people who could help on game techniques, to make a web app, more friendly, and intégrate reward system? HackIT-19 participates to Euvsvirus Hackathon, and it could be useful to us. Thank youuuuuuu",
        "user": "U011NP2GGJJ",
        "ts": "1587819683.001900",
        "team": "TUU48M0T1",
        "user_team": "TUU48M0T1",
        "source_team": "TUU48M0T1",
        "user_profile": {
            "avatar_hash": "g3cc77bf0759",
            "image_72": "https:\/\/secure.gravatar.com\/avatar\/3cc77bf075917df3f244f1cd9de236e0.jpg?s=72&d=https%3A%2F%2Fa.slack-edge.com%2Fdf10d%2Fimg%2Favatars%2Fava_0002-72.png",
            "first_name": "",
            "real_name": "Sophie Parsy",
            "display_name": "Sophie Parsy",
            "team": "TUU48M0T1",
            "name": "parsysophie",
            "is_restricted": false,
            "is_ultra_restricted": false
        },
        "blocks": [
            {
                "type": "rich_text",
                "block_id": "GbS0Y",
                "elements": [
                    {
                        "type": "rich_text_section",
                        "elements": [
                            {
                                "type": "text",
                                "text": "Hi are there web designers, and people who could help on game techniques, to make a web app, more friendly, and intégrate reward system? HackIT-19 participates to Euvsvirus Hackathon, and it could be useful to us. Thank youuuuuuu"
                            }
                        ]
                    }
                ]
            }
        ],
        "thread_ts": "1587819683.001900",
        "reply_count": 3,
        "reply_users_count": 2,
        "latest_reply": "1588356998.027200",
        "reply_users": [
            "U011B6VLM2A",
            "U011NP2GGJJ"
        ],
        "replies": [
            {
                "user": "U011B6VLM2A",
                "ts": "1587995323.001100"
            },
            {
                "user": "U011NP2GGJJ",
                "ts": "1588356983.027000"
            },
            {
                "user": "U011NP2GGJJ",
                "ts": "1588356998.027200"
            }
        ],
        "subscribed": false
    },
    {
        "type": "message",
        "subtype": "channel_join",
        "ts": "1587822982.002100",
        "user": "U0123E3591V",
        "text": "<@U0123E3591V> has joined the channel"
    },
    {
        "type": "message",
        "subtype": "channel_join",
        "ts": "1587823783.002300",
        "user": "U0123EC8WPR",
        "text": "<@U0123EC8WPR> has joined the channel"
    },
    {
        "type": "message",
        "subtype": "channel_join",
        "ts": "1587842079.002500",
        "user": "U012JBFNBL2",
        "text": "<@U012JBFNBL2> has joined the channel"
    },
    {
        "type": "message",
        "subtype": "channel_join",
        "ts": "1587848088.002700",
        "user": "U0123LMFJNT",
        "text": "<@U0123LMFJNT> has joined the channel"
    }
]