[
    {
        "client_msg_id": "3e03d806-712c-40e5-8f27-1c080695824a",
        "type": "message",
        "text": "Love the weekly working meetings!",
        "user": "U011B6VLM2A",
        "ts": "1588165677.009600",
        "team": "TUU48M0T1",
        "user_team": "TUU48M0T1",
        "source_team": "TUU48M0T1",
        "user_profile": {
            "avatar_hash": "4231dc598cfc",
            "image_72": "https:\/\/avatars.slack-edge.com\/2020-04-02\/1044784558839_4231dc598cfc2e59c4c4_72.jpg",
            "first_name": "Alix",
            "real_name": "Alix Mains",
            "display_name": "Alix Mains - JOGL Coordinator",
            "team": "TUU48M0T1",
            "name": "alixhmains",
            "is_restricted": false,
            "is_ultra_restricted": false
        },
        "blocks": [
            {
                "type": "rich_text",
                "block_id": "z6qle",
                "elements": [
                    {
                        "type": "rich_text_section",
                        "elements": [
                            {
                                "type": "text",
                                "text": "Love the weekly working meetings!"
                            }
                        ]
                    }
                ]
            }
        ],
        "thread_ts": "1588102736.007400",
        "parent_user_id": "UV9V03C8Y"
    },
    {
        "type": "message",
        "text": "Interesting visual from the CoronaWhy community!",
        "files": [
            {
                "id": "F013FE29DC0",
                "created": 1588168896,
                "timestamp": 1588168896,
                "name": "image.png",
                "title": "image.png",
                "mimetype": "image\/png",
                "filetype": "png",
                "pretty_type": "PNG",
                "user": "U011B6VLM2A",
                "editable": false,
                "size": 420211,
                "mode": "hosted",
                "is_external": false,
                "external_type": "",
                "is_public": true,
                "public_url_shared": false,
                "display_as_bot": false,
                "username": "",
                "url_private": "https:\/\/files.slack.com\/files-pri\/TUU48M0T1-F013FE29DC0\/image.png?t=xoxe-980144714919-1106606678066-1105227127893-6f722bb664235052954ad46852628b64",
                "url_private_download": "https:\/\/files.slack.com\/files-pri\/TUU48M0T1-F013FE29DC0\/download\/image.png?t=xoxe-980144714919-1106606678066-1105227127893-6f722bb664235052954ad46852628b64",
                "thumb_64": "https:\/\/files.slack.com\/files-tmb\/TUU48M0T1-F013FE29DC0-fbc8141782\/image_64.png?t=xoxe-980144714919-1106606678066-1105227127893-6f722bb664235052954ad46852628b64",
                "thumb_80": "https:\/\/files.slack.com\/files-tmb\/TUU48M0T1-F013FE29DC0-fbc8141782\/image_80.png?t=xoxe-980144714919-1106606678066-1105227127893-6f722bb664235052954ad46852628b64",
                "thumb_360": "https:\/\/files.slack.com\/files-tmb\/TUU48M0T1-F013FE29DC0-fbc8141782\/image_360.png?t=xoxe-980144714919-1106606678066-1105227127893-6f722bb664235052954ad46852628b64",
                "thumb_360_w": 360,
                "thumb_360_h": 266,
                "thumb_480": "https:\/\/files.slack.com\/files-tmb\/TUU48M0T1-F013FE29DC0-fbc8141782\/image_480.png?t=xoxe-980144714919-1106606678066-1105227127893-6f722bb664235052954ad46852628b64",
                "thumb_480_w": 480,
                "thumb_480_h": 354,
                "thumb_160": "https:\/\/files.slack.com\/files-tmb\/TUU48M0T1-F013FE29DC0-fbc8141782\/image_160.png?t=xoxe-980144714919-1106606678066-1105227127893-6f722bb664235052954ad46852628b64",
                "thumb_720": "https:\/\/files.slack.com\/files-tmb\/TUU48M0T1-F013FE29DC0-fbc8141782\/image_720.png?t=xoxe-980144714919-1106606678066-1105227127893-6f722bb664235052954ad46852628b64",
                "thumb_720_w": 720,
                "thumb_720_h": 531,
                "thumb_800": "https:\/\/files.slack.com\/files-tmb\/TUU48M0T1-F013FE29DC0-fbc8141782\/image_800.png?t=xoxe-980144714919-1106606678066-1105227127893-6f722bb664235052954ad46852628b64",
                "thumb_800_w": 800,
                "thumb_800_h": 590,
                "thumb_960": "https:\/\/files.slack.com\/files-tmb\/TUU48M0T1-F013FE29DC0-fbc8141782\/image_960.png?t=xoxe-980144714919-1106606678066-1105227127893-6f722bb664235052954ad46852628b64",
                "thumb_960_w": 960,
                "thumb_960_h": 709,
                "thumb_1024": "https:\/\/files.slack.com\/files-tmb\/TUU48M0T1-F013FE29DC0-fbc8141782\/image_1024.png?t=xoxe-980144714919-1106606678066-1105227127893-6f722bb664235052954ad46852628b64",
                "thumb_1024_w": 1024,
                "thumb_1024_h": 756,
                "original_w": 1199,
                "original_h": 885,
                "thumb_tiny": "AwAjADDTpCcfWkdivRSajY5XJU5oANz5OA1PRjjDZz701GYKcgnHrSDk\/wCrNIY4yEHBX9aUOSQCAM+9M\/i\/1eakVQACFANMQki7hn5vwOKD8sY6jA780yYPnjlT2xT2\/wBVwMcdKBEUQJJIcnjkEGg4M20l+aW3OQwz+GKZNu8zBbp04ph0HT8Ko3EfjUkP+r+9u96GjLooZuR3xT0XauOPwFAC0EZGDRRSGIEVTkKBS0UUAFFFFAH\/2Q==",
                "permalink": "https:\/\/open-covid19.slack.com\/files\/U011B6VLM2A\/F013FE29DC0\/image.png",
                "permalink_public": "https:\/\/slack-files.com\/TUU48M0T1-F013FE29DC0-43ea028cc4",
                "is_starred": false,
                "has_rich_preview": false
            }
        ],
        "upload": true,
        "blocks": [
            {
                "type": "rich_text",
                "block_id": "Sq3",
                "elements": [
                    {
                        "type": "rich_text_section",
                        "elements": [
                            {
                                "type": "text",
                                "text": "Interesting visual from the CoronaWhy community!"
                            }
                        ]
                    }
                ]
            }
        ],
        "user": "U011B6VLM2A",
        "display_as_bot": false,
        "ts": "1588168899.010000",
        "client_msg_id": "624941e0-c3df-43e1-9db6-e63230690c9e",
        "reactions": [
            {
                "name": "+1",
                "users": [
                    "UV9V03C8Y",
                    "UV0QTJCMT",
                    "UV85V64SD",
                    "U011D8T1Z61",
                    "UV02WET96"
                ],
                "count": 5
            }
        ]
    }
]