[
    {
        "client_msg_id": "a72abae3-6b0f-400f-abec-5ec45176ebee",
        "type": "message",
        "text": "<https:\/\/www.afro.who.int\/news\/who-africa-holds-first-hackathon-covid-19>",
        "user": "UV9V03C8Y",
        "ts": "1586523769.002100",
        "team": "TUU48M0T1",
        "user_team": "TUU48M0T1",
        "source_team": "TUU48M0T1",
        "user_profile": {
            "avatar_hash": "177697fb7b8f",
            "image_72": "https:\/\/avatars.slack-edge.com\/2020-03-12\/996126178096_177697fb7b8ffa57649c_72.jpg",
            "first_name": "Camille",
            "real_name": "Camille Masselot - JOGL Program coordinator",
            "display_name": "Camille Masselot - JOGL coordinator",
            "team": "TUU48M0T1",
            "name": "masselot.camille",
            "is_restricted": false,
            "is_ultra_restricted": false
        },
        "attachments": [
            {
                "service_name": "WHO | Regional Office for Africa",
                "title": "WHO in Africa holds first ‘hackathon’ for COVID-19  | WHO | Regional Office for Africa",
                "title_link": "https:\/\/www.afro.who.int\/news\/who-africa-holds-first-hackathon-covid-19",
                "text": "The World Health Organization (WHO) Regional Office for Africa hosted its first virtual ‘hackathon’ bringing together 100 leading innovators from across sub-Saharan Africa in a bid to pioneer creative local solutions to the COVID-19 pandemic and address critical gaps in the regional response.",
                "fallback": "WHO | Regional Office for Africa: WHO in Africa holds first ‘hackathon’ for COVID-19  | WHO | Regional Office for Africa",
                "from_url": "https:\/\/www.afro.who.int\/news\/who-africa-holds-first-hackathon-covid-19",
                "service_icon": "https:\/\/www.afro.who.int\/themes\/who_alt\/favicon.ico",
                "id": 1,
                "original_url": "https:\/\/www.afro.who.int\/news\/who-africa-holds-first-hackathon-covid-19"
            }
        ],
        "blocks": [
            {
                "type": "rich_text",
                "block_id": "REIm",
                "elements": [
                    {
                        "type": "rich_text_section",
                        "elements": [
                            {
                                "type": "link",
                                "url": "https:\/\/www.afro.who.int\/news\/who-africa-holds-first-hackathon-covid-19"
                            }
                        ]
                    }
                ]
            }
        ]
    }
]