[
    {
        "client_msg_id": "2395574c-fe13-4882-814a-22e2dea95a5c",
        "type": "message",
        "text": "Hello, I am Nathanael from Ethiopia \/Africa . We have a similar local team here and we're looking for DIY testing  kits and  ventilators ...",
        "user": "U0123ED8WV8",
        "ts": "1587232171.024800",
        "team": "TUU48M0T1",
        "user_team": "TUU48M0T1",
        "source_team": "TUU48M0T1",
        "user_profile": {
            "avatar_hash": "g3fb4770b19e",
            "image_72": "https:\/\/secure.gravatar.com\/avatar\/3fb4770b19e61e3cfb3695e9a60e6082.jpg?s=72&d=https%3A%2F%2Fa.slack-edge.com%2Fdf10d%2Fimg%2Favatars%2Fava_0000-72.png",
            "first_name": "",
            "real_name": "Nathnael",
            "display_name": "Nathnael",
            "team": "TUU48M0T1",
            "name": "cenewo6957",
            "is_restricted": false,
            "is_ultra_restricted": false
        },
        "blocks": [
            {
                "type": "rich_text",
                "block_id": "pyvQw",
                "elements": [
                    {
                        "type": "rich_text_section",
                        "elements": [
                            {
                                "type": "text",
                                "text": "Hello, I am Nathanael from Ethiopia \/Africa . We have a similar local team here and we're looking for DIY testing  kits and  ventilators ..."
                            }
                        ]
                    }
                ]
            }
        ],
        "thread_ts": "1587232171.024800",
        "reply_count": 1,
        "reply_users_count": 1,
        "latest_reply": "1587429004.026500",
        "reply_users": [
            "U01136GDY5V"
        ],
        "replies": [
            {
                "user": "U01136GDY5V",
                "ts": "1587429004.026500"
            }
        ],
        "subscribed": false,
        "reactions": [
            {
                "name": "heart",
                "users": [
                    "U01136GDY5V"
                ],
                "count": 1
            }
        ]
    },
    {
        "client_msg_id": "7670d6f3-4ac1-4d17-8bd6-d6761bcefbfb",
        "type": "message",
        "text": "You're welcome <@U0123ED8WV8>",
        "user": "UV143JZD3",
        "ts": "1587241152.025500",
        "team": "TUU48M0T1",
        "user_team": "TUU48M0T1",
        "source_team": "TUU48M0T1",
        "user_profile": {
            "avatar_hash": "gc48c01e65cc",
            "image_72": "https:\/\/secure.gravatar.com\/avatar\/c48c01e65ccbe57130c7d6c5b0e870fe.jpg?s=72&d=https%3A%2F%2Fa.slack-edge.com%2Fdf10d%2Fimg%2Favatars%2Fava_0010-72.png",
            "first_name": "",
            "real_name": "Harry Akligoh",
            "display_name": "Harry Akligoh",
            "team": "TUU48M0T1",
            "name": "harryakligoh",
            "is_restricted": false,
            "is_ultra_restricted": false
        },
        "blocks": [
            {
                "type": "rich_text",
                "block_id": "14K9",
                "elements": [
                    {
                        "type": "rich_text_section",
                        "elements": [
                            {
                                "type": "text",
                                "text": "You're welcome "
                            },
                            {
                                "type": "user",
                                "user_id": "U0123ED8WV8"
                            }
                        ]
                    }
                ]
            }
        ]
    }
]