[
    {
        "client_msg_id": "faa60e1f-a030-4184-8453-703707941b27",
        "type": "message",
        "text": "Nice find, thanks for sharing! Sorry if I am little late to the conversation but what are the different category levels, is category 1 or 3 better, and how are they defined?",
        "user": "U010G3HSC9X",
        "ts": "1586811372.180700",
        "team": "TUU48M0T1",
        "user_team": "TUU48M0T1",
        "source_team": "TUU48M0T1",
        "user_profile": {
            "avatar_hash": "g7fe4fdef88a",
            "image_72": "https:\/\/secure.gravatar.com\/avatar\/7fe4fdef88aa31512885e90bd6a547ed.jpg?s=72&d=https%3A%2F%2Fa.slack-edge.com%2Fdf10d%2Fimg%2Favatars%2Fava_0018-72.png",
            "first_name": "",
            "real_name": "Artur",
            "display_name": "Artur",
            "team": "TUU48M0T1",
            "name": "arthurdo",
            "is_restricted": false,
            "is_ultra_restricted": false
        },
        "thread_ts": "1586297047.160200",
        "parent_user_id": "U0106NJNM17"
    }
]