[
    {
        "client_msg_id": "4c0efb6e-642d-405f-aaba-f24898855412",
        "type": "message",
        "text": "Hi everyone! I'm working for the fab lab of Montréal, échofab. I know that you already started your evaluation phase, but our team developped a face shield (lasercutting only), so if you think that could be useful, dont hesitate to ask more info :wink: Here is our project documentation (english text is below): <https:\/\/projects.fablabs.io\/+echofab\/visi%C3%A8re-de-protection>",
        "user": "U011VGFNM9A",
        "ts": "1586626033.179900",
        "team": "TUU48M0T1",
        "user_team": "TUU48M0T1",
        "source_team": "TUU48M0T1",
        "user_profile": {
            "avatar_hash": "ga5c3b45ee08",
            "image_72": "https:\/\/secure.gravatar.com\/avatar\/a5c3b45ee0807bc4a10eb02a7fa983fe.jpg?s=72&d=https%3A%2F%2Fa.slack-edge.com%2Fdf10d%2Fimg%2Favatars%2Fava_0005-72.png",
            "first_name": "",
            "real_name": "Guillaume Pelletier",
            "display_name": "Guillaume Pelletier",
            "team": "TUU48M0T1",
            "name": "guillaume.pelletier",
            "is_restricted": false,
            "is_ultra_restricted": false
        },
        "attachments": [
            {
                "service_name": "Fablabs.io | Wikifactory",
                "title": "404 - Not Found",
                "title_link": "https:\/\/projects.fablabs.io\/+echofab\/visi%C3%A8re-de-protection",
                "text": "A space dedicated to creation and digital manufacturing, open to the public two days per week. At échoFab, users can use advanced technologies and get access to technical expertise.",
                "fallback": "Fablabs.io | Wikifactory: 404 - Not Found",
                "thumb_url": "https:\/\/res.cloudinary.com\/dbshcjrt3\/image\/upload\/w_240,h_240,c_fill,g_auto,q_auto\/wikifactory-prod.uploads\/19035\/avatar.jpg",
                "from_url": "https:\/\/projects.fablabs.io\/+echofab\/visi%C3%A8re-de-protection",
                "thumb_width": 240,
                "thumb_height": 240,
                "service_icon": "https:\/\/projects.fablabs.io\/favicon.ico?t=1586267722419",
                "id": 1,
                "original_url": "https:\/\/projects.fablabs.io\/+echofab\/visi%C3%A8re-de-protection"
            }
        ],
        "blocks": [
            {
                "type": "rich_text",
                "block_id": "Bjm",
                "elements": [
                    {
                        "type": "rich_text_section",
                        "elements": [
                            {
                                "type": "text",
                                "text": "Hi everyone! I'm working for the fab lab of Montréal, échofab. I know that you already started your evaluation phase, but our team developped a face shield (lasercutting only), so if you think that could be useful, dont hesitate to ask more info "
                            },
                            {
                                "type": "emoji",
                                "name": "wink"
                            },
                            {
                                "type": "text",
                                "text": " Here is our project documentation (english text is below): "
                            },
                            {
                                "type": "link",
                                "url": "https:\/\/projects.fablabs.io\/+echofab\/visi%C3%A8re-de-protection"
                            }
                        ]
                    }
                ]
            }
        ]
    }
]