[
    {
        "type": "message",
        "subtype": "channel_join",
        "ts": "1586011421.114200",
        "user": "U011KG47FMW",
        "text": "<@U011KG47FMW> has joined the channel",
        "inviter": "UV02WET96"
    },
    {
        "type": "message",
        "subtype": "channel_join",
        "ts": "1586021751.114700",
        "user": "U011D62HLBG",
        "text": "<@U011D62HLBG> has joined the channel",
        "inviter": "U011KG47FMW"
    },
    {
        "client_msg_id": "194d6489-581c-4f16-a083-ee2c5a6e7e44",
        "type": "message",
        "text": "Hey channel, not sure how your project is going but in case this hasn't been shared here yet Stephan from CNC kitchen made a key video on printing face shields in 1h instead of 6.",
        "user": "UVC9WMA7N",
        "ts": "1586034731.116400",
        "team": "TUU48M0T1",
        "user_team": "TUU48M0T1",
        "source_team": "TUU48M0T1",
        "user_profile": {
            "avatar_hash": "56d14d58ed53",
            "image_72": "https:\/\/avatars.slack-edge.com\/2020-03-13\/998337892660_56d14d58ed537e6e4654_72.png",
            "first_name": "Leo",
            "real_name": "Leo Blondel",
            "display_name": "Leo Blondel - JOGL CoFounder \/ CTO",
            "team": "TUU48M0T1",
            "name": "leo",
            "is_restricted": false,
            "is_ultra_restricted": false
        },
        "blocks": [
            {
                "type": "rich_text",
                "block_id": "bMTEw",
                "elements": [
                    {
                        "type": "rich_text_section",
                        "elements": [
                            {
                                "type": "text",
                                "text": "Hey channel, not sure how your project is going but in case this hasn't been shared here yet Stephan from CNC kitchen made a key video on printing face shields in 1h instead of 6."
                            }
                        ]
                    }
                ]
            }
        ],
        "reactions": [
            {
                "name": "+1",
                "users": [
                    "UV02WET96",
                    "U010G3HSC9X"
                ],
                "count": 2
            }
        ]
    },
    {
        "client_msg_id": "6e7c6d96-48bd-4a5d-8511-d0634d54fc5a",
        "type": "message",
        "text": "<https:\/\/youtu.be\/_bt1UZAnxnA|https:\/\/youtu.be\/_bt1UZAnxnA>",
        "user": "UVC9WMA7N",
        "ts": "1586034733.116600",
        "team": "TUU48M0T1",
        "user_team": "TUU48M0T1",
        "source_team": "TUU48M0T1",
        "user_profile": {
            "avatar_hash": "56d14d58ed53",
            "image_72": "https:\/\/avatars.slack-edge.com\/2020-03-13\/998337892660_56d14d58ed537e6e4654_72.png",
            "first_name": "Leo",
            "real_name": "Leo Blondel",
            "display_name": "Leo Blondel - JOGL CoFounder \/ CTO",
            "team": "TUU48M0T1",
            "name": "leo",
            "is_restricted": false,
            "is_ultra_restricted": false
        },
        "attachments": [
            {
                "service_name": "YouTube",
                "service_url": "https:\/\/www.youtube.com\/",
                "title": "How to 3D print Face Shields FASTER - from 5h to 1h!",
                "title_link": "https:\/\/youtu.be\/_bt1UZAnxnA",
                "author_name": "CNC Kitchen",
                "author_link": "https:\/\/www.youtube.com\/channel\/UCiczXOhGpvoQGhOL16EZiTg",
                "thumb_url": "https:\/\/i.ytimg.com\/vi\/_bt1UZAnxnA\/hqdefault.jpg",
                "thumb_width": 480,
                "thumb_height": 360,
                "fallback": "YouTube Video: How to 3D print Face Shields FASTER - from 5h to 1h!",
                "video_html": "<iframe width=\"400\" height=\"225\" src=\"https:\/\/www.youtube.com\/embed\/_bt1UZAnxnA?feature=oembed&autoplay=1&iv_load_policy=3\" frameborder=\"0\" allow=\"accelerometer; autoplay; encrypted-media; gyroscope; picture-in-picture\" allowfullscreen><\/iframe>",
                "video_html_width": 400,
                "video_html_height": 225,
                "from_url": "https:\/\/youtu.be\/_bt1UZAnxnA",
                "service_icon": "https:\/\/a.slack-edge.com\/80588\/img\/unfurl_icons\/youtube.png",
                "id": 1,
                "original_url": "https:\/\/youtu.be\/_bt1UZAnxnA"
            }
        ],
        "blocks": [
            {
                "type": "rich_text",
                "block_id": "bv\/U",
                "elements": [
                    {
                        "type": "rich_text_section",
                        "elements": [
                            {
                                "type": "link",
                                "url": "https:\/\/youtu.be\/_bt1UZAnxnA",
                                "text": "https:\/\/youtu.be\/_bt1UZAnxnA"
                            }
                        ]
                    }
                ]
            }
        ]
    }
]