[
    {
        "client_msg_id": "02443f9f-d9f2-4b60-ac00-efafac231743",
        "type": "message",
        "text": "Hi <!channel>! Posting here as well.\nLiterature review is sometimes dreadful, especially when we need to access information quickly. A specific channel *<#C0106TJ8ZGQ|prgm-literature-review>* has been created *specifically for gathering scientific literature*. It comes with a google sheet that will enable everyone working at program, challenge or project level to save time, and access resources more easily. Use it and modify as you wish, common tools are meant to facilitate everyone's life!\n*Link to the spreadsheet*  :point_right: <https:\/\/docs.google.com\/spreadsheets\/d\/1Jhl5NRsghJfFfrKb-3tr-wnT47AdLi9XYqyvmXubfME\/edit#gid=0|HERE> (do not miss the tab 2 with useful websites)\nP*lus, you have access to all newly published articles* <https:\/\/www.ncbi.nlm.nih.gov\/research\/coronavirus\/docsum|HERE> thanks to LitCovid\/ncbi\nTake care!",
        "user": "UV9V03C8Y",
        "ts": "1584526250.022100",
        "team": "TUU48M0T1",
        "user_team": "TUU48M0T1",
        "source_team": "TUU48M0T1",
        "user_profile": {
            "avatar_hash": "177697fb7b8f",
            "image_72": "https:\/\/avatars.slack-edge.com\/2020-03-12\/996126178096_177697fb7b8ffa57649c_72.jpg",
            "first_name": "Camille",
            "real_name": "Camille Masselot - JOGL Program coordinator",
            "display_name": "Camille Masselot - JOGL coordinator",
            "team": "TUU48M0T1",
            "name": "masselot.camille",
            "is_restricted": false,
            "is_ultra_restricted": false
        },
        "attachments": [
            {
                "title": "LitCovid - NCBI - NLM - NIH",
                "title_link": "https:\/\/www.ncbi.nlm.nih.gov\/research\/coronavirus\/docsum",
                "text": "LitCovid is a unique web system for tracking the most recent publications and literature about the 2019 Coronavirus (2019-nCov,SARS-CoV-2, COVID-19) outbreak. LitCovid is the most comprehensive resource on the subject.",
                "fallback": "LitCovid - NCBI - NLM - NIH",
                "from_url": "https:\/\/www.ncbi.nlm.nih.gov\/research\/coronavirus\/docsum",
                "service_icon": "https:\/\/www.ncbi.nlm.nih.gov\/favicon.ico",
                "service_name": "ncbi.nlm.nih.gov",
                "id": 1,
                "original_url": "https:\/\/www.ncbi.nlm.nih.gov\/research\/coronavirus\/docsum"
            }
        ],
        "blocks": [
            {
                "type": "rich_text",
                "block_id": "duW",
                "elements": [
                    {
                        "type": "rich_text_section",
                        "elements": [
                            {
                                "type": "text",
                                "text": "Hi "
                            },
                            {
                                "type": "broadcast",
                                "range": "channel"
                            },
                            {
                                "type": "text",
                                "text": "! Posting here as well.\nLiterature review is sometimes dreadful, especially when we need to access information quickly. A specific channel "
                            },
                            {
                                "type": "channel",
                                "channel_id": "C0106TJ8ZGQ",
                                "style": {
                                    "bold": true
                                }
                            },
                            {
                                "type": "text",
                                "text": " has been created "
                            },
                            {
                                "type": "text",
                                "text": "specifically for gathering scientific literature",
                                "style": {
                                    "bold": true
                                }
                            },
                            {
                                "type": "text",
                                "text": ". It comes with a google sheet that will enable everyone working at program, challenge or project level to save time, and access resources more easily. Use it and modify as you wish, common tools are meant to facilitate everyone's life!\n"
                            },
                            {
                                "type": "text",
                                "text": "Link to the spreadsheet ",
                                "style": {
                                    "bold": true
                                }
                            },
                            {
                                "type": "text",
                                "text": " "
                            },
                            {
                                "type": "emoji",
                                "name": "point_right"
                            },
                            {
                                "type": "text",
                                "text": " "
                            },
                            {
                                "type": "link",
                                "url": "https:\/\/docs.google.com\/spreadsheets\/d\/1Jhl5NRsghJfFfrKb-3tr-wnT47AdLi9XYqyvmXubfME\/edit#gid=0",
                                "text": "HERE"
                            },
                            {
                                "type": "text",
                                "text": " (do not miss the tab 2 with useful websites)\nP"
                            },
                            {
                                "type": "text",
                                "text": "lus, you have access to all newly published articles",
                                "style": {
                                    "bold": true
                                }
                            },
                            {
                                "type": "text",
                                "text": " "
                            },
                            {
                                "type": "link",
                                "url": "https:\/\/www.ncbi.nlm.nih.gov\/research\/coronavirus\/docsum",
                                "text": "HERE"
                            },
                            {
                                "type": "text",
                                "text": " thanks to LitCovid\/ncbi\nTake care!"
                            }
                        ]
                    }
                ]
            }
        ],
        "thread_ts": "1584526250.022100",
        "reply_count": 1,
        "reply_users_count": 1,
        "latest_reply": "1584526312.022500",
        "reply_users": [
            "UV6LNPJ3C"
        ],
        "replies": [
            {
                "user": "UV6LNPJ3C",
                "ts": "1584526312.022500"
            }
        ],
        "subscribed": false
    },
    {
        "client_msg_id": "a1c8e3d2-94b7-42ee-b935-24675cde058c",
        "type": "message",
        "text": "wow that's a good one to track the publications!",
        "user": "UV6LNPJ3C",
        "ts": "1584526312.022500",
        "team": "TUU48M0T1",
        "user_team": "TUU48M0T1",
        "source_team": "TUU48M0T1",
        "user_profile": {
            "avatar_hash": "ac43ca2970ef",
            "image_72": "https:\/\/avatars.slack-edge.com\/2020-03-17\/1005540783616_ac43ca2970ef953e3501_72.jpg",
            "first_name": "Serena",
            "real_name": "Serena Özabrahamyan",
            "display_name": "Serena Özabrahamyan",
            "team": "TUU48M0T1",
            "name": "serena",
            "is_restricted": false,
            "is_ultra_restricted": false
        },
        "blocks": [
            {
                "type": "rich_text",
                "block_id": "uYw=O",
                "elements": [
                    {
                        "type": "rich_text_section",
                        "elements": [
                            {
                                "type": "text",
                                "text": "wow that's a good one to track the publications!"
                            }
                        ]
                    }
                ]
            }
        ],
        "thread_ts": "1584526250.022100",
        "parent_user_id": "UV9V03C8Y"
    },
    {
        "client_msg_id": "c3d5521c-8514-46b1-9ae5-1663697f2c93",
        "type": "message",
        "text": "Hi there! I'm Juliana from Brazil, I'm a user experience researcher, work with user journey mapping and Analytics. is there anyone researching or following social engineering arrengements targeting covid prevention? thanks for your attention",
        "user": "UV8AZ6ABC",
        "ts": "1584536046.026900",
        "team": "TUU48M0T1",
        "user_team": "TUU48M0T1",
        "source_team": "TUU48M0T1",
        "user_profile": {
            "avatar_hash": "b4d8c336125b",
            "image_72": "https:\/\/avatars.slack-edge.com\/2020-03-17\/1006719750788_b4d8c336125bdcf987eb_72.jpg",
            "first_name": "Juliana",
            "real_name": "Juliana Cavalheiro",
            "display_name": "Juliana Cavalheiro",
            "team": "TUU48M0T1",
            "name": "ju.cavalheiro",
            "is_restricted": false,
            "is_ultra_restricted": false
        },
        "blocks": [
            {
                "type": "rich_text",
                "block_id": "CX4H",
                "elements": [
                    {
                        "type": "rich_text_section",
                        "elements": [
                            {
                                "type": "text",
                                "text": "Hi there! I'm Juliana from Brazil, I'm a user experience researcher, work with user journey mapping and Analytics. is there anyone researching or following social engineering arrengements targeting covid prevention? thanks for your attention"
                            }
                        ]
                    }
                ]
            }
        ]
    },
    {
        "client_msg_id": "D388C251-AD3C-457C-9475-73A4940D66E8",
        "type": "message",
        "text": "<https:\/\/jogl-covid-19.slack.com\/archives\/CVAS7QHF0\/p1584553880149800?thread_ts=1584458933.118900&amp;channel=CVAS7QHF0&amp;message_ts=1584553880.149800|https:\/\/jogl-covid-19.slack.com\/archives\/CVAS7QHF0\/p1584553880149800?thread_ts=1584458933.118900&amp;channel=CVAS7QHF0&amp;message_ts=1584553880.149800>",
        "user": "U01089UEU30",
        "ts": "1584554192.028200",
        "team": "TUU48M0T1",
        "user_team": "TUU48M0T1",
        "source_team": "TUU48M0T1",
        "user_profile": {
            "avatar_hash": "9641933d6160",
            "image_72": "https:\/\/avatars.slack-edge.com\/2020-04-13\/1066453688484_9641933d6160000374f6_72.jpg",
            "first_name": "Scott",
            "real_name": "Scott Leibrand",
            "display_name": "",
            "team": "TUU48M0T1",
            "name": "scott",
            "is_restricted": false,
            "is_ultra_restricted": false
        },
        "attachments": [
            {
                "from_url": "https:\/\/jogl-covid-19.slack.com\/archives\/CVAS7QHF0\/p1584553880149800?thread_ts=1584458933.118900&amp;channel=CVAS7QHF0&amp;message_ts=1584553880.149800",
                "fallback": "[March 18th, 2020 10:51 AM] scott: just created <#C0109J5U8P7|proj-contact-tracing> for Discussing and helping to build contact-tracing apps like <http:\/\/CoEpi.org|CoEpi.org>, <http:\/\/COVID19risk.com|COVID19risk.com>, MIT Safe Paths, etc.",
                "ts": "1584553880.149800",
                "msg_subtype": "thread_broadcast",
                "author_id": "U01089UEU30",
                "author_subname": "Scott Leibrand",
                "channel_id": "CVAS7QHF0",
                "channel_name": "proj-dev-open-source-resources",
                "is_msg_unfurl": true,
                "is_reply_unfurl": true,
                "text": "just created <#C0109J5U8P7|proj-contact-tracing> for Discussing and helping to build contact-tracing apps like <http:\/\/CoEpi.org|CoEpi.org>, <http:\/\/COVID19risk.com|COVID19risk.com>, MIT Safe Paths, etc.",
                "author_name": "Scott Leibrand",
                "author_link": "https:\/\/jogl-covid-19.slack.com\/team\/U01089UEU30",
                "author_icon": "https:\/\/secure.gravatar.com\/avatar\/97d8d2c41d8c8cf65a9442317d66ef82.jpg?s=48&d=https%3A%2F%2Fa.slack-edge.com%2Fdf10d%2Fimg%2Favatars%2Fava_0012-48.png",
                "mrkdwn_in": [
                    "text"
                ],
                "id": 1,
                "original_url": "https:\/\/jogl-covid-19.slack.com\/archives\/CVAS7QHF0\/p1584553880149800?thread_ts=1584458933.118900&amp;channel=CVAS7QHF0&amp;message_ts=1584553880.149800",
                "footer": "From a thread in #proj-dev-open-source-resources"
            }
        ],
        "blocks": [
            {
                "type": "rich_text",
                "block_id": "iiUrU",
                "elements": [
                    {
                        "type": "rich_text_section",
                        "elements": [
                            {
                                "type": "link",
                                "url": "https:\/\/jogl-covid-19.slack.com\/archives\/CVAS7QHF0\/p1584553880149800?thread_ts=1584458933.118900&channel=CVAS7QHF0&message_ts=1584553880.149800",
                                "text": "https:\/\/jogl-covid-19.slack.com\/archives\/CVAS7QHF0\/p1584553880149800?thread_ts=1584458933.118900&channel=CVAS7QHF0&message_ts=1584553880.149800"
                            }
                        ]
                    }
                ]
            }
        ]
    },
    {
        "client_msg_id": "4B85DF6E-8972-48F8-A6F8-8E866EF0A504",
        "type": "message",
        "text": "<https:\/\/jogl-covid-19.slack.com\/archives\/CVAS7QHF0\/p1584553880149800?thread_ts=1584458933.118900&amp;channel=CVAS7QHF0&amp;message_ts=1584553880.149800|https:\/\/jogl-covid-19.slack.com\/archives\/CVAS7QHF0\/p1584553880149800?thread_ts=1584458933.118900&amp;channel=CVAS7QHF0&amp;message_ts=1584553880.149800>",
        "user": "U01089UEU30",
        "ts": "1584554216.028700",
        "team": "TUU48M0T1",
        "user_team": "TUU48M0T1",
        "source_team": "TUU48M0T1",
        "user_profile": {
            "avatar_hash": "9641933d6160",
            "image_72": "https:\/\/avatars.slack-edge.com\/2020-04-13\/1066453688484_9641933d6160000374f6_72.jpg",
            "first_name": "Scott",
            "real_name": "Scott Leibrand",
            "display_name": "",
            "team": "TUU48M0T1",
            "name": "scott",
            "is_restricted": false,
            "is_ultra_restricted": false
        },
        "blocks": [
            {
                "type": "rich_text",
                "block_id": "Cic1c",
                "elements": [
                    {
                        "type": "rich_text_section",
                        "elements": [
                            {
                                "type": "link",
                                "url": "https:\/\/jogl-covid-19.slack.com\/archives\/CVAS7QHF0\/p1584553880149800?thread_ts=1584458933.118900&channel=CVAS7QHF0&message_ts=1584553880.149800",
                                "text": "https:\/\/jogl-covid-19.slack.com\/archives\/CVAS7QHF0\/p1584553880149800?thread_ts=1584458933.118900&channel=CVAS7QHF0&message_ts=1584553880.149800"
                            }
                        ]
                    }
                ]
            }
        ],
        "thread_ts": "1584509458.018000",
        "parent_user_id": "U01089UEU30"
    }
]