[
    {
        "client_msg_id": "b3dd0969-0621-4c6c-873b-8b0fc86865e1",
        "type": "message",
        "text": "awesome <@U010734498S> wow",
        "user": "UV85V64SD",
        "ts": "1585558605.023200",
        "team": "TUU48M0T1",
        "user_team": "TUU48M0T1",
        "source_team": "TUU48M0T1",
        "user_profile": {
            "avatar_hash": "1e73a651bdfe",
            "image_72": "https:\/\/avatars.slack-edge.com\/2020-03-16\/1004297548853_1e73a651bdfef2c41501_72.jpg",
            "first_name": "Marc",
            "real_name": "Marc Santolini",
            "display_name": "Marc Santolini - JOGL CoFounder \/ CSO",
            "team": "TUU48M0T1",
            "name": "marc.santolini",
            "is_restricted": false,
            "is_ultra_restricted": false
        },
        "blocks": [
            {
                "type": "rich_text",
                "block_id": "PPq\/",
                "elements": [
                    {
                        "type": "rich_text_section",
                        "elements": [
                            {
                                "type": "text",
                                "text": "awesome "
                            },
                            {
                                "type": "user",
                                "user_id": "U010734498S"
                            },
                            {
                                "type": "text",
                                "text": " wow"
                            }
                        ]
                    }
                ]
            }
        ]
    },
    {
        "client_msg_id": "b9d44809-5a7b-44fc-8d38-96fc7d745b94",
        "type": "message",
        "text": "let’s discuss quickly about it this afternoon?",
        "user": "UV85V64SD",
        "ts": "1585558618.023500",
        "team": "TUU48M0T1",
        "user_team": "TUU48M0T1",
        "source_team": "TUU48M0T1",
        "user_profile": {
            "avatar_hash": "1e73a651bdfe",
            "image_72": "https:\/\/avatars.slack-edge.com\/2020-03-16\/1004297548853_1e73a651bdfef2c41501_72.jpg",
            "first_name": "Marc",
            "real_name": "Marc Santolini",
            "display_name": "Marc Santolini - JOGL CoFounder \/ CSO",
            "team": "TUU48M0T1",
            "name": "marc.santolini",
            "is_restricted": false,
            "is_ultra_restricted": false
        },
        "blocks": [
            {
                "type": "rich_text",
                "block_id": "DhR",
                "elements": [
                    {
                        "type": "rich_text_section",
                        "elements": [
                            {
                                "type": "text",
                                "text": "let’s discuss quickly about it this afternoon?"
                            }
                        ]
                    }
                ]
            }
        ]
    },
    {
        "client_msg_id": "ab89650c-e951-41bf-964f-e879c55a6a39",
        "type": "message",
        "text": "like 330pm?",
        "user": "UV85V64SD",
        "ts": "1585558627.023700",
        "team": "TUU48M0T1",
        "user_team": "TUU48M0T1",
        "source_team": "TUU48M0T1",
        "user_profile": {
            "avatar_hash": "1e73a651bdfe",
            "image_72": "https:\/\/avatars.slack-edge.com\/2020-03-16\/1004297548853_1e73a651bdfef2c41501_72.jpg",
            "first_name": "Marc",
            "real_name": "Marc Santolini",
            "display_name": "Marc Santolini - JOGL CoFounder \/ CSO",
            "team": "TUU48M0T1",
            "name": "marc.santolini",
            "is_restricted": false,
            "is_ultra_restricted": false
        },
        "blocks": [
            {
                "type": "rich_text",
                "block_id": "o5c",
                "elements": [
                    {
                        "type": "rich_text_section",
                        "elements": [
                            {
                                "type": "text",
                                "text": "like 330pm?"
                            }
                        ]
                    }
                ]
            }
        ]
    },
    {
        "client_msg_id": "5fe55c25-2dfd-4347-aa65-da43a896f1db",
        "type": "message",
        "text": "ok for a 3:30hrs meeting",
        "user": "U010734498S",
        "ts": "1585558677.024000",
        "team": "TUU48M0T1",
        "user_team": "TUU48M0T1",
        "source_team": "TUU48M0T1",
        "user_profile": {
            "avatar_hash": "g85cae5734da",
            "image_72": "https:\/\/secure.gravatar.com\/avatar\/85cae5734dae69539dca99aa96ef691f.jpg?s=72&d=https%3A%2F%2Fa.slack-edge.com%2Fdf10d%2Fimg%2Favatars%2Fava_0011-72.png",
            "first_name": "",
            "real_name": "pedro ramaciotti",
            "display_name": "pedro ramaciotti",
            "team": "TUU48M0T1",
            "name": "pedro.ramaciotti",
            "is_restricted": false,
            "is_ultra_restricted": false
        },
        "blocks": [
            {
                "type": "rich_text",
                "block_id": "Q50t",
                "elements": [
                    {
                        "type": "rich_text_section",
                        "elements": [
                            {
                                "type": "text",
                                "text": "ok for a 3:30hrs meeting"
                            }
                        ]
                    }
                ]
            }
        ],
        "reactions": [
            {
                "name": "+1",
                "users": [
                    "UV85V64SD"
                ],
                "count": 1
            }
        ]
    },
    {
        "client_msg_id": "e49bcca7-ac56-4b92-b0f6-793353c5cd61",
        "type": "message",
        "text": "May I join your call ?  This is an area that really interests me.  I'll try to catchup on the literature before then.",
        "user": "U01113Y1PLP",
        "ts": "1585562184.024800",
        "team": "TUU48M0T1",
        "user_team": "TUU48M0T1",
        "source_team": "TUU48M0T1",
        "user_profile": {
            "avatar_hash": "09f91663be3c",
            "image_72": "https:\/\/avatars.slack-edge.com\/2020-03-28\/1033063469301_09f91663be3c4c21e257_72.png",
            "first_name": "Luis",
            "real_name": "Luis Arias",
            "display_name": "Luis Arias",
            "team": "TUU48M0T1",
            "name": "luis603",
            "is_restricted": false,
            "is_ultra_restricted": false
        },
        "blocks": [
            {
                "type": "rich_text",
                "block_id": "ugE",
                "elements": [
                    {
                        "type": "rich_text_section",
                        "elements": [
                            {
                                "type": "text",
                                "text": "May I join your call ?  This is an area that really interests me.  I'll try to catchup on the literature before then."
                            }
                        ]
                    }
                ]
            }
        ]
    },
    {
        "client_msg_id": "7e12f98c-df94-4a12-a128-6e8fbc3d7bb4",
        "type": "message",
        "text": "yes I will share the link here - can you forward us more info about you before the call maybe?",
        "user": "UV85V64SD",
        "ts": "1585563884.025400",
        "team": "TUU48M0T1",
        "user_team": "TUU48M0T1",
        "source_team": "TUU48M0T1",
        "user_profile": {
            "avatar_hash": "1e73a651bdfe",
            "image_72": "https:\/\/avatars.slack-edge.com\/2020-03-16\/1004297548853_1e73a651bdfef2c41501_72.jpg",
            "first_name": "Marc",
            "real_name": "Marc Santolini",
            "display_name": "Marc Santolini - JOGL CoFounder \/ CSO",
            "team": "TUU48M0T1",
            "name": "marc.santolini",
            "is_restricted": false,
            "is_ultra_restricted": false
        },
        "blocks": [
            {
                "type": "rich_text",
                "block_id": "+Fh1O",
                "elements": [
                    {
                        "type": "rich_text_section",
                        "elements": [
                            {
                                "type": "text",
                                "text": "yes I will share the link here - can you forward us more info about you before the call maybe?"
                            }
                        ]
                    }
                ]
            }
        ]
    },
    {
        "client_msg_id": "eab837cf-07b9-4c13-8d9a-290a954a360d",
        "type": "message",
        "text": "Yes sorry I didn't introduce myself.  Here's part of what I posted in the <#CVB9NP1L6|prgm-dev-team> channel:\n&gt; My strengths are in the backend and cloud, especially on Node and AWS in TypeScript these days, but I'm comfortable with (most) frontend work.  I'm working at an early stage startup based in Paris called Outmind where we work on smart search across different productivity tools (slack, GSuite, Office 365, etc...).  I've been helping out a lot on the product and more recently cloud infrastructure but my main interest is in the \"smart\" part, improving search by applying recent developments in NLP, knowledge graphs, etc..",
        "user": "U01113Y1PLP",
        "ts": "1585569100.026200",
        "team": "TUU48M0T1",
        "user_team": "TUU48M0T1",
        "source_team": "TUU48M0T1",
        "user_profile": {
            "avatar_hash": "09f91663be3c",
            "image_72": "https:\/\/avatars.slack-edge.com\/2020-03-28\/1033063469301_09f91663be3c4c21e257_72.png",
            "first_name": "Luis",
            "real_name": "Luis Arias",
            "display_name": "Luis Arias",
            "team": "TUU48M0T1",
            "name": "luis603",
            "is_restricted": false,
            "is_ultra_restricted": false
        },
        "blocks": [
            {
                "type": "rich_text",
                "block_id": "4R=1",
                "elements": [
                    {
                        "type": "rich_text_section",
                        "elements": [
                            {
                                "type": "text",
                                "text": "Yes sorry I didn't introduce myself.  Here's part of what I posted in the "
                            },
                            {
                                "type": "channel",
                                "channel_id": "CVB9NP1L6"
                            },
                            {
                                "type": "text",
                                "text": " channel:\n"
                            }
                        ]
                    },
                    {
                        "type": "rich_text_quote",
                        "elements": [
                            {
                                "type": "text",
                                "text": "My strengths are in the backend and cloud, especially on Node and AWS in TypeScript these days, but I'm comfortable with (most) frontend work.  I'm working at an early stage startup based in Paris called Outmind where we work on smart search across different productivity tools (slack, GSuite, Office 365, etc...).  I've been helping out a lot on the product and more recently cloud infrastructure but my main interest is in the \"smart\" part, improving search by applying recent developments in NLP, knowledge graphs, etc.."
                            }
                        ]
                    }
                ]
            }
        ]
    },
    {
        "client_msg_id": "5611fcce-669c-474a-8989-977ade028660",
        "type": "message",
        "text": "awesome",
        "user": "UV85V64SD",
        "ts": "1585573363.026400",
        "team": "TUU48M0T1",
        "user_team": "TUU48M0T1",
        "source_team": "TUU48M0T1",
        "user_profile": {
            "avatar_hash": "1e73a651bdfe",
            "image_72": "https:\/\/avatars.slack-edge.com\/2020-03-16\/1004297548853_1e73a651bdfef2c41501_72.jpg",
            "first_name": "Marc",
            "real_name": "Marc Santolini",
            "display_name": "Marc Santolini - JOGL CoFounder \/ CSO",
            "team": "TUU48M0T1",
            "name": "marc.santolini",
            "is_restricted": false,
            "is_ultra_restricted": false
        },
        "blocks": [
            {
                "type": "rich_text",
                "block_id": "Q2Z",
                "elements": [
                    {
                        "type": "rich_text_section",
                        "elements": [
                            {
                                "type": "text",
                                "text": "awesome"
                            }
                        ]
                    }
                ]
            }
        ]
    },
    {
        "client_msg_id": "9497edce-77bd-40cd-8e22-5de3d89646ec",
        "type": "message",
        "text": "<@UVC9WMA7N> <@U010734498S> <@U01113Y1PLP> we will meet here in 30 min <https:\/\/meet.learning-planet.org\/Nties>",
        "user": "UV85V64SD",
        "ts": "1585573375.026700",
        "team": "TUU48M0T1",
        "user_team": "TUU48M0T1",
        "source_team": "TUU48M0T1",
        "user_profile": {
            "avatar_hash": "1e73a651bdfe",
            "image_72": "https:\/\/avatars.slack-edge.com\/2020-03-16\/1004297548853_1e73a651bdfef2c41501_72.jpg",
            "first_name": "Marc",
            "real_name": "Marc Santolini",
            "display_name": "Marc Santolini - JOGL CoFounder \/ CSO",
            "team": "TUU48M0T1",
            "name": "marc.santolini",
            "is_restricted": false,
            "is_ultra_restricted": false
        },
        "attachments": [
            {
                "title": "Jitsi Meet",
                "title_link": "https:\/\/meet.learning-planet.org\/Nties",
                "text": "Join a WebRTC video conference powered by the Jitsi Videobridge",
                "fallback": "Jitsi Meet",
                "from_url": "https:\/\/meet.learning-planet.org\/Nties",
                "service_icon": "https:\/\/meet.learning-planet.org\/images\/apple-touch-icon.png",
                "service_name": "meet.learning-planet.org",
                "id": 1,
                "original_url": "https:\/\/meet.learning-planet.org\/Nties"
            }
        ],
        "blocks": [
            {
                "type": "rich_text",
                "block_id": "SCcq",
                "elements": [
                    {
                        "type": "rich_text_section",
                        "elements": [
                            {
                                "type": "user",
                                "user_id": "UVC9WMA7N"
                            },
                            {
                                "type": "text",
                                "text": " "
                            },
                            {
                                "type": "user",
                                "user_id": "U010734498S"
                            },
                            {
                                "type": "text",
                                "text": " "
                            },
                            {
                                "type": "user",
                                "user_id": "U01113Y1PLP"
                            },
                            {
                                "type": "text",
                                "text": " we will meet here in 30 min "
                            },
                            {
                                "type": "link",
                                "url": "https:\/\/meet.learning-planet.org\/Nties"
                            }
                        ]
                    }
                ]
            }
        ],
        "reactions": [
            {
                "name": "pray",
                "users": [
                    "U01113Y1PLP"
                ],
                "count": 1
            }
        ]
    },
    {
        "client_msg_id": "121fa358-3335-4808-8c42-fae7c59622fc",
        "type": "message",
        "text": "also <@U010RE1NDCG> if you’re interested",
        "user": "UV85V64SD",
        "ts": "1585573509.027100",
        "team": "TUU48M0T1",
        "user_team": "TUU48M0T1",
        "source_team": "TUU48M0T1",
        "user_profile": {
            "avatar_hash": "1e73a651bdfe",
            "image_72": "https:\/\/avatars.slack-edge.com\/2020-03-16\/1004297548853_1e73a651bdfef2c41501_72.jpg",
            "first_name": "Marc",
            "real_name": "Marc Santolini",
            "display_name": "Marc Santolini - JOGL CoFounder \/ CSO",
            "team": "TUU48M0T1",
            "name": "marc.santolini",
            "is_restricted": false,
            "is_ultra_restricted": false
        },
        "blocks": [
            {
                "type": "rich_text",
                "block_id": "DIos",
                "elements": [
                    {
                        "type": "rich_text_section",
                        "elements": [
                            {
                                "type": "text",
                                "text": "also "
                            },
                            {
                                "type": "user",
                                "user_id": "U010RE1NDCG"
                            },
                            {
                                "type": "text",
                                "text": " if you’re interested"
                            }
                        ]
                    }
                ]
            }
        ]
    },
    {
        "client_msg_id": "4d1c54e0-346c-4e8f-b4ea-b26bf49daee4",
        "type": "message",
        "text": "moved there <https:\/\/zoom.us\/j\/725740605?pwd=NGxVZ2FOMWhDY3JTWUhlaUlJdm1TZz09>",
        "user": "UV85V64SD",
        "ts": "1585575432.027600",
        "team": "TUU48M0T1",
        "user_team": "TUU48M0T1",
        "source_team": "TUU48M0T1",
        "user_profile": {
            "avatar_hash": "1e73a651bdfe",
            "image_72": "https:\/\/avatars.slack-edge.com\/2020-03-16\/1004297548853_1e73a651bdfef2c41501_72.jpg",
            "first_name": "Marc",
            "real_name": "Marc Santolini",
            "display_name": "Marc Santolini - JOGL CoFounder \/ CSO",
            "team": "TUU48M0T1",
            "name": "marc.santolini",
            "is_restricted": false,
            "is_ultra_restricted": false
        },
        "blocks": [
            {
                "type": "rich_text",
                "block_id": "Qo\/1w",
                "elements": [
                    {
                        "type": "rich_text_section",
                        "elements": [
                            {
                                "type": "text",
                                "text": "moved there "
                            },
                            {
                                "type": "link",
                                "url": "https:\/\/zoom.us\/j\/725740605?pwd=NGxVZ2FOMWhDY3JTWUhlaUlJdm1TZz09"
                            }
                        ]
                    }
                ]
            }
        ]
    },
    {
        "client_msg_id": "3b5e6a2f-16a0-4406-af7b-481458a06304",
        "type": "message",
        "text": "It's asking for a password ?",
        "user": "U01113Y1PLP",
        "ts": "1585575433.027700",
        "team": "TUU48M0T1",
        "user_team": "TUU48M0T1",
        "source_team": "TUU48M0T1",
        "user_profile": {
            "avatar_hash": "09f91663be3c",
            "image_72": "https:\/\/avatars.slack-edge.com\/2020-03-28\/1033063469301_09f91663be3c4c21e257_72.png",
            "first_name": "Luis",
            "real_name": "Luis Arias",
            "display_name": "Luis Arias",
            "team": "TUU48M0T1",
            "name": "luis603",
            "is_restricted": false,
            "is_ultra_restricted": false
        },
        "blocks": [
            {
                "type": "rich_text",
                "block_id": "fHgP+",
                "elements": [
                    {
                        "type": "rich_text_section",
                        "elements": [
                            {
                                "type": "text",
                                "text": "It's asking for a password ?"
                            }
                        ]
                    }
                ]
            }
        ]
    },
    {
        "client_msg_id": "906513a4-8797-41b6-bb89-745801d5c7c2",
        "type": "message",
        "text": "thanks",
        "user": "U01113Y1PLP",
        "ts": "1585575479.027900",
        "team": "TUU48M0T1",
        "user_team": "TUU48M0T1",
        "source_team": "TUU48M0T1",
        "user_profile": {
            "avatar_hash": "09f91663be3c",
            "image_72": "https:\/\/avatars.slack-edge.com\/2020-03-28\/1033063469301_09f91663be3c4c21e257_72.png",
            "first_name": "Luis",
            "real_name": "Luis Arias",
            "display_name": "Luis Arias",
            "team": "TUU48M0T1",
            "name": "luis603",
            "is_restricted": false,
            "is_ultra_restricted": false
        },
        "blocks": [
            {
                "type": "rich_text",
                "block_id": "QjePl",
                "elements": [
                    {
                        "type": "rich_text_section",
                        "elements": [
                            {
                                "type": "text",
                                "text": "thanks"
                            }
                        ]
                    }
                ]
            }
        ]
    },
    {
        "client_msg_id": "5b022900-6e38-48fa-85c9-3ad9daf4f2bf",
        "type": "message",
        "text": "<@U010734498S> <https:\/\/zoom.us\/j\/725740605?pwd=NGxVZ2FOMWhDY3JTWUhlaUlJdm1TZz09>",
        "user": "UV85V64SD",
        "ts": "1585575507.028100",
        "team": "TUU48M0T1",
        "user_team": "TUU48M0T1",
        "source_team": "TUU48M0T1",
        "user_profile": {
            "avatar_hash": "1e73a651bdfe",
            "image_72": "https:\/\/avatars.slack-edge.com\/2020-03-16\/1004297548853_1e73a651bdfef2c41501_72.jpg",
            "first_name": "Marc",
            "real_name": "Marc Santolini",
            "display_name": "Marc Santolini - JOGL CoFounder \/ CSO",
            "team": "TUU48M0T1",
            "name": "marc.santolini",
            "is_restricted": false,
            "is_ultra_restricted": false
        },
        "blocks": [
            {
                "type": "rich_text",
                "block_id": "rjbd7",
                "elements": [
                    {
                        "type": "rich_text_section",
                        "elements": [
                            {
                                "type": "user",
                                "user_id": "U010734498S"
                            },
                            {
                                "type": "text",
                                "text": " "
                            },
                            {
                                "type": "link",
                                "url": "https:\/\/zoom.us\/j\/725740605?pwd=NGxVZ2FOMWhDY3JTWUhlaUlJdm1TZz09"
                            }
                        ]
                    }
                ]
            }
        ]
    },
    {
        "client_msg_id": "821ae092-ff9b-42bb-b818-0fa46e475049",
        "type": "message",
        "text": "495 329 921",
        "user": "U010734498S",
        "ts": "1585575609.028300",
        "team": "TUU48M0T1",
        "user_team": "TUU48M0T1",
        "source_team": "TUU48M0T1",
        "user_profile": {
            "avatar_hash": "g85cae5734da",
            "image_72": "https:\/\/secure.gravatar.com\/avatar\/85cae5734dae69539dca99aa96ef691f.jpg?s=72&d=https%3A%2F%2Fa.slack-edge.com%2Fdf10d%2Fimg%2Favatars%2Fava_0011-72.png",
            "first_name": "",
            "real_name": "pedro ramaciotti",
            "display_name": "pedro ramaciotti",
            "team": "TUU48M0T1",
            "name": "pedro.ramaciotti",
            "is_restricted": false,
            "is_ultra_restricted": false
        },
        "blocks": [
            {
                "type": "rich_text",
                "block_id": "xq61",
                "elements": [
                    {
                        "type": "rich_text_section",
                        "elements": [
                            {
                                "type": "text",
                                "text": "495 329 921"
                            }
                        ]
                    }
                ]
            }
        ]
    },
    {
        "client_msg_id": "37a2144a-88fe-442c-bd82-d75c1e396464",
        "type": "message",
        "text": "the other one had a password, we are here: 495 329 921",
        "user": "U010734498S",
        "ts": "1585575631.028600",
        "team": "TUU48M0T1",
        "user_team": "TUU48M0T1",
        "source_team": "TUU48M0T1",
        "user_profile": {
            "avatar_hash": "g85cae5734da",
            "image_72": "https:\/\/secure.gravatar.com\/avatar\/85cae5734dae69539dca99aa96ef691f.jpg?s=72&d=https%3A%2F%2Fa.slack-edge.com%2Fdf10d%2Fimg%2Favatars%2Fava_0011-72.png",
            "first_name": "",
            "real_name": "pedro ramaciotti",
            "display_name": "pedro ramaciotti",
            "team": "TUU48M0T1",
            "name": "pedro.ramaciotti",
            "is_restricted": false,
            "is_ultra_restricted": false
        },
        "blocks": [
            {
                "type": "rich_text",
                "block_id": "qE4RV",
                "elements": [
                    {
                        "type": "rich_text_section",
                        "elements": [
                            {
                                "type": "text",
                                "text": "the other one had a password, we are here: 495 329 921"
                            }
                        ]
                    }
                ]
            }
        ]
    },
    {
        "client_msg_id": "673a445b-a41a-4586-af0c-653dfb9966de",
        "type": "message",
        "text": "<mailto:luis@inclusif.ai|luis@inclusif.ai>",
        "user": "U01113Y1PLP",
        "ts": "1585578664.028900",
        "team": "TUU48M0T1",
        "user_team": "TUU48M0T1",
        "source_team": "TUU48M0T1",
        "user_profile": {
            "avatar_hash": "09f91663be3c",
            "image_72": "https:\/\/avatars.slack-edge.com\/2020-03-28\/1033063469301_09f91663be3c4c21e257_72.png",
            "first_name": "Luis",
            "real_name": "Luis Arias",
            "display_name": "Luis Arias",
            "team": "TUU48M0T1",
            "name": "luis603",
            "is_restricted": false,
            "is_ultra_restricted": false
        },
        "blocks": [
            {
                "type": "rich_text",
                "block_id": "2387",
                "elements": [
                    {
                        "type": "rich_text_section",
                        "elements": [
                            {
                                "type": "link",
                                "url": "mailto:luis@inclusif.ai",
                                "text": "luis@inclusif.ai"
                            }
                        ]
                    }
                ]
            }
        ]
    },
    {
        "client_msg_id": "875b2d70-9132-431e-9731-ba7852f1c1bd",
        "type": "message",
        "text": "note to self\n<https:\/\/dgraph.io\/blog\/post\/recommendation\/>",
        "user": "UVC9WMA7N",
        "ts": "1585601918.029100",
        "team": "TUU48M0T1",
        "user_team": "TUU48M0T1",
        "source_team": "TUU48M0T1",
        "user_profile": {
            "avatar_hash": "56d14d58ed53",
            "image_72": "https:\/\/avatars.slack-edge.com\/2020-03-13\/998337892660_56d14d58ed537e6e4654_72.png",
            "first_name": "Leo",
            "real_name": "Leo Blondel",
            "display_name": "Leo Blondel - JOGL CoFounder \/ CTO",
            "team": "TUU48M0T1",
            "name": "leo",
            "is_restricted": false,
            "is_ultra_restricted": false
        },
        "attachments": [
            {
                "title": "Build a Realtime Recommendation Engine: Part 1 - Dgraph Blog",
                "title_link": "https:\/\/dgraph.io\/blog\/post\/recommendation\/",
                "text": "Preface In today's world, user experience is paramount. It's no longer about basic CRUD, just serving user data; it's about mining the data to generate interesting predictions and suggesting actions to the user. That's the field of recommendations. They're everywhere. In fact, they happen so frequently that you don't even realize them. You wake up and open Facebook, which shows you a feed of articles that it has chosen for you based on your viewing history.",
                "fallback": "Build a Realtime Recommendation Engine: Part 1 - Dgraph Blog",
                "image_url": "https:\/\/dgraph.io\/blog\/images\/falcon.png",
                "from_url": "https:\/\/dgraph.io\/blog\/post\/recommendation\/",
                "image_width": 375,
                "image_height": 250,
                "image_bytes": 105736,
                "service_icon": "https:\/\/dgraph.io\/favicon.ico",
                "service_name": "dgraph.io",
                "id": 1,
                "original_url": "https:\/\/dgraph.io\/blog\/post\/recommendation\/"
            }
        ],
        "blocks": [
            {
                "type": "rich_text",
                "block_id": "8yVZ",
                "elements": [
                    {
                        "type": "rich_text_section",
                        "elements": [
                            {
                                "type": "text",
                                "text": "note to self\n"
                            },
                            {
                                "type": "link",
                                "url": "https:\/\/dgraph.io\/blog\/post\/recommendation\/"
                            }
                        ]
                    }
                ]
            }
        ],
        "thread_ts": "1585601918.029100",
        "reply_count": 5,
        "reply_users_count": 3,
        "latest_reply": "1585646848.035100",
        "reply_users": [
            "UVC9WMA7N",
            "U01113Y1PLP",
            "U010734498S"
        ],
        "replies": [
            {
                "user": "UVC9WMA7N",
                "ts": "1585601957.029400"
            },
            {
                "user": "U01113Y1PLP",
                "ts": "1585640032.029600"
            },
            {
                "user": "U010734498S",
                "ts": "1585642130.029800"
            },
            {
                "user": "U01113Y1PLP",
                "ts": "1585643364.030000"
            },
            {
                "user": "UVC9WMA7N",
                "ts": "1585646848.035100"
            }
        ],
        "subscribed": false
    },
    {
        "client_msg_id": "99323f4b-af8b-402e-8ce5-9c09db1fa47d",
        "type": "message",
        "text": "but probably of interest to <@U01113Y1PLP> et <@U010734498S>",
        "user": "UVC9WMA7N",
        "ts": "1585601957.029400",
        "team": "TUU48M0T1",
        "user_team": "TUU48M0T1",
        "source_team": "TUU48M0T1",
        "user_profile": {
            "avatar_hash": "56d14d58ed53",
            "image_72": "https:\/\/avatars.slack-edge.com\/2020-03-13\/998337892660_56d14d58ed537e6e4654_72.png",
            "first_name": "Leo",
            "real_name": "Leo Blondel",
            "display_name": "Leo Blondel - JOGL CoFounder \/ CTO",
            "team": "TUU48M0T1",
            "name": "leo",
            "is_restricted": false,
            "is_ultra_restricted": false
        },
        "blocks": [
            {
                "type": "rich_text",
                "block_id": "RIp",
                "elements": [
                    {
                        "type": "rich_text_section",
                        "elements": [
                            {
                                "type": "text",
                                "text": "but probably of interest to "
                            },
                            {
                                "type": "user",
                                "user_id": "U01113Y1PLP"
                            },
                            {
                                "type": "text",
                                "text": " et "
                            },
                            {
                                "type": "user",
                                "user_id": "U010734498S"
                            }
                        ]
                    }
                ]
            }
        ],
        "thread_ts": "1585601918.029100",
        "parent_user_id": "UVC9WMA7N"
    }
]