[
    {
        "type": "message",
        "subtype": "bot_message",
        "text": "Annyeong <@U011C3EAHLP> :flag-kr:",
        "ts": "1586420166.418500",
        "username": "GreetBot",
        "bot_id": "B0100JVEKUG"
    },
    {
        "type": "message",
        "subtype": "bot_message",
        "text": "Olá <@U011RGC6KQR> :flag-pt:",
        "ts": "1586422589.418700",
        "username": "GreetBot",
        "bot_id": "B0100JVEKUG"
    },
    {
        "client_msg_id": "5cb61956-3fed-43d3-b190-33ee7e479c85",
        "type": "message",
        "text": "Yes <@U0117K7SDK4> and you can present your project at the next community call next Wednesday? Also if you have your project on JOGL you can add it to the data challenge! <https:\/\/app.jogl.io\/challenge\/opencovid19-data>",
        "user": "UV85V64SD",
        "ts": "1586422616.418800",
        "team": "TUU48M0T1",
        "user_team": "TUU48M0T1",
        "source_team": "TUU48M0T1",
        "user_profile": {
            "avatar_hash": "1e73a651bdfe",
            "image_72": "https:\/\/avatars.slack-edge.com\/2020-03-16\/1004297548853_1e73a651bdfef2c41501_72.jpg",
            "first_name": "Marc",
            "real_name": "Marc Santolini",
            "display_name": "Marc Santolini - JOGL CoFounder \/ CSO",
            "team": "TUU48M0T1",
            "name": "marc.santolini",
            "is_restricted": false,
            "is_ultra_restricted": false
        },
        "attachments": [
            {
                "title": "JOGL - Just One Giant Lab",
                "title_link": "https:\/\/app.jogl.io\/challenge\/opencovid19-data",
                "text": "JOGL helps sync humanity onto solving our most important social &amp; environmental problems using open science, responsible innovation &amp; continuous learning.",
                "fallback": "JOGL - Just One Giant Lab",
                "thumb_url": "https:\/\/app.jogl.io\/planet.jpg",
                "from_url": "https:\/\/app.jogl.io\/challenge\/opencovid19-data",
                "thumb_width": 2049,
                "thumb_height": 1011,
                "service_icon": "https:\/\/app.jogl.io\/favicon.ico",
                "service_name": "app.jogl.io",
                "id": 1,
                "original_url": "https:\/\/app.jogl.io\/challenge\/opencovid19-data"
            }
        ],
        "blocks": [
            {
                "type": "rich_text",
                "block_id": "9e5\/=",
                "elements": [
                    {
                        "type": "rich_text_section",
                        "elements": [
                            {
                                "type": "text",
                                "text": "Yes "
                            },
                            {
                                "type": "user",
                                "user_id": "U0117K7SDK4"
                            },
                            {
                                "type": "text",
                                "text": " and you can present your project at the next community call next Wednesday? Also if you have your project on JOGL you can add it to the data challenge! "
                            },
                            {
                                "type": "link",
                                "url": "https:\/\/app.jogl.io\/challenge\/opencovid19-data"
                            }
                        ]
                    }
                ]
            }
        ],
        "thread_ts": "1586363116.405100"
    },
    {
        "type": "message",
        "subtype": "bot_message",
        "text": "Sawadi Kap <@U011HC28YH4> :flag-th:",
        "ts": "1586422776.419200",
        "username": "GreetBot",
        "bot_id": "B0100JVEKUG"
    },
    {
        "client_msg_id": "3FA30733-23CB-4F45-9ECF-C4B623ABFA18",
        "type": "message",
        "text": "Hi Yannis, welcome :) \nWe have several initiatives on diagnostics. You can start by joining these channels: <#C0103J8NF46|chlg-detection-diagnostic> <#C010S1VPLQM|proj-neb-lamp-test> <#C010MRZM95Z|proj-cellfree>",
        "user": "UV02WET96",
        "ts": "1586425548.421200",
        "team": "TUU48M0T1",
        "user_team": "TUU48M0T1",
        "source_team": "TUU48M0T1",
        "user_profile": {
            "avatar_hash": "a99c74a194f8",
            "image_72": "https:\/\/avatars.slack-edge.com\/2020-03-07\/975708504851_a99c74a194f86715ca7d_72.png",
            "first_name": "Thomas",
            "real_name": "Thomas Landrain",
            "display_name": "Thomas Landrain - JOGL CoFounder \/ CEO",
            "team": "TUU48M0T1",
            "name": "thomas",
            "is_restricted": false,
            "is_ultra_restricted": false
        },
        "blocks": [
            {
                "type": "rich_text",
                "block_id": "Wl24",
                "elements": [
                    {
                        "type": "rich_text_section",
                        "elements": [
                            {
                                "type": "text",
                                "text": "Hi Yannis, welcome :) \nWe have several initiatives on diagnostics. You can start by joining these channels: "
                            },
                            {
                                "type": "channel",
                                "channel_id": "C0103J8NF46"
                            },
                            {
                                "type": "text",
                                "text": " "
                            },
                            {
                                "type": "channel",
                                "channel_id": "C010S1VPLQM"
                            },
                            {
                                "type": "text",
                                "text": " "
                            },
                            {
                                "type": "channel",
                                "channel_id": "C010MRZM95Z"
                            }
                        ]
                    }
                ]
            }
        ],
        "thread_ts": "1586386344.416700",
        "parent_user_id": "U011BJWBFDM",
        "reactions": [
            {
                "name": "+1",
                "users": [
                    "U011BJWBFDM"
                ],
                "count": 1
            }
        ]
    },
    {
        "type": "message",
        "subtype": "bot_message",
        "text": "Ohayo <@U011R2UV0VA> :flag-jp:",
        "ts": "1586425676.423300",
        "username": "GreetBot",
        "bot_id": "B0100JVEKUG"
    },
    {
        "client_msg_id": "9EF7D8FB-31BC-4735-AAE4-217239791B6F",
        "type": "message",
        "text": "Hi Adrian, try as much to use the thread mode when replying to someone, it keeps the feed cleaner :) \nAlso, use when possible a link to a JOGL project page instead of an external one. \nThanks!:pray:",
        "user": "UV02WET96",
        "ts": "1586425700.423800",
        "team": "TUU48M0T1",
        "user_team": "TUU48M0T1",
        "source_team": "TUU48M0T1",
        "user_profile": {
            "avatar_hash": "a99c74a194f8",
            "image_72": "https:\/\/avatars.slack-edge.com\/2020-03-07\/975708504851_a99c74a194f86715ca7d_72.png",
            "first_name": "Thomas",
            "real_name": "Thomas Landrain",
            "display_name": "Thomas Landrain - JOGL CoFounder \/ CEO",
            "team": "TUU48M0T1",
            "name": "thomas",
            "is_restricted": false,
            "is_ultra_restricted": false
        },
        "blocks": [
            {
                "type": "rich_text",
                "block_id": "x3Ol4",
                "elements": [
                    {
                        "type": "rich_text_section",
                        "elements": [
                            {
                                "type": "text",
                                "text": "Hi Adrian, try as much to use the thread mode when replying to someone, it keeps the feed cleaner :) \nAlso, use when possible a link to a JOGL project page instead of an external one. \nThanks!"
                            },
                            {
                                "type": "emoji",
                                "name": "pray"
                            }
                        ]
                    }
                ]
            }
        ],
        "thread_ts": "1586396674.417700",
        "parent_user_id": "U0103SR759U"
    },
    {
        "client_msg_id": "6820bf6b-d7d9-4a9d-8827-1b361354fc72",
        "type": "message",
        "text": "Hi Everyone - Amish here. Glad to be part of the conversation",
        "user": "U011RGC6KQR",
        "ts": "1586426767.424300",
        "team": "TUU48M0T1",
        "user_team": "TUU48M0T1",
        "source_team": "TUU48M0T1",
        "user_profile": {
            "avatar_hash": "89c8b75f8dbd",
            "image_72": "https:\/\/avatars.slack-edge.com\/2020-04-24\/1081532827509_89c8b75f8dbd1f35ff15_72.png",
            "first_name": "Amish",
            "real_name": "Amish Chadha",
            "display_name": "amish",
            "team": "TUU48M0T1",
            "name": "amish",
            "is_restricted": false,
            "is_ultra_restricted": false
        },
        "blocks": [
            {
                "type": "rich_text",
                "block_id": "7ppo9",
                "elements": [
                    {
                        "type": "rich_text_section",
                        "elements": [
                            {
                                "type": "text",
                                "text": "Hi Everyone - Amish here. Glad to be part of the conversation"
                            }
                        ]
                    }
                ]
            }
        ]
    },
    {
        "client_msg_id": "a22208e7-b20e-4147-98c2-2d03881190d5",
        "type": "message",
        "text": "Thanks Adrian! I will give it a look right away. Sounds very interesting.",
        "user": "U011BJWBFDM",
        "ts": "1586431979.424500",
        "team": "TUU48M0T1",
        "user_team": "TUU48M0T1",
        "source_team": "TUU48M0T1",
        "user_profile": {
            "avatar_hash": "1c121f4c84c8",
            "image_72": "https:\/\/avatars.slack-edge.com\/2020-04-08\/1054543351585_1c121f4c84c870a82e1f_72.jpg",
            "first_name": "",
            "real_name": "Yannis Ntekas",
            "display_name": "Yannis Ntekas",
            "team": "TUU48M0T1",
            "name": "ntekasi",
            "is_restricted": false,
            "is_ultra_restricted": false
        },
        "blocks": [
            {
                "type": "rich_text",
                "block_id": "WOgsr",
                "elements": [
                    {
                        "type": "rich_text_section",
                        "elements": [
                            {
                                "type": "text",
                                "text": "Thanks Adrian! I will give it a look right away. Sounds very interesting."
                            }
                        ]
                    }
                ]
            }
        ],
        "thread_ts": "1586396674.417700",
        "parent_user_id": "U0103SR759U"
    },
    {
        "type": "message",
        "subtype": "bot_message",
        "text": "Nǐ hǎo <@U011HRHA659> :flag-cn:",
        "ts": "1586437861.425000",
        "username": "GreetBot",
        "bot_id": "B0100JVEKUG"
    },
    {
        "type": "message",
        "subtype": "bot_message",
        "text": "Bonjour <@U011HLQ3NH4> :flag-fr:",
        "ts": "1586442641.425200",
        "username": "GreetBot",
        "bot_id": "B0100JVEKUG"
    },
    {
        "type": "message",
        "subtype": "bot_message",
        "text": "Marhaba <@U011KLG0UNP> :flag-eg:",
        "ts": "1586475587.425500",
        "username": "GreetBot",
        "bot_id": "B0100JVEKUG"
    },
    {
        "type": "message",
        "subtype": "bot_message",
        "text": "Guten tag <@U0125K6US3A> :flag-de:",
        "ts": "1586486976.425700",
        "username": "GreetBot",
        "bot_id": "B0100JVEKUG"
    }
]