[
    {
        "client_msg_id": "60a10c7d-32d5-439b-8ded-95d1f9a6cc51",
        "type": "message",
        "text": ":wave:Hi new members!\n\nWe’ll be hosting a new member welcome call this week on *Thursday May 14th at 5pm UTC* to answer your on-boarding questions and help you find your place in our community.\nWelcome calls are a great way to meet new members!\n\n:point_right:*Please RSVP using this form: <https:\/\/forms.gle\/2knwTs8kvtXjfjap9>* :point_left:\n\n_Tagging all new members for the last 2 weeks:_\n<@U01393EMNDN> <@U012HT7UUSH> <@U012JRY6FDG> <@U012M79TM9Q> <@U0127ERKYTH> <@U0132G0EHNV> <@U010ZKWTTKJ> <@U013ED82H16> <@U012R8TDBGT> <@U012AKH7763> <@U012K7JSL7Q> <@U012Y8AJMBN> <@U0134PD5AMP> <@U012YDF5XEG> <@U012R3F0PBP> <@U012SNWMF7U> <@U012SQJGMGS> <@U012RP2DPB7> <@U012ZLAE5MJ> <@U012N7J908N> <@U012E8S1QQP> <@U012NFJCJ06> <@U012NGSRWA2> <@U012NQ4TUB0> <@U012KS8N6KF> <@U013L0VS472> <@U01393AJ9BK> <@U012QAY466A> <@U0133953ZK6> <@U012XFWCW3D> <@U01342HB9QU> <@U012XSSRE82> <@U01342HB9QU> <@U012H74ACEB> <@U012H7EE0QP> <@U013MQJEQP2> <@U012WMQ0AE9> <@U012Z5VG6R1> <@U013NQG86SC> <@U01319FQPUL> <@U0131T9QYKD> <@U012XSPFCGK> <@U013EQ95FNV> <@U012AKH7763> <@U012MMGH7L7> <@U0133SXG9M3> <@U01359A5LCA> <@U0137HD742Y> <@U0137JZSFBP> <@U012W728FE3> <@U013H7V0RQC> <@U013HD5P5NY> <@U013D18970T>",
        "user": "U011B6VLM2A",
        "ts": "1589193322.132100",
        "team": "TUU48M0T1",
        "user_team": "TUU48M0T1",
        "source_team": "TUU48M0T1",
        "user_profile": {
            "avatar_hash": "4231dc598cfc",
            "image_72": "https:\/\/avatars.slack-edge.com\/2020-04-02\/1044784558839_4231dc598cfc2e59c4c4_72.jpg",
            "first_name": "Alix",
            "real_name": "Alix Mains",
            "display_name": "Alix Mains - JOGL Coordinator",
            "team": "TUU48M0T1",
            "name": "alixhmains",
            "is_restricted": false,
            "is_ultra_restricted": false
        },
        "edited": {
            "user": "U011B6VLM2A",
            "ts": "1589196370.000000"
        },
        "blocks": [
            {
                "type": "rich_text",
                "block_id": "1EWM",
                "elements": [
                    {
                        "type": "rich_text_section",
                        "elements": [
                            {
                                "type": "emoji",
                                "name": "wave"
                            },
                            {
                                "type": "text",
                                "text": "Hi new members!\n\nWe’ll be hosting a new member welcome call this week on "
                            },
                            {
                                "type": "text",
                                "text": "Thursday May 14th at 5pm UTC ",
                                "style": {
                                    "bold": true
                                }
                            },
                            {
                                "type": "text",
                                "text": "to answer your on-boarding questions and help you find your place in our community.\nWelcome calls are a great way to meet new members!\n\n"
                            },
                            {
                                "type": "emoji",
                                "name": "point_right",
                                "style": {
                                    "bold": true
                                }
                            },
                            {
                                "type": "text",
                                "text": "Please RSVP using this form: ",
                                "style": {
                                    "bold": true
                                }
                            },
                            {
                                "type": "link",
                                "url": "https:\/\/forms.gle\/2knwTs8kvtXjfjap9",
                                "style": {
                                    "bold": true
                                }
                            },
                            {
                                "type": "text",
                                "text": " ",
                                "style": {
                                    "bold": true
                                }
                            },
                            {
                                "type": "emoji",
                                "name": "point_left",
                                "style": {
                                    "bold": true
                                }
                            },
                            {
                                "type": "text",
                                "text": "\n\n"
                            },
                            {
                                "type": "text",
                                "text": "Tagging all new members for the last 2 weeks:",
                                "style": {
                                    "italic": true
                                }
                            },
                            {
                                "type": "text",
                                "text": "\n"
                            },
                            {
                                "type": "user",
                                "user_id": "U01393EMNDN"
                            },
                            {
                                "type": "text",
                                "text": " "
                            },
                            {
                                "type": "user",
                                "user_id": "U012HT7UUSH"
                            },
                            {
                                "type": "text",
                                "text": " "
                            },
                            {
                                "type": "user",
                                "user_id": "U012JRY6FDG"
                            },
                            {
                                "type": "text",
                                "text": " "
                            },
                            {
                                "type": "user",
                                "user_id": "U012M79TM9Q"
                            },
                            {
                                "type": "text",
                                "text": " "
                            },
                            {
                                "type": "user",
                                "user_id": "U0127ERKYTH"
                            },
                            {
                                "type": "text",
                                "text": " "
                            },
                            {
                                "type": "user",
                                "user_id": "U0132G0EHNV"
                            },
                            {
                                "type": "text",
                                "text": " "
                            },
                            {
                                "type": "user",
                                "user_id": "U010ZKWTTKJ"
                            },
                            {
                                "type": "text",
                                "text": " "
                            },
                            {
                                "type": "user",
                                "user_id": "U013ED82H16"
                            },
                            {
                                "type": "text",
                                "text": " "
                            },
                            {
                                "type": "user",
                                "user_id": "U012R8TDBGT"
                            },
                            {
                                "type": "text",
                                "text": " "
                            },
                            {
                                "type": "user",
                                "user_id": "U012AKH7763"
                            },
                            {
                                "type": "text",
                                "text": " "
                            },
                            {
                                "type": "user",
                                "user_id": "U012K7JSL7Q"
                            },
                            {
                                "type": "text",
                                "text": " "
                            },
                            {
                                "type": "user",
                                "user_id": "U012Y8AJMBN"
                            },
                            {
                                "type": "text",
                                "text": " "
                            },
                            {
                                "type": "user",
                                "user_id": "U0134PD5AMP"
                            },
                            {
                                "type": "text",
                                "text": " "
                            },
                            {
                                "type": "user",
                                "user_id": "U012YDF5XEG"
                            },
                            {
                                "type": "text",
                                "text": " "
                            },
                            {
                                "type": "user",
                                "user_id": "U012R3F0PBP"
                            },
                            {
                                "type": "text",
                                "text": " "
                            },
                            {
                                "type": "user",
                                "user_id": "U012SNWMF7U"
                            },
                            {
                                "type": "text",
                                "text": " "
                            },
                            {
                                "type": "user",
                                "user_id": "U012SQJGMGS"
                            },
                            {
                                "type": "text",
                                "text": " "
                            },
                            {
                                "type": "user",
                                "user_id": "U012RP2DPB7"
                            },
                            {
                                "type": "text",
                                "text": " "
                            },
                            {
                                "type": "user",
                                "user_id": "U012ZLAE5MJ"
                            },
                            {
                                "type": "text",
                                "text": " "
                            },
                            {
                                "type": "user",
                                "user_id": "U012N7J908N"
                            },
                            {
                                "type": "text",
                                "text": " "
                            },
                            {
                                "type": "user",
                                "user_id": "U012E8S1QQP"
                            },
                            {
                                "type": "text",
                                "text": " "
                            },
                            {
                                "type": "user",
                                "user_id": "U012NFJCJ06"
                            },
                            {
                                "type": "text",
                                "text": " "
                            },
                            {
                                "type": "user",
                                "user_id": "U012NGSRWA2"
                            },
                            {
                                "type": "text",
                                "text": " "
                            },
                            {
                                "type": "user",
                                "user_id": "U012NQ4TUB0"
                            },
                            {
                                "type": "text",
                                "text": " "
                            },
                            {
                                "type": "user",
                                "user_id": "U012KS8N6KF"
                            },
                            {
                                "type": "text",
                                "text": " "
                            },
                            {
                                "type": "user",
                                "user_id": "U013L0VS472"
                            },
                            {
                                "type": "text",
                                "text": " "
                            },
                            {
                                "type": "user",
                                "user_id": "U01393AJ9BK"
                            },
                            {
                                "type": "text",
                                "text": " "
                            },
                            {
                                "type": "user",
                                "user_id": "U012QAY466A"
                            },
                            {
                                "type": "text",
                                "text": " "
                            },
                            {
                                "type": "user",
                                "user_id": "U0133953ZK6"
                            },
                            {
                                "type": "text",
                                "text": " "
                            },
                            {
                                "type": "user",
                                "user_id": "U012XFWCW3D"
                            },
                            {
                                "type": "text",
                                "text": " "
                            },
                            {
                                "type": "user",
                                "user_id": "U01342HB9QU"
                            },
                            {
                                "type": "text",
                                "text": " "
                            },
                            {
                                "type": "user",
                                "user_id": "U012XSSRE82"
                            },
                            {
                                "type": "text",
                                "text": " "
                            },
                            {
                                "type": "user",
                                "user_id": "U01342HB9QU"
                            },
                            {
                                "type": "text",
                                "text": " "
                            },
                            {
                                "type": "user",
                                "user_id": "U012H74ACEB"
                            },
                            {
                                "type": "text",
                                "text": " "
                            },
                            {
                                "type": "user",
                                "user_id": "U012H7EE0QP"
                            },
                            {
                                "type": "text",
                                "text": " "
                            },
                            {
                                "type": "user",
                                "user_id": "U013MQJEQP2"
                            },
                            {
                                "type": "text",
                                "text": " "
                            },
                            {
                                "type": "user",
                                "user_id": "U012WMQ0AE9"
                            },
                            {
                                "type": "text",
                                "text": " "
                            },
                            {
                                "type": "user",
                                "user_id": "U012Z5VG6R1"
                            },
                            {
                                "type": "text",
                                "text": " "
                            },
                            {
                                "type": "user",
                                "user_id": "U013NQG86SC"
                            },
                            {
                                "type": "text",
                                "text": " "
                            },
                            {
                                "type": "user",
                                "user_id": "U01319FQPUL"
                            },
                            {
                                "type": "text",
                                "text": " "
                            },
                            {
                                "type": "user",
                                "user_id": "U0131T9QYKD"
                            },
                            {
                                "type": "text",
                                "text": " "
                            },
                            {
                                "type": "user",
                                "user_id": "U012XSPFCGK"
                            },
                            {
                                "type": "text",
                                "text": " "
                            },
                            {
                                "type": "user",
                                "user_id": "U013EQ95FNV"
                            },
                            {
                                "type": "text",
                                "text": " "
                            },
                            {
                                "type": "user",
                                "user_id": "U012AKH7763"
                            },
                            {
                                "type": "text",
                                "text": " "
                            },
                            {
                                "type": "user",
                                "user_id": "U012MMGH7L7"
                            },
                            {
                                "type": "text",
                                "text": " "
                            },
                            {
                                "type": "user",
                                "user_id": "U0133SXG9M3"
                            },
                            {
                                "type": "text",
                                "text": " "
                            },
                            {
                                "type": "user",
                                "user_id": "U01359A5LCA"
                            },
                            {
                                "type": "text",
                                "text": " "
                            },
                            {
                                "type": "user",
                                "user_id": "U0137HD742Y"
                            },
                            {
                                "type": "text",
                                "text": " "
                            },
                            {
                                "type": "user",
                                "user_id": "U0137JZSFBP"
                            },
                            {
                                "type": "text",
                                "text": " "
                            },
                            {
                                "type": "user",
                                "user_id": "U012W728FE3"
                            },
                            {
                                "type": "text",
                                "text": " "
                            },
                            {
                                "type": "user",
                                "user_id": "U013H7V0RQC"
                            },
                            {
                                "type": "text",
                                "text": " "
                            },
                            {
                                "type": "user",
                                "user_id": "U013HD5P5NY"
                            },
                            {
                                "type": "text",
                                "text": " "
                            },
                            {
                                "type": "user",
                                "user_id": "U013D18970T"
                            }
                        ]
                    }
                ]
            }
        ],
        "reactions": [
            {
                "name": "raised_hands",
                "users": [
                    "UV02WET96",
                    "UUWPKNE2E",
                    "U011D8T1Z61"
                ],
                "count": 3
            },
            {
                "name": "+1",
                "users": [
                    "U01113Y1PLP"
                ],
                "count": 1
            },
            {
                "name": "sweat_smile",
                "users": [
                    "U0115G1A03D",
                    "U013EQ95FNV"
                ],
                "count": 2
            }
        ]
    }
]