[
    {
        "type": "message",
        "subtype": "bot_message",
        "text": "Olá <@U013D18970T> :flag-pt:",
        "ts": "1589140975.123900",
        "username": "GreetBot",
        "bot_id": "B0100JVEKUG"
    }
]