[
    {
        "client_msg_id": "63750990-a3ca-4844-a19d-76f3f5137c56",
        "type": "message",
        "text": "Hi all, I could see there are a wonderful team, who are willing to help always. I am new to this system. I will do my part with Aravinth Panch.",
        "user": "U012CUFADR9",
        "ts": "1587914002.076500",
        "team": "TUU48M0T1",
        "user_team": "TUU48M0T1",
        "source_team": "TUU48M0T1",
        "user_profile": {
            "avatar_hash": "g67e125f7a09",
            "image_72": "https:\/\/secure.gravatar.com\/avatar\/67e125f7a09a1d75cb9c0395ff6ac07f.jpg?s=72&d=https%3A%2F%2Fa.slack-edge.com%2Fdf10d%2Fimg%2Favatars%2Fava_0024-72.png",
            "first_name": "",
            "real_name": "Sanjaya Bathige",
            "display_name": "Sanjaya Bathige",
            "team": "TUU48M0T1",
            "name": "sanjayachem",
            "is_restricted": false,
            "is_ultra_restricted": false
        },
        "blocks": [
            {
                "type": "rich_text",
                "block_id": "+v=",
                "elements": [
                    {
                        "type": "rich_text_section",
                        "elements": [
                            {
                                "type": "text",
                                "text": "Hi all, I could see there are a wonderful team, who are willing to help always. I am new to this system. I will do my part with Aravinth Panch."
                            }
                        ]
                    }
                ]
            }
        ],
        "thread_ts": "1587621121.046200",
        "parent_user_id": "U012CUFADR9",
        "reactions": [
            {
                "name": "+1",
                "users": [
                    "U011B5424FR"
                ],
                "count": 1
            }
        ]
    },
    {
        "type": "message",
        "subtype": "bot_message",
        "text": "Olá <@U012JRY6Q4A> :flag-pt:",
        "ts": "1587924545.077000",
        "username": "GreetBot",
        "bot_id": "B0100JVEKUG"
    },
    {
        "client_msg_id": "3399724f-c924-40e1-8c3c-e3f765e107f9",
        "type": "message",
        "text": "Hello all. I'm Kalindu, working as a research assistant in Sri Lanka and part of Dr Bathige's team joining the project. Background in biochem and pharma science. Looking forward to pitching in!",
        "user": "U012JRY6Q4A",
        "ts": "1587925762.079400",
        "team": "TUU48M0T1",
        "user_team": "TUU48M0T1",
        "source_team": "TUU48M0T1",
        "user_profile": {
            "avatar_hash": "6672c150512b",
            "image_72": "https:\/\/avatars.slack-edge.com\/2020-04-26\/1072254453079_6672c150512b2ac2ec95_72.jpg",
            "first_name": "Kalindu",
            "real_name": "Kalindu Perera",
            "display_name": "Kalindu",
            "team": "TUU48M0T1",
            "name": "kalindu.p",
            "is_restricted": false,
            "is_ultra_restricted": false
        },
        "blocks": [
            {
                "type": "rich_text",
                "block_id": "+p0S",
                "elements": [
                    {
                        "type": "rich_text_section",
                        "elements": [
                            {
                                "type": "text",
                                "text": "Hello all. I'm Kalindu, working as a research assistant in Sri Lanka and part of Dr Bathige's team joining the project. Background in biochem and pharma science. Looking forward to pitching in!"
                            }
                        ]
                    }
                ]
            }
        ],
        "thread_ts": "1587925762.079400",
        "reply_count": 3,
        "reply_users_count": 3,
        "latest_reply": "1587984768.084800",
        "reply_users": [
            "U010QHBTBPY",
            "U012JRY6Q4A",
            "U011B5424FR"
        ],
        "replies": [
            {
                "user": "U010QHBTBPY",
                "ts": "1587962028.080600"
            },
            {
                "user": "U012JRY6Q4A",
                "ts": "1587962279.080800"
            },
            {
                "user": "U011B5424FR",
                "ts": "1587984768.084800"
            }
        ],
        "subscribed": false,
        "reactions": [
            {
                "name": "wave",
                "users": [
                    "UV02WET96",
                    "U0101DKUALV"
                ],
                "count": 2
            },
            {
                "name": "clap",
                "users": [
                    "U011B5424FR"
                ],
                "count": 1
            }
        ]
    },
    {
        "type": "message",
        "subtype": "bot_message",
        "text": "Olá <@U012R6DMAJY> :flag-pt:",
        "ts": "1587933644.080000",
        "username": "GreetBot",
        "bot_id": "B0100JVEKUG"
    },
    {
        "type": "message",
        "subtype": "bot_message",
        "text": "Olá <@U01393EMNDN> :flag-pt:",
        "ts": "1587956243.080200",
        "username": "GreetBot",
        "bot_id": "B0100JVEKUG"
    },
    {
        "type": "message",
        "subtype": "bot_message",
        "text": "Bonjour <@U012HT7UUSH> :flag-fr:",
        "ts": "1587958495.080400",
        "username": "GreetBot",
        "bot_id": "B0100JVEKUG"
    },
    {
        "client_msg_id": "b317ffa0-166c-45b5-91b7-05533bb9bd66",
        "type": "message",
        "text": "Hello Kalindu, welcome to the initiative. You might want to look at the <#C0103J8NF46|chlg-detection-diagnostic> and <#C010CVB35DE|proj-nucleic-acid-amplification>, &amp; <#C010WAVTJ90|proj-enzyme-production> channels.",
        "user": "U010QHBTBPY",
        "ts": "1587962028.080600",
        "team": "TUU48M0T1",
        "user_team": "TUU48M0T1",
        "source_team": "TUU48M0T1",
        "user_profile": {
            "avatar_hash": "g4e30c4af69a",
            "image_72": "https:\/\/secure.gravatar.com\/avatar\/4e30c4af69a6429e53cd9cce9da9f65c.jpg?s=72&d=https%3A%2F%2Fa.slack-edge.com%2Fdf10d%2Fimg%2Favatars%2Fava_0015-72.png",
            "first_name": "",
            "real_name": "osn_scott",
            "display_name": "osn_scott",
            "team": "TUU48M0T1",
            "name": "scott527",
            "is_restricted": false,
            "is_ultra_restricted": false
        },
        "blocks": [
            {
                "type": "rich_text",
                "block_id": "k7uNU",
                "elements": [
                    {
                        "type": "rich_text_section",
                        "elements": [
                            {
                                "type": "text",
                                "text": "Hello Kalindu, welcome to the initiative. You might want to look at the "
                            },
                            {
                                "type": "channel",
                                "channel_id": "C0103J8NF46"
                            },
                            {
                                "type": "text",
                                "text": " and "
                            },
                            {
                                "type": "channel",
                                "channel_id": "C010CVB35DE"
                            },
                            {
                                "type": "text",
                                "text": ", & "
                            },
                            {
                                "type": "channel",
                                "channel_id": "C010WAVTJ90"
                            },
                            {
                                "type": "text",
                                "text": " channels."
                            }
                        ]
                    }
                ]
            }
        ],
        "thread_ts": "1587925762.079400",
        "parent_user_id": "U012JRY6Q4A"
    },
    {
        "client_msg_id": "93468874-0f05-4e4d-a61a-90ee3c85f3e0",
        "type": "message",
        "text": "Thanks, will do",
        "user": "U012JRY6Q4A",
        "ts": "1587962279.080800",
        "team": "TUU48M0T1",
        "user_team": "TUU48M0T1",
        "source_team": "TUU48M0T1",
        "user_profile": {
            "avatar_hash": "6672c150512b",
            "image_72": "https:\/\/avatars.slack-edge.com\/2020-04-26\/1072254453079_6672c150512b2ac2ec95_72.jpg",
            "first_name": "Kalindu",
            "real_name": "Kalindu Perera",
            "display_name": "Kalindu",
            "team": "TUU48M0T1",
            "name": "kalindu.p",
            "is_restricted": false,
            "is_ultra_restricted": false
        },
        "blocks": [
            {
                "type": "rich_text",
                "block_id": "n5tZ",
                "elements": [
                    {
                        "type": "rich_text_section",
                        "elements": [
                            {
                                "type": "text",
                                "text": "Thanks, will do"
                            }
                        ]
                    }
                ]
            }
        ],
        "thread_ts": "1587925762.079400",
        "parent_user_id": "U012JRY6Q4A"
    },
    {
        "type": "message",
        "subtype": "bot_message",
        "text": "Guten tag <@U012JRY6FDG> :flag-de:",
        "ts": "1587968127.081000",
        "username": "GreetBot",
        "bot_id": "B0100JVEKUG"
    },
    {
        "client_msg_id": "b0c8cfc6-005a-4978-a0f4-1298412682ea",
        "type": "message",
        "text": "Hi everyone, I'm Madhavi Hewadikaram PhD student at SLINTEC. I have experiences in molecular biology and bioinformatics areas. I'm working under Dr. Bathige team at SLINTEC . Happy to work with you all.",
        "user": "U012JRY6FDG",
        "ts": "1587968504.082900",
        "team": "TUU48M0T1",
        "user_team": "TUU48M0T1",
        "source_team": "TUU48M0T1",
        "user_profile": {
            "avatar_hash": "528e13bd4c24",
            "image_72": "https:\/\/avatars.slack-edge.com\/2020-04-28\/1090887645315_528e13bd4c2409867741_72.jpg",
            "first_name": "Madhavi",
            "real_name": "Madhavi",
            "display_name": "Madhavi",
            "team": "TUU48M0T1",
            "name": "mihirangima",
            "is_restricted": false,
            "is_ultra_restricted": false
        },
        "blocks": [
            {
                "type": "rich_text",
                "block_id": "L+Y",
                "elements": [
                    {
                        "type": "rich_text_section",
                        "elements": [
                            {
                                "type": "text",
                                "text": "Hi everyone, I'm Madhavi Hewadikaram PhD student at SLINTEC. I have experiences in molecular biology and bioinformatics areas. I'm working under Dr. Bathige team at SLINTEC . Happy to work with you all."
                            }
                        ]
                    }
                ]
            }
        ],
        "thread_ts": "1587968504.082900",
        "reply_count": 2,
        "reply_users_count": 2,
        "latest_reply": "1588030234.086400",
        "reply_users": [
            "U011B5424FR",
            "U010QHBTBPY"
        ],
        "replies": [
            {
                "user": "U011B5424FR",
                "ts": "1587984782.085000"
            },
            {
                "user": "U010QHBTBPY",
                "ts": "1588030234.086400"
            }
        ],
        "subscribed": false,
        "reactions": [
            {
                "name": "heartbeat",
                "users": [
                    "U0101DKUALV"
                ],
                "count": 1
            },
            {
                "name": "wave",
                "users": [
                    "UV9V03C8Y",
                    "UV02WET96",
                    "U011G0QGFN3"
                ],
                "count": 3
            },
            {
                "name": "clap",
                "users": [
                    "U011B5424FR",
                    "UV1A22N3W",
                    "U010QHBTBPY"
                ],
                "count": 3
            }
        ]
    }
]