[
    {
        "type": "message",
        "subtype": "bot_message",
        "text": "Cześć <@U012F73G7GQ> :flag-pl:",
        "ts": "1586851565.467700",
        "username": "GreetBot",
        "bot_id": "B0100JVEKUG"
    },
    {
        "type": "message",
        "subtype": "bot_message",
        "text": "Ohayo <@U011LQ49GLW> :flag-jp:",
        "ts": "1586855539.467900",
        "username": "GreetBot",
        "bot_id": "B0100JVEKUG"
    },
    {
        "type": "message",
        "subtype": "bot_message",
        "text": "Bonjour <@U011STK4883> :flag-fr:",
        "ts": "1586855725.470700",
        "username": "GreetBot",
        "bot_id": "B0100JVEKUG"
    },
    {
        "client_msg_id": "33742dd5-eeea-4b3e-898f-a15c40d59d2a",
        "type": "message",
        "text": "Hi all, I'm Charlotte, an industrial design engineer located in Brussels, Belgium. :flag-be:\nGreat initiative, thanks JOGL!\nOn offer: strong design integration &amp; helicopter view skills, developing product solutions for high-requirement applications (development, 3D modeling, producibility).",
        "user": "U011LQ49GLW",
        "ts": "1586855982.473500",
        "team": "TUU48M0T1",
        "user_team": "TUU48M0T1",
        "source_team": "TUU48M0T1",
        "user_profile": {
            "avatar_hash": "60440d611821",
            "image_72": "https:\/\/avatars.slack-edge.com\/2020-04-14\/1060952694723_60440d6118216793464e_72.png",
            "first_name": "Charlotte",
            "real_name": "Charlotte Vanhoutte",
            "display_name": "Charlotte Vanhoutte",
            "team": "TUU48M0T1",
            "name": "charlottevanhoutte",
            "is_restricted": false,
            "is_ultra_restricted": false
        },
        "blocks": [
            {
                "type": "rich_text",
                "block_id": "Rwf",
                "elements": [
                    {
                        "type": "rich_text_section",
                        "elements": [
                            {
                                "type": "text",
                                "text": "Hi all, I'm Charlotte, an industrial design engineer located in Brussels, Belgium. "
                            },
                            {
                                "type": "emoji",
                                "name": "flag-be"
                            },
                            {
                                "type": "text",
                                "text": "\nGreat initiative, thanks JOGL!\nOn offer: strong design integration & helicopter view skills, developing product solutions for high-requirement applications (development, 3D modeling, producibility)."
                            }
                        ]
                    }
                ]
            }
        ],
        "reactions": [
            {
                "name": "wave",
                "users": [
                    "UV02WET96"
                ],
                "count": 1
            }
        ]
    },
    {
        "type": "message",
        "subtype": "bot_message",
        "text": "Nǐ hǎo <@U0124UA6NBT> :flag-cn:",
        "ts": "1586861265.473700",
        "username": "GreetBot",
        "bot_id": "B0100JVEKUG"
    },
    {
        "type": "message",
        "subtype": "bot_message",
        "text": "Cześć <@U0122PL863B> :flag-pl:",
        "ts": "1586872152.473800",
        "username": "GreetBot",
        "bot_id": "B0100JVEKUG"
    },
    {
        "type": "message",
        "subtype": "bot_message",
        "text": "Sawadi Kap <@U011S9UHY2H> :flag-th:",
        "ts": "1586874012.474100",
        "username": "GreetBot",
        "bot_id": "B0100JVEKUG"
    },
    {
        "type": "message",
        "subtype": "bot_message",
        "text": "Hérete <@U011TLX75U3> :flag-gr:",
        "ts": "1586875124.474300",
        "username": "GreetBot",
        "bot_id": "B0100JVEKUG"
    },
    {
        "type": "message",
        "subtype": "bot_message",
        "text": "Nǐ hǎo <@U0125SH5LDP> :flag-cn:",
        "ts": "1586875903.474500",
        "username": "GreetBot",
        "bot_id": "B0100JVEKUG"
    },
    {
        "client_msg_id": "aa575683-9ed5-4590-b634-a132ffa0222b",
        "type": "message",
        "text": "Hi, I’m Fernanda Gasparin and I’m a UX Designer based in London",
        "user": "U0125SH5LDP",
        "ts": "1586876012.474900",
        "team": "TUU48M0T1",
        "user_team": "TUU48M0T1",
        "source_team": "TUU48M0T1",
        "user_profile": {
            "avatar_hash": "5816d3d4b126",
            "image_72": "https:\/\/avatars.slack-edge.com\/2020-04-14\/1060396910981_5816d3d4b126886e4773_72.png",
            "first_name": "Fernanda",
            "real_name": "Fernanda Gasparin",
            "display_name": "Fer",
            "team": "TUU48M0T1",
            "name": "fernanda.gasparin8",
            "is_restricted": false,
            "is_ultra_restricted": false
        },
        "blocks": [
            {
                "type": "rich_text",
                "block_id": "WcVE8",
                "elements": [
                    {
                        "type": "rich_text_section",
                        "elements": [
                            {
                                "type": "text",
                                "text": "Hi, I’m Fernanda Gasparin and I’m a UX Designer based in London"
                            }
                        ]
                    }
                ]
            }
        ],
        "reactions": [
            {
                "name": "+1",
                "users": [
                    "UV02WET96",
                    "U011D8T1Z61"
                ],
                "count": 2
            }
        ]
    },
    {
        "type": "message",
        "text": "Hi, I'm PHOENIX EQUIPEMENT. We are a French start-up specialised in defense industry, but we created a face shield that is quick to produce in 3D printing (in only 20 minutes). I hope this interests you.",
        "files": [
            {
                "id": "F011ZRTL4BW",
                "created": 1586877439,
                "timestamp": 1586877439,
                "name": "PROFAPLA.zip",
                "title": "PROFAPLA.zip",
                "mimetype": "application\/zip",
                "filetype": "zip",
                "pretty_type": "Zip",
                "user": "U011TLX75U3",
                "editable": false,
                "size": 15593906,
                "mode": "hosted",
                "is_external": false,
                "external_type": "",
                "is_public": true,
                "public_url_shared": false,
                "display_as_bot": false,
                "username": "",
                "url_private": "https:\/\/files.slack.com\/files-pri\/TUU48M0T1-F011ZRTL4BW\/profapla.zip?t=xoxe-980144714919-1133254701825-1120841107731-daf595b5a7d6c9028b0b02a925032e36",
                "url_private_download": "https:\/\/files.slack.com\/files-pri\/TUU48M0T1-F011ZRTL4BW\/download\/profapla.zip?t=xoxe-980144714919-1133254701825-1120841107731-daf595b5a7d6c9028b0b02a925032e36",
                "permalink": "https:\/\/open-covid19.slack.com\/files\/U011TLX75U3\/F011ZRTL4BW\/profapla.zip",
                "permalink_public": "https:\/\/slack-files.com\/TUU48M0T1-F011ZRTL4BW-406bff8d53",
                "is_starred": false,
                "has_rich_preview": false
            }
        ],
        "upload": true,
        "blocks": [
            {
                "type": "rich_text",
                "block_id": "rWzG\/",
                "elements": [
                    {
                        "type": "rich_text_section",
                        "elements": [
                            {
                                "type": "text",
                                "text": "Hi, I'm PHOENIX EQUIPEMENT. We are a French start-up specialised in defense industry, but we created a face shield that is quick to produce in 3D printing (in only 20 minutes). I hope this interests you."
                            }
                        ]
                    }
                ]
            }
        ],
        "user": "U011TLX75U3",
        "display_as_bot": false,
        "ts": "1586877457.476700",
        "client_msg_id": "925bf8f1-5206-426f-88be-5a6ea107979f",
        "thread_ts": "1586877457.476700",
        "reply_count": 2,
        "reply_users_count": 2,
        "latest_reply": "1586949748.485500",
        "reply_users": [
            "UV02WET96",
            "U011TLX75U3"
        ],
        "replies": [
            {
                "user": "UV02WET96",
                "ts": "1586880920.477200"
            },
            {
                "user": "U011TLX75U3",
                "ts": "1586949748.485500"
            }
        ],
        "subscribed": false,
        "reactions": [
            {
                "name": "wave",
                "users": [
                    "UV02WET96"
                ],
                "count": 1
            }
        ]
    },
    {
        "client_msg_id": "b81eb583-2484-414a-9874-8fdba58ece01",
        "type": "message",
        "text": "Hi! Welcome\nIt would be great if you could create a JOGL project page for your design. It’s the best way to share it to the community and have it ready for evaluation. Thanks!",
        "user": "UV02WET96",
        "ts": "1586880920.477200",
        "team": "TUU48M0T1",
        "user_team": "TUU48M0T1",
        "source_team": "TUU48M0T1",
        "user_profile": {
            "avatar_hash": "a99c74a194f8",
            "image_72": "https:\/\/avatars.slack-edge.com\/2020-03-07\/975708504851_a99c74a194f86715ca7d_72.png",
            "first_name": "Thomas",
            "real_name": "Thomas Landrain",
            "display_name": "Thomas Landrain - JOGL CoFounder \/ CEO",
            "team": "TUU48M0T1",
            "name": "thomas",
            "is_restricted": false,
            "is_ultra_restricted": false
        },
        "blocks": [
            {
                "type": "rich_text",
                "block_id": "nUz2r",
                "elements": [
                    {
                        "type": "rich_text_section",
                        "elements": [
                            {
                                "type": "text",
                                "text": "Hi! Welcome\nIt would be great if you could create a JOGL project page for your design. It’s the best way to share it to the community and have it ready for evaluation. Thanks!"
                            }
                        ]
                    }
                ]
            }
        ],
        "thread_ts": "1586877457.476700",
        "parent_user_id": "U011TLX75U3",
        "reactions": [
            {
                "name": "+1",
                "users": [
                    "U011TLX75U3"
                ],
                "count": 1
            }
        ]
    },
    {
        "client_msg_id": "3C1FA373-3795-4BD0-80E8-BC0420725C65",
        "type": "message",
        "text": "Hi Everyone. I am Anitha working closely with <@U010LNECEHE>. I can give access to a bsl2 facility in Oakland, if anyone wants it. I am a molecular biologist with extensive experience in developing new protocols. Love being a technologist ",
        "user": "U010WPEJMFU",
        "ts": "1586882872.479900",
        "team": "TUU48M0T1",
        "user_team": "TUU48M0T1",
        "source_team": "TUU48M0T1",
        "user_profile": {
            "avatar_hash": "f2196ddba7b4",
            "image_72": "https:\/\/avatars.slack-edge.com\/2020-04-02\/1045255394934_f2196ddba7b45a8ee097_72.png",
            "first_name": "Anitha",
            "real_name": "Anitha Jayaprakash",
            "display_name": "",
            "team": "TUU48M0T1",
            "name": "anithagarwal",
            "is_restricted": false,
            "is_ultra_restricted": false
        },
        "blocks": [
            {
                "type": "rich_text",
                "block_id": "Yl0Wi",
                "elements": [
                    {
                        "type": "rich_text_section",
                        "elements": [
                            {
                                "type": "text",
                                "text": "Hi Everyone. I am Anitha working closely with "
                            },
                            {
                                "type": "user",
                                "user_id": "U010LNECEHE"
                            },
                            {
                                "type": "text",
                                "text": ". I can give access to a bsl2 facility in Oakland, if anyone wants it. I am a molecular biologist with extensive experience in developing new protocols. Love being a technologist "
                            }
                        ]
                    }
                ]
            }
        ],
        "thread_ts": "1586882872.479900",
        "reply_count": 1,
        "reply_users_count": 1,
        "latest_reply": "1586883171.480200",
        "reply_users": [
            "UV02WET96"
        ],
        "replies": [
            {
                "user": "UV02WET96",
                "ts": "1586883171.480200"
            }
        ],
        "subscribed": false,
        "reactions": [
            {
                "name": "wave",
                "users": [
                    "UV02WET96",
                    "U011D8T1Z61"
                ],
                "count": 2
            },
            {
                "name": "+1",
                "users": [
                    "UV02WET96"
                ],
                "count": 1
            },
            {
                "name": "the_horns",
                "users": [
                    "UUNGFHSV8",
                    "U010LNECEHE"
                ],
                "count": 2
            },
            {
                "name": "clap",
                "users": [
                    "U011B5424FR"
                ],
                "count": 1
            }
        ]
    },
    {
        "client_msg_id": "3501b7ba-2eb8-493b-a6ae-ca29bb42ec7d",
        "type": "message",
        "text": "Hi Anitha! welcome :slightly_smiling_face:\nand thanks!",
        "user": "UV02WET96",
        "ts": "1586883171.480200",
        "team": "TUU48M0T1",
        "user_team": "TUU48M0T1",
        "source_team": "TUU48M0T1",
        "user_profile": {
            "avatar_hash": "a99c74a194f8",
            "image_72": "https:\/\/avatars.slack-edge.com\/2020-03-07\/975708504851_a99c74a194f86715ca7d_72.png",
            "first_name": "Thomas",
            "real_name": "Thomas Landrain",
            "display_name": "Thomas Landrain - JOGL CoFounder \/ CEO",
            "team": "TUU48M0T1",
            "name": "thomas",
            "is_restricted": false,
            "is_ultra_restricted": false
        },
        "blocks": [
            {
                "type": "rich_text",
                "block_id": "Dko",
                "elements": [
                    {
                        "type": "rich_text_section",
                        "elements": [
                            {
                                "type": "text",
                                "text": "Hi Anitha! welcome "
                            },
                            {
                                "type": "emoji",
                                "name": "slightly_smiling_face"
                            },
                            {
                                "type": "text",
                                "text": "\nand thanks!"
                            }
                        ]
                    }
                ]
            }
        ],
        "thread_ts": "1586882872.479900",
        "parent_user_id": "U010WPEJMFU"
    },
    {
        "type": "message",
        "subtype": "bot_message",
        "text": "Dobryy den’ <@U01205TU3QU> :flag-ua:",
        "ts": "1586885293.481000",
        "username": "GreetBot",
        "bot_id": "B0100JVEKUG"
    },
    {
        "type": "message",
        "subtype": "bot_message",
        "text": "Hérete <@U0120AGV1PE> :flag-gr:",
        "ts": "1586889006.481200",
        "username": "GreetBot",
        "bot_id": "B0100JVEKUG"
    },
    {
        "type": "message",
        "subtype": "bot_message",
        "text": "Nǐ hǎo <@U011DFM4QET> :flag-cn:",
        "ts": "1586890820.481400",
        "username": "GreetBot",
        "bot_id": "B0100JVEKUG"
    },
    {
        "type": "message",
        "subtype": "bot_message",
        "text": "Annyeong <@U012J389JGY> :flag-kr:",
        "ts": "1586890900.481600",
        "username": "GreetBot",
        "bot_id": "B0100JVEKUG"
    },
    {
        "type": "message",
        "subtype": "bot_message",
        "text": "Hérete <@U0120HBFWG4> :flag-gr:",
        "ts": "1586894780.481800",
        "username": "GreetBot",
        "bot_id": "B0100JVEKUG"
    },
    {
        "type": "message",
        "subtype": "bot_message",
        "text": "Ciao <@U0120HRL99S> :flag-it:",
        "ts": "1586895162.482000",
        "username": "GreetBot",
        "bot_id": "B0100JVEKUG"
    },
    {
        "type": "message",
        "subtype": "bot_message",
        "text": "Hallå <@U011MRXFFT8> :flag-se:",
        "ts": "1586900160.482400",
        "username": "GreetBot",
        "bot_id": "B0100JVEKUG"
    },
    {
        "client_msg_id": "3390ccd5-8911-413b-8a9c-6e579da48668",
        "type": "message",
        "text": "Hi all, I am Maria Elena from Italy!",
        "user": "U011MRXFFT8",
        "ts": "1586900192.482700",
        "team": "TUU48M0T1",
        "user_team": "TUU48M0T1",
        "source_team": "TUU48M0T1",
        "user_profile": {
            "avatar_hash": "gd0008cb8e53",
            "image_72": "https:\/\/secure.gravatar.com\/avatar\/d0008cb8e53b714397f70c813d5adda5.jpg?s=72&d=https%3A%2F%2Fa.slack-edge.com%2Fdf10d%2Fimg%2Favatars%2Fava_0020-72.png",
            "first_name": "",
            "real_name": "Maria Elena Antinori",
            "display_name": "Maria Elena Antinori",
            "team": "TUU48M0T1",
            "name": "mariael.antinori",
            "is_restricted": false,
            "is_ultra_restricted": false
        },
        "blocks": [
            {
                "type": "rich_text",
                "block_id": "6FL4",
                "elements": [
                    {
                        "type": "rich_text_section",
                        "elements": [
                            {
                                "type": "text",
                                "text": "Hi all, I am Maria Elena from Italy!"
                            }
                        ]
                    }
                ]
            }
        ],
        "reactions": [
            {
                "name": "wave",
                "users": [
                    "UV02WET96",
                    "U011B6VLM2A"
                ],
                "count": 2
            }
        ]
    },
    {
        "client_msg_id": "d3419b1e-c278-42f1-b73c-accca9c33319",
        "type": "message",
        "text": "Hello, I’m Kim from France",
        "user": "U01205TU3QU",
        "ts": "1586901022.482900",
        "team": "TUU48M0T1",
        "user_team": "TUU48M0T1",
        "source_team": "TUU48M0T1",
        "user_profile": {
            "avatar_hash": "c23b82f1a7d5",
            "image_72": "https:\/\/avatars.slack-edge.com\/2020-04-14\/1085873293392_c23b82f1a7d5eaf30af5_72.jpg",
            "first_name": "",
            "real_name": "Kimgoodgalaxy",
            "display_name": "Kimgoodgalaxy",
            "team": "TUU48M0T1",
            "name": "kim",
            "is_restricted": false,
            "is_ultra_restricted": false
        },
        "blocks": [
            {
                "type": "rich_text",
                "block_id": "yB3qu",
                "elements": [
                    {
                        "type": "rich_text_section",
                        "elements": [
                            {
                                "type": "text",
                                "text": "Hello, I’m Kim from France"
                            }
                        ]
                    }
                ]
            }
        ]
    },
    {
        "client_msg_id": "36bb0112-a9cd-4338-bc93-d03b9ccd4804",
        "type": "message",
        "text": "Would be happy to help if you need any force on design stuff for low-cost detection kits project",
        "user": "U01205TU3QU",
        "ts": "1586901129.483600",
        "team": "TUU48M0T1",
        "user_team": "TUU48M0T1",
        "source_team": "TUU48M0T1",
        "user_profile": {
            "avatar_hash": "c23b82f1a7d5",
            "image_72": "https:\/\/avatars.slack-edge.com\/2020-04-14\/1085873293392_c23b82f1a7d5eaf30af5_72.jpg",
            "first_name": "",
            "real_name": "Kimgoodgalaxy",
            "display_name": "Kimgoodgalaxy",
            "team": "TUU48M0T1",
            "name": "kim",
            "is_restricted": false,
            "is_ultra_restricted": false
        },
        "blocks": [
            {
                "type": "rich_text",
                "block_id": "Spe",
                "elements": [
                    {
                        "type": "rich_text_section",
                        "elements": [
                            {
                                "type": "text",
                                "text": "Would be happy to help if you need any force on design stuff for low-cost detection kits project"
                            }
                        ]
                    }
                ]
            }
        ],
        "reactions": [
            {
                "name": "wave",
                "users": [
                    "UV02WET96",
                    "U011VNGLUHG"
                ],
                "count": 2
            }
        ]
    },
    {
        "type": "message",
        "subtype": "bot_message",
        "text": "Annyeong <@U0120RVQYHJ> :flag-kr:",
        "ts": "1586903569.483800",
        "username": "GreetBot",
        "bot_id": "B0100JVEKUG"
    },
    {
        "client_msg_id": "a415bafd-d4b9-4c1c-bd69-7f529816d18f",
        "type": "message",
        "text": "Hi, I'm Alicia from NZ :slightly_smiling_face: I'm a product designer, happy to pitch in wherever needed.",
        "user": "U0120RVQYHJ",
        "ts": "1586903595.484300",
        "team": "TUU48M0T1",
        "user_team": "TUU48M0T1",
        "source_team": "TUU48M0T1",
        "user_profile": {
            "avatar_hash": "gff494038f84",
            "image_72": "https:\/\/secure.gravatar.com\/avatar\/ff494038f849de0dfcef0a1da0c569c6.jpg?s=72&d=https%3A%2F%2Fa.slack-edge.com%2Fdf10d%2Fimg%2Favatars%2Fava_0013-72.png",
            "first_name": "",
            "real_name": "Alicia",
            "display_name": "Alicia",
            "team": "TUU48M0T1",
            "name": "missaliciali.89",
            "is_restricted": false,
            "is_ultra_restricted": false
        },
        "blocks": [
            {
                "type": "rich_text",
                "block_id": "qd9",
                "elements": [
                    {
                        "type": "rich_text_section",
                        "elements": [
                            {
                                "type": "text",
                                "text": "Hi, I'm Alicia from NZ "
                            },
                            {
                                "type": "emoji",
                                "name": "slightly_smiling_face"
                            },
                            {
                                "type": "text",
                                "text": " I'm a product designer, happy to pitch in wherever needed."
                            }
                        ]
                    }
                ]
            }
        ],
        "reactions": [
            {
                "name": "wave",
                "users": [
                    "UV02WET96",
                    "U011VNGLUHG",
                    "U011G0QGFN3"
                ],
                "count": 3
            }
        ]
    },
    {
        "type": "message",
        "subtype": "bot_message",
        "text": "Hola <@U011N317G94> :flag-es:",
        "ts": "1586909154.484800",
        "username": "GreetBot",
        "bot_id": "B0100JVEKUG"
    },
    {
        "type": "message",
        "subtype": "bot_message",
        "text": "Hallå <@U011DJPT0VB> :flag-se:",
        "ts": "1586917008.485000",
        "username": "GreetBot",
        "bot_id": "B0100JVEKUG"
    },
    {
        "type": "message",
        "subtype": "bot_message",
        "text": "Ciao <@U012JR234UQ> :flag-it:",
        "ts": "1586919038.485200",
        "username": "GreetBot",
        "bot_id": "B0100JVEKUG"
    }
]