[
    {
        "client_msg_id": "0F5BDAD2-985D-4948-B9A5-73CD9C1FEA75",
        "type": "message",
        "text": "Hi <@U010LNECEHE> welcome \nYou should check the channels working on diagnostics such as <#CV6G2NCAJ|proj-environmental-monitoring> <#CV42US023|proj-repro-sherlock> ",
        "user": "UV02WET96",
        "ts": "1585208681.041100",
        "team": "TUU48M0T1",
        "user_team": "TUU48M0T1",
        "source_team": "TUU48M0T1",
        "user_profile": {
            "avatar_hash": "a99c74a194f8",
            "image_72": "https:\/\/avatars.slack-edge.com\/2020-03-07\/975708504851_a99c74a194f86715ca7d_72.png",
            "first_name": "Thomas",
            "real_name": "Thomas Landrain",
            "display_name": "Thomas Landrain - JOGL CoFounder \/ CEO",
            "team": "TUU48M0T1",
            "name": "thomas",
            "is_restricted": false,
            "is_ultra_restricted": false
        },
        "blocks": [
            {
                "type": "rich_text",
                "block_id": "AyLG",
                "elements": [
                    {
                        "type": "rich_text_section",
                        "elements": [
                            {
                                "type": "text",
                                "text": "Hi "
                            },
                            {
                                "type": "user",
                                "user_id": "U010LNECEHE"
                            },
                            {
                                "type": "text",
                                "text": " welcome \nYou should check the channels working on diagnostics such as "
                            },
                            {
                                "type": "channel",
                                "channel_id": "CV6G2NCAJ"
                            },
                            {
                                "type": "text",
                                "text": " "
                            },
                            {
                                "type": "channel",
                                "channel_id": "CV42US023"
                            },
                            {
                                "type": "text",
                                "text": " "
                            }
                        ]
                    }
                ]
            }
        ],
        "thread_ts": "1584999119.405300",
        "parent_user_id": "U010LNECEHE"
    },
    {
        "client_msg_id": "8e16c694-616a-4148-9202-0718d8c8bc3a",
        "type": "message",
        "text": "I sure will",
        "user": "U010SFH73HD",
        "ts": "1585210109.041300",
        "team": "TUU48M0T1",
        "user_team": "TUU48M0T1",
        "source_team": "TUU48M0T1",
        "user_profile": {
            "avatar_hash": "g3371f7bebe8",
            "image_72": "https:\/\/secure.gravatar.com\/avatar\/3371f7bebe83b893803be3520b6840ab.jpg?s=72&d=https%3A%2F%2Fa.slack-edge.com%2Fdf10d%2Fimg%2Favatars%2Fava_0022-72.png",
            "first_name": "",
            "real_name": "Jean-Christophe Despres",
            "display_name": "Jean-Christophe Despres",
            "team": "TUU48M0T1",
            "name": "jcdespres.sopi",
            "is_restricted": false,
            "is_ultra_restricted": false
        },
        "blocks": [
            {
                "type": "rich_text",
                "block_id": "4\/eX",
                "elements": [
                    {
                        "type": "rich_text_section",
                        "elements": [
                            {
                                "type": "text",
                                "text": "I sure will"
                            }
                        ]
                    }
                ]
            }
        ],
        "thread_ts": "1585126628.009600",
        "parent_user_id": "U010SFH73HD"
    },
    {
        "client_msg_id": "1dd2b3db-f482-4380-bbc8-d4041dd04b83",
        "type": "message",
        "text": "Stupid slack question - I've got someone trying to join and they are getting this response from slack - anyone know why?\nFind your workspace to reset your password\nYou asked us to send you a password reset link for <http:\/\/open-covid19.slack.com|open-covid19.slack.com>. It turns out the email address *<mailto:blah@blah.com|blah@blah.com>* doesn't have an account for that workspace yet.\nIf you’re pretty sure you do have an account, you can <https:\/\/slack.com\/get-started|find your workspace> by trying a different email address.\nWe’ve also searched for other Slack workspaces you’ve joined or are invited to join, using <mailto:blah@blah.com|blah@blah.com>. It looks like you have one!",
        "user": "U010HTBUHS9",
        "ts": "1585230546.043100",
        "team": "TUU48M0T1",
        "user_team": "TUU48M0T1",
        "source_team": "TUU48M0T1",
        "user_profile": {
            "avatar_hash": "e7bdbebff0d9",
            "image_72": "https:\/\/avatars.slack-edge.com\/2020-03-22\/1017951251813_e7bdbebff0d9ad1e8f12_72.jpg",
            "first_name": "",
            "real_name": "Adam Arabian",
            "display_name": "Adam Arabian",
            "team": "TUU48M0T1",
            "name": "adam.arabian",
            "is_restricted": false,
            "is_ultra_restricted": false
        },
        "attachments": [
            {
                "service_name": "Slack",
                "title": "Get Started",
                "title_link": "https:\/\/slack.com\/get-started",
                "text": "Try Slack for free with your teammates. All it takes is an email address to get started.",
                "fallback": "Slack: Get Started",
                "image_url": "https:\/\/a.slack-edge.com\/80588\/marketing\/img\/meta\/slack_hash_256.png",
                "from_url": "https:\/\/slack.com\/get-started",
                "image_width": 250,
                "image_height": 250,
                "image_bytes": 5253,
                "service_icon": "https:\/\/a.slack-edge.com\/80588\/marketing\/img\/meta\/favicon-32.png",
                "id": 1,
                "original_url": "https:\/\/slack.com\/get-started"
            }
        ],
        "blocks": [
            {
                "type": "rich_text",
                "block_id": "UKF",
                "elements": [
                    {
                        "type": "rich_text_section",
                        "elements": [
                            {
                                "type": "text",
                                "text": "Stupid slack question - I've got someone trying to join and they are getting this response from slack - anyone know why?\nFind your workspace to reset your password\nYou asked us to send you a password reset link for "
                            },
                            {
                                "type": "link",
                                "url": "http:\/\/open-covid19.slack.com",
                                "text": "open-covid19.slack.com"
                            },
                            {
                                "type": "text",
                                "text": ". It turns out the email address "
                            },
                            {
                                "type": "link",
                                "url": "mailto:blah@blah.com",
                                "text": "blah@blah.com",
                                "style": {
                                    "bold": true
                                }
                            },
                            {
                                "type": "text",
                                "text": " doesn't have an account for that workspace yet.\nIf you’re pretty sure you do have an account, you can "
                            },
                            {
                                "type": "link",
                                "url": "https:\/\/slack.com\/get-started",
                                "text": "find your workspace"
                            },
                            {
                                "type": "text",
                                "text": " by trying a different email address.\nWe’ve also searched for other Slack workspaces you’ve joined or are invited to join, using "
                            },
                            {
                                "type": "link",
                                "url": "mailto:blah@blah.com",
                                "text": "blah@blah.com"
                            },
                            {
                                "type": "text",
                                "text": ". It looks like you have one!"
                            }
                        ]
                    }
                ]
            }
        ],
        "thread_ts": "1585230546.043100",
        "reply_count": 2,
        "reply_users_count": 2,
        "latest_reply": "1585236148.046800",
        "reply_users": [
            "UV02WET96",
            "U010JMLP8GZ"
        ],
        "replies": [
            {
                "user": "UV02WET96",
                "ts": "1585234723.044600"
            },
            {
                "user": "U010JMLP8GZ",
                "ts": "1585236148.046800"
            }
        ],
        "subscribed": false
    },
    {
        "type": "message",
        "subtype": "bot_message",
        "text": "Ohayo <@U010FMSQ210> :flag-jp:",
        "ts": "1585231324.043400",
        "username": "GreetBot",
        "bot_id": "B0100JVEKUG"
    },
    {
        "type": "message",
        "subtype": "bot_message",
        "text": "Sawadi Kap <@U010JJ4NH3K> :flag-th:",
        "ts": "1585233796.043600",
        "username": "GreetBot",
        "bot_id": "B0100JVEKUG"
    },
    {
        "client_msg_id": "e5440e50-3b6f-4c97-9a99-c3c863dd6d22",
        "type": "message",
        "text": "hello here is our francophone initiative :-) with the launch of a crowdsourcing campaign with fablabs and makers #resistancecovid; our website ( <http:\/\/www.resistancecovid.com|www.resistancecovid.com> ) and or directly a library of the prints we print <https:\/\/resistancecovid.com\/catalogue.php>",
        "user": "U010JJ4NH3K",
        "ts": "1585233952.043800",
        "team": "TUU48M0T1",
        "user_team": "TUU48M0T1",
        "source_team": "TUU48M0T1",
        "user_profile": {
            "avatar_hash": "g0182b03a81f",
            "image_72": "https:\/\/secure.gravatar.com\/avatar\/0182b03a81f3cd47995710525dbe3a78.jpg?s=72&d=https%3A%2F%2Fa.slack-edge.com%2Fdf10d%2Fimg%2Favatars%2Fava_0022-72.png",
            "first_name": "",
            "real_name": "zythop",
            "display_name": "zythop",
            "team": "TUU48M0T1",
            "name": "anis",
            "is_restricted": false,
            "is_ultra_restricted": false
        },
        "attachments": [
            {
                "title": "#resistancecovid",
                "title_link": "https:\/\/resistancecovid.com\/catalogue.php",
                "text": "Nous sommes un groupe de techniciens passionné d'informatique de plusieurs régions d'europes qui travaillent a la mise en place d'un protocol d'impression 3D permettant de subvenir au besoin présent et futur du personnel soignant face au Covid19",
                "fallback": "#resistancecovid",
                "from_url": "https:\/\/resistancecovid.com\/catalogue.php",
                "service_icon": "https:\/\/resistancecovid.com\/favicon.ico",
                "service_name": "resistancecovid.com",
                "id": 1,
                "original_url": "https:\/\/resistancecovid.com\/catalogue.php"
            }
        ],
        "blocks": [
            {
                "type": "rich_text",
                "block_id": "Vc88Z",
                "elements": [
                    {
                        "type": "rich_text_section",
                        "elements": [
                            {
                                "type": "text",
                                "text": "hello here is our francophone initiative :-) with the launch of a crowdsourcing campaign with fablabs and makers #resistancecovid; our website ( "
                            },
                            {
                                "type": "link",
                                "url": "http:\/\/www.resistancecovid.com",
                                "text": "www.resistancecovid.com"
                            },
                            {
                                "type": "text",
                                "text": " ) and or directly a library of the prints we print "
                            },
                            {
                                "type": "link",
                                "url": "https:\/\/resistancecovid.com\/catalogue.php"
                            }
                        ]
                    }
                ]
            }
        ],
        "thread_ts": "1585233952.043800",
        "reply_count": 2,
        "reply_users_count": 1,
        "latest_reply": "1585333391.104600",
        "reply_users": [
            "U010566NJHG"
        ],
        "replies": [
            {
                "user": "U010566NJHG",
                "ts": "1585333372.104300"
            },
            {
                "user": "U010566NJHG",
                "ts": "1585333391.104600"
            }
        ],
        "subscribed": false,
        "reactions": [
            {
                "name": "wave",
                "users": [
                    "UV02WET96"
                ],
                "count": 1
            },
            {
                "name": "star-struck",
                "users": [
                    "U010566NJHG"
                ],
                "count": 1
            }
        ]
    },
    {
        "client_msg_id": "78622C4E-3F36-442A-BF3B-207AB64947F8",
        "type": "message",
        "text": "That person should try the link <https:\/\/join.slack.com\/t\/open-covid19\/shared_invite\/zt-cbji2hte-8jdoHpJDKg80ZliPVCIjqw|https:\/\/join.slack.com\/t\/open-covid19\/shared_invite\/zt-cbji2hte-8jdoHpJDKg80ZliPVCIjqw>",
        "user": "UV02WET96",
        "ts": "1585234723.044600",
        "team": "TUU48M0T1",
        "user_team": "TUU48M0T1",
        "source_team": "TUU48M0T1",
        "user_profile": {
            "avatar_hash": "a99c74a194f8",
            "image_72": "https:\/\/avatars.slack-edge.com\/2020-03-07\/975708504851_a99c74a194f86715ca7d_72.png",
            "first_name": "Thomas",
            "real_name": "Thomas Landrain",
            "display_name": "Thomas Landrain - JOGL CoFounder \/ CEO",
            "team": "TUU48M0T1",
            "name": "thomas",
            "is_restricted": false,
            "is_ultra_restricted": false
        },
        "blocks": [
            {
                "type": "rich_text",
                "block_id": "bZLD",
                "elements": [
                    {
                        "type": "rich_text_section",
                        "elements": [
                            {
                                "type": "text",
                                "text": "That person should try the link "
                            },
                            {
                                "type": "link",
                                "url": "https:\/\/join.slack.com\/t\/open-covid19\/shared_invite\/zt-cbji2hte-8jdoHpJDKg80ZliPVCIjqw",
                                "text": "https:\/\/join.slack.com\/t\/open-covid19\/shared_invite\/zt-cbji2hte-8jdoHpJDKg80ZliPVCIjqw"
                            }
                        ]
                    }
                ]
            }
        ],
        "thread_ts": "1585230546.043100",
        "parent_user_id": "U010HTBUHS9",
        "reactions": [
            {
                "name": "+1",
                "users": [
                    "U010HTBUHS9"
                ],
                "count": 1
            }
        ]
    },
    {
        "type": "message",
        "subtype": "bot_message",
        "text": "Guten tag <@U010JMLP8GZ> :flag-de:",
        "ts": "1585235753.044900",
        "username": "GreetBot",
        "bot_id": "B0100JVEKUG"
    },
    {
        "client_msg_id": "acaf78e7-5863-4f41-93a4-9a4cd18c88c7",
        "type": "message",
        "text": "I'm an engineer with a background in Industrial engineering, design for manufacturing, rapid prototyping, technical drawing, and CAD in general. Bit off the grid here in Madagascar, but will be heading back to Virginia in the USA sometime soon. Happy to review design work and help where possible. -JW",
        "user": "U010JMLP8GZ",
        "ts": "1585236124.046700",
        "team": "TUU48M0T1",
        "user_team": "TUU48M0T1",
        "source_team": "TUU48M0T1",
        "user_profile": {
            "avatar_hash": "g754d95110db",
            "image_72": "https:\/\/secure.gravatar.com\/avatar\/754d95110db6f330f621eff2b6a211dd.jpg?s=72&d=https%3A%2F%2Fa.slack-edge.com%2Fdf10d%2Fimg%2Favatars%2Fava_0017-72.png",
            "first_name": "",
            "real_name": "Justin Wimpey",
            "display_name": "Justin Wimpey",
            "team": "TUU48M0T1",
            "name": "jwimpey",
            "is_restricted": false,
            "is_ultra_restricted": false
        },
        "blocks": [
            {
                "type": "rich_text",
                "block_id": "91id",
                "elements": [
                    {
                        "type": "rich_text_section",
                        "elements": [
                            {
                                "type": "text",
                                "text": "I'm an engineer with a background in Industrial engineering, design for manufacturing, rapid prototyping, technical drawing, and CAD in general. Bit off the grid here in Madagascar, but will be heading back to Virginia in the USA sometime soon. Happy to review design work and help where possible. -JW"
                            }
                        ]
                    }
                ]
            }
        ],
        "thread_ts": "1585236124.046700",
        "reply_count": 3,
        "reply_users_count": 3,
        "latest_reply": "1585335542.106100",
        "reply_users": [
            "U010566NJHG",
            "UV9V03C8Y",
            "U010HTBUHS9"
        ],
        "replies": [
            {
                "user": "U010566NJHG",
                "ts": "1585333328.104100"
            },
            {
                "user": "UV9V03C8Y",
                "ts": "1585334684.105900"
            },
            {
                "user": "U010HTBUHS9",
                "ts": "1585335542.106100"
            }
        ],
        "subscribed": false,
        "reactions": [
            {
                "name": "wave",
                "users": [
                    "UV02WET96",
                    "UV9V03C8Y"
                ],
                "count": 2
            }
        ]
    },
    {
        "client_msg_id": "403cf282-c17a-4b31-989f-95e8afabfe1e",
        "type": "message",
        "text": "Thanks for that. Adam helped my join.",
        "user": "U010JMLP8GZ",
        "ts": "1585236148.046800",
        "team": "TUU48M0T1",
        "user_team": "TUU48M0T1",
        "source_team": "TUU48M0T1",
        "user_profile": {
            "avatar_hash": "g754d95110db",
            "image_72": "https:\/\/secure.gravatar.com\/avatar\/754d95110db6f330f621eff2b6a211dd.jpg?s=72&d=https%3A%2F%2Fa.slack-edge.com%2Fdf10d%2Fimg%2Favatars%2Fava_0017-72.png",
            "first_name": "",
            "real_name": "Justin Wimpey",
            "display_name": "Justin Wimpey",
            "team": "TUU48M0T1",
            "name": "jwimpey",
            "is_restricted": false,
            "is_ultra_restricted": false
        },
        "blocks": [
            {
                "type": "rich_text",
                "block_id": "i6aaE",
                "elements": [
                    {
                        "type": "rich_text_section",
                        "elements": [
                            {
                                "type": "text",
                                "text": "Thanks for that. Adam helped my join."
                            }
                        ]
                    }
                ]
            }
        ],
        "thread_ts": "1585230546.043100",
        "parent_user_id": "U010HTBUHS9"
    },
    {
        "type": "message",
        "subtype": "bot_message",
        "text": "Namaste <@U010WKVUFFY> :flag-in:",
        "ts": "1585240494.047300",
        "username": "GreetBot",
        "bot_id": "B0100JVEKUG"
    },
    {
        "client_msg_id": "13a92609-8b68-4f4f-8ce2-2b6de2941c85",
        "type": "message",
        "text": "Hello all! I run a small microbiology and molecular biology lab at a brewery in Canada for QC purposes on our beer. I have access to a real time PCR machine and common microbiology equipment, as well as a MinION genome sequencer, I need new flow cells to use the sequencer which I don't have the financial resources to get ahold of right now. I have some background in Galaxy designing bioinformatics analysis pipelines. I also have experience in grant proposal writing for designing portable, cheap, sensitive diagnostic devices for detecting viruses. I want to help however I can! Anyone else here in :flag-ca:?",
        "user": "U010WKVUFFY",
        "ts": "1585241049.055800",
        "team": "TUU48M0T1",
        "user_team": "TUU48M0T1",
        "source_team": "TUU48M0T1",
        "user_profile": {
            "avatar_hash": "gf0c9e06eebd",
            "image_72": "https:\/\/secure.gravatar.com\/avatar\/f0c9e06eebd0184ffae109da36b04f9d.jpg?s=72&d=https%3A%2F%2Fa.slack-edge.com%2Fdf10d%2Fimg%2Favatars%2Fava_0024-72.png",
            "first_name": "",
            "real_name": "Nicholas Crudele",
            "display_name": "Nicholas Crudele",
            "team": "TUU48M0T1",
            "name": "nicoharacrudele4",
            "is_restricted": false,
            "is_ultra_restricted": false
        },
        "blocks": [
            {
                "type": "rich_text",
                "block_id": "wd7b3",
                "elements": [
                    {
                        "type": "rich_text_section",
                        "elements": [
                            {
                                "type": "text",
                                "text": "Hello all! I run a small microbiology and molecular biology lab at a brewery in Canada for QC purposes on our beer. I have access to a real time PCR machine and common microbiology equipment, as well as a MinION genome sequencer, I need new flow cells to use the sequencer which I don't have the financial resources to get ahold of right now. I have some background in Galaxy designing bioinformatics analysis pipelines. I also have experience in grant proposal writing for designing portable, cheap, sensitive diagnostic devices for detecting viruses. I want to help however I can! Anyone else here in "
                            },
                            {
                                "type": "emoji",
                                "name": "flag-ca"
                            },
                            {
                                "type": "text",
                                "text": "?"
                            }
                        ]
                    }
                ]
            }
        ],
        "thread_ts": "1585241049.055800",
        "reply_count": 2,
        "reply_users_count": 2,
        "latest_reply": "1585849960.270500",
        "reply_users": [
            "U010566NJHG",
            "U010WKVUFFY"
        ],
        "replies": [
            {
                "user": "U010566NJHG",
                "ts": "1585333274.103600"
            },
            {
                "user": "U010WKVUFFY",
                "ts": "1585849960.270500"
            }
        ],
        "subscribed": false,
        "reactions": [
            {
                "name": "wave",
                "users": [
                    "UV02WET96"
                ],
                "count": 1
            },
            {
                "name": "star-struck",
                "users": [
                    "U010566NJHG"
                ],
                "count": 1
            }
        ]
    },
    {
        "type": "message",
        "subtype": "bot_message",
        "text": "Dobryy den’ <@U010HL8RDC3> :flag-ua:",
        "ts": "1585247458.056000",
        "username": "GreetBot",
        "bot_id": "B0100JVEKUG"
    },
    {
        "client_msg_id": "8eab7253-101b-4907-bf8c-b79cdc6d149c",
        "type": "message",
        "text": "Hi everyone, I'm a Computer Science student at Northwestern, and I'm also on the pre-medical track. I think I'd be suited for literature reviews\/information gathering since I have taken multiple biology courses and labs and conducted research projects relating to neurology and immunology. I also know Python, Java, C++, C#, C, Matlab, Javascript, HTML, and CSS, so I'd be willing to help out with any coding if needed. Please reach out to me if you think any of these experiences would be useful to your project, and I'd be happy to help.",
        "user": "U010HL8RDC3",
        "ts": "1585248027.060800",
        "team": "TUU48M0T1",
        "user_team": "TUU48M0T1",
        "source_team": "TUU48M0T1",
        "user_profile": {
            "avatar_hash": "gf561651b37c",
            "image_72": "https:\/\/secure.gravatar.com\/avatar\/f561651b37c380c7e115fce847f5000e.jpg?s=72&d=https%3A%2F%2Fa.slack-edge.com%2Fdf10d%2Fimg%2Favatars%2Fava_0005-72.png",
            "first_name": "",
            "real_name": "Therese Schachner",
            "display_name": "Therese Schachner",
            "team": "TUU48M0T1",
            "name": "thereseschachner2022",
            "is_restricted": false,
            "is_ultra_restricted": false
        },
        "blocks": [
            {
                "type": "rich_text",
                "block_id": "DbLI",
                "elements": [
                    {
                        "type": "rich_text_section",
                        "elements": [
                            {
                                "type": "text",
                                "text": "Hi everyone, I'm a Computer Science student at Northwestern, and I'm also on the pre-medical track. I think I'd be suited for literature reviews\/information gathering since I have taken multiple biology courses and labs and conducted research projects relating to neurology and immunology. I also know Python, Java, C++, C#, C, Matlab, Javascript, HTML, and CSS, so I'd be willing to help out with any coding if needed. Please reach out to me if you think any of these experiences would be useful to your project, and I'd be happy to help."
                            }
                        ]
                    }
                ]
            }
        ],
        "thread_ts": "1585248027.060800",
        "reply_count": 1,
        "reply_users_count": 1,
        "latest_reply": "1585332981.103200",
        "reply_users": [
            "U010566NJHG"
        ],
        "replies": [
            {
                "user": "U010566NJHG",
                "ts": "1585332981.103200"
            }
        ],
        "subscribed": false,
        "reactions": [
            {
                "name": "wave",
                "users": [
                    "UV02WET96"
                ],
                "count": 1
            },
            {
                "name": "star-struck",
                "users": [
                    "U010566NJHG"
                ],
                "count": 1
            }
        ]
    },
    {
        "type": "message",
        "subtype": "bot_message",
        "text": "Ciao <@U010VFG5LKS> :flag-it:",
        "ts": "1585249458.061000",
        "username": "GreetBot",
        "bot_id": "B0100JVEKUG"
    },
    {
        "type": "message",
        "subtype": "bot_message",
        "text": "Ohayo <@U010KLMG8M7> :flag-jp:",
        "ts": "1585254329.061800",
        "username": "GreetBot",
        "bot_id": "B0100JVEKUG"
    },
    {
        "type": "message",
        "subtype": "bot_message",
        "text": "Olá <@U010XBNFKFY> :flag-pt:",
        "ts": "1585255251.062000",
        "username": "GreetBot",
        "bot_id": "B0100JVEKUG"
    },
    {
        "type": "message",
        "subtype": "bot_message",
        "text": "Ciao <@U010V3XAA04> :flag-it:",
        "ts": "1585257961.062200",
        "username": "GreetBot",
        "bot_id": "B0100JVEKUG"
    },
    {
        "type": "message",
        "subtype": "bot_message",
        "text": "Bonjour <@U010VHA0H5K> :flag-fr:",
        "ts": "1585258348.062400",
        "username": "GreetBot",
        "bot_id": "B0100JVEKUG"
    },
    {
        "type": "message",
        "subtype": "bot_message",
        "text": "Ohayo <@U010V7XT30U> :flag-jp:",
        "ts": "1585260777.062700",
        "username": "GreetBot",
        "bot_id": "B0100JVEKUG"
    },
    {
        "type": "message",
        "subtype": "bot_message",
        "text": "Bonjour <@U010VM36QBF> :flag-fr:",
        "ts": "1585260985.062900",
        "username": "GreetBot",
        "bot_id": "B0100JVEKUG"
    },
    {
        "client_msg_id": "702903ba-e9c7-43e0-ad07-5813de1aa841",
        "type": "message",
        "text": "Hey guys, I wanted to find out if you or anybody you know has familiarity with setting up IRB protocols for some rapid testing antibody IGG and IGM testing kits. Please let me know - need some help and happy to make this a paid gig.",
        "user": "U010CC740GG",
        "ts": "1585267844.064100",
        "team": "TUU48M0T1",
        "user_team": "TUU48M0T1",
        "source_team": "TUU48M0T1",
        "user_profile": {
            "avatar_hash": "g0f53a60f829",
            "image_72": "https:\/\/secure.gravatar.com\/avatar\/0f53a60f8292b3fff9cb91758c0fdef3.jpg?s=72&d=https%3A%2F%2Fa.slack-edge.com%2Fdf10d%2Fimg%2Favatars%2Fava_0021-72.png",
            "first_name": "",
            "real_name": "Zaid",
            "display_name": "",
            "team": "TUU48M0T1",
            "name": "ztillma",
            "is_restricted": false,
            "is_ultra_restricted": false
        },
        "blocks": [
            {
                "type": "rich_text",
                "block_id": "8Hb",
                "elements": [
                    {
                        "type": "rich_text_section",
                        "elements": [
                            {
                                "type": "text",
                                "text": "Hey guys, I wanted to find out if you or anybody you know has familiarity with setting up IRB protocols for some rapid testing antibody IGG and IGM testing kits. Please let me know - need some help and happy to make this a paid gig."
                            }
                        ]
                    }
                ]
            }
        ],
        "thread_ts": "1585267844.064100",
        "reply_count": 1,
        "reply_users_count": 1,
        "latest_reply": "1585332633.102900",
        "reply_users": [
            "U010566NJHG"
        ],
        "replies": [
            {
                "user": "U010566NJHG",
                "ts": "1585332633.102900"
            }
        ],
        "subscribed": false
    },
    {
        "type": "message",
        "subtype": "bot_message",
        "text": "Nǐ hǎo <@U010XTMFG5C> :flag-cn:",
        "ts": "1585270146.064300",
        "username": "GreetBot",
        "bot_id": "B0100JVEKUG"
    },
    {
        "type": "message",
        "subtype": "bot_message",
        "text": "Sawadi Kap <@U010L38EL8H> :flag-th:",
        "ts": "1585275101.064700",
        "username": "GreetBot",
        "bot_id": "B0100JVEKUG"
    },
    {
        "client_msg_id": "63d7bf74-aa02-4cfa-9869-54c5230eaa43",
        "type": "message",
        "text": "could i be added to that",
        "user": "U010RMADF2T",
        "ts": "1585275535.064800",
        "team": "TUU48M0T1",
        "user_team": "TUU48M0T1",
        "source_team": "TUU48M0T1",
        "user_profile": {
            "avatar_hash": "dbad29c672ae",
            "image_72": "https:\/\/avatars.slack-edge.com\/2020-03-24\/1011184829986_dbad29c672ae8a225cee_72.jpg",
            "first_name": "",
            "real_name": "Andy Wu",
            "display_name": "Andy Wu",
            "team": "TUU48M0T1",
            "name": "andy.wu",
            "is_restricted": false,
            "is_ultra_restricted": false
        },
        "blocks": [
            {
                "type": "rich_text",
                "block_id": "Zbenp",
                "elements": [
                    {
                        "type": "rich_text_section",
                        "elements": [
                            {
                                "type": "text",
                                "text": "could i be added to that"
                            }
                        ]
                    }
                ]
            }
        ],
        "thread_ts": "1585087866.427500",
        "parent_user_id": "U010RMADF2T"
    },
    {
        "client_msg_id": "7d94a3e3-79d6-4269-a902-cf5f3218c1fc",
        "type": "message",
        "text": "<@UV10KBUQG>",
        "user": "U010RMADF2T",
        "ts": "1585275780.065800",
        "team": "TUU48M0T1",
        "user_team": "TUU48M0T1",
        "source_team": "TUU48M0T1",
        "user_profile": {
            "avatar_hash": "dbad29c672ae",
            "image_72": "https:\/\/avatars.slack-edge.com\/2020-03-24\/1011184829986_dbad29c672ae8a225cee_72.jpg",
            "first_name": "",
            "real_name": "Andy Wu",
            "display_name": "Andy Wu",
            "team": "TUU48M0T1",
            "name": "andy.wu",
            "is_restricted": false,
            "is_ultra_restricted": false
        },
        "blocks": [
            {
                "type": "rich_text",
                "block_id": "zSia0",
                "elements": [
                    {
                        "type": "rich_text_section",
                        "elements": [
                            {
                                "type": "user",
                                "user_id": "UV10KBUQG"
                            }
                        ]
                    }
                ]
            }
        ],
        "thread_ts": "1585087866.427500",
        "parent_user_id": "U010RMADF2T"
    },
    {
        "client_msg_id": "995b3d27-16f9-4160-8a91-90dbcb238980",
        "type": "message",
        "text": "<@U010RMADF2T> just added you to the <#CVB9NP1L6|prgm-dev-team>",
        "user": "UV10KBUQG",
        "ts": "1585275958.068000",
        "team": "TUU48M0T1",
        "user_team": "TUU48M0T1",
        "source_team": "TUU48M0T1",
        "user_profile": {
            "avatar_hash": "2deebbf6be3d",
            "image_72": "https:\/\/avatars.slack-edge.com\/2020-03-06\/976932190641_2deebbf6be3d17141d91_72.jpg",
            "first_name": "Sarah",
            "real_name": "Sarah Blossom Ware",
            "display_name": "Sarah Blossom Ware - BioBlaze Community Bio Lab",
            "team": "TUU48M0T1",
            "name": "ware.sarah",
            "is_restricted": false,
            "is_ultra_restricted": false
        },
        "blocks": [
            {
                "type": "rich_text",
                "block_id": "LJz0",
                "elements": [
                    {
                        "type": "rich_text_section",
                        "elements": [
                            {
                                "type": "user",
                                "user_id": "U010RMADF2T"
                            },
                            {
                                "type": "text",
                                "text": " just added you to the "
                            },
                            {
                                "type": "channel",
                                "channel_id": "CVB9NP1L6"
                            }
                        ]
                    }
                ]
            }
        ],
        "thread_ts": "1585087866.427500",
        "parent_user_id": "U010RMADF2T"
    },
    {
        "client_msg_id": "267a7ed5-f522-4134-b23a-e350715b596d",
        "type": "message",
        "text": "great thanks!",
        "user": "U010RMADF2T",
        "ts": "1585276008.068900",
        "team": "TUU48M0T1",
        "user_team": "TUU48M0T1",
        "source_team": "TUU48M0T1",
        "user_profile": {
            "avatar_hash": "dbad29c672ae",
            "image_72": "https:\/\/avatars.slack-edge.com\/2020-03-24\/1011184829986_dbad29c672ae8a225cee_72.jpg",
            "first_name": "",
            "real_name": "Andy Wu",
            "display_name": "Andy Wu",
            "team": "TUU48M0T1",
            "name": "andy.wu",
            "is_restricted": false,
            "is_ultra_restricted": false
        },
        "blocks": [
            {
                "type": "rich_text",
                "block_id": "znc",
                "elements": [
                    {
                        "type": "rich_text_section",
                        "elements": [
                            {
                                "type": "text",
                                "text": "great thanks!"
                            }
                        ]
                    }
                ]
            }
        ],
        "thread_ts": "1585087866.427500",
        "parent_user_id": "U010RMADF2T",
        "reactions": [
            {
                "name": "+1",
                "users": [
                    "UV10KBUQG"
                ],
                "count": 1
            }
        ]
    },
    {
        "client_msg_id": "ba563ce6-6216-44d3-adb0-2bccdfd49bde",
        "type": "message",
        "text": "Hi there, I've been doing UX design for the past 6 years, and would describe myself as an empathetic problem solver. I can help with user research and product strategy, creating user flows, mockups, etc. Happy to collaborate with y'all!",
        "user": "U010L38EL8H",
        "ts": "1585276017.069200",
        "team": "TUU48M0T1",
        "user_team": "TUU48M0T1",
        "source_team": "TUU48M0T1",
        "user_profile": {
            "avatar_hash": "gd13a8df079d",
            "image_72": "https:\/\/secure.gravatar.com\/avatar\/d13a8df079df34cd0dbc819b8db3f459.jpg?s=72&d=https%3A%2F%2Fa.slack-edge.com%2Fdf10d%2Fimg%2Favatars%2Fava_0002-72.png",
            "first_name": "",
            "real_name": "Gloria Zhong",
            "display_name": "Gloria Zhong",
            "team": "TUU48M0T1",
            "name": "gzhong17",
            "is_restricted": false,
            "is_ultra_restricted": false
        },
        "blocks": [
            {
                "type": "rich_text",
                "block_id": "l+r",
                "elements": [
                    {
                        "type": "rich_text_section",
                        "elements": [
                            {
                                "type": "text",
                                "text": "Hi there, I've been doing UX design for the past 6 years, and would describe myself as an empathetic problem solver. I can help with user research and product strategy, creating user flows, mockups, etc. Happy to collaborate with y'all!"
                            }
                        ]
                    }
                ]
            }
        ],
        "thread_ts": "1585276017.069200",
        "reply_count": 1,
        "reply_users_count": 1,
        "latest_reply": "1585332553.102600",
        "reply_users": [
            "U010566NJHG"
        ],
        "replies": [
            {
                "user": "U010566NJHG",
                "ts": "1585332553.102600"
            }
        ],
        "subscribed": false,
        "reactions": [
            {
                "name": "wave",
                "users": [
                    "UV8T52QJ3",
                    "U010HGKFDNE"
                ],
                "count": 2
            },
            {
                "name": "+1",
                "users": [
                    "U010566NJHG"
                ],
                "count": 1
            }
        ]
    }
]