[
    {
        "client_msg_id": "9f1cbffb-99e2-4fd1-af06-1f134768fdb4",
        "type": "message",
        "text": "Hi Julie there. I am a new member on jogl ! I need some coordinators and experts (clinicians, data scientists, researchers, virologists, epidemiologists) to look into my project for validation. It is about combination treatment on sars-coV2 infection. The project is already posted on jogl. Thank you for your help I need teammates ! Here is the link to the project : <https:\/\/app.jogl.io\/project\/231>",
        "user": "U013NQG86SC",
        "ts": "1588609189.085800",
        "team": "TUU48M0T1",
        "user_team": "TUU48M0T1",
        "source_team": "TUU48M0T1",
        "user_profile": {
            "avatar_hash": "gd07e00ae4f0",
            "image_72": "https:\/\/secure.gravatar.com\/avatar\/d07e00ae4f063cdc6f134e2da33a600f.jpg?s=72&d=https%3A%2F%2Fa.slack-edge.com%2Fdf10d%2Fimg%2Favatars%2Fava_0013-72.png",
            "first_name": "",
            "real_name": "JT95",
            "display_name": "JT95",
            "team": "TUU48M0T1",
            "name": "julietrinh95",
            "is_restricted": false,
            "is_ultra_restricted": false
        },
        "attachments": [
            {
                "service_name": "JOGL - Just One Giant Lab",
                "title": "Combination entry blokers (rh(s)-ACE2) + a7nachR inhibitor | JOGL",
                "title_link": "https:\/\/app.jogl.io\/project\/231",
                "text": "Review of litterature and RD research of a7nachR inhibitor or building new molecules of interest, maybe it is the solution to this crisis !",
                "fallback": "JOGL - Just One Giant Lab: Combination entry blokers (rh(s)-ACE2) + a7nachR inhibitor | JOGL",
                "thumb_url": "https:\/\/app.jogl.io\/images\/default\/default-project.jpg",
                "from_url": "https:\/\/app.jogl.io\/project\/231",
                "thumb_width": 1667,
                "thumb_height": 1000,
                "service_icon": "https:\/\/app.jogl.io\/images\/favicon.ico",
                "id": 1,
                "original_url": "https:\/\/app.jogl.io\/project\/231"
            }
        ],
        "blocks": [
            {
                "type": "rich_text",
                "block_id": "\/GDeU",
                "elements": [
                    {
                        "type": "rich_text_section",
                        "elements": [
                            {
                                "type": "text",
                                "text": "Hi Julie there. I am a new member on jogl ! I need some coordinators and experts (clinicians, data scientists, researchers, virologists, epidemiologists) to look into my project for validation. It is about combination treatment on sars-coV2 infection. The project is already posted on jogl. Thank you for your help I need teammates ! Here is the link to the project : "
                            },
                            {
                                "type": "link",
                                "url": "https:\/\/app.jogl.io\/project\/231"
                            }
                        ]
                    }
                ]
            }
        ]
    }
]