[
    {
        "client_msg_id": "616882fa-400d-4d3e-a134-f72144edab47",
        "type": "message",
        "text": "Ozone Therapy and Vitamin C\n<https:\/\/www.ncbi.nlm.nih.gov\/pmc\/articles\/PMC7156242\/|https:\/\/www.ncbi.nlm.nih.gov\/pmc\/articles\/PMC7156242\/>",
        "user": "U010BA2NL9E",
        "ts": "1587822405.083800",
        "team": "TUU48M0T1",
        "user_team": "TUU48M0T1",
        "source_team": "TUU48M0T1",
        "user_profile": {
            "avatar_hash": "g3fa100f8f14",
            "image_72": "https:\/\/secure.gravatar.com\/avatar\/3fa100f8f14fc86a0f2f58648b36d29e.jpg?s=72&d=https%3A%2F%2Fa.slack-edge.com%2Fdf10d%2Fimg%2Favatars%2Fava_0008-72.png",
            "first_name": "",
            "real_name": "Eduardo Garcia",
            "display_name": "Eduardo Garcia",
            "team": "TUU48M0T1",
            "name": "eduardo.garcia",
            "is_restricted": false,
            "is_ultra_restricted": false
        },
        "attachments": [
            {
                "service_name": "PubMed Central (PMC)",
                "title": "Dos terapias conocidas podrían ser efectivas como adyuvantes en el paciente crítico infectado por COVID-19",
                "title_link": "https:\/\/www.ncbi.nlm.nih.gov\/pmc\/articles\/PMC7156242\/",
                "text": "La neumonía causada por coronavirus, que se originó en Wuhan, China, a finales de 2019, se ha extendido por todo el mundo convirtiéndose en una pandemia. Desafortunadamente, a día de hoy no existe ninguna vacuna específica ...",
                "fallback": "PubMed Central (PMC): Dos terapias conocidas podrían ser efectivas como adyuvantes en el paciente crítico infectado por COVID-19",
                "thumb_url": "https:\/\/www.ncbi.nlm.nih.gov\/corehtml\/pmc\/pmcgifs\/pmc-logo-share.png",
                "from_url": "https:\/\/www.ncbi.nlm.nih.gov\/pmc\/articles\/PMC7156242\/",
                "thumb_width": 1200,
                "thumb_height": 630,
                "service_icon": "http:\/\/www.ncbi.nlm.nih.gov\/favicon.ico",
                "id": 1,
                "original_url": "https:\/\/www.ncbi.nlm.nih.gov\/pmc\/articles\/PMC7156242\/"
            }
        ],
        "blocks": [
            {
                "type": "rich_text",
                "block_id": "VBZH+",
                "elements": [
                    {
                        "type": "rich_text_section",
                        "elements": [
                            {
                                "type": "text",
                                "text": "Ozone Therapy and Vitamin C\n"
                            },
                            {
                                "type": "link",
                                "url": "https:\/\/www.ncbi.nlm.nih.gov\/pmc\/articles\/PMC7156242\/",
                                "text": "https:\/\/www.ncbi.nlm.nih.gov\/pmc\/articles\/PMC7156242\/"
                            }
                        ]
                    }
                ]
            }
        ],
        "thread_ts": "1586515637.056600",
        "parent_user_id": "U010BA2NL9E"
    }
]