[
    {
        "client_msg_id": "fe43443a-8f91-4803-a12e-25d2d7a724c8",
        "type": "message",
        "text": "Gilead Remdesivir Clinical Trials\n\n<https:\/\/www.gilead.com\/purpose\/advancing-global-health\/covid-19\/remdesivir-clinical-trials|https:\/\/www.gilead.com\/purpose\/advancing-global-health\/covid-19\/remdesivir-clinical-trials>",
        "user": "U010BA2NL9E",
        "ts": "1586589020.067800",
        "team": "TUU48M0T1",
        "user_team": "TUU48M0T1",
        "source_team": "TUU48M0T1",
        "user_profile": {
            "avatar_hash": "g3fa100f8f14",
            "image_72": "https:\/\/secure.gravatar.com\/avatar\/3fa100f8f14fc86a0f2f58648b36d29e.jpg?s=72&d=https%3A%2F%2Fa.slack-edge.com%2Fdf10d%2Fimg%2Favatars%2Fava_0008-72.png",
            "first_name": "",
            "real_name": "Eduardo Garcia",
            "display_name": "Eduardo Garcia",
            "team": "TUU48M0T1",
            "name": "eduardo.garcia",
            "is_restricted": false,
            "is_ultra_restricted": false
        },
        "attachments": [
            {
                "title": "Remdesivir Clinical Trials",
                "title_link": "https:\/\/www.gilead.com\/purpose\/advancing-global-health\/covid-19\/remdesivir-clinical-trials",
                "text": "Remdesivir Clinical Trials description",
                "fallback": "Remdesivir Clinical Trials",
                "from_url": "https:\/\/www.gilead.com\/purpose\/advancing-global-health\/covid-19\/remdesivir-clinical-trials",
                "service_icon": "https:\/\/www.gilead.com\/-\/media\/gilead-corporate\/images\/gileadicon.png",
                "service_name": "gilead.com",
                "id": 1,
                "original_url": "https:\/\/www.gilead.com\/purpose\/advancing-global-health\/covid-19\/remdesivir-clinical-trials"
            }
        ],
        "blocks": [
            {
                "type": "rich_text",
                "block_id": "K5L",
                "elements": [
                    {
                        "type": "rich_text_section",
                        "elements": [
                            {
                                "type": "text",
                                "text": "Gilead Remdesivir Clinical Trials\n\n"
                            },
                            {
                                "type": "link",
                                "url": "https:\/\/www.gilead.com\/purpose\/advancing-global-health\/covid-19\/remdesivir-clinical-trials",
                                "text": "https:\/\/www.gilead.com\/purpose\/advancing-global-health\/covid-19\/remdesivir-clinical-trials"
                            }
                        ]
                    }
                ]
            }
        ],
        "thread_ts": "1586589020.067800",
        "reply_count": 2,
        "reply_users_count": 1,
        "latest_reply": "1587475312.078700",
        "reply_users": [
            "U010BA2NL9E"
        ],
        "replies": [
            {
                "user": "U010BA2NL9E",
                "ts": "1586589119.068000"
            },
            {
                "user": "U010BA2NL9E",
                "ts": "1587475312.078700"
            }
        ],
        "subscribed": false
    },
    {
        "client_msg_id": "1bf5c93b-dcf3-4832-9135-15bc76ee2a71",
        "type": "message",
        "text": "<https:\/\/www.businessinsider.com\/gilead-remdesivir-clinical-data-in-covid-19-patients-2020-4|https:\/\/www.businessinsider.com\/gilead-remdesivir-clinical-data-in-covid-19-patients-2020-4>",
        "user": "U010BA2NL9E",
        "ts": "1586589119.068000",
        "team": "TUU48M0T1",
        "user_team": "TUU48M0T1",
        "source_team": "TUU48M0T1",
        "user_profile": {
            "avatar_hash": "g3fa100f8f14",
            "image_72": "https:\/\/secure.gravatar.com\/avatar\/3fa100f8f14fc86a0f2f58648b36d29e.jpg?s=72&d=https%3A%2F%2Fa.slack-edge.com%2Fdf10d%2Fimg%2Favatars%2Fava_0008-72.png",
            "first_name": "",
            "real_name": "Eduardo Garcia",
            "display_name": "Eduardo Garcia",
            "team": "TUU48M0T1",
            "name": "eduardo.garcia",
            "is_restricted": false,
            "is_ultra_restricted": false
        },
        "attachments": [
            {
                "service_name": "Business Insider",
                "title": "We just got more 'hopeful' data on Gilead's potential coronavirus treatment, but it's too soon to tell if the drug works",
                "title_link": "https:\/\/www.businessinsider.com\/gilead-remdesivir-clinical-data-in-covid-19-patients-2020-4",
                "text": "Researchers said they couldn't make conclusions about remdesivir's effectiveness because of study limitations, but high-quality data is coming soon.",
                "fallback": "Business Insider: We just got more 'hopeful' data on Gilead's potential coronavirus treatment, but it's too soon to tell if the drug works",
                "image_url": "https:\/\/i.insider.com\/5e90dd760b3c9b6fcb7c161c?width=1200&format=jpeg",
                "from_url": "https:\/\/www.businessinsider.com\/gilead-remdesivir-clinical-data-in-covid-19-patients-2020-4",
                "image_width": 500,
                "image_height": 250,
                "image_bytes": 58897,
                "service_icon": "http:\/\/www.businessinsider.com\/public\/assets\/BI\/US\/favicons\/apple-touch-icon.png?12-31-19",
                "id": 1,
                "original_url": "https:\/\/www.businessinsider.com\/gilead-remdesivir-clinical-data-in-covid-19-patients-2020-4"
            }
        ],
        "blocks": [
            {
                "type": "rich_text",
                "block_id": "QEC",
                "elements": [
                    {
                        "type": "rich_text_section",
                        "elements": [
                            {
                                "type": "link",
                                "url": "https:\/\/www.businessinsider.com\/gilead-remdesivir-clinical-data-in-covid-19-patients-2020-4",
                                "text": "https:\/\/www.businessinsider.com\/gilead-remdesivir-clinical-data-in-covid-19-patients-2020-4"
                            }
                        ]
                    }
                ]
            }
        ],
        "thread_ts": "1586589020.067800",
        "parent_user_id": "U010BA2NL9E"
    },
    {
        "client_msg_id": "52ba1cb8-dc37-446e-989f-e273ecd796da",
        "type": "message",
        "text": "<https:\/\/www.telefriuli.it\/cronaca\/cura-ozono-sperimentata-ospedale-udine-italia\/2\/205626\/art\/|https:\/\/www.telefriuli.it\/cronaca\/cura-ozono-sperimentata-ospedale-udine-italia\/2\/205626\/art\/>",
        "user": "U010BA2NL9E",
        "ts": "1586590126.068300",
        "team": "TUU48M0T1",
        "user_team": "TUU48M0T1",
        "source_team": "TUU48M0T1",
        "user_profile": {
            "avatar_hash": "g3fa100f8f14",
            "image_72": "https:\/\/secure.gravatar.com\/avatar\/3fa100f8f14fc86a0f2f58648b36d29e.jpg?s=72&d=https%3A%2F%2Fa.slack-edge.com%2Fdf10d%2Fimg%2Favatars%2Fava_0008-72.png",
            "first_name": "",
            "real_name": "Eduardo Garcia",
            "display_name": "Eduardo Garcia",
            "team": "TUU48M0T1",
            "name": "eduardo.garcia",
            "is_restricted": false,
            "is_ultra_restricted": false
        },
        "attachments": [
            {
                "title": "La cura all'ozono sperimentata all'ospedale di Udine fa sperare l'Italia",
                "title_link": "https:\/\/www.telefriuli.it\/cronaca\/cura-ozono-sperimentata-ospedale-udine-italia\/2\/205626\/art\/",
                "text": "Su 36 pazienti solo 1 intubato. Fedriga: “La cura sembra dare ottimi risultati. Aspettiamo via libera dall’Agenzia Italiana del Farmaco per iniziare la sperimentazione”",
                "fallback": "La cura all'ozono sperimentata all'ospedale di Udine fa sperare l'Italia",
                "thumb_url": "https:\/\/www.telefriuli.it\/writable\/images\/IMG_0186_FB205626.jpg",
                "from_url": "https:\/\/www.telefriuli.it\/cronaca\/cura-ozono-sperimentata-ospedale-udine-italia\/2\/205626\/art\/",
                "thumb_width": 1632,
                "thumb_height": 1224,
                "service_icon": "https:\/\/www.telefriuli.it\/favicon.ico",
                "service_name": "telefriuli.it",
                "id": 1,
                "original_url": "https:\/\/www.telefriuli.it\/cronaca\/cura-ozono-sperimentata-ospedale-udine-italia\/2\/205626\/art\/"
            }
        ],
        "blocks": [
            {
                "type": "rich_text",
                "block_id": "fnB",
                "elements": [
                    {
                        "type": "rich_text_section",
                        "elements": [
                            {
                                "type": "link",
                                "url": "https:\/\/www.telefriuli.it\/cronaca\/cura-ozono-sperimentata-ospedale-udine-italia\/2\/205626\/art\/",
                                "text": "https:\/\/www.telefriuli.it\/cronaca\/cura-ozono-sperimentata-ospedale-udine-italia\/2\/205626\/art\/"
                            }
                        ]
                    }
                ]
            }
        ],
        "thread_ts": "1586515637.056600",
        "parent_user_id": "U010BA2NL9E"
    },
    {
        "client_msg_id": "bbe39a7b-b4cb-401f-9d6f-60ed8b8fdeab",
        "type": "message",
        "text": "<https:\/\/finance.yahoo.com\/news\/texas-know-calls-us-consider-151100086.html|https:\/\/finance.yahoo.com\/news\/texas-know-calls-us-consider-151100086.html>",
        "user": "U010BA2NL9E",
        "ts": "1586590492.068600",
        "team": "TUU48M0T1",
        "user_team": "TUU48M0T1",
        "source_team": "TUU48M0T1",
        "user_profile": {
            "avatar_hash": "g3fa100f8f14",
            "image_72": "https:\/\/secure.gravatar.com\/avatar\/3fa100f8f14fc86a0f2f58648b36d29e.jpg?s=72&d=https%3A%2F%2Fa.slack-edge.com%2Fdf10d%2Fimg%2Favatars%2Fava_0008-72.png",
            "first_name": "",
            "real_name": "Eduardo Garcia",
            "display_name": "Eduardo Garcia",
            "team": "TUU48M0T1",
            "name": "eduardo.garcia",
            "is_restricted": false,
            "is_ultra_restricted": false
        },
        "attachments": [
            {
                "title": "Texas Right to Know Calls on US to Consider COVID-19 Ozone Therapy After It Shows Promise in Italy",
                "title_link": "https:\/\/finance.yahoo.com\/news\/texas-know-calls-us-consider-151100086.html",
                "text": "With a coalition of state, national and international physicians and researchers, Sheila Hemphill, CEO of Texas Right to Know, is calling to action US state and federal agencies to consider the use of medical ozone as a safe adjuvant therapy option for the treatment of COVID-19.",
                "fallback": "Texas Right to Know Calls on US to Consider COVID-19 Ozone Therapy After It Shows Promise in Italy",
                "from_url": "https:\/\/finance.yahoo.com\/news\/texas-know-calls-us-consider-151100086.html",
                "thumb_url": "https:\/\/s.yimg.com\/uu\/api\/res\/1.2\/Yam.RSw70GkA4qp0bVqTSw--~B\/aD0xNjt3PTE2O3NtPTE7YXBwaWQ9eXRhY2h5b24-\/https:\/\/media.zenfs.com\/en\/prnewswire.com\/71667a206e27ba33499de174b70af4bb",
                "thumb_width": 16,
                "thumb_height": 16,
                "service_icon": "https:\/\/finance.yahoo.com\/favicon.ico",
                "service_name": "finance.yahoo.com",
                "id": 1,
                "original_url": "https:\/\/finance.yahoo.com\/news\/texas-know-calls-us-consider-151100086.html"
            }
        ],
        "blocks": [
            {
                "type": "rich_text",
                "block_id": "Ksi",
                "elements": [
                    {
                        "type": "rich_text_section",
                        "elements": [
                            {
                                "type": "link",
                                "url": "https:\/\/finance.yahoo.com\/news\/texas-know-calls-us-consider-151100086.html",
                                "text": "https:\/\/finance.yahoo.com\/news\/texas-know-calls-us-consider-151100086.html"
                            }
                        ]
                    }
                ]
            }
        ],
        "thread_ts": "1586515637.056600",
        "parent_user_id": "U010BA2NL9E"
    },
    {
        "client_msg_id": "d9f82d19-ba3d-46a5-8a27-488f3b51e008",
        "type": "message",
        "text": "Sandro Giannini describes the problem as cardiovascular, not respiratory.\n\n\"Se ventili un polmone dove il sangue non arriva, non serve! Infatti muoiono 9 su 10. Perche il problema è cardiovascolare, non respiratorio! Sono le microtrombosi venose, non la polmonite a determinare la fatalità!\"\n\n<https:\/\/buongiornonews.it\/coronavirus-una-speranza-dalla-scoperta-del-prof-giannini\/|https:\/\/buongiornonews.it\/coronavirus-una-speranza-dalla-scoperta-del-prof-giannini\/>",
        "user": "U010BA2NL9E",
        "ts": "1586610096.070800",
        "team": "TUU48M0T1",
        "user_team": "TUU48M0T1",
        "source_team": "TUU48M0T1",
        "user_profile": {
            "avatar_hash": "g3fa100f8f14",
            "image_72": "https:\/\/secure.gravatar.com\/avatar\/3fa100f8f14fc86a0f2f58648b36d29e.jpg?s=72&d=https%3A%2F%2Fa.slack-edge.com%2Fdf10d%2Fimg%2Favatars%2Fava_0008-72.png",
            "first_name": "",
            "real_name": "Eduardo Garcia",
            "display_name": "Eduardo Garcia",
            "team": "TUU48M0T1",
            "name": "eduardo.garcia",
            "is_restricted": false,
            "is_ultra_restricted": false
        },
        "edited": {
            "user": "U010BA2NL9E",
            "ts": "1586610246.000000"
        },
        "blocks": [
            {
                "type": "rich_text",
                "block_id": "BG7",
                "elements": [
                    {
                        "type": "rich_text_section",
                        "elements": [
                            {
                                "type": "text",
                                "text": "Sandro Giannini describes the problem as cardiovascular, not respiratory.\n\n\"Se ventili un polmone dove il sangue non arriva, non serve! Infatti muoiono 9 su 10. Perche il problema è cardiovascolare, non respiratorio! Sono le microtrombosi venose, non la polmonite a determinare la fatalità!\"\n\n"
                            },
                            {
                                "type": "link",
                                "url": "https:\/\/buongiornonews.it\/coronavirus-una-speranza-dalla-scoperta-del-prof-giannini\/",
                                "text": "https:\/\/buongiornonews.it\/coronavirus-una-speranza-dalla-scoperta-del-prof-giannini\/"
                            }
                        ]
                    }
                ]
            }
        ],
        "thread_ts": "1586410319.043200",
        "parent_user_id": "U010BA2NL9E"
    },
    {
        "client_msg_id": "d25e3b4e-1131-43ee-8f88-bbb78b1be2c4",
        "type": "message",
        "text": "COVID-19 Autopsies, Oklahoma, USA \n\n<https:\/\/academic.oup.com\/ajcp\/advance-article\/doi\/10.1093\/ajcp\/aqaa062\/5818922|https:\/\/academic.oup.com\/ajcp\/advance-article\/doi\/10.1093\/ajcp\/aqaa062\/5818922>",
        "user": "U010BA2NL9E",
        "ts": "1586611308.071300",
        "team": "TUU48M0T1",
        "user_team": "TUU48M0T1",
        "source_team": "TUU48M0T1",
        "user_profile": {
            "avatar_hash": "g3fa100f8f14",
            "image_72": "https:\/\/secure.gravatar.com\/avatar\/3fa100f8f14fc86a0f2f58648b36d29e.jpg?s=72&d=https%3A%2F%2Fa.slack-edge.com%2Fdf10d%2Fimg%2Favatars%2Fava_0008-72.png",
            "first_name": "",
            "real_name": "Eduardo Garcia",
            "display_name": "Eduardo Garcia",
            "team": "TUU48M0T1",
            "name": "eduardo.garcia",
            "is_restricted": false,
            "is_ultra_restricted": false
        },
        "edited": {
            "user": "U010BA2NL9E",
            "ts": "1586611347.000000"
        },
        "blocks": [
            {
                "type": "rich_text",
                "block_id": "+vNEl",
                "elements": [
                    {
                        "type": "rich_text_section",
                        "elements": [
                            {
                                "type": "text",
                                "text": "COVID-19 Autopsies, Oklahoma, USA \n\n"
                            },
                            {
                                "type": "link",
                                "url": "https:\/\/academic.oup.com\/ajcp\/advance-article\/doi\/10.1093\/ajcp\/aqaa062\/5818922",
                                "text": "https:\/\/academic.oup.com\/ajcp\/advance-article\/doi\/10.1093\/ajcp\/aqaa062\/5818922"
                            }
                        ]
                    }
                ]
            }
        ],
        "thread_ts": "1586410319.043200",
        "parent_user_id": "U010BA2NL9E"
    },
    {
        "client_msg_id": "aa11d692-d61a-4b26-acf0-5d73208305b0",
        "type": "message",
        "text": "<https:\/\/www.sciencetimes.com\/articles\/25247\/20200408\/coronavirus-vaccine-ready-six-months-oxford-university.htm|https:\/\/www.sciencetimes.com\/articles\/25247\/20200408\/coronavirus-vaccine-ready-six-months-oxford-university.htm>",
        "user": "U010BA2NL9E",
        "ts": "1586627634.072000",
        "team": "TUU48M0T1",
        "user_team": "TUU48M0T1",
        "source_team": "TUU48M0T1",
        "user_profile": {
            "avatar_hash": "g3fa100f8f14",
            "image_72": "https:\/\/secure.gravatar.com\/avatar\/3fa100f8f14fc86a0f2f58648b36d29e.jpg?s=72&d=https%3A%2F%2Fa.slack-edge.com%2Fdf10d%2Fimg%2Favatars%2Fava_0008-72.png",
            "first_name": "",
            "real_name": "Eduardo Garcia",
            "display_name": "Eduardo Garcia",
            "team": "TUU48M0T1",
            "name": "eduardo.garcia",
            "is_restricted": false,
            "is_ultra_restricted": false
        },
        "attachments": [
            {
                "service_name": "Science Times",
                "title": "Coronavirus Vaccine Could Be Ready in Six Months, Says Oxford University",
                "title_link": "https:\/\/www.sciencetimes.com\/articles\/25247\/20200408\/coronavirus-vaccine-ready-six-months-oxford-university.htm",
                "text": "Good news! The researchers behind the major Oxford University drug trial say that COVID-19 vaccine could be ready as early as in autumn.",
                "fallback": "Science Times: Coronavirus Vaccine Could Be Ready in Six Months, Says Oxford University",
                "image_url": "https:\/\/1721181113.rsc.cdn77.org\/data\/images\/full\/26857\/coronavirus-vaccine-could-be-ready-in-six-months-says-oxford-university.png",
                "ts": 1586396653,
                "from_url": "https:\/\/www.sciencetimes.com\/articles\/25247\/20200408\/coronavirus-vaccine-ready-six-months-oxford-university.htm",
                "image_width": 385,
                "image_height": 250,
                "image_bytes": 959531,
                "service_icon": "https:\/\/1087935514.rsc.cdn77.org\/static\/common\/_v0.0.0\/favicon.ico",
                "id": 1,
                "original_url": "https:\/\/www.sciencetimes.com\/articles\/25247\/20200408\/coronavirus-vaccine-ready-six-months-oxford-university.htm"
            }
        ],
        "blocks": [
            {
                "type": "rich_text",
                "block_id": "GnrS",
                "elements": [
                    {
                        "type": "rich_text_section",
                        "elements": [
                            {
                                "type": "link",
                                "url": "https:\/\/www.sciencetimes.com\/articles\/25247\/20200408\/coronavirus-vaccine-ready-six-months-oxford-university.htm",
                                "text": "https:\/\/www.sciencetimes.com\/articles\/25247\/20200408\/coronavirus-vaccine-ready-six-months-oxford-university.htm"
                            }
                        ]
                    }
                ]
            }
        ],
        "thread_ts": "1586627634.072000",
        "reply_count": 1,
        "reply_users_count": 1,
        "latest_reply": "1587486722.080900",
        "reply_users": [
            "U010BA2NL9E"
        ],
        "replies": [
            {
                "user": "U010BA2NL9E",
                "ts": "1587486722.080900"
            }
        ],
        "subscribed": false,
        "reactions": [
            {
                "name": "+1",
                "users": [
                    "U01084P4ELX"
                ],
                "count": 1
            }
        ]
    },
    {
        "client_msg_id": "c760ecde-a22a-4844-84e1-e4eeacf2eb12",
        "type": "message",
        "text": "How to cripple SARS-COV-2 virus with Ozone treatment Thiol groups in viruses and SARS-COV-2\n\n<https:\/\/www.researchgate.net\/publication\/340253197_How_to_cripple_SARS-COV-2_virus_with_Ozone_treatment_Thiol_groups_in_viruses_and_SARS-COV-2|https:\/\/www.researchgate.net\/publication\/340253197_How_to_cripple_SARS-COV-2_virus_with_Ozone_treatment_Thiol_groups_in_viruses_and_SARS-COV-2>",
        "user": "U010BA2NL9E",
        "ts": "1586637044.072300",
        "team": "TUU48M0T1",
        "user_team": "TUU48M0T1",
        "source_team": "TUU48M0T1",
        "user_profile": {
            "avatar_hash": "g3fa100f8f14",
            "image_72": "https:\/\/secure.gravatar.com\/avatar\/3fa100f8f14fc86a0f2f58648b36d29e.jpg?s=72&d=https%3A%2F%2Fa.slack-edge.com%2Fdf10d%2Fimg%2Favatars%2Fava_0008-72.png",
            "first_name": "",
            "real_name": "Eduardo Garcia",
            "display_name": "Eduardo Garcia",
            "team": "TUU48M0T1",
            "name": "eduardo.garcia",
            "is_restricted": false,
            "is_ultra_restricted": false
        },
        "blocks": [
            {
                "type": "rich_text",
                "block_id": "MECI4",
                "elements": [
                    {
                        "type": "rich_text_section",
                        "elements": [
                            {
                                "type": "text",
                                "text": "How to cripple SARS-COV-2 virus with Ozone treatment Thiol groups in viruses and SARS-COV-2\n\n"
                            },
                            {
                                "type": "link",
                                "url": "https:\/\/www.researchgate.net\/publication\/340253197_How_to_cripple_SARS-COV-2_virus_with_Ozone_treatment_Thiol_groups_in_viruses_and_SARS-COV-2",
                                "text": "https:\/\/www.researchgate.net\/publication\/340253197_How_to_cripple_SARS-COV-2_virus_with_Ozone_treatment_Thiol_groups_in_viruses_and_SARS-COV-2"
                            }
                        ]
                    }
                ]
            }
        ],
        "thread_ts": "1586515637.056600",
        "parent_user_id": "U010BA2NL9E"
    },
    {
        "client_msg_id": "8579208b-737e-4059-ba79-7bdcf1ddce09",
        "type": "message",
        "text": "<https:\/\/isco3.org\/officialdocs\/|https:\/\/isco3.org\/officialdocs\/>",
        "user": "U010BA2NL9E",
        "ts": "1586637954.072500",
        "team": "TUU48M0T1",
        "user_team": "TUU48M0T1",
        "source_team": "TUU48M0T1",
        "user_profile": {
            "avatar_hash": "g3fa100f8f14",
            "image_72": "https:\/\/secure.gravatar.com\/avatar\/3fa100f8f14fc86a0f2f58648b36d29e.jpg?s=72&d=https%3A%2F%2Fa.slack-edge.com%2Fdf10d%2Fimg%2Favatars%2Fava_0008-72.png",
            "first_name": "",
            "real_name": "Eduardo Garcia",
            "display_name": "Eduardo Garcia",
            "team": "TUU48M0T1",
            "name": "eduardo.garcia",
            "is_restricted": false,
            "is_ultra_restricted": false
        },
        "attachments": [
            {
                "service_name": "ISCO 3",
                "title": "OFFICIAL PUBLICATIONS",
                "title_link": "https:\/\/isco3.org\/officialdocs\/",
                "text": "ISCO3 documents are recommendations which may become source of guiding and reference to all those who practice ozone therapy. However it is up to each ozone therapist to follow or not the recommendations issued by ISCO3. All documents are online and of free access. The only exception is the Madrid Declaration on Ozone Therapy. All documents are in English",
                "fallback": "ISCO 3: OFFICIAL PUBLICATIONS",
                "from_url": "https:\/\/isco3.org\/officialdocs\/",
                "thumb_url": "https:\/\/isco3.org\/wp-content\/uploads\/2016\/11\/logo-isco-e1480417224765.png",
                "thumb_width": 150,
                "thumb_height": 95,
                "id": 1,
                "original_url": "https:\/\/isco3.org\/officialdocs\/"
            }
        ],
        "blocks": [
            {
                "type": "rich_text",
                "block_id": "25w+",
                "elements": [
                    {
                        "type": "rich_text_section",
                        "elements": [
                            {
                                "type": "link",
                                "url": "https:\/\/isco3.org\/officialdocs\/",
                                "text": "https:\/\/isco3.org\/officialdocs\/"
                            }
                        ]
                    }
                ]
            }
        ],
        "thread_ts": "1586515637.056600",
        "parent_user_id": "U010BA2NL9E"
    },
    {
        "client_msg_id": "329c244a-b527-4094-8ce6-901f71643ac3",
        "type": "message",
        "text": "<https:\/\/isco3.org\/wp-content\/uploads\/2015\/09\/English-Covid-19.pdf|https:\/\/isco3.org\/wp-content\/uploads\/2015\/09\/English-Covid-19.pdf>",
        "user": "U010BA2NL9E",
        "ts": "1586637968.072800",
        "team": "TUU48M0T1",
        "user_team": "TUU48M0T1",
        "source_team": "TUU48M0T1",
        "user_profile": {
            "avatar_hash": "g3fa100f8f14",
            "image_72": "https:\/\/secure.gravatar.com\/avatar\/3fa100f8f14fc86a0f2f58648b36d29e.jpg?s=72&d=https%3A%2F%2Fa.slack-edge.com%2Fdf10d%2Fimg%2Favatars%2Fava_0008-72.png",
            "first_name": "",
            "real_name": "Eduardo Garcia",
            "display_name": "Eduardo Garcia",
            "team": "TUU48M0T1",
            "name": "eduardo.garcia",
            "is_restricted": false,
            "is_ultra_restricted": false
        },
        "blocks": [
            {
                "type": "rich_text",
                "block_id": "1EPGV",
                "elements": [
                    {
                        "type": "rich_text_section",
                        "elements": [
                            {
                                "type": "link",
                                "url": "https:\/\/isco3.org\/wp-content\/uploads\/2015\/09\/English-Covid-19.pdf",
                                "text": "https:\/\/isco3.org\/wp-content\/uploads\/2015\/09\/English-Covid-19.pdf"
                            }
                        ]
                    }
                ]
            }
        ],
        "thread_ts": "1586515637.056600",
        "parent_user_id": "U010BA2NL9E"
    }
]