[
    {
        "client_msg_id": "6CFBBA15-CAB3-4F45-A0BE-D2EDD3E03168",
        "type": "message",
        "text": "Hi <@UV0CX49QB> welcome! \nYou should join the bio channels such as <#CV6G2NCAJ|proj-environmental-monitoring> <#CV42US023|proj-repro-sherlock> don’t hesitate to poke around :)",
        "user": "UV02WET96",
        "ts": "1585208340.003300",
        "team": "TUU48M0T1",
        "user_team": "TUU48M0T1",
        "source_team": "TUU48M0T1",
        "user_profile": {
            "avatar_hash": "a99c74a194f8",
            "image_72": "https:\/\/avatars.slack-edge.com\/2020-03-07\/975708504851_a99c74a194f86715ca7d_72.png",
            "first_name": "Thomas",
            "real_name": "Thomas Landrain",
            "display_name": "Thomas Landrain - JOGL CoFounder \/ CEO",
            "team": "TUU48M0T1",
            "name": "thomas",
            "is_restricted": false,
            "is_ultra_restricted": false
        },
        "blocks": [
            {
                "type": "rich_text",
                "block_id": "\/2sS",
                "elements": [
                    {
                        "type": "rich_text_section",
                        "elements": [
                            {
                                "type": "text",
                                "text": "Hi "
                            },
                            {
                                "type": "user",
                                "user_id": "UV0CX49QB"
                            },
                            {
                                "type": "text",
                                "text": " welcome! \nYou should join the bio channels such as "
                            },
                            {
                                "type": "channel",
                                "channel_id": "CV6G2NCAJ"
                            },
                            {
                                "type": "text",
                                "text": " "
                            },
                            {
                                "type": "channel",
                                "channel_id": "CV42US023"
                            },
                            {
                                "type": "text",
                                "text": " don’t hesitate to poke around :)"
                            }
                        ]
                    }
                ]
            }
        ],
        "thread_ts": "1585187857.000400",
        "parent_user_id": "UV0CX49QB"
    },
    {
        "type": "message",
        "subtype": "bot_add",
        "text": "added an integration to this channel: <https:\/\/open-covid19.slack.com\/services\/B010G8L5S90|MyApp>",
        "user": "UVC9WMA7N",
        "bot_id": "B010G8L5S90",
        "bot_link": "<https:\/\/open-covid19.slack.com\/services\/B010G8L5S90|MyApp>",
        "ts": "1585240641.003500"
    },
    {
        "client_msg_id": "f02b18ca-fba9-4953-859e-68ddec257856",
        "type": "message",
        "text": "UPDATED VERSION: This is a prefix trie of all 28-mers in the human transcriptome GRCh38.p13, stored as a LevelDB database. It is intended to accelerate development of CRISPR-based and similar treatments for COVID-19 and other diseases caused by RNA viruses, with less risk of long-term side effects due to attacking healthy RNA. Please seed! magnet:?xt=urn:btih:ac6be6d6d222b6786402402c765f6865b7428f20&amp;dn=trie-v2.0.1&amp;tr=https%3A%2F%2Ftracker.lelux.fi%3A443%2Fannounce",
        "user": "U01084P4ELX",
        "ts": "1585282828.004400",
        "team": "TUU48M0T1",
        "user_team": "TUU48M0T1",
        "source_team": "TUU48M0T1",
        "user_profile": {
            "avatar_hash": "g314bfba96c5",
            "image_72": "https:\/\/secure.gravatar.com\/avatar\/314bfba96c545495efbc8e77256c78a1.jpg?s=72&d=https%3A%2F%2Fa.slack-edge.com%2Fdf10d%2Fimg%2Favatars%2Fava_0024-72.png",
            "first_name": "",
            "real_name": "Chris Hennick",
            "display_name": "Chris Hennick",
            "team": "TUU48M0T1",
            "name": "chrishennick1",
            "is_restricted": false,
            "is_ultra_restricted": false
        },
        "blocks": [
            {
                "type": "rich_text",
                "block_id": "Wo\/s",
                "elements": [
                    {
                        "type": "rich_text_section",
                        "elements": [
                            {
                                "type": "text",
                                "text": "UPDATED VERSION: This is a prefix trie of all 28-mers in the human transcriptome GRCh38.p13, stored as a LevelDB database. It is intended to accelerate development of CRISPR-based and similar treatments for COVID-19 and other diseases caused by RNA viruses, with less risk of long-term side effects due to attacking healthy RNA. Please seed! magnet:?xt=urn:btih:ac6be6d6d222b6786402402c765f6865b7428f20&dn=trie-v2.0.1&tr=https%3A%2F%2Ftracker.lelux.fi%3A443%2Fannounce"
                            }
                        ]
                    }
                ]
            }
        ]
    },
    {
        "client_msg_id": "2d82286d-adad-47e7-b551-22504096840b",
        "type": "message",
        "text": "why would you want to use crispr to treat a virus. It's a terrible strategy as it's hard to deliver to all infected cells and the risk of off target cuts is very high. I get that when all you've got is a hammer everything looks like a nail, but it's not a good approach in this case. A DNA based vaccine delivering viral proteins would do the job nicely, or use one of the many drugs that being shown to work pretty well at making those already infected suffer less and heal faster.",
        "user": "UV7QBRCFN",
        "ts": "1585284888.006700",
        "team": "TUU48M0T1",
        "user_team": "TUU48M0T1",
        "source_team": "TUU48M0T1",
        "user_profile": {
            "avatar_hash": "94fb372e8cfc",
            "image_72": "https:\/\/avatars.slack-edge.com\/2020-03-12\/996385001668_94fb372e8cfcfe2ee1cd_72.png",
            "first_name": "",
            "real_name": "Justin A",
            "display_name": "Justin A",
            "team": "TUU48M0T1",
            "name": "thethoughtemporium",
            "is_restricted": false,
            "is_ultra_restricted": false
        },
        "blocks": [
            {
                "type": "rich_text",
                "block_id": "F\/I",
                "elements": [
                    {
                        "type": "rich_text_section",
                        "elements": [
                            {
                                "type": "text",
                                "text": "why would you want to use crispr to treat a virus. It's a terrible strategy as it's hard to deliver to all infected cells and the risk of off target cuts is very high. I get that when all you've got is a hammer everything looks like a nail, but it's not a good approach in this case. A DNA based vaccine delivering viral proteins would do the job nicely, or use one of the many drugs that being shown to work pretty well at making those already infected suffer less and heal faster."
                            }
                        ]
                    }
                ]
            }
        ],
        "thread_ts": "1585284888.006700",
        "reply_count": 4,
        "reply_users_count": 2,
        "latest_reply": "1585339671.008500",
        "reply_users": [
            "U01084P4ELX",
            "UV7QBRCFN"
        ],
        "replies": [
            {
                "user": "U01084P4ELX",
                "ts": "1585285799.007800"
            },
            {
                "user": "UV7QBRCFN",
                "ts": "1585286018.008100"
            },
            {
                "user": "U01084P4ELX",
                "ts": "1585338849.008300"
            },
            {
                "user": "U01084P4ELX",
                "ts": "1585339671.008500"
            }
        ],
        "subscribed": false
    },
    {
        "client_msg_id": "75651a5f-49bc-4a23-8cf2-5ca75d9cc6ee",
        "type": "message",
        "text": "Yeah, but what if those turn out not to work for everyone? A treatment doesn't have to become first-line to save lives.",
        "user": "U01084P4ELX",
        "ts": "1585285799.007800",
        "team": "TUU48M0T1",
        "user_team": "TUU48M0T1",
        "source_team": "TUU48M0T1",
        "user_profile": {
            "avatar_hash": "g314bfba96c5",
            "image_72": "https:\/\/secure.gravatar.com\/avatar\/314bfba96c545495efbc8e77256c78a1.jpg?s=72&d=https%3A%2F%2Fa.slack-edge.com%2Fdf10d%2Fimg%2Favatars%2Fava_0024-72.png",
            "first_name": "",
            "real_name": "Chris Hennick",
            "display_name": "Chris Hennick",
            "team": "TUU48M0T1",
            "name": "chrishennick1",
            "is_restricted": false,
            "is_ultra_restricted": false
        },
        "edited": {
            "user": "U01084P4ELX",
            "ts": "1585285834.000000"
        },
        "blocks": [
            {
                "type": "rich_text",
                "block_id": "U9HR",
                "elements": [
                    {
                        "type": "rich_text_section",
                        "elements": [
                            {
                                "type": "text",
                                "text": "Yeah, but what if those turn out not to work for everyone? A treatment doesn't have to become first-line to save lives."
                            }
                        ]
                    }
                ]
            }
        ],
        "thread_ts": "1585284888.006700",
        "parent_user_id": "UV7QBRCFN"
    },
    {
        "client_msg_id": "a90de0b4-c159-45ea-b874-629e0aa63d84",
        "type": "message",
        "text": "crispr is still an awful choice. You'd need to deliver it via an AAV of similair to get sufficient tissue coverage, and the dose would be huge. And your immune system would already be fully engaged so chances of it even working are low.",
        "user": "UV7QBRCFN",
        "ts": "1585286018.008100",
        "team": "TUU48M0T1",
        "user_team": "TUU48M0T1",
        "source_team": "TUU48M0T1",
        "user_profile": {
            "avatar_hash": "94fb372e8cfc",
            "image_72": "https:\/\/avatars.slack-edge.com\/2020-03-12\/996385001668_94fb372e8cfcfe2ee1cd_72.png",
            "first_name": "",
            "real_name": "Justin A",
            "display_name": "Justin A",
            "team": "TUU48M0T1",
            "name": "thethoughtemporium",
            "is_restricted": false,
            "is_ultra_restricted": false
        },
        "blocks": [
            {
                "type": "rich_text",
                "block_id": "RvdZd",
                "elements": [
                    {
                        "type": "rich_text_section",
                        "elements": [
                            {
                                "type": "text",
                                "text": "crispr is still an awful choice. You'd need to deliver it via an AAV of similair to get sufficient tissue coverage, and the dose would be huge. And your immune system would already be fully engaged so chances of it even working are low."
                            }
                        ]
                    }
                ]
            }
        ],
        "thread_ts": "1585284888.006700",
        "parent_user_id": "UV7QBRCFN"
    }
]