[
    {
        "client_msg_id": "09a9c387-d3d6-48e3-9bf6-852bff69beda",
        "type": "message",
        "text": "More autopsies\n\n<https:\/\/amp.redaccionmedica.com\/secciones\/sanidad-hoy\/coronavirus-conclusiones-de-las-primeras-autopsias-en-muertos-con-covid-19-9912|https:\/\/amp.redaccionmedica.com\/secciones\/sanidad-hoy\/coronavirus-conclusiones-de-las-primeras-autopsias-en-muertos-con-covid-19-9912>",
        "user": "U010BA2NL9E",
        "ts": "1587390593.076300",
        "team": "TUU48M0T1",
        "user_team": "TUU48M0T1",
        "source_team": "TUU48M0T1",
        "user_profile": {
            "avatar_hash": "g3fa100f8f14",
            "image_72": "https:\/\/secure.gravatar.com\/avatar\/3fa100f8f14fc86a0f2f58648b36d29e.jpg?s=72&d=https%3A%2F%2Fa.slack-edge.com%2Fdf10d%2Fimg%2Favatars%2Fava_0008-72.png",
            "first_name": "",
            "real_name": "Eduardo Garcia",
            "display_name": "Eduardo Garcia",
            "team": "TUU48M0T1",
            "name": "eduardo.garcia",
            "is_restricted": false,
            "is_ultra_restricted": false
        },
        "attachments": [
            {
                "service_name": "Redacción Médica",
                "title": "Coronavirus: conclusiones de las primeras autopsias en muertos con Covid-19",
                "title_link": "https:\/\/amp.redaccionmedica.com\/secciones\/sanidad-hoy\/coronavirus-conclusiones-de-las-primeras-autopsias-en-muertos-con-covid-19-9912",
                "text": "Italia ha realizado 50 autopsias a pacientes afectados por Covid-19, en casi todos los casos dirigidas a los pulmones",
                "fallback": "Redacción Médica: Coronavirus: conclusiones de las primeras autopsias en muertos con Covid-19",
                "image_url": "https:\/\/www.redaccionmedica.com\/images\/destacados\/coronavirus-conclusiones-de-las-primeras-autopsias-en-muertos-con-covid-19-9912.jpg",
                "from_url": "https:\/\/amp.redaccionmedica.com\/secciones\/sanidad-hoy\/coronavirus-conclusiones-de-las-primeras-autopsias-en-muertos-con-covid-19-9912",
                "image_width": 421,
                "image_height": 250,
                "image_bytes": 66679,
                "service_icon": "https:\/\/amp.redaccionmedica.com\/favicon.ico",
                "id": 1,
                "original_url": "https:\/\/amp.redaccionmedica.com\/secciones\/sanidad-hoy\/coronavirus-conclusiones-de-las-primeras-autopsias-en-muertos-con-covid-19-9912"
            }
        ],
        "blocks": [
            {
                "type": "rich_text",
                "block_id": "HoSX",
                "elements": [
                    {
                        "type": "rich_text_section",
                        "elements": [
                            {
                                "type": "text",
                                "text": "More autopsies\n\n"
                            },
                            {
                                "type": "link",
                                "url": "https:\/\/amp.redaccionmedica.com\/secciones\/sanidad-hoy\/coronavirus-conclusiones-de-las-primeras-autopsias-en-muertos-con-covid-19-9912",
                                "text": "https:\/\/amp.redaccionmedica.com\/secciones\/sanidad-hoy\/coronavirus-conclusiones-de-las-primeras-autopsias-en-muertos-con-covid-19-9912"
                            }
                        ]
                    }
                ]
            }
        ],
        "thread_ts": "1586410319.043200",
        "parent_user_id": "U010BA2NL9E"
    },
    {
        "client_msg_id": "9f3ee030-05b7-4e8f-862c-128e2a336329",
        "type": "message",
        "text": "Apheresis Treatment",
        "user": "U010BA2NL9E",
        "ts": "1587394380.076800",
        "team": "TUU48M0T1",
        "user_team": "TUU48M0T1",
        "source_team": "TUU48M0T1",
        "user_profile": {
            "avatar_hash": "g3fa100f8f14",
            "image_72": "https:\/\/secure.gravatar.com\/avatar\/3fa100f8f14fc86a0f2f58648b36d29e.jpg?s=72&d=https%3A%2F%2Fa.slack-edge.com%2Fdf10d%2Fimg%2Favatars%2Fava_0008-72.png",
            "first_name": "",
            "real_name": "Eduardo Garcia",
            "display_name": "Eduardo Garcia",
            "team": "TUU48M0T1",
            "name": "eduardo.garcia",
            "is_restricted": false,
            "is_ultra_restricted": false
        },
        "blocks": [
            {
                "type": "rich_text",
                "block_id": "9lF",
                "elements": [
                    {
                        "type": "rich_text_section",
                        "elements": [
                            {
                                "type": "text",
                                "text": "Apheresis Treatment"
                            }
                        ]
                    }
                ]
            }
        ],
        "thread_ts": "1587394380.076800",
        "reply_count": 1,
        "reply_users_count": 1,
        "latest_reply": "1587394426.077400",
        "reply_users": [
            "U010BA2NL9E"
        ],
        "replies": [
            {
                "user": "U010BA2NL9E",
                "ts": "1587394426.077400"
            }
        ],
        "subscribed": false
    },
    {
        "client_msg_id": "34a3b6db-59e0-4b9b-8bde-9e04908388bc",
        "type": "message",
        "text": "<https:\/\/www.fda.gov\/news-events\/press-announcements\/coronavirus-covid-19-update-fda-authorizes-blood-purification-device-treat-covid-19|https:\/\/www.fda.gov\/news-events\/press-announcements\/coronavirus-covid-19-update-fda-authorizes-blood-purification-device-treat-covid-19>",
        "user": "U010BA2NL9E",
        "ts": "1587394426.077400",
        "team": "TUU48M0T1",
        "user_team": "TUU48M0T1",
        "source_team": "TUU48M0T1",
        "user_profile": {
            "avatar_hash": "g3fa100f8f14",
            "image_72": "https:\/\/secure.gravatar.com\/avatar\/3fa100f8f14fc86a0f2f58648b36d29e.jpg?s=72&d=https%3A%2F%2Fa.slack-edge.com%2Fdf10d%2Fimg%2Favatars%2Fava_0008-72.png",
            "first_name": "",
            "real_name": "Eduardo Garcia",
            "display_name": "Eduardo Garcia",
            "team": "TUU48M0T1",
            "name": "eduardo.garcia",
            "is_restricted": false,
            "is_ultra_restricted": false
        },
        "attachments": [
            {
                "service_name": "U.S. Food and Drug Administration",
                "title": "Coronavirus (COVID-19) Update: FDA Authorizes Blood Purification Device to Treat COVID-19",
                "title_link": "https:\/\/www.fda.gov\/news-events\/press-announcements\/coronavirus-covid-19-update-fda-authorizes-blood-purification-device-treat-covid-19",
                "text": "Coronavirus Update: FDA Authorizes Blood Purification Device",
                "fallback": "U.S. Food and Drug Administration: Coronavirus (COVID-19) Update: FDA Authorizes Blood Purification Device to Treat COVID-19",
                "image_url": "https:\/\/www.fda.gov\/themes\/custom\/preview\/img\/FDA-Social-Graphic.png",
                "from_url": "https:\/\/www.fda.gov\/news-events\/press-announcements\/coronavirus-covid-19-update-fda-authorizes-blood-purification-device-treat-covid-19",
                "image_width": 444,
                "image_height": 250,
                "image_bytes": 671982,
                "service_icon": "https:\/\/www.fda.gov\/themes\/custom\/preview\/favicon.ico",
                "id": 1,
                "original_url": "https:\/\/www.fda.gov\/news-events\/press-announcements\/coronavirus-covid-19-update-fda-authorizes-blood-purification-device-treat-covid-19"
            }
        ],
        "blocks": [
            {
                "type": "rich_text",
                "block_id": "a5N",
                "elements": [
                    {
                        "type": "rich_text_section",
                        "elements": [
                            {
                                "type": "link",
                                "url": "https:\/\/www.fda.gov\/news-events\/press-announcements\/coronavirus-covid-19-update-fda-authorizes-blood-purification-device-treat-covid-19",
                                "text": "https:\/\/www.fda.gov\/news-events\/press-announcements\/coronavirus-covid-19-update-fda-authorizes-blood-purification-device-treat-covid-19"
                            }
                        ]
                    }
                ]
            }
        ],
        "thread_ts": "1587394380.076800",
        "parent_user_id": "U010BA2NL9E"
    }
]