[
    {
        "client_msg_id": "29a55725-4a31-47ea-986e-09c4c1f7a2da",
        "type": "message",
        "text": "i love that description of how open source works “sometimes the solver ends up being you” :slightly_smiling_face:",
        "user": "U52KBSW9X",
        "ts": "1587542281.361600",
        "team": "TUU48M0T1",
        "user_team": "T48QEEVTJ",
        "source_team": "T48QEEVTJ",
        "user_profile": {
            "avatar_hash": "079d4f4301af",
            "image_72": "https:\/\/avatars.slack-edge.com\/2019-07-28\/696974040114_079d4f4301af057e28c1_72.jpg",
            "first_name": "Bastian",
            "real_name": "Bastian Greshake Tzovaras",
            "display_name": "gedankenstuecke",
            "team": "T48QEEVTJ",
            "name": "gedankenstuecke",
            "is_restricted": false,
            "is_ultra_restricted": false
        },
        "blocks": [
            {
                "type": "rich_text",
                "block_id": "vHVjK",
                "elements": [
                    {
                        "type": "rich_text_section",
                        "elements": [
                            {
                                "type": "text",
                                "text": "i love that description of how open source works “sometimes the solver ends up being you” "
                            },
                            {
                                "type": "emoji",
                                "name": "slightly_smiling_face"
                            }
                        ]
                    }
                ]
            }
        ],
        "thread_ts": "1587494914.346100",
        "parent_user_id": "U4A6D8F6J"
    },
    {
        "client_msg_id": "5caa38c6-8da4-402c-85e3-53a85c5e7df8",
        "type": "message",
        "text": "I think HDF5 is a bit overkill at this point (I remember having worked with it in the past for _really_ big data). I think what we’re looking for is how to structure our JSON data endpoint at e.g. <https:\/\/quantifiedflu.org\/report\/list\/member\/79502270.json> which so far have none of the wearable data for the given days",
        "user": "U52KBSW9X",
        "ts": "1587542554.361800",
        "team": "TUU48M0T1",
        "user_team": "T48QEEVTJ",
        "source_team": "T48QEEVTJ",
        "user_profile": {
            "avatar_hash": "079d4f4301af",
            "image_72": "https:\/\/avatars.slack-edge.com\/2019-07-28\/696974040114_079d4f4301af057e28c1_72.jpg",
            "first_name": "Bastian",
            "real_name": "Bastian Greshake Tzovaras",
            "display_name": "gedankenstuecke",
            "team": "T48QEEVTJ",
            "name": "gedankenstuecke",
            "is_restricted": false,
            "is_ultra_restricted": false
        },
        "blocks": [
            {
                "type": "rich_text",
                "block_id": "cGK",
                "elements": [
                    {
                        "type": "rich_text_section",
                        "elements": [
                            {
                                "type": "text",
                                "text": "I think HDF5 is a bit overkill at this point (I remember having worked with it in the past for "
                            },
                            {
                                "type": "text",
                                "text": "really",
                                "style": {
                                    "italic": true
                                }
                            },
                            {
                                "type": "text",
                                "text": " big data). I think what we’re looking for is how to structure our JSON data endpoint at e.g. "
                            },
                            {
                                "type": "link",
                                "url": "https:\/\/quantifiedflu.org\/report\/list\/member\/79502270.json"
                            },
                            {
                                "type": "text",
                                "text": " which so far have none of the wearable data for the given days"
                            }
                        ]
                    }
                ]
            }
        ],
        "thread_ts": "1587504643.354500",
        "parent_user_id": "U011XPQFU2E"
    },
    {
        "client_msg_id": "914da0b5-67d7-45e5-8891-04df4220f8fd",
        "type": "message",
        "text": "Right, as mad said: right now we do an asynchronous fetching of the wearable data through the respective APIs from Oura, Fitbit etc. and store those data as files in Open Humans. There are some public data sets that can be found at <https:\/\/www.openhumans.org\/api\/public-data\/?source=direct-sharing-184> (for oura) and <https:\/\/www.openhumans.org\/api\/public-data\/?source=direct-sharing-102> (fitbit) to see how those look like.\n\nQF then pulls this data and does the processing internally to create the JSON needed for the visualization and stores it",
        "user": "U52KBSW9X",
        "ts": "1587543112.362000",
        "team": "TUU48M0T1",
        "user_team": "T48QEEVTJ",
        "source_team": "T48QEEVTJ",
        "user_profile": {
            "avatar_hash": "079d4f4301af",
            "image_72": "https:\/\/avatars.slack-edge.com\/2019-07-28\/696974040114_079d4f4301af057e28c1_72.jpg",
            "first_name": "Bastian",
            "real_name": "Bastian Greshake Tzovaras",
            "display_name": "gedankenstuecke",
            "team": "T48QEEVTJ",
            "name": "gedankenstuecke",
            "is_restricted": false,
            "is_ultra_restricted": false
        },
        "blocks": [
            {
                "type": "rich_text",
                "block_id": "tE3+R",
                "elements": [
                    {
                        "type": "rich_text_section",
                        "elements": [
                            {
                                "type": "text",
                                "text": "Right, as mad said: right now we do an asynchronous fetching of the wearable data through the respective APIs from Oura, Fitbit etc. and store those data as files in Open Humans. There are some public data sets that can be found at "
                            },
                            {
                                "type": "link",
                                "url": "https:\/\/www.openhumans.org\/api\/public-data\/?source=direct-sharing-184"
                            },
                            {
                                "type": "text",
                                "text": " (for oura) and "
                            },
                            {
                                "type": "link",
                                "url": "https:\/\/www.openhumans.org\/api\/public-data\/?source=direct-sharing-102"
                            },
                            {
                                "type": "text",
                                "text": " (fitbit) to see how those look like.\n\nQF then pulls this data and does the processing internally to create the JSON needed for the visualization and stores it"
                            }
                        ]
                    }
                ]
            }
        ],
        "thread_ts": "1587505496.361000",
        "parent_user_id": "U011XPQFU2E"
    },
    {
        "client_msg_id": "34282d1a-7ba5-4e5c-adb3-90f0d8530e44",
        "type": "message",
        "text": "here’s an example of how the JSON for the graphs looks like: <https:\/\/quantifiedflu.org\/retrospective\/graph_json\/253\/>",
        "user": "U52KBSW9X",
        "ts": "1587543180.362200",
        "team": "TUU48M0T1",
        "user_team": "T48QEEVTJ",
        "source_team": "T48QEEVTJ",
        "user_profile": {
            "avatar_hash": "079d4f4301af",
            "image_72": "https:\/\/avatars.slack-edge.com\/2019-07-28\/696974040114_079d4f4301af057e28c1_72.jpg",
            "first_name": "Bastian",
            "real_name": "Bastian Greshake Tzovaras",
            "display_name": "gedankenstuecke",
            "team": "T48QEEVTJ",
            "name": "gedankenstuecke",
            "is_restricted": false,
            "is_ultra_restricted": false
        },
        "blocks": [
            {
                "type": "rich_text",
                "block_id": "xX0Qw",
                "elements": [
                    {
                        "type": "rich_text_section",
                        "elements": [
                            {
                                "type": "text",
                                "text": "here’s an example of how the JSON for the graphs looks like: "
                            },
                            {
                                "type": "link",
                                "url": "https:\/\/quantifiedflu.org\/retrospective\/graph_json\/253\/"
                            }
                        ]
                    }
                ]
            }
        ],
        "thread_ts": "1587505496.361000",
        "parent_user_id": "U011XPQFU2E"
    },
    {
        "client_msg_id": "9b54bc28-e8cc-4bd9-979d-247c4e00ebb3",
        "type": "message",
        "text": "doing the processing in notebooks would be nice at least for prototyping the visualizations",
        "user": "U52KBSW9X",
        "ts": "1587543334.362400",
        "team": "TUU48M0T1",
        "user_team": "T48QEEVTJ",
        "source_team": "T48QEEVTJ",
        "user_profile": {
            "avatar_hash": "079d4f4301af",
            "image_72": "https:\/\/avatars.slack-edge.com\/2019-07-28\/696974040114_079d4f4301af057e28c1_72.jpg",
            "first_name": "Bastian",
            "real_name": "Bastian Greshake Tzovaras",
            "display_name": "gedankenstuecke",
            "team": "T48QEEVTJ",
            "name": "gedankenstuecke",
            "is_restricted": false,
            "is_ultra_restricted": false
        },
        "blocks": [
            {
                "type": "rich_text",
                "block_id": "e+5",
                "elements": [
                    {
                        "type": "rich_text_section",
                        "elements": [
                            {
                                "type": "text",
                                "text": "doing the processing in notebooks would be nice at least for prototyping the visualizations"
                            }
                        ]
                    }
                ]
            }
        ],
        "thread_ts": "1587505496.361000",
        "parent_user_id": "U011XPQFU2E"
    },
    {
        "client_msg_id": "7463c25d-2575-498d-9294-bf4a05c6754e",
        "type": "message",
        "text": "but for being more user-friendly i’d put the actual deployed processing into the QF website itself :slightly_smiling_face:",
        "user": "U52KBSW9X",
        "ts": "1587543410.362600",
        "team": "TUU48M0T1",
        "user_team": "T48QEEVTJ",
        "source_team": "T48QEEVTJ",
        "user_profile": {
            "avatar_hash": "079d4f4301af",
            "image_72": "https:\/\/avatars.slack-edge.com\/2019-07-28\/696974040114_079d4f4301af057e28c1_72.jpg",
            "first_name": "Bastian",
            "real_name": "Bastian Greshake Tzovaras",
            "display_name": "gedankenstuecke",
            "team": "T48QEEVTJ",
            "name": "gedankenstuecke",
            "is_restricted": false,
            "is_ultra_restricted": false
        },
        "blocks": [
            {
                "type": "rich_text",
                "block_id": "fP=Z",
                "elements": [
                    {
                        "type": "rich_text_section",
                        "elements": [
                            {
                                "type": "text",
                                "text": "but for being more user-friendly i’d put the actual deployed processing into the QF website itself "
                            },
                            {
                                "type": "emoji",
                                "name": "slightly_smiling_face"
                            }
                        ]
                    }
                ]
            }
        ],
        "thread_ts": "1587505496.361000",
        "parent_user_id": "U011XPQFU2E"
    },
    {
        "type": "message",
        "subtype": "channel_join",
        "ts": "1587583765.362900",
        "user": "U01293EAHEF",
        "text": "<@U01293EAHEF> has joined the channel",
        "team": "TUU48M0T1"
    }
]