[
    {
        "type": "message",
        "subtype": "channel_join",
        "ts": "1584788117.000300",
        "user": "U0106JW4S9X",
        "text": "<@U0106JW4S9X> has joined the channel",
        "team": "TUU48M0T1"
    },
    {
        "client_msg_id": "784a9bff-f1cd-41b7-9435-6f61e41a278c",
        "type": "message",
        "text": "Hey folks <!channel>! I just wanted to give another update of where we are right now as my day is about to end. <@U4A6D8F6J> spent some time yesterday on getting the website bits for the prospective part of the study up and running and I spent some of my day today to refine some of those parts (largely around the terrible issue that are timezones :joy:) There’s still some open issues, but I we’re slowly getting there! We also found one volunteer who’s currently starting to make a simple app to export HR data from Apple HealthKit so that we can support Apple Watch too.",
        "user": "U52KBSW9X",
        "ts": "1584821362.003800",
        "team": "TUU48M0T1",
        "user_team": "T48QEEVTJ",
        "source_team": "T48QEEVTJ",
        "user_profile": {
            "avatar_hash": "079d4f4301af",
            "image_72": "https:\/\/avatars.slack-edge.com\/2019-07-28\/696974040114_079d4f4301af057e28c1_72.jpg",
            "first_name": "Bastian",
            "real_name": "Bastian Greshake Tzovaras",
            "display_name": "gedankenstuecke",
            "team": "T48QEEVTJ",
            "name": "gedankenstuecke",
            "is_restricted": false,
            "is_ultra_restricted": false
        },
        "blocks": [
            {
                "type": "rich_text",
                "block_id": "R43s",
                "elements": [
                    {
                        "type": "rich_text_section",
                        "elements": [
                            {
                                "type": "text",
                                "text": "Hey folks "
                            },
                            {
                                "type": "broadcast",
                                "range": "channel"
                            },
                            {
                                "type": "text",
                                "text": "! I just wanted to give another update of where we are right now as my day is about to end. "
                            },
                            {
                                "type": "user",
                                "user_id": "U4A6D8F6J"
                            },
                            {
                                "type": "text",
                                "text": " spent some time yesterday on getting the website bits for the prospective part of the study up and running and I spent some of my day today to refine some of those parts (largely around the terrible issue that are timezones "
                            },
                            {
                                "type": "emoji",
                                "name": "joy"
                            },
                            {
                                "type": "text",
                                "text": ") There’s still some open issues, but I we’re slowly getting there! We also found one volunteer who’s currently starting to make a simple app to export HR data from Apple HealthKit so that we can support Apple Watch too."
                            }
                        ]
                    }
                ]
            }
        ],
        "thread_ts": "1584821362.003800",
        "reply_count": 1,
        "reply_users_count": 1,
        "latest_reply": "1584821400.003900",
        "reply_users": [
            "U52KBSW9X"
        ],
        "replies": [
            {
                "user": "U52KBSW9X",
                "ts": "1584821400.003900"
            }
        ],
        "subscribed": false
    },
    {
        "type": "message",
        "text": "and here’s a current screenshot from the dashboard!",
        "files": [
            {
                "id": "F01070DJ1CZ",
                "created": 1584821396,
                "timestamp": 1584821396,
                "name": "image.png",
                "title": "image.png",
                "mimetype": "image\/png",
                "filetype": "png",
                "pretty_type": "PNG",
                "user": "U52KBSW9X",
                "editable": false,
                "size": 160276,
                "mode": "hosted",
                "is_external": false,
                "external_type": "",
                "is_public": true,
                "public_url_shared": false,
                "display_as_bot": false,
                "username": "",
                "url_private": "https:\/\/files.slack.com\/files-pri\/T48QEEVTJ-F01070DJ1CZ\/image.png?t=xoxe-980144714919-1133254701825-1120841107731-daf595b5a7d6c9028b0b02a925032e36",
                "url_private_download": "https:\/\/files.slack.com\/files-pri\/T48QEEVTJ-F01070DJ1CZ\/download\/image.png?t=xoxe-980144714919-1133254701825-1120841107731-daf595b5a7d6c9028b0b02a925032e36",
                "thumb_64": "https:\/\/files.slack.com\/files-tmb\/T48QEEVTJ-F01070DJ1CZ-a9689190b9\/image_64.png?t=xoxe-980144714919-1133254701825-1120841107731-daf595b5a7d6c9028b0b02a925032e36",
                "thumb_80": "https:\/\/files.slack.com\/files-tmb\/T48QEEVTJ-F01070DJ1CZ-a9689190b9\/image_80.png?t=xoxe-980144714919-1133254701825-1120841107731-daf595b5a7d6c9028b0b02a925032e36",
                "thumb_360": "https:\/\/files.slack.com\/files-tmb\/T48QEEVTJ-F01070DJ1CZ-a9689190b9\/image_360.png?t=xoxe-980144714919-1133254701825-1120841107731-daf595b5a7d6c9028b0b02a925032e36",
                "thumb_360_w": 360,
                "thumb_360_h": 227,
                "thumb_480": "https:\/\/files.slack.com\/files-tmb\/T48QEEVTJ-F01070DJ1CZ-a9689190b9\/image_480.png?t=xoxe-980144714919-1133254701825-1120841107731-daf595b5a7d6c9028b0b02a925032e36",
                "thumb_480_w": 480,
                "thumb_480_h": 302,
                "thumb_160": "https:\/\/files.slack.com\/files-tmb\/T48QEEVTJ-F01070DJ1CZ-a9689190b9\/image_160.png?t=xoxe-980144714919-1133254701825-1120841107731-daf595b5a7d6c9028b0b02a925032e36",
                "thumb_720": "https:\/\/files.slack.com\/files-tmb\/T48QEEVTJ-F01070DJ1CZ-a9689190b9\/image_720.png?t=xoxe-980144714919-1133254701825-1120841107731-daf595b5a7d6c9028b0b02a925032e36",
                "thumb_720_w": 720,
                "thumb_720_h": 453,
                "thumb_800": "https:\/\/files.slack.com\/files-tmb\/T48QEEVTJ-F01070DJ1CZ-a9689190b9\/image_800.png?t=xoxe-980144714919-1133254701825-1120841107731-daf595b5a7d6c9028b0b02a925032e36",
                "thumb_800_w": 800,
                "thumb_800_h": 504,
                "thumb_960": "https:\/\/files.slack.com\/files-tmb\/T48QEEVTJ-F01070DJ1CZ-a9689190b9\/image_960.png?t=xoxe-980144714919-1133254701825-1120841107731-daf595b5a7d6c9028b0b02a925032e36",
                "thumb_960_w": 960,
                "thumb_960_h": 604,
                "thumb_1024": "https:\/\/files.slack.com\/files-tmb\/T48QEEVTJ-F01070DJ1CZ-a9689190b9\/image_1024.png?t=xoxe-980144714919-1133254701825-1120841107731-daf595b5a7d6c9028b0b02a925032e36",
                "thumb_1024_w": 1024,
                "thumb_1024_h": 645,
                "image_exif_rotation": 1,
                "original_w": 1142,
                "original_h": 719,
                "thumb_tiny": "AwAeADC+AFHBUAf59acrZ6Mp+lRmZOR8\/wD3yaEAcZVnH14p2HbuS7hnGRn0zTdzeo\/KlCcg5PHvUfmHOPLk\/KkFiQE9xmjaGIJXpS444\/nRg0CGb2z2\/Kn7h603b9KcBQAbge9RqIw2QmD61LTFQg8tn2xQMduHrQCD3owPSloEf\/\/Z",
                "permalink": "https:\/\/openhumans.slack.com\/files\/U52KBSW9X\/F01070DJ1CZ\/image.png",
                "permalink_public": "https:\/\/slack-files.com\/T48QEEVTJ-F01070DJ1CZ-2825208b42",
                "user_team": "T48QEEVTJ",
                "source_team": "T48QEEVTJ",
                "is_starred": false,
                "has_rich_preview": false
            }
        ],
        "upload": true,
        "blocks": [
            {
                "type": "rich_text",
                "block_id": "uYd",
                "elements": [
                    {
                        "type": "rich_text_section",
                        "elements": [
                            {
                                "type": "text",
                                "text": "and here’s a current screenshot from the dashboard!"
                            }
                        ]
                    }
                ]
            }
        ],
        "user": "U52KBSW9X",
        "display_as_bot": false,
        "team": "TUU48M0T1",
        "ts": "1584821400.003900",
        "client_msg_id": "f1f948d2-4ceb-4b2e-9b8d-69e03431b33d",
        "user_team": "T48QEEVTJ",
        "source_team": "T48QEEVTJ",
        "user_profile": {
            "avatar_hash": "079d4f4301af",
            "image_72": "https:\/\/avatars.slack-edge.com\/2019-07-28\/696974040114_079d4f4301af057e28c1_72.jpg",
            "first_name": "Bastian",
            "real_name": "Bastian Greshake Tzovaras",
            "display_name": "gedankenstuecke",
            "team": "T48QEEVTJ",
            "name": "gedankenstuecke",
            "is_restricted": false,
            "is_ultra_restricted": false
        },
        "thread_ts": "1584821362.003800",
        "parent_user_id": "U52KBSW9X",
        "reactions": [
            {
                "name": "tada",
                "users": [
                    "UKB404YG1"
                ],
                "count": 1
            }
        ]
    },
    {
        "client_msg_id": "83064314-97e5-4f7c-9425-bc570a364b0c",
        "type": "message",
        "text": "oh, and we already got some media coverage in the german ‘digital living’ magazine t3n: <https:\/\/t3n.de\/news\/coronakrise-open-source-wichtig-1264397\/> :see_no_evil:",
        "user": "U52KBSW9X",
        "ts": "1584821529.004700",
        "team": "TUU48M0T1",
        "user_team": "T48QEEVTJ",
        "source_team": "T48QEEVTJ",
        "user_profile": {
            "avatar_hash": "079d4f4301af",
            "image_72": "https:\/\/avatars.slack-edge.com\/2019-07-28\/696974040114_079d4f4301af057e28c1_72.jpg",
            "first_name": "Bastian",
            "real_name": "Bastian Greshake Tzovaras",
            "display_name": "gedankenstuecke",
            "team": "T48QEEVTJ",
            "name": "gedankenstuecke",
            "is_restricted": false,
            "is_ultra_restricted": false
        },
        "attachments": [
            {
                "service_name": "t3n Magazin",
                "title": "Coronakrise: Warum Menschenleben vor Patentrechten gehen",
                "title_link": "https:\/\/t3n.de\/news\/coronakrise-open-source-wichtig-1264397\/",
                "text": "Das Coronavirus zeigt uns nicht nur Schwachstellen im Gesundheitssektor auf, sondern auch in der Gesetzgebung.",
                "fallback": "t3n Magazin: Coronakrise: Warum Menschenleben vor Patentrechten gehen",
                "image_url": "https:\/\/assets.t3n.sc\/news\/wp-content\/uploads\/2017\/06\/Operation.jpg?auto=format&h=&ixlib=php-2.3.0&w=",
                "image_width": 365,
                "image_height": 250,
                "from_url": "https:\/\/t3n.de\/news\/coronakrise-open-source-wichtig-1264397\/",
                "image_bytes": 111596,
                "service_icon": "http:\/\/d1quwwdmdfumn6.cloudfront.net\/t3n\/2018\/images\/icons\/t3n-apple-touch-120x120.png",
                "id": 1,
                "original_url": "https:\/\/t3n.de\/news\/coronakrise-open-source-wichtig-1264397\/"
            }
        ],
        "blocks": [
            {
                "type": "rich_text",
                "block_id": "0thG8",
                "elements": [
                    {
                        "type": "rich_text_section",
                        "elements": [
                            {
                                "type": "text",
                                "text": "oh, and we already got some media coverage in the german ‘digital living’ magazine t3n: "
                            },
                            {
                                "type": "link",
                                "url": "https:\/\/t3n.de\/news\/coronakrise-open-source-wichtig-1264397\/"
                            },
                            {
                                "type": "text",
                                "text": " "
                            },
                            {
                                "type": "emoji",
                                "name": "see_no_evil"
                            }
                        ]
                    }
                ]
            }
        ],
        "reactions": [
            {
                "name": "heart_eyes",
                "users": [
                    "USBSKSF4Z",
                    "UPGELJS3T"
                ],
                "count": 2
            },
            {
                "name": "+1",
                "users": [
                    "UKB404YG1",
                    "UPGELJS3T"
                ],
                "count": 2
            }
        ]
    }
]