[
    {
        "client_msg_id": "df2d1609-1f1a-4900-ab9d-9a06ea0fe483",
        "type": "message",
        "text": "holoviz, bokeh support full html apps. I'll ask you how to get data, familiriaze myself with the data format and design some interactive plots using bokeh on jupyter. with a little twist, this can be ported to a browser app. would you point me to some data files?",
        "user": "U011XPQFU2E",
        "ts": "1587660924.363100",
        "team": "TUU48M0T1",
        "user_team": "T48QEEVTJ",
        "source_team": "T48QEEVTJ",
        "user_profile": {
            "avatar_hash": "g762735b44d1",
            "image_72": "https:\/\/secure.gravatar.com\/avatar\/762735b44d18c4a0abdc0357084c5aee.jpg?s=72&d=https%3A%2F%2Fa.slack-edge.com%2Fdf10d%2Fimg%2Favatars%2Fava_0026-72.png",
            "first_name": "",
            "real_name": "Carolina Brum",
            "display_name": "Carolina Brum",
            "team": "T48QEEVTJ",
            "name": "missperovaz",
            "is_restricted": false,
            "is_ultra_restricted": false
        },
        "blocks": [
            {
                "type": "rich_text",
                "block_id": "6ye",
                "elements": [
                    {
                        "type": "rich_text_section",
                        "elements": [
                            {
                                "type": "text",
                                "text": "holoviz, bokeh support full html apps. I'll ask you how to get data, familiriaze myself with the data format and design some interactive plots using bokeh on jupyter. with a little twist, this can be ported to a browser app. would you point me to some data files?"
                            }
                        ]
                    }
                ]
            }
        ],
        "thread_ts": "1587505496.361000",
        "parent_user_id": "U011XPQFU2E"
    },
    {
        "client_msg_id": "cfdcc7c4-be6b-4975-8c37-0a072a5fce71",
        "type": "message",
        "text": "<https:\/\/mode.com\/blog\/python-interactive-plot-libraries|This page> talks about a few libraries that allow for browser app",
        "user": "U011XPQFU2E",
        "ts": "1587707229.363300",
        "team": "TUU48M0T1",
        "user_team": "T48QEEVTJ",
        "source_team": "T48QEEVTJ",
        "user_profile": {
            "avatar_hash": "g762735b44d1",
            "image_72": "https:\/\/secure.gravatar.com\/avatar\/762735b44d18c4a0abdc0357084c5aee.jpg?s=72&d=https%3A%2F%2Fa.slack-edge.com%2Fdf10d%2Fimg%2Favatars%2Fava_0026-72.png",
            "first_name": "",
            "real_name": "Carolina Brum",
            "display_name": "Carolina Brum",
            "team": "T48QEEVTJ",
            "name": "missperovaz",
            "is_restricted": false,
            "is_ultra_restricted": false
        },
        "attachments": [
            {
                "title": "5 Python Libraries for Creating Interactive Plots",
                "title_link": "https:\/\/mode.com\/blog\/python-interactive-plot-libraries",
                "text": "While there are many Python visualization libraries, only a handful can produce interactive plots that you can embed in a web page and share out.",
                "fallback": "5 Python Libraries for Creating Interactive Plots",
                "thumb_url": "https:\/\/images.ctfassets.net\/fi0zmnwlsnja\/1qpxYh3zvBAqp8nex1oBxs\/6371373949a0be02c8fd135e59ccb783\/interactive-og.png",
                "from_url": "https:\/\/mode.com\/blog\/python-interactive-plot-libraries",
                "thumb_width": 957,
                "thumb_height": 498,
                "service_name": "mode.com",
                "id": 1,
                "original_url": "https:\/\/mode.com\/blog\/python-interactive-plot-libraries"
            }
        ],
        "blocks": [
            {
                "type": "rich_text",
                "block_id": "lbmbv",
                "elements": [
                    {
                        "type": "rich_text_section",
                        "elements": [
                            {
                                "type": "link",
                                "url": "https:\/\/mode.com\/blog\/python-interactive-plot-libraries",
                                "text": "This page"
                            },
                            {
                                "type": "text",
                                "text": " talks about a few libraries that allow for browser app"
                            }
                        ]
                    }
                ]
            }
        ],
        "thread_ts": "1587505496.361000",
        "parent_user_id": "U011XPQFU2E"
    }
]