[
    {
        "client_msg_id": "8278e227-0814-4d54-a2c2-b3357c6ff95e",
        "type": "message",
        "text": "<@U4A6D8F6J> and I spent a good hour yesterday discussing the export formats and the consensus was offering a JSON and CSV, hope to have an endpoint that delivers the data very soon!",
        "user": "U52KBSW9X",
        "ts": "1587714874.363600",
        "team": "TUU48M0T1",
        "user_team": "T48QEEVTJ",
        "source_team": "T48QEEVTJ",
        "user_profile": {
            "avatar_hash": "079d4f4301af",
            "image_72": "https:\/\/avatars.slack-edge.com\/2019-07-28\/696974040114_079d4f4301af057e28c1_72.jpg",
            "first_name": "Bastian",
            "real_name": "Bastian Greshake Tzovaras",
            "display_name": "gedankenstuecke",
            "team": "T48QEEVTJ",
            "name": "gedankenstuecke",
            "is_restricted": false,
            "is_ultra_restricted": false
        },
        "blocks": [
            {
                "type": "rich_text",
                "block_id": "whI6J",
                "elements": [
                    {
                        "type": "rich_text_section",
                        "elements": [
                            {
                                "type": "user",
                                "user_id": "U4A6D8F6J"
                            },
                            {
                                "type": "text",
                                "text": " and I spent a good hour yesterday discussing the export formats and the consensus was offering a JSON and CSV, hope to have an endpoint that delivers the data very soon!"
                            }
                        ]
                    }
                ]
            }
        ],
        "thread_ts": "1587505496.361000",
        "parent_user_id": "U011XPQFU2E"
    },
    {
        "client_msg_id": "b2ad19e5-1cab-4f79-9691-e072b5c2ef6b",
        "type": "message",
        "text": "whatever it's easier for you..... yay, excited!",
        "user": "U011XPQFU2E",
        "ts": "1587749307.363800",
        "team": "TUU48M0T1",
        "user_team": "T48QEEVTJ",
        "source_team": "T48QEEVTJ",
        "user_profile": {
            "avatar_hash": "g762735b44d1",
            "image_72": "https:\/\/secure.gravatar.com\/avatar\/762735b44d18c4a0abdc0357084c5aee.jpg?s=72&d=https%3A%2F%2Fa.slack-edge.com%2Fdf10d%2Fimg%2Favatars%2Fava_0026-72.png",
            "first_name": "",
            "real_name": "Carolina Brum",
            "display_name": "Carolina Brum",
            "team": "T48QEEVTJ",
            "name": "missperovaz",
            "is_restricted": false,
            "is_ultra_restricted": false
        },
        "blocks": [
            {
                "type": "rich_text",
                "block_id": "P9LBC",
                "elements": [
                    {
                        "type": "rich_text_section",
                        "elements": [
                            {
                                "type": "text",
                                "text": "whatever it's easier for you..... yay, excited!"
                            }
                        ]
                    }
                ]
            }
        ],
        "thread_ts": "1587505496.361000",
        "parent_user_id": "U011XPQFU2E",
        "reactions": [
            {
                "name": "+1",
                "users": [
                    "U52KBSW9X"
                ],
                "count": 1
            }
        ]
    },
    {
        "client_msg_id": "57a6eabb-f361-444f-83e9-15bda105fcf0",
        "type": "message",
        "text": "After mad &amp; I discussed forever what the best formatting might be we thought it might be the easiest to offer both options and let the enduser decide :smile:",
        "user": "U52KBSW9X",
        "ts": "1587750988.364100",
        "team": "TUU48M0T1",
        "user_team": "T48QEEVTJ",
        "source_team": "T48QEEVTJ",
        "user_profile": {
            "avatar_hash": "079d4f4301af",
            "image_72": "https:\/\/avatars.slack-edge.com\/2019-07-28\/696974040114_079d4f4301af057e28c1_72.jpg",
            "first_name": "Bastian",
            "real_name": "Bastian Greshake Tzovaras",
            "display_name": "gedankenstuecke",
            "team": "T48QEEVTJ",
            "name": "gedankenstuecke",
            "is_restricted": false,
            "is_ultra_restricted": false
        },
        "blocks": [
            {
                "type": "rich_text",
                "block_id": "0HGUM",
                "elements": [
                    {
                        "type": "rich_text_section",
                        "elements": [
                            {
                                "type": "text",
                                "text": "After mad & I discussed forever what the best formatting might be we thought it might be the easiest to offer both options and let the enduser decide "
                            },
                            {
                                "type": "emoji",
                                "name": "smile"
                            }
                        ]
                    }
                ]
            }
        ],
        "thread_ts": "1587505496.361000",
        "parent_user_id": "U011XPQFU2E",
        "reactions": [
            {
                "name": "+1",
                "users": [
                    "U011XPQFU2E"
                ],
                "count": 1
            }
        ]
    }
]