[
    {
        "client_msg_id": "dd363387-0485-4dae-92e0-c3d8578fa33c",
        "type": "message",
        "text": "the thoughts and prayers surprisingly didn’t help, they had yet another formality, responded to that just now. :crossed_fingers:",
        "user": "U52KBSW9X",
        "ts": "1589189886.420800",
        "team": "TUU48M0T1",
        "user_team": "T48QEEVTJ",
        "source_team": "T48QEEVTJ",
        "user_profile": {
            "avatar_hash": "079d4f4301af",
            "image_72": "https:\/\/avatars.slack-edge.com\/2019-07-28\/696974040114_079d4f4301af057e28c1_72.jpg",
            "first_name": "Bastian",
            "real_name": "Bastian Greshake Tzovaras",
            "display_name": "gedankenstuecke",
            "team": "T48QEEVTJ",
            "name": "gedankenstuecke",
            "is_restricted": false,
            "is_ultra_restricted": false
        },
        "blocks": [
            {
                "type": "rich_text",
                "block_id": "hgB",
                "elements": [
                    {
                        "type": "rich_text_section",
                        "elements": [
                            {
                                "type": "text",
                                "text": "the thoughts and prayers surprisingly didn’t help, they had yet another formality, responded to that just now. "
                            },
                            {
                                "type": "emoji",
                                "name": "crossed_fingers"
                            }
                        ]
                    }
                ]
            }
        ],
        "thread_ts": "1588965292.418600",
        "parent_user_id": "U52KBSW9X"
    },
    {
        "type": "message",
        "subtype": "channel_join",
        "ts": "1589207728.421100",
        "user": "UB5T7P06R",
        "text": "<@UB5T7P06R> has joined the channel",
        "team": "TUU48M0T1"
    },
    {
        "type": "message",
        "subtype": "channel_join",
        "ts": "1589212602.421400",
        "user": "U012ZHZ3RB9",
        "text": "<@U012ZHZ3RB9> has joined the channel",
        "team": "TUU48M0T1"
    },
    {
        "client_msg_id": "d1a08208-ba4b-49b8-a9fc-e966a66b3eb3",
        "type": "message",
        "text": "<!channel> We now support adding GoogleFit as a data source on the QuantifiedFlu website. If your GoogleFit has heart rate data, these will be synced to OpenHumans and can visualized in the retrospective event graphs",
        "user": "UELJCMA12",
        "ts": "1589230109.422800",
        "team": "TUU48M0T1",
        "user_team": "T48QEEVTJ",
        "source_team": "T48QEEVTJ",
        "user_profile": {
            "avatar_hash": "gea75ee33133",
            "image_72": "https:\/\/secure.gravatar.com\/avatar\/3ea75ee33133b9866bdb993e26e8da79.jpg?s=72&d=https%3A%2F%2Fa.slack-edge.com%2Fdf10d%2Fimg%2Favatars%2Fava_0004-72.png",
            "first_name": "",
            "real_name": "Ariadni-Karolina Alexiou",
            "display_name": "carolinux",
            "team": "T48QEEVTJ",
            "name": "carolinegr",
            "is_restricted": false,
            "is_ultra_restricted": false
        },
        "blocks": [
            {
                "type": "rich_text",
                "block_id": "FgFZ",
                "elements": [
                    {
                        "type": "rich_text_section",
                        "elements": [
                            {
                                "type": "broadcast",
                                "range": "channel"
                            },
                            {
                                "type": "text",
                                "text": " We now support adding GoogleFit as a data source on the QuantifiedFlu website. If your GoogleFit has heart rate data, these will be synced to OpenHumans and can visualized in the retrospective event graphs"
                            }
                        ]
                    }
                ]
            }
        ],
        "thread_ts": "1589230109.422800",
        "reply_count": 1,
        "reply_users_count": 1,
        "latest_reply": "1589236251.423600",
        "reply_users": [
            "U52KBSW9X"
        ],
        "replies": [
            {
                "user": "U52KBSW9X",
                "ts": "1589236251.423600"
            }
        ],
        "subscribed": false,
        "reactions": [
            {
                "name": "+1",
                "users": [
                    "U52KBSW9X"
                ],
                "count": 1
            },
            {
                "name": "tada",
                "users": [
                    "U52KBSW9X"
                ],
                "count": 1
            }
        ]
    },
    {
        "type": "message",
        "subtype": "thread_broadcast",
        "text": "And just to add to that: it’ll also show up in the symptom reports if you write those! :)",
        "user": "U52KBSW9X",
        "ts": "1589236251.423600",
        "thread_ts": "1589230109.422800",
        "root": {
            "client_msg_id": "d1a08208-ba4b-49b8-a9fc-e966a66b3eb3",
            "type": "message",
            "text": "<!channel> We now support adding GoogleFit as a data source on the QuantifiedFlu website. If your GoogleFit has heart rate data, these will be synced to OpenHumans and can visualized in the retrospective event graphs",
            "user": "UELJCMA12",
            "ts": "1589230109.422800",
            "team": "TUU48M0T1",
            "user_team": "T48QEEVTJ",
            "source_team": "T48QEEVTJ",
            "user_profile": {
                "avatar_hash": "gea75ee33133",
                "image_72": "https:\/\/secure.gravatar.com\/avatar\/3ea75ee33133b9866bdb993e26e8da79.jpg?s=72&d=https%3A%2F%2Fa.slack-edge.com%2Fdf10d%2Fimg%2Favatars%2Fava_0004-72.png",
                "first_name": "",
                "real_name": "Ariadni-Karolina Alexiou",
                "display_name": "carolinux",
                "team": "T48QEEVTJ",
                "name": "carolinegr",
                "is_restricted": false,
                "is_ultra_restricted": false
            },
            "blocks": [
                {
                    "type": "rich_text",
                    "block_id": "FgFZ",
                    "elements": [
                        {
                            "type": "rich_text_section",
                            "elements": [
                                {
                                    "type": "broadcast",
                                    "range": "channel"
                                },
                                {
                                    "type": "text",
                                    "text": " We now support adding GoogleFit as a data source on the QuantifiedFlu website. If your GoogleFit has heart rate data, these will be synced to OpenHumans and can visualized in the retrospective event graphs"
                                }
                            ]
                        }
                    ]
                }
            ],
            "thread_ts": "1589230109.422800",
            "reply_count": 1,
            "reply_users_count": 1,
            "latest_reply": "1589236251.423600",
            "reply_users": [
                "U52KBSW9X"
            ],
            "subscribed": false
        },
        "blocks": [
            {
                "type": "rich_text",
                "block_id": "eKw",
                "elements": [
                    {
                        "type": "rich_text_section",
                        "elements": [
                            {
                                "type": "text",
                                "text": "And just to add to that: it’ll also show up in the symptom reports if you write those! :)"
                            }
                        ]
                    }
                ]
            }
        ],
        "client_msg_id": "A8DA91A9-17D3-4A10-A7C2-371E35BE21E1"
    }
]