[
    {
        "client_msg_id": "f4deb75f-f77d-402d-b3ba-5bbd2a0f9409",
        "type": "message",
        "text": "opportunity to possibly recruit (or volunteer) some data tracking:\n<https:\/\/www.vox.com\/future-perfect\/2020\/4\/9\/21209593\/coronavirus-vaccine-human-trials-explained>\n\nThere is a link in the article to sign up",
        "user": "U49KHPBUJ",
        "ts": "1586529045.268200",
        "team": "TUU48M0T1",
        "user_team": "T48QEEVTJ",
        "source_team": "T48QEEVTJ",
        "user_profile": {
            "avatar_hash": "gfeaaafc4cbf",
            "image_72": "https:\/\/secure.gravatar.com\/avatar\/5feaaafc4cbf208f50f9b2807fa791a9.jpg?s=72&d=https%3A%2F%2Fa.slack-edge.com%2Fdf10d%2Fimg%2Favatars%2Fava_0008-72.png",
            "first_name": "Ben",
            "real_name": "Ben Carr",
            "display_name": "benc",
            "team": "T48QEEVTJ",
            "name": "benc",
            "is_restricted": false,
            "is_ultra_restricted": false
        },
        "attachments": [
            {
                "service_name": "Vox",
                "title": "\"Human challenge trials,\" where healthy volunteers would be exposed to Covid-19, explained",
                "title_link": "https:\/\/www.vox.com\/future-perfect\/2020\/4\/9\/21209593\/coronavirus-vaccine-human-trials-explained",
                "text": "Advocates say human trials could speed up the development of a coronavirus vaccine.",
                "fallback": "Vox: \"Human challenge trials,\" where healthy volunteers would be exposed to Covid-19, explained",
                "image_url": "https:\/\/cdn.vox-cdn.com\/thumbor\/67IaQ5aD3DbmI9EyN4xRB1SKOm8=\/0x296:5000x2914\/fit-in\/1200x630\/cdn.vox-cdn.com\/uploads\/chorus_asset\/file\/19886824\/lungs.jpg",
                "image_width": 478,
                "image_height": 250,
                "ts": 1586455200,
                "from_url": "https:\/\/www.vox.com\/future-perfect\/2020\/4\/9\/21209593\/coronavirus-vaccine-human-trials-explained",
                "image_bytes": 121001,
                "service_icon": "https:\/\/cdn.vox-cdn.com\/uploads\/hub\/sbnu_logo_minimal\/441\/touch_icon_iphone_retina_1000_yellow.755.png",
                "id": 1,
                "original_url": "https:\/\/www.vox.com\/future-perfect\/2020\/4\/9\/21209593\/coronavirus-vaccine-human-trials-explained"
            }
        ],
        "blocks": [
            {
                "type": "rich_text",
                "block_id": "I7xnj",
                "elements": [
                    {
                        "type": "rich_text_section",
                        "elements": [
                            {
                                "type": "text",
                                "text": "opportunity to possibly recruit (or volunteer) some data tracking:\n"
                            },
                            {
                                "type": "link",
                                "url": "https:\/\/www.vox.com\/future-perfect\/2020\/4\/9\/21209593\/coronavirus-vaccine-human-trials-explained"
                            },
                            {
                                "type": "text",
                                "text": "\n\nThere is a link in the article to sign up"
                            }
                        ]
                    }
                ]
            }
        ]
    },
    {
        "client_msg_id": "7a110632-0353-4d03-a14e-65bdae38a579",
        "type": "message",
        "text": "hey <@U4AGJ7L87>, can I nudge again? :innocent:",
        "user": "U52KBSW9X",
        "ts": "1586530311.268400",
        "team": "TUU48M0T1",
        "user_team": "T48QEEVTJ",
        "source_team": "T48QEEVTJ",
        "user_profile": {
            "avatar_hash": "079d4f4301af",
            "image_72": "https:\/\/avatars.slack-edge.com\/2019-07-28\/696974040114_079d4f4301af057e28c1_72.jpg",
            "first_name": "Bastian",
            "real_name": "Bastian Greshake Tzovaras",
            "display_name": "gedankenstuecke",
            "team": "T48QEEVTJ",
            "name": "gedankenstuecke",
            "is_restricted": false,
            "is_ultra_restricted": false
        },
        "blocks": [
            {
                "type": "rich_text",
                "block_id": "cZxpH",
                "elements": [
                    {
                        "type": "rich_text_section",
                        "elements": [
                            {
                                "type": "text",
                                "text": "hey "
                            },
                            {
                                "type": "user",
                                "user_id": "U4AGJ7L87"
                            },
                            {
                                "type": "text",
                                "text": ", can I nudge again? "
                            },
                            {
                                "type": "emoji",
                                "name": "innocent"
                            }
                        ]
                    }
                ]
            }
        ],
        "thread_ts": "1585104612.000500",
        "parent_user_id": "U4AGJ7L87"
    },
    {
        "type": "message",
        "subtype": "channel_join",
        "ts": "1586532914.268700",
        "user": "U011JNH9V4N",
        "text": "<@U011JNH9V4N> has joined the channel",
        "team": "TUU48M0T1"
    },
    {
        "client_msg_id": "33dde056-9a00-46ce-8900-c2a7889772cf",
        "type": "message",
        "text": "hey <@U011JNH9V4N>! great to have you here!",
        "user": "U52KBSW9X",
        "ts": "1586534866.269000",
        "team": "TUU48M0T1",
        "user_team": "T48QEEVTJ",
        "source_team": "T48QEEVTJ",
        "user_profile": {
            "avatar_hash": "079d4f4301af",
            "image_72": "https:\/\/avatars.slack-edge.com\/2019-07-28\/696974040114_079d4f4301af057e28c1_72.jpg",
            "first_name": "Bastian",
            "real_name": "Bastian Greshake Tzovaras",
            "display_name": "gedankenstuecke",
            "team": "T48QEEVTJ",
            "name": "gedankenstuecke",
            "is_restricted": false,
            "is_ultra_restricted": false
        },
        "blocks": [
            {
                "type": "rich_text",
                "block_id": "t=kl",
                "elements": [
                    {
                        "type": "rich_text_section",
                        "elements": [
                            {
                                "type": "text",
                                "text": "hey "
                            },
                            {
                                "type": "user",
                                "user_id": "U011JNH9V4N"
                            },
                            {
                                "type": "text",
                                "text": "! great to have you here!"
                            }
                        ]
                    }
                ]
            }
        ],
        "thread_ts": "1586534866.269000",
        "reply_count": 3,
        "reply_users_count": 3,
        "latest_reply": "1586673147.300000",
        "reply_users": [
            "U52KBSW9X",
            "U011JNH9V4N",
            "U4A6D8F6J"
        ],
        "replies": [
            {
                "user": "U52KBSW9X",
                "ts": "1586535580.269100"
            },
            {
                "user": "U011JNH9V4N",
                "ts": "1586543681.290300"
            },
            {
                "user": "U4A6D8F6J",
                "ts": "1586673147.300000"
            }
        ],
        "subscribed": false
    },
    {
        "client_msg_id": "5387895f-41ac-498a-ae24-f67e5aed53ca",
        "type": "message",
        "text": "<@U011JNH9V4N> we don’t have enough data for some real meta work yet, but if you’re interested in looking at data of individuals and see if those can be plotted\/analyzed in interesting ways, there’s already some data around for that!",
        "user": "U52KBSW9X",
        "ts": "1586535580.269100",
        "team": "TUU48M0T1",
        "user_team": "T48QEEVTJ",
        "source_team": "T48QEEVTJ",
        "user_profile": {
            "avatar_hash": "079d4f4301af",
            "image_72": "https:\/\/avatars.slack-edge.com\/2019-07-28\/696974040114_079d4f4301af057e28c1_72.jpg",
            "first_name": "Bastian",
            "real_name": "Bastian Greshake Tzovaras",
            "display_name": "gedankenstuecke",
            "team": "T48QEEVTJ",
            "name": "gedankenstuecke",
            "is_restricted": false,
            "is_ultra_restricted": false
        },
        "blocks": [
            {
                "type": "rich_text",
                "block_id": "ZfP",
                "elements": [
                    {
                        "type": "rich_text_section",
                        "elements": [
                            {
                                "type": "user",
                                "user_id": "U011JNH9V4N"
                            },
                            {
                                "type": "text",
                                "text": " we don’t have enough data for some real meta work yet, but if you’re interested in looking at data of individuals and see if those can be plotted\/analyzed in interesting ways, there’s already some data around for that!"
                            }
                        ]
                    }
                ]
            }
        ],
        "thread_ts": "1586534866.269000",
        "parent_user_id": "U52KBSW9X"
    },
    {
        "client_msg_id": "e89d41d4-e46f-4811-8017-80731d7438b0",
        "type": "message",
        "text": "btw, semi-related to this project: Just coinciding with the general lockdown in Paris I stopped smoking and could nicely see my resting heart rate drop, my heart rate variability grow, etc. within the first few days (see <https:\/\/exploratory.openhumans.org\/notebook\/86\/>).\n\nBut now, 4 weeks into the lockdown my values are basically back to smoking-levels, just by virtue of not leaving the house as much and virtually eating _all the time._ I think it could be really interesting to annotate physiological data with lockdown dates after all of this is over!",
        "user": "U52KBSW9X",
        "ts": "1586536105.271700",
        "team": "TUU48M0T1",
        "user_team": "T48QEEVTJ",
        "source_team": "T48QEEVTJ",
        "user_profile": {
            "avatar_hash": "079d4f4301af",
            "image_72": "https:\/\/avatars.slack-edge.com\/2019-07-28\/696974040114_079d4f4301af057e28c1_72.jpg",
            "first_name": "Bastian",
            "real_name": "Bastian Greshake Tzovaras",
            "display_name": "gedankenstuecke",
            "team": "T48QEEVTJ",
            "name": "gedankenstuecke",
            "is_restricted": false,
            "is_ultra_restricted": false
        },
        "blocks": [
            {
                "type": "rich_text",
                "block_id": "QrOd3",
                "elements": [
                    {
                        "type": "rich_text_section",
                        "elements": [
                            {
                                "type": "text",
                                "text": "btw, semi-related to this project: Just coinciding with the general lockdown in Paris I stopped smoking and could nicely see my resting heart rate drop, my heart rate variability grow, etc. within the first few days (see "
                            },
                            {
                                "type": "link",
                                "url": "https:\/\/exploratory.openhumans.org\/notebook\/86\/"
                            },
                            {
                                "type": "text",
                                "text": ").\n\nBut now, 4 weeks into the lockdown my values are basically back to smoking-levels, just by virtue of not leaving the house as much and virtually eating "
                            },
                            {
                                "type": "text",
                                "text": "all the time. ",
                                "style": {
                                    "italic": true
                                }
                            },
                            {
                                "type": "text",
                                "text": "I think it could be really interesting to annotate physiological data with lockdown dates after all of this is over!"
                            }
                        ]
                    }
                ]
            }
        ],
        "thread_ts": "1586536105.271700",
        "reply_count": 17,
        "reply_users_count": 3,
        "latest_reply": "1586547143.294900",
        "reply_users": [
            "UHFUVU5C4",
            "U52KBSW9X",
            "U49KHPBUJ"
        ],
        "replies": [
            {
                "user": "UHFUVU5C4",
                "ts": "1586538104.271900"
            },
            {
                "user": "U52KBSW9X",
                "ts": "1586538176.273100"
            },
            {
                "user": "UHFUVU5C4",
                "ts": "1586538898.273300"
            },
            {
                "user": "U52KBSW9X",
                "ts": "1586538964.273900"
            },
            {
                "user": "UHFUVU5C4",
                "ts": "1586540037.276400"
            },
            {
                "user": "U52KBSW9X",
                "ts": "1586540740.276900"
            },
            {
                "user": "U52KBSW9X",
                "ts": "1586542350.282700"
            },
            {
                "user": "U52KBSW9X",
                "ts": "1586542446.284600"
            },
            {
                "user": "U52KBSW9X",
                "ts": "1586542479.284900"
            },
            {
                "user": "UHFUVU5C4",
                "ts": "1586542522.285100"
            },
            {
                "user": "U49KHPBUJ",
                "ts": "1586544237.290600"
            },
            {
                "user": "U52KBSW9X",
                "ts": "1586544296.292100"
            },
            {
                "user": "U49KHPBUJ",
                "ts": "1586544692.292300"
            },
            {
                "user": "U49KHPBUJ",
                "ts": "1586546287.292500"
            },
            {
                "user": "U49KHPBUJ",
                "ts": "1586546659.292700"
            },
            {
                "user": "U52KBSW9X",
                "ts": "1586547096.293400"
            },
            {
                "user": "U52KBSW9X",
                "ts": "1586547143.294900"
            }
        ],
        "subscribed": false,
        "reactions": [
            {
                "name": "+1",
                "users": [
                    "UHFUVU5C4"
                ],
                "count": 1
            }
        ]
    },
    {
        "client_msg_id": "01eed8c4-5b08-4132-8a4a-c62fec0f8d86",
        "type": "message",
        "text": "Yes, the other lockdown medical change a lot of people seem to be reporting is changed\/ reduced sleep patterns? Any plans for sleep tracking apps to flow into Open Humans?",
        "user": "UHFUVU5C4",
        "ts": "1586538104.271900",
        "team": "TUU48M0T1",
        "user_team": "T48QEEVTJ",
        "source_team": "T48QEEVTJ",
        "user_profile": {
            "avatar_hash": "g3997b4a982b",
            "image_72": "https:\/\/secure.gravatar.com\/avatar\/63997b4a982b774cfbb92103ee33d527.jpg?s=72&d=https%3A%2F%2Fa.slack-edge.com%2Fdf10d%2Fimg%2Favatars%2Fava_0019-72.png",
            "first_name": "",
            "real_name": "Iain Henderson",
            "display_name": "",
            "team": "T48QEEVTJ",
            "name": "iainhenderson",
            "is_restricted": false,
            "is_ultra_restricted": false
        },
        "blocks": [
            {
                "type": "rich_text",
                "block_id": "7N\/v",
                "elements": [
                    {
                        "type": "rich_text_section",
                        "elements": [
                            {
                                "type": "text",
                                "text": "Yes, the other lockdown medical change a lot of people seem to be reporting is changed\/ reduced sleep patterns? Any plans for sleep tracking apps to flow into Open Humans?"
                            }
                        ]
                    }
                ]
            }
        ],
        "thread_ts": "1586536105.271700",
        "parent_user_id": "U52KBSW9X"
    },
    {
        "client_msg_id": "AA37ADFA-94D6-4ED4-86CD-9F9725F734B0",
        "type": "message",
        "text": "We already have the sleep data from wearables in place (I think I actually sleep more now). But for other apps it’s a matter of finding someone who wants to build it :)",
        "user": "U52KBSW9X",
        "ts": "1586538176.273100",
        "team": "TUU48M0T1",
        "user_team": "T48QEEVTJ",
        "source_team": "T48QEEVTJ",
        "user_profile": {
            "avatar_hash": "079d4f4301af",
            "image_72": "https:\/\/avatars.slack-edge.com\/2019-07-28\/696974040114_079d4f4301af057e28c1_72.jpg",
            "first_name": "Bastian",
            "real_name": "Bastian Greshake Tzovaras",
            "display_name": "gedankenstuecke",
            "team": "T48QEEVTJ",
            "name": "gedankenstuecke",
            "is_restricted": false,
            "is_ultra_restricted": false
        },
        "blocks": [
            {
                "type": "rich_text",
                "block_id": "vChb",
                "elements": [
                    {
                        "type": "rich_text_section",
                        "elements": [
                            {
                                "type": "text",
                                "text": "We already have the sleep data from wearables in place (I think I actually sleep more now). But for other apps it’s a matter of finding someone who wants to build it :)"
                            }
                        ]
                    }
                ]
            }
        ],
        "thread_ts": "1586536105.271700",
        "parent_user_id": "U52KBSW9X"
    },
    {
        "client_msg_id": "b1e13088-39cc-45b3-922e-53b2681608e7",
        "type": "message",
        "text": "OK thanks, i'll have a look. I use Autosleep on Apple Watch.",
        "user": "UHFUVU5C4",
        "ts": "1586538898.273300",
        "team": "TUU48M0T1",
        "user_team": "T48QEEVTJ",
        "source_team": "T48QEEVTJ",
        "user_profile": {
            "avatar_hash": "g3997b4a982b",
            "image_72": "https:\/\/secure.gravatar.com\/avatar\/63997b4a982b774cfbb92103ee33d527.jpg?s=72&d=https%3A%2F%2Fa.slack-edge.com%2Fdf10d%2Fimg%2Favatars%2Fava_0019-72.png",
            "first_name": "",
            "real_name": "Iain Henderson",
            "display_name": "",
            "team": "T48QEEVTJ",
            "name": "iainhenderson",
            "is_restricted": false,
            "is_ultra_restricted": false
        },
        "blocks": [
            {
                "type": "rich_text",
                "block_id": "\/D4O",
                "elements": [
                    {
                        "type": "rich_text_section",
                        "elements": [
                            {
                                "type": "text",
                                "text": "OK thanks, i'll have a look. I use Autosleep on Apple Watch."
                            }
                        ]
                    }
                ]
            }
        ],
        "thread_ts": "1586536105.271700",
        "parent_user_id": "U52KBSW9X"
    },
    {
        "client_msg_id": "86BCF5B9-0690-46DB-8489-66155D0E2EFD",
        "type": "message",
        "text": "Cool! Let’s see if it has any export features :)",
        "user": "U52KBSW9X",
        "ts": "1586538964.273900",
        "team": "TUU48M0T1",
        "user_team": "T48QEEVTJ",
        "source_team": "T48QEEVTJ",
        "user_profile": {
            "avatar_hash": "079d4f4301af",
            "image_72": "https:\/\/avatars.slack-edge.com\/2019-07-28\/696974040114_079d4f4301af057e28c1_72.jpg",
            "first_name": "Bastian",
            "real_name": "Bastian Greshake Tzovaras",
            "display_name": "gedankenstuecke",
            "team": "T48QEEVTJ",
            "name": "gedankenstuecke",
            "is_restricted": false,
            "is_ultra_restricted": false
        },
        "blocks": [
            {
                "type": "rich_text",
                "block_id": "847b+",
                "elements": [
                    {
                        "type": "rich_text_section",
                        "elements": [
                            {
                                "type": "text",
                                "text": "Cool! Let’s see if it has any export features :)"
                            }
                        ]
                    }
                ]
            }
        ],
        "thread_ts": "1586536105.271700",
        "parent_user_id": "U52KBSW9X"
    },
    {
        "type": "message",
        "text": "It does, here's a sample",
        "files": [
            {
                "id": "F011LCW09BL",
                "created": 1586540035,
                "timestamp": 1586540035,
                "name": "AutoSleep-20200314-to-20200410.csv",
                "title": "AutoSleep-20200314-to-20200410.csv",
                "mimetype": "text\/csv",
                "filetype": "csv",
                "pretty_type": "CSV",
                "user": "UHFUVU5C4",
                "editable": true,
                "size": 6612,
                "mode": "snippet",
                "is_external": false,
                "external_type": "",
                "is_public": true,
                "public_url_shared": false,
                "display_as_bot": false,
                "username": "",
                "url_private": "https:\/\/files.slack.com\/files-pri\/T48QEEVTJ-F011LCW09BL\/autosleep-20200314-to-20200410.csv?t=xoxe-980144714919-1133254701825-1120841107731-daf595b5a7d6c9028b0b02a925032e36",
                "url_private_download": "https:\/\/files.slack.com\/files-pri\/T48QEEVTJ-F011LCW09BL\/download\/autosleep-20200314-to-20200410.csv?t=xoxe-980144714919-1133254701825-1120841107731-daf595b5a7d6c9028b0b02a925032e36",
                "permalink": "https:\/\/openhumans.slack.com\/files\/UHFUVU5C4\/F011LCW09BL\/autosleep-20200314-to-20200410.csv",
                "permalink_public": "https:\/\/slack-files.com\/T48QEEVTJ-F011LCW09BL-3903108812",
                "edit_link": "https:\/\/openhumans.slack.com\/files\/UHFUVU5C4\/F011LCW09BL\/autosleep-20200314-to-20200410.csv\/edit",
                "user_team": "T48QEEVTJ",
                "source_team": "T48QEEVTJ",
                "is_starred": false,
                "has_rich_preview": false
            }
        ],
        "upload": true,
        "blocks": [
            {
                "type": "rich_text",
                "block_id": "CpE+e",
                "elements": [
                    {
                        "type": "rich_text_section",
                        "elements": [
                            {
                                "type": "text",
                                "text": "It does, here's a sample"
                            }
                        ]
                    }
                ]
            }
        ],
        "user": "UHFUVU5C4",
        "display_as_bot": false,
        "team": "TUU48M0T1",
        "ts": "1586540037.276400",
        "client_msg_id": "0e3d437d-5f69-439b-8ef1-9370791e902e",
        "user_team": "T48QEEVTJ",
        "source_team": "T48QEEVTJ",
        "user_profile": {
            "avatar_hash": "g3997b4a982b",
            "image_72": "https:\/\/secure.gravatar.com\/avatar\/63997b4a982b774cfbb92103ee33d527.jpg?s=72&d=https%3A%2F%2Fa.slack-edge.com%2Fdf10d%2Fimg%2Favatars%2Fava_0019-72.png",
            "first_name": "",
            "real_name": "Iain Henderson",
            "display_name": "",
            "team": "T48QEEVTJ",
            "name": "iainhenderson",
            "is_restricted": false,
            "is_ultra_restricted": false
        },
        "thread_ts": "1586536105.271700",
        "parent_user_id": "U52KBSW9X"
    },
    {
        "client_msg_id": "53CDC728-E40A-4CA0-9A08-945B56921744",
        "type": "message",
        "text": "Ok, cool!",
        "user": "U52KBSW9X",
        "ts": "1586540740.276900",
        "team": "TUU48M0T1",
        "user_team": "T48QEEVTJ",
        "source_team": "T48QEEVTJ",
        "user_profile": {
            "avatar_hash": "079d4f4301af",
            "image_72": "https:\/\/avatars.slack-edge.com\/2019-07-28\/696974040114_079d4f4301af057e28c1_72.jpg",
            "first_name": "Bastian",
            "real_name": "Bastian Greshake Tzovaras",
            "display_name": "gedankenstuecke",
            "team": "T48QEEVTJ",
            "name": "gedankenstuecke",
            "is_restricted": false,
            "is_ultra_restricted": false
        },
        "blocks": [
            {
                "type": "rich_text",
                "block_id": "\/Ww+",
                "elements": [
                    {
                        "type": "rich_text_section",
                        "elements": [
                            {
                                "type": "text",
                                "text": "Ok, cool!"
                            }
                        ]
                    }
                ]
            }
        ],
        "thread_ts": "1586536105.271700",
        "parent_user_id": "U52KBSW9X",
        "reactions": [
            {
                "name": "+1",
                "users": [
                    "UHFUVU5C4"
                ],
                "count": 1
            }
        ]
    },
    {
        "client_msg_id": "8e352986-c526-4983-b648-372f08697884",
        "type": "message",
        "text": "Hi everybody -- I'm also online very little right now but following as closely as I can. <@U4A6D8F6J> how about a category that is very general and also self-defined? \"Overall feeling of sickness\" maybe for the first\/and \"Self-Defined Symptom\" for the second. I know you are thinking survey and these aren't necessarily user configurable, as I understand them, but supporting survey categories that are maximally general and\/or flexible might be helpful.",
        "user": "U4EFEMFS9",
        "ts": "1586541915.277200",
        "team": "TUU48M0T1",
        "user_team": "T48QEEVTJ",
        "source_team": "T48QEEVTJ",
        "user_profile": {
            "avatar_hash": "g182c4ed7b70",
            "image_72": "https:\/\/secure.gravatar.com\/avatar\/f182c4ed7b704c54e3c1d1984585e2db.jpg?s=72&d=https%3A%2F%2Fa.slack-edge.com%2Fdf10d%2Fimg%2Favatars%2Fava_0002-72.png",
            "first_name": "Gary",
            "real_name": "Gary Wolf",
            "display_name": "agaricus",
            "team": "T48QEEVTJ",
            "name": "agaricus",
            "is_restricted": false,
            "is_ultra_restricted": false
        },
        "blocks": [
            {
                "type": "rich_text",
                "block_id": "F6A6v",
                "elements": [
                    {
                        "type": "rich_text_section",
                        "elements": [
                            {
                                "type": "text",
                                "text": "Hi everybody -- I'm also online very little right now but following as closely as I can. "
                            },
                            {
                                "type": "user",
                                "user_id": "U4A6D8F6J"
                            },
                            {
                                "type": "text",
                                "text": " how about a category that is very general and also self-defined? \"Overall feeling of sickness\" maybe for the first\/and \"Self-Defined Symptom\" for the second. I know you are thinking survey and these aren't necessarily user configurable, as I understand them, but supporting survey categories that are maximally general and\/or flexible might be helpful."
                            }
                        ]
                    }
                ]
            }
        ],
        "thread_ts": "1586450767.267100",
        "parent_user_id": "U4A6D8F6J"
    },
    {
        "client_msg_id": "2346C3B8-992E-4A44-8D08-35851D148C4C",
        "type": "message",
        "text": "I’m happy to say the coding work I did yesterday laid out groundwork to enable user-defined\/configured symptoms, so that can definitely occur in a future update!\n\n(There’s an “other” field but it’s just text you enter each time, not something you can set up to do each time)\n\nFor the “default set”, I think there’s fatigue — do you think it would make sense to change the language to “fatigue and malaise”? I wonder if it makes sense to do that vs another question",
        "user": "U4A6D8F6J",
        "ts": "1586542117.281400",
        "team": "TUU48M0T1",
        "user_team": "T48QEEVTJ",
        "source_team": "T48QEEVTJ",
        "user_profile": {
            "avatar_hash": "4dc43012615b",
            "image_72": "https:\/\/avatars.slack-edge.com\/2019-10-17\/801801580071_4dc43012615b2074c521_72.jpg",
            "first_name": "Mad",
            "real_name": "Mad Price Ball",
            "display_name": "madprime",
            "team": "T48QEEVTJ",
            "name": "madprime",
            "is_restricted": false,
            "is_ultra_restricted": false
        },
        "blocks": [
            {
                "type": "rich_text",
                "block_id": "hFctA",
                "elements": [
                    {
                        "type": "rich_text_section",
                        "elements": [
                            {
                                "type": "text",
                                "text": "I’m happy to say the coding work I did yesterday laid out groundwork to enable user-defined\/configured symptoms, so that can definitely occur in a future update!\n\n"
                            },
                            {
                                "type": "text",
                                "text": "(There’s an “other” field but it’s just text you enter each time, not something you can set up to do each time)\n"
                            },
                            {
                                "type": "text",
                                "text": "\n"
                            },
                            {
                                "type": "text",
                                "text": "For the “default set”, I think there’s fatigue — do you think it would make sense to change the language to “fatigue and malaise”? I wonder if it makes sense to do that vs another question"
                            }
                        ]
                    }
                ]
            }
        ],
        "thread_ts": "1586450767.267100",
        "parent_user_id": "U4A6D8F6J"
    },
    {
        "client_msg_id": "7dfbfa28-c39a-4c06-a606-3bb48e2eda27",
        "type": "message",
        "text": "<@U52KBSW9X> you can, i will try to find some time this weekend",
        "user": "U4AGJ7L87",
        "ts": "1586542291.281600",
        "team": "TUU48M0T1",
        "user_team": "T48QEEVTJ",
        "source_team": "T48QEEVTJ",
        "user_profile": {
            "avatar_hash": "g066561fa364",
            "image_72": "https:\/\/secure.gravatar.com\/avatar\/0066561fa3649531b915aba34caff0b8.jpg?s=72&d=https%3A%2F%2Fa.slack-edge.com%2Fdf10d%2Fimg%2Favatars%2Fava_0024-72.png",
            "first_name": "Beau",
            "real_name": "Beau Gunderson",
            "display_name": "beau",
            "team": "T48QEEVTJ",
            "name": "beau",
            "is_restricted": false,
            "is_ultra_restricted": false
        },
        "blocks": [
            {
                "type": "rich_text",
                "block_id": "P4rwR",
                "elements": [
                    {
                        "type": "rich_text_section",
                        "elements": [
                            {
                                "type": "user",
                                "user_id": "U52KBSW9X"
                            },
                            {
                                "type": "text",
                                "text": " you can, i will try to find some time this weekend"
                            }
                        ]
                    }
                ]
            }
        ],
        "thread_ts": "1585104612.000500",
        "parent_user_id": "U4AGJ7L87"
    },
    {
        "client_msg_id": "8c20c8e3-f4a3-4d2d-8bf5-2f194e5eb253",
        "type": "message",
        "text": "awesome :heart:",
        "user": "U52KBSW9X",
        "ts": "1586542303.281900",
        "team": "TUU48M0T1",
        "user_team": "T48QEEVTJ",
        "source_team": "T48QEEVTJ",
        "user_profile": {
            "avatar_hash": "079d4f4301af",
            "image_72": "https:\/\/avatars.slack-edge.com\/2019-07-28\/696974040114_079d4f4301af057e28c1_72.jpg",
            "first_name": "Bastian",
            "real_name": "Bastian Greshake Tzovaras",
            "display_name": "gedankenstuecke",
            "team": "T48QEEVTJ",
            "name": "gedankenstuecke",
            "is_restricted": false,
            "is_ultra_restricted": false
        },
        "blocks": [
            {
                "type": "rich_text",
                "block_id": "q+V7X",
                "elements": [
                    {
                        "type": "rich_text_section",
                        "elements": [
                            {
                                "type": "text",
                                "text": "awesome "
                            },
                            {
                                "type": "emoji",
                                "name": "heart"
                            }
                        ]
                    }
                ]
            }
        ],
        "thread_ts": "1585104612.000500",
        "parent_user_id": "U4AGJ7L87"
    },
    {
        "client_msg_id": "55efc958-ddd7-49cd-93d2-8256459dfa55",
        "type": "message",
        "text": ":sparkles:",
        "user": "U4AGJ7L87",
        "ts": "1586542312.282100",
        "team": "TUU48M0T1",
        "user_team": "T48QEEVTJ",
        "source_team": "T48QEEVTJ",
        "user_profile": {
            "avatar_hash": "g066561fa364",
            "image_72": "https:\/\/secure.gravatar.com\/avatar\/0066561fa3649531b915aba34caff0b8.jpg?s=72&d=https%3A%2F%2Fa.slack-edge.com%2Fdf10d%2Fimg%2Favatars%2Fava_0024-72.png",
            "first_name": "Beau",
            "real_name": "Beau Gunderson",
            "display_name": "beau",
            "team": "T48QEEVTJ",
            "name": "beau",
            "is_restricted": false,
            "is_ultra_restricted": false
        },
        "blocks": [
            {
                "type": "rich_text",
                "block_id": "Sc0Zt",
                "elements": [
                    {
                        "type": "rich_text_section",
                        "elements": [
                            {
                                "type": "emoji",
                                "name": "sparkles"
                            }
                        ]
                    }
                ]
            }
        ],
        "thread_ts": "1585104612.000500",
        "parent_user_id": "U4AGJ7L87"
    },
    {
        "client_msg_id": "0bff1719-cf19-42ba-aecb-f7ba81b748a2",
        "type": "message",
        "text": "so the easiest way to do this right now is using <http:\/\/upload.openhumans.org|upload.openhumans.org>",
        "user": "U52KBSW9X",
        "ts": "1586542350.282700",
        "team": "TUU48M0T1",
        "user_team": "T48QEEVTJ",
        "source_team": "T48QEEVTJ",
        "user_profile": {
            "avatar_hash": "079d4f4301af",
            "image_72": "https:\/\/avatars.slack-edge.com\/2019-07-28\/696974040114_079d4f4301af057e28c1_72.jpg",
            "first_name": "Bastian",
            "real_name": "Bastian Greshake Tzovaras",
            "display_name": "gedankenstuecke",
            "team": "T48QEEVTJ",
            "name": "gedankenstuecke",
            "is_restricted": false,
            "is_ultra_restricted": false
        },
        "blocks": [
            {
                "type": "rich_text",
                "block_id": "y4pf",
                "elements": [
                    {
                        "type": "rich_text_section",
                        "elements": [
                            {
                                "type": "text",
                                "text": "so the easiest way to do this right now is using "
                            },
                            {
                                "type": "link",
                                "url": "http:\/\/upload.openhumans.org",
                                "text": "upload.openhumans.org"
                            }
                        ]
                    }
                ]
            }
        ],
        "thread_ts": "1586536105.271700",
        "parent_user_id": "U52KBSW9X"
    },
    {
        "client_msg_id": "4085ab48-e039-4c39-ae13-ebe245cb2ed0",
        "type": "message",
        "text": "you can add a new data type for the upload of files at <https:\/\/www.openhumans.org\/data-management\/datatypes\/> here with some description and metadata (e.g. where does the file come from, how do i export it from the app etc)",
        "user": "U52KBSW9X",
        "ts": "1586542446.284600",
        "team": "TUU48M0T1",
        "user_team": "T48QEEVTJ",
        "source_team": "T48QEEVTJ",
        "user_profile": {
            "avatar_hash": "079d4f4301af",
            "image_72": "https:\/\/avatars.slack-edge.com\/2019-07-28\/696974040114_079d4f4301af057e28c1_72.jpg",
            "first_name": "Bastian",
            "real_name": "Bastian Greshake Tzovaras",
            "display_name": "gedankenstuecke",
            "team": "T48QEEVTJ",
            "name": "gedankenstuecke",
            "is_restricted": false,
            "is_ultra_restricted": false
        },
        "attachments": [
            {
                "title": " - Open Humans",
                "title_link": "https:\/\/www.openhumans.org\/data-management\/datatypes\/",
                "text": "Open Humans empowers people with their personal data. From genomes to GPS: you can explore data analyses, do citizen science, and donate data to research.",
                "fallback": " - Open Humans",
                "from_url": "https:\/\/www.openhumans.org\/data-management\/datatypes\/",
                "service_icon": "https:\/\/www.openhumans.org\/static\/images\/open_humans_favicon.f8a3ebc1bf84.png",
                "service_name": "openhumans.org",
                "id": 1,
                "original_url": "https:\/\/www.openhumans.org\/data-management\/datatypes\/"
            }
        ],
        "blocks": [
            {
                "type": "rich_text",
                "block_id": "CG2D",
                "elements": [
                    {
                        "type": "rich_text_section",
                        "elements": [
                            {
                                "type": "text",
                                "text": "you can add a new data type for the upload of files at "
                            },
                            {
                                "type": "link",
                                "url": "https:\/\/www.openhumans.org\/data-management\/datatypes\/"
                            },
                            {
                                "type": "text",
                                "text": " here with some description and metadata (e.g. where does the file come from, how do i export it from the app etc)"
                            }
                        ]
                    }
                ]
            }
        ],
        "thread_ts": "1586536105.271700",
        "parent_user_id": "U52KBSW9X"
    },
    {
        "client_msg_id": "c1b1c9fa-7cf8-49c1-813b-ac077f058b27",
        "type": "message",
        "text": "if you mark the filetype as `uploadable` it will show up in <http:\/\/upload.openhumans.org|upload.openhumans.org> as a data type that you can associate with your autosleep file you’re uploading :slightly_smiling_face:",
        "user": "U52KBSW9X",
        "ts": "1586542479.284900",
        "team": "TUU48M0T1",
        "user_team": "T48QEEVTJ",
        "source_team": "T48QEEVTJ",
        "user_profile": {
            "avatar_hash": "079d4f4301af",
            "image_72": "https:\/\/avatars.slack-edge.com\/2019-07-28\/696974040114_079d4f4301af057e28c1_72.jpg",
            "first_name": "Bastian",
            "real_name": "Bastian Greshake Tzovaras",
            "display_name": "gedankenstuecke",
            "team": "T48QEEVTJ",
            "name": "gedankenstuecke",
            "is_restricted": false,
            "is_ultra_restricted": false
        },
        "blocks": [
            {
                "type": "rich_text",
                "block_id": "0GqE",
                "elements": [
                    {
                        "type": "rich_text_section",
                        "elements": [
                            {
                                "type": "text",
                                "text": "if you mark the filetype as "
                            },
                            {
                                "type": "text",
                                "text": "uploadable",
                                "style": {
                                    "code": true
                                }
                            },
                            {
                                "type": "text",
                                "text": " it will show up in "
                            },
                            {
                                "type": "link",
                                "url": "http:\/\/upload.openhumans.org",
                                "text": "upload.openhumans.org"
                            },
                            {
                                "type": "text",
                                "text": " as a data type that you can associate with your autosleep file you’re uploading "
                            },
                            {
                                "type": "emoji",
                                "name": "slightly_smiling_face"
                            }
                        ]
                    }
                ]
            }
        ],
        "thread_ts": "1586536105.271700",
        "parent_user_id": "U52KBSW9X"
    },
    {
        "client_msg_id": "a9829082-c603-4508-9fea-3da0260ab8f7",
        "type": "message",
        "text": "Great thanks, i'll give that a try.",
        "user": "UHFUVU5C4",
        "ts": "1586542522.285100",
        "team": "TUU48M0T1",
        "user_team": "T48QEEVTJ",
        "source_team": "T48QEEVTJ",
        "user_profile": {
            "avatar_hash": "g3997b4a982b",
            "image_72": "https:\/\/secure.gravatar.com\/avatar\/63997b4a982b774cfbb92103ee33d527.jpg?s=72&d=https%3A%2F%2Fa.slack-edge.com%2Fdf10d%2Fimg%2Favatars%2Fava_0019-72.png",
            "first_name": "",
            "real_name": "Iain Henderson",
            "display_name": "",
            "team": "T48QEEVTJ",
            "name": "iainhenderson",
            "is_restricted": false,
            "is_ultra_restricted": false
        },
        "blocks": [
            {
                "type": "rich_text",
                "block_id": "pav",
                "elements": [
                    {
                        "type": "rich_text_section",
                        "elements": [
                            {
                                "type": "text",
                                "text": "Great thanks, i'll give that a try."
                            }
                        ]
                    }
                ]
            }
        ],
        "thread_ts": "1586536105.271700",
        "parent_user_id": "U52KBSW9X",
        "reactions": [
            {
                "name": "+1",
                "users": [
                    "U52KBSW9X"
                ],
                "count": 1
            }
        ]
    },
    {
        "client_msg_id": "3deebcb7-21ab-4e37-8bd3-41e07edc2534",
        "type": "message",
        "text": "Malaise is a good word! I was trying to think of something like that and not succeeding.",
        "user": "U4EFEMFS9",
        "ts": "1586542760.285400",
        "team": "TUU48M0T1",
        "user_team": "T48QEEVTJ",
        "source_team": "T48QEEVTJ",
        "user_profile": {
            "avatar_hash": "g182c4ed7b70",
            "image_72": "https:\/\/secure.gravatar.com\/avatar\/f182c4ed7b704c54e3c1d1984585e2db.jpg?s=72&d=https%3A%2F%2Fa.slack-edge.com%2Fdf10d%2Fimg%2Favatars%2Fava_0002-72.png",
            "first_name": "Gary",
            "real_name": "Gary Wolf",
            "display_name": "agaricus",
            "team": "T48QEEVTJ",
            "name": "agaricus",
            "is_restricted": false,
            "is_ultra_restricted": false
        },
        "blocks": [
            {
                "type": "rich_text",
                "block_id": "mPWm",
                "elements": [
                    {
                        "type": "rich_text_section",
                        "elements": [
                            {
                                "type": "text",
                                "text": "Malaise is a good word! I was trying to think of something like that and not succeeding."
                            }
                        ]
                    }
                ]
            }
        ],
        "thread_ts": "1586450767.267100",
        "parent_user_id": "U4A6D8F6J"
    },
    {
        "client_msg_id": "BFAE272F-C087-4F7A-AB68-D5173C97F904",
        "type": "message",
        "text": "Sounds good, I'll add that. I spent a lot of time looking at existing symptom surveys, used clinically :)\n\n(Also, I’m pretty pleased that I did the “extra work” (and had skills) to not “hard code” symptoms! I was thinking exactly as you suggested last night about how this could extend to self-defined sets...)\n\nDeploying the update soon is important though because the current survey doesn’t have intensity. I’m going to map the old data to have “2” (“somewhat”) on a 0 to 5 scale. (Need to do something. :shrug:)",
        "user": "U4A6D8F6J",
        "ts": "1586543023.290000",
        "team": "TUU48M0T1",
        "user_team": "T48QEEVTJ",
        "source_team": "T48QEEVTJ",
        "user_profile": {
            "avatar_hash": "4dc43012615b",
            "image_72": "https:\/\/avatars.slack-edge.com\/2019-10-17\/801801580071_4dc43012615b2074c521_72.jpg",
            "first_name": "Mad",
            "real_name": "Mad Price Ball",
            "display_name": "madprime",
            "team": "T48QEEVTJ",
            "name": "madprime",
            "is_restricted": false,
            "is_ultra_restricted": false
        },
        "blocks": [
            {
                "type": "rich_text",
                "block_id": "IfwJ",
                "elements": [
                    {
                        "type": "rich_text_section",
                        "elements": [
                            {
                                "type": "text",
                                "text": "Sounds good, I'll add that. I spent a lot of time looking at existing symptom surveys, used clinically :)\n\n(Also, I’m pretty pleased that I did the “extra work” (and had skills) to not “hard code” symptoms! I was thinking exactly as you suggested last night about how this could extend to self-defined sets...)\n\n"
                            },
                            {
                                "type": "text",
                                "text": "Deploying the update soon is important though because the current survey doesn’t have intensity. I’m going to map the old data to have “2” (“somewhat”) on a 0 to 5 scale. (Need to do something. "
                            },
                            {
                                "type": "emoji",
                                "name": "shrug"
                            },
                            {
                                "type": "text",
                                "text": ")"
                            }
                        ]
                    }
                ]
            }
        ],
        "thread_ts": "1586450767.267100",
        "parent_user_id": "U4A6D8F6J"
    },
    {
        "type": "message",
        "subtype": "thread_broadcast",
        "text": "Is there any way to download it all in one batch? Or do you know if any of the related projects (Stanford\/MyPHD, UCSF\/Oura\/TemPredict, Scripps\/DETECT) have a significant amount of data? Thanks!",
        "user": "U011JNH9V4N",
        "ts": "1586543681.290300",
        "thread_ts": "1586534866.269000",
        "root": {
            "client_msg_id": "33dde056-9a00-46ce-8900-c2a7889772cf",
            "type": "message",
            "text": "hey <@U011JNH9V4N>! great to have you here!",
            "user": "U52KBSW9X",
            "ts": "1586534866.269000",
            "team": "TUU48M0T1",
            "user_team": "T48QEEVTJ",
            "source_team": "T48QEEVTJ",
            "user_profile": {
                "avatar_hash": "079d4f4301af",
                "image_72": "https:\/\/avatars.slack-edge.com\/2019-07-28\/696974040114_079d4f4301af057e28c1_72.jpg",
                "first_name": "Bastian",
                "real_name": "Bastian Greshake Tzovaras",
                "display_name": "gedankenstuecke",
                "team": "T48QEEVTJ",
                "name": "gedankenstuecke",
                "is_restricted": false,
                "is_ultra_restricted": false
            },
            "blocks": [
                {
                    "type": "rich_text",
                    "block_id": "t=kl",
                    "elements": [
                        {
                            "type": "rich_text_section",
                            "elements": [
                                {
                                    "type": "text",
                                    "text": "hey "
                                },
                                {
                                    "type": "user",
                                    "user_id": "U011JNH9V4N"
                                },
                                {
                                    "type": "text",
                                    "text": "! great to have you here!"
                                }
                            ]
                        }
                    ]
                }
            ],
            "thread_ts": "1586534866.269000",
            "reply_count": 3,
            "reply_users_count": 3,
            "latest_reply": "1586673147.300000",
            "reply_users": [
                "U52KBSW9X",
                "U011JNH9V4N",
                "U4A6D8F6J"
            ],
            "subscribed": false
        },
        "blocks": [
            {
                "type": "rich_text",
                "block_id": "1ld",
                "elements": [
                    {
                        "type": "rich_text_section",
                        "elements": [
                            {
                                "type": "text",
                                "text": "Is there any way to download it all in one batch? Or do you know if any of the related projects (Stanford\/MyPHD, UCSF\/Oura\/TemPredict, Scripps\/DETECT) have a significant amount of data? Thanks!"
                            }
                        ]
                    }
                ]
            }
        ],
        "client_msg_id": "8aa06cf5-3627-43c2-ab2b-bb57490cfd9c"
    },
    {
        "client_msg_id": "0dd95670-25d8-43fb-8c71-67c693441e04",
        "type": "message",
        "text": "I’d be willing to kick in my records from SleepAsAndroid as well….\n\ndid uploadable data move to per item sharing?",
        "user": "U49KHPBUJ",
        "ts": "1586544237.290600",
        "team": "TUU48M0T1",
        "user_team": "T48QEEVTJ",
        "source_team": "T48QEEVTJ",
        "user_profile": {
            "avatar_hash": "gfeaaafc4cbf",
            "image_72": "https:\/\/secure.gravatar.com\/avatar\/5feaaafc4cbf208f50f9b2807fa791a9.jpg?s=72&d=https%3A%2F%2Fa.slack-edge.com%2Fdf10d%2Fimg%2Favatars%2Fava_0008-72.png",
            "first_name": "Ben",
            "real_name": "Ben Carr",
            "display_name": "benc",
            "team": "T48QEEVTJ",
            "name": "benc",
            "is_restricted": false,
            "is_ultra_restricted": false
        },
        "blocks": [
            {
                "type": "rich_text",
                "block_id": "hkP3",
                "elements": [
                    {
                        "type": "rich_text_section",
                        "elements": [
                            {
                                "type": "text",
                                "text": "I’d be willing to kick in my records from SleepAsAndroid as well….\n\ndid uploadable data move to per item sharing?"
                            }
                        ]
                    }
                ]
            }
        ],
        "thread_ts": "1586536105.271700",
        "parent_user_id": "U52KBSW9X"
    },
    {
        "client_msg_id": "F2DC7192-8717-44D5-A930-1F7C1DF09A8E",
        "type": "message",
        "text": "We’re halfway there! The annotation of data types works already on per file level. The sharing modalities haven’t been updated yet. It’s on the Road map :)",
        "user": "U52KBSW9X",
        "ts": "1586544296.292100",
        "team": "TUU48M0T1",
        "user_team": "T48QEEVTJ",
        "source_team": "T48QEEVTJ",
        "user_profile": {
            "avatar_hash": "079d4f4301af",
            "image_72": "https:\/\/avatars.slack-edge.com\/2019-07-28\/696974040114_079d4f4301af057e28c1_72.jpg",
            "first_name": "Bastian",
            "real_name": "Bastian Greshake Tzovaras",
            "display_name": "gedankenstuecke",
            "team": "T48QEEVTJ",
            "name": "gedankenstuecke",
            "is_restricted": false,
            "is_ultra_restricted": false
        },
        "blocks": [
            {
                "type": "rich_text",
                "block_id": "pnP",
                "elements": [
                    {
                        "type": "rich_text_section",
                        "elements": [
                            {
                                "type": "text",
                                "text": "We’re halfway there! The annotation of data types works already on per file level. The sharing modalities haven’t been updated yet. It’s on the Road map :)"
                            }
                        ]
                    }
                ]
            }
        ],
        "thread_ts": "1586536105.271700",
        "parent_user_id": "U52KBSW9X"
    },
    {
        "client_msg_id": "110576d2-b21c-4775-b801-cffdf232daf6",
        "type": "message",
        "text": "woohoo!",
        "user": "U49KHPBUJ",
        "ts": "1586544692.292300",
        "team": "TUU48M0T1",
        "user_team": "T48QEEVTJ",
        "source_team": "T48QEEVTJ",
        "user_profile": {
            "avatar_hash": "gfeaaafc4cbf",
            "image_72": "https:\/\/secure.gravatar.com\/avatar\/5feaaafc4cbf208f50f9b2807fa791a9.jpg?s=72&d=https%3A%2F%2Fa.slack-edge.com%2Fdf10d%2Fimg%2Favatars%2Fava_0008-72.png",
            "first_name": "Ben",
            "real_name": "Ben Carr",
            "display_name": "benc",
            "team": "T48QEEVTJ",
            "name": "benc",
            "is_restricted": false,
            "is_ultra_restricted": false
        },
        "blocks": [
            {
                "type": "rich_text",
                "block_id": "NV1",
                "elements": [
                    {
                        "type": "rich_text_section",
                        "elements": [
                            {
                                "type": "text",
                                "text": "woohoo!"
                            }
                        ]
                    }
                ]
            }
        ],
        "thread_ts": "1586536105.271700",
        "parent_user_id": "U52KBSW9X"
    },
    {
        "client_msg_id": "a9bd141d-f52d-4346-8dca-1b56482c056e",
        "type": "message",
        "text": "I have an 8MB CSV of sleep data I can contribute",
        "user": "U49KHPBUJ",
        "ts": "1586546287.292500",
        "team": "TUU48M0T1",
        "user_team": "T48QEEVTJ",
        "source_team": "T48QEEVTJ",
        "user_profile": {
            "avatar_hash": "gfeaaafc4cbf",
            "image_72": "https:\/\/secure.gravatar.com\/avatar\/5feaaafc4cbf208f50f9b2807fa791a9.jpg?s=72&d=https%3A%2F%2Fa.slack-edge.com%2Fdf10d%2Fimg%2Favatars%2Fava_0008-72.png",
            "first_name": "Ben",
            "real_name": "Ben Carr",
            "display_name": "benc",
            "team": "T48QEEVTJ",
            "name": "benc",
            "is_restricted": false,
            "is_ultra_restricted": false
        },
        "blocks": [
            {
                "type": "rich_text",
                "block_id": "pi4e1",
                "elements": [
                    {
                        "type": "rich_text_section",
                        "elements": [
                            {
                                "type": "text",
                                "text": "I have an 8MB CSV of sleep data I can contribute"
                            }
                        ]
                    }
                ]
            }
        ],
        "thread_ts": "1586536105.271700",
        "parent_user_id": "U52KBSW9X"
    },
    {
        "client_msg_id": "9d90a7d4-7a7b-4052-b1e9-772f21432d98",
        "type": "message",
        "text": "I have ~4years of sleep data\n5900 row CSV",
        "user": "U49KHPBUJ",
        "ts": "1586546659.292700",
        "team": "TUU48M0T1",
        "user_team": "T48QEEVTJ",
        "source_team": "T48QEEVTJ",
        "user_profile": {
            "avatar_hash": "gfeaaafc4cbf",
            "image_72": "https:\/\/secure.gravatar.com\/avatar\/5feaaafc4cbf208f50f9b2807fa791a9.jpg?s=72&d=https%3A%2F%2Fa.slack-edge.com%2Fdf10d%2Fimg%2Favatars%2Fava_0008-72.png",
            "first_name": "Ben",
            "real_name": "Ben Carr",
            "display_name": "benc",
            "team": "T48QEEVTJ",
            "name": "benc",
            "is_restricted": false,
            "is_ultra_restricted": false
        },
        "blocks": [
            {
                "type": "rich_text",
                "block_id": "LYxIc",
                "elements": [
                    {
                        "type": "rich_text_section",
                        "elements": [
                            {
                                "type": "text",
                                "text": "I have ~4years of sleep data\n5900 row CSV"
                            }
                        ]
                    }
                ]
            }
        ],
        "thread_ts": "1586536105.271700",
        "parent_user_id": "U52KBSW9X"
    },
    {
        "client_msg_id": "1BF98505-7DF8-4F4C-ACC7-3D37F588806A",
        "type": "message",
        "text": "Yeah, you can use the same way of creating a custom file type for the tool you used!",
        "user": "U52KBSW9X",
        "ts": "1586547096.293400",
        "team": "TUU48M0T1",
        "user_team": "T48QEEVTJ",
        "source_team": "T48QEEVTJ",
        "user_profile": {
            "avatar_hash": "079d4f4301af",
            "image_72": "https:\/\/avatars.slack-edge.com\/2019-07-28\/696974040114_079d4f4301af057e28c1_72.jpg",
            "first_name": "Bastian",
            "real_name": "Bastian Greshake Tzovaras",
            "display_name": "gedankenstuecke",
            "team": "T48QEEVTJ",
            "name": "gedankenstuecke",
            "is_restricted": false,
            "is_ultra_restricted": false
        },
        "blocks": [
            {
                "type": "rich_text",
                "block_id": "8mnGP",
                "elements": [
                    {
                        "type": "rich_text_section",
                        "elements": [
                            {
                                "type": "text",
                                "text": "Yeah, you can use the same way of creating a custom file type for the tool you used!"
                            }
                        ]
                    }
                ]
            }
        ],
        "thread_ts": "1586536105.271700",
        "parent_user_id": "U52KBSW9X"
    },
    {
        "client_msg_id": "42DF68D9-158D-4DE9-AC97-5EE34FB89337",
        "type": "message",
        "text": "And I’d love to get the second half implemented as well, but <@U4A6D8F6J> and I only have so many hours in our day to get things done. I keep writing grants to hopefully hire folks working on code things :joy:",
        "user": "U52KBSW9X",
        "ts": "1586547143.294900",
        "team": "TUU48M0T1",
        "user_team": "T48QEEVTJ",
        "source_team": "T48QEEVTJ",
        "user_profile": {
            "avatar_hash": "079d4f4301af",
            "image_72": "https:\/\/avatars.slack-edge.com\/2019-07-28\/696974040114_079d4f4301af057e28c1_72.jpg",
            "first_name": "Bastian",
            "real_name": "Bastian Greshake Tzovaras",
            "display_name": "gedankenstuecke",
            "team": "T48QEEVTJ",
            "name": "gedankenstuecke",
            "is_restricted": false,
            "is_ultra_restricted": false
        },
        "blocks": [
            {
                "type": "rich_text",
                "block_id": "f6Qa",
                "elements": [
                    {
                        "type": "rich_text_section",
                        "elements": [
                            {
                                "type": "text",
                                "text": "And I’d love to get the second half implemented as well, but "
                            },
                            {
                                "type": "user",
                                "user_id": "U4A6D8F6J"
                            },
                            {
                                "type": "text",
                                "text": " and I only have so many hours in our day to get things done. I keep writing grants to hopefully hire folks working on code things "
                            },
                            {
                                "type": "emoji",
                                "name": "joy"
                            }
                        ]
                    }
                ]
            }
        ],
        "thread_ts": "1586536105.271700",
        "parent_user_id": "U52KBSW9X"
    }
]