[
    {
        "client_msg_id": "d1c5dccd-674c-4a15-9b9f-0b9f1cc23897",
        "type": "message",
        "text": "I've tried installing Breezy Display from play store. First I uninstalled the app. But I couldn't get it downloaded, it freezed at 6 % of download. I can't install any other apps from the Play store. I have tried restarting the phone, but no joy. I don't know if this is specific to my device and if it has anything to do with Breezy Display on Play store. Maybe just a coincidence.",
        "user": "U010B4EJG2C",
        "ts": "1587218527.000100",
        "team": "TUU48M0T1",
        "user_team": "TUU48M0T1",
        "source_team": "TUU48M0T1",
        "user_profile": {
            "avatar_hash": "5c9626d7b328",
            "image_72": "https:\/\/avatars.slack-edge.com\/2020-03-19\/1011171782821_5c9626d7b328e5dc84ea_72.jpg",
            "first_name": "Adam",
            "real_name": "Adam Krovina",
            "display_name": "Adam Krovina",
            "team": "TUU48M0T1",
            "name": "adam",
            "is_restricted": false,
            "is_ultra_restricted": false
        },
        "blocks": [
            {
                "type": "rich_text",
                "block_id": "=ak",
                "elements": [
                    {
                        "type": "rich_text_section",
                        "elements": [
                            {
                                "type": "text",
                                "text": "I've tried installing Breezy Display from play store. First I uninstalled the app. But I couldn't get it downloaded, it freezed at 6 % of download. I can't install any other apps from the Play store. I have tried restarting the phone, but no joy. I don't know if this is specific to my device and if it has anything to do with Breezy Display on Play store. Maybe just a coincidence."
                            }
                        ]
                    }
                ]
            }
        ],
        "thread_ts": "1586197014.001900",
        "parent_user_id": "U010GFNDDL4"
    },
    {
        "type": "message",
        "subtype": "bot_message",
        "text": "Kevin Douglas just joined Breezy - the crisis emergency ventilator!",
        "ts": "1587221478.000300",
        "bot_id": "B012LGDGAKA",
        "attachments": [
            {
                "author_name": "From:Breezy - the crisis emergency ventilator",
                "fallback": "Someone joined an object!",
                "text": "Ingénieur en informatique[...]",
                "title": "Kevin Douglas",
                "footer": "Just One Giant Lab",
                "id": 1,
                "title_link": "https:\/\/app.jogl.io\/user\/4634",
                "author_link": "https:\/\/app.jogl.io\/project\/4634",
                "footer_icon": "https:\/\/app.jogl.io\/favicon.ico",
                "color": "36a64f",
                "fields": [
                    {
                        "title": "Skills",
                        "value": "Development, Deep learning",
                        "short": true
                    }
                ]
            }
        ]
    },
    {
        "client_msg_id": "36342d22-a2e9-4afa-9d8f-1a1918e0ca04",
        "type": "message",
        "text": "Try to clear data and cache of the play store on your phone.",
        "user": "U0108DWH5NH",
        "ts": "1587229404.000100",
        "team": "TUU48M0T1",
        "user_team": "TUU48M0T1",
        "source_team": "TUU48M0T1",
        "user_profile": {
            "avatar_hash": "gd582b07cb4c",
            "image_72": "https:\/\/secure.gravatar.com\/avatar\/d582b07cb4cff8ecfdf7095f4f4eefc5.jpg?s=72&d=https%3A%2F%2Fa.slack-edge.com%2Fdf10d%2Fimg%2Favatars%2Fava_0025-72.png",
            "first_name": "",
            "real_name": "Juraj Marak",
            "display_name": "Juraj Marak",
            "team": "TUU48M0T1",
            "name": "kukulo2011",
            "is_restricted": false,
            "is_ultra_restricted": false
        },
        "blocks": [
            {
                "type": "rich_text",
                "block_id": "5eFO0",
                "elements": [
                    {
                        "type": "rich_text_section",
                        "elements": [
                            {
                                "type": "text",
                                "text": "Try to clear data and cache of the play store on your phone."
                            }
                        ]
                    }
                ]
            }
        ],
        "thread_ts": "1586197014.001900",
        "parent_user_id": "U010GFNDDL4"
    },
    {
        "client_msg_id": "4b15e2b8-f82e-4bf2-8435-b9ab29a7480a",
        "type": "message",
        "text": "In settings -&gt; applications.",
        "user": "U0108DWH5NH",
        "ts": "1587229462.000300",
        "team": "TUU48M0T1",
        "user_team": "TUU48M0T1",
        "source_team": "TUU48M0T1",
        "user_profile": {
            "avatar_hash": "gd582b07cb4c",
            "image_72": "https:\/\/secure.gravatar.com\/avatar\/d582b07cb4cff8ecfdf7095f4f4eefc5.jpg?s=72&d=https%3A%2F%2Fa.slack-edge.com%2Fdf10d%2Fimg%2Favatars%2Fava_0025-72.png",
            "first_name": "",
            "real_name": "Juraj Marak",
            "display_name": "Juraj Marak",
            "team": "TUU48M0T1",
            "name": "kukulo2011",
            "is_restricted": false,
            "is_ultra_restricted": false
        },
        "blocks": [
            {
                "type": "rich_text",
                "block_id": "+NyQ",
                "elements": [
                    {
                        "type": "rich_text_section",
                        "elements": [
                            {
                                "type": "text",
                                "text": "In settings -> applications."
                            }
                        ]
                    }
                ]
            }
        ],
        "thread_ts": "1586197014.001900",
        "parent_user_id": "U010GFNDDL4"
    },
    {
        "type": "message",
        "subtype": "channel_join",
        "ts": "1587241514.000200",
        "user": "U0123ED8WV8",
        "text": "<@U0123ED8WV8> has joined the channel"
    },
    {
        "type": "message",
        "subtype": "channel_join",
        "ts": "1587254831.000400",
        "user": "U010U9EHR7T",
        "text": "<@U010U9EHR7T> has joined the channel"
    }
]