[
    {
        "client_msg_id": "6f17e6bf-c421-4ebc-8ea0-db94be122814",
        "type": "message",
        "text": "I just tested it, works ok. Could not test the TCP\/IP socket for now.",
        "user": "U0108DWH5NH",
        "ts": "1586332039.000100",
        "team": "TUU48M0T1",
        "user_team": "TUU48M0T1",
        "source_team": "TUU48M0T1",
        "user_profile": {
            "avatar_hash": "gd582b07cb4c",
            "image_72": "https:\/\/secure.gravatar.com\/avatar\/d582b07cb4cff8ecfdf7095f4f4eefc5.jpg?s=72&d=https%3A%2F%2Fa.slack-edge.com%2Fdf10d%2Fimg%2Favatars%2Fava_0025-72.png",
            "first_name": "",
            "real_name": "Juraj Marak",
            "display_name": "Juraj Marak",
            "team": "TUU48M0T1",
            "name": "kukulo2011",
            "is_restricted": false,
            "is_ultra_restricted": false
        },
        "blocks": [
            {
                "type": "rich_text",
                "block_id": "cmmC",
                "elements": [
                    {
                        "type": "rich_text_section",
                        "elements": [
                            {
                                "type": "text",
                                "text": "I just tested it, works ok. Could not test the TCP\/IP socket for now."
                            }
                        ]
                    }
                ]
            }
        ],
        "thread_ts": "1586197014.001900",
        "parent_user_id": "U010GFNDDL4"
    }
]