[
    {
        "client_msg_id": "abb551ea-967b-4d9d-995e-7678fd4186a4",
        "type": "message",
        "text": "<@U0119SR5LMT> is a great data analyst who can help us with the peer review processes down the line",
        "user": "UV0RRGB6H",
        "ts": "1585840660.216300",
        "team": "TUU48M0T1",
        "user_team": "TUU48M0T1",
        "source_team": "TUU48M0T1",
        "user_profile": {
            "avatar_hash": "48d4ab64c90c",
            "image_72": "https:\/\/avatars.slack-edge.com\/2020-03-26\/1029789176912_48d4ab64c90c03f3af4a_72.jpg",
            "first_name": "",
            "real_name": "Chris LB Graham",
            "display_name": "",
            "team": "TUU48M0T1",
            "name": "chris.graham",
            "is_restricted": false,
            "is_ultra_restricted": false
        },
        "blocks": [
            {
                "type": "rich_text",
                "block_id": "aBe1",
                "elements": [
                    {
                        "type": "rich_text_section",
                        "elements": [
                            {
                                "type": "user",
                                "user_id": "U0119SR5LMT"
                            },
                            {
                                "type": "text",
                                "text": " is a great data analyst who can help us with the peer review processes down the line"
                            }
                        ]
                    }
                ]
            }
        ]
    },
    {
        "client_msg_id": "24057cf5-1033-47bc-8222-403e982a43a6",
        "type": "message",
        "text": "Heres a template for us to work on and improve for the grant applications bettering that we can use as a talking point. I think Elliot has some changes that make this better perhaps and we can use moving forward :slightly_smiling_face:",
        "user": "UV0RRGB6H",
        "ts": "1585840729.217200",
        "team": "TUU48M0T1",
        "user_team": "TUU48M0T1",
        "source_team": "TUU48M0T1",
        "user_profile": {
            "avatar_hash": "48d4ab64c90c",
            "image_72": "https:\/\/avatars.slack-edge.com\/2020-03-26\/1029789176912_48d4ab64c90c03f3af4a_72.jpg",
            "first_name": "",
            "real_name": "Chris LB Graham",
            "display_name": "",
            "team": "TUU48M0T1",
            "name": "chris.graham",
            "is_restricted": false,
            "is_ultra_restricted": false
        },
        "edited": {
            "user": "UV0RRGB6H",
            "ts": "1585842488.000000"
        },
        "blocks": [
            {
                "type": "rich_text",
                "block_id": "2Bg",
                "elements": [
                    {
                        "type": "rich_text_section",
                        "elements": [
                            {
                                "type": "text",
                                "text": "Heres a template for us to work on and improve for the grant applications bettering that we can use as a talking point. I think Elliot has some changes that make this better perhaps and we can use moving forward "
                            },
                            {
                                "type": "emoji",
                                "name": "slightly_smiling_face"
                            }
                        ]
                    }
                ]
            }
        ]
    },
    {
        "client_msg_id": "9e84be55-100c-4d68-8ee9-ffb40d6e4825",
        "type": "message",
        "text": "*Project Evaluation form for reviewers: <https:\/\/docs.google.com\/forms\/d\/12Qt3TxywRq1WI5kO_xh7rXm3usMt3La-F0UMYyDrtn0\/edit?usp=sharing>*",
        "user": "UV0RRGB6H",
        "ts": "1585840740.217500",
        "team": "TUU48M0T1",
        "user_team": "TUU48M0T1",
        "source_team": "TUU48M0T1",
        "user_profile": {
            "avatar_hash": "48d4ab64c90c",
            "image_72": "https:\/\/avatars.slack-edge.com\/2020-03-26\/1029789176912_48d4ab64c90c03f3af4a_72.jpg",
            "first_name": "",
            "real_name": "Chris LB Graham",
            "display_name": "",
            "team": "TUU48M0T1",
            "name": "chris.graham",
            "is_restricted": false,
            "is_ultra_restricted": false
        },
        "blocks": [
            {
                "type": "rich_text",
                "block_id": "jQLOE",
                "elements": [
                    {
                        "type": "rich_text_section",
                        "elements": [
                            {
                                "type": "text",
                                "text": "Project Evaluation form for reviewers: ",
                                "style": {
                                    "bold": true
                                }
                            },
                            {
                                "type": "link",
                                "url": "https:\/\/docs.google.com\/forms\/d\/12Qt3TxywRq1WI5kO_xh7rXm3usMt3La-F0UMYyDrtn0\/edit?usp=sharing",
                                "style": {
                                    "bold": true
                                }
                            }
                        ]
                    }
                ]
            }
        ]
    },
    {
        "client_msg_id": "eb7599ef-3259-4520-beed-27dba20f97d3",
        "type": "message",
        "text": "When is the next meeting?",
        "user": "UV0RRGB6H",
        "ts": "1585840794.218000",
        "team": "TUU48M0T1",
        "user_team": "TUU48M0T1",
        "source_team": "TUU48M0T1",
        "user_profile": {
            "avatar_hash": "48d4ab64c90c",
            "image_72": "https:\/\/avatars.slack-edge.com\/2020-03-26\/1029789176912_48d4ab64c90c03f3af4a_72.jpg",
            "first_name": "",
            "real_name": "Chris LB Graham",
            "display_name": "",
            "team": "TUU48M0T1",
            "name": "chris.graham",
            "is_restricted": false,
            "is_ultra_restricted": false
        },
        "blocks": [
            {
                "type": "rich_text",
                "block_id": "IKpE",
                "elements": [
                    {
                        "type": "rich_text_section",
                        "elements": [
                            {
                                "type": "text",
                                "text": "When is the next meeting?"
                            }
                        ]
                    }
                ]
            }
        ]
    },
    {
        "client_msg_id": "7c2c6fa3-7758-4476-bbc9-9c950e2e270b",
        "type": "message",
        "text": "Thanks Chris! Welcome <@U0119SR5LMT> :slightly_smiling_face:\nIf you are ok with this, the next meeting is going to be this Friday 7pm Paris time (CET) - 1pm EST",
        "user": "UV02WET96",
        "ts": "1585842961.219600",
        "team": "TUU48M0T1",
        "user_team": "TUU48M0T1",
        "source_team": "TUU48M0T1",
        "user_profile": {
            "avatar_hash": "a99c74a194f8",
            "image_72": "https:\/\/avatars.slack-edge.com\/2020-03-07\/975708504851_a99c74a194f86715ca7d_72.png",
            "first_name": "Thomas",
            "real_name": "Thomas Landrain",
            "display_name": "Thomas Landrain - JOGL CoFounder \/ CEO",
            "team": "TUU48M0T1",
            "name": "thomas",
            "is_restricted": false,
            "is_ultra_restricted": false
        },
        "blocks": [
            {
                "type": "rich_text",
                "block_id": "qAqlO",
                "elements": [
                    {
                        "type": "rich_text_section",
                        "elements": [
                            {
                                "type": "text",
                                "text": "Thanks Chris! Welcome "
                            },
                            {
                                "type": "user",
                                "user_id": "U0119SR5LMT"
                            },
                            {
                                "type": "text",
                                "text": " "
                            },
                            {
                                "type": "emoji",
                                "name": "slightly_smiling_face"
                            },
                            {
                                "type": "text",
                                "text": "\nIf you are ok with this, the next meeting is going to be this Friday 7pm Paris time (CET) - 1pm EST"
                            }
                        ]
                    }
                ]
            }
        ]
    },
    {
        "client_msg_id": "90b6620c-5939-4d10-89b5-549748709ac7",
        "type": "message",
        "text": "Thanks <@UV02WET96>! Glad to be a part of this amazing thing you're all doing",
        "user": "U0119SR5LMT",
        "ts": "1585843507.220900",
        "team": "TUU48M0T1",
        "user_team": "TUU48M0T1",
        "source_team": "TUU48M0T1",
        "user_profile": {
            "avatar_hash": "913f9e6efbb8",
            "image_72": "https:\/\/avatars.slack-edge.com\/2020-04-06\/1048088967254_913f9e6efbb86d3e9092_72.jpg",
            "first_name": "",
            "real_name": "Elliot Lawton",
            "display_name": "Elliot Lawton",
            "team": "TUU48M0T1",
            "name": "elliotlawton",
            "is_restricted": false,
            "is_ultra_restricted": false
        },
        "blocks": [
            {
                "type": "rich_text",
                "block_id": "PTpY",
                "elements": [
                    {
                        "type": "rich_text_section",
                        "elements": [
                            {
                                "type": "text",
                                "text": "Thanks "
                            },
                            {
                                "type": "user",
                                "user_id": "UV02WET96"
                            },
                            {
                                "type": "text",
                                "text": "! Glad to be a part of this amazing thing you're all doing"
                            }
                        ]
                    }
                ]
            }
        ]
    },
    {
        "client_msg_id": "30dc4bdc-f0f6-46d5-a368-a542950ca2a0",
        "type": "message",
        "text": "Sounds great.",
        "user": "UV0RRGB6H",
        "ts": "1585849557.221300",
        "team": "TUU48M0T1",
        "user_team": "TUU48M0T1",
        "source_team": "TUU48M0T1",
        "user_profile": {
            "avatar_hash": "48d4ab64c90c",
            "image_72": "https:\/\/avatars.slack-edge.com\/2020-03-26\/1029789176912_48d4ab64c90c03f3af4a_72.jpg",
            "first_name": "",
            "real_name": "Chris LB Graham",
            "display_name": "",
            "team": "TUU48M0T1",
            "name": "chris.graham",
            "is_restricted": false,
            "is_ultra_restricted": false
        },
        "blocks": [
            {
                "type": "rich_text",
                "block_id": "S0yK",
                "elements": [
                    {
                        "type": "rich_text_section",
                        "elements": [
                            {
                                "type": "text",
                                "text": "Sounds great."
                            }
                        ]
                    }
                ]
            }
        ]
    },
    {
        "client_msg_id": "dda37161-70e7-4bec-8c58-21321e01faaa",
        "type": "message",
        "text": "<@UV02WET96> can you please organize the meeting then?",
        "user": "UV9V03C8Y",
        "ts": "1585858507.222400",
        "team": "TUU48M0T1",
        "user_team": "TUU48M0T1",
        "source_team": "TUU48M0T1",
        "user_profile": {
            "avatar_hash": "177697fb7b8f",
            "image_72": "https:\/\/avatars.slack-edge.com\/2020-03-12\/996126178096_177697fb7b8ffa57649c_72.jpg",
            "first_name": "Camille",
            "real_name": "Camille Masselot - JOGL Program coordinator",
            "display_name": "Camille Masselot - JOGL coordinator",
            "team": "TUU48M0T1",
            "name": "masselot.camille",
            "is_restricted": false,
            "is_ultra_restricted": false
        },
        "blocks": [
            {
                "type": "rich_text",
                "block_id": "OF0s",
                "elements": [
                    {
                        "type": "rich_text_section",
                        "elements": [
                            {
                                "type": "user",
                                "user_id": "UV02WET96"
                            },
                            {
                                "type": "text",
                                "text": " can you please organize the meeting then?"
                            }
                        ]
                    }
                ]
            }
        ]
    },
    {
        "client_msg_id": "237cbc7c-1a0b-4a73-8f5d-14923d7ac03d",
        "type": "message",
        "text": "<@UV0RRGB6H> <@U0119SR5LMT> I am happy to work with you on the content of the form and provide you with my feedback on how it went for Co-Immune too.",
        "user": "UV9V03C8Y",
        "ts": "1585858581.223500",
        "team": "TUU48M0T1",
        "user_team": "TUU48M0T1",
        "source_team": "TUU48M0T1",
        "user_profile": {
            "avatar_hash": "177697fb7b8f",
            "image_72": "https:\/\/avatars.slack-edge.com\/2020-03-12\/996126178096_177697fb7b8ffa57649c_72.jpg",
            "first_name": "Camille",
            "real_name": "Camille Masselot - JOGL Program coordinator",
            "display_name": "Camille Masselot - JOGL coordinator",
            "team": "TUU48M0T1",
            "name": "masselot.camille",
            "is_restricted": false,
            "is_ultra_restricted": false
        },
        "blocks": [
            {
                "type": "rich_text",
                "block_id": "2PLE",
                "elements": [
                    {
                        "type": "rich_text_section",
                        "elements": [
                            {
                                "type": "user",
                                "user_id": "UV0RRGB6H"
                            },
                            {
                                "type": "text",
                                "text": " "
                            },
                            {
                                "type": "user",
                                "user_id": "U0119SR5LMT"
                            },
                            {
                                "type": "text",
                                "text": " I am happy to work with you on the content of the form and provide you with my feedback on how it went for Co-Immune too."
                            }
                        ]
                    }
                ]
            }
        ]
    },
    {
        "type": "message",
        "text": "For you information, this is the project-review framework we ended up with before last minute changes. It contains valuable information that projects and reviewers will need. It would be nice to adapt it to the last changes and communicate it: <https:\/\/docs.google.com\/document\/d\/1DEXXseszSvSeXMwYk7i1S8dMVyQaa3uuMwQ02r48RXg\/edit>",
        "files": [
            {
                "id": "F010XB66PED",
                "created": 1585749234,
                "timestamp": 1585749234,
                "name": "Framework_Grant Review Process_V0",
                "title": "Project_review_framework_V0.2",
                "mimetype": "application\/vnd.google-apps.document",
                "filetype": "gdoc",
                "pretty_type": "GSuite Document",
                "user": "UV9V03C8Y",
                "editable": false,
                "size": 20487,
                "mode": "external",
                "is_external": true,
                "external_type": "gdrive",
                "is_public": true,
                "public_url_shared": false,
                "display_as_bot": false,
                "username": "",
                "url_private": "https:\/\/docs.google.com\/document\/d\/1DEXXseszSvSeXMwYk7i1S8dMVyQaa3uuMwQ02r48RXg\/edit#",
                "thumb_64": "https:\/\/files.slack.com\/files-tmb\/TUU48M0T1-F010XB66PED-b0656e9485\/framework_grant_review_process_v0_64.png?t=xoxe-980144714919-1133254701825-1120841107731-daf595b5a7d6c9028b0b02a925032e36",
                "thumb_80": "https:\/\/files.slack.com\/files-tmb\/TUU48M0T1-F010XB66PED-b0656e9485\/framework_grant_review_process_v0_80.png?t=xoxe-980144714919-1133254701825-1120841107731-daf595b5a7d6c9028b0b02a925032e36",
                "thumb_360": "https:\/\/files.slack.com\/files-tmb\/TUU48M0T1-F010XB66PED-b0656e9485\/framework_grant_review_process_v0_360.png?t=xoxe-980144714919-1133254701825-1120841107731-daf595b5a7d6c9028b0b02a925032e36",
                "thumb_360_w": 278,
                "thumb_360_h": 360,
                "thumb_480": "https:\/\/files.slack.com\/files-tmb\/TUU48M0T1-F010XB66PED-b0656e9485\/framework_grant_review_process_v0_480.png?t=xoxe-980144714919-1133254701825-1120841107731-daf595b5a7d6c9028b0b02a925032e36",
                "thumb_480_w": 371,
                "thumb_480_h": 480,
                "thumb_160": "https:\/\/files.slack.com\/files-tmb\/TUU48M0T1-F010XB66PED-b0656e9485\/framework_grant_review_process_v0_160.png?t=xoxe-980144714919-1133254701825-1120841107731-daf595b5a7d6c9028b0b02a925032e36",
                "thumb_720": "https:\/\/files.slack.com\/files-tmb\/TUU48M0T1-F010XB66PED-b0656e9485\/framework_grant_review_process_v0_720.png?t=xoxe-980144714919-1133254701825-1120841107731-daf595b5a7d6c9028b0b02a925032e36",
                "thumb_720_w": 557,
                "thumb_720_h": 720,
                "thumb_800": "https:\/\/files.slack.com\/files-tmb\/TUU48M0T1-F010XB66PED-b0656e9485\/framework_grant_review_process_v0_800.png?t=xoxe-980144714919-1133254701825-1120841107731-daf595b5a7d6c9028b0b02a925032e36",
                "thumb_800_w": 800,
                "thumb_800_h": 1035,
                "thumb_960": "https:\/\/files.slack.com\/files-tmb\/TUU48M0T1-F010XB66PED-b0656e9485\/framework_grant_review_process_v0_960.png?t=xoxe-980144714919-1133254701825-1120841107731-daf595b5a7d6c9028b0b02a925032e36",
                "thumb_960_w": 742,
                "thumb_960_h": 960,
                "thumb_1024": "https:\/\/files.slack.com\/files-tmb\/TUU48M0T1-F010XB66PED-b0656e9485\/framework_grant_review_process_v0_1024.png?t=xoxe-980144714919-1133254701825-1120841107731-daf595b5a7d6c9028b0b02a925032e36",
                "thumb_1024_w": 791,
                "thumb_1024_h": 1024,
                "image_exif_rotation": 1,
                "original_w": 800,
                "original_h": 1035,
                "thumb_tiny": "AwAwACXTPAqFJyyBvLfk4xin4k9V\/Km5l68flTsA\/fx9xvyoWQMcYNMzL7flSjzfb8RRYCSimYk9V\/KjEnqv5UWAc3Trikz\/ALX6U49Kiz9aQDgT3P6UoPv+lIDxz+ppc+4\/OgB1FFFACMcCmj8fwpxAPWjaPSgBuB\/tUuf96l2j0o2igBaKKKAP\/9k=",
                "permalink": "https:\/\/open-covid19.slack.com\/files\/UV9V03C8Y\/F010XB66PED\/framework_grant_review_process_v0",
                "is_starred": false,
                "external_id": "1DEXXseszSvSeXMwYk7i1S8dMVyQaa3uuMwQ02r48RXg",
                "external_url": "https:\/\/docs.google.com\/document\/d\/1DEXXseszSvSeXMwYk7i1S8dMVyQaa3uuMwQ02r48RXg\/edit#",
                "has_rich_preview": true
            }
        ],
        "upload": false,
        "blocks": [
            {
                "type": "rich_text",
                "block_id": "6cm",
                "elements": [
                    {
                        "type": "rich_text_section",
                        "elements": [
                            {
                                "type": "text",
                                "text": "For you information, this is the project-review framework we ended up with before last minute changes. It contains valuable information that projects and reviewers will need. It would be nice to adapt it to the last changes and communicate it: "
                            },
                            {
                                "type": "link",
                                "url": "https:\/\/docs.google.com\/document\/d\/1DEXXseszSvSeXMwYk7i1S8dMVyQaa3uuMwQ02r48RXg\/edit"
                            }
                        ]
                    }
                ]
            }
        ],
        "user": "UV9V03C8Y",
        "display_as_bot": false,
        "x_files": [
            "F010XB66PED"
        ],
        "ts": "1585858703.225300",
        "client_msg_id": "529caf74-7203-4fe2-bad3-311d3b539c9b",
        "reactions": [
            {
                "name": "pray",
                "users": [
                    "UV0RRGB6H"
                ],
                "count": 1
            }
        ]
    },
    {
        "client_msg_id": "d97beef2-2a12-4127-8e49-706cccb4eff3",
        "type": "message",
        "text": "Thanks a lot :slightly_smiling_face: We will both be here at 6pm GMT\/7pm Paris time to help out. Data Analysis was important for HE and It might be useful for here, for publishing our reviews etc.",
        "user": "UV0RRGB6H",
        "ts": "1585859848.227100",
        "team": "TUU48M0T1",
        "user_team": "TUU48M0T1",
        "source_team": "TUU48M0T1",
        "user_profile": {
            "avatar_hash": "48d4ab64c90c",
            "image_72": "https:\/\/avatars.slack-edge.com\/2020-03-26\/1029789176912_48d4ab64c90c03f3af4a_72.jpg",
            "first_name": "",
            "real_name": "Chris LB Graham",
            "display_name": "",
            "team": "TUU48M0T1",
            "name": "chris.graham",
            "is_restricted": false,
            "is_ultra_restricted": false
        },
        "edited": {
            "user": "UV0RRGB6H",
            "ts": "1585909933.000000"
        },
        "blocks": [
            {
                "type": "rich_text",
                "block_id": "cfmzM",
                "elements": [
                    {
                        "type": "rich_text_section",
                        "elements": [
                            {
                                "type": "text",
                                "text": "Thanks a lot "
                            },
                            {
                                "type": "emoji",
                                "name": "slightly_smiling_face"
                            },
                            {
                                "type": "text",
                                "text": " We will both be here at 6pm GMT\/7pm Paris time to help out. Data Analysis was important for HE and It might be useful for here, for publishing our reviews etc."
                            }
                        ]
                    }
                ]
            }
        ]
    },
    {
        "client_msg_id": "a7bafc90-db41-4900-8492-64f8c76d27b9",
        "type": "message",
        "text": "The documents look incredible! Nice",
        "user": "UV0RRGB6H",
        "ts": "1585859853.227300",
        "team": "TUU48M0T1",
        "user_team": "TUU48M0T1",
        "source_team": "TUU48M0T1",
        "user_profile": {
            "avatar_hash": "48d4ab64c90c",
            "image_72": "https:\/\/avatars.slack-edge.com\/2020-03-26\/1029789176912_48d4ab64c90c03f3af4a_72.jpg",
            "first_name": "",
            "real_name": "Chris LB Graham",
            "display_name": "",
            "team": "TUU48M0T1",
            "name": "chris.graham",
            "is_restricted": false,
            "is_ultra_restricted": false
        },
        "blocks": [
            {
                "type": "rich_text",
                "block_id": "3Ivg+",
                "elements": [
                    {
                        "type": "rich_text_section",
                        "elements": [
                            {
                                "type": "text",
                                "text": "The documents look incredible! Nice"
                            }
                        ]
                    }
                ]
            }
        ]
    },
    {
        "client_msg_id": "8cb2b501-d17d-4909-850d-df72eefdc9a2",
        "type": "message",
        "text": "Sorry for the lack of clarity, I can only at 7pm Paris time (6pm UK time)",
        "user": "UV02WET96",
        "ts": "1585868840.228100",
        "team": "TUU48M0T1",
        "user_team": "TUU48M0T1",
        "source_team": "TUU48M0T1",
        "user_profile": {
            "avatar_hash": "a99c74a194f8",
            "image_72": "https:\/\/avatars.slack-edge.com\/2020-03-07\/975708504851_a99c74a194f86715ca7d_72.png",
            "first_name": "Thomas",
            "real_name": "Thomas Landrain",
            "display_name": "Thomas Landrain - JOGL CoFounder \/ CEO",
            "team": "TUU48M0T1",
            "name": "thomas",
            "is_restricted": false,
            "is_ultra_restricted": false
        },
        "blocks": [
            {
                "type": "rich_text",
                "block_id": "T5qk",
                "elements": [
                    {
                        "type": "rich_text_section",
                        "elements": [
                            {
                                "type": "text",
                                "text": "Sorry for the lack of clarity, I can only at 7pm Paris time (6pm UK time)"
                            }
                        ]
                    }
                ]
            }
        ],
        "reactions": [
            {
                "name": "pray",
                "users": [
                    "UV0RRGB6H"
                ],
                "count": 1
            }
        ]
    }
]