[
    {
        "client_msg_id": "708d424b-1001-4ee1-b305-22f0d8754409",
        "type": "message",
        "text": "Hi everyone, hope you’re doing well. Few questions:\n• How is the design of the project review going along? \n• Do we already have a unique document centralising the thoughts on the process so far? I can work on it tomorrow \n• Could we have a call on Monday 5pm Paris time? Ideally, we would need to make the announcement for the micro grants on Monday\n",
        "user": "UV02WET96",
        "ts": "1585435508.047900",
        "team": "TUU48M0T1",
        "user_team": "TUU48M0T1",
        "source_team": "TUU48M0T1",
        "user_profile": {
            "avatar_hash": "a99c74a194f8",
            "image_72": "https:\/\/avatars.slack-edge.com\/2020-03-07\/975708504851_a99c74a194f86715ca7d_72.png",
            "first_name": "Thomas",
            "real_name": "Thomas Landrain",
            "display_name": "Thomas Landrain - JOGL CoFounder \/ CEO",
            "team": "TUU48M0T1",
            "name": "thomas",
            "is_restricted": false,
            "is_ultra_restricted": false
        },
        "blocks": [
            {
                "type": "rich_text",
                "block_id": "bfLO",
                "elements": [
                    {
                        "type": "rich_text_section",
                        "elements": [
                            {
                                "type": "text",
                                "text": "Hi everyone, hope you’re doing well. Few questions:\n"
                            }
                        ]
                    },
                    {
                        "type": "rich_text_list",
                        "elements": [
                            {
                                "type": "rich_text_section",
                                "elements": [
                                    {
                                        "type": "text",
                                        "text": "How is the design of the project review going along? "
                                    }
                                ]
                            },
                            {
                                "type": "rich_text_section",
                                "elements": [
                                    {
                                        "type": "text",
                                        "text": "Do we already have a unique document centralising the thoughts on the process so far? I can work on it tomorrow "
                                    }
                                ]
                            },
                            {
                                "type": "rich_text_section",
                                "elements": [
                                    {
                                        "type": "text",
                                        "text": "Could we have a call on Monday 5pm Paris time? Ideally, we would need to make the announcement for the micro grants on Monday"
                                    }
                                ]
                            }
                        ],
                        "style": "bullet",
                        "indent": 0
                    },
                    {
                        "type": "rich_text_section",
                        "elements": []
                    }
                ]
            }
        ]
    },
    {
        "client_msg_id": "7622725f-d7b5-4912-8531-ea3539f846a3",
        "type": "message",
        "text": "<!channel> I have some time to work on it tomorrow as well.  Who else?  If times free overlap, we could work on it together.",
        "user": "UV10KBUQG",
        "ts": "1585442164.048900",
        "team": "TUU48M0T1",
        "user_team": "TUU48M0T1",
        "source_team": "TUU48M0T1",
        "user_profile": {
            "avatar_hash": "2deebbf6be3d",
            "image_72": "https:\/\/avatars.slack-edge.com\/2020-03-06\/976932190641_2deebbf6be3d17141d91_72.jpg",
            "first_name": "Sarah",
            "real_name": "Sarah Blossom Ware",
            "display_name": "Sarah Blossom Ware - BioBlaze Community Bio Lab",
            "team": "TUU48M0T1",
            "name": "ware.sarah",
            "is_restricted": false,
            "is_ultra_restricted": false
        },
        "blocks": [
            {
                "type": "rich_text",
                "block_id": "BY5",
                "elements": [
                    {
                        "type": "rich_text_section",
                        "elements": [
                            {
                                "type": "broadcast",
                                "range": "channel"
                            },
                            {
                                "type": "text",
                                "text": " I have some time to work on it tomorrow as well.  Who else?  If times free overlap, we could work on it together."
                            }
                        ]
                    }
                ]
            }
        ],
        "reactions": [
            {
                "name": "+1",
                "users": [
                    "UV02WET96"
                ],
                "count": 1
            }
        ]
    },
    {
        "client_msg_id": "E5CD6B88-E52B-4035-90E9-39CC3770CA83",
        "type": "message",
        "text": "<@U010HTBUHS9> started a doc and I think it is fairing well — we are working on broadening our focus which was initially on engineering projects to be more inclusive to other disciplines. I’m generating an example of the community cull tonight. I can work with everyone collaboratively tomorrow but not until about 8pm Paris time. ",
        "user": "UV87UQ37A",
        "ts": "1585442597.052500",
        "team": "TUU48M0T1",
        "user_team": "TUU48M0T1",
        "source_team": "TUU48M0T1",
        "user_profile": {
            "avatar_hash": "g7c78d2f0258",
            "image_72": "https:\/\/secure.gravatar.com\/avatar\/7c78d2f0258f7bdf78a86301cfd6b712.jpg?s=72&d=https%3A%2F%2Fa.slack-edge.com%2Fdf10d%2Fimg%2Favatars%2Fava_0014-72.png",
            "first_name": "Victoria",
            "real_name": "Victoria Costa",
            "display_name": "Victoria Costa",
            "team": "TUU48M0T1",
            "name": "victorycoast",
            "is_restricted": false,
            "is_ultra_restricted": false
        },
        "blocks": [
            {
                "type": "rich_text",
                "block_id": "Zcb",
                "elements": [
                    {
                        "type": "rich_text_section",
                        "elements": [
                            {
                                "type": "user",
                                "user_id": "U010HTBUHS9"
                            },
                            {
                                "type": "text",
                                "text": " started a doc and I think it is fairing well — we are working on broadening our focus which was initially on engineering projects to be more inclusive to other disciplines. I’m generating an example of the community cull tonight. I can work with everyone collaboratively tomorrow but not until about 8pm Paris time. "
                            }
                        ]
                    }
                ]
            }
        ],
        "thread_ts": "1585442597.052500",
        "reply_count": 6,
        "reply_users_count": 4,
        "latest_reply": "1585529389.133900",
        "reply_users": [
            "UV10KBUQG",
            "U010HTBUHS9",
            "UV02WET96",
            "UV87UQ37A"
        ],
        "replies": [
            {
                "user": "UV10KBUQG",
                "ts": "1585442711.052600"
            },
            {
                "user": "U010HTBUHS9",
                "ts": "1585443171.052900"
            },
            {
                "user": "UV02WET96",
                "ts": "1585476525.053700"
            },
            {
                "user": "UV02WET96",
                "ts": "1585476786.054200"
            },
            {
                "user": "U010HTBUHS9",
                "ts": "1585516039.080800"
            },
            {
                "user": "UV87UQ37A",
                "ts": "1585529389.133900"
            }
        ],
        "subscribed": false,
        "reactions": [
            {
                "name": "+1",
                "users": [
                    "U010HTBUHS9",
                    "U0103SR759U",
                    "UV02WET96"
                ],
                "count": 3
            }
        ]
    },
    {
        "client_msg_id": "0ca61249-4986-4270-bb30-37655608dbe1",
        "type": "message",
        "text": "8 pm Paris time works for me.  That will be 2 pm Chicago time.  Happy to help if I can be useful.",
        "user": "UV10KBUQG",
        "ts": "1585442711.052600",
        "team": "TUU48M0T1",
        "user_team": "TUU48M0T1",
        "source_team": "TUU48M0T1",
        "user_profile": {
            "avatar_hash": "2deebbf6be3d",
            "image_72": "https:\/\/avatars.slack-edge.com\/2020-03-06\/976932190641_2deebbf6be3d17141d91_72.jpg",
            "first_name": "Sarah",
            "real_name": "Sarah Blossom Ware",
            "display_name": "Sarah Blossom Ware - BioBlaze Community Bio Lab",
            "team": "TUU48M0T1",
            "name": "ware.sarah",
            "is_restricted": false,
            "is_ultra_restricted": false
        },
        "blocks": [
            {
                "type": "rich_text",
                "block_id": "cWpp",
                "elements": [
                    {
                        "type": "rich_text_section",
                        "elements": [
                            {
                                "type": "text",
                                "text": "8 pm Paris time works for me.  That will be 2 pm Chicago time.  Happy to help if I can be useful."
                            }
                        ]
                    }
                ]
            }
        ],
        "thread_ts": "1585442597.052500",
        "parent_user_id": "UV87UQ37A"
    },
    {
        "client_msg_id": "bbae0fa7-6d6b-4ef2-b729-bf5bf7440658",
        "type": "message",
        "text": "I've got another jogl meeting at that time.  Feel free to move ahead to I'm free at 9 paris",
        "user": "U010HTBUHS9",
        "ts": "1585443171.052900",
        "team": "TUU48M0T1",
        "user_team": "TUU48M0T1",
        "source_team": "TUU48M0T1",
        "user_profile": {
            "avatar_hash": "e7bdbebff0d9",
            "image_72": "https:\/\/avatars.slack-edge.com\/2020-03-22\/1017951251813_e7bdbebff0d9ad1e8f12_72.jpg",
            "first_name": "",
            "real_name": "Adam Arabian",
            "display_name": "Adam Arabian",
            "team": "TUU48M0T1",
            "name": "adam.arabian",
            "is_restricted": false,
            "is_ultra_restricted": false
        },
        "blocks": [
            {
                "type": "rich_text",
                "block_id": "i6M9",
                "elements": [
                    {
                        "type": "rich_text_section",
                        "elements": [
                            {
                                "type": "text",
                                "text": "I've got another jogl meeting at that time.  Feel free to move ahead to I'm free at 9 paris"
                            }
                        ]
                    }
                ]
            }
        ],
        "thread_ts": "1585442597.052500",
        "parent_user_id": "UV87UQ37A"
    }
]