[
    {
        "client_msg_id": "f6d650a6-ebac-4fd0-99e3-164660a69597",
        "type": "message",
        "text": "Hi all, just confirming that this group is meeting tomorrow at 3pm UTC?",
        "user": "U011B6VLM2A",
        "ts": "1586545848.317200",
        "team": "TUU48M0T1",
        "user_team": "TUU48M0T1",
        "source_team": "TUU48M0T1",
        "user_profile": {
            "avatar_hash": "4231dc598cfc",
            "image_72": "https:\/\/avatars.slack-edge.com\/2020-04-02\/1044784558839_4231dc598cfc2e59c4c4_72.jpg",
            "first_name": "Alix",
            "real_name": "Alix Mains",
            "display_name": "Alix Mains - JOGL Coordinator",
            "team": "TUU48M0T1",
            "name": "alixhmains",
            "is_restricted": false,
            "is_ultra_restricted": false
        },
        "blocks": [
            {
                "type": "rich_text",
                "block_id": "bQzy",
                "elements": [
                    {
                        "type": "rich_text_section",
                        "elements": [
                            {
                                "type": "text",
                                "text": "Hi all, just confirming that this group is meeting tomorrow at 3pm UTC?"
                            }
                        ]
                    }
                ]
            }
        ],
        "thread_ts": "1586545848.317200",
        "reply_count": 1,
        "reply_users_count": 1,
        "latest_reply": "1586613427.330000",
        "reply_users": [
            "UV0RRGB6H"
        ],
        "replies": [
            {
                "user": "UV0RRGB6H",
                "ts": "1586613427.330000"
            }
        ],
        "subscribed": false
    },
    {
        "client_msg_id": "1FF16758-A05F-47D1-A311-0A8EF3ABC9C7",
        "type": "message",
        "text": "If anyone has time have a quick review :) and yeh 3pm :) ",
        "user": "UV0RRGB6H",
        "ts": "1586560031.317900",
        "team": "TUU48M0T1",
        "user_team": "TUU48M0T1",
        "source_team": "TUU48M0T1",
        "user_profile": {
            "avatar_hash": "48d4ab64c90c",
            "image_72": "https:\/\/avatars.slack-edge.com\/2020-03-26\/1029789176912_48d4ab64c90c03f3af4a_72.jpg",
            "first_name": "",
            "real_name": "Chris LB Graham",
            "display_name": "",
            "team": "TUU48M0T1",
            "name": "chris.graham",
            "is_restricted": false,
            "is_ultra_restricted": false
        },
        "blocks": [
            {
                "type": "rich_text",
                "block_id": "8qHy1",
                "elements": [
                    {
                        "type": "rich_text_section",
                        "elements": [
                            {
                                "type": "text",
                                "text": "If anyone has time have a quick review :) and yeh 3pm :) "
                            }
                        ]
                    }
                ]
            }
        ]
    },
    {
        "client_msg_id": "6483DFCE-8251-4D83-B434-F03FCA3601F9",
        "type": "message",
        "text": "*<!channel>*  *Hi Guys, if you can lend any help to reviewing our current projects please give a hand! every review really helps,*  and takes roughly 10mins. :stopwatch:\n\n*The review process closes this weekend and we need more reviews!* so the earlier the better. The reviews will help decide who gets grants from JOGL!\n\n*Heres how to help.*\n\n*1.   Please find the links to our <https:\/\/docs.google.com\/spreadsheets\/d\/1CQATJl-tyllZyqfHpJqHHe03wxIOEkKPKEdWoCGu-OA\/edit?usp=sharing|grant proposals in this spreadsheet>  *:page_facing_up:\n*2.   Review each project using <https:\/\/forms.gle\/fkMCxjhXKURwXkoK9|this form>*:writing_hand:\n\n*Thank you everyone!!*\n\n*Feel free to share these links! and help gather reviewers.  If you have any trouble please message me and ill help out.*",
        "user": "UV0RRGB6H",
        "ts": "1586560038.318000",
        "team": "TUU48M0T1",
        "user_team": "TUU48M0T1",
        "source_team": "TUU48M0T1",
        "user_profile": {
            "avatar_hash": "48d4ab64c90c",
            "image_72": "https:\/\/avatars.slack-edge.com\/2020-03-26\/1029789176912_48d4ab64c90c03f3af4a_72.jpg",
            "first_name": "",
            "real_name": "Chris LB Graham",
            "display_name": "",
            "team": "TUU48M0T1",
            "name": "chris.graham",
            "is_restricted": false,
            "is_ultra_restricted": false
        },
        "edited": {
            "user": "UV0RRGB6H",
            "ts": "1586609718.000000"
        },
        "blocks": [
            {
                "type": "rich_text",
                "block_id": "IDtP",
                "elements": [
                    {
                        "type": "rich_text_section",
                        "elements": [
                            {
                                "type": "broadcast",
                                "range": "channel",
                                "style": {
                                    "bold": true
                                }
                            },
                            {
                                "type": "text",
                                "text": " ",
                                "style": {
                                    "bold": true
                                }
                            },
                            {
                                "type": "text",
                                "text": " "
                            },
                            {
                                "type": "text",
                                "text": "Hi Guys, if you can lend any help to reviewing our current projects please give a hand! every review really helps,",
                                "style": {
                                    "bold": true
                                }
                            },
                            {
                                "type": "text",
                                "text": "  and takes roughly 10mins. "
                            },
                            {
                                "type": "emoji",
                                "name": "stopwatch"
                            },
                            {
                                "type": "text",
                                "text": "\n\n"
                            },
                            {
                                "type": "text",
                                "text": "The review process closes this weekend and we need more reviews!",
                                "style": {
                                    "bold": true
                                }
                            },
                            {
                                "type": "text",
                                "text": " so the earlier the better. The reviews will help decide who gets grants from JOGL!\n\n"
                            },
                            {
                                "type": "text",
                                "text": "Heres how to help.",
                                "style": {
                                    "bold": true
                                }
                            },
                            {
                                "type": "text",
                                "text": "\n\n"
                            },
                            {
                                "type": "text",
                                "text": "1.   Please find the links to our ",
                                "style": {
                                    "bold": true
                                }
                            },
                            {
                                "type": "link",
                                "url": "https:\/\/docs.google.com\/spreadsheets\/d\/1CQATJl-tyllZyqfHpJqHHe03wxIOEkKPKEdWoCGu-OA\/edit?usp=sharing",
                                "text": "grant proposals in this spreadsheet",
                                "style": {
                                    "bold": true
                                }
                            },
                            {
                                "type": "text",
                                "text": "  ",
                                "style": {
                                    "bold": true
                                }
                            },
                            {
                                "type": "emoji",
                                "name": "page_facing_up"
                            },
                            {
                                "type": "text",
                                "text": "\n"
                            },
                            {
                                "type": "text",
                                "text": "2.   Review each project using ",
                                "style": {
                                    "bold": true
                                }
                            },
                            {
                                "type": "link",
                                "url": "https:\/\/forms.gle\/fkMCxjhXKURwXkoK9",
                                "text": "this form",
                                "style": {
                                    "bold": true
                                }
                            },
                            {
                                "type": "emoji",
                                "name": "writing_hand"
                            },
                            {
                                "type": "text",
                                "text": "\n\n"
                            },
                            {
                                "type": "text",
                                "text": "Thank you everyone!!",
                                "style": {
                                    "bold": true
                                }
                            },
                            {
                                "type": "text",
                                "text": "\n\n"
                            },
                            {
                                "type": "text",
                                "text": "Feel free to share these links! and help gather reviewers.  If you have any trouble please message me and ill help out.",
                                "style": {
                                    "bold": true
                                }
                            }
                        ]
                    }
                ]
            }
        ]
    }
]