[
    {
        "client_msg_id": "c37df7d2-db15-42c9-9697-9c762a4c1324",
        "type": "message",
        "text": "Dear all! <!everyone>\nThanks to you we have now gathered more than 50 open source designs for Face Masks and Face Shields!! :raised_hands::heart:\n\nNow it is time to review these designs together!\nPlease use this survey link and follow the instructions: \n:point_right: <https:\/\/docs.google.com\/forms\/d\/e\/1FAIpQLSfZc1hxgx2-ObcqODuML4OEQNrw2TEtxdbOu75x_upr5fUeVw\/viewform>\n\nDon’t hesitate to share the form around you, especially to experts. We need as much reviews as possible. Deadline: this Saturday! \n\nWe’ll share the results openly on Sunday with everyone \n\nLet’s go!!",
        "user": "UV02WET96",
        "ts": "1585239765.015200",
        "team": "TUU48M0T1",
        "user_team": "TUU48M0T1",
        "source_team": "TUU48M0T1",
        "user_profile": {
            "avatar_hash": "a99c74a194f8",
            "image_72": "https:\/\/avatars.slack-edge.com\/2020-03-07\/975708504851_a99c74a194f86715ca7d_72.png",
            "first_name": "Thomas",
            "real_name": "Thomas Landrain",
            "display_name": "Thomas Landrain - JOGL CoFounder \/ CEO",
            "team": "TUU48M0T1",
            "name": "thomas",
            "is_restricted": false,
            "is_ultra_restricted": false
        },
        "blocks": [
            {
                "type": "rich_text",
                "block_id": "2Ax",
                "elements": [
                    {
                        "type": "rich_text_section",
                        "elements": [
                            {
                                "type": "text",
                                "text": "Dear all! "
                            },
                            {
                                "type": "broadcast",
                                "range": "everyone"
                            },
                            {
                                "type": "text",
                                "text": "\nThanks to you we have now gathered more than 50 open source designs for Face Masks and Face Shields!! "
                            },
                            {
                                "type": "emoji",
                                "name": "raised_hands"
                            },
                            {
                                "type": "emoji",
                                "name": "heart"
                            },
                            {
                                "type": "text",
                                "text": "\n\nNow it is time to review these designs together!\nPlease use this survey link and follow the instructions: \n"
                            },
                            {
                                "type": "emoji",
                                "name": "point_right"
                            },
                            {
                                "type": "text",
                                "text": " "
                            },
                            {
                                "type": "link",
                                "url": "https:\/\/docs.google.com\/forms\/d\/e\/1FAIpQLSfZc1hxgx2-ObcqODuML4OEQNrw2TEtxdbOu75x_upr5fUeVw\/viewform"
                            },
                            {
                                "type": "text",
                                "text": "\n\nDon’t hesitate to share the form around you, especially to experts. We need as much reviews as possible. Deadline: this Saturday! \n\nWe’ll share the results openly on Sunday with everyone \n\nLet’s go!!"
                            }
                        ]
                    }
                ]
            }
        ],
        "thread_ts": "1585239765.015200",
        "reply_count": 8,
        "reply_users_count": 5,
        "latest_reply": "1585298677.023000",
        "reply_users": [
            "UV9V03C8Y",
            "UV02WET96",
            "U010FUU89B9",
            "U01080CJ6P3",
            "UV0CX49QB"
        ],
        "replies": [
            {
                "user": "UV9V03C8Y",
                "ts": "1585241603.016800"
            },
            {
                "user": "UV02WET96",
                "ts": "1585241962.017200"
            },
            {
                "user": "U010FUU89B9",
                "ts": "1585244020.017500"
            },
            {
                "user": "UV02WET96",
                "ts": "1585244234.017700"
            },
            {
                "user": "UV02WET96",
                "ts": "1585244275.017900"
            },
            {
                "user": "U01080CJ6P3",
                "ts": "1585253837.019100"
            },
            {
                "user": "UV0CX49QB",
                "ts": "1585293394.022100"
            },
            {
                "user": "UV02WET96",
                "ts": "1585298677.023000"
            }
        ],
        "subscribed": false,
        "reactions": [
            {
                "name": "clap",
                "users": [
                    "U0102MVF23W",
                    "U01019BQXM3",
                    "UVCS0865Q",
                    "UV41N463V",
                    "UUWPKNE2E",
                    "UV5CCJ9RC",
                    "UV2P3AQEN",
                    "UV3HA9MM4",
                    "UV9V03C8Y",
                    "UV90DGB4N",
                    "U01080CJ6P3",
                    "U01063V3M6U",
                    "UV0QTJCMT",
                    "U010Z2UTY2J",
                    "UVAFGTTGC",
                    "U010KAJ3SLW",
                    "U010Y2WQG21"
                ],
                "count": 17
            },
            {
                "name": "tada",
                "users": [
                    "UV3HA9MM4",
                    "UV9V03C8Y",
                    "UV87UQ37A",
                    "UV90DGB4N",
                    "U01113Y1PLP"
                ],
                "count": 5
            }
        ]
    },
    {
        "client_msg_id": "60751003-fe15-4ce3-b8bb-d4b013c0fd57",
        "type": "message",
        "text": "Thanks! If we were to share it around to specialists, could someone indicate in the form the \"why this evaluation\" and \"what it means in terms of next steps\"? Can't wait to see the results!",
        "user": "UV9V03C8Y",
        "ts": "1585241603.016800",
        "team": "TUU48M0T1",
        "user_team": "TUU48M0T1",
        "source_team": "TUU48M0T1",
        "user_profile": {
            "avatar_hash": "177697fb7b8f",
            "image_72": "https:\/\/avatars.slack-edge.com\/2020-03-12\/996126178096_177697fb7b8ffa57649c_72.jpg",
            "first_name": "Camille",
            "real_name": "Camille Masselot - JOGL Program coordinator",
            "display_name": "Camille Masselot - JOGL coordinator",
            "team": "TUU48M0T1",
            "name": "masselot.camille",
            "is_restricted": false,
            "is_ultra_restricted": false
        },
        "blocks": [
            {
                "type": "rich_text",
                "block_id": "wfh",
                "elements": [
                    {
                        "type": "rich_text_section",
                        "elements": [
                            {
                                "type": "text",
                                "text": "Thanks! If we were to share it around to specialists, could someone indicate in the form the \"why this evaluation\" and \"what it means in terms of next steps\"? Can't wait to see the results!"
                            }
                        ]
                    }
                ]
            }
        ],
        "thread_ts": "1585239765.015200",
        "parent_user_id": "UV02WET96",
        "reactions": [
            {
                "name": "+1",
                "users": [
                    "UV02WET96",
                    "UV0QTJCMT"
                ],
                "count": 2
            }
        ]
    },
    {
        "client_msg_id": "a0a57587-1a2b-4622-a747-4842ca31eb4e",
        "type": "message",
        "text": "done",
        "user": "UV02WET96",
        "ts": "1585241962.017200",
        "team": "TUU48M0T1",
        "user_team": "TUU48M0T1",
        "source_team": "TUU48M0T1",
        "user_profile": {
            "avatar_hash": "a99c74a194f8",
            "image_72": "https:\/\/avatars.slack-edge.com\/2020-03-07\/975708504851_a99c74a194f86715ca7d_72.png",
            "first_name": "Thomas",
            "real_name": "Thomas Landrain",
            "display_name": "Thomas Landrain - JOGL CoFounder \/ CEO",
            "team": "TUU48M0T1",
            "name": "thomas",
            "is_restricted": false,
            "is_ultra_restricted": false
        },
        "blocks": [
            {
                "type": "rich_text",
                "block_id": "DMa+9",
                "elements": [
                    {
                        "type": "rich_text_section",
                        "elements": [
                            {
                                "type": "text",
                                "text": "done"
                            }
                        ]
                    }
                ]
            }
        ],
        "thread_ts": "1585239765.015200",
        "parent_user_id": "UV02WET96"
    },
    {
        "client_msg_id": "90dd1d7d-39bb-4496-bf34-f5b29b70e43f",
        "type": "message",
        "text": "shouldn’t we make read only copy of this spreadsheet to avoid situation when someone will add new mask in the middle and mess with all Design ID’s ?",
        "user": "U010FUU89B9",
        "ts": "1585244020.017500",
        "team": "TUU48M0T1",
        "user_team": "TUU48M0T1",
        "source_team": "TUU48M0T1",
        "user_profile": {
            "avatar_hash": "g8013a6b45b4",
            "image_72": "https:\/\/secure.gravatar.com\/avatar\/8013a6b45b4ae359e124abba6495cd14.jpg?s=72&d=https%3A%2F%2Fa.slack-edge.com%2Fdf10d%2Fimg%2Favatars%2Fava_0016-72.png",
            "first_name": "Bartłomiej",
            "real_name": "Bartłomiej Żogała",
            "display_name": "nusch",
            "team": "TUU48M0T1",
            "name": "slack1370",
            "is_restricted": false,
            "is_ultra_restricted": false
        },
        "blocks": [
            {
                "type": "rich_text",
                "block_id": "66H",
                "elements": [
                    {
                        "type": "rich_text_section",
                        "elements": [
                            {
                                "type": "text",
                                "text": "shouldn’t we make read only copy of this spreadsheet to avoid situation when someone will add new mask in the middle and mess with all Design ID’s ?"
                            }
                        ]
                    }
                ]
            }
        ],
        "thread_ts": "1585239765.015200",
        "parent_user_id": "UV02WET96"
    },
    {
        "client_msg_id": "e5e515dd-cf59-4d03-8258-1338406c65e5",
        "type": "message",
        "text": "agreed!",
        "user": "UV02WET96",
        "ts": "1585244234.017700",
        "team": "TUU48M0T1",
        "user_team": "TUU48M0T1",
        "source_team": "TUU48M0T1",
        "user_profile": {
            "avatar_hash": "a99c74a194f8",
            "image_72": "https:\/\/avatars.slack-edge.com\/2020-03-07\/975708504851_a99c74a194f86715ca7d_72.png",
            "first_name": "Thomas",
            "real_name": "Thomas Landrain",
            "display_name": "Thomas Landrain - JOGL CoFounder \/ CEO",
            "team": "TUU48M0T1",
            "name": "thomas",
            "is_restricted": false,
            "is_ultra_restricted": false
        },
        "blocks": [
            {
                "type": "rich_text",
                "block_id": "60L",
                "elements": [
                    {
                        "type": "rich_text_section",
                        "elements": [
                            {
                                "type": "text",
                                "text": "agreed!"
                            }
                        ]
                    }
                ]
            }
        ],
        "thread_ts": "1585239765.015200",
        "parent_user_id": "UV02WET96"
    },
    {
        "client_msg_id": "1b113b57-9a6b-4c14-8297-37448cbb1f45",
        "type": "message",
        "text": "i think it’s fixed already",
        "user": "UV02WET96",
        "ts": "1585244275.017900",
        "team": "TUU48M0T1",
        "user_team": "TUU48M0T1",
        "source_team": "TUU48M0T1",
        "user_profile": {
            "avatar_hash": "a99c74a194f8",
            "image_72": "https:\/\/avatars.slack-edge.com\/2020-03-07\/975708504851_a99c74a194f86715ca7d_72.png",
            "first_name": "Thomas",
            "real_name": "Thomas Landrain",
            "display_name": "Thomas Landrain - JOGL CoFounder \/ CEO",
            "team": "TUU48M0T1",
            "name": "thomas",
            "is_restricted": false,
            "is_ultra_restricted": false
        },
        "blocks": [
            {
                "type": "rich_text",
                "block_id": "tDphX",
                "elements": [
                    {
                        "type": "rich_text_section",
                        "elements": [
                            {
                                "type": "text",
                                "text": "i think it’s fixed already"
                            }
                        ]
                    }
                ]
            }
        ],
        "thread_ts": "1585239765.015200",
        "parent_user_id": "UV02WET96",
        "reactions": [
            {
                "name": "+1",
                "users": [
                    "U010FUU89B9"
                ],
                "count": 1
            }
        ]
    },
    {
        "client_msg_id": "A4F54087-1BD0-4434-8AC4-444A977B9CC4",
        "type": "message",
        "text": "Sharing with my fire department!",
        "user": "U01080CJ6P3",
        "ts": "1585253837.019100",
        "team": "TUU48M0T1",
        "user_team": "TUU48M0T1",
        "source_team": "TUU48M0T1",
        "user_profile": {
            "avatar_hash": "0dfed428b55d",
            "image_72": "https:\/\/avatars.slack-edge.com\/2020-03-23\/1011221929297_0dfed428b55da6f0bc86_72.png",
            "first_name": "April",
            "real_name": "April Lenhard",
            "display_name": "",
            "team": "TUU48M0T1",
            "name": "aprillenhard",
            "is_restricted": false,
            "is_ultra_restricted": false
        },
        "blocks": [
            {
                "type": "rich_text",
                "block_id": "szsw",
                "elements": [
                    {
                        "type": "rich_text_section",
                        "elements": [
                            {
                                "type": "text",
                                "text": "Sharing with my fire department!"
                            }
                        ]
                    }
                ]
            }
        ],
        "thread_ts": "1585239765.015200",
        "parent_user_id": "UV02WET96",
        "reactions": [
            {
                "name": "+1",
                "users": [
                    "UV02WET96",
                    "UV0QTJCMT"
                ],
                "count": 2
            }
        ]
    }
]