[
    {
        "client_msg_id": "0af67eef-e8d8-41d5-835e-cf85c3542786",
        "type": "message",
        "text": "\"*We are sorry, but you do not have access to this service.* Please contact your Organization Administrator for access.\" Hmm seems I don't have access",
        "user": "UV4Q15S5Q",
        "ts": "1585722204.055400",
        "team": "TUU48M0T1",
        "user_team": "TUU48M0T1",
        "source_team": "TUU48M0T1",
        "user_profile": {
            "avatar_hash": "gdbd3cc24b09",
            "image_72": "https:\/\/secure.gravatar.com\/avatar\/dbd3cc24b092b17d53c09de6bab7969c.jpg?s=72&d=https%3A%2F%2Fa.slack-edge.com%2Fdf10d%2Fimg%2Favatars%2Fava_0012-72.png",
            "first_name": "",
            "real_name": "Keoni Gandall",
            "display_name": "",
            "team": "TUU48M0T1",
            "name": "koeng101",
            "is_restricted": false,
            "is_ultra_restricted": false
        },
        "blocks": [
            {
                "type": "rich_text",
                "block_id": "kCDP",
                "elements": [
                    {
                        "type": "rich_text_section",
                        "elements": [
                            {
                                "type": "text",
                                "text": "\""
                            },
                            {
                                "type": "text",
                                "text": "We are sorry, but you do not have access to this service.",
                                "style": {
                                    "bold": true
                                }
                            },
                            {
                                "type": "text",
                                "text": " Please contact your Organization Administrator for access.\" Hmm seems I don't have access"
                            }
                        ]
                    }
                ]
            }
        ],
        "thread_ts": "1585582311.045900",
        "parent_user_id": "UV02WET96"
    }
]