[
    {
        "client_msg_id": "C377B332-DF09-44B3-942E-7EFA3ED6C354",
        "type": "message",
        "text": "<@UV0RRGB6H> Can you please double check this? Some projects were listed with the incorrect project number more than once in these charts &amp; tables. 188 &amp; 181 esp (I am involved in both, and am glad for all this working for funding, but thx in advance for re-editing &amp; confirming!) :)",
        "user": "UV1A22N3W",
        "ts": "1586847603.195300",
        "team": "TUU48M0T1",
        "user_team": "TUU48M0T1",
        "source_team": "TUU48M0T1",
        "user_profile": {
            "avatar_hash": "71f827776ad6",
            "image_72": "https:\/\/avatars.slack-edge.com\/2020-03-09\/988125642964_71f827776ad610af05a2_72.jpg",
            "first_name": "",
            "real_name": "RachelA",
            "display_name": "RachelA",
            "team": "TUU48M0T1",
            "name": "raronoff",
            "is_restricted": false,
            "is_ultra_restricted": false
        },
        "blocks": [
            {
                "type": "rich_text",
                "block_id": "uH9k",
                "elements": [
                    {
                        "type": "rich_text_section",
                        "elements": [
                            {
                                "type": "user",
                                "user_id": "UV0RRGB6H"
                            },
                            {
                                "type": "text",
                                "text": " Can you please double check this? Some projects were listed with the incorrect project number more than once in these charts & tables. 188 & 181 esp (I am involved in both, and am glad for all this working for funding, but thx in advance for re-editing & confirming!) :)"
                            }
                        ]
                    }
                ]
            }
        ],
        "thread_ts": "1586815701.182900",
        "parent_user_id": "UV02WET96",
        "reactions": [
            {
                "name": "heavy_check_mark",
                "users": [
                    "UV0RRGB6H"
                ],
                "count": 1
            }
        ]
    },
    {
        "client_msg_id": "381FAD20-EB77-47CD-B959-7B514037C77F",
        "type": "message",
        "text": "Thanks for this spot! I’ll check now thoroughly and repost. The overall result is definitely correct! This labelling problem an artifact of previous analysis I think <@U0119SR5LMT> ",
        "user": "UV0RRGB6H",
        "ts": "1586852784.200700",
        "team": "TUU48M0T1",
        "user_team": "TUU48M0T1",
        "source_team": "TUU48M0T1",
        "user_profile": {
            "avatar_hash": "48d4ab64c90c",
            "image_72": "https:\/\/avatars.slack-edge.com\/2020-03-26\/1029789176912_48d4ab64c90c03f3af4a_72.jpg",
            "first_name": "",
            "real_name": "Chris LB Graham",
            "display_name": "",
            "team": "TUU48M0T1",
            "name": "chris.graham",
            "is_restricted": false,
            "is_ultra_restricted": false
        },
        "blocks": [
            {
                "type": "rich_text",
                "block_id": "hST",
                "elements": [
                    {
                        "type": "rich_text_section",
                        "elements": [
                            {
                                "type": "text",
                                "text": "Thanks for this spot! I’ll check now thoroughly and repost. The overall result is definitely correct! This labelling problem an artifact of previous analysis I think "
                            },
                            {
                                "type": "user",
                                "user_id": "U0119SR5LMT"
                            },
                            {
                                "type": "text",
                                "text": " "
                            }
                        ]
                    }
                ]
            }
        ],
        "thread_ts": "1586815701.182900",
        "parent_user_id": "UV02WET96"
    },
    {
        "client_msg_id": "c5a00a54-5ec9-4bbb-9b85-84bda58ad1af",
        "type": "message",
        "text": "thanks!  I have another problem that we don't have an exact amount to be funded, and different labs getting funding.  I will have a phone call today, to clarify the Swiss ordering at least, but Fran in Madrid also should get funding in this initial part (and ultimately Guy will get even more for making the #CoronaDetective tube strips for validation all over).  <@UV02WET96> <@UV3URUKK5>",
        "user": "UV1A22N3W",
        "ts": "1586854274.201100",
        "team": "TUU48M0T1",
        "user_team": "TUU48M0T1",
        "source_team": "TUU48M0T1",
        "user_profile": {
            "avatar_hash": "71f827776ad6",
            "image_72": "https:\/\/avatars.slack-edge.com\/2020-03-09\/988125642964_71f827776ad610af05a2_72.jpg",
            "first_name": "",
            "real_name": "RachelA",
            "display_name": "RachelA",
            "team": "TUU48M0T1",
            "name": "raronoff",
            "is_restricted": false,
            "is_ultra_restricted": false
        },
        "blocks": [
            {
                "type": "rich_text",
                "block_id": "tIT",
                "elements": [
                    {
                        "type": "rich_text_section",
                        "elements": [
                            {
                                "type": "text",
                                "text": "thanks!  I have another problem that we don't have an exact amount to be funded, and different labs getting funding.  I will have a phone call today, to clarify the Swiss ordering at least, but Fran in Madrid also should get funding in this initial part (and ultimately Guy will get even more for making the #CoronaDetective tube strips for validation all over).  "
                            },
                            {
                                "type": "user",
                                "user_id": "UV02WET96"
                            },
                            {
                                "type": "text",
                                "text": " "
                            },
                            {
                                "type": "user",
                                "user_id": "UV3URUKK5"
                            }
                        ]
                    }
                ]
            }
        ],
        "thread_ts": "1586815701.182900",
        "parent_user_id": "UV02WET96"
    },
    {
        "client_msg_id": "E4988104-8C59-48E3-99F3-A3AD1BECBF8F",
        "type": "message",
        "text": "<@UV1A22N3W> I’ll DM you",
        "user": "UV02WET96",
        "ts": "1586854407.202000",
        "team": "TUU48M0T1",
        "user_team": "TUU48M0T1",
        "source_team": "TUU48M0T1",
        "user_profile": {
            "avatar_hash": "a99c74a194f8",
            "image_72": "https:\/\/avatars.slack-edge.com\/2020-03-07\/975708504851_a99c74a194f86715ca7d_72.png",
            "first_name": "Thomas",
            "real_name": "Thomas Landrain",
            "display_name": "Thomas Landrain - JOGL CoFounder \/ CEO",
            "team": "TUU48M0T1",
            "name": "thomas",
            "is_restricted": false,
            "is_ultra_restricted": false
        },
        "blocks": [
            {
                "type": "rich_text",
                "block_id": "zDc4",
                "elements": [
                    {
                        "type": "rich_text_section",
                        "elements": [
                            {
                                "type": "user",
                                "user_id": "UV1A22N3W"
                            },
                            {
                                "type": "text",
                                "text": " I’ll DM you"
                            }
                        ]
                    }
                ]
            }
        ],
        "thread_ts": "1586815701.182900",
        "parent_user_id": "UV02WET96"
    },
    {
        "client_msg_id": "9cb09362-0371-4b90-9975-47af06c6916d",
        "type": "message",
        "text": "thx!",
        "user": "UV1A22N3W",
        "ts": "1586854485.202200",
        "team": "TUU48M0T1",
        "user_team": "TUU48M0T1",
        "source_team": "TUU48M0T1",
        "user_profile": {
            "avatar_hash": "71f827776ad6",
            "image_72": "https:\/\/avatars.slack-edge.com\/2020-03-09\/988125642964_71f827776ad610af05a2_72.jpg",
            "first_name": "",
            "real_name": "RachelA",
            "display_name": "RachelA",
            "team": "TUU48M0T1",
            "name": "raronoff",
            "is_restricted": false,
            "is_ultra_restricted": false
        },
        "blocks": [
            {
                "type": "rich_text",
                "block_id": "jNZkj",
                "elements": [
                    {
                        "type": "rich_text_section",
                        "elements": [
                            {
                                "type": "text",
                                "text": "thx!"
                            }
                        ]
                    }
                ]
            }
        ],
        "thread_ts": "1586815701.182900",
        "parent_user_id": "UV02WET96"
    },
    {
        "type": "message",
        "text": "Full Feedback here!",
        "files": [
            {
                "id": "F011Z43NJQL",
                "created": 1586855258,
                "timestamp": 1586855258,
                "name": "Final OpenCOVID19 Wave 1 Results slides.pdf",
                "title": "Final OpenCOVID19 Wave 1 Results slides.pdf",
                "mimetype": "application\/pdf",
                "filetype": "pdf",
                "pretty_type": "PDF",
                "user": "UV0RRGB6H",
                "editable": false,
                "size": 16333601,
                "mode": "hosted",
                "is_external": false,
                "external_type": "",
                "is_public": true,
                "public_url_shared": false,
                "display_as_bot": false,
                "username": "",
                "url_private": "https:\/\/files.slack.com\/files-pri\/TUU48M0T1-F011Z43NJQL\/final_opencovid19_wave_1_results_slides.pdf?t=xoxe-980144714919-1106606678066-1105227127893-6f722bb664235052954ad46852628b64",
                "url_private_download": "https:\/\/files.slack.com\/files-pri\/TUU48M0T1-F011Z43NJQL\/download\/final_opencovid19_wave_1_results_slides.pdf?t=xoxe-980144714919-1106606678066-1105227127893-6f722bb664235052954ad46852628b64",
                "thumb_pdf": "https:\/\/files.slack.com\/files-tmb\/TUU48M0T1-F011Z43NJQL-ea1a757f4a\/final_opencovid19_wave_1_results_slides_thumb_pdf.png?t=xoxe-980144714919-1106606678066-1105227127893-6f722bb664235052954ad46852628b64",
                "thumb_pdf_w": 1467,
                "thumb_pdf_h": 825,
                "permalink": "https:\/\/open-covid19.slack.com\/files\/UV0RRGB6H\/F011Z43NJQL\/final_opencovid19_wave_1_results_slides.pdf",
                "permalink_public": "https:\/\/slack-files.com\/TUU48M0T1-F011Z43NJQL-d79ee1927a",
                "is_starred": false,
                "has_rich_preview": false
            }
        ],
        "upload": true,
        "blocks": [
            {
                "type": "rich_text",
                "block_id": "k=C",
                "elements": [
                    {
                        "type": "rich_text_section",
                        "elements": [
                            {
                                "type": "text",
                                "text": "Full Feedback here!"
                            }
                        ]
                    }
                ]
            }
        ],
        "user": "UV0RRGB6H",
        "display_as_bot": false,
        "ts": "1586855599.202800",
        "client_msg_id": "8299e37f-e473-4d4c-b06c-5f887dfba37b",
        "thread_ts": "1586815701.182900",
        "parent_user_id": "UV02WET96",
        "reactions": [
            {
                "name": "+1",
                "users": [
                    "UV1A22N3W"
                ],
                "count": 1
            }
        ]
    },
    {
        "type": "message",
        "text": ":mega:Hi <!everyone> - For tomorrow’s *Global Community Call (6PM CET),* to streamline the call and to help those who aren't able to make the call, if you have any project\/workgroup updates\/needs you would like to share, *please make a slide on <https:\/\/docs.google.com\/presentation\/d\/1-qHD_mQNyNz7i1ODXg2JSi_Rp-3PdUj3VDa8y3BgAlE\/edit#slide=id.g73568cc0b1_0_6|this slideshow>*! If you have any questions about it, reach out to <@U010APQC76J> <@U011B6VLM2A> or any member of the <#CURG6ALTC|prgm-communications-team>! Thank you!",
        "files": [
            {
                "id": "F011BMZA355",
                "created": 1586299249,
                "timestamp": 1586299249,
                "name": "8",
                "title": "Weekly Updates - Global Community Calls",
                "mimetype": "application\/vnd.google-apps.presentation",
                "filetype": "gpres",
                "pretty_type": "GSuite Presentation",
                "user": "UV0QTJCMT",
                "editable": false,
                "size": 1602,
                "mode": "external",
                "is_external": true,
                "external_type": "gdrive",
                "is_public": true,
                "public_url_shared": false,
                "display_as_bot": false,
                "username": "",
                "url_private": "https:\/\/docs.google.com\/presentation\/d\/1-qHD_mQNyNz7i1ODXg2JSi_Rp-3PdUj3VDa8y3BgAlE\/edit#slide=id.p",
                "thumb_64": "https:\/\/files.slack.com\/files-tmb\/TUU48M0T1-F011BMZA355-53ad51aa1c\/8_64.png?t=xoxe-980144714919-1106606678066-1105227127893-6f722bb664235052954ad46852628b64",
                "thumb_80": "https:\/\/files.slack.com\/files-tmb\/TUU48M0T1-F011BMZA355-53ad51aa1c\/8_80.png?t=xoxe-980144714919-1106606678066-1105227127893-6f722bb664235052954ad46852628b64",
                "thumb_360": "https:\/\/files.slack.com\/files-tmb\/TUU48M0T1-F011BMZA355-53ad51aa1c\/8_360.png?t=xoxe-980144714919-1106606678066-1105227127893-6f722bb664235052954ad46852628b64",
                "thumb_360_w": 360,
                "thumb_360_h": 203,
                "thumb_480": "https:\/\/files.slack.com\/files-tmb\/TUU48M0T1-F011BMZA355-53ad51aa1c\/8_480.png?t=xoxe-980144714919-1106606678066-1105227127893-6f722bb664235052954ad46852628b64",
                "thumb_480_w": 480,
                "thumb_480_h": 270,
                "thumb_160": "https:\/\/files.slack.com\/files-tmb\/TUU48M0T1-F011BMZA355-53ad51aa1c\/8_160.png?t=xoxe-980144714919-1106606678066-1105227127893-6f722bb664235052954ad46852628b64",
                "thumb_720": "https:\/\/files.slack.com\/files-tmb\/TUU48M0T1-F011BMZA355-53ad51aa1c\/8_720.png?t=xoxe-980144714919-1106606678066-1105227127893-6f722bb664235052954ad46852628b64",
                "thumb_720_w": 720,
                "thumb_720_h": 405,
                "thumb_800": "https:\/\/files.slack.com\/files-tmb\/TUU48M0T1-F011BMZA355-53ad51aa1c\/8_800.png?t=xoxe-980144714919-1106606678066-1105227127893-6f722bb664235052954ad46852628b64",
                "thumb_800_w": 800,
                "thumb_800_h": 450,
                "image_exif_rotation": 1,
                "original_w": 800,
                "original_h": 450,
                "thumb_tiny": "AwAbADDTzRUM2NwyB07timLtzghMezmgCzRUSrCTgHOe2aXyU9D+ZoAkooAAAA6CigBjMQM8fjTfMPqtOowPQUAIGYjjbS7n9BRRQAbn9BSgnvSUUAf\/2Q==",
                "permalink": "https:\/\/open-covid19.slack.com\/files\/UV0QTJCMT\/F011BMZA355\/8",
                "is_starred": false,
                "external_id": "1-qHD_mQNyNz7i1ODXg2JSi_Rp-3PdUj3VDa8y3BgAlE",
                "external_url": "https:\/\/docs.google.com\/presentation\/d\/1-qHD_mQNyNz7i1ODXg2JSi_Rp-3PdUj3VDa8y3BgAlE\/edit#slide=id.p",
                "has_rich_preview": true
            }
        ],
        "upload": false,
        "blocks": [
            {
                "type": "rich_text",
                "block_id": "+\/=",
                "elements": [
                    {
                        "type": "rich_text_section",
                        "elements": [
                            {
                                "type": "emoji",
                                "name": "mega"
                            },
                            {
                                "type": "text",
                                "text": "Hi "
                            },
                            {
                                "type": "broadcast",
                                "range": "everyone"
                            },
                            {
                                "type": "text",
                                "text": " - For tomorrow’s "
                            },
                            {
                                "type": "text",
                                "text": "Global Community Call (6PM CET), ",
                                "style": {
                                    "bold": true
                                }
                            },
                            {
                                "type": "text",
                                "text": "to streamline the call and to help those who aren't able to make the call, if you have any project\/workgroup updates\/needs you would like to share, "
                            },
                            {
                                "type": "text",
                                "text": "please make a slide on ",
                                "style": {
                                    "bold": true
                                }
                            },
                            {
                                "type": "link",
                                "url": "https:\/\/docs.google.com\/presentation\/d\/1-qHD_mQNyNz7i1ODXg2JSi_Rp-3PdUj3VDa8y3BgAlE\/edit#slide=id.g73568cc0b1_0_6",
                                "text": "this slideshow",
                                "style": {
                                    "bold": true
                                }
                            },
                            {
                                "type": "text",
                                "text": "! If you have any questions about it, reach out to "
                            },
                            {
                                "type": "user",
                                "user_id": "U010APQC76J"
                            },
                            {
                                "type": "text",
                                "text": " ",
                                "style": {
                                    "bold": true
                                }
                            },
                            {
                                "type": "user",
                                "user_id": "U011B6VLM2A"
                            },
                            {
                                "type": "text",
                                "text": " or any member of the "
                            },
                            {
                                "type": "channel",
                                "channel_id": "CURG6ALTC"
                            },
                            {
                                "type": "text",
                                "text": "! Thank you!"
                            }
                        ]
                    }
                ]
            }
        ],
        "user": "UV0QTJCMT",
        "display_as_bot": false,
        "x_files": [
            "F011BMZA355"
        ],
        "ts": "1586890376.209200",
        "edited": {
            "user": "UV0QTJCMT",
            "ts": "1586890391.000000"
        },
        "client_msg_id": "5b02d0bb-346a-4ce4-bada-1ef7dc143c80",
        "reactions": [
            {
                "name": "+1",
                "users": [
                    "U011D8T1Z61",
                    "U011W90JUCC",
                    "UV02WET96",
                    "UV2SC7ZE3",
                    "U011B6VLM2A",
                    "UUWPKNE2E",
                    "U010KT2RR1U"
                ],
                "count": 7
            },
            {
                "name": "100",
                "users": [
                    "UV02WET96",
                    "UV2SC7ZE3",
                    "U011B6VLM2A"
                ],
                "count": 3
            },
            {
                "name": "fire",
                "users": [
                    "UV02WET96",
                    "UV2SC7ZE3",
                    "U011B6VLM2A",
                    "UUWPKNE2E"
                ],
                "count": 4
            },
            {
                "name": "+1::skin-tone-4",
                "users": [
                    "U0103LPAWQ4"
                ],
                "count": 1
            }
        ]
    },
    {
        "type": "message",
        "text": "Dear <!everyone>\n\nAs promised, *the second round of applications for mini-grants and review is now OPEN!!!* \n:writing_hand:\n*Here is our Application Process*\n\n1. *Follow this template to create a suitable project within JOGL* <https:\/\/docs.google.com\/document\/d\/1Udagi-PSsiUT4pv1DVnxRbaYyyq754xCAG7IX1ASm5w\/edit#heading=h.pq9yll6p0s1r> \n2. *Please follow this link to submit your project* <https:\/\/forms.gle\/nvZYbNGYhxGTKjZ37>, *for reviewing other projects and to apply with your own.*\n3. *The review process involves reviewing three other projects as part of an open review process, before you can submit your own as part of our community effort!*\n4. Your project will then be reviewed by other applicants and reviewers in the community and the results shared a few days after submissions close!\n*The deadline for this second round is this Sunday 19th April @ 7pm UTC*. But don’t worry if you can’t make it, we will have several rounds!\n\nProjects will have to use their JOGL project page to present their proposal so it will be transparent to everyone in this community :mag: One submission per individual.\n\n*The application process is also open to the world, so don’t hesitate to share to the world around you* :mega:\n\nThe results of our previous review and applicants can be found here. If you have any questions please message <@U0119SR5LMT> or myself!\n\nGood luck!",
        "files": [
            {
                "id": "F0120HGM8HJ",
                "created": 1586894915,
                "timestamp": 1586894915,
                "name": "Final OpenCOVID19 Wave 1 Results slides.pdf",
                "title": "Final OpenCOVID19 Wave 1 Results slides.pdf",
                "mimetype": "application\/pdf",
                "filetype": "pdf",
                "pretty_type": "PDF",
                "user": "UV0RRGB6H",
                "editable": false,
                "size": 16333601,
                "mode": "hosted",
                "is_external": false,
                "external_type": "",
                "is_public": true,
                "public_url_shared": false,
                "display_as_bot": false,
                "username": "",
                "url_private": "https:\/\/files.slack.com\/files-pri\/TUU48M0T1-F0120HGM8HJ\/final_opencovid19_wave_1_results_slides.pdf?t=xoxe-980144714919-1106606678066-1105227127893-6f722bb664235052954ad46852628b64",
                "url_private_download": "https:\/\/files.slack.com\/files-pri\/TUU48M0T1-F0120HGM8HJ\/download\/final_opencovid19_wave_1_results_slides.pdf?t=xoxe-980144714919-1106606678066-1105227127893-6f722bb664235052954ad46852628b64",
                "thumb_pdf": "https:\/\/files.slack.com\/files-tmb\/TUU48M0T1-F0120HGM8HJ-6d4309a1cc\/final_opencovid19_wave_1_results_slides_thumb_pdf.png?t=xoxe-980144714919-1106606678066-1105227127893-6f722bb664235052954ad46852628b64",
                "thumb_pdf_w": 1467,
                "thumb_pdf_h": 825,
                "permalink": "https:\/\/open-covid19.slack.com\/files\/UV0RRGB6H\/F0120HGM8HJ\/final_opencovid19_wave_1_results_slides.pdf",
                "permalink_public": "https:\/\/slack-files.com\/TUU48M0T1-F0120HGM8HJ-508c40661b",
                "is_starred": false,
                "has_rich_preview": false
            }
        ],
        "upload": true,
        "blocks": [
            {
                "type": "rich_text",
                "block_id": "oL5",
                "elements": [
                    {
                        "type": "rich_text_section",
                        "elements": [
                            {
                                "type": "text",
                                "text": "Dear "
                            },
                            {
                                "type": "broadcast",
                                "range": "everyone"
                            },
                            {
                                "type": "text",
                                "text": "\n\nAs promised,"
                            },
                            {
                                "type": "text",
                                "text": " the second round of applications for mini-grants and review is now OPEN!!! ",
                                "style": {
                                    "bold": true
                                }
                            },
                            {
                                "type": "text",
                                "text": "\n"
                            },
                            {
                                "type": "emoji",
                                "name": "writing_hand"
                            },
                            {
                                "type": "text",
                                "text": "\n"
                            },
                            {
                                "type": "text",
                                "text": "Here is our Application Process",
                                "style": {
                                    "bold": true
                                }
                            },
                            {
                                "type": "text",
                                "text": "\n\n"
                            }
                        ]
                    },
                    {
                        "type": "rich_text_list",
                        "style": "ordered",
                        "indent": 0,
                        "elements": [
                            {
                                "type": "rich_text_section",
                                "elements": [
                                    {
                                        "type": "text",
                                        "text": "Follow this template to create a suitable project within JOGL ",
                                        "style": {
                                            "bold": true
                                        }
                                    },
                                    {
                                        "type": "link",
                                        "url": "https:\/\/docs.google.com\/document\/d\/1Udagi-PSsiUT4pv1DVnxRbaYyyq754xCAG7IX1ASm5w\/edit#heading=h.pq9yll6p0s1r"
                                    },
                                    {
                                        "type": "text",
                                        "text": " "
                                    }
                                ]
                            },
                            {
                                "type": "rich_text_section",
                                "elements": [
                                    {
                                        "type": "text",
                                        "text": "Please follow this link to submit your project ",
                                        "style": {
                                            "bold": true
                                        }
                                    },
                                    {
                                        "type": "link",
                                        "url": "https:\/\/forms.gle\/nvZYbNGYhxGTKjZ37"
                                    },
                                    {
                                        "type": "text",
                                        "text": ","
                                    },
                                    {
                                        "type": "text",
                                        "text": " for reviewing other projects and to apply with your own.",
                                        "style": {
                                            "bold": true
                                        }
                                    }
                                ]
                            },
                            {
                                "type": "rich_text_section",
                                "elements": [
                                    {
                                        "type": "text",
                                        "text": "The review process involves reviewing three other projects as part of an open review process, before you can submit your own as part of our community effort!",
                                        "style": {
                                            "bold": true
                                        }
                                    }
                                ]
                            },
                            {
                                "type": "rich_text_section",
                                "elements": [
                                    {
                                        "type": "text",
                                        "text": "Your project will then be reviewed by other applicants and reviewers in the community and the results shared a few days after submissions close!"
                                    }
                                ]
                            }
                        ]
                    },
                    {
                        "type": "rich_text_section",
                        "elements": [
                            {
                                "type": "text",
                                "text": "\n"
                            },
                            {
                                "type": "text",
                                "text": "The deadline for this second round is this Sunday 19th April @ 7pm UTC",
                                "style": {
                                    "bold": true
                                }
                            },
                            {
                                "type": "text",
                                "text": ". But don’t worry if you can’t make it, we will have several rounds!\n\nProjects will have to use their JOGL project page to present their proposal so it will be transparent to everyone in this community "
                            },
                            {
                                "type": "emoji",
                                "name": "mag"
                            },
                            {
                                "type": "text",
                                "text": " One submission per individual.\n\n"
                            },
                            {
                                "type": "text",
                                "text": "The application process is also open to the world, so don’t hesitate to share to the world around you",
                                "style": {
                                    "bold": true
                                }
                            },
                            {
                                "type": "text",
                                "text": " "
                            },
                            {
                                "type": "emoji",
                                "name": "mega"
                            },
                            {
                                "type": "text",
                                "text": "\n\nThe results of our previous review and applicants can be found here. If you have any questions please message "
                            },
                            {
                                "type": "user",
                                "user_id": "U0119SR5LMT"
                            },
                            {
                                "type": "text",
                                "text": " or myself!\n\nGood luck!"
                            }
                        ]
                    }
                ]
            }
        ],
        "user": "UV0RRGB6H",
        "display_as_bot": false,
        "ts": "1586895357.214900",
        "edited": {
            "user": "UV0RRGB6H",
            "ts": "1587027917.000000"
        },
        "client_msg_id": "5f0b3be4-06c7-4b41-995a-37f989626d41",
        "reactions": [
            {
                "name": "heart",
                "users": [
                    "U0119SR5LMT",
                    "UV9V03C8Y",
                    "UUWPKNE2E",
                    "UV0QTJCMT",
                    "UV02WET96"
                ],
                "count": 5
            },
            {
                "name": "+1",
                "users": [
                    "U0119SR5LMT",
                    "U011B5424FR",
                    "U010S08MHS7"
                ],
                "count": 3
            },
            {
                "name": "mask-parrot",
                "users": [
                    "U0119SR5LMT",
                    "U010BMYLX36"
                ],
                "count": 2
            },
            {
                "name": "clap",
                "users": [
                    "U010Q3372P3"
                ],
                "count": 1
            },
            {
                "name": "party-dino",
                "users": [
                    "UV3URUKK5"
                ],
                "count": 1
            }
        ]
    }
]