[
    {
        "client_msg_id": "430612d9-2484-4627-8a6e-d545716b9cf0",
        "type": "message",
        "text": "<@UV0RRGB6H> <@UV02WET96> congrats to all the winners, if it is possible is there comment section about project that didn't made the cut? Also, is the judges are internal or the project rank is based on public vote?\nIf it's only public vote what hold me back from creating new account and vote for a project based in only Personal interest not project impact?",
        "user": "U011XCJJ7KK",
        "ts": "1588148281.306600",
        "team": "TUU48M0T1",
        "user_team": "TUU48M0T1",
        "source_team": "TUU48M0T1",
        "user_profile": {
            "avatar_hash": "a14335872167",
            "image_72": "https:\/\/avatars.slack-edge.com\/2020-04-10\/1052948616998_a1433587216787500a0e_72.jpg",
            "first_name": "Anteneh",
            "real_name": "Anteneh Gashaw",
            "display_name": "",
            "team": "TUU48M0T1",
            "name": "antenh.g",
            "is_restricted": false,
            "is_ultra_restricted": false
        },
        "edited": {
            "user": "U011XCJJ7KK",
            "ts": "1588148579.000000"
        },
        "blocks": [
            {
                "type": "rich_text",
                "block_id": "o5oe3",
                "elements": [
                    {
                        "type": "rich_text_section",
                        "elements": [
                            {
                                "type": "user",
                                "user_id": "UV0RRGB6H"
                            },
                            {
                                "type": "text",
                                "text": " "
                            },
                            {
                                "type": "user",
                                "user_id": "UV02WET96"
                            },
                            {
                                "type": "text",
                                "text": " congrats to all the winners, if it is possible is there comment section about project that didn't made the cut? Also, is the judges are internal or the project rank is based on public vote?\nIf it's only public vote what hold me back from creating new account and vote for a project based in only Personal interest not project impact?"
                            }
                        ]
                    }
                ]
            }
        ],
        "thread_ts": "1588108172.296300",
        "parent_user_id": "UV02WET96"
    },
    {
        "client_msg_id": "A1164B70-84E1-4F93-AC1F-51EA791A67F5",
        "type": "message",
        "text": "<@U011XCJJ7KK> the reviews are done by the community and the cutoff is decided by JOGL. We expect honesty and humbleness from the project leaders. We ask reviewers their account name and level of expertise. It’s not perfect for sure but it enables us to move fast in this pandemic. ",
        "user": "UV02WET96",
        "ts": "1588149832.309700",
        "team": "TUU48M0T1",
        "user_team": "TUU48M0T1",
        "source_team": "TUU48M0T1",
        "user_profile": {
            "avatar_hash": "a99c74a194f8",
            "image_72": "https:\/\/avatars.slack-edge.com\/2020-03-07\/975708504851_a99c74a194f86715ca7d_72.png",
            "first_name": "Thomas",
            "real_name": "Thomas Landrain",
            "display_name": "Thomas Landrain - JOGL CoFounder \/ CEO",
            "team": "TUU48M0T1",
            "name": "thomas",
            "is_restricted": false,
            "is_ultra_restricted": false
        },
        "blocks": [
            {
                "type": "rich_text",
                "block_id": "sifXZ",
                "elements": [
                    {
                        "type": "rich_text_section",
                        "elements": [
                            {
                                "type": "user",
                                "user_id": "U011XCJJ7KK"
                            },
                            {
                                "type": "text",
                                "text": " the reviews are done by the community and the cutoff is decided by JOGL. We expect honesty and humbleness from the project leaders. We ask reviewers their account name and level of expertise. It’s not perfect for sure but it enables us to move fast in this pandemic. "
                            }
                        ]
                    }
                ]
            }
        ],
        "thread_ts": "1588108172.296300",
        "parent_user_id": "UV02WET96"
    },
    {
        "client_msg_id": "fc8169c4-7aee-4de4-b602-af70afb475b0",
        "type": "message",
        "text": "<@U0101DKUALV> you can discuss with me in regards to the SSS project.",
        "user": "U011VCLEZKN",
        "ts": "1588156913.310400",
        "team": "TUU48M0T1",
        "user_team": "TUU48M0T1",
        "source_team": "TUU48M0T1",
        "user_profile": {
            "avatar_hash": "gda5b5f1849b",
            "image_72": "https:\/\/secure.gravatar.com\/avatar\/da5b5f1849b5b18917b905ff69d07569.jpg?s=72&d=https%3A%2F%2Fa.slack-edge.com%2Fdf10d%2Fimg%2Favatars%2Fava_0016-72.png",
            "first_name": "",
            "real_name": "Obasegun Ayodele",
            "display_name": "",
            "team": "TUU48M0T1",
            "name": "obasegun",
            "is_restricted": false,
            "is_ultra_restricted": false
        },
        "blocks": [
            {
                "type": "rich_text",
                "block_id": "dgrV",
                "elements": [
                    {
                        "type": "rich_text_section",
                        "elements": [
                            {
                                "type": "user",
                                "user_id": "U0101DKUALV"
                            },
                            {
                                "type": "text",
                                "text": " you can discuss with me in regards to the SSS project."
                            }
                        ]
                    }
                ]
            }
        ],
        "thread_ts": "1588108172.296300",
        "parent_user_id": "UV02WET96"
    },
    {
        "client_msg_id": "d67e42d1-bc6e-4cc3-9ca6-9441f3f98ec2",
        "type": "message",
        "text": "<@UV02WET96> sure, I'll prepare something :)",
        "user": "U012G0X589F",
        "ts": "1588157679.310600",
        "team": "TUU48M0T1",
        "user_team": "TUU48M0T1",
        "source_team": "TUU48M0T1",
        "user_profile": {
            "avatar_hash": "geedc4e2d6eb",
            "image_72": "https:\/\/secure.gravatar.com\/avatar\/eedc4e2d6eb67843d8dbd043fb8db9d7.jpg?s=72&d=https%3A%2F%2Fa.slack-edge.com%2Fdf10d%2Fimg%2Favatars%2Fava_0013-72.png",
            "first_name": "",
            "real_name": "Eugenia Covernton",
            "display_name": "Eugenia Covernton",
            "team": "TUU48M0T1",
            "name": "eugenia.covernton",
            "is_restricted": false,
            "is_ultra_restricted": false
        },
        "blocks": [
            {
                "type": "rich_text",
                "block_id": "9jp",
                "elements": [
                    {
                        "type": "rich_text_section",
                        "elements": [
                            {
                                "type": "user",
                                "user_id": "UV02WET96"
                            },
                            {
                                "type": "text",
                                "text": " sure, I'll prepare something :)"
                            }
                        ]
                    }
                ]
            }
        ],
        "thread_ts": "1588108172.296300",
        "parent_user_id": "UV02WET96",
        "reactions": [
            {
                "name": "+1",
                "users": [
                    "UV02WET96"
                ],
                "count": 1
            }
        ]
    },
    {
        "type": "message",
        "text": "*Hey folks! <!everyone>* :wave::mask:\n*It’s time for our weekly Global Community Call! It happens at 4pm GMT\/6pm Paris time here: <https:\/\/us02web.zoom.us\/j\/7804345815>*\n\nWe ask you to have a look to the call agenda now and put your name in it if you want to share some updates during the call (it’ll be greatly appreciated!)\n:point_right: Agenda: <https:\/\/docs.google.com\/document\/d\/1e2SoOkFJfYMfA3VGdAUfWpwxGyNWhufzL3L467yT2lA\/edit>\n\n*See you in 90min!* :fire:",
        "files": [
            {
                "id": "F012QAD8L4D",
                "created": 1588170768,
                "timestamp": 1588170768,
                "name": "Screenshot 2020-04-22 at 19.05.31.png",
                "title": "Screenshot 2020-04-22 at 19.05.31.png",
                "mimetype": "image\/png",
                "filetype": "png",
                "pretty_type": "PNG",
                "user": "UV02WET96",
                "editable": false,
                "size": 3015981,
                "mode": "hosted",
                "is_external": false,
                "external_type": "",
                "is_public": true,
                "public_url_shared": false,
                "display_as_bot": false,
                "username": "",
                "url_private": "https:\/\/files.slack.com\/files-pri\/TUU48M0T1-F012QAD8L4D\/screenshot_2020-04-22_at_19.05.31.png?t=xoxe-980144714919-1106606678066-1105227127893-6f722bb664235052954ad46852628b64",
                "url_private_download": "https:\/\/files.slack.com\/files-pri\/TUU48M0T1-F012QAD8L4D\/download\/screenshot_2020-04-22_at_19.05.31.png?t=xoxe-980144714919-1106606678066-1105227127893-6f722bb664235052954ad46852628b64",
                "thumb_64": "https:\/\/files.slack.com\/files-tmb\/TUU48M0T1-F012QAD8L4D-60df2e30e2\/screenshot_2020-04-22_at_19.05.31_64.png?t=xoxe-980144714919-1106606678066-1105227127893-6f722bb664235052954ad46852628b64",
                "thumb_80": "https:\/\/files.slack.com\/files-tmb\/TUU48M0T1-F012QAD8L4D-60df2e30e2\/screenshot_2020-04-22_at_19.05.31_80.png?t=xoxe-980144714919-1106606678066-1105227127893-6f722bb664235052954ad46852628b64",
                "thumb_360": "https:\/\/files.slack.com\/files-tmb\/TUU48M0T1-F012QAD8L4D-60df2e30e2\/screenshot_2020-04-22_at_19.05.31_360.png?t=xoxe-980144714919-1106606678066-1105227127893-6f722bb664235052954ad46852628b64",
                "thumb_360_w": 360,
                "thumb_360_h": 216,
                "thumb_480": "https:\/\/files.slack.com\/files-tmb\/TUU48M0T1-F012QAD8L4D-60df2e30e2\/screenshot_2020-04-22_at_19.05.31_480.png?t=xoxe-980144714919-1106606678066-1105227127893-6f722bb664235052954ad46852628b64",
                "thumb_480_w": 480,
                "thumb_480_h": 288,
                "thumb_160": "https:\/\/files.slack.com\/files-tmb\/TUU48M0T1-F012QAD8L4D-60df2e30e2\/screenshot_2020-04-22_at_19.05.31_160.png?t=xoxe-980144714919-1106606678066-1105227127893-6f722bb664235052954ad46852628b64",
                "thumb_720": "https:\/\/files.slack.com\/files-tmb\/TUU48M0T1-F012QAD8L4D-60df2e30e2\/screenshot_2020-04-22_at_19.05.31_720.png?t=xoxe-980144714919-1106606678066-1105227127893-6f722bb664235052954ad46852628b64",
                "thumb_720_w": 720,
                "thumb_720_h": 432,
                "thumb_800": "https:\/\/files.slack.com\/files-tmb\/TUU48M0T1-F012QAD8L4D-60df2e30e2\/screenshot_2020-04-22_at_19.05.31_800.png?t=xoxe-980144714919-1106606678066-1105227127893-6f722bb664235052954ad46852628b64",
                "thumb_800_w": 800,
                "thumb_800_h": 480,
                "thumb_960": "https:\/\/files.slack.com\/files-tmb\/TUU48M0T1-F012QAD8L4D-60df2e30e2\/screenshot_2020-04-22_at_19.05.31_960.png?t=xoxe-980144714919-1106606678066-1105227127893-6f722bb664235052954ad46852628b64",
                "thumb_960_w": 960,
                "thumb_960_h": 576,
                "thumb_1024": "https:\/\/files.slack.com\/files-tmb\/TUU48M0T1-F012QAD8L4D-60df2e30e2\/screenshot_2020-04-22_at_19.05.31_1024.png?t=xoxe-980144714919-1106606678066-1105227127893-6f722bb664235052954ad46852628b64",
                "thumb_1024_w": 1024,
                "thumb_1024_h": 615,
                "original_w": 2222,
                "original_h": 1334,
                "thumb_tiny": "AwAcADCqLd9oO0cjPUU9ZQsflsg+XuKnQqVj3vjgDI4qGVY1uHVmJAPUn2oGSeasis3k9DjGP6005m8s+Uq7ckkY5oTyzFIdxUemQCeKJMRBER8q3U5zQIfCmbhWEYK4PBx1p8vEM5ZFwV+XGOPWohMYZ4lQ\/KcZz2zUc8n7p1DHg9OvWh6gkPijl3hV8sttBxmnSGYblIAJOPlPSqUc8kb71b5vXFOa6lZiSwyfagC1O5aRVGPujJNJh7iUY2\/uzk7uB9KpvM7kFjyBjpSpPIhJVsZoAu7ZfN88hGAO3BNRyFmR2KIBt5xVYXEgGN3B9qDPIQQW4PXigD\/\/2Q==",
                "permalink": "https:\/\/open-covid19.slack.com\/files\/UV02WET96\/F012QAD8L4D\/screenshot_2020-04-22_at_19.05.31.png",
                "permalink_public": "https:\/\/slack-files.com\/TUU48M0T1-F012QAD8L4D-2c6dac90c4",
                "is_starred": false,
                "has_rich_preview": false
            }
        ],
        "upload": true,
        "blocks": [
            {
                "type": "rich_text",
                "block_id": "16qvn",
                "elements": [
                    {
                        "type": "rich_text_section",
                        "elements": [
                            {
                                "type": "text",
                                "text": "Hey folks! ",
                                "style": {
                                    "bold": true
                                }
                            },
                            {
                                "type": "broadcast",
                                "range": "everyone",
                                "style": {
                                    "bold": true
                                }
                            },
                            {
                                "type": "text",
                                "text": " ",
                                "style": {
                                    "bold": true
                                }
                            },
                            {
                                "type": "emoji",
                                "name": "wave",
                                "style": {
                                    "bold": true
                                }
                            },
                            {
                                "type": "emoji",
                                "name": "mask",
                                "style": {
                                    "bold": true
                                }
                            },
                            {
                                "type": "text",
                                "text": "\n"
                            },
                            {
                                "type": "text",
                                "text": "It’s time for our weekly Global Community Call! It happens at 4pm GMT\/6pm Paris time here: ",
                                "style": {
                                    "bold": true
                                }
                            },
                            {
                                "type": "link",
                                "url": "https:\/\/us02web.zoom.us\/j\/7804345815",
                                "style": {
                                    "bold": true
                                }
                            },
                            {
                                "type": "text",
                                "text": "\n\nWe ask you to have a look to the call agenda now and put your name in it if you want to share some updates during the call (it’ll be greatly appreciated!)\n"
                            },
                            {
                                "type": "emoji",
                                "name": "point_right"
                            },
                            {
                                "type": "text",
                                "text": " Agenda: "
                            },
                            {
                                "type": "link",
                                "url": "https:\/\/docs.google.com\/document\/d\/1e2SoOkFJfYMfA3VGdAUfWpwxGyNWhufzL3L467yT2lA\/edit"
                            },
                            {
                                "type": "text",
                                "text": "\n\n"
                            },
                            {
                                "type": "text",
                                "text": "See you in 90min! ",
                                "style": {
                                    "bold": true
                                }
                            },
                            {
                                "type": "emoji",
                                "name": "fire",
                                "style": {
                                    "bold": true
                                }
                            }
                        ]
                    }
                ]
            }
        ],
        "user": "UV02WET96",
        "display_as_bot": false,
        "ts": "1588170772.314600",
        "client_msg_id": "62697dd1-a4f3-4141-a6d0-5dfc1920efb3",
        "thread_ts": "1588170772.314600",
        "reply_count": 9,
        "reply_users_count": 4,
        "latest_reply": "1588172220.316700",
        "reply_users": [
            "UVDJ0PAQK",
            "UV02WET96",
            "U011VCLEZKN",
            "U010B412MF1"
        ],
        "replies": [
            {
                "user": "UVDJ0PAQK",
                "ts": "1588170824.314900"
            },
            {
                "user": "UV02WET96",
                "ts": "1588170889.315200"
            },
            {
                "user": "U011VCLEZKN",
                "ts": "1588171122.315400"
            },
            {
                "user": "UV02WET96",
                "ts": "1588171162.315600"
            },
            {
                "user": "UVDJ0PAQK",
                "ts": "1588171176.315800"
            },
            {
                "user": "U011VCLEZKN",
                "ts": "1588171245.316100"
            },
            {
                "user": "UV02WET96",
                "ts": "1588171340.316300"
            },
            {
                "user": "U010B412MF1",
                "ts": "1588172016.316500"
            },
            {
                "user": "U011VCLEZKN",
                "ts": "1588172220.316700"
            }
        ],
        "subscribed": false,
        "reactions": [
            {
                "name": "eyes",
                "users": [
                    "U0115G1A03D"
                ],
                "count": 1
            }
        ]
    },
    {
        "client_msg_id": "878cdf9b-fbae-4c18-bbaf-74113ac3d540",
        "type": "message",
        "text": "please make the doc editable\/commentable, otherwise folks can’t add to the agenda :slightly_smiling_face:",
        "user": "UVDJ0PAQK",
        "ts": "1588170824.314900",
        "team": "TUU48M0T1",
        "user_team": "TUU48M0T1",
        "source_team": "TUU48M0T1",
        "user_profile": {
            "avatar_hash": "0fab15eaefc9",
            "image_72": "https:\/\/avatars.slack-edge.com\/2020-03-19\/998337427074_0fab15eaefc9bfa8d59c_72.jpg",
            "first_name": "Bastian",
            "real_name": "Bastian Greshake Tzovaras",
            "display_name": "Bastian Greshake Tzovaras",
            "team": "TUU48M0T1",
            "name": "bastian.greshake-tzov",
            "is_restricted": false,
            "is_ultra_restricted": false
        },
        "blocks": [
            {
                "type": "rich_text",
                "block_id": "aju",
                "elements": [
                    {
                        "type": "rich_text_section",
                        "elements": [
                            {
                                "type": "text",
                                "text": "please make the doc editable\/commentable, otherwise folks can’t add to the agenda "
                            },
                            {
                                "type": "emoji",
                                "name": "slightly_smiling_face"
                            }
                        ]
                    }
                ]
            }
        ],
        "thread_ts": "1588170772.314600",
        "parent_user_id": "UV02WET96",
        "reactions": [
            {
                "name": "+1",
                "users": [
                    "UV02WET96"
                ],
                "count": 1
            }
        ]
    },
    {
        "client_msg_id": "73f44801-907c-43b7-b11e-18a9f6ed0fcc",
        "type": "message",
        "text": "sorry for that :sweat_smile:",
        "user": "UV02WET96",
        "ts": "1588170889.315200",
        "team": "TUU48M0T1",
        "user_team": "TUU48M0T1",
        "source_team": "TUU48M0T1",
        "user_profile": {
            "avatar_hash": "a99c74a194f8",
            "image_72": "https:\/\/avatars.slack-edge.com\/2020-03-07\/975708504851_a99c74a194f86715ca7d_72.png",
            "first_name": "Thomas",
            "real_name": "Thomas Landrain",
            "display_name": "Thomas Landrain - JOGL CoFounder \/ CEO",
            "team": "TUU48M0T1",
            "name": "thomas",
            "is_restricted": false,
            "is_ultra_restricted": false
        },
        "blocks": [
            {
                "type": "rich_text",
                "block_id": "xA4",
                "elements": [
                    {
                        "type": "rich_text_section",
                        "elements": [
                            {
                                "type": "text",
                                "text": "sorry for that "
                            },
                            {
                                "type": "emoji",
                                "name": "sweat_smile"
                            }
                        ]
                    }
                ]
            }
        ],
        "thread_ts": "1588170772.314600",
        "parent_user_id": "UV02WET96"
    },
    {
        "client_msg_id": "797fe525-f265-453b-bbe2-d1040fd8cf8c",
        "type": "message",
        "text": "Please I can't access the document. It's in view only",
        "user": "U011VCLEZKN",
        "ts": "1588171122.315400",
        "team": "TUU48M0T1",
        "user_team": "TUU48M0T1",
        "source_team": "TUU48M0T1",
        "user_profile": {
            "avatar_hash": "gda5b5f1849b",
            "image_72": "https:\/\/secure.gravatar.com\/avatar\/da5b5f1849b5b18917b905ff69d07569.jpg?s=72&d=https%3A%2F%2Fa.slack-edge.com%2Fdf10d%2Fimg%2Favatars%2Fava_0016-72.png",
            "first_name": "",
            "real_name": "Obasegun Ayodele",
            "display_name": "",
            "team": "TUU48M0T1",
            "name": "obasegun",
            "is_restricted": false,
            "is_ultra_restricted": false
        },
        "blocks": [
            {
                "type": "rich_text",
                "block_id": "P0B",
                "elements": [
                    {
                        "type": "rich_text_section",
                        "elements": [
                            {
                                "type": "text",
                                "text": "Please I can't access the document. It's in view only"
                            }
                        ]
                    }
                ]
            }
        ],
        "thread_ts": "1588170772.314600",
        "parent_user_id": "UV02WET96"
    },
    {
        "client_msg_id": "7ab920e2-871a-40ee-82b3-e011c75767ad",
        "type": "message",
        "text": "I’ve made it so that anyone with the link can edit it. can you try again?",
        "user": "UV02WET96",
        "ts": "1588171162.315600",
        "team": "TUU48M0T1",
        "user_team": "TUU48M0T1",
        "source_team": "TUU48M0T1",
        "user_profile": {
            "avatar_hash": "a99c74a194f8",
            "image_72": "https:\/\/avatars.slack-edge.com\/2020-03-07\/975708504851_a99c74a194f86715ca7d_72.png",
            "first_name": "Thomas",
            "real_name": "Thomas Landrain",
            "display_name": "Thomas Landrain - JOGL CoFounder \/ CEO",
            "team": "TUU48M0T1",
            "name": "thomas",
            "is_restricted": false,
            "is_ultra_restricted": false
        },
        "edited": {
            "user": "UV02WET96",
            "ts": "1588171205.000000"
        },
        "blocks": [
            {
                "type": "rich_text",
                "block_id": "DBwKB",
                "elements": [
                    {
                        "type": "rich_text_section",
                        "elements": [
                            {
                                "type": "text",
                                "text": "I’ve made it so that anyone with the link can edit it. can you try again?"
                            }
                        ]
                    }
                ]
            }
        ],
        "thread_ts": "1588170772.314600",
        "parent_user_id": "UV02WET96"
    },
    {
        "client_msg_id": "7072b792-9afb-4fb5-b0f6-a51a9d0d4762",
        "type": "message",
        "text": "works for me now",
        "user": "UVDJ0PAQK",
        "ts": "1588171176.315800",
        "team": "TUU48M0T1",
        "user_team": "TUU48M0T1",
        "source_team": "TUU48M0T1",
        "user_profile": {
            "avatar_hash": "0fab15eaefc9",
            "image_72": "https:\/\/avatars.slack-edge.com\/2020-03-19\/998337427074_0fab15eaefc9bfa8d59c_72.jpg",
            "first_name": "Bastian",
            "real_name": "Bastian Greshake Tzovaras",
            "display_name": "Bastian Greshake Tzovaras",
            "team": "TUU48M0T1",
            "name": "bastian.greshake-tzov",
            "is_restricted": false,
            "is_ultra_restricted": false
        },
        "blocks": [
            {
                "type": "rich_text",
                "block_id": "kjJh+",
                "elements": [
                    {
                        "type": "rich_text_section",
                        "elements": [
                            {
                                "type": "text",
                                "text": "works for me now"
                            }
                        ]
                    }
                ]
            }
        ],
        "thread_ts": "1588170772.314600",
        "parent_user_id": "UV02WET96"
    },
    {
        "client_msg_id": "9a8f9464-170a-46f0-916f-083d522c0f0a",
        "type": "message",
        "text": "Doesn't still work. Please add <mailto:obateke@gmail.com|obateke@gmail.com>",
        "user": "U011VCLEZKN",
        "ts": "1588171245.316100",
        "team": "TUU48M0T1",
        "user_team": "TUU48M0T1",
        "source_team": "TUU48M0T1",
        "user_profile": {
            "avatar_hash": "gda5b5f1849b",
            "image_72": "https:\/\/secure.gravatar.com\/avatar\/da5b5f1849b5b18917b905ff69d07569.jpg?s=72&d=https%3A%2F%2Fa.slack-edge.com%2Fdf10d%2Fimg%2Favatars%2Fava_0016-72.png",
            "first_name": "",
            "real_name": "Obasegun Ayodele",
            "display_name": "",
            "team": "TUU48M0T1",
            "name": "obasegun",
            "is_restricted": false,
            "is_ultra_restricted": false
        },
        "blocks": [
            {
                "type": "rich_text",
                "block_id": "wMIB",
                "elements": [
                    {
                        "type": "rich_text_section",
                        "elements": [
                            {
                                "type": "text",
                                "text": "Doesn't still work. Please add "
                            },
                            {
                                "type": "link",
                                "url": "mailto:obateke@gmail.com",
                                "text": "obateke@gmail.com"
                            }
                        ]
                    }
                ]
            }
        ],
        "thread_ts": "1588170772.314600",
        "parent_user_id": "UV02WET96"
    },
    {
        "client_msg_id": "432faa6f-ea1b-4f2f-ba75-2bff3e202cb0",
        "type": "message",
        "text": "done",
        "user": "UV02WET96",
        "ts": "1588171340.316300",
        "team": "TUU48M0T1",
        "user_team": "TUU48M0T1",
        "source_team": "TUU48M0T1",
        "user_profile": {
            "avatar_hash": "a99c74a194f8",
            "image_72": "https:\/\/avatars.slack-edge.com\/2020-03-07\/975708504851_a99c74a194f86715ca7d_72.png",
            "first_name": "Thomas",
            "real_name": "Thomas Landrain",
            "display_name": "Thomas Landrain - JOGL CoFounder \/ CEO",
            "team": "TUU48M0T1",
            "name": "thomas",
            "is_restricted": false,
            "is_ultra_restricted": false
        },
        "blocks": [
            {
                "type": "rich_text",
                "block_id": "+lBp8",
                "elements": [
                    {
                        "type": "rich_text_section",
                        "elements": [
                            {
                                "type": "text",
                                "text": "done"
                            }
                        ]
                    }
                ]
            }
        ],
        "thread_ts": "1588170772.314600",
        "parent_user_id": "UV02WET96"
    },
    {
        "client_msg_id": "a41652f9-c9da-4aea-94cc-9d23f426bc91",
        "type": "message",
        "text": "Great, see you soon!",
        "user": "U010B412MF1",
        "ts": "1588172016.316500",
        "team": "TUU48M0T1",
        "user_team": "TUU48M0T1",
        "source_team": "TUU48M0T1",
        "user_profile": {
            "avatar_hash": "218d963a797f",
            "image_72": "https:\/\/avatars.slack-edge.com\/2020-03-19\/1013072792629_218d963a797fbf4410c0_72.png",
            "first_name": "",
            "real_name": "liu",
            "display_name": "liu",
            "team": "TUU48M0T1",
            "name": "liubov.tupikina",
            "is_restricted": false,
            "is_ultra_restricted": false
        },
        "blocks": [
            {
                "type": "rich_text",
                "block_id": "bEgU",
                "elements": [
                    {
                        "type": "rich_text_section",
                        "elements": [
                            {
                                "type": "text",
                                "text": "Great, see you soon!"
                            }
                        ]
                    }
                ]
            }
        ],
        "thread_ts": "1588170772.314600",
        "parent_user_id": "UV02WET96"
    },
    {
        "client_msg_id": "db932984-90b8-478b-bf56-380aad606409",
        "type": "message",
        "text": "<@UV02WET96> Thank you.",
        "user": "U011VCLEZKN",
        "ts": "1588172220.316700",
        "team": "TUU48M0T1",
        "user_team": "TUU48M0T1",
        "source_team": "TUU48M0T1",
        "user_profile": {
            "avatar_hash": "gda5b5f1849b",
            "image_72": "https:\/\/secure.gravatar.com\/avatar\/da5b5f1849b5b18917b905ff69d07569.jpg?s=72&d=https%3A%2F%2Fa.slack-edge.com%2Fdf10d%2Fimg%2Favatars%2Fava_0016-72.png",
            "first_name": "",
            "real_name": "Obasegun Ayodele",
            "display_name": "",
            "team": "TUU48M0T1",
            "name": "obasegun",
            "is_restricted": false,
            "is_ultra_restricted": false
        },
        "blocks": [
            {
                "type": "rich_text",
                "block_id": "ouLcX",
                "elements": [
                    {
                        "type": "rich_text_section",
                        "elements": [
                            {
                                "type": "user",
                                "user_id": "UV02WET96"
                            },
                            {
                                "type": "text",
                                "text": " Thank you."
                            }
                        ]
                    }
                ]
            }
        ],
        "thread_ts": "1588170772.314600",
        "parent_user_id": "UV02WET96"
    },
    {
        "client_msg_id": "f17daddd-27ff-4469-a136-2a414364abcd",
        "type": "message",
        "text": "All winning projects, please use this doc to put your name: <https:\/\/docs.google.com\/document\/d\/1e2SoOkFJfYMfA3VGdAUfWpwxGyNWhufzL3L467yT2lA\/>",
        "user": "UV02WET96",
        "ts": "1588175293.317200",
        "team": "TUU48M0T1",
        "user_team": "TUU48M0T1",
        "source_team": "TUU48M0T1",
        "user_profile": {
            "avatar_hash": "a99c74a194f8",
            "image_72": "https:\/\/avatars.slack-edge.com\/2020-03-07\/975708504851_a99c74a194f86715ca7d_72.png",
            "first_name": "Thomas",
            "real_name": "Thomas Landrain",
            "display_name": "Thomas Landrain - JOGL CoFounder \/ CEO",
            "team": "TUU48M0T1",
            "name": "thomas",
            "is_restricted": false,
            "is_ultra_restricted": false
        },
        "blocks": [
            {
                "type": "rich_text",
                "block_id": "2AG",
                "elements": [
                    {
                        "type": "rich_text_section",
                        "elements": [
                            {
                                "type": "text",
                                "text": "All winning projects, please use this doc to put your name: "
                            },
                            {
                                "type": "link",
                                "url": "https:\/\/docs.google.com\/document\/d\/1e2SoOkFJfYMfA3VGdAUfWpwxGyNWhufzL3L467yT2lA\/"
                            }
                        ]
                    }
                ]
            }
        ],
        "thread_ts": "1588108172.296300",
        "parent_user_id": "UV02WET96"
    }
]