[
    {
        "client_msg_id": "9f0f3957-ee7f-4f98-95b0-c5f1b34fd4b5",
        "type": "message",
        "text": "*<!channel>*, Dear everyone, our 7th Global Community Call is happening NOW here: <https:\/\/zoom.us\/j\/7804345815>\nWe have plenty of advancements to share with all of you.\nI look forward to seeing you all there :raised_hands::fire:",
        "user": "UV02WET96",
        "ts": "1586966832.222700",
        "team": "TUU48M0T1",
        "user_team": "TUU48M0T1",
        "source_team": "TUU48M0T1",
        "user_profile": {
            "avatar_hash": "a99c74a194f8",
            "image_72": "https:\/\/avatars.slack-edge.com\/2020-03-07\/975708504851_a99c74a194f86715ca7d_72.png",
            "first_name": "Thomas",
            "real_name": "Thomas Landrain",
            "display_name": "Thomas Landrain - JOGL CoFounder \/ CEO",
            "team": "TUU48M0T1",
            "name": "thomas",
            "is_restricted": false,
            "is_ultra_restricted": false
        },
        "blocks": [
            {
                "type": "rich_text",
                "block_id": "YPFZo",
                "elements": [
                    {
                        "type": "rich_text_section",
                        "elements": [
                            {
                                "type": "broadcast",
                                "range": "channel",
                                "style": {
                                    "bold": true
                                }
                            },
                            {
                                "type": "text",
                                "text": ", Dear everyone, our 7th Global Community Call is happening NOW here: "
                            },
                            {
                                "type": "link",
                                "url": "https:\/\/zoom.us\/j\/7804345815"
                            },
                            {
                                "type": "text",
                                "text": "\nWe have plenty of advancements to share with all of you.\nI look forward to seeing you all there "
                            },
                            {
                                "type": "emoji",
                                "name": "raised_hands"
                            },
                            {
                                "type": "emoji",
                                "name": "fire"
                            }
                        ]
                    }
                ]
            }
        ],
        "reactions": [
            {
                "name": "+1",
                "users": [
                    "UUWPKNE2E"
                ],
                "count": 1
            }
        ]
    },
    {
        "client_msg_id": "fd8a3d13-9f27-4131-9454-24f2c25cfcd4",
        "type": "message",
        "text": "<!channel>\n\nI had created a little GIF tutorial that didn't get shared somehow.\n\nJOGL has a Slack integration to help you manage your project between JOGL and Slack.\n\nPlease follow this GIF to setup your project between JOGL and Slack.",
        "user": "UVC9WMA7N",
        "ts": "1586969807.224500",
        "team": "TUU48M0T1",
        "user_team": "TUU48M0T1",
        "source_team": "TUU48M0T1",
        "user_profile": {
            "avatar_hash": "56d14d58ed53",
            "image_72": "https:\/\/avatars.slack-edge.com\/2020-03-13\/998337892660_56d14d58ed537e6e4654_72.png",
            "first_name": "Leo",
            "real_name": "Leo Blondel",
            "display_name": "Leo Blondel - JOGL CoFounder \/ CTO",
            "team": "TUU48M0T1",
            "name": "leo",
            "is_restricted": false,
            "is_ultra_restricted": false
        },
        "blocks": [
            {
                "type": "rich_text",
                "block_id": "rjD",
                "elements": [
                    {
                        "type": "rich_text_section",
                        "elements": [
                            {
                                "type": "broadcast",
                                "range": "channel"
                            },
                            {
                                "type": "text",
                                "text": "\n\nI had created a little GIF tutorial that didn't get shared somehow.\n\nJOGL has a Slack integration to help you manage your project between JOGL and Slack.\n\nPlease follow this GIF to setup your project between JOGL and Slack."
                            }
                        ]
                    }
                ]
            }
        ],
        "reactions": [
            {
                "name": "heart_eyes",
                "users": [
                    "UV9V03C8Y",
                    "UUPQGNNTV",
                    "UV0QTJCMT",
                    "U010D8HHMRQ",
                    "UV10KBUQG"
                ],
                "count": 5
            },
            {
                "name": "heart",
                "users": [
                    "U0119SR5LMT"
                ],
                "count": 1
            },
            {
                "name": "fire",
                "users": [
                    "U01113Y1PLP",
                    "U010B412MF1"
                ],
                "count": 2
            }
        ]
    },
    {
        "type": "message",
        "text": "",
        "files": [
            {
                "id": "F01298AKVL1",
                "created": 1586969873,
                "timestamp": 1586969873,
                "name": "Add_a_SlackHook.gif",
                "title": "Add_a_SlackHook.gif",
                "mimetype": "image\/gif",
                "filetype": "gif",
                "pretty_type": "GIF",
                "user": "UVC9WMA7N",
                "editable": false,
                "size": 1472192,
                "mode": "hosted",
                "is_external": false,
                "external_type": "",
                "is_public": true,
                "public_url_shared": false,
                "display_as_bot": false,
                "username": "",
                "url_private": "https:\/\/files.slack.com\/files-pri\/TUU48M0T1-F01298AKVL1\/add_a_slackhook.gif?t=xoxe-980144714919-1106606678066-1105227127893-6f722bb664235052954ad46852628b64",
                "url_private_download": "https:\/\/files.slack.com\/files-pri\/TUU48M0T1-F01298AKVL1\/download\/add_a_slackhook.gif?t=xoxe-980144714919-1106606678066-1105227127893-6f722bb664235052954ad46852628b64",
                "thumb_64": "https:\/\/files.slack.com\/files-tmb\/TUU48M0T1-F01298AKVL1-4d99c0c46e\/add_a_slackhook_64.png?t=xoxe-980144714919-1106606678066-1105227127893-6f722bb664235052954ad46852628b64",
                "thumb_80": "https:\/\/files.slack.com\/files-tmb\/TUU48M0T1-F01298AKVL1-4d99c0c46e\/add_a_slackhook_80.png?t=xoxe-980144714919-1106606678066-1105227127893-6f722bb664235052954ad46852628b64",
                "thumb_360": "https:\/\/files.slack.com\/files-tmb\/TUU48M0T1-F01298AKVL1-4d99c0c46e\/add_a_slackhook_360.png?t=xoxe-980144714919-1106606678066-1105227127893-6f722bb664235052954ad46852628b64",
                "thumb_360_w": 360,
                "thumb_360_h": 254,
                "thumb_480": "https:\/\/files.slack.com\/files-tmb\/TUU48M0T1-F01298AKVL1-4d99c0c46e\/add_a_slackhook_480.png?t=xoxe-980144714919-1106606678066-1105227127893-6f722bb664235052954ad46852628b64",
                "thumb_480_w": 480,
                "thumb_480_h": 338,
                "thumb_160": "https:\/\/files.slack.com\/files-tmb\/TUU48M0T1-F01298AKVL1-4d99c0c46e\/add_a_slackhook_160.png?t=xoxe-980144714919-1106606678066-1105227127893-6f722bb664235052954ad46852628b64",
                "thumb_720": "https:\/\/files.slack.com\/files-tmb\/TUU48M0T1-F01298AKVL1-4d99c0c46e\/add_a_slackhook_720.png?t=xoxe-980144714919-1106606678066-1105227127893-6f722bb664235052954ad46852628b64",
                "thumb_720_w": 720,
                "thumb_720_h": 508,
                "thumb_800": "https:\/\/files.slack.com\/files-tmb\/TUU48M0T1-F01298AKVL1-4d99c0c46e\/add_a_slackhook_800.png?t=xoxe-980144714919-1106606678066-1105227127893-6f722bb664235052954ad46852628b64",
                "thumb_800_w": 800,
                "thumb_800_h": 564,
                "thumb_960": "https:\/\/files.slack.com\/files-tmb\/TUU48M0T1-F01298AKVL1-4d99c0c46e\/add_a_slackhook_960.png?t=xoxe-980144714919-1106606678066-1105227127893-6f722bb664235052954ad46852628b64",
                "thumb_960_w": 960,
                "thumb_960_h": 677,
                "thumb_1024": "https:\/\/files.slack.com\/files-tmb\/TUU48M0T1-F01298AKVL1-4d99c0c46e\/add_a_slackhook_1024.png?t=xoxe-980144714919-1106606678066-1105227127893-6f722bb664235052954ad46852628b64",
                "thumb_1024_w": 1024,
                "thumb_1024_h": 722,
                "thumb_360_gif": "https:\/\/files.slack.com\/files-tmb\/TUU48M0T1-F01298AKVL1-4d99c0c46e\/add_a_slackhook_360.gif?t=xoxe-980144714919-1106606678066-1105227127893-6f722bb664235052954ad46852628b64",
                "thumb_480_gif": "https:\/\/files.slack.com\/files-tmb\/TUU48M0T1-F01298AKVL1-4d99c0c46e\/add_a_slackhook_480.gif?t=xoxe-980144714919-1106606678066-1105227127893-6f722bb664235052954ad46852628b64",
                "original_w": 1298,
                "original_h": 915,
                "deanimate_gif": "https:\/\/files.slack.com\/files-tmb\/TUU48M0T1-F01298AKVL1-4d99c0c46e\/add_a_slackhook_deanimate_gif.png?t=xoxe-980144714919-1106606678066-1105227127893-6f722bb664235052954ad46852628b64",
                "thumb_tiny": "AwAhADDSAApaKieVhnYoODigCQ59CaB9MVHDKZNwYYZT09qJ5li25BOc9KB2JaTFLRQICMjHSmJEqDjP40+kzzQA0RKHDDOac2O9H4ml\/GgAFFFFABSGlpDQAtFFFAEUP3pPrUtRQ\/ek+tS02JbH\/9k=",
                "permalink": "https:\/\/open-covid19.slack.com\/files\/UVC9WMA7N\/F01298AKVL1\/add_a_slackhook.gif",
                "permalink_public": "https:\/\/slack-files.com\/TUU48M0T1-F01298AKVL1-51842598d9",
                "is_starred": false,
                "has_rich_preview": false
            }
        ],
        "upload": true,
        "user": "UVC9WMA7N",
        "display_as_bot": false,
        "ts": "1586969876.224900",
        "client_msg_id": "5c5d34d5-661e-4410-ab5e-e397dc60327d"
    },
    {
        "type": "message",
        "text": "",
        "files": [
            {
                "id": "F011WKB5VGS",
                "created": 1586969880,
                "timestamp": 1586969880,
                "name": "CreateASlackHook.gif",
                "title": "CreateASlackHook.gif",
                "mimetype": "image\/gif",
                "filetype": "gif",
                "pretty_type": "GIF",
                "user": "UVC9WMA7N",
                "editable": false,
                "size": 4389565,
                "mode": "hosted",
                "is_external": false,
                "external_type": "",
                "is_public": true,
                "public_url_shared": false,
                "display_as_bot": false,
                "username": "",
                "url_private": "https:\/\/files.slack.com\/files-pri\/TUU48M0T1-F011WKB5VGS\/createaslackhook.gif?t=xoxe-980144714919-1106606678066-1105227127893-6f722bb664235052954ad46852628b64",
                "url_private_download": "https:\/\/files.slack.com\/files-pri\/TUU48M0T1-F011WKB5VGS\/download\/createaslackhook.gif?t=xoxe-980144714919-1106606678066-1105227127893-6f722bb664235052954ad46852628b64",
                "thumb_64": "https:\/\/files.slack.com\/files-tmb\/TUU48M0T1-F011WKB5VGS-aa1dfc2434\/createaslackhook_64.png?t=xoxe-980144714919-1106606678066-1105227127893-6f722bb664235052954ad46852628b64",
                "thumb_80": "https:\/\/files.slack.com\/files-tmb\/TUU48M0T1-F011WKB5VGS-aa1dfc2434\/createaslackhook_80.png?t=xoxe-980144714919-1106606678066-1105227127893-6f722bb664235052954ad46852628b64",
                "thumb_360": "https:\/\/files.slack.com\/files-tmb\/TUU48M0T1-F011WKB5VGS-aa1dfc2434\/createaslackhook_360.png?t=xoxe-980144714919-1106606678066-1105227127893-6f722bb664235052954ad46852628b64",
                "thumb_360_w": 360,
                "thumb_360_h": 210,
                "thumb_480": "https:\/\/files.slack.com\/files-tmb\/TUU48M0T1-F011WKB5VGS-aa1dfc2434\/createaslackhook_480.png?t=xoxe-980144714919-1106606678066-1105227127893-6f722bb664235052954ad46852628b64",
                "thumb_480_w": 480,
                "thumb_480_h": 280,
                "thumb_160": "https:\/\/files.slack.com\/files-tmb\/TUU48M0T1-F011WKB5VGS-aa1dfc2434\/createaslackhook_160.png?t=xoxe-980144714919-1106606678066-1105227127893-6f722bb664235052954ad46852628b64",
                "thumb_720": "https:\/\/files.slack.com\/files-tmb\/TUU48M0T1-F011WKB5VGS-aa1dfc2434\/createaslackhook_720.png?t=xoxe-980144714919-1106606678066-1105227127893-6f722bb664235052954ad46852628b64",
                "thumb_720_w": 720,
                "thumb_720_h": 420,
                "thumb_800": "https:\/\/files.slack.com\/files-tmb\/TUU48M0T1-F011WKB5VGS-aa1dfc2434\/createaslackhook_800.png?t=xoxe-980144714919-1106606678066-1105227127893-6f722bb664235052954ad46852628b64",
                "thumb_800_w": 800,
                "thumb_800_h": 466,
                "thumb_960": "https:\/\/files.slack.com\/files-tmb\/TUU48M0T1-F011WKB5VGS-aa1dfc2434\/createaslackhook_960.png?t=xoxe-980144714919-1106606678066-1105227127893-6f722bb664235052954ad46852628b64",
                "thumb_960_w": 960,
                "thumb_960_h": 559,
                "thumb_1024": "https:\/\/files.slack.com\/files-tmb\/TUU48M0T1-F011WKB5VGS-aa1dfc2434\/createaslackhook_1024.png?t=xoxe-980144714919-1106606678066-1105227127893-6f722bb664235052954ad46852628b64",
                "thumb_1024_w": 1024,
                "thumb_1024_h": 597,
                "thumb_360_gif": "https:\/\/files.slack.com\/files-tmb\/TUU48M0T1-F011WKB5VGS-aa1dfc2434\/createaslackhook_360.gif?t=xoxe-980144714919-1106606678066-1105227127893-6f722bb664235052954ad46852628b64",
                "thumb_480_gif": "https:\/\/files.slack.com\/files-tmb\/TUU48M0T1-F011WKB5VGS-aa1dfc2434\/createaslackhook_480.gif?t=xoxe-980144714919-1106606678066-1105227127893-6f722bb664235052954ad46852628b64",
                "original_w": 1570,
                "original_h": 915,
                "deanimate_gif": "https:\/\/files.slack.com\/files-tmb\/TUU48M0T1-F011WKB5VGS-aa1dfc2434\/createaslackhook_deanimate_gif.png?t=xoxe-980144714919-1106606678066-1105227127893-6f722bb664235052954ad46852628b64",
                "thumb_tiny": "AwAbADDTooooAKbvXHWnUnNAC0UUUAFFMyaATQA+im0UAOoptJk+tAH\/2Q==",
                "permalink": "https:\/\/open-covid19.slack.com\/files\/UVC9WMA7N\/F011WKB5VGS\/createaslackhook.gif",
                "permalink_public": "https:\/\/slack-files.com\/TUU48M0T1-F011WKB5VGS-159e674dfb",
                "is_starred": false,
                "has_rich_preview": false
            }
        ],
        "upload": true,
        "user": "UVC9WMA7N",
        "display_as_bot": false,
        "ts": "1586969883.225200",
        "client_msg_id": "850b4f3f-9134-4589-b8f3-f15fff5c45b1",
        "reactions": [
            {
                "name": "+1",
                "users": [
                    "UV02WET96",
                    "UVDTYV2MT",
                    "UV9V03C8Y",
                    "UV0QTJCMT",
                    "UV1A22N3W",
                    "UUWPKNE2E"
                ],
                "count": 6
            },
            {
                "name": "boom",
                "users": [
                    "UV9V03C8Y"
                ],
                "count": 1
            },
            {
                "name": "heart",
                "users": [
                    "U0119SR5LMT",
                    "UUWPKNE2E"
                ],
                "count": 2
            }
        ]
    },
    {
        "client_msg_id": "c8d2cec9-5ee9-4333-b7ea-6100b54a1de0",
        "type": "message",
        "text": "Dear all <!everyone>,\nThank you so much for being part of this community, for helping building this beautiful and resilient network of individuals and for being so patient with us as we learn how to make this program a useful and comfortable place for everyone who join us.\n\nHere is the recording of our 7th Global Community Call! :raised_hands::fire:\n<https:\/\/youtu.be\/WkACLzMK3dg>\n\nTill the next one! :heart:\nThomas",
        "user": "UV02WET96",
        "ts": "1586976652.232300",
        "team": "TUU48M0T1",
        "user_team": "TUU48M0T1",
        "source_team": "TUU48M0T1",
        "user_profile": {
            "avatar_hash": "a99c74a194f8",
            "image_72": "https:\/\/avatars.slack-edge.com\/2020-03-07\/975708504851_a99c74a194f86715ca7d_72.png",
            "first_name": "Thomas",
            "real_name": "Thomas Landrain",
            "display_name": "Thomas Landrain - JOGL CoFounder \/ CEO",
            "team": "TUU48M0T1",
            "name": "thomas",
            "is_restricted": false,
            "is_ultra_restricted": false
        },
        "edited": {
            "user": "UV02WET96",
            "ts": "1586978873.000000"
        },
        "attachments": [
            {
                "service_name": "YouTube",
                "service_url": "https:\/\/www.youtube.com\/",
                "title": "The OpenCovid19 Initiative [Global Community Call #7]",
                "title_link": "https:\/\/youtu.be\/WkACLzMK3dg",
                "author_name": "Just One Giant Lab",
                "author_link": "https:\/\/www.youtube.com\/channel\/UCvgRJdZ4OoTyo8tuJNVf4fA",
                "thumb_url": "https:\/\/i.ytimg.com\/vi\/WkACLzMK3dg\/hqdefault.jpg",
                "thumb_width": 480,
                "thumb_height": 360,
                "fallback": "YouTube Video: The OpenCovid19 Initiative [Global Community Call #7]",
                "video_html": "<iframe width=\"400\" height=\"225\" src=\"https:\/\/www.youtube.com\/embed\/WkACLzMK3dg?feature=oembed&autoplay=1&iv_load_policy=3\" frameborder=\"0\" allow=\"accelerometer; autoplay; encrypted-media; gyroscope; picture-in-picture\" allowfullscreen><\/iframe>",
                "video_html_width": 400,
                "video_html_height": 225,
                "from_url": "https:\/\/youtu.be\/WkACLzMK3dg",
                "service_icon": "https:\/\/a.slack-edge.com\/80588\/img\/unfurl_icons\/youtube.png",
                "id": 1,
                "original_url": "https:\/\/youtu.be\/WkACLzMK3dg"
            }
        ],
        "blocks": [
            {
                "type": "rich_text",
                "block_id": "Ppw3",
                "elements": [
                    {
                        "type": "rich_text_section",
                        "elements": [
                            {
                                "type": "text",
                                "text": "Dear all "
                            },
                            {
                                "type": "broadcast",
                                "range": "everyone"
                            },
                            {
                                "type": "text",
                                "text": ",\nThank you so much for being part of this community, for helping building this beautiful and resilient network of individuals and for being so patient with us as we learn how to make this program a useful and comfortable place for everyone who join us.\n\nHere is the recording of our 7th Global Community Call! "
                            },
                            {
                                "type": "emoji",
                                "name": "raised_hands"
                            },
                            {
                                "type": "emoji",
                                "name": "fire"
                            },
                            {
                                "type": "text",
                                "text": "\n"
                            },
                            {
                                "type": "link",
                                "url": "https:\/\/youtu.be\/WkACLzMK3dg"
                            },
                            {
                                "type": "text",
                                "text": "\n\nTill the next one! "
                            },
                            {
                                "type": "emoji",
                                "name": "heart"
                            },
                            {
                                "type": "text",
                                "text": "\nThomas"
                            }
                        ]
                    }
                ]
            }
        ],
        "thread_ts": "1586976652.232300",
        "reply_count": 2,
        "reply_users_count": 2,
        "latest_reply": "1587056891.241100",
        "reply_users": [
            "U01081Y0TBP",
            "UV02WET96"
        ],
        "replies": [
            {
                "user": "U01081Y0TBP",
                "ts": "1587051311.239900"
            },
            {
                "user": "UV02WET96",
                "ts": "1587056891.241100"
            }
        ],
        "subscribed": false,
        "reactions": [
            {
                "name": "heart",
                "users": [
                    "UV1D9NR1N",
                    "U011VNGLUHG",
                    "U0115R9V9CJ",
                    "UV9V03C8Y",
                    "UV0QTJCMT",
                    "U0119SR5LMT",
                    "UUWPKNE2E",
                    "U011ANKLTNG",
                    "UV10KBUQG",
                    "UV6DV6E5V",
                    "UV0RRGB6H",
                    "U011D6K9RH6"
                ],
                "count": 12
            },
            {
                "name": "+1",
                "users": [
                    "U010W4KTANM",
                    "U011DLSJC9K",
                    "U011KG47FMW",
                    "U01205TU3QU",
                    "U01113Y1PLP"
                ],
                "count": 5
            }
        ]
    }
]