[
    {
        "client_msg_id": "52e254fe-9e76-42da-a058-cff0916a750b",
        "type": "message",
        "text": "hooray for user groups! Thanks for using our tag!",
        "user": "U011B6VLM2A",
        "ts": "1588235911.197000",
        "team": "TUU48M0T1",
        "user_team": "TUU48M0T1",
        "source_team": "TUU48M0T1",
        "user_profile": {
            "avatar_hash": "4231dc598cfc",
            "image_72": "https:\/\/avatars.slack-edge.com\/2020-04-02\/1044784558839_4231dc598cfc2e59c4c4_72.jpg",
            "first_name": "Alix",
            "real_name": "Alix Mains",
            "display_name": "Alix Mains - JOGL Coordinator",
            "team": "TUU48M0T1",
            "name": "alixhmains",
            "is_restricted": false,
            "is_ultra_restricted": false
        },
        "blocks": [
            {
                "type": "rich_text",
                "block_id": "Ux+",
                "elements": [
                    {
                        "type": "rich_text_section",
                        "elements": [
                            {
                                "type": "text",
                                "text": "hooray for user groups! Thanks for using our tag!"
                            }
                        ]
                    }
                ]
            }
        ],
        "thread_ts": "1588123426.188800",
        "parent_user_id": "U010Q3372P3"
    },
    {
        "client_msg_id": "5674df94-2c81-44f1-b3e6-f8ac92e9390c",
        "type": "message",
        "text": ":wave:<!subteam^S012ZFUQ8F3|@biosafety-biosecurity-board> — could you please comment on this thread with a headshot that we can put next to your name on the new OpenCovid19 landing page on the jogl website? Thanks!! :camera_with_flash:!",
        "user": "U011B6VLM2A",
        "ts": "1588253038.198500",
        "team": "TUU48M0T1",
        "user_team": "TUU48M0T1",
        "source_team": "TUU48M0T1",
        "user_profile": {
            "avatar_hash": "4231dc598cfc",
            "image_72": "https:\/\/avatars.slack-edge.com\/2020-04-02\/1044784558839_4231dc598cfc2e59c4c4_72.jpg",
            "first_name": "Alix",
            "real_name": "Alix Mains",
            "display_name": "Alix Mains - JOGL Coordinator",
            "team": "TUU48M0T1",
            "name": "alixhmains",
            "is_restricted": false,
            "is_ultra_restricted": false
        },
        "blocks": [
            {
                "type": "rich_text",
                "block_id": "\/2tNu",
                "elements": [
                    {
                        "type": "rich_text_section",
                        "elements": [
                            {
                                "type": "emoji",
                                "name": "wave"
                            },
                            {
                                "type": "usergroup",
                                "usergroup_id": "S012ZFUQ8F3"
                            },
                            {
                                "type": "text",
                                "text": " — could you please comment on this thread with a headshot that we can put next to your name on the new OpenCovid19 landing page on the jogl website? Thanks!! "
                            },
                            {
                                "type": "emoji",
                                "name": "camera_with_flash"
                            },
                            {
                                "type": "text",
                                "text": "!"
                            }
                        ]
                    }
                ]
            }
        ],
        "thread_ts": "1588253038.198500",
        "reply_count": 3,
        "reply_users_count": 3,
        "latest_reply": "1588271369.209700",
        "reply_users": [
            "UV0QTJCMT",
            "UV1A22N3W",
            "U011B6VLM2A"
        ],
        "replies": [
            {
                "user": "UV0QTJCMT",
                "ts": "1588264086.200800"
            },
            {
                "user": "UV1A22N3W",
                "ts": "1588268672.208800"
            },
            {
                "user": "U011B6VLM2A",
                "ts": "1588271369.209700"
            }
        ],
        "subscribed": false
    },
    {
        "client_msg_id": "6c77ccbf-0281-4736-81da-0e91d2106b12",
        "type": "message",
        "text": ":wave:<!subteam^S0130F2QY92|@strategic-board> — could you please comment on this thread with a headshot that we can put next to your name on the new OpenCovid19 landing page on the jogl website? Thanks!! :camera_with_flash:!",
        "user": "U011B6VLM2A",
        "ts": "1588254075.198700",
        "team": "TUU48M0T1",
        "user_team": "TUU48M0T1",
        "source_team": "TUU48M0T1",
        "user_profile": {
            "avatar_hash": "4231dc598cfc",
            "image_72": "https:\/\/avatars.slack-edge.com\/2020-04-02\/1044784558839_4231dc598cfc2e59c4c4_72.jpg",
            "first_name": "Alix",
            "real_name": "Alix Mains",
            "display_name": "Alix Mains - JOGL Coordinator",
            "team": "TUU48M0T1",
            "name": "alixhmains",
            "is_restricted": false,
            "is_ultra_restricted": false
        },
        "blocks": [
            {
                "type": "rich_text",
                "block_id": "Opf",
                "elements": [
                    {
                        "type": "rich_text_section",
                        "elements": [
                            {
                                "type": "emoji",
                                "name": "wave"
                            },
                            {
                                "type": "usergroup",
                                "usergroup_id": "S0130F2QY92"
                            },
                            {
                                "type": "text",
                                "text": " — could you please comment on this thread with a headshot that we can put next to your name on the new OpenCovid19 landing page on the jogl website? Thanks!! "
                            },
                            {
                                "type": "emoji",
                                "name": "camera_with_flash"
                            },
                            {
                                "type": "text",
                                "text": "!"
                            }
                        ]
                    }
                ]
            }
        ],
        "thread_ts": "1588254075.198700",
        "reply_count": 4,
        "reply_users_count": 3,
        "latest_reply": "1588271464.209900",
        "reply_users": [
            "UV0QTJCMT",
            "UV02WET96",
            "U011B6VLM2A"
        ],
        "replies": [
            {
                "user": "UV0QTJCMT",
                "ts": "1588263960.199000"
            },
            {
                "user": "UV0QTJCMT",
                "ts": "1588264031.199500"
            },
            {
                "user": "UV02WET96",
                "ts": "1588269421.209200"
            },
            {
                "user": "U011B6VLM2A",
                "ts": "1588271464.209900"
            }
        ],
        "subscribed": true,
        "last_read": "1588254075.198700",
        "reactions": [
            {
                "name": "+1",
                "users": [
                    "UV0QTJCMT"
                ],
                "count": 1
            }
        ]
    },
    {
        "type": "message",
        "text": "here’s mine",
        "files": [
            {
                "id": "F012UQW37FC",
                "created": 1588263938,
                "timestamp": 1588263938,
                "name": "Image from iOS.jpg",
                "title": "Image from iOS",
                "mimetype": "image\/jpeg",
                "filetype": "jpg",
                "pretty_type": "JPEG",
                "user": "UV0QTJCMT",
                "editable": false,
                "size": 808005,
                "mode": "hosted",
                "is_external": false,
                "external_type": "",
                "is_public": true,
                "public_url_shared": false,
                "display_as_bot": false,
                "username": "",
                "url_private": "https:\/\/files.slack.com\/files-pri\/TUU48M0T1-F012UQW37FC\/image_from_ios.jpg?t=xoxe-980144714919-1106606678066-1105227127893-6f722bb664235052954ad46852628b64",
                "url_private_download": "https:\/\/files.slack.com\/files-pri\/TUU48M0T1-F012UQW37FC\/download\/image_from_ios.jpg?t=xoxe-980144714919-1106606678066-1105227127893-6f722bb664235052954ad46852628b64",
                "thumb_64": "https:\/\/files.slack.com\/files-tmb\/TUU48M0T1-F012UQW37FC-d9a1a9b2cc\/image_from_ios_64.jpg?t=xoxe-980144714919-1106606678066-1105227127893-6f722bb664235052954ad46852628b64",
                "thumb_80": "https:\/\/files.slack.com\/files-tmb\/TUU48M0T1-F012UQW37FC-d9a1a9b2cc\/image_from_ios_80.jpg?t=xoxe-980144714919-1106606678066-1105227127893-6f722bb664235052954ad46852628b64",
                "thumb_360": "https:\/\/files.slack.com\/files-tmb\/TUU48M0T1-F012UQW37FC-d9a1a9b2cc\/image_from_ios_360.jpg?t=xoxe-980144714919-1106606678066-1105227127893-6f722bb664235052954ad46852628b64",
                "thumb_360_w": 281,
                "thumb_360_h": 360,
                "thumb_480": "https:\/\/files.slack.com\/files-tmb\/TUU48M0T1-F012UQW37FC-d9a1a9b2cc\/image_from_ios_480.jpg?t=xoxe-980144714919-1106606678066-1105227127893-6f722bb664235052954ad46852628b64",
                "thumb_480_w": 375,
                "thumb_480_h": 480,
                "thumb_160": "https:\/\/files.slack.com\/files-tmb\/TUU48M0T1-F012UQW37FC-d9a1a9b2cc\/image_from_ios_160.jpg?t=xoxe-980144714919-1106606678066-1105227127893-6f722bb664235052954ad46852628b64",
                "thumb_720": "https:\/\/files.slack.com\/files-tmb\/TUU48M0T1-F012UQW37FC-d9a1a9b2cc\/image_from_ios_720.jpg?t=xoxe-980144714919-1106606678066-1105227127893-6f722bb664235052954ad46852628b64",
                "thumb_720_w": 562,
                "thumb_720_h": 720,
                "thumb_800": "https:\/\/files.slack.com\/files-tmb\/TUU48M0T1-F012UQW37FC-d9a1a9b2cc\/image_from_ios_800.jpg?t=xoxe-980144714919-1106606678066-1105227127893-6f722bb664235052954ad46852628b64",
                "thumb_800_w": 800,
                "thumb_800_h": 1024,
                "thumb_960": "https:\/\/files.slack.com\/files-tmb\/TUU48M0T1-F012UQW37FC-d9a1a9b2cc\/image_from_ios_960.jpg?t=xoxe-980144714919-1106606678066-1105227127893-6f722bb664235052954ad46852628b64",
                "thumb_960_w": 750,
                "thumb_960_h": 960,
                "thumb_1024": "https:\/\/files.slack.com\/files-tmb\/TUU48M0T1-F012UQW37FC-d9a1a9b2cc\/image_from_ios_1024.jpg?t=xoxe-980144714919-1106606678066-1105227127893-6f722bb664235052954ad46852628b64",
                "thumb_1024_w": 800,
                "thumb_1024_h": 1024,
                "original_w": 3344,
                "original_h": 4281,
                "thumb_tiny": "AwAwACWh\/WrsUCJH86gn3qG0j3PuI4FTSMGmCZ+XGTUN62KSEcW54XAb2pvllgq44qecRNFkBQw5GKS2YOhU9ulNu2oWG+XgdM0bB6VKQucA9KMD1pcwWGxKY4lAHOOagViLobgASuMGpfNZiMHH0p1zCsgjU\/6zrkdhSQ2JIxEZLIBgdarQuQvBxkYpbnAO3JJHXJ6UWoDShTVdBdSQmkzT5E8tsZ4PSm5HrWRY6IDfzzipZmEKNIMl3wBntUMfUn0qaQLImG6VvFaGcnqZ7HJqS1yJgalktuBsp0cIQnJ5FNRE2WDtPVQaTan90Uwt70m76VVkTdn\/2Q==",
                "permalink": "https:\/\/open-covid19.slack.com\/files\/UV0QTJCMT\/F012UQW37FC\/image_from_ios.jpg",
                "permalink_public": "https:\/\/slack-files.com\/TUU48M0T1-F012UQW37FC-9596410e2a",
                "is_starred": false,
                "has_rich_preview": false
            }
        ],
        "upload": true,
        "blocks": [
            {
                "type": "rich_text",
                "block_id": "FSxj",
                "elements": [
                    {
                        "type": "rich_text_section",
                        "elements": [
                            {
                                "type": "text",
                                "text": "here’s mine"
                            }
                        ]
                    }
                ]
            }
        ],
        "user": "UV0QTJCMT",
        "display_as_bot": false,
        "ts": "1588263960.199000",
        "client_msg_id": "5916B6C2-4323-4486-B6BD-70682997EEFB",
        "thread_ts": "1588254075.198700",
        "parent_user_id": "U011B6VLM2A"
    },
    {
        "type": "message",
        "text": "and here’s zach’s ",
        "files": [
            {
                "id": "F0137DWNL9X",
                "created": 1588264028,
                "timestamp": 1588264028,
                "name": "Image from iOS.jpg",
                "title": "Image from iOS",
                "mimetype": "image\/jpeg",
                "filetype": "jpg",
                "pretty_type": "JPEG",
                "user": "UV0QTJCMT",
                "editable": false,
                "size": 167210,
                "mode": "hosted",
                "is_external": false,
                "external_type": "",
                "is_public": true,
                "public_url_shared": false,
                "display_as_bot": false,
                "username": "",
                "url_private": "https:\/\/files.slack.com\/files-pri\/TUU48M0T1-F0137DWNL9X\/image_from_ios.jpg?t=xoxe-980144714919-1106606678066-1105227127893-6f722bb664235052954ad46852628b64",
                "url_private_download": "https:\/\/files.slack.com\/files-pri\/TUU48M0T1-F0137DWNL9X\/download\/image_from_ios.jpg?t=xoxe-980144714919-1106606678066-1105227127893-6f722bb664235052954ad46852628b64",
                "thumb_64": "https:\/\/files.slack.com\/files-tmb\/TUU48M0T1-F0137DWNL9X-329cda9a2d\/image_from_ios_64.jpg?t=xoxe-980144714919-1106606678066-1105227127893-6f722bb664235052954ad46852628b64",
                "thumb_80": "https:\/\/files.slack.com\/files-tmb\/TUU48M0T1-F0137DWNL9X-329cda9a2d\/image_from_ios_80.jpg?t=xoxe-980144714919-1106606678066-1105227127893-6f722bb664235052954ad46852628b64",
                "thumb_360": "https:\/\/files.slack.com\/files-tmb\/TUU48M0T1-F0137DWNL9X-329cda9a2d\/image_from_ios_360.jpg?t=xoxe-980144714919-1106606678066-1105227127893-6f722bb664235052954ad46852628b64",
                "thumb_360_w": 260,
                "thumb_360_h": 360,
                "thumb_480": "https:\/\/files.slack.com\/files-tmb\/TUU48M0T1-F0137DWNL9X-329cda9a2d\/image_from_ios_480.jpg?t=xoxe-980144714919-1106606678066-1105227127893-6f722bb664235052954ad46852628b64",
                "thumb_480_w": 347,
                "thumb_480_h": 480,
                "thumb_160": "https:\/\/files.slack.com\/files-tmb\/TUU48M0T1-F0137DWNL9X-329cda9a2d\/image_from_ios_160.jpg?t=xoxe-980144714919-1106606678066-1105227127893-6f722bb664235052954ad46852628b64",
                "thumb_720": "https:\/\/files.slack.com\/files-tmb\/TUU48M0T1-F0137DWNL9X-329cda9a2d\/image_from_ios_720.jpg?t=xoxe-980144714919-1106606678066-1105227127893-6f722bb664235052954ad46852628b64",
                "thumb_720_w": 520,
                "thumb_720_h": 720,
                "thumb_800": "https:\/\/files.slack.com\/files-tmb\/TUU48M0T1-F0137DWNL9X-329cda9a2d\/image_from_ios_800.jpg?t=xoxe-980144714919-1106606678066-1105227127893-6f722bb664235052954ad46852628b64",
                "thumb_800_w": 800,
                "thumb_800_h": 1108,
                "thumb_960": "https:\/\/files.slack.com\/files-tmb\/TUU48M0T1-F0137DWNL9X-329cda9a2d\/image_from_ios_960.jpg?t=xoxe-980144714919-1106606678066-1105227127893-6f722bb664235052954ad46852628b64",
                "thumb_960_w": 693,
                "thumb_960_h": 960,
                "thumb_1024": "https:\/\/files.slack.com\/files-tmb\/TUU48M0T1-F0137DWNL9X-329cda9a2d\/image_from_ios_1024.jpg?t=xoxe-980144714919-1106606678066-1105227127893-6f722bb664235052954ad46852628b64",
                "thumb_1024_w": 739,
                "thumb_1024_h": 1024,
                "original_w": 963,
                "original_h": 1334,
                "thumb_tiny": "AwAwACLMp6R7qavWrWAqqCD0oGkRNAQu4dKhIxWorDHlFT061RuAAfRgSCKSG0Q0UUUyRVIDAkZFXN4MYI5zVKrEassasPxoGi6koIBIwcVn3EgkkyowP51bjDSBQc7R61RdGQ4YUkOQ2iiimSPxzgVLG5QbWGVpijvUiIXbaoyaYEonwu1Bg+pqM\/d9qV43jxvGM+9N6igLieWnpR5aelN344o8ygD\/2Q==",
                "permalink": "https:\/\/open-covid19.slack.com\/files\/UV0QTJCMT\/F0137DWNL9X\/image_from_ios.jpg",
                "permalink_public": "https:\/\/slack-files.com\/TUU48M0T1-F0137DWNL9X-45e3332cd1",
                "is_starred": false,
                "has_rich_preview": false
            }
        ],
        "upload": true,
        "blocks": [
            {
                "type": "rich_text",
                "block_id": "IZC4",
                "elements": [
                    {
                        "type": "rich_text_section",
                        "elements": [
                            {
                                "type": "text",
                                "text": "and here’s zach’s "
                            }
                        ]
                    }
                ]
            }
        ],
        "user": "UV0QTJCMT",
        "display_as_bot": false,
        "ts": "1588264031.199500",
        "client_msg_id": "B1222F57-78C2-4379-A66C-8CA9EA65BDAF",
        "thread_ts": "1588254075.198700",
        "parent_user_id": "U011B6VLM2A"
    },
    {
        "client_msg_id": "F53934EF-2128-40E4-91E5-9F03A97760C0",
        "type": "message",
        "text": "<@U011B6VLM2A> all of their headshots should be in a folder in the drive. i forget what it’s called but if you search “biosafety board” you’ll probably find it",
        "user": "UV0QTJCMT",
        "ts": "1588264086.200800",
        "team": "TUU48M0T1",
        "user_team": "TUU48M0T1",
        "source_team": "TUU48M0T1",
        "user_profile": {
            "avatar_hash": "06a6ae8f69d1",
            "image_72": "https:\/\/avatars.slack-edge.com\/2020-04-13\/1060635499315_06a6ae8f69d18f1ad464_72.png",
            "first_name": "Katherine",
            "real_name": "Katherine Holo",
            "display_name": "Kat Holo - Co-Organizer of OpenCOVID19",
            "team": "TUU48M0T1",
            "name": "katherineh245",
            "is_restricted": false,
            "is_ultra_restricted": false
        },
        "blocks": [
            {
                "type": "rich_text",
                "block_id": "Zpgy0",
                "elements": [
                    {
                        "type": "rich_text_section",
                        "elements": [
                            {
                                "type": "user",
                                "user_id": "U011B6VLM2A"
                            },
                            {
                                "type": "text",
                                "text": " all of their headshots should be in a folder in the drive. i forget what it’s called but if you search “biosafety board” you’ll probably find it"
                            }
                        ]
                    }
                ]
            }
        ],
        "thread_ts": "1588253038.198500",
        "parent_user_id": "U011B6VLM2A"
    },
    {
        "client_msg_id": "13841fd6-c4b1-45ae-aa0c-5d0a09e797df",
        "type": "message",
        "text": "<@UV9V03C8Y> <@UV87UQ37A> <@U010Q3372P3> Hi Team, I'm under the weather again and I will try my best but most likely not be able to attend the governance meeting today. However I have some feedback on the holacracy model....I'd like to understand the rationale for the placement of comms. Comms should be first in line to any marketing\/engagment we have with our audience. We are trying to grow awareness of our brand\/program, we want to make sure our program messaging is consistent with all marketing initiatives we're pushing to prospective community members...it's critical they comms has oversight into any initiative that is in any way comms related...would love to hear thoughts...and I will do my best to attend the meeting, if not - would love to hear thoughts.",
        "user": "U011VF29MK2",
        "ts": "1588264827.208500",
        "team": "TUU48M0T1",
        "user_team": "TUU48M0T1",
        "source_team": "TUU48M0T1",
        "user_profile": {
            "avatar_hash": "0ef0287e69f4",
            "image_72": "https:\/\/avatars.slack-edge.com\/2020-04-07\/1045707527815_0ef0287e69f4d3296eaf_72.jpg",
            "first_name": "Catherine",
            "real_name": "Catherine Coykendall",
            "display_name": "Catherine Coykendall - Marketing Consultant",
            "team": "TUU48M0T1",
            "name": "c.coyken1978",
            "is_restricted": false,
            "is_ultra_restricted": false
        },
        "blocks": [
            {
                "type": "rich_text",
                "block_id": "8sbs",
                "elements": [
                    {
                        "type": "rich_text_section",
                        "elements": [
                            {
                                "type": "user",
                                "user_id": "UV9V03C8Y"
                            },
                            {
                                "type": "text",
                                "text": " "
                            },
                            {
                                "type": "user",
                                "user_id": "UV87UQ37A"
                            },
                            {
                                "type": "text",
                                "text": " "
                            },
                            {
                                "type": "user",
                                "user_id": "U010Q3372P3"
                            },
                            {
                                "type": "text",
                                "text": " Hi Team, I'm under the weather again and I will try my best but most likely not be able to attend the governance meeting today. However I have some feedback on the holacracy model....I'd like to understand the rationale for the placement of comms. Comms should be first in line to any marketing\/engagment we have with our audience. We are trying to grow awareness of our brand\/program, we want to make sure our program messaging is consistent with all marketing initiatives we're pushing to prospective community members...it's critical they comms has oversight into any initiative that is in any way comms related...would love to hear thoughts...and I will do my best to attend the meeting, if not - would love to hear thoughts."
                            }
                        ]
                    }
                ]
            }
        ],
        "thread_ts": "1588264827.208500",
        "reply_count": 9,
        "reply_users_count": 3,
        "latest_reply": "1588290114.215900",
        "reply_users": [
            "UV9V03C8Y",
            "U011VF29MK2",
            "UV87UQ37A"
        ],
        "replies": [
            {
                "user": "UV9V03C8Y",
                "ts": "1588266044.208600"
            },
            {
                "user": "U011VF29MK2",
                "ts": "1588269312.209000"
            },
            {
                "user": "UV87UQ37A",
                "ts": "1588271823.210100"
            },
            {
                "user": "UV87UQ37A",
                "ts": "1588271878.210300"
            },
            {
                "user": "UV87UQ37A",
                "ts": "1588271951.210500"
            },
            {
                "user": "UV87UQ37A",
                "ts": "1588271984.210700"
            },
            {
                "user": "UV87UQ37A",
                "ts": "1588271987.210900"
            },
            {
                "user": "UV87UQ37A",
                "ts": "1588272010.211100"
            },
            {
                "user": "U011VF29MK2",
                "ts": "1588290114.215900"
            }
        ],
        "subscribed": false
    },
    {
        "client_msg_id": "0f33de62-82d4-4145-9a04-3c4d6ca435ed",
        "type": "message",
        "text": "Hey <@U011VF29MK2>, it's probably my english but could you please explain to me what you mean by \"I'd like to understand the rationale for the placement of comms\" ? And, are you referring to the slide published by Victoria? I'm happy to present the concept of holocratia :slightly_smiling_face:",
        "user": "UV9V03C8Y",
        "ts": "1588266044.208600",
        "team": "TUU48M0T1",
        "user_team": "TUU48M0T1",
        "source_team": "TUU48M0T1",
        "user_profile": {
            "avatar_hash": "177697fb7b8f",
            "image_72": "https:\/\/avatars.slack-edge.com\/2020-03-12\/996126178096_177697fb7b8ffa57649c_72.jpg",
            "first_name": "Camille",
            "real_name": "Camille Masselot - JOGL Program coordinator",
            "display_name": "Camille Masselot - JOGL coordinator",
            "team": "TUU48M0T1",
            "name": "masselot.camille",
            "is_restricted": false,
            "is_ultra_restricted": false
        },
        "blocks": [
            {
                "type": "rich_text",
                "block_id": "6J\/Q",
                "elements": [
                    {
                        "type": "rich_text_section",
                        "elements": [
                            {
                                "type": "text",
                                "text": "Hey "
                            },
                            {
                                "type": "user",
                                "user_id": "U011VF29MK2"
                            },
                            {
                                "type": "text",
                                "text": ", it's probably my english but could you please explain to me what you mean by \"I'd like to understand the rationale for the placement of comms\" ? And, are you referring to the slide published by Victoria? I'm happy to present the concept of holocratia "
                            },
                            {
                                "type": "emoji",
                                "name": "slightly_smiling_face"
                            }
                        ]
                    }
                ]
            }
        ],
        "thread_ts": "1588264827.208500",
        "parent_user_id": "U011VF29MK2"
    },
    {
        "client_msg_id": "fec98144-f868-4173-b98c-e09872539cb6",
        "type": "message",
        "text": "yes, we gave them already, but <@U011B6VLM2A> let us know if you can't find it.",
        "user": "UV1A22N3W",
        "ts": "1588268672.208800",
        "team": "TUU48M0T1",
        "user_team": "TUU48M0T1",
        "source_team": "TUU48M0T1",
        "user_profile": {
            "avatar_hash": "71f827776ad6",
            "image_72": "https:\/\/avatars.slack-edge.com\/2020-03-09\/988125642964_71f827776ad610af05a2_72.jpg",
            "first_name": "",
            "real_name": "RachelA",
            "display_name": "RachelA",
            "team": "TUU48M0T1",
            "name": "raronoff",
            "is_restricted": false,
            "is_ultra_restricted": false
        },
        "blocks": [
            {
                "type": "rich_text",
                "block_id": "RL1+",
                "elements": [
                    {
                        "type": "rich_text_section",
                        "elements": [
                            {
                                "type": "text",
                                "text": "yes, we gave them already, but "
                            },
                            {
                                "type": "user",
                                "user_id": "U011B6VLM2A"
                            },
                            {
                                "type": "text",
                                "text": " let us know if you can't find it."
                            }
                        ]
                    }
                ]
            }
        ],
        "thread_ts": "1588253038.198500",
        "parent_user_id": "U011B6VLM2A"
    },
    {
        "client_msg_id": "f1fae843-ae8a-4610-aac5-242761832990",
        "type": "message",
        "text": "Hi! and yep, you're right on :slightly_smiling_face: Tackling my questions here is probably going to be confusing, and also perhaps I'm mis-reading the structure, so I'll do my best to be on the call.",
        "user": "U011VF29MK2",
        "ts": "1588269312.209000",
        "team": "TUU48M0T1",
        "user_team": "TUU48M0T1",
        "source_team": "TUU48M0T1",
        "user_profile": {
            "avatar_hash": "0ef0287e69f4",
            "image_72": "https:\/\/avatars.slack-edge.com\/2020-04-07\/1045707527815_0ef0287e69f4d3296eaf_72.jpg",
            "first_name": "Catherine",
            "real_name": "Catherine Coykendall",
            "display_name": "Catherine Coykendall - Marketing Consultant",
            "team": "TUU48M0T1",
            "name": "c.coyken1978",
            "is_restricted": false,
            "is_ultra_restricted": false
        },
        "blocks": [
            {
                "type": "rich_text",
                "block_id": "Eolw",
                "elements": [
                    {
                        "type": "rich_text_section",
                        "elements": [
                            {
                                "type": "text",
                                "text": "Hi! and yep, you're right on "
                            },
                            {
                                "type": "emoji",
                                "name": "slightly_smiling_face"
                            },
                            {
                                "type": "text",
                                "text": " Tackling my questions here is probably going to be confusing, and also perhaps I'm mis-reading the structure, so I'll do my best to be on the call."
                            }
                        ]
                    }
                ]
            }
        ],
        "thread_ts": "1588264827.208500",
        "parent_user_id": "U011VF29MK2"
    },
    {
        "type": "message",
        "text": "",
        "files": [
            {
                "id": "F012V90TEBD",
                "created": 1588269418,
                "timestamp": 1588269418,
                "name": "38926CC0-2239-4B71-9E3B-C90A735A7D34.jpeg",
                "title": "38926CC0-2239-4B71-9E3B-C90A735A7D34.jpeg",
                "mimetype": "image\/jpeg",
                "filetype": "jpg",
                "pretty_type": "JPEG",
                "user": "UV02WET96",
                "editable": false,
                "size": 451782,
                "mode": "hosted",
                "is_external": false,
                "external_type": "",
                "is_public": true,
                "public_url_shared": false,
                "display_as_bot": false,
                "username": "",
                "url_private": "https:\/\/files.slack.com\/files-pri\/TUU48M0T1-F012V90TEBD\/38926cc0-2239-4b71-9e3b-c90a735a7d34.jpeg?t=xoxe-980144714919-1106606678066-1105227127893-6f722bb664235052954ad46852628b64",
                "url_private_download": "https:\/\/files.slack.com\/files-pri\/TUU48M0T1-F012V90TEBD\/download\/38926cc0-2239-4b71-9e3b-c90a735a7d34.jpeg?t=xoxe-980144714919-1106606678066-1105227127893-6f722bb664235052954ad46852628b64",
                "thumb_64": "https:\/\/files.slack.com\/files-tmb\/TUU48M0T1-F012V90TEBD-2ae214bec4\/38926cc0-2239-4b71-9e3b-c90a735a7d34_64.jpg?t=xoxe-980144714919-1106606678066-1105227127893-6f722bb664235052954ad46852628b64",
                "thumb_80": "https:\/\/files.slack.com\/files-tmb\/TUU48M0T1-F012V90TEBD-2ae214bec4\/38926cc0-2239-4b71-9e3b-c90a735a7d34_80.jpg?t=xoxe-980144714919-1106606678066-1105227127893-6f722bb664235052954ad46852628b64",
                "thumb_360": "https:\/\/files.slack.com\/files-tmb\/TUU48M0T1-F012V90TEBD-2ae214bec4\/38926cc0-2239-4b71-9e3b-c90a735a7d34_360.jpg?t=xoxe-980144714919-1106606678066-1105227127893-6f722bb664235052954ad46852628b64",
                "thumb_360_w": 360,
                "thumb_360_h": 262,
                "thumb_480": "https:\/\/files.slack.com\/files-tmb\/TUU48M0T1-F012V90TEBD-2ae214bec4\/38926cc0-2239-4b71-9e3b-c90a735a7d34_480.jpg?t=xoxe-980144714919-1106606678066-1105227127893-6f722bb664235052954ad46852628b64",
                "thumb_480_w": 480,
                "thumb_480_h": 349,
                "thumb_160": "https:\/\/files.slack.com\/files-tmb\/TUU48M0T1-F012V90TEBD-2ae214bec4\/38926cc0-2239-4b71-9e3b-c90a735a7d34_160.jpg?t=xoxe-980144714919-1106606678066-1105227127893-6f722bb664235052954ad46852628b64",
                "thumb_720": "https:\/\/files.slack.com\/files-tmb\/TUU48M0T1-F012V90TEBD-2ae214bec4\/38926cc0-2239-4b71-9e3b-c90a735a7d34_720.jpg?t=xoxe-980144714919-1106606678066-1105227127893-6f722bb664235052954ad46852628b64",
                "thumb_720_w": 720,
                "thumb_720_h": 523,
                "thumb_800": "https:\/\/files.slack.com\/files-tmb\/TUU48M0T1-F012V90TEBD-2ae214bec4\/38926cc0-2239-4b71-9e3b-c90a735a7d34_800.jpg?t=xoxe-980144714919-1106606678066-1105227127893-6f722bb664235052954ad46852628b64",
                "thumb_800_w": 800,
                "thumb_800_h": 581,
                "thumb_960": "https:\/\/files.slack.com\/files-tmb\/TUU48M0T1-F012V90TEBD-2ae214bec4\/38926cc0-2239-4b71-9e3b-c90a735a7d34_960.jpg?t=xoxe-980144714919-1106606678066-1105227127893-6f722bb664235052954ad46852628b64",
                "thumb_960_w": 960,
                "thumb_960_h": 698,
                "thumb_1024": "https:\/\/files.slack.com\/files-tmb\/TUU48M0T1-F012V90TEBD-2ae214bec4\/38926cc0-2239-4b71-9e3b-c90a735a7d34_1024.jpg?t=xoxe-980144714919-1106606678066-1105227127893-6f722bb664235052954ad46852628b64",
                "thumb_1024_w": 1024,
                "thumb_1024_h": 744,
                "original_w": 2048,
                "original_h": 1488,
                "thumb_tiny": "AwAiADDTpCQoJPQUtR3Cs8DqvUjigChNqRLYiGAPUc1NaX3nNskwGPTHeq0G1I1BU7jz0zThGJJ4WjQr83PGPelcdjUooopiGMxMZKdccZqOEskZMsgIPP0qv5jAY3HFVpZS425O3sKFqDCS4zI2xsLnIq7ZMXyxIIHArLAG4buRVqRTA6yQtgHg0W1C+hq0VnxXPmDDA7hzxT\/NYLsG75vXrSegDH+630qj3q8\/3W+lUe9VETAf1q5c\/wCoH0FU\/wDGrlx\/x7j6CmwK9ucS\/gavxf8AHwv+5Wfb\/wCt\/CtCL\/j4H+4Kme4I\/9k=",
                "permalink": "https:\/\/open-covid19.slack.com\/files\/UV02WET96\/F012V90TEBD\/38926cc0-2239-4b71-9e3b-c90a735a7d34.jpeg",
                "permalink_public": "https:\/\/slack-files.com\/TUU48M0T1-F012V90TEBD-9135165640",
                "is_starred": false,
                "has_rich_preview": false
            }
        ],
        "upload": true,
        "user": "UV02WET96",
        "display_as_bot": false,
        "ts": "1588269421.209200",
        "client_msg_id": "957caa8b-61eb-4e93-9fb4-4d15b671f0ee",
        "thread_ts": "1588254075.198700",
        "parent_user_id": "U011B6VLM2A"
    },
    {
        "client_msg_id": "045322d6-5751-4148-9669-1cf96b574451",
        "type": "message",
        "text": "Great! Found them, thanks! Looks like the only one missing is <@UV8Q23Y1K> — if you could plz send it to me by PM or on this thread, that’d be great!",
        "user": "U011B6VLM2A",
        "ts": "1588271369.209700",
        "team": "TUU48M0T1",
        "user_team": "TUU48M0T1",
        "source_team": "TUU48M0T1",
        "user_profile": {
            "avatar_hash": "4231dc598cfc",
            "image_72": "https:\/\/avatars.slack-edge.com\/2020-04-02\/1044784558839_4231dc598cfc2e59c4c4_72.jpg",
            "first_name": "Alix",
            "real_name": "Alix Mains",
            "display_name": "Alix Mains - JOGL Coordinator",
            "team": "TUU48M0T1",
            "name": "alixhmains",
            "is_restricted": false,
            "is_ultra_restricted": false
        },
        "blocks": [
            {
                "type": "rich_text",
                "block_id": "WbOW",
                "elements": [
                    {
                        "type": "rich_text_section",
                        "elements": [
                            {
                                "type": "text",
                                "text": "Great! Found them, thanks! Looks like the only one missing is "
                            },
                            {
                                "type": "user",
                                "user_id": "UV8Q23Y1K"
                            },
                            {
                                "type": "text",
                                "text": " — if you could plz send it to me by PM or on this thread, that’d be great!"
                            }
                        ]
                    }
                ]
            }
        ],
        "thread_ts": "1588253038.198500",
        "parent_user_id": "U011B6VLM2A"
    },
    {
        "client_msg_id": "fe82ede6-ff6a-411b-8202-c17c19501cee",
        "type": "message",
        "text": ":+1::ok_hand:",
        "user": "U011B6VLM2A",
        "ts": "1588271464.209900",
        "team": "TUU48M0T1",
        "user_team": "TUU48M0T1",
        "source_team": "TUU48M0T1",
        "user_profile": {
            "avatar_hash": "4231dc598cfc",
            "image_72": "https:\/\/avatars.slack-edge.com\/2020-04-02\/1044784558839_4231dc598cfc2e59c4c4_72.jpg",
            "first_name": "Alix",
            "real_name": "Alix Mains",
            "display_name": "Alix Mains - JOGL Coordinator",
            "team": "TUU48M0T1",
            "name": "alixhmains",
            "is_restricted": false,
            "is_ultra_restricted": false
        },
        "blocks": [
            {
                "type": "rich_text",
                "block_id": "DQR",
                "elements": [
                    {
                        "type": "rich_text_section",
                        "elements": [
                            {
                                "type": "emoji",
                                "name": "+1"
                            },
                            {
                                "type": "emoji",
                                "name": "ok_hand"
                            }
                        ]
                    }
                ]
            }
        ],
        "thread_ts": "1588254075.198700",
        "parent_user_id": "U011B6VLM2A"
    },
    {
        "client_msg_id": "936d5d87-9350-4c22-bb52-50c26b8c9dac",
        "type": "message",
        "text": "it helps to understand there is no hierarchy implied with a circular model -- we are all inside the organism, so to speak",
        "user": "UV87UQ37A",
        "ts": "1588271823.210100",
        "team": "TUU48M0T1",
        "user_team": "TUU48M0T1",
        "source_team": "TUU48M0T1",
        "user_profile": {
            "avatar_hash": "g7c78d2f0258",
            "image_72": "https:\/\/secure.gravatar.com\/avatar\/7c78d2f0258f7bdf78a86301cfd6b712.jpg?s=72&d=https%3A%2F%2Fa.slack-edge.com%2Fdf10d%2Fimg%2Favatars%2Fava_0014-72.png",
            "first_name": "Victoria",
            "real_name": "Victoria Costa",
            "display_name": "Victoria Costa",
            "team": "TUU48M0T1",
            "name": "victorycoast",
            "is_restricted": false,
            "is_ultra_restricted": false
        },
        "blocks": [
            {
                "type": "rich_text",
                "block_id": "0G2O",
                "elements": [
                    {
                        "type": "rich_text_section",
                        "elements": [
                            {
                                "type": "text",
                                "text": "it helps to understand there is no hierarchy implied with a circular model -- we are all inside the organism, so to speak"
                            }
                        ]
                    }
                ]
            }
        ],
        "thread_ts": "1588264827.208500",
        "parent_user_id": "U011VF29MK2"
    },
    {
        "client_msg_id": "ba09eebb-b5b3-4c0c-ba6e-9716ce174a5b",
        "type": "message",
        "text": "I am concerned by the use of oversight, though I understand what you mean when you use it and don't disagree",
        "user": "UV87UQ37A",
        "ts": "1588271878.210300",
        "team": "TUU48M0T1",
        "user_team": "TUU48M0T1",
        "source_team": "TUU48M0T1",
        "user_profile": {
            "avatar_hash": "g7c78d2f0258",
            "image_72": "https:\/\/secure.gravatar.com\/avatar\/7c78d2f0258f7bdf78a86301cfd6b712.jpg?s=72&d=https%3A%2F%2Fa.slack-edge.com%2Fdf10d%2Fimg%2Favatars%2Fava_0014-72.png",
            "first_name": "Victoria",
            "real_name": "Victoria Costa",
            "display_name": "Victoria Costa",
            "team": "TUU48M0T1",
            "name": "victorycoast",
            "is_restricted": false,
            "is_ultra_restricted": false
        },
        "blocks": [
            {
                "type": "rich_text",
                "block_id": "gpvlB",
                "elements": [
                    {
                        "type": "rich_text_section",
                        "elements": [
                            {
                                "type": "text",
                                "text": "I am concerned by the use of oversight, though I understand what you mean when you use it and don't disagree"
                            }
                        ]
                    }
                ]
            }
        ],
        "thread_ts": "1588264827.208500",
        "parent_user_id": "U011VF29MK2"
    },
    {
        "client_msg_id": "32a627df-5bc6-4a43-8246-3051e25732e6",
        "type": "message",
        "text": "I do think the \"brand strategy\" should not perfectly reflect corporate process, though there are pragmatic strategies that should be implemented here",
        "user": "UV87UQ37A",
        "ts": "1588271951.210500",
        "team": "TUU48M0T1",
        "user_team": "TUU48M0T1",
        "source_team": "TUU48M0T1",
        "user_profile": {
            "avatar_hash": "g7c78d2f0258",
            "image_72": "https:\/\/secure.gravatar.com\/avatar\/7c78d2f0258f7bdf78a86301cfd6b712.jpg?s=72&d=https%3A%2F%2Fa.slack-edge.com%2Fdf10d%2Fimg%2Favatars%2Fava_0014-72.png",
            "first_name": "Victoria",
            "real_name": "Victoria Costa",
            "display_name": "Victoria Costa",
            "team": "TUU48M0T1",
            "name": "victorycoast",
            "is_restricted": false,
            "is_ultra_restricted": false
        },
        "blocks": [
            {
                "type": "rich_text",
                "block_id": "Claf",
                "elements": [
                    {
                        "type": "rich_text_section",
                        "elements": [
                            {
                                "type": "text",
                                "text": "I do think the \"brand strategy\" should not perfectly reflect corporate process, though there are pragmatic strategies that should be implemented here"
                            }
                        ]
                    }
                ]
            }
        ],
        "thread_ts": "1588264827.208500",
        "parent_user_id": "U011VF29MK2"
    },
    {
        "client_msg_id": "0eca81b6-484d-4888-8f72-e001e0d59d16",
        "type": "message",
        "text": "and because of the nature of our team and project structures, the best the comms team can do is outline best practice -- not have oversight",
        "user": "UV87UQ37A",
        "ts": "1588271984.210700",
        "team": "TUU48M0T1",
        "user_team": "TUU48M0T1",
        "source_team": "TUU48M0T1",
        "user_profile": {
            "avatar_hash": "g7c78d2f0258",
            "image_72": "https:\/\/secure.gravatar.com\/avatar\/7c78d2f0258f7bdf78a86301cfd6b712.jpg?s=72&d=https%3A%2F%2Fa.slack-edge.com%2Fdf10d%2Fimg%2Favatars%2Fava_0014-72.png",
            "first_name": "Victoria",
            "real_name": "Victoria Costa",
            "display_name": "Victoria Costa",
            "team": "TUU48M0T1",
            "name": "victorycoast",
            "is_restricted": false,
            "is_ultra_restricted": false
        },
        "blocks": [
            {
                "type": "rich_text",
                "block_id": "xqC2n",
                "elements": [
                    {
                        "type": "rich_text_section",
                        "elements": [
                            {
                                "type": "text",
                                "text": "and because of the nature of our team and project structures, the best the comms team can do is outline best practice -- not have oversight"
                            }
                        ]
                    }
                ]
            }
        ],
        "thread_ts": "1588264827.208500",
        "parent_user_id": "U011VF29MK2"
    },
    {
        "client_msg_id": "19b1ddb3-7740-4832-9588-6d2f928a3411",
        "type": "message",
        "text": "we should talk more!",
        "user": "UV87UQ37A",
        "ts": "1588271987.210900",
        "team": "TUU48M0T1",
        "user_team": "TUU48M0T1",
        "source_team": "TUU48M0T1",
        "user_profile": {
            "avatar_hash": "g7c78d2f0258",
            "image_72": "https:\/\/secure.gravatar.com\/avatar\/7c78d2f0258f7bdf78a86301cfd6b712.jpg?s=72&d=https%3A%2F%2Fa.slack-edge.com%2Fdf10d%2Fimg%2Favatars%2Fava_0014-72.png",
            "first_name": "Victoria",
            "real_name": "Victoria Costa",
            "display_name": "Victoria Costa",
            "team": "TUU48M0T1",
            "name": "victorycoast",
            "is_restricted": false,
            "is_ultra_restricted": false
        },
        "blocks": [
            {
                "type": "rich_text",
                "block_id": "MfXqP",
                "elements": [
                    {
                        "type": "rich_text_section",
                        "elements": [
                            {
                                "type": "text",
                                "text": "we should talk more!"
                            }
                        ]
                    }
                ]
            }
        ],
        "thread_ts": "1588264827.208500",
        "parent_user_id": "U011VF29MK2"
    },
    {
        "client_msg_id": "b3cf115d-db55-4fd5-8f8c-330b83626018",
        "type": "message",
        "text": "if not today at the meeting, let's try to connect one on one sometime before the next governance meeting",
        "user": "UV87UQ37A",
        "ts": "1588272010.211100",
        "team": "TUU48M0T1",
        "user_team": "TUU48M0T1",
        "source_team": "TUU48M0T1",
        "user_profile": {
            "avatar_hash": "g7c78d2f0258",
            "image_72": "https:\/\/secure.gravatar.com\/avatar\/7c78d2f0258f7bdf78a86301cfd6b712.jpg?s=72&d=https%3A%2F%2Fa.slack-edge.com%2Fdf10d%2Fimg%2Favatars%2Fava_0014-72.png",
            "first_name": "Victoria",
            "real_name": "Victoria Costa",
            "display_name": "Victoria Costa",
            "team": "TUU48M0T1",
            "name": "victorycoast",
            "is_restricted": false,
            "is_ultra_restricted": false
        },
        "blocks": [
            {
                "type": "rich_text",
                "block_id": "k=IgI",
                "elements": [
                    {
                        "type": "rich_text_section",
                        "elements": [
                            {
                                "type": "text",
                                "text": "if not today at the meeting, let's try to connect one on one sometime before the next governance meeting"
                            }
                        ]
                    }
                ]
            }
        ],
        "thread_ts": "1588264827.208500",
        "parent_user_id": "U011VF29MK2"
    },
    {
        "client_msg_id": "8073fde1-1939-4c26-8f1e-ea984c621466",
        "type": "message",
        "text": "is the marketing strategy here educational or product focused? I take very different steps for Cool Anthropology than I did for my business.",
        "user": "UV87UQ37A",
        "ts": "1588272204.211500",
        "team": "TUU48M0T1",
        "user_team": "TUU48M0T1",
        "source_team": "TUU48M0T1",
        "user_profile": {
            "avatar_hash": "g7c78d2f0258",
            "image_72": "https:\/\/secure.gravatar.com\/avatar\/7c78d2f0258f7bdf78a86301cfd6b712.jpg?s=72&d=https%3A%2F%2Fa.slack-edge.com%2Fdf10d%2Fimg%2Favatars%2Fava_0014-72.png",
            "first_name": "Victoria",
            "real_name": "Victoria Costa",
            "display_name": "Victoria Costa",
            "team": "TUU48M0T1",
            "name": "victorycoast",
            "is_restricted": false,
            "is_ultra_restricted": false
        },
        "edited": {
            "user": "UV87UQ37A",
            "ts": "1588272231.000000"
        },
        "blocks": [
            {
                "type": "rich_text",
                "block_id": "Vqvn",
                "elements": [
                    {
                        "type": "rich_text_section",
                        "elements": [
                            {
                                "type": "text",
                                "text": "is the marketing strategy here educational or product focused? I take very different steps for Cool Anthropology than I did for my business."
                            }
                        ]
                    }
                ]
            }
        ],
        "thread_ts": "1588272204.211500",
        "reply_count": 1,
        "reply_users_count": 1,
        "latest_reply": "1588289400.212000",
        "reply_users": [
            "U011VF29MK2"
        ],
        "replies": [
            {
                "user": "U011VF29MK2",
                "ts": "1588289400.212000"
            }
        ],
        "subscribed": false
    },
    {
        "client_msg_id": "16749541-5eb0-46ba-b70b-8bf7f054834d",
        "type": "message",
        "text": "HI Victoria :slightly_smiling_face: I would love to hear what the group says but I would say it's both, you are educating the customer about the brand, about their products. I love Blackberry's value prop  (remember those:joy:) - \"Love What You Do\" - it's a human truth that also plays to the essence of their product's value, it gives meaning to your work.",
        "user": "U011VF29MK2",
        "ts": "1588289400.212000",
        "team": "TUU48M0T1",
        "user_team": "TUU48M0T1",
        "source_team": "TUU48M0T1",
        "user_profile": {
            "avatar_hash": "0ef0287e69f4",
            "image_72": "https:\/\/avatars.slack-edge.com\/2020-04-07\/1045707527815_0ef0287e69f4d3296eaf_72.jpg",
            "first_name": "Catherine",
            "real_name": "Catherine Coykendall",
            "display_name": "Catherine Coykendall - Marketing Consultant",
            "team": "TUU48M0T1",
            "name": "c.coyken1978",
            "is_restricted": false,
            "is_ultra_restricted": false
        },
        "blocks": [
            {
                "type": "rich_text",
                "block_id": "qdcn",
                "elements": [
                    {
                        "type": "rich_text_section",
                        "elements": [
                            {
                                "type": "text",
                                "text": "HI Victoria "
                            },
                            {
                                "type": "emoji",
                                "name": "slightly_smiling_face"
                            },
                            {
                                "type": "text",
                                "text": " I would love to hear what the group says but I would say it's both, you are educating the customer about the brand, about their products. I love Blackberry's value prop  (remember those"
                            },
                            {
                                "type": "emoji",
                                "name": "joy"
                            },
                            {
                                "type": "text",
                                "text": ") - \"Love What You Do\" - it's a human truth that also plays to the essence of their product's value, it gives meaning to your work."
                            }
                        ]
                    }
                ]
            }
        ],
        "thread_ts": "1588272204.211500",
        "parent_user_id": "UV87UQ37A"
    },
    {
        "client_msg_id": "bf5d7ef3-d5ca-4ae4-b334-cfb2783f2bca",
        "type": "message",
        "text": "<@UV02WET96> <@UVC9WMA7N> <@UV0QTJCMT> <@UV85V64SD> <@UV87UQ37A> <@U010Q3372P3> Good Evening Ladies and Gents! Here is a rockstar agency in LA that works exclusively with NPO - has done some outstanding work for The United Nations Foundation, The White House, The California Endowment, The Nature Conservancy, The MacArthur Foundation, Rock The Vote and Amnesty International - I love their mission *\"WE ARE ARTISTS, CREATIVES, STRATEGISTS, ORGANIZERS, DREAMERS, AND MAKERS WORKING HAND-IN-HAND WITH COMMUNITIES TO BUILD MOMENTUM TOWARDS LASTING CHANGE.\" - if you want to see some great brand building take a look.*",
        "user": "U011VF29MK2",
        "ts": "1588289639.215300",
        "team": "TUU48M0T1",
        "user_team": "TUU48M0T1",
        "source_team": "TUU48M0T1",
        "user_profile": {
            "avatar_hash": "0ef0287e69f4",
            "image_72": "https:\/\/avatars.slack-edge.com\/2020-04-07\/1045707527815_0ef0287e69f4d3296eaf_72.jpg",
            "first_name": "Catherine",
            "real_name": "Catherine Coykendall",
            "display_name": "Catherine Coykendall - Marketing Consultant",
            "team": "TUU48M0T1",
            "name": "c.coyken1978",
            "is_restricted": false,
            "is_ultra_restricted": false
        },
        "blocks": [
            {
                "type": "rich_text",
                "block_id": "KGmp",
                "elements": [
                    {
                        "type": "rich_text_section",
                        "elements": [
                            {
                                "type": "user",
                                "user_id": "UV02WET96"
                            },
                            {
                                "type": "text",
                                "text": " "
                            },
                            {
                                "type": "user",
                                "user_id": "UVC9WMA7N"
                            },
                            {
                                "type": "text",
                                "text": " "
                            },
                            {
                                "type": "user",
                                "user_id": "UV0QTJCMT"
                            },
                            {
                                "type": "text",
                                "text": " "
                            },
                            {
                                "type": "user",
                                "user_id": "UV85V64SD"
                            },
                            {
                                "type": "text",
                                "text": " "
                            },
                            {
                                "type": "user",
                                "user_id": "UV87UQ37A"
                            },
                            {
                                "type": "text",
                                "text": " "
                            },
                            {
                                "type": "user",
                                "user_id": "U010Q3372P3"
                            },
                            {
                                "type": "text",
                                "text": " Good Evening Ladies and Gents! Here is a rockstar agency in LA that works exclusively with NPO - has done some outstanding work for The United Nations Foundation, The White House, The California Endowment, The Nature Conservancy, The MacArthur Foundation, Rock The Vote and Amnesty International - I love their mission"
                            },
                            {
                                "type": "text",
                                "text": " \"WE ARE ARTISTS, CREATIVES, STRATEGISTS, ORGANIZERS, DREAMERS, AND MAKERS WORKING HAND-IN-HAND WITH COMMUNITIES TO BUILD MOMENTUM TOWARDS LASTING CHANGE.\" - if you want to see some great brand building take a look.",
                                "style": {
                                    "bold": true
                                }
                            }
                        ]
                    }
                ]
            }
        ],
        "thread_ts": "1588289639.215300",
        "reply_count": 5,
        "reply_users_count": 2,
        "latest_reply": "1588347493.219900",
        "reply_users": [
            "U011VF29MK2",
            "UVC9WMA7N"
        ],
        "replies": [
            {
                "user": "U011VF29MK2",
                "ts": "1588289670.215400"
            },
            {
                "user": "U011VF29MK2",
                "ts": "1588289679.215600"
            },
            {
                "user": "UVC9WMA7N",
                "ts": "1588332224.217700"
            },
            {
                "user": "UVC9WMA7N",
                "ts": "1588332392.217900"
            },
            {
                "user": "U011VF29MK2",
                "ts": "1588347493.219900"
            }
        ],
        "subscribed": false
    },
    {
        "client_msg_id": "218872c1-9018-4b20-b852-ca860d838cf6",
        "type": "message",
        "text": "...and it would help if I sent the URL...it's getting late in Chicago and I'm still under the weather:",
        "user": "U011VF29MK2",
        "ts": "1588289670.215400",
        "team": "TUU48M0T1",
        "user_team": "TUU48M0T1",
        "source_team": "TUU48M0T1",
        "user_profile": {
            "avatar_hash": "0ef0287e69f4",
            "image_72": "https:\/\/avatars.slack-edge.com\/2020-04-07\/1045707527815_0ef0287e69f4d3296eaf_72.jpg",
            "first_name": "Catherine",
            "real_name": "Catherine Coykendall",
            "display_name": "Catherine Coykendall - Marketing Consultant",
            "team": "TUU48M0T1",
            "name": "c.coyken1978",
            "is_restricted": false,
            "is_ultra_restricted": false
        },
        "blocks": [
            {
                "type": "rich_text",
                "block_id": "OIzZQ",
                "elements": [
                    {
                        "type": "rich_text_section",
                        "elements": [
                            {
                                "type": "text",
                                "text": "...and it would help if I sent the URL...it's getting late in Chicago and I'm still under the weather:"
                            }
                        ]
                    }
                ]
            }
        ],
        "thread_ts": "1588289639.215300",
        "parent_user_id": "U011VF29MK2"
    },
    {
        "client_msg_id": "3155ff87-f2b4-4ab7-aec0-b4305676f4ba",
        "type": "message",
        "text": "<http:\/\/taskforce.pr\/>",
        "user": "U011VF29MK2",
        "ts": "1588289679.215600",
        "team": "TUU48M0T1",
        "user_team": "TUU48M0T1",
        "source_team": "TUU48M0T1",
        "user_profile": {
            "avatar_hash": "0ef0287e69f4",
            "image_72": "https:\/\/avatars.slack-edge.com\/2020-04-07\/1045707527815_0ef0287e69f4d3296eaf_72.jpg",
            "first_name": "Catherine",
            "real_name": "Catherine Coykendall",
            "display_name": "Catherine Coykendall - Marketing Consultant",
            "team": "TUU48M0T1",
            "name": "c.coyken1978",
            "is_restricted": false,
            "is_ultra_restricted": false
        },
        "attachments": [
            {
                "service_name": "TaskForce",
                "title": "Home",
                "title_link": "http:\/\/taskforce.pr\/",
                "text": "CULTURE CREATING MOMENTUM TaskForce is a Los Angeles based creative agency that collaborates with the most influential non-profits, brands and people taking on the most pressing challenges facing our state, our nation and our world. We build capacity",
                "fallback": "TaskForce: Home",
                "from_url": "http:\/\/taskforce.pr\/",
                "thumb_url": "http:\/\/taskforce.pr\/wp-content\/uploads\/2017\/06\/logp.png",
                "thumb_width": 14,
                "thumb_height": 14,
                "service_icon": "http:\/\/taskforce.pr\/wp-content\/uploads\/2016\/11\/cropped-TF-Logo-180x180.jpg",
                "id": 1,
                "original_url": "http:\/\/taskforce.pr\/"
            }
        ],
        "blocks": [
            {
                "type": "rich_text",
                "block_id": "EYc0L",
                "elements": [
                    {
                        "type": "rich_text_section",
                        "elements": [
                            {
                                "type": "link",
                                "url": "http:\/\/taskforce.pr\/"
                            }
                        ]
                    }
                ]
            }
        ],
        "thread_ts": "1588289639.215300",
        "parent_user_id": "U011VF29MK2"
    },
    {
        "client_msg_id": "34504df7-ac10-4892-a62c-728304752499",
        "type": "message",
        "text": "Hi Victoria, Great discussion today, I am just learning about holocracy...I see it as a process document which from my understanding it is not. Would love to chat further if you'd like, I wish it was in person so we could whiteboard!",
        "user": "U011VF29MK2",
        "ts": "1588290114.215900",
        "team": "TUU48M0T1",
        "user_team": "TUU48M0T1",
        "source_team": "TUU48M0T1",
        "user_profile": {
            "avatar_hash": "0ef0287e69f4",
            "image_72": "https:\/\/avatars.slack-edge.com\/2020-04-07\/1045707527815_0ef0287e69f4d3296eaf_72.jpg",
            "first_name": "Catherine",
            "real_name": "Catherine Coykendall",
            "display_name": "Catherine Coykendall - Marketing Consultant",
            "team": "TUU48M0T1",
            "name": "c.coyken1978",
            "is_restricted": false,
            "is_ultra_restricted": false
        },
        "blocks": [
            {
                "type": "rich_text",
                "block_id": "Eca",
                "elements": [
                    {
                        "type": "rich_text_section",
                        "elements": [
                            {
                                "type": "text",
                                "text": "Hi Victoria, Great discussion today, I am just learning about holocracy...I see it as a process document which from my understanding it is not. Would love to chat further if you'd like, I wish it was in person so we could whiteboard!"
                            }
                        ]
                    }
                ]
            }
        ],
        "thread_ts": "1588264827.208500",
        "parent_user_id": "U011VF29MK2"
    }
]