[
    {
        "client_msg_id": "aaef7db3-0b17-4ee6-bdcb-89efd756e87d",
        "type": "message",
        "text": "<!channel> Hey all! Since the initiative is picking up momentum, I was thinking that we can start preparing a press kit. Specifically, I think we can start with an 'About Us' graphic which will contain:\n• global map depicting where members are from. \n• a brief description of who composes our team and which countries are represented\n• our mission statement and high level goals\nAnybody have any thoughts on this or want to add anything?",
        "user": "UV2SC7ZE3",
        "ts": "1584223966.016100",
        "team": "TUU48M0T1",
        "user_team": "TUU48M0T1",
        "source_team": "TUU48M0T1",
        "user_profile": {
            "avatar_hash": "d28dd0d076e8",
            "image_72": "https:\/\/avatars.slack-edge.com\/2020-03-14\/987873094258_d28dd0d076e8fa9a8409_72.png",
            "first_name": "David",
            "real_name": "David Lu",
            "display_name": "David Lu",
            "team": "TUU48M0T1",
            "name": "ludavidyi",
            "is_restricted": false,
            "is_ultra_restricted": false
        },
        "edited": {
            "user": "UV2SC7ZE3",
            "ts": "1584224449.000000"
        },
        "blocks": [
            {
                "type": "rich_text",
                "block_id": "MjDV",
                "elements": [
                    {
                        "type": "rich_text_section",
                        "elements": [
                            {
                                "type": "broadcast",
                                "range": "channel"
                            },
                            {
                                "type": "text",
                                "text": " Hey all! Since the initiative is picking up momentum, I was thinking that we can start preparing a press kit. Specifically, I think we can start with an 'About Us' graphic which will contain:\n"
                            }
                        ]
                    },
                    {
                        "type": "rich_text_list",
                        "elements": [
                            {
                                "type": "rich_text_section",
                                "elements": [
                                    {
                                        "type": "text",
                                        "text": "global map depicting where members are from. "
                                    }
                                ]
                            },
                            {
                                "type": "rich_text_section",
                                "elements": [
                                    {
                                        "type": "text",
                                        "text": "a brief description of who composes our team and which countries are represented"
                                    }
                                ]
                            },
                            {
                                "type": "rich_text_section",
                                "elements": [
                                    {
                                        "type": "text",
                                        "text": "our mission statement and high level goals"
                                    }
                                ]
                            }
                        ],
                        "style": "bullet",
                        "indent": 0
                    },
                    {
                        "type": "rich_text_section",
                        "elements": [
                            {
                                "type": "text",
                                "text": "Anybody have any thoughts on this or want to add anything?"
                            }
                        ]
                    }
                ]
            }
        ],
        "thread_ts": "1584223966.016100",
        "reply_count": 13,
        "reply_users_count": 4,
        "latest_reply": "1584299990.022700",
        "reply_users": [
            "UV0QTJCMT",
            "UUWPKNE2E",
            "UV2SC7ZE3",
            "U01019BQXM3"
        ],
        "replies": [
            {
                "user": "UV0QTJCMT",
                "ts": "1584225190.017000"
            },
            {
                "user": "UV0QTJCMT",
                "ts": "1584225269.017300"
            },
            {
                "user": "UUWPKNE2E",
                "ts": "1584229642.017500"
            },
            {
                "user": "UUWPKNE2E",
                "ts": "1584229660.017900"
            },
            {
                "user": "UV2SC7ZE3",
                "ts": "1584229740.018100"
            },
            {
                "user": "UUWPKNE2E",
                "ts": "1584229906.018300"
            },
            {
                "user": "UUWPKNE2E",
                "ts": "1584229938.018700"
            },
            {
                "user": "UV2SC7ZE3",
                "ts": "1584230569.018900"
            },
            {
                "user": "U01019BQXM3",
                "ts": "1584299856.020100"
            },
            {
                "user": "U01019BQXM3",
                "ts": "1584299941.020900"
            },
            {
                "user": "U01019BQXM3",
                "ts": "1584299958.021500"
            },
            {
                "user": "U01019BQXM3",
                "ts": "1584299970.022100"
            },
            {
                "user": "U01019BQXM3",
                "ts": "1584299990.022700"
            }
        ],
        "subscribed": false,
        "reactions": [
            {
                "name": "100",
                "users": [
                    "UUUEFQW8N",
                    "UV0QTJCMT",
                    "UV02WET96"
                ],
                "count": 3
            }
        ]
    },
    {
        "client_msg_id": "aa408b66-34d2-4b7e-adb8-6bf2c0baa741",
        "type": "message",
        "text": "this is awesome! for the map--there's the spreadsheet in the operations folder with the responses from the survey (i think i made a tab just for all the locations) and also <@UUWPKNE2E> might have the most recent maps based off of the people following the project",
        "user": "UV0QTJCMT",
        "ts": "1584225190.017000",
        "team": "TUU48M0T1",
        "user_team": "TUU48M0T1",
        "source_team": "TUU48M0T1",
        "user_profile": {
            "avatar_hash": "06a6ae8f69d1",
            "image_72": "https:\/\/avatars.slack-edge.com\/2020-04-13\/1060635499315_06a6ae8f69d18f1ad464_72.png",
            "first_name": "Katherine",
            "real_name": "Katherine Holo",
            "display_name": "Kat Holo - Co-Organizer of OpenCOVID19",
            "team": "TUU48M0T1",
            "name": "katherineh245",
            "is_restricted": false,
            "is_ultra_restricted": false
        },
        "edited": {
            "user": "UV0QTJCMT",
            "ts": "1584225239.000000"
        },
        "blocks": [
            {
                "type": "rich_text",
                "block_id": "RoJB",
                "elements": [
                    {
                        "type": "rich_text_section",
                        "elements": [
                            {
                                "type": "text",
                                "text": "this is awesome! for the map--there's the spreadsheet in the operations folder with the responses from the survey (i think i made a tab just for all the locations) and also "
                            },
                            {
                                "type": "user",
                                "user_id": "UUWPKNE2E"
                            },
                            {
                                "type": "text",
                                "text": " might have the most recent maps based off of the people following the project"
                            }
                        ]
                    }
                ]
            }
        ],
        "thread_ts": "1584223966.016100",
        "parent_user_id": "UV2SC7ZE3"
    },
    {
        "client_msg_id": "81f1e1ba-a484-4ba5-8605-c4c442d1867d",
        "type": "message",
        "text": "the google my maps tool can might be way to make it by importin the locations from a sheet but there might be other ways too though idk any",
        "user": "UV0QTJCMT",
        "ts": "1584225269.017300",
        "team": "TUU48M0T1",
        "user_team": "TUU48M0T1",
        "source_team": "TUU48M0T1",
        "user_profile": {
            "avatar_hash": "06a6ae8f69d1",
            "image_72": "https:\/\/avatars.slack-edge.com\/2020-04-13\/1060635499315_06a6ae8f69d18f1ad464_72.png",
            "first_name": "Katherine",
            "real_name": "Katherine Holo",
            "display_name": "Kat Holo - Co-Organizer of OpenCOVID19",
            "team": "TUU48M0T1",
            "name": "katherineh245",
            "is_restricted": false,
            "is_ultra_restricted": false
        },
        "blocks": [
            {
                "type": "rich_text",
                "block_id": "0ffJB",
                "elements": [
                    {
                        "type": "rich_text_section",
                        "elements": [
                            {
                                "type": "text",
                                "text": "the google my maps tool can might be way to make it by importin the locations from a sheet but there might be other ways too though idk any"
                            }
                        ]
                    }
                ]
            }
        ],
        "thread_ts": "1584223966.016100",
        "parent_user_id": "UV2SC7ZE3"
    },
    {
        "type": "message",
        "text": "This is all the cities in which people visited the <https:\/\/app.jogl.io\/project\/118> page (data from google analytics, from feb 29 to march 14th)",
        "files": [
            {
                "id": "F0102KVM9EK",
                "created": 1584229634,
                "timestamp": 1584229634,
                "name": "image.png",
                "title": "image.png",
                "mimetype": "image\/png",
                "filetype": "png",
                "pretty_type": "PNG",
                "user": "UUWPKNE2E",
                "editable": false,
                "size": 925347,
                "mode": "hosted",
                "is_external": false,
                "external_type": "",
                "is_public": true,
                "public_url_shared": false,
                "display_as_bot": false,
                "username": "",
                "url_private": "https:\/\/files.slack.com\/files-pri\/TUU48M0T1-F0102KVM9EK\/image.png?t=xoxe-980144714919-1106606678066-1105227127893-6f722bb664235052954ad46852628b64",
                "url_private_download": "https:\/\/files.slack.com\/files-pri\/TUU48M0T1-F0102KVM9EK\/download\/image.png?t=xoxe-980144714919-1106606678066-1105227127893-6f722bb664235052954ad46852628b64",
                "thumb_64": "https:\/\/files.slack.com\/files-tmb\/TUU48M0T1-F0102KVM9EK-f78c606db2\/image_64.png?t=xoxe-980144714919-1106606678066-1105227127893-6f722bb664235052954ad46852628b64",
                "thumb_80": "https:\/\/files.slack.com\/files-tmb\/TUU48M0T1-F0102KVM9EK-f78c606db2\/image_80.png?t=xoxe-980144714919-1106606678066-1105227127893-6f722bb664235052954ad46852628b64",
                "thumb_360": "https:\/\/files.slack.com\/files-tmb\/TUU48M0T1-F0102KVM9EK-f78c606db2\/image_360.png?t=xoxe-980144714919-1106606678066-1105227127893-6f722bb664235052954ad46852628b64",
                "thumb_360_w": 360,
                "thumb_360_h": 199,
                "thumb_480": "https:\/\/files.slack.com\/files-tmb\/TUU48M0T1-F0102KVM9EK-f78c606db2\/image_480.png?t=xoxe-980144714919-1106606678066-1105227127893-6f722bb664235052954ad46852628b64",
                "thumb_480_w": 480,
                "thumb_480_h": 266,
                "thumb_160": "https:\/\/files.slack.com\/files-tmb\/TUU48M0T1-F0102KVM9EK-f78c606db2\/image_160.png?t=xoxe-980144714919-1106606678066-1105227127893-6f722bb664235052954ad46852628b64",
                "thumb_720": "https:\/\/files.slack.com\/files-tmb\/TUU48M0T1-F0102KVM9EK-f78c606db2\/image_720.png?t=xoxe-980144714919-1106606678066-1105227127893-6f722bb664235052954ad46852628b64",
                "thumb_720_w": 720,
                "thumb_720_h": 399,
                "thumb_800": "https:\/\/files.slack.com\/files-tmb\/TUU48M0T1-F0102KVM9EK-f78c606db2\/image_800.png?t=xoxe-980144714919-1106606678066-1105227127893-6f722bb664235052954ad46852628b64",
                "thumb_800_w": 800,
                "thumb_800_h": 443,
                "thumb_960": "https:\/\/files.slack.com\/files-tmb\/TUU48M0T1-F0102KVM9EK-f78c606db2\/image_960.png?t=xoxe-980144714919-1106606678066-1105227127893-6f722bb664235052954ad46852628b64",
                "thumb_960_w": 960,
                "thumb_960_h": 532,
                "thumb_1024": "https:\/\/files.slack.com\/files-tmb\/TUU48M0T1-F0102KVM9EK-f78c606db2\/image_1024.png?t=xoxe-980144714919-1106606678066-1105227127893-6f722bb664235052954ad46852628b64",
                "thumb_1024_w": 1024,
                "thumb_1024_h": 567,
                "image_exif_rotation": 1,
                "original_w": 3834,
                "original_h": 2124,
                "thumb_tiny": "AwAaADDTzSUHpx1pATwMfWgBRRQ2ccdaaMjrQA7NLmm9adQAUhqNyc9TUYZt4+Y\/nTsK5Z7c0gFLRSGJilBoooA\/\/9k=",
                "permalink": "https:\/\/open-covid19.slack.com\/files\/UUWPKNE2E\/F0102KVM9EK\/image.png",
                "permalink_public": "https:\/\/slack-files.com\/TUU48M0T1-F0102KVM9EK-d83d696db8",
                "is_starred": false,
                "has_rich_preview": false
            }
        ],
        "upload": true,
        "blocks": [
            {
                "type": "rich_text",
                "block_id": "2HKVj",
                "elements": [
                    {
                        "type": "rich_text_section",
                        "elements": [
                            {
                                "type": "text",
                                "text": "This is all the cities in which people visited the "
                            },
                            {
                                "type": "link",
                                "url": "https:\/\/app.jogl.io\/project\/118"
                            },
                            {
                                "type": "text",
                                "text": " page (data from google analytics, from feb 29 to march 14th)"
                            }
                        ]
                    }
                ]
            }
        ],
        "user": "UUWPKNE2E",
        "display_as_bot": false,
        "ts": "1584229642.017500",
        "client_msg_id": "8cbdb3bf-fe79-4a81-bc0f-1dd5662071c6",
        "thread_ts": "1584223966.016100",
        "parent_user_id": "UV2SC7ZE3"
    },
    {
        "client_msg_id": "0f08e5b0-05a6-4d2a-8dbe-b0535fbceab1",
        "type": "message",
        "text": "1825 cities \/ 118 countries",
        "user": "UUWPKNE2E",
        "ts": "1584229660.017900",
        "team": "TUU48M0T1",
        "user_team": "TUU48M0T1",
        "source_team": "TUU48M0T1",
        "user_profile": {
            "avatar_hash": "f620efd9688e",
            "image_72": "https:\/\/avatars.slack-edge.com\/2020-03-12\/997456647751_f620efd9688ed753ecfc_72.jpg",
            "first_name": "Luca",
            "real_name": "Luca Haenel",
            "display_name": "Luca Haenel - JOGL Developer",
            "team": "TUU48M0T1",
            "name": "luca.haenel",
            "is_restricted": false,
            "is_ultra_restricted": false
        },
        "blocks": [
            {
                "type": "rich_text",
                "block_id": "CFcV+",
                "elements": [
                    {
                        "type": "rich_text_section",
                        "elements": [
                            {
                                "type": "text",
                                "text": "1825 cities \/ 118 countries"
                            }
                        ]
                    }
                ]
            }
        ],
        "thread_ts": "1584223966.016100",
        "parent_user_id": "UV2SC7ZE3"
    },
    {
        "client_msg_id": "72c0eccd-fb60-46ce-a69e-a319f48a74dc",
        "type": "message",
        "text": "Thanks! Do you have information on the followers and or members of the opencovid 19 initiative?",
        "user": "UV2SC7ZE3",
        "ts": "1584229740.018100",
        "team": "TUU48M0T1",
        "user_team": "TUU48M0T1",
        "source_team": "TUU48M0T1",
        "user_profile": {
            "avatar_hash": "d28dd0d076e8",
            "image_72": "https:\/\/avatars.slack-edge.com\/2020-03-14\/987873094258_d28dd0d076e8fa9a8409_72.png",
            "first_name": "David",
            "real_name": "David Lu",
            "display_name": "David Lu",
            "team": "TUU48M0T1",
            "name": "ludavidyi",
            "is_restricted": false,
            "is_ultra_restricted": false
        },
        "blocks": [
            {
                "type": "rich_text",
                "block_id": "ZYv",
                "elements": [
                    {
                        "type": "rich_text_section",
                        "elements": [
                            {
                                "type": "text",
                                "text": "Thanks! Do you have information on the followers and or members of the opencovid 19 initiative?"
                            }
                        ]
                    }
                ]
            }
        ],
        "thread_ts": "1584223966.016100",
        "parent_user_id": "UV2SC7ZE3"
    },
    {
        "type": "message",
        "text": "3 days ago, I extracted datas from the project members only, and created this map",
        "files": [
            {
                "id": "F0100AJB128",
                "created": 1584229898,
                "timestamp": 1584229898,
                "name": "image.png",
                "title": "image.png",
                "mimetype": "image\/png",
                "filetype": "png",
                "pretty_type": "PNG",
                "user": "UUWPKNE2E",
                "editable": false,
                "size": 3175829,
                "mode": "hosted",
                "is_external": false,
                "external_type": "",
                "is_public": true,
                "public_url_shared": false,
                "display_as_bot": false,
                "username": "",
                "url_private": "https:\/\/files.slack.com\/files-pri\/TUU48M0T1-F0100AJB128\/image.png?t=xoxe-980144714919-1106606678066-1105227127893-6f722bb664235052954ad46852628b64",
                "url_private_download": "https:\/\/files.slack.com\/files-pri\/TUU48M0T1-F0100AJB128\/download\/image.png?t=xoxe-980144714919-1106606678066-1105227127893-6f722bb664235052954ad46852628b64",
                "thumb_64": "https:\/\/files.slack.com\/files-tmb\/TUU48M0T1-F0100AJB128-315202365e\/image_64.png?t=xoxe-980144714919-1106606678066-1105227127893-6f722bb664235052954ad46852628b64",
                "thumb_80": "https:\/\/files.slack.com\/files-tmb\/TUU48M0T1-F0100AJB128-315202365e\/image_80.png?t=xoxe-980144714919-1106606678066-1105227127893-6f722bb664235052954ad46852628b64",
                "thumb_360": "https:\/\/files.slack.com\/files-tmb\/TUU48M0T1-F0100AJB128-315202365e\/image_360.png?t=xoxe-980144714919-1106606678066-1105227127893-6f722bb664235052954ad46852628b64",
                "thumb_360_w": 360,
                "thumb_360_h": 216,
                "thumb_480": "https:\/\/files.slack.com\/files-tmb\/TUU48M0T1-F0100AJB128-315202365e\/image_480.png?t=xoxe-980144714919-1106606678066-1105227127893-6f722bb664235052954ad46852628b64",
                "thumb_480_w": 480,
                "thumb_480_h": 288,
                "thumb_160": "https:\/\/files.slack.com\/files-tmb\/TUU48M0T1-F0100AJB128-315202365e\/image_160.png?t=xoxe-980144714919-1106606678066-1105227127893-6f722bb664235052954ad46852628b64",
                "thumb_720": "https:\/\/files.slack.com\/files-tmb\/TUU48M0T1-F0100AJB128-315202365e\/image_720.png?t=xoxe-980144714919-1106606678066-1105227127893-6f722bb664235052954ad46852628b64",
                "thumb_720_w": 720,
                "thumb_720_h": 431,
                "thumb_800": "https:\/\/files.slack.com\/files-tmb\/TUU48M0T1-F0100AJB128-315202365e\/image_800.png?t=xoxe-980144714919-1106606678066-1105227127893-6f722bb664235052954ad46852628b64",
                "thumb_800_w": 800,
                "thumb_800_h": 479,
                "thumb_960": "https:\/\/files.slack.com\/files-tmb\/TUU48M0T1-F0100AJB128-315202365e\/image_960.png?t=xoxe-980144714919-1106606678066-1105227127893-6f722bb664235052954ad46852628b64",
                "thumb_960_w": 960,
                "thumb_960_h": 575,
                "thumb_1024": "https:\/\/files.slack.com\/files-tmb\/TUU48M0T1-F0100AJB128-315202365e\/image_1024.png?t=xoxe-980144714919-1106606678066-1105227127893-6f722bb664235052954ad46852628b64",
                "thumb_1024_w": 1024,
                "thumb_1024_h": 613,
                "image_exif_rotation": 1,
                "original_w": 3072,
                "original_h": 1840,
                "thumb_tiny": "AwAcADC0FGaXO0jB6VGOCPrSknPse1VrckfKwZuO1NxzSAZ9hTwNo5ND02BCYAGKQqPWnEge9MJyaSuNiUq9aSiqepIUpPvSUUWAUdetDADGDmkooA\/\/2Q==",
                "permalink": "https:\/\/open-covid19.slack.com\/files\/UUWPKNE2E\/F0100AJB128\/image.png",
                "permalink_public": "https:\/\/slack-files.com\/TUU48M0T1-F0100AJB128-eabcb1f44d",
                "is_starred": false,
                "has_rich_preview": false
            }
        ],
        "upload": true,
        "blocks": [
            {
                "type": "rich_text",
                "block_id": "XAu",
                "elements": [
                    {
                        "type": "rich_text_section",
                        "elements": [
                            {
                                "type": "text",
                                "text": "3 days ago, I extracted datas from the project members only, and created this map"
                            }
                        ]
                    }
                ]
            }
        ],
        "user": "UUWPKNE2E",
        "display_as_bot": false,
        "ts": "1584229906.018300",
        "edited": {
            "user": "UUWPKNE2E",
            "ts": "1584262645.000000"
        },
        "client_msg_id": "6272e55a-0ebb-47ad-8f24-460766ba6561",
        "thread_ts": "1584223966.016100",
        "parent_user_id": "UV2SC7ZE3"
    },
    {
        "client_msg_id": "41daf578-c9d1-4902-a9c0-a1028ec13dfa",
        "type": "message",
        "text": "I'll update it tomorrow with all the current members!",
        "user": "UUWPKNE2E",
        "ts": "1584229938.018700",
        "team": "TUU48M0T1",
        "user_team": "TUU48M0T1",
        "source_team": "TUU48M0T1",
        "user_profile": {
            "avatar_hash": "f620efd9688e",
            "image_72": "https:\/\/avatars.slack-edge.com\/2020-03-12\/997456647751_f620efd9688ed753ecfc_72.jpg",
            "first_name": "Luca",
            "real_name": "Luca Haenel",
            "display_name": "Luca Haenel - JOGL Developer",
            "team": "TUU48M0T1",
            "name": "luca.haenel",
            "is_restricted": false,
            "is_ultra_restricted": false
        },
        "blocks": [
            {
                "type": "rich_text",
                "block_id": "U\/H2",
                "elements": [
                    {
                        "type": "rich_text_section",
                        "elements": [
                            {
                                "type": "text",
                                "text": "I'll update it tomorrow with all the current members!"
                            }
                        ]
                    }
                ]
            }
        ],
        "thread_ts": "1584223966.016100",
        "parent_user_id": "UV2SC7ZE3"
    },
    {
        "client_msg_id": "28dd6bf8-852d-40ff-ae95-c009ab6dcf6c",
        "type": "message",
        "text": "Thank you <@UUWPKNE2E>! :smile:",
        "user": "UV2SC7ZE3",
        "ts": "1584230569.018900",
        "team": "TUU48M0T1",
        "user_team": "TUU48M0T1",
        "source_team": "TUU48M0T1",
        "user_profile": {
            "avatar_hash": "d28dd0d076e8",
            "image_72": "https:\/\/avatars.slack-edge.com\/2020-03-14\/987873094258_d28dd0d076e8fa9a8409_72.png",
            "first_name": "David",
            "real_name": "David Lu",
            "display_name": "David Lu",
            "team": "TUU48M0T1",
            "name": "ludavidyi",
            "is_restricted": false,
            "is_ultra_restricted": false
        },
        "blocks": [
            {
                "type": "rich_text",
                "block_id": "HgB",
                "elements": [
                    {
                        "type": "rich_text_section",
                        "elements": [
                            {
                                "type": "text",
                                "text": "Thank you "
                            },
                            {
                                "type": "user",
                                "user_id": "UUWPKNE2E"
                            },
                            {
                                "type": "text",
                                "text": "! "
                            },
                            {
                                "type": "emoji",
                                "name": "smile"
                            }
                        ]
                    }
                ]
            }
        ],
        "thread_ts": "1584223966.016100",
        "parent_user_id": "UV2SC7ZE3"
    }
]