[
    {
        "client_msg_id": "2184c358-851f-452c-bf3e-182e581be9cd",
        "type": "message",
        "text": "Can we change the Greetbot to say a version of this <@UV0QTJCMT>",
        "user": "U010566NJHG",
        "ts": "1585139192.002000",
        "team": "TUU48M0T1",
        "user_team": "TUU48M0T1",
        "source_team": "TUU48M0T1",
        "user_profile": {
            "avatar_hash": "103225790dbb",
            "image_72": "https:\/\/avatars.slack-edge.com\/2020-03-23\/1018037453952_103225790dbb62abe3e8_72.jpg",
            "first_name": "Avi",
            "real_name": "Avi Khalil",
            "display_name": "Avi",
            "team": "TUU48M0T1",
            "name": "kavb",
            "is_restricted": false,
            "is_ultra_restricted": false
        },
        "blocks": [
            {
                "type": "rich_text",
                "block_id": "ycH",
                "elements": [
                    {
                        "type": "rich_text_section",
                        "elements": [
                            {
                                "type": "text",
                                "text": "Can we change the Greetbot to say a version of this "
                            },
                            {
                                "type": "user",
                                "user_id": "UV0QTJCMT"
                            }
                        ]
                    }
                ]
            }
        ],
        "thread_ts": "1585139192.002000",
        "reply_count": 4,
        "reply_users_count": 1,
        "latest_reply": "1585139561.003400",
        "reply_users": [
            "U010566NJHG"
        ],
        "replies": [
            {
                "user": "U010566NJHG",
                "ts": "1585139198.002100"
            },
            {
                "user": "U010566NJHG",
                "ts": "1585139261.003000"
            },
            {
                "user": "U010566NJHG",
                "ts": "1585139405.003200"
            },
            {
                "user": "U010566NJHG",
                "ts": "1585139561.003400"
            }
        ],
        "subscribed": false
    },
    {
        "client_msg_id": "1178c997-4a09-43bd-b470-77d37090e13c",
        "type": "message",
        "text": "Welcome @name! Definitely checkout the <https:\/\/docs.google.com\/document\/d\/1h0Zu-Q_c71FUlyh66rAPcNR1s7ASOatY2oicsaedzsk\/|onboarding guide> :woman-surfing: to get started. Need Help :male-construction-worker:Reply to this comment with your query! Looking :mag_right: for a project or channel, click Channels&gt;Browse all channels. Looking for how to participate? Check outour projects' <https:\/\/app.jogl.io\/program\/opencovid19#needs|Needs>:handshake:<https:\/\/app.jogl.io\/program\/opencovid19#needs| A> few more useful places <https:\/\/app.jogl.io\/program\/opencovid19#news|Latest News>:rolled_up_newspaper:  <https:\/\/calendar.google.com\/calendar?cid=am9nbC5pb19hYzB2aWRnajJza2Q0b2lpc2w0aWI0ajRrOEBncm91cC5jYWxlbmRhci5nb29nbGUuY29t|Calendar> :spiral_calendar_pad:  <https:\/\/app.jogl.io\/program\/opencovid19#about|About Opencovid19> Have fun! :star-struck:",
        "user": "U010566NJHG",
        "ts": "1585139198.002100",
        "team": "TUU48M0T1",
        "user_team": "TUU48M0T1",
        "source_team": "TUU48M0T1",
        "user_profile": {
            "avatar_hash": "103225790dbb",
            "image_72": "https:\/\/avatars.slack-edge.com\/2020-03-23\/1018037453952_103225790dbb62abe3e8_72.jpg",
            "first_name": "Avi",
            "real_name": "Avi Khalil",
            "display_name": "Avi",
            "team": "TUU48M0T1",
            "name": "kavb",
            "is_restricted": false,
            "is_ultra_restricted": false
        },
        "edited": {
            "user": "U010566NJHG",
            "ts": "1585139250.000000"
        },
        "blocks": [
            {
                "type": "rich_text",
                "block_id": "esbyi",
                "elements": [
                    {
                        "type": "rich_text_section",
                        "elements": [
                            {
                                "type": "text",
                                "text": "Welcome @name! Definitely checkout the "
                            },
                            {
                                "type": "link",
                                "url": "https:\/\/docs.google.com\/document\/d\/1h0Zu-Q_c71FUlyh66rAPcNR1s7ASOatY2oicsaedzsk\/",
                                "text": "onboarding guide"
                            },
                            {
                                "type": "text",
                                "text": " "
                            },
                            {
                                "type": "emoji",
                                "name": "woman-surfing"
                            },
                            {
                                "type": "text",
                                "text": " to get started. Need Help "
                            },
                            {
                                "type": "emoji",
                                "name": "male-construction-worker"
                            },
                            {
                                "type": "text",
                                "text": "Reply to this comment with your query! Looking "
                            },
                            {
                                "type": "emoji",
                                "name": "mag_right"
                            },
                            {
                                "type": "text",
                                "text": " for a project or channel, click Channels>Browse all channels. Looking for how to participate? Check outour projects' "
                            },
                            {
                                "type": "link",
                                "url": "https:\/\/app.jogl.io\/program\/opencovid19#needs",
                                "text": "Needs"
                            },
                            {
                                "type": "emoji",
                                "name": "handshake"
                            },
                            {
                                "type": "link",
                                "url": "https:\/\/app.jogl.io\/program\/opencovid19#needs",
                                "text": " A"
                            },
                            {
                                "type": "text",
                                "text": " few more useful places "
                            },
                            {
                                "type": "link",
                                "url": "https:\/\/app.jogl.io\/program\/opencovid19#news",
                                "text": "Latest News"
                            },
                            {
                                "type": "emoji",
                                "name": "rolled_up_newspaper"
                            },
                            {
                                "type": "text",
                                "text": "  "
                            },
                            {
                                "type": "link",
                                "url": "https:\/\/calendar.google.com\/calendar?cid=am9nbC5pb19hYzB2aWRnajJza2Q0b2lpc2w0aWI0ajRrOEBncm91cC5jYWxlbmRhci5nb29nbGUuY29t",
                                "text": "Calendar"
                            },
                            {
                                "type": "text",
                                "text": " "
                            },
                            {
                                "type": "emoji",
                                "name": "spiral_calendar_pad"
                            },
                            {
                                "type": "text",
                                "text": "  "
                            },
                            {
                                "type": "link",
                                "url": "https:\/\/app.jogl.io\/program\/opencovid19#about",
                                "text": "About Opencovid19"
                            },
                            {
                                "type": "text",
                                "text": " Have fun! "
                            },
                            {
                                "type": "emoji",
                                "name": "star-struck"
                            }
                        ]
                    }
                ]
            }
        ],
        "thread_ts": "1585139192.002000",
        "parent_user_id": "U010566NJHG"
    },
    {
        "client_msg_id": "fdc69fd6-242f-4de8-8307-b016f694f6cd",
        "type": "message",
        "text": "Please edit it as you see fit",
        "user": "U010566NJHG",
        "ts": "1585139261.003000",
        "team": "TUU48M0T1",
        "user_team": "TUU48M0T1",
        "source_team": "TUU48M0T1",
        "user_profile": {
            "avatar_hash": "103225790dbb",
            "image_72": "https:\/\/avatars.slack-edge.com\/2020-03-23\/1018037453952_103225790dbb62abe3e8_72.jpg",
            "first_name": "Avi",
            "real_name": "Avi Khalil",
            "display_name": "Avi",
            "team": "TUU48M0T1",
            "name": "kavb",
            "is_restricted": false,
            "is_ultra_restricted": false
        },
        "blocks": [
            {
                "type": "rich_text",
                "block_id": "Ak\/3",
                "elements": [
                    {
                        "type": "rich_text_section",
                        "elements": [
                            {
                                "type": "text",
                                "text": "Please edit it as you see fit"
                            }
                        ]
                    }
                ]
            }
        ],
        "thread_ts": "1585139192.002000",
        "parent_user_id": "U010566NJHG"
    },
    {
        "client_msg_id": "d6e2b67b-b368-4e67-89ab-a094597085e2",
        "type": "message",
        "text": "Also one minor problem. In greetbot\/slack settings is it possible to TURN OFF automatically making links appear as large attachments? If not then this wont work as every time someone joins a huge list of attachments appears (I manually deleted the ones on this). Instead can we edit the Slackbot (different bot) to send a PM when you join with this greeting?",
        "user": "U010566NJHG",
        "ts": "1585139405.003200",
        "team": "TUU48M0T1",
        "user_team": "TUU48M0T1",
        "source_team": "TUU48M0T1",
        "user_profile": {
            "avatar_hash": "103225790dbb",
            "image_72": "https:\/\/avatars.slack-edge.com\/2020-03-23\/1018037453952_103225790dbb62abe3e8_72.jpg",
            "first_name": "Avi",
            "real_name": "Avi Khalil",
            "display_name": "Avi",
            "team": "TUU48M0T1",
            "name": "kavb",
            "is_restricted": false,
            "is_ultra_restricted": false
        },
        "blocks": [
            {
                "type": "rich_text",
                "block_id": "sPI0",
                "elements": [
                    {
                        "type": "rich_text_section",
                        "elements": [
                            {
                                "type": "text",
                                "text": "Also one minor problem. In greetbot\/slack settings is it possible to TURN OFF automatically making links appear as large attachments? If not then this wont work as every time someone joins a huge list of attachments appears (I manually deleted the ones on this). Instead can we edit the Slackbot (different bot) to send a PM when you join with this greeting?"
                            }
                        ]
                    }
                ]
            }
        ],
        "thread_ts": "1585139192.002000",
        "parent_user_id": "U010566NJHG"
    },
    {
        "client_msg_id": "fee6b578-15e6-47ba-9552-72b9771e2fa9",
        "type": "message",
        "text": "I prefer the greetbot version because then I or one of us can come in and help with anything contextual. Wheeras with Slackbot its in PMs which means one person will be assigned as Help.",
        "user": "U010566NJHG",
        "ts": "1585139561.003400",
        "team": "TUU48M0T1",
        "user_team": "TUU48M0T1",
        "source_team": "TUU48M0T1",
        "user_profile": {
            "avatar_hash": "103225790dbb",
            "image_72": "https:\/\/avatars.slack-edge.com\/2020-03-23\/1018037453952_103225790dbb62abe3e8_72.jpg",
            "first_name": "Avi",
            "real_name": "Avi Khalil",
            "display_name": "Avi",
            "team": "TUU48M0T1",
            "name": "kavb",
            "is_restricted": false,
            "is_ultra_restricted": false
        },
        "blocks": [
            {
                "type": "rich_text",
                "block_id": "\/6L0",
                "elements": [
                    {
                        "type": "rich_text_section",
                        "elements": [
                            {
                                "type": "text",
                                "text": "I prefer the greetbot version because then I or one of us can come in and help with anything contextual. Wheeras with Slackbot its in PMs which means one person will be assigned as Help."
                            }
                        ]
                    }
                ]
            }
        ],
        "thread_ts": "1585139192.002000",
        "parent_user_id": "U010566NJHG"
    },
    {
        "client_msg_id": "fe40df9a-a3a6-46f7-895a-742bca5353b3",
        "type": "message",
        "text": "Hey everyone, I’ve created a doc with all the projects and lead <@U010APQC76J> and <@UV0PCSG58> , you know who to contact now :slightly_smiling_face:",
        "user": "U01019BQXM3",
        "ts": "1585141946.005000",
        "team": "TUU48M0T1",
        "user_team": "TUU48M0T1",
        "source_team": "TUU48M0T1",
        "user_profile": {
            "avatar_hash": "7e0f35d8cc55",
            "image_72": "https:\/\/avatars.slack-edge.com\/2020-03-15\/988667349730_7e0f35d8cc556cd89565_72.jpg",
            "first_name": "Marc",
            "real_name": "Marc Bokobza",
            "display_name": "Marc Bokobza",
            "team": "TUU48M0T1",
            "name": "marcbokobza1",
            "is_restricted": false,
            "is_ultra_restricted": false
        },
        "blocks": [
            {
                "type": "rich_text",
                "block_id": "2pq",
                "elements": [
                    {
                        "type": "rich_text_section",
                        "elements": [
                            {
                                "type": "text",
                                "text": "Hey everyone, I’ve created a doc with all the projects and lead "
                            },
                            {
                                "type": "user",
                                "user_id": "U010APQC76J"
                            },
                            {
                                "type": "text",
                                "text": " and "
                            },
                            {
                                "type": "user",
                                "user_id": "UV0PCSG58"
                            },
                            {
                                "type": "text",
                                "text": " , you know who to contact now "
                            },
                            {
                                "type": "emoji",
                                "name": "slightly_smiling_face"
                            }
                        ]
                    }
                ]
            }
        ],
        "reactions": [
            {
                "name": "heart_eyes",
                "users": [
                    "U010APQC76J"
                ],
                "count": 1
            }
        ]
    },
    {
        "client_msg_id": "6fb39ee1-07dd-4ccf-9185-ab3c0641380d",
        "type": "message",
        "text": "<https:\/\/docs.google.com\/document\/d\/1IPy_Q05v8hW3zoqYnYROYy1rMnpf0RBlaCgg0vanm78\/edit#>",
        "user": "U01019BQXM3",
        "ts": "1585141977.005400",
        "team": "TUU48M0T1",
        "user_team": "TUU48M0T1",
        "source_team": "TUU48M0T1",
        "user_profile": {
            "avatar_hash": "7e0f35d8cc55",
            "image_72": "https:\/\/avatars.slack-edge.com\/2020-03-15\/988667349730_7e0f35d8cc556cd89565_72.jpg",
            "first_name": "Marc",
            "real_name": "Marc Bokobza",
            "display_name": "Marc Bokobza",
            "team": "TUU48M0T1",
            "name": "marcbokobza1",
            "is_restricted": false,
            "is_ultra_restricted": false
        },
        "blocks": [
            {
                "type": "rich_text",
                "block_id": "4Tj",
                "elements": [
                    {
                        "type": "rich_text_section",
                        "elements": [
                            {
                                "type": "link",
                                "url": "https:\/\/docs.google.com\/document\/d\/1IPy_Q05v8hW3zoqYnYROYy1rMnpf0RBlaCgg0vanm78\/edit#"
                            }
                        ]
                    }
                ]
            }
        ],
        "thread_ts": "1585141977.005400",
        "reply_count": 5,
        "reply_users_count": 2,
        "latest_reply": "1585417162.089600",
        "reply_users": [
            "U010APQC76J",
            "U01019BQXM3"
        ],
        "replies": [
            {
                "user": "U010APQC76J",
                "ts": "1585150919.018600"
            },
            {
                "user": "U010APQC76J",
                "ts": "1585333548.082700"
            },
            {
                "user": "U01019BQXM3",
                "ts": "1585417099.089100"
            },
            {
                "user": "U01019BQXM3",
                "ts": "1585417147.089400"
            },
            {
                "user": "U01019BQXM3",
                "ts": "1585417162.089600"
            }
        ],
        "subscribed": false
    },
    {
        "client_msg_id": "a71b82f5-fb49-4c95-964c-5ae8a4d0bcef",
        "type": "message",
        "text": "I added a link with the file where I extracted the data",
        "user": "U01019BQXM3",
        "ts": "1585142576.006400",
        "team": "TUU48M0T1",
        "user_team": "TUU48M0T1",
        "source_team": "TUU48M0T1",
        "user_profile": {
            "avatar_hash": "7e0f35d8cc55",
            "image_72": "https:\/\/avatars.slack-edge.com\/2020-03-15\/988667349730_7e0f35d8cc556cd89565_72.jpg",
            "first_name": "Marc",
            "real_name": "Marc Bokobza",
            "display_name": "Marc Bokobza",
            "team": "TUU48M0T1",
            "name": "marcbokobza1",
            "is_restricted": false,
            "is_ultra_restricted": false
        },
        "blocks": [
            {
                "type": "rich_text",
                "block_id": "=EnSF",
                "elements": [
                    {
                        "type": "rich_text_section",
                        "elements": [
                            {
                                "type": "text",
                                "text": "I added a link with the file where I extracted the data"
                            }
                        ]
                    }
                ]
            }
        ]
    },
    {
        "client_msg_id": "f4defacf-48d2-44ff-964a-ae2691f7da9d",
        "type": "message",
        "text": "If you know how to read the data, it can be helpful to get more informations, I can help you if you don’t know how to read it",
        "user": "U01019BQXM3",
        "ts": "1585142611.007200",
        "team": "TUU48M0T1",
        "user_team": "TUU48M0T1",
        "source_team": "TUU48M0T1",
        "user_profile": {
            "avatar_hash": "7e0f35d8cc55",
            "image_72": "https:\/\/avatars.slack-edge.com\/2020-03-15\/988667349730_7e0f35d8cc556cd89565_72.jpg",
            "first_name": "Marc",
            "real_name": "Marc Bokobza",
            "display_name": "Marc Bokobza",
            "team": "TUU48M0T1",
            "name": "marcbokobza1",
            "is_restricted": false,
            "is_ultra_restricted": false
        },
        "blocks": [
            {
                "type": "rich_text",
                "block_id": "pLOW",
                "elements": [
                    {
                        "type": "rich_text_section",
                        "elements": [
                            {
                                "type": "text",
                                "text": "If you know how to read the data, it can be helpful to get more informations, I can help you if you don’t know how to read it"
                            }
                        ]
                    }
                ]
            }
        ]
    },
    {
        "client_msg_id": "f3b1f678-c3e2-4fb7-9c81-675c7899b46d",
        "type": "message",
        "text": "Thank you <@U01019BQXM3>. <@U010APQC76J> you want to divide by challenge? Maybe #1 and #2 together. And then #3 since that has the most? I can do either. If you think that's a good idea let me know which you prefer.",
        "user": "UV0PCSG58",
        "ts": "1585142917.008400",
        "team": "TUU48M0T1",
        "user_team": "TUU48M0T1",
        "source_team": "TUU48M0T1",
        "user_profile": {
            "avatar_hash": "f39dcc98ce27",
            "image_72": "https:\/\/avatars.slack-edge.com\/2020-03-25\/1026668986768_f39dcc98ce2701046e27_72.jpg",
            "first_name": "",
            "real_name": "emilym",
            "display_name": "emilym",
            "team": "TUU48M0T1",
            "name": "emonosson",
            "is_restricted": false,
            "is_ultra_restricted": false
        },
        "blocks": [
            {
                "type": "rich_text",
                "block_id": "ZbV",
                "elements": [
                    {
                        "type": "rich_text_section",
                        "elements": [
                            {
                                "type": "text",
                                "text": "Thank you "
                            },
                            {
                                "type": "user",
                                "user_id": "U01019BQXM3"
                            },
                            {
                                "type": "text",
                                "text": ". "
                            },
                            {
                                "type": "user",
                                "user_id": "U010APQC76J"
                            },
                            {
                                "type": "text",
                                "text": " you want to divide by challenge? Maybe #1 and #2 together. And then #3 since that has the most? I can do either. If you think that's a good idea let me know which you prefer."
                            }
                        ]
                    }
                ]
            }
        ]
    },
    {
        "client_msg_id": "ad12ccc7-c71c-4029-a7e4-bfa84fc14160",
        "type": "message",
        "text": "Also which is the best way to contact them? DM via Slack?",
        "user": "UV0PCSG58",
        "ts": "1585142952.009300",
        "team": "TUU48M0T1",
        "user_team": "TUU48M0T1",
        "source_team": "TUU48M0T1",
        "user_profile": {
            "avatar_hash": "f39dcc98ce27",
            "image_72": "https:\/\/avatars.slack-edge.com\/2020-03-25\/1026668986768_f39dcc98ce2701046e27_72.jpg",
            "first_name": "",
            "real_name": "emilym",
            "display_name": "emilym",
            "team": "TUU48M0T1",
            "name": "emonosson",
            "is_restricted": false,
            "is_ultra_restricted": false
        },
        "blocks": [
            {
                "type": "rich_text",
                "block_id": "q+VO",
                "elements": [
                    {
                        "type": "rich_text_section",
                        "elements": [
                            {
                                "type": "text",
                                "text": "Also which is the best way to contact them? DM via Slack?"
                            }
                        ]
                    }
                ]
            }
        ]
    },
    {
        "client_msg_id": "5b0ce208-96cc-4d14-926e-93d25e7a8db3",
        "type": "message",
        "text": "yes",
        "user": "U01019BQXM3",
        "ts": "1585142998.009500",
        "team": "TUU48M0T1",
        "user_team": "TUU48M0T1",
        "source_team": "TUU48M0T1",
        "user_profile": {
            "avatar_hash": "7e0f35d8cc55",
            "image_72": "https:\/\/avatars.slack-edge.com\/2020-03-15\/988667349730_7e0f35d8cc556cd89565_72.jpg",
            "first_name": "Marc",
            "real_name": "Marc Bokobza",
            "display_name": "Marc Bokobza",
            "team": "TUU48M0T1",
            "name": "marcbokobza1",
            "is_restricted": false,
            "is_ultra_restricted": false
        },
        "blocks": [
            {
                "type": "rich_text",
                "block_id": "D07V",
                "elements": [
                    {
                        "type": "rich_text_section",
                        "elements": [
                            {
                                "type": "text",
                                "text": "yes"
                            }
                        ]
                    }
                ]
            }
        ]
    },
    {
        "client_msg_id": "b60b9eb4-599a-4183-889e-4bf5e724e759",
        "type": "message",
        "text": "I see is that Anteneh Gashaw?",
        "user": "UV0PCSG58",
        "ts": "1585143015.010100",
        "team": "TUU48M0T1",
        "user_team": "TUU48M0T1",
        "source_team": "TUU48M0T1",
        "user_profile": {
            "avatar_hash": "f39dcc98ce27",
            "image_72": "https:\/\/avatars.slack-edge.com\/2020-03-25\/1026668986768_f39dcc98ce2701046e27_72.jpg",
            "first_name": "",
            "real_name": "emilym",
            "display_name": "emilym",
            "team": "TUU48M0T1",
            "name": "emonosson",
            "is_restricted": false,
            "is_ultra_restricted": false
        },
        "blocks": [
            {
                "type": "rich_text",
                "block_id": "PuC3\/",
                "elements": [
                    {
                        "type": "rich_text_section",
                        "elements": [
                            {
                                "type": "text",
                                "text": "I see is that Anteneh Gashaw?"
                            }
                        ]
                    }
                ]
            }
        ]
    },
    {
        "client_msg_id": "f53624bb-ce99-4cc2-852f-7313f2855c61",
        "type": "message",
        "text": "yes, he might redirect you to admins",
        "user": "U01019BQXM3",
        "ts": "1585143044.010800",
        "team": "TUU48M0T1",
        "user_team": "TUU48M0T1",
        "source_team": "TUU48M0T1",
        "user_profile": {
            "avatar_hash": "7e0f35d8cc55",
            "image_72": "https:\/\/avatars.slack-edge.com\/2020-03-15\/988667349730_7e0f35d8cc556cd89565_72.jpg",
            "first_name": "Marc",
            "real_name": "Marc Bokobza",
            "display_name": "Marc Bokobza",
            "team": "TUU48M0T1",
            "name": "marcbokobza1",
            "is_restricted": false,
            "is_ultra_restricted": false
        },
        "blocks": [
            {
                "type": "rich_text",
                "block_id": "gjZEs",
                "elements": [
                    {
                        "type": "rich_text_section",
                        "elements": [
                            {
                                "type": "text",
                                "text": "yes, he might redirect you to admins"
                            }
                        ]
                    }
                ]
            }
        ]
    },
    {
        "client_msg_id": "22db95f8-9b0c-4707-bce1-0f24abed1c1f",
        "type": "message",
        "text": "I can help you also if he’s super busy and find other leads of the projects",
        "user": "U01019BQXM3",
        "ts": "1585143066.011600",
        "team": "TUU48M0T1",
        "user_team": "TUU48M0T1",
        "source_team": "TUU48M0T1",
        "user_profile": {
            "avatar_hash": "7e0f35d8cc55",
            "image_72": "https:\/\/avatars.slack-edge.com\/2020-03-15\/988667349730_7e0f35d8cc556cd89565_72.jpg",
            "first_name": "Marc",
            "real_name": "Marc Bokobza",
            "display_name": "Marc Bokobza",
            "team": "TUU48M0T1",
            "name": "marcbokobza1",
            "is_restricted": false,
            "is_ultra_restricted": false
        },
        "blocks": [
            {
                "type": "rich_text",
                "block_id": "086f",
                "elements": [
                    {
                        "type": "rich_text_section",
                        "elements": [
                            {
                                "type": "text",
                                "text": "I can help you also if he’s super busy and find other leads of the projects"
                            }
                        ]
                    }
                ]
            }
        ]
    },
    {
        "client_msg_id": "5189a65d-ee8a-4cb0-af3d-91c577ce3a90",
        "type": "message",
        "text": "Ok. Will wait to hear from <@U010APQC76J> and go from there. Maybe the first contact with him should offer that? Can he provide leads or does he want to provide the updates? Also, what do you think is  a good way to keep track of new projects? Maybe if you add and highlight and we remove the highlight so you know we are aware they were just added (once we start contacting?)",
        "user": "UV0PCSG58",
        "ts": "1585143197.013800",
        "team": "TUU48M0T1",
        "user_team": "TUU48M0T1",
        "source_team": "TUU48M0T1",
        "user_profile": {
            "avatar_hash": "f39dcc98ce27",
            "image_72": "https:\/\/avatars.slack-edge.com\/2020-03-25\/1026668986768_f39dcc98ce2701046e27_72.jpg",
            "first_name": "",
            "real_name": "emilym",
            "display_name": "emilym",
            "team": "TUU48M0T1",
            "name": "emonosson",
            "is_restricted": false,
            "is_ultra_restricted": false
        },
        "blocks": [
            {
                "type": "rich_text",
                "block_id": "+q6xk",
                "elements": [
                    {
                        "type": "rich_text_section",
                        "elements": [
                            {
                                "type": "text",
                                "text": "Ok. Will wait to hear from "
                            },
                            {
                                "type": "user",
                                "user_id": "U010APQC76J"
                            },
                            {
                                "type": "text",
                                "text": " and go from there. Maybe the first contact with him should offer that? Can he provide leads or does he want to provide the updates? Also, what do you think is  a good way to keep track of new projects? Maybe if you add and highlight and we remove the highlight so you know we are aware they were just added (once we start contacting?)"
                            }
                        ]
                    }
                ]
            }
        ],
        "reactions": [
            {
                "name": "+1",
                "users": [
                    "U010APQC76J"
                ],
                "count": 1
            }
        ]
    },
    {
        "client_msg_id": "d35b8cdd-01cb-469e-961e-d9688de25a55",
        "type": "message",
        "text": "That sounds like a good idea ! :slightly_smiling_face:",
        "user": "U01019BQXM3",
        "ts": "1585143347.014100",
        "team": "TUU48M0T1",
        "user_team": "TUU48M0T1",
        "source_team": "TUU48M0T1",
        "user_profile": {
            "avatar_hash": "7e0f35d8cc55",
            "image_72": "https:\/\/avatars.slack-edge.com\/2020-03-15\/988667349730_7e0f35d8cc556cd89565_72.jpg",
            "first_name": "Marc",
            "real_name": "Marc Bokobza",
            "display_name": "Marc Bokobza",
            "team": "TUU48M0T1",
            "name": "marcbokobza1",
            "is_restricted": false,
            "is_ultra_restricted": false
        },
        "blocks": [
            {
                "type": "rich_text",
                "block_id": "VJiIG",
                "elements": [
                    {
                        "type": "rich_text_section",
                        "elements": [
                            {
                                "type": "text",
                                "text": "That sounds like a good idea ! "
                            },
                            {
                                "type": "emoji",
                                "name": "slightly_smiling_face"
                            }
                        ]
                    }
                ]
            }
        ]
    },
    {
        "client_msg_id": "3fb5656e-8d3f-4d65-8a76-ce146190d009",
        "type": "message",
        "text": "I don’t know yet for basically all the creators of the projects : but don’t worry the first contact you’ll have with them will bring clarity to all of that",
        "user": "U01019BQXM3",
        "ts": "1585143423.015200",
        "team": "TUU48M0T1",
        "user_team": "TUU48M0T1",
        "source_team": "TUU48M0T1",
        "user_profile": {
            "avatar_hash": "7e0f35d8cc55",
            "image_72": "https:\/\/avatars.slack-edge.com\/2020-03-15\/988667349730_7e0f35d8cc556cd89565_72.jpg",
            "first_name": "Marc",
            "real_name": "Marc Bokobza",
            "display_name": "Marc Bokobza",
            "team": "TUU48M0T1",
            "name": "marcbokobza1",
            "is_restricted": false,
            "is_ultra_restricted": false
        },
        "blocks": [
            {
                "type": "rich_text",
                "block_id": "bJVse",
                "elements": [
                    {
                        "type": "rich_text_section",
                        "elements": [
                            {
                                "type": "text",
                                "text": "I don’t know yet for basically all the creators of the projects : but don’t worry the first contact you’ll have with them will bring clarity to all of that"
                            }
                        ]
                    }
                ]
            }
        ]
    },
    {
        "client_msg_id": "08097005-7f26-475f-8f9d-8566fd23ba06",
        "type": "message",
        "text": "<@UV2SC7ZE3> I thought of asking for progress since last report. I haven't done any community call so I'm not sure what people report during these",
        "user": "U010APQC76J",
        "ts": "1585150135.015600",
        "team": "TUU48M0T1",
        "user_team": "TUU48M0T1",
        "source_team": "TUU48M0T1",
        "user_profile": {
            "avatar_hash": "751a8e7a94a5",
            "image_72": "https:\/\/avatars.slack-edge.com\/2020-03-25\/1026091401893_751a8e7a94a519bfd1d7_72.jpg",
            "first_name": "Hans",
            "real_name": "Hans Pfalzgraf",
            "display_name": "Hans P",
            "team": "TUU48M0T1",
            "name": "h.pfalzgraf",
            "is_restricted": false,
            "is_ultra_restricted": false
        },
        "blocks": [
            {
                "type": "rich_text",
                "block_id": "TK=",
                "elements": [
                    {
                        "type": "rich_text_section",
                        "elements": [
                            {
                                "type": "user",
                                "user_id": "UV2SC7ZE3"
                            },
                            {
                                "type": "text",
                                "text": " I thought of asking for progress since last report. I haven't done any community call so I'm not sure what people report during these"
                            }
                        ]
                    }
                ]
            }
        ],
        "thread_ts": "1585073401.183100",
        "parent_user_id": "U010APQC76J"
    },
    {
        "client_msg_id": "f3b8948b-b57f-4feb-94d5-9dadf6f972ae",
        "type": "message",
        "text": "<@UV0PCSG58> I was keen to do the projects that are more bioscience-related so I guess I could do challenge #1 and 2 and you could take #3 if it makes sense...\n#3 has more projects but it's mostly Anteneh so we should have an equivalent number of people to chase ha ha!",
        "user": "U010APQC76J",
        "ts": "1585150726.018100",
        "team": "TUU48M0T1",
        "user_team": "TUU48M0T1",
        "source_team": "TUU48M0T1",
        "user_profile": {
            "avatar_hash": "751a8e7a94a5",
            "image_72": "https:\/\/avatars.slack-edge.com\/2020-03-25\/1026091401893_751a8e7a94a519bfd1d7_72.jpg",
            "first_name": "Hans",
            "real_name": "Hans Pfalzgraf",
            "display_name": "Hans P",
            "team": "TUU48M0T1",
            "name": "h.pfalzgraf",
            "is_restricted": false,
            "is_ultra_restricted": false
        },
        "blocks": [
            {
                "type": "rich_text",
                "block_id": "e0Xf=",
                "elements": [
                    {
                        "type": "rich_text_section",
                        "elements": [
                            {
                                "type": "user",
                                "user_id": "UV0PCSG58"
                            },
                            {
                                "type": "text",
                                "text": " I was keen to do the projects that are more bioscience-related so I guess I could do challenge #1 and 2 and you could take #3 if it makes sense...\n#3 has more projects but it's mostly Anteneh so we should have an equivalent number of people to chase ha ha!"
                            }
                        ]
                    }
                ]
            }
        ],
        "thread_ts": "1585150726.018100",
        "reply_count": 2,
        "reply_users_count": 1,
        "latest_reply": "1585164624.027300",
        "reply_users": [
            "UV0PCSG58"
        ],
        "replies": [
            {
                "user": "UV0PCSG58",
                "ts": "1585164466.026900"
            },
            {
                "user": "UV0PCSG58",
                "ts": "1585164624.027300"
            }
        ],
        "subscribed": false
    },
    {
        "client_msg_id": "07d57894-2f89-4907-b271-6e8782b527c9",
        "type": "message",
        "text": "<@U01019BQXM3> Thanks a lot, that was direly needed!",
        "user": "U010APQC76J",
        "ts": "1585150919.018600",
        "team": "TUU48M0T1",
        "user_team": "TUU48M0T1",
        "source_team": "TUU48M0T1",
        "user_profile": {
            "avatar_hash": "751a8e7a94a5",
            "image_72": "https:\/\/avatars.slack-edge.com\/2020-03-25\/1026091401893_751a8e7a94a519bfd1d7_72.jpg",
            "first_name": "Hans",
            "real_name": "Hans Pfalzgraf",
            "display_name": "Hans P",
            "team": "TUU48M0T1",
            "name": "h.pfalzgraf",
            "is_restricted": false,
            "is_ultra_restricted": false
        },
        "blocks": [
            {
                "type": "rich_text",
                "block_id": "\/zPz",
                "elements": [
                    {
                        "type": "rich_text_section",
                        "elements": [
                            {
                                "type": "user",
                                "user_id": "U01019BQXM3"
                            },
                            {
                                "type": "text",
                                "text": " Thanks a lot, that was direly needed!"
                            }
                        ]
                    }
                ]
            }
        ],
        "thread_ts": "1585141977.005400",
        "parent_user_id": "U01019BQXM3"
    },
    {
        "client_msg_id": "898148bc-34b9-4458-9c93-6dfc5c305c4b",
        "type": "message",
        "text": "Hey guys, how is it going :slightly_smiling_face:\nWhat would you like to present during the global community call today?",
        "user": "UV02WET96",
        "ts": "1585151758.019500",
        "team": "TUU48M0T1",
        "user_team": "TUU48M0T1",
        "source_team": "TUU48M0T1",
        "user_profile": {
            "avatar_hash": "a99c74a194f8",
            "image_72": "https:\/\/avatars.slack-edge.com\/2020-03-07\/975708504851_a99c74a194f86715ca7d_72.png",
            "first_name": "Thomas",
            "real_name": "Thomas Landrain",
            "display_name": "Thomas Landrain - JOGL CoFounder \/ CEO",
            "team": "TUU48M0T1",
            "name": "thomas",
            "is_restricted": false,
            "is_ultra_restricted": false
        },
        "blocks": [
            {
                "type": "rich_text",
                "block_id": "J9OG",
                "elements": [
                    {
                        "type": "rich_text_section",
                        "elements": [
                            {
                                "type": "text",
                                "text": "Hey guys, how is it going "
                            },
                            {
                                "type": "emoji",
                                "name": "slightly_smiling_face"
                            },
                            {
                                "type": "text",
                                "text": "\nWhat would you like to present during the global community call today?"
                            }
                        ]
                    }
                ]
            }
        ],
        "thread_ts": "1585151758.019500",
        "reply_count": 2,
        "reply_users_count": 2,
        "latest_reply": "1585155725.020300",
        "reply_users": [
            "UV2SC7ZE3",
            "UV87UQ37A"
        ],
        "replies": [
            {
                "user": "UV2SC7ZE3",
                "ts": "1585155639.019800"
            },
            {
                "user": "UV87UQ37A",
                "ts": "1585155725.020300"
            }
        ],
        "subscribed": false
    },
    {
        "client_msg_id": "f73f88d8-9a53-48c3-95aa-9e53bd05ecd0",
        "type": "message",
        "text": "I'm not sure if we will have all that information today...",
        "user": "UV2SC7ZE3",
        "ts": "1585155639.019800",
        "team": "TUU48M0T1",
        "user_team": "TUU48M0T1",
        "source_team": "TUU48M0T1",
        "user_profile": {
            "avatar_hash": "d28dd0d076e8",
            "image_72": "https:\/\/avatars.slack-edge.com\/2020-03-14\/987873094258_d28dd0d076e8fa9a8409_72.png",
            "first_name": "David",
            "real_name": "David Lu",
            "display_name": "David Lu",
            "team": "TUU48M0T1",
            "name": "ludavidyi",
            "is_restricted": false,
            "is_ultra_restricted": false
        },
        "blocks": [
            {
                "type": "rich_text",
                "block_id": "kXy",
                "elements": [
                    {
                        "type": "rich_text_section",
                        "elements": [
                            {
                                "type": "text",
                                "text": "I'm not sure if we will have all that information today..."
                            }
                        ]
                    }
                ]
            }
        ],
        "thread_ts": "1585151758.019500",
        "parent_user_id": "UV02WET96"
    },
    {
        "client_msg_id": "cc7f2dce-a8be-40f0-8c8f-119cc5ec404b",
        "type": "message",
        "text": "<@U010APQC76J> <@UV0PCSG58> Do you guys need any help?",
        "user": "UV2SC7ZE3",
        "ts": "1585155656.020200",
        "team": "TUU48M0T1",
        "user_team": "TUU48M0T1",
        "source_team": "TUU48M0T1",
        "user_profile": {
            "avatar_hash": "d28dd0d076e8",
            "image_72": "https:\/\/avatars.slack-edge.com\/2020-03-14\/987873094258_d28dd0d076e8fa9a8409_72.png",
            "first_name": "David",
            "real_name": "David Lu",
            "display_name": "David Lu",
            "team": "TUU48M0T1",
            "name": "ludavidyi",
            "is_restricted": false,
            "is_ultra_restricted": false
        },
        "blocks": [
            {
                "type": "rich_text",
                "block_id": "e1c",
                "elements": [
                    {
                        "type": "rich_text_section",
                        "elements": [
                            {
                                "type": "user",
                                "user_id": "U010APQC76J"
                            },
                            {
                                "type": "text",
                                "text": " "
                            },
                            {
                                "type": "user",
                                "user_id": "UV0PCSG58"
                            },
                            {
                                "type": "text",
                                "text": " Do you guys need any help?"
                            }
                        ]
                    }
                ]
            }
        ],
        "thread_ts": "1585155656.020200",
        "reply_count": 2,
        "reply_users_count": 2,
        "latest_reply": "1585176541.030600",
        "reply_users": [
            "UV0PCSG58",
            "UV2SC7ZE3"
        ],
        "replies": [
            {
                "user": "UV0PCSG58",
                "ts": "1585164952.027600"
            },
            {
                "user": "UV2SC7ZE3",
                "ts": "1585176541.030600"
            }
        ],
        "subscribed": false
    },
    {
        "client_msg_id": "27d6f56b-921e-470f-958c-47598929d55e",
        "type": "message",
        "text": "just tell us what you don't have -- maybe we can provide additional support!",
        "user": "UV87UQ37A",
        "ts": "1585155725.020300",
        "team": "TUU48M0T1",
        "user_team": "TUU48M0T1",
        "source_team": "TUU48M0T1",
        "user_profile": {
            "avatar_hash": "g7c78d2f0258",
            "image_72": "https:\/\/secure.gravatar.com\/avatar\/7c78d2f0258f7bdf78a86301cfd6b712.jpg?s=72&d=https%3A%2F%2Fa.slack-edge.com%2Fdf10d%2Fimg%2Favatars%2Fava_0014-72.png",
            "first_name": "Victoria",
            "real_name": "Victoria Costa",
            "display_name": "Victoria Costa",
            "team": "TUU48M0T1",
            "name": "victorycoast",
            "is_restricted": false,
            "is_ultra_restricted": false
        },
        "blocks": [
            {
                "type": "rich_text",
                "block_id": "SQi",
                "elements": [
                    {
                        "type": "rich_text_section",
                        "elements": [
                            {
                                "type": "text",
                                "text": "just tell us what you don't have -- maybe we can provide additional support!"
                            }
                        ]
                    }
                ]
            }
        ],
        "thread_ts": "1585151758.019500",
        "parent_user_id": "UV02WET96"
    },
    {
        "client_msg_id": "f5db4f3c-81ae-461b-8c14-3b3fd2394fbe",
        "type": "message",
        "text": "I used the community call to fish for projects that weren't on the list<@UVABNG1A9> was talking about the user experience\/GUI \"project\", do you guys think it's something we should also ask progress updates from?",
        "user": "U010APQC76J",
        "ts": "1585159520.023100",
        "team": "TUU48M0T1",
        "user_team": "TUU48M0T1",
        "source_team": "TUU48M0T1",
        "user_profile": {
            "avatar_hash": "751a8e7a94a5",
            "image_72": "https:\/\/avatars.slack-edge.com\/2020-03-25\/1026091401893_751a8e7a94a519bfd1d7_72.jpg",
            "first_name": "Hans",
            "real_name": "Hans Pfalzgraf",
            "display_name": "Hans P",
            "team": "TUU48M0T1",
            "name": "h.pfalzgraf",
            "is_restricted": false,
            "is_ultra_restricted": false
        },
        "blocks": [
            {
                "type": "rich_text",
                "block_id": "N=y37",
                "elements": [
                    {
                        "type": "rich_text_section",
                        "elements": [
                            {
                                "type": "text",
                                "text": "I used the community call to fish for projects that weren't on the list"
                            },
                            {
                                "type": "user",
                                "user_id": "UVABNG1A9"
                            },
                            {
                                "type": "text",
                                "text": " was talking about the user experience\/GUI \"project\", do you guys think it's something we should also ask progress updates from?"
                            }
                        ]
                    }
                ]
            }
        ],
        "thread_ts": "1585159520.023100",
        "reply_count": 1,
        "reply_users_count": 1,
        "latest_reply": "1585162890.024400",
        "reply_users": [
            "UV0QTJCMT"
        ],
        "replies": [
            {
                "user": "UV0QTJCMT",
                "ts": "1585162890.024400"
            }
        ],
        "subscribed": false,
        "reactions": [
            {
                "name": "+1",
                "users": [
                    "UV0QTJCMT"
                ],
                "count": 1
            }
        ]
    },
    {
        "client_msg_id": "2b2fd566-6d0f-4dbd-95db-235c7f59778b",
        "type": "message",
        "text": "Shall I send this link to people who have projects but don't appear on Marc's doc?\n<https:\/\/app.jogl.io\/project\/create>",
        "user": "U010APQC76J",
        "ts": "1585160438.024000",
        "team": "TUU48M0T1",
        "user_team": "TUU48M0T1",
        "source_team": "TUU48M0T1",
        "user_profile": {
            "avatar_hash": "751a8e7a94a5",
            "image_72": "https:\/\/avatars.slack-edge.com\/2020-03-25\/1026091401893_751a8e7a94a519bfd1d7_72.jpg",
            "first_name": "Hans",
            "real_name": "Hans Pfalzgraf",
            "display_name": "Hans P",
            "team": "TUU48M0T1",
            "name": "h.pfalzgraf",
            "is_restricted": false,
            "is_ultra_restricted": false
        },
        "attachments": [
            {
                "title": "JOGL - Just One Giant Lab",
                "title_link": "https:\/\/app.jogl.io\/project\/create",
                "text": "JOGL helps sync humanity onto solving our most important social &amp; environmental problems using open science, responsible innovation &amp; continuous learning.",
                "fallback": "JOGL - Just One Giant Lab",
                "thumb_url": "https:\/\/app.jogl.io\/planet.jpg",
                "from_url": "https:\/\/app.jogl.io\/project\/create",
                "thumb_width": 2049,
                "thumb_height": 1011,
                "service_icon": "https:\/\/app.jogl.io\/favicon.ico",
                "service_name": "app.jogl.io",
                "id": 1,
                "original_url": "https:\/\/app.jogl.io\/project\/create"
            }
        ],
        "blocks": [
            {
                "type": "rich_text",
                "block_id": "odOsj",
                "elements": [
                    {
                        "type": "rich_text_section",
                        "elements": [
                            {
                                "type": "text",
                                "text": "Shall I send this link to people who have projects but don't appear on Marc's doc?\n"
                            },
                            {
                                "type": "link",
                                "url": "https:\/\/app.jogl.io\/project\/create"
                            }
                        ]
                    }
                ]
            }
        ],
        "thread_ts": "1585160438.024000",
        "reply_count": 2,
        "reply_users_count": 1,
        "latest_reply": "1585162913.025400",
        "reply_users": [
            "UV0QTJCMT"
        ],
        "replies": [
            {
                "user": "UV0QTJCMT",
                "ts": "1585162897.024800"
            },
            {
                "user": "UV0QTJCMT",
                "ts": "1585162913.025400"
            }
        ],
        "subscribed": false
    },
    {
        "client_msg_id": "254ECC36-ED1A-46D3-AE41-D7F683D775D0",
        "type": "message",
        "text": "yea def",
        "user": "UV0QTJCMT",
        "ts": "1585162890.024400",
        "team": "TUU48M0T1",
        "user_team": "TUU48M0T1",
        "source_team": "TUU48M0T1",
        "user_profile": {
            "avatar_hash": "06a6ae8f69d1",
            "image_72": "https:\/\/avatars.slack-edge.com\/2020-04-13\/1060635499315_06a6ae8f69d18f1ad464_72.png",
            "first_name": "Katherine",
            "real_name": "Katherine Holo",
            "display_name": "Kat Holo - Co-Organizer of OpenCOVID19",
            "team": "TUU48M0T1",
            "name": "katherineh245",
            "is_restricted": false,
            "is_ultra_restricted": false
        },
        "blocks": [
            {
                "type": "rich_text",
                "block_id": "OWF",
                "elements": [
                    {
                        "type": "rich_text_section",
                        "elements": [
                            {
                                "type": "text",
                                "text": "yea def"
                            }
                        ]
                    }
                ]
            }
        ],
        "thread_ts": "1585159520.023100",
        "parent_user_id": "U010APQC76J"
    },
    {
        "client_msg_id": "C0FDF921-86BE-4624-A1CE-07FB7EA87A17",
        "type": "message",
        "text": "yeah that’d be great!",
        "user": "UV0QTJCMT",
        "ts": "1585162897.024800",
        "team": "TUU48M0T1",
        "user_team": "TUU48M0T1",
        "source_team": "TUU48M0T1",
        "user_profile": {
            "avatar_hash": "06a6ae8f69d1",
            "image_72": "https:\/\/avatars.slack-edge.com\/2020-04-13\/1060635499315_06a6ae8f69d18f1ad464_72.png",
            "first_name": "Katherine",
            "real_name": "Katherine Holo",
            "display_name": "Kat Holo - Co-Organizer of OpenCOVID19",
            "team": "TUU48M0T1",
            "name": "katherineh245",
            "is_restricted": false,
            "is_ultra_restricted": false
        },
        "blocks": [
            {
                "type": "rich_text",
                "block_id": "PlfX",
                "elements": [
                    {
                        "type": "rich_text_section",
                        "elements": [
                            {
                                "type": "text",
                                "text": "yeah that’d be great!"
                            }
                        ]
                    }
                ]
            }
        ],
        "thread_ts": "1585160438.024000",
        "parent_user_id": "U010APQC76J"
    },
    {
        "client_msg_id": "7C1C76F6-EAD5-4FF3-A47D-66751D58AF04",
        "type": "message",
        "text": "i think i had a gif in the agenda (i’m not sure if it got deleted) if they need help w steps ",
        "user": "UV0QTJCMT",
        "ts": "1585162913.025400",
        "team": "TUU48M0T1",
        "user_team": "TUU48M0T1",
        "source_team": "TUU48M0T1",
        "user_profile": {
            "avatar_hash": "06a6ae8f69d1",
            "image_72": "https:\/\/avatars.slack-edge.com\/2020-04-13\/1060635499315_06a6ae8f69d18f1ad464_72.png",
            "first_name": "Katherine",
            "real_name": "Katherine Holo",
            "display_name": "Kat Holo - Co-Organizer of OpenCOVID19",
            "team": "TUU48M0T1",
            "name": "katherineh245",
            "is_restricted": false,
            "is_ultra_restricted": false
        },
        "blocks": [
            {
                "type": "rich_text",
                "block_id": "M4do3",
                "elements": [
                    {
                        "type": "rich_text_section",
                        "elements": [
                            {
                                "type": "text",
                                "text": "i think i had a gif in the agenda (i’m not sure if it got deleted) if they need help w steps "
                            }
                        ]
                    }
                ]
            }
        ],
        "thread_ts": "1585160438.024000",
        "parent_user_id": "U010APQC76J"
    },
    {
        "client_msg_id": "d57c3198-9bb9-422f-9570-2e7410236f5c",
        "type": "message",
        "text": "Hi team! Spiked a rough fever over the last couple of days so have been MIA. Feeling better + stronger today :muscle: Will be catching up but feel free to ping me directly with specific requests",
        "user": "UUWLPKCLB",
        "ts": "1585163030.026300",
        "team": "TUU48M0T1",
        "user_team": "TUU48M0T1",
        "source_team": "TUU48M0T1",
        "user_profile": {
            "avatar_hash": "g59b893b3b55",
            "image_72": "https:\/\/secure.gravatar.com\/avatar\/59b893b3b558815c856d54c41813a478.jpg?s=72&d=https%3A%2F%2Fa.slack-edge.com%2Fdf10d%2Fimg%2Favatars%2Fava_0026-72.png",
            "first_name": "",
            "real_name": "Kristin",
            "display_name": "Kristin",
            "team": "TUU48M0T1",
            "name": "kristin.ellis88",
            "is_restricted": false,
            "is_ultra_restricted": false
        },
        "blocks": [
            {
                "type": "rich_text",
                "block_id": "rl=",
                "elements": [
                    {
                        "type": "rich_text_section",
                        "elements": [
                            {
                                "type": "text",
                                "text": "Hi team! Spiked a rough fever over the last couple of days so have been MIA. Feeling better + stronger today "
                            },
                            {
                                "type": "emoji",
                                "name": "muscle"
                            },
                            {
                                "type": "text",
                                "text": " Will be catching up but feel free to ping me directly with specific requests"
                            }
                        ]
                    }
                ]
            }
        ],
        "reactions": [
            {
                "name": "relieved",
                "users": [
                    "UV76CQTB4",
                    "UV0QTJCMT",
                    "UV2SC7ZE3"
                ],
                "count": 3
            },
            {
                "name": "the_horns",
                "users": [
                    "UUNGFHSV8",
                    "UV2SC7ZE3",
                    "UV02WET96"
                ],
                "count": 3
            },
            {
                "name": "smiley",
                "users": [
                    "U010APQC76J"
                ],
                "count": 1
            }
        ]
    },
    {
        "client_msg_id": "28335090-4f51-40e8-a55e-227ce98e7c0b",
        "type": "message",
        "text": "that's fine. So I will take on those listed in #3, DM them and ask our set of questions, yes?",
        "user": "UV0PCSG58",
        "ts": "1585164466.026900",
        "team": "TUU48M0T1",
        "user_team": "TUU48M0T1",
        "source_team": "TUU48M0T1",
        "user_profile": {
            "avatar_hash": "f39dcc98ce27",
            "image_72": "https:\/\/avatars.slack-edge.com\/2020-03-25\/1026668986768_f39dcc98ce2701046e27_72.jpg",
            "first_name": "",
            "real_name": "emilym",
            "display_name": "emilym",
            "team": "TUU48M0T1",
            "name": "emonosson",
            "is_restricted": false,
            "is_ultra_restricted": false
        },
        "blocks": [
            {
                "type": "rich_text",
                "block_id": "tzjA",
                "elements": [
                    {
                        "type": "rich_text_section",
                        "elements": [
                            {
                                "type": "text",
                                "text": "that's fine. So I will take on those listed in #3, DM them and ask our set of questions, yes?"
                            }
                        ]
                    }
                ]
            }
        ],
        "thread_ts": "1585150726.018100",
        "parent_user_id": "U010APQC76J"
    },
    {
        "client_msg_id": "094015f3-be49-4f23-8fef-703a5ebd128d",
        "type": "message",
        "text": "1.Current Goal 2) Progress (since first time, no last time) 3) Next steps 4) Obstacles\/needs",
        "user": "UV0PCSG58",
        "ts": "1585164624.027300",
        "team": "TUU48M0T1",
        "user_team": "TUU48M0T1",
        "source_team": "TUU48M0T1",
        "user_profile": {
            "avatar_hash": "f39dcc98ce27",
            "image_72": "https:\/\/avatars.slack-edge.com\/2020-03-25\/1026668986768_f39dcc98ce2701046e27_72.jpg",
            "first_name": "",
            "real_name": "emilym",
            "display_name": "emilym",
            "team": "TUU48M0T1",
            "name": "emonosson",
            "is_restricted": false,
            "is_ultra_restricted": false
        },
        "blocks": [
            {
                "type": "rich_text",
                "block_id": "Qf9",
                "elements": [
                    {
                        "type": "rich_text_section",
                        "elements": [
                            {
                                "type": "text",
                                "text": "1.Current Goal 2) Progress (since first time, no last time) 3) Next steps 4) Obstacles\/needs"
                            }
                        ]
                    }
                ]
            }
        ],
        "thread_ts": "1585150726.018100",
        "parent_user_id": "U010APQC76J"
    },
    {
        "client_msg_id": "f96d074a-101a-4d39-8845-e640ce324267",
        "type": "message",
        "text": "I think we are ready to go and ask each program what's up. So right now OK I think. Hopefully we can compile a list by Friday. I have been asked to write a blog\/COVID related post by Island Press and they have an Island Medium Channel. I said I would ask this group when they\/we are ready to publicize. I thought maybe a short post based on the JOGL community, ongoing work and info we collect. Something to talk about, wouldn't do it unless OK with whole group and whoever makes those kinds of decisions! Any would be happy to have co-authors if we think its a good idea.",
        "user": "UV0PCSG58",
        "ts": "1585164952.027600",
        "team": "TUU48M0T1",
        "user_team": "TUU48M0T1",
        "source_team": "TUU48M0T1",
        "user_profile": {
            "avatar_hash": "f39dcc98ce27",
            "image_72": "https:\/\/avatars.slack-edge.com\/2020-03-25\/1026668986768_f39dcc98ce2701046e27_72.jpg",
            "first_name": "",
            "real_name": "emilym",
            "display_name": "emilym",
            "team": "TUU48M0T1",
            "name": "emonosson",
            "is_restricted": false,
            "is_ultra_restricted": false
        },
        "blocks": [
            {
                "type": "rich_text",
                "block_id": "SS9B",
                "elements": [
                    {
                        "type": "rich_text_section",
                        "elements": [
                            {
                                "type": "text",
                                "text": "I think we are ready to go and ask each program what's up. So right now OK I think. Hopefully we can compile a list by Friday. I have been asked to write a blog\/COVID related post by Island Press and they have an Island Medium Channel. I said I would ask this group when they\/we are ready to publicize. I thought maybe a short post based on the JOGL community, ongoing work and info we collect. Something to talk about, wouldn't do it unless OK with whole group and whoever makes those kinds of decisions! Any would be happy to have co-authors if we think its a good idea."
                            }
                        ]
                    }
                ]
            }
        ],
        "thread_ts": "1585155656.020200",
        "parent_user_id": "UV2SC7ZE3"
    },
    {
        "client_msg_id": "fbe340e0-f294-4446-86b2-83a6c845d305",
        "type": "message",
        "text": "<@U010APQC76J> <@UV2SC7ZE3> <@U01019BQXM3> anyone know how I can get in touch with Anteneh Gashaw, can't find handle or in name. Thanks.",
        "user": "UV0PCSG58",
        "ts": "1585165446.029000",
        "team": "TUU48M0T1",
        "user_team": "TUU48M0T1",
        "source_team": "TUU48M0T1",
        "user_profile": {
            "avatar_hash": "f39dcc98ce27",
            "image_72": "https:\/\/avatars.slack-edge.com\/2020-03-25\/1026668986768_f39dcc98ce2701046e27_72.jpg",
            "first_name": "",
            "real_name": "emilym",
            "display_name": "emilym",
            "team": "TUU48M0T1",
            "name": "emonosson",
            "is_restricted": false,
            "is_ultra_restricted": false
        },
        "blocks": [
            {
                "type": "rich_text",
                "block_id": "y+qK",
                "elements": [
                    {
                        "type": "rich_text_section",
                        "elements": [
                            {
                                "type": "user",
                                "user_id": "U010APQC76J"
                            },
                            {
                                "type": "text",
                                "text": " "
                            },
                            {
                                "type": "user",
                                "user_id": "UV2SC7ZE3"
                            },
                            {
                                "type": "text",
                                "text": " "
                            },
                            {
                                "type": "user",
                                "user_id": "U01019BQXM3"
                            },
                            {
                                "type": "text",
                                "text": " anyone know how I can get in touch with Anteneh Gashaw, can't find handle or in name. Thanks."
                            }
                        ]
                    }
                ]
            }
        ],
        "thread_ts": "1585165446.029000",
        "reply_count": 3,
        "reply_users_count": 2,
        "latest_reply": "1586443091.445200",
        "reply_users": [
            "UV2SC7ZE3",
            "U011B6VLM2A"
        ],
        "replies": [
            {
                "user": "UV2SC7ZE3",
                "ts": "1585176993.030800"
            },
            {
                "user": "UV2SC7ZE3",
                "ts": "1585177225.031100"
            },
            {
                "user": "U011B6VLM2A",
                "ts": "1586443091.445200"
            }
        ],
        "subscribed": false
    },
    {
        "client_msg_id": "99a12787-987d-415d-9272-9e89e2b5ffe6",
        "type": "message",
        "text": "Hi all, not able to find a few handles. Anyone know how I can do that? (they don't show up when I search for a person by name in slack.) Is there a spreadsheet with that stuff on it? Names and handles?",
        "user": "UV0PCSG58",
        "ts": "1585165948.030200",
        "team": "TUU48M0T1",
        "user_team": "TUU48M0T1",
        "source_team": "TUU48M0T1",
        "user_profile": {
            "avatar_hash": "f39dcc98ce27",
            "image_72": "https:\/\/avatars.slack-edge.com\/2020-03-25\/1026668986768_f39dcc98ce2701046e27_72.jpg",
            "first_name": "",
            "real_name": "emilym",
            "display_name": "emilym",
            "team": "TUU48M0T1",
            "name": "emonosson",
            "is_restricted": false,
            "is_ultra_restricted": false
        },
        "blocks": [
            {
                "type": "rich_text",
                "block_id": "7Pr",
                "elements": [
                    {
                        "type": "rich_text_section",
                        "elements": [
                            {
                                "type": "text",
                                "text": "Hi all, not able to find a few handles. Anyone know how I can do that? (they don't show up when I search for a person by name in slack.) Is there a spreadsheet with that stuff on it? Names and handles?"
                            }
                        ]
                    }
                ]
            }
        ]
    },
    {
        "client_msg_id": "e4cfe7d6-c644-4be4-9fab-2bdff903a037",
        "type": "message",
        "text": "Awesome. I think that should be something to potentially discuss at our next meeting then",
        "user": "UV2SC7ZE3",
        "ts": "1585176541.030600",
        "team": "TUU48M0T1",
        "user_team": "TUU48M0T1",
        "source_team": "TUU48M0T1",
        "user_profile": {
            "avatar_hash": "d28dd0d076e8",
            "image_72": "https:\/\/avatars.slack-edge.com\/2020-03-14\/987873094258_d28dd0d076e8fa9a8409_72.png",
            "first_name": "David",
            "real_name": "David Lu",
            "display_name": "David Lu",
            "team": "TUU48M0T1",
            "name": "ludavidyi",
            "is_restricted": false,
            "is_ultra_restricted": false
        },
        "blocks": [
            {
                "type": "rich_text",
                "block_id": "FkBA",
                "elements": [
                    {
                        "type": "rich_text_section",
                        "elements": [
                            {
                                "type": "text",
                                "text": "Awesome. I think that should be something to potentially discuss at our next meeting then"
                            }
                        ]
                    }
                ]
            }
        ],
        "thread_ts": "1585155656.020200",
        "parent_user_id": "UV2SC7ZE3"
    },
    {
        "client_msg_id": "f759567f-6ff9-4180-84e1-8339ba685d0f",
        "type": "message",
        "text": "That's interesting...",
        "user": "UV2SC7ZE3",
        "ts": "1585176993.030800",
        "team": "TUU48M0T1",
        "user_team": "TUU48M0T1",
        "source_team": "TUU48M0T1",
        "user_profile": {
            "avatar_hash": "d28dd0d076e8",
            "image_72": "https:\/\/avatars.slack-edge.com\/2020-03-14\/987873094258_d28dd0d076e8fa9a8409_72.png",
            "first_name": "David",
            "real_name": "David Lu",
            "display_name": "David Lu",
            "team": "TUU48M0T1",
            "name": "ludavidyi",
            "is_restricted": false,
            "is_ultra_restricted": false
        },
        "edited": {
            "user": "UV2SC7ZE3",
            "ts": "1585177072.000000"
        },
        "blocks": [
            {
                "type": "rich_text",
                "block_id": "o9hU",
                "elements": [
                    {
                        "type": "rich_text_section",
                        "elements": [
                            {
                                "type": "text",
                                "text": "That's interesting..."
                            }
                        ]
                    }
                ]
            }
        ],
        "thread_ts": "1585165446.029000",
        "parent_user_id": "UV0PCSG58"
    },
    {
        "client_msg_id": "97d08cf3-76c0-4ee7-83d5-a57706278317",
        "type": "message",
        "text": "It seems like Anteneh Gashaw has two different projects and the sole member. Although I think his projects are interesting, I think we should focus on communicating projects which have more community support",
        "user": "UV2SC7ZE3",
        "ts": "1585177225.031100",
        "team": "TUU48M0T1",
        "user_team": "TUU48M0T1",
        "source_team": "TUU48M0T1",
        "user_profile": {
            "avatar_hash": "d28dd0d076e8",
            "image_72": "https:\/\/avatars.slack-edge.com\/2020-03-14\/987873094258_d28dd0d076e8fa9a8409_72.png",
            "first_name": "David",
            "real_name": "David Lu",
            "display_name": "David Lu",
            "team": "TUU48M0T1",
            "name": "ludavidyi",
            "is_restricted": false,
            "is_ultra_restricted": false
        },
        "blocks": [
            {
                "type": "rich_text",
                "block_id": "qmrV",
                "elements": [
                    {
                        "type": "rich_text_section",
                        "elements": [
                            {
                                "type": "text",
                                "text": "It seems like Anteneh Gashaw has two different projects and the sole member. Although I think his projects are interesting, I think we should focus on communicating projects which have more community support"
                            }
                        ]
                    }
                ]
            }
        ],
        "thread_ts": "1585165446.029000",
        "parent_user_id": "UV0PCSG58"
    },
    {
        "client_msg_id": "07beca3c-7823-4338-9682-9cebe1c04111",
        "type": "message",
        "text": "<@U01019BQXM3> <@UV02WET96> <@UV0QTJCMT> Correct me if I'm wrong, but I think we are communicating the progress of the \"Open-source covid19 detection kits\" project and not the entire OpenCovid 19 program? I ask this because I don't think we represent Helpful Engineering and other groups if they have their own structure and slack servers. I thought we wanted to communicate the progress of this project, under which there are multiple challenges...However, I may be confused as to what constitutes a \"project\" as there seems to be multiple meanings.",
        "user": "UV2SC7ZE3",
        "ts": "1585177513.034100",
        "team": "TUU48M0T1",
        "user_team": "TUU48M0T1",
        "source_team": "TUU48M0T1",
        "user_profile": {
            "avatar_hash": "d28dd0d076e8",
            "image_72": "https:\/\/avatars.slack-edge.com\/2020-03-14\/987873094258_d28dd0d076e8fa9a8409_72.png",
            "first_name": "David",
            "real_name": "David Lu",
            "display_name": "David Lu",
            "team": "TUU48M0T1",
            "name": "ludavidyi",
            "is_restricted": false,
            "is_ultra_restricted": false
        },
        "blocks": [
            {
                "type": "rich_text",
                "block_id": "7Be",
                "elements": [
                    {
                        "type": "rich_text_section",
                        "elements": [
                            {
                                "type": "user",
                                "user_id": "U01019BQXM3"
                            },
                            {
                                "type": "text",
                                "text": " "
                            },
                            {
                                "type": "user",
                                "user_id": "UV02WET96"
                            },
                            {
                                "type": "text",
                                "text": " "
                            },
                            {
                                "type": "user",
                                "user_id": "UV0QTJCMT"
                            },
                            {
                                "type": "text",
                                "text": " Correct me if I'm wrong, but I think we are communicating the progress of the \"Open-source covid19 detection kits\" project and not the entire OpenCovid 19 program? I ask this because I don't think we represent Helpful Engineering and other groups if they have their own structure and slack servers. I thought we wanted to communicate the progress of this project, under which there are multiple challenges...However, I may be confused as to what constitutes a \"project\" as there seems to be multiple meanings."
                            }
                        ]
                    }
                ]
            }
        ]
    }
]