[
    {
        "client_msg_id": "fe160223-6ff3-4f16-ae2c-78819b6e741b",
        "type": "message",
        "text": "Hi All,\nI'm a journalist and working for Makery on an article about JOGL and its projects.\nI would need some infos. Would anyone be available to talk to me ?\nThanks !\nElsa",
        "user": "U012YDF5XEG",
        "ts": "1588327798.217600",
        "team": "TUU48M0T1",
        "user_team": "TUU48M0T1",
        "source_team": "TUU48M0T1",
        "user_profile": {
            "avatar_hash": "g5ba7327cada",
            "image_72": "https:\/\/secure.gravatar.com\/avatar\/5ba7327cadab2bf375d8eabd78028e8a.jpg?s=72&d=https%3A%2F%2Fa.slack-edge.com%2Fdf10d%2Fimg%2Favatars%2Fava_0018-72.png",
            "first_name": "",
            "real_name": "e ferreira contact",
            "display_name": "e ferreira contact",
            "team": "TUU48M0T1",
            "name": "e.ferreira.contact",
            "is_restricted": false,
            "is_ultra_restricted": false
        },
        "blocks": [
            {
                "type": "rich_text",
                "block_id": "hmWfY",
                "elements": [
                    {
                        "type": "rich_text_section",
                        "elements": [
                            {
                                "type": "text",
                                "text": "Hi All,\nI'm a journalist and working for Makery on an article about JOGL and its projects.\nI would need some infos. Would anyone be available to talk to me ?\nThanks !\nElsa"
                            }
                        ]
                    }
                ]
            }
        ],
        "thread_ts": "1588327798.217600",
        "reply_count": 2,
        "reply_users_count": 2,
        "latest_reply": "1588350982.226100",
        "reply_users": [
            "UV9V03C8Y",
            "UV0QTJCMT"
        ],
        "replies": [
            {
                "user": "UV9V03C8Y",
                "ts": "1588335732.218100"
            },
            {
                "user": "UV0QTJCMT",
                "ts": "1588350982.226100"
            }
        ],
        "subscribed": false
    },
    {
        "client_msg_id": "aaa565f7-6e7b-49b7-9fb2-26aeb32184aa",
        "type": "message",
        "text": "<@U011VF29MK2> do you know them personally ?",
        "user": "UVC9WMA7N",
        "ts": "1588332224.217700",
        "team": "TUU48M0T1",
        "user_team": "TUU48M0T1",
        "source_team": "TUU48M0T1",
        "user_profile": {
            "avatar_hash": "56d14d58ed53",
            "image_72": "https:\/\/avatars.slack-edge.com\/2020-03-13\/998337892660_56d14d58ed537e6e4654_72.png",
            "first_name": "Leo",
            "real_name": "Leo Blondel",
            "display_name": "Leo Blondel - JOGL CoFounder \/ CTO",
            "team": "TUU48M0T1",
            "name": "leo",
            "is_restricted": false,
            "is_ultra_restricted": false
        },
        "blocks": [
            {
                "type": "rich_text",
                "block_id": "vVFy",
                "elements": [
                    {
                        "type": "rich_text_section",
                        "elements": [
                            {
                                "type": "user",
                                "user_id": "U011VF29MK2"
                            },
                            {
                                "type": "text",
                                "text": " do you know them personally ?"
                            }
                        ]
                    }
                ]
            }
        ],
        "thread_ts": "1588289639.215300",
        "parent_user_id": "U011VF29MK2"
    },
    {
        "client_msg_id": "54988083-5af8-4f20-b31e-2a61b9485df9",
        "type": "message",
        "text": "There website is registered under a \".pr\" domain name, so it peeked my attention, they say they are LA based ? Are they run by Puerto Ricans :smile:",
        "user": "UVC9WMA7N",
        "ts": "1588332392.217900",
        "team": "TUU48M0T1",
        "user_team": "TUU48M0T1",
        "source_team": "TUU48M0T1",
        "user_profile": {
            "avatar_hash": "56d14d58ed53",
            "image_72": "https:\/\/avatars.slack-edge.com\/2020-03-13\/998337892660_56d14d58ed537e6e4654_72.png",
            "first_name": "Leo",
            "real_name": "Leo Blondel",
            "display_name": "Leo Blondel - JOGL CoFounder \/ CTO",
            "team": "TUU48M0T1",
            "name": "leo",
            "is_restricted": false,
            "is_ultra_restricted": false
        },
        "blocks": [
            {
                "type": "rich_text",
                "block_id": "KRR",
                "elements": [
                    {
                        "type": "rich_text_section",
                        "elements": [
                            {
                                "type": "text",
                                "text": "There website is registered under a \".pr\" domain name, so it peeked my attention, they say they are LA based ? Are they run by Puerto Ricans "
                            },
                            {
                                "type": "emoji",
                                "name": "smile"
                            }
                        ]
                    }
                ]
            }
        ],
        "thread_ts": "1588289639.215300",
        "parent_user_id": "U011VF29MK2"
    },
    {
        "client_msg_id": "75a06993-aa4b-4ae8-b72b-38abbaa26f21",
        "type": "message",
        "text": "Hi! You could go to <@UV02WET96> <@UV0QTJCMT>; I'm happy to help with documentation if you need it!",
        "user": "UV9V03C8Y",
        "ts": "1588335732.218100",
        "team": "TUU48M0T1",
        "user_team": "TUU48M0T1",
        "source_team": "TUU48M0T1",
        "user_profile": {
            "avatar_hash": "177697fb7b8f",
            "image_72": "https:\/\/avatars.slack-edge.com\/2020-03-12\/996126178096_177697fb7b8ffa57649c_72.jpg",
            "first_name": "Camille",
            "real_name": "Camille Masselot - JOGL Program coordinator",
            "display_name": "Camille Masselot - JOGL coordinator",
            "team": "TUU48M0T1",
            "name": "masselot.camille",
            "is_restricted": false,
            "is_ultra_restricted": false
        },
        "blocks": [
            {
                "type": "rich_text",
                "block_id": "KVZr",
                "elements": [
                    {
                        "type": "rich_text_section",
                        "elements": [
                            {
                                "type": "text",
                                "text": "Hi! You could go to "
                            },
                            {
                                "type": "user",
                                "user_id": "UV02WET96"
                            },
                            {
                                "type": "text",
                                "text": " "
                            },
                            {
                                "type": "user",
                                "user_id": "UV0QTJCMT"
                            },
                            {
                                "type": "text",
                                "text": "; I'm happy to help with documentation if you need it!"
                            }
                        ]
                    }
                ]
            }
        ],
        "thread_ts": "1588327798.217600",
        "parent_user_id": "U012YDF5XEG",
        "reactions": [
            {
                "name": "+1",
                "users": [
                    "UV0QTJCMT"
                ],
                "count": 1
            }
        ]
    },
    {
        "client_msg_id": "cf4b4c07-7a37-42b9-bf08-f4b9bed2b026",
        "type": "message",
        "text": "Should someone review the social media posts I make that announce the community calls and the youtube uploads? Or should we have a well-written template? Because at the moment I'm just writing and sending which may end up filling our social media with suboptimal quality posts :stuck_out_tongue:",
        "user": "U010APQC76J",
        "ts": "1588343145.219800",
        "team": "TUU48M0T1",
        "user_team": "TUU48M0T1",
        "source_team": "TUU48M0T1",
        "user_profile": {
            "avatar_hash": "751a8e7a94a5",
            "image_72": "https:\/\/avatars.slack-edge.com\/2020-03-25\/1026091401893_751a8e7a94a519bfd1d7_72.jpg",
            "first_name": "Hans",
            "real_name": "Hans Pfalzgraf",
            "display_name": "Hans P",
            "team": "TUU48M0T1",
            "name": "h.pfalzgraf",
            "is_restricted": false,
            "is_ultra_restricted": false
        },
        "blocks": [
            {
                "type": "rich_text",
                "block_id": "g9R\/X",
                "elements": [
                    {
                        "type": "rich_text_section",
                        "elements": [
                            {
                                "type": "text",
                                "text": "Should someone review the social media posts I make that announce the community calls and the youtube uploads? Or should we have a well-written template? Because at the moment I'm just writing and sending which may end up filling our social media with suboptimal quality posts "
                            },
                            {
                                "type": "emoji",
                                "name": "stuck_out_tongue"
                            }
                        ]
                    }
                ]
            }
        ],
        "thread_ts": "1588343145.219800",
        "reply_count": 3,
        "reply_users_count": 2,
        "latest_reply": "1588692525.230000",
        "reply_users": [
            "UV2SC7ZE3",
            "U010APQC76J"
        ],
        "replies": [
            {
                "user": "UV2SC7ZE3",
                "ts": "1588348605.224600"
            },
            {
                "user": "UV2SC7ZE3",
                "ts": "1588353900.226300"
            },
            {
                "user": "U010APQC76J",
                "ts": "1588692525.230000"
            }
        ],
        "subscribed": false
    },
    {
        "client_msg_id": "64260eb2-8e6e-44dc-9d79-33360a251cc6",
        "type": "message",
        "text": "Hi <@UVC9WMA7N> :slightly_smiling_face: they are based in the US, primarily in LA, I believe they have an office in NYC...I was in touch with them briefly a few months ago, nothing came of it, but they do great work!",
        "user": "U011VF29MK2",
        "ts": "1588347493.219900",
        "team": "TUU48M0T1",
        "user_team": "TUU48M0T1",
        "source_team": "TUU48M0T1",
        "user_profile": {
            "avatar_hash": "0ef0287e69f4",
            "image_72": "https:\/\/avatars.slack-edge.com\/2020-04-07\/1045707527815_0ef0287e69f4d3296eaf_72.jpg",
            "first_name": "Catherine",
            "real_name": "Catherine Coykendall",
            "display_name": "Catherine Coykendall - Marketing Consultant",
            "team": "TUU48M0T1",
            "name": "c.coyken1978",
            "is_restricted": false,
            "is_ultra_restricted": false
        },
        "blocks": [
            {
                "type": "rich_text",
                "block_id": "z1dx",
                "elements": [
                    {
                        "type": "rich_text_section",
                        "elements": [
                            {
                                "type": "text",
                                "text": "Hi "
                            },
                            {
                                "type": "user",
                                "user_id": "UVC9WMA7N"
                            },
                            {
                                "type": "text",
                                "text": " "
                            },
                            {
                                "type": "emoji",
                                "name": "slightly_smiling_face"
                            },
                            {
                                "type": "text",
                                "text": " they are based in the US, primarily in LA, I believe they have an office in NYC...I was in touch with them briefly a few months ago, nothing came of it, but they do great work!"
                            }
                        ]
                    }
                ]
            }
        ],
        "thread_ts": "1588289639.215300",
        "parent_user_id": "U011VF29MK2"
    },
    {
        "client_msg_id": "b9545c85-6d08-4e32-8faa-274c4965f430",
        "type": "message",
        "text": "<@UVC9WMA7N> <@UV02WET96> <@U010Q3372P3> <@UV9V03C8Y> <@UV2SC7ZE3> <@U010W4KTANM> <@UV0QTJCMT> Hi All, Apologies - I absolutely cannot make our comms call today, I am really under the weather and going back to bed for most of the day...my only agenda item is to provide an update on the digital brand strategy, I met with <@UV85V64SD>, to review the JOGL site performance which will be used to tee up the deck, I owe him a few slides which will have to wait until Monday, I also have been working with a creative Matt Horton who is working on concepts for the value proposition and mission statement, all of this will be the upfront for the deck and as soon as this can get locked away the rest should flow pretty easily, my goal is to have something ready to show in the next two weeks - any questions please let me know!",
        "user": "U011VF29MK2",
        "ts": "1588347800.224500",
        "team": "TUU48M0T1",
        "user_team": "TUU48M0T1",
        "source_team": "TUU48M0T1",
        "user_profile": {
            "avatar_hash": "0ef0287e69f4",
            "image_72": "https:\/\/avatars.slack-edge.com\/2020-04-07\/1045707527815_0ef0287e69f4d3296eaf_72.jpg",
            "first_name": "Catherine",
            "real_name": "Catherine Coykendall",
            "display_name": "Catherine Coykendall - Marketing Consultant",
            "team": "TUU48M0T1",
            "name": "c.coyken1978",
            "is_restricted": false,
            "is_ultra_restricted": false
        },
        "blocks": [
            {
                "type": "rich_text",
                "block_id": "u5TgP",
                "elements": [
                    {
                        "type": "rich_text_section",
                        "elements": [
                            {
                                "type": "user",
                                "user_id": "UVC9WMA7N"
                            },
                            {
                                "type": "text",
                                "text": " "
                            },
                            {
                                "type": "user",
                                "user_id": "UV02WET96"
                            },
                            {
                                "type": "text",
                                "text": " "
                            },
                            {
                                "type": "user",
                                "user_id": "U010Q3372P3"
                            },
                            {
                                "type": "text",
                                "text": " "
                            },
                            {
                                "type": "user",
                                "user_id": "UV9V03C8Y"
                            },
                            {
                                "type": "text",
                                "text": " "
                            },
                            {
                                "type": "user",
                                "user_id": "UV2SC7ZE3"
                            },
                            {
                                "type": "text",
                                "text": " "
                            },
                            {
                                "type": "user",
                                "user_id": "U010W4KTANM"
                            },
                            {
                                "type": "text",
                                "text": " "
                            },
                            {
                                "type": "user",
                                "user_id": "UV0QTJCMT"
                            },
                            {
                                "type": "text",
                                "text": " Hi All, Apologies - I absolutely cannot make our comms call today, I am really under the weather and going back to bed for most of the day...my only agenda item is to provide an update on the digital brand strategy, I met with "
                            },
                            {
                                "type": "user",
                                "user_id": "UV85V64SD"
                            },
                            {
                                "type": "text",
                                "text": ", to review the JOGL site performance which will be used to tee up the deck, I owe him a few slides which will have to wait until Monday, I also have been working with a creative Matt Horton who is working on concepts for the value proposition and mission statement, all of this will be the upfront for the deck and as soon as this can get locked away the rest should flow pretty easily, my goal is to have something ready to show in the next two weeks - any questions please let me know!"
                            }
                        ]
                    }
                ]
            }
        ],
        "reactions": [
            {
                "name": "+1",
                "users": [
                    "U011B6VLM2A",
                    "UV2SC7ZE3"
                ],
                "count": 2
            }
        ]
    },
    {
        "client_msg_id": "c8f26c96-7bba-42ba-805b-087cca6f4de6",
        "type": "message",
        "text": "I can help review them <@U010APQC76J>",
        "user": "UV2SC7ZE3",
        "ts": "1588348605.224600",
        "team": "TUU48M0T1",
        "user_team": "TUU48M0T1",
        "source_team": "TUU48M0T1",
        "user_profile": {
            "avatar_hash": "d28dd0d076e8",
            "image_72": "https:\/\/avatars.slack-edge.com\/2020-03-14\/987873094258_d28dd0d076e8fa9a8409_72.png",
            "first_name": "David",
            "real_name": "David Lu",
            "display_name": "David Lu",
            "team": "TUU48M0T1",
            "name": "ludavidyi",
            "is_restricted": false,
            "is_ultra_restricted": false
        },
        "blocks": [
            {
                "type": "rich_text",
                "block_id": "Gbg",
                "elements": [
                    {
                        "type": "rich_text_section",
                        "elements": [
                            {
                                "type": "text",
                                "text": "I can help review them "
                            },
                            {
                                "type": "user",
                                "user_id": "U010APQC76J"
                            }
                        ]
                    }
                ]
            }
        ],
        "thread_ts": "1588343145.219800",
        "parent_user_id": "U010APQC76J"
    },
    {
        "client_msg_id": "070CFB54-FCFA-4149-BB04-621194423DFD",
        "type": "message",
        "text": "hi <@U012YDF5XEG>! feel free to send me an email at <mailto:katherineh245@gmail.com|katherineh245@gmail.com> with any questions! ",
        "user": "UV0QTJCMT",
        "ts": "1588350982.226100",
        "team": "TUU48M0T1",
        "user_team": "TUU48M0T1",
        "source_team": "TUU48M0T1",
        "user_profile": {
            "avatar_hash": "06a6ae8f69d1",
            "image_72": "https:\/\/avatars.slack-edge.com\/2020-04-13\/1060635499315_06a6ae8f69d18f1ad464_72.png",
            "first_name": "Katherine",
            "real_name": "Katherine Holo",
            "display_name": "Kat Holo - Co-Organizer of OpenCOVID19",
            "team": "TUU48M0T1",
            "name": "katherineh245",
            "is_restricted": false,
            "is_ultra_restricted": false
        },
        "blocks": [
            {
                "type": "rich_text",
                "block_id": "hvFY",
                "elements": [
                    {
                        "type": "rich_text_section",
                        "elements": [
                            {
                                "type": "text",
                                "text": "hi "
                            },
                            {
                                "type": "user",
                                "user_id": "U012YDF5XEG"
                            },
                            {
                                "type": "text",
                                "text": "! feel free to send me an email at "
                            },
                            {
                                "type": "link",
                                "url": "mailto:katherineh245@gmail.com",
                                "text": "katherineh245@gmail.com"
                            },
                            {
                                "type": "text",
                                "text": " with any questions! "
                            }
                        ]
                    }
                ]
            }
        ],
        "thread_ts": "1588327798.217600",
        "parent_user_id": "U012YDF5XEG"
    },
    {
        "client_msg_id": "9b069958-81e3-42cc-a65d-d8100a9a0f3d",
        "type": "message",
        "text": "<@U010APQC76J> is it on the spreadsheet?",
        "user": "UV2SC7ZE3",
        "ts": "1588353900.226300",
        "team": "TUU48M0T1",
        "user_team": "TUU48M0T1",
        "source_team": "TUU48M0T1",
        "user_profile": {
            "avatar_hash": "d28dd0d076e8",
            "image_72": "https:\/\/avatars.slack-edge.com\/2020-03-14\/987873094258_d28dd0d076e8fa9a8409_72.png",
            "first_name": "David",
            "real_name": "David Lu",
            "display_name": "David Lu",
            "team": "TUU48M0T1",
            "name": "ludavidyi",
            "is_restricted": false,
            "is_ultra_restricted": false
        },
        "blocks": [
            {
                "type": "rich_text",
                "block_id": "1cygr",
                "elements": [
                    {
                        "type": "rich_text_section",
                        "elements": [
                            {
                                "type": "user",
                                "user_id": "U010APQC76J"
                            },
                            {
                                "type": "text",
                                "text": " is it on the spreadsheet?"
                            }
                        ]
                    }
                ]
            }
        ],
        "thread_ts": "1588343145.219800",
        "parent_user_id": "U010APQC76J"
    },
    {
        "client_msg_id": "a7cb99b0-9477-42b8-b56a-af83ae3cb8c0",
        "type": "message",
        "text": "Hi <!channel> — are we having a call today ?",
        "user": "U011B6VLM2A",
        "ts": "1588356205.226900",
        "team": "TUU48M0T1",
        "user_team": "TUU48M0T1",
        "source_team": "TUU48M0T1",
        "user_profile": {
            "avatar_hash": "4231dc598cfc",
            "image_72": "https:\/\/avatars.slack-edge.com\/2020-04-02\/1044784558839_4231dc598cfc2e59c4c4_72.jpg",
            "first_name": "Alix",
            "real_name": "Alix Mains",
            "display_name": "Alix Mains - JOGL Coordinator",
            "team": "TUU48M0T1",
            "name": "alixhmains",
            "is_restricted": false,
            "is_ultra_restricted": false
        },
        "blocks": [
            {
                "type": "rich_text",
                "block_id": "FrZ",
                "elements": [
                    {
                        "type": "rich_text_section",
                        "elements": [
                            {
                                "type": "text",
                                "text": "Hi "
                            },
                            {
                                "type": "broadcast",
                                "range": "channel"
                            },
                            {
                                "type": "text",
                                "text": " — are we having a call today ?"
                            }
                        ]
                    }
                ]
            }
        ]
    },
    {
        "client_msg_id": "a1683775-be65-4707-9e6d-f7f8e9779848",
        "type": "message",
        "text": "Update: no call today, let’s all touch base on Tuesday! Have a nice weekend everyone :slightly_smiling_face:",
        "user": "U011B6VLM2A",
        "ts": "1588356823.227400",
        "team": "TUU48M0T1",
        "user_team": "TUU48M0T1",
        "source_team": "TUU48M0T1",
        "user_profile": {
            "avatar_hash": "4231dc598cfc",
            "image_72": "https:\/\/avatars.slack-edge.com\/2020-04-02\/1044784558839_4231dc598cfc2e59c4c4_72.jpg",
            "first_name": "Alix",
            "real_name": "Alix Mains",
            "display_name": "Alix Mains - JOGL Coordinator",
            "team": "TUU48M0T1",
            "name": "alixhmains",
            "is_restricted": false,
            "is_ultra_restricted": false
        },
        "blocks": [
            {
                "type": "rich_text",
                "block_id": "yLy",
                "elements": [
                    {
                        "type": "rich_text_section",
                        "elements": [
                            {
                                "type": "text",
                                "text": "Update: no call today, let’s all touch base on Tuesday! Have a nice weekend everyone "
                            },
                            {
                                "type": "emoji",
                                "name": "slightly_smiling_face"
                            }
                        ]
                    }
                ]
            }
        ],
        "reactions": [
            {
                "name": "+1",
                "users": [
                    "UUWPKNE2E",
                    "UV2SC7ZE3",
                    "U011VF29MK2"
                ],
                "count": 3
            }
        ]
    }
]