[
    {
        "client_msg_id": "28626bf7-ee72-4af1-a232-9678fdcbd0ef",
        "type": "message",
        "text": "I've added a bunch of audiences and goal ideas for each. Feel free to edit, add, and maybe reorder with the most important at the top (because it's going in a looot of directions...)\nI haven't started strategies, if anyone is interested in having a go: <https:\/\/docs.google.com\/document\/d\/1JzwV3uq88xpBbJgmAP3xv1r6O05Z3TRU_FFR60U7Bcs\/>",
        "user": "U010APQC76J",
        "ts": "1584979911.148000",
        "team": "TUU48M0T1",
        "user_team": "TUU48M0T1",
        "source_team": "TUU48M0T1",
        "user_profile": {
            "avatar_hash": "751a8e7a94a5",
            "image_72": "https:\/\/avatars.slack-edge.com\/2020-03-25\/1026091401893_751a8e7a94a519bfd1d7_72.jpg",
            "first_name": "Hans",
            "real_name": "Hans Pfalzgraf",
            "display_name": "Hans P",
            "team": "TUU48M0T1",
            "name": "h.pfalzgraf",
            "is_restricted": false,
            "is_ultra_restricted": false
        },
        "blocks": [
            {
                "type": "rich_text",
                "block_id": "\/7r",
                "elements": [
                    {
                        "type": "rich_text_section",
                        "elements": [
                            {
                                "type": "text",
                                "text": "I've added a bunch of audiences and goal ideas for each. Feel free to edit, add, and maybe reorder with the most important at the top (because it's going in a looot of directions...)\nI haven't started strategies, if anyone is interested in having a go: "
                            },
                            {
                                "type": "link",
                                "url": "https:\/\/docs.google.com\/document\/d\/1JzwV3uq88xpBbJgmAP3xv1r6O05Z3TRU_FFR60U7Bcs\/"
                            }
                        ]
                    }
                ]
            }
        ],
        "thread_ts": "1584979911.148000",
        "reply_count": 1,
        "reply_users_count": 1,
        "latest_reply": "1584984364.152000",
        "reply_users": [
            "UV2SC7ZE3"
        ],
        "replies": [
            {
                "user": "UV2SC7ZE3",
                "ts": "1584984364.152000"
            }
        ],
        "subscribed": false,
        "reactions": [
            {
                "name": "+1",
                "users": [
                    "UV2SC7ZE3"
                ],
                "count": 1
            }
        ]
    },
    {
        "client_msg_id": "666ff51f-1803-4944-b627-64119232a5a3",
        "type": "message",
        "text": "Hi <!channel>! Hope you're doing all well! The opencovid19 initiative is having a new partner which is willing to disseminate information across their network. To this matter, they asked me for a press toolkit. Reading the minutes of your calls I understand this is something in process. Is there any chance you already have some program presentation, logos, baneers, that I could send to them? Thanks a lot!",
        "user": "UV9V03C8Y",
        "ts": "1584984144.151500",
        "team": "TUU48M0T1",
        "user_team": "TUU48M0T1",
        "source_team": "TUU48M0T1",
        "user_profile": {
            "avatar_hash": "177697fb7b8f",
            "image_72": "https:\/\/avatars.slack-edge.com\/2020-03-12\/996126178096_177697fb7b8ffa57649c_72.jpg",
            "first_name": "Camille",
            "real_name": "Camille Masselot - JOGL Program coordinator",
            "display_name": "Camille Masselot - JOGL coordinator",
            "team": "TUU48M0T1",
            "name": "masselot.camille",
            "is_restricted": false,
            "is_ultra_restricted": false
        },
        "blocks": [
            {
                "type": "rich_text",
                "block_id": "3rXo",
                "elements": [
                    {
                        "type": "rich_text_section",
                        "elements": [
                            {
                                "type": "text",
                                "text": "Hi "
                            },
                            {
                                "type": "broadcast",
                                "range": "channel"
                            },
                            {
                                "type": "text",
                                "text": "! Hope you're doing all well! The opencovid19 initiative is having a new partner which is willing to disseminate information across their network. To this matter, they asked me for a press toolkit. Reading the minutes of your calls I understand this is something in process. Is there any chance you already have some program presentation, logos, baneers, that I could send to them? Thanks a lot!"
                            }
                        ]
                    }
                ]
            }
        ],
        "thread_ts": "1584984144.151500",
        "reply_count": 11,
        "reply_users_count": 4,
        "latest_reply": "1585110795.000200",
        "reply_users": [
            "UV0QTJCMT",
            "UV9V03C8Y",
            "UV2SC7ZE3",
            "U01019BQXM3"
        ],
        "replies": [
            {
                "user": "UV0QTJCMT",
                "ts": "1584984180.151600"
            },
            {
                "user": "UV9V03C8Y",
                "ts": "1584984514.152200"
            },
            {
                "user": "UV2SC7ZE3",
                "ts": "1584985214.152400"
            },
            {
                "user": "UV2SC7ZE3",
                "ts": "1584985337.152700"
            },
            {
                "user": "UV0QTJCMT",
                "ts": "1584985360.153100"
            },
            {
                "user": "UV9V03C8Y",
                "ts": "1584989165.154700"
            },
            {
                "user": "U01019BQXM3",
                "ts": "1584995963.157300"
            },
            {
                "user": "U01019BQXM3",
                "ts": "1584995996.158200"
            },
            {
                "user": "U01019BQXM3",
                "ts": "1584996000.158500"
            },
            {
                "user": "UV9V03C8Y",
                "ts": "1584996164.161400"
            },
            {
                "user": "UV0QTJCMT",
                "ts": "1585110795.000200"
            }
        ],
        "subscribed": false,
        "reactions": [
            {
                "name": "+1",
                "users": [
                    "UUWPKNE2E"
                ],
                "count": 1
            }
        ]
    },
    {
        "client_msg_id": "3c3fb24d-b73c-4b78-8460-0fd99166a4e8",
        "type": "message",
        "text": "<@UV9V03C8Y> I believe there are banners in the design folder, or <@UV6PMT2DQ> was the person who designed them",
        "user": "UV0QTJCMT",
        "ts": "1584984180.151600",
        "team": "TUU48M0T1",
        "user_team": "TUU48M0T1",
        "source_team": "TUU48M0T1",
        "user_profile": {
            "avatar_hash": "06a6ae8f69d1",
            "image_72": "https:\/\/avatars.slack-edge.com\/2020-04-13\/1060635499315_06a6ae8f69d18f1ad464_72.png",
            "first_name": "Katherine",
            "real_name": "Katherine Holo",
            "display_name": "Kat Holo - Co-Organizer of OpenCOVID19",
            "team": "TUU48M0T1",
            "name": "katherineh245",
            "is_restricted": false,
            "is_ultra_restricted": false
        },
        "blocks": [
            {
                "type": "rich_text",
                "block_id": "OJ\/kW",
                "elements": [
                    {
                        "type": "rich_text_section",
                        "elements": [
                            {
                                "type": "user",
                                "user_id": "UV9V03C8Y"
                            },
                            {
                                "type": "text",
                                "text": " I believe there are banners in the design folder, or "
                            },
                            {
                                "type": "user",
                                "user_id": "UV6PMT2DQ"
                            },
                            {
                                "type": "text",
                                "text": " was the person who designed them"
                            }
                        ]
                    }
                ]
            }
        ],
        "thread_ts": "1584984144.151500",
        "parent_user_id": "UV9V03C8Y"
    },
    {
        "client_msg_id": "a1df9d48-9f80-490e-9a77-b2bf788e5625",
        "type": "message",
        "text": "Thanks Hans!",
        "user": "UV2SC7ZE3",
        "ts": "1584984364.152000",
        "team": "TUU48M0T1",
        "user_team": "TUU48M0T1",
        "source_team": "TUU48M0T1",
        "user_profile": {
            "avatar_hash": "d28dd0d076e8",
            "image_72": "https:\/\/avatars.slack-edge.com\/2020-03-14\/987873094258_d28dd0d076e8fa9a8409_72.png",
            "first_name": "David",
            "real_name": "David Lu",
            "display_name": "David Lu",
            "team": "TUU48M0T1",
            "name": "ludavidyi",
            "is_restricted": false,
            "is_ultra_restricted": false
        },
        "blocks": [
            {
                "type": "rich_text",
                "block_id": "\/Fc",
                "elements": [
                    {
                        "type": "rich_text_section",
                        "elements": [
                            {
                                "type": "text",
                                "text": "Thanks Hans!"
                            }
                        ]
                    }
                ]
            }
        ],
        "thread_ts": "1584979911.148000",
        "parent_user_id": "U010APQC76J"
    },
    {
        "client_msg_id": "0969ee28-e265-4973-b301-a31ff1b37d9e",
        "type": "message",
        "text": "Thanks <@UV0QTJCMT>! Actually I am more in need of a document which describe the program, the community, the needs, how to collaborate, links to social media account, contact person, etc; I am happy to put pieces together if some of these things are described somewhere :slightly_smiling_face: !",
        "user": "UV9V03C8Y",
        "ts": "1584984514.152200",
        "team": "TUU48M0T1",
        "user_team": "TUU48M0T1",
        "source_team": "TUU48M0T1",
        "user_profile": {
            "avatar_hash": "177697fb7b8f",
            "image_72": "https:\/\/avatars.slack-edge.com\/2020-03-12\/996126178096_177697fb7b8ffa57649c_72.jpg",
            "first_name": "Camille",
            "real_name": "Camille Masselot - JOGL Program coordinator",
            "display_name": "Camille Masselot - JOGL coordinator",
            "team": "TUU48M0T1",
            "name": "masselot.camille",
            "is_restricted": false,
            "is_ultra_restricted": false
        },
        "blocks": [
            {
                "type": "rich_text",
                "block_id": "6jPRt",
                "elements": [
                    {
                        "type": "rich_text_section",
                        "elements": [
                            {
                                "type": "text",
                                "text": "Thanks "
                            },
                            {
                                "type": "user",
                                "user_id": "UV0QTJCMT"
                            },
                            {
                                "type": "text",
                                "text": "! Actually I am more in need of a document which describe the program, the community, the needs, how to collaborate, links to social media account, contact person, etc; I am happy to put pieces together if some of these things are described somewhere "
                            },
                            {
                                "type": "emoji",
                                "name": "slightly_smiling_face"
                            },
                            {
                                "type": "text",
                                "text": " !"
                            }
                        ]
                    }
                ]
            }
        ],
        "thread_ts": "1584984144.151500",
        "parent_user_id": "UV9V03C8Y"
    },
    {
        "client_msg_id": "cd8e55ae-2b62-443a-9ae2-e51d1fd4bdc8",
        "type": "message",
        "text": "Hey Camille. Yeah, unfortunately, we don't have that info rn. However, there were social media links pinned in this channel and I believe the opencovid19 email address will be the primary contact information.",
        "user": "UV2SC7ZE3",
        "ts": "1584985214.152400",
        "team": "TUU48M0T1",
        "user_team": "TUU48M0T1",
        "source_team": "TUU48M0T1",
        "user_profile": {
            "avatar_hash": "d28dd0d076e8",
            "image_72": "https:\/\/avatars.slack-edge.com\/2020-03-14\/987873094258_d28dd0d076e8fa9a8409_72.png",
            "first_name": "David",
            "real_name": "David Lu",
            "display_name": "David Lu",
            "team": "TUU48M0T1",
            "name": "ludavidyi",
            "is_restricted": false,
            "is_ultra_restricted": false
        },
        "edited": {
            "user": "UV2SC7ZE3",
            "ts": "1584985261.000000"
        },
        "blocks": [
            {
                "type": "rich_text",
                "block_id": "vX27",
                "elements": [
                    {
                        "type": "rich_text_section",
                        "elements": [
                            {
                                "type": "text",
                                "text": "Hey Camille. Yeah, unfortunately, we don't have that info rn. However, there were social media links pinned in this channel and I believe the opencovid19 email address will be the primary contact information."
                            }
                        ]
                    }
                ]
            }
        ],
        "thread_ts": "1584984144.151500",
        "parent_user_id": "UV9V03C8Y",
        "reactions": [
            {
                "name": "+1",
                "users": [
                    "UV9V03C8Y"
                ],
                "count": 1
            }
        ]
    },
    {
        "client_msg_id": "ea382999-070d-4a9a-acb8-5f11c5696082",
        "type": "message",
        "text": "I do think <@UUWPKNE2E> has information on the demographics of people who are a part of this community (if that's what you are looking for)",
        "user": "UV2SC7ZE3",
        "ts": "1584985337.152700",
        "team": "TUU48M0T1",
        "user_team": "TUU48M0T1",
        "source_team": "TUU48M0T1",
        "user_profile": {
            "avatar_hash": "d28dd0d076e8",
            "image_72": "https:\/\/avatars.slack-edge.com\/2020-03-14\/987873094258_d28dd0d076e8fa9a8409_72.png",
            "first_name": "David",
            "real_name": "David Lu",
            "display_name": "David Lu",
            "team": "TUU48M0T1",
            "name": "ludavidyi",
            "is_restricted": false,
            "is_ultra_restricted": false
        },
        "blocks": [
            {
                "type": "rich_text",
                "block_id": "Oxov",
                "elements": [
                    {
                        "type": "rich_text_section",
                        "elements": [
                            {
                                "type": "text",
                                "text": "I do think "
                            },
                            {
                                "type": "user",
                                "user_id": "UUWPKNE2E"
                            },
                            {
                                "type": "text",
                                "text": " has information on the demographics of people who are a part of this community (if that's what you are looking for)"
                            }
                        ]
                    }
                ]
            }
        ],
        "thread_ts": "1584984144.151500",
        "parent_user_id": "UV9V03C8Y"
    },
    {
        "client_msg_id": "87f7d242-ffd3-4a3b-9f2d-c96b33ddf6a0",
        "type": "message",
        "text": "<@UV9V03C8Y> I could compile all this information after the governance call if that's okay?",
        "user": "UV0QTJCMT",
        "ts": "1584985360.153100",
        "team": "TUU48M0T1",
        "user_team": "TUU48M0T1",
        "source_team": "TUU48M0T1",
        "user_profile": {
            "avatar_hash": "06a6ae8f69d1",
            "image_72": "https:\/\/avatars.slack-edge.com\/2020-04-13\/1060635499315_06a6ae8f69d18f1ad464_72.png",
            "first_name": "Katherine",
            "real_name": "Katherine Holo",
            "display_name": "Kat Holo - Co-Organizer of OpenCOVID19",
            "team": "TUU48M0T1",
            "name": "katherineh245",
            "is_restricted": false,
            "is_ultra_restricted": false
        },
        "blocks": [
            {
                "type": "rich_text",
                "block_id": "NsQib",
                "elements": [
                    {
                        "type": "rich_text_section",
                        "elements": [
                            {
                                "type": "user",
                                "user_id": "UV9V03C8Y"
                            },
                            {
                                "type": "text",
                                "text": " I could compile all this information after the governance call if that's okay?"
                            }
                        ]
                    }
                ]
            }
        ],
        "thread_ts": "1584984144.151500",
        "parent_user_id": "UV9V03C8Y"
    },
    {
        "client_msg_id": "4f36b2ff-1042-4b14-b33b-b748489a86df",
        "type": "message",
        "text": "Thanks <@UV2SC7ZE3> and <@UV0QTJCMT>! <@UV0QTJCMT> I know you have a lot on your plate and don't want to add up more :slightly_smiling_face:. As this is not an emergency, I'll just put up together an email first with the minimum viable communication information and give them more infos later. However, if you'd like, I can just make someone from the team revise the email so that we ensure it fits the communication strategy! Talk in a few!",
        "user": "UV9V03C8Y",
        "ts": "1584989165.154700",
        "team": "TUU48M0T1",
        "user_team": "TUU48M0T1",
        "source_team": "TUU48M0T1",
        "user_profile": {
            "avatar_hash": "177697fb7b8f",
            "image_72": "https:\/\/avatars.slack-edge.com\/2020-03-12\/996126178096_177697fb7b8ffa57649c_72.jpg",
            "first_name": "Camille",
            "real_name": "Camille Masselot - JOGL Program coordinator",
            "display_name": "Camille Masselot - JOGL coordinator",
            "team": "TUU48M0T1",
            "name": "masselot.camille",
            "is_restricted": false,
            "is_ultra_restricted": false
        },
        "blocks": [
            {
                "type": "rich_text",
                "block_id": "Hp4D",
                "elements": [
                    {
                        "type": "rich_text_section",
                        "elements": [
                            {
                                "type": "text",
                                "text": "Thanks "
                            },
                            {
                                "type": "user",
                                "user_id": "UV2SC7ZE3"
                            },
                            {
                                "type": "text",
                                "text": " and "
                            },
                            {
                                "type": "user",
                                "user_id": "UV0QTJCMT"
                            },
                            {
                                "type": "text",
                                "text": "! "
                            },
                            {
                                "type": "user",
                                "user_id": "UV0QTJCMT"
                            },
                            {
                                "type": "text",
                                "text": " I know you have a lot on your plate and don't want to add up more "
                            },
                            {
                                "type": "emoji",
                                "name": "slightly_smiling_face"
                            },
                            {
                                "type": "text",
                                "text": ". As this is not an emergency, I'll just put up together an email first with the minimum viable communication information and give them more infos later. However, if you'd like, I can just make someone from the team revise the email so that we ensure it fits the communication strategy! Talk in a few!"
                            }
                        ]
                    }
                ]
            }
        ],
        "thread_ts": "1584984144.151500",
        "parent_user_id": "UV9V03C8Y",
        "reactions": [
            {
                "name": "+1",
                "users": [
                    "UV0QTJCMT",
                    "UV2SC7ZE3"
                ],
                "count": 2
            }
        ]
    },
    {
        "client_msg_id": "9425B819-C3FD-4A36-936F-870851976217",
        "type": "message",
        "text": "You can also check the social media where we put the banner and the logo and a brief storyline - though that one could be improved ",
        "user": "U01019BQXM3",
        "ts": "1584995963.157300",
        "team": "TUU48M0T1",
        "user_team": "TUU48M0T1",
        "source_team": "TUU48M0T1",
        "user_profile": {
            "avatar_hash": "7e0f35d8cc55",
            "image_72": "https:\/\/avatars.slack-edge.com\/2020-03-15\/988667349730_7e0f35d8cc556cd89565_72.jpg",
            "first_name": "Marc",
            "real_name": "Marc Bokobza",
            "display_name": "Marc Bokobza",
            "team": "TUU48M0T1",
            "name": "marcbokobza1",
            "is_restricted": false,
            "is_ultra_restricted": false
        },
        "blocks": [
            {
                "type": "rich_text",
                "block_id": "tYQ",
                "elements": [
                    {
                        "type": "rich_text_section",
                        "elements": [
                            {
                                "type": "text",
                                "text": "You can also check the social media where we put the banner and the logo and a brief storyline - though that one could be improved "
                            }
                        ]
                    }
                ]
            }
        ],
        "thread_ts": "1584984144.151500",
        "parent_user_id": "UV9V03C8Y"
    },
    {
        "client_msg_id": "60D1B4FE-ECCB-4A1D-98B0-22B3A780091A",
        "type": "message",
        "text": "We haven’t launched them yet but the page is still visible ",
        "user": "U01019BQXM3",
        "ts": "1584995996.158200",
        "team": "TUU48M0T1",
        "user_team": "TUU48M0T1",
        "source_team": "TUU48M0T1",
        "user_profile": {
            "avatar_hash": "7e0f35d8cc55",
            "image_72": "https:\/\/avatars.slack-edge.com\/2020-03-15\/988667349730_7e0f35d8cc556cd89565_72.jpg",
            "first_name": "Marc",
            "real_name": "Marc Bokobza",
            "display_name": "Marc Bokobza",
            "team": "TUU48M0T1",
            "name": "marcbokobza1",
            "is_restricted": false,
            "is_ultra_restricted": false
        },
        "blocks": [
            {
                "type": "rich_text",
                "block_id": "iaA3",
                "elements": [
                    {
                        "type": "rich_text_section",
                        "elements": [
                            {
                                "type": "text",
                                "text": "We haven’t launched them yet but the page is still visible "
                            }
                        ]
                    }
                ]
            }
        ],
        "thread_ts": "1584984144.151500",
        "parent_user_id": "UV9V03C8Y"
    },
    {
        "client_msg_id": "6B97566A-632C-4B41-ABA5-3ED1A9485BA1",
        "type": "message",
        "text": "Twitter and fb",
        "user": "U01019BQXM3",
        "ts": "1584996000.158500",
        "team": "TUU48M0T1",
        "user_team": "TUU48M0T1",
        "source_team": "TUU48M0T1",
        "user_profile": {
            "avatar_hash": "7e0f35d8cc55",
            "image_72": "https:\/\/avatars.slack-edge.com\/2020-03-15\/988667349730_7e0f35d8cc556cd89565_72.jpg",
            "first_name": "Marc",
            "real_name": "Marc Bokobza",
            "display_name": "Marc Bokobza",
            "team": "TUU48M0T1",
            "name": "marcbokobza1",
            "is_restricted": false,
            "is_ultra_restricted": false
        },
        "blocks": [
            {
                "type": "rich_text",
                "block_id": "iqG",
                "elements": [
                    {
                        "type": "rich_text_section",
                        "elements": [
                            {
                                "type": "text",
                                "text": "Twitter and fb"
                            }
                        ]
                    }
                ]
            }
        ],
        "thread_ts": "1584984144.151500",
        "parent_user_id": "UV9V03C8Y"
    },
    {
        "client_msg_id": "1E69374F-A0AA-4A2D-A55D-98A36E858F9A",
        "type": "message",
        "text": "This is such a great idea !",
        "user": "U01019BQXM3",
        "ts": "1584996035.159000",
        "team": "TUU48M0T1",
        "user_team": "TUU48M0T1",
        "source_team": "TUU48M0T1",
        "user_profile": {
            "avatar_hash": "7e0f35d8cc55",
            "image_72": "https:\/\/avatars.slack-edge.com\/2020-03-15\/988667349730_7e0f35d8cc556cd89565_72.jpg",
            "first_name": "Marc",
            "real_name": "Marc Bokobza",
            "display_name": "Marc Bokobza",
            "team": "TUU48M0T1",
            "name": "marcbokobza1",
            "is_restricted": false,
            "is_ultra_restricted": false
        },
        "blocks": [
            {
                "type": "rich_text",
                "block_id": "Pf3uP",
                "elements": [
                    {
                        "type": "rich_text_section",
                        "elements": [
                            {
                                "type": "text",
                                "text": "This is such a great idea !"
                            }
                        ]
                    }
                ]
            }
        ],
        "thread_ts": "1584819618.116600",
        "parent_user_id": "UV76CQTB4"
    },
    {
        "type": "message",
        "subtype": "thread_broadcast",
        "text": "I want to share this link explaining covid-19 in a very simple and friendly way : Whatever your background is, you get a great overview: <https:\/\/youtu.be\/BtN-goy9VOY|https:\/\/youtu.be\/BtN-goy9VOY>",
        "user": "U01019BQXM3",
        "ts": "1584996126.161000",
        "thread_ts": "1584819618.116600",
        "root": {
            "client_msg_id": "725738e8-43e6-421b-9135-5c071cd32f82",
            "type": "message",
            "text": "Hey comm friends! After some interest in the design team, I created a project for an educational game on the virus and safety practices so that we can reach kids in one of their favorite medium! We need designers, developers, scientists, biosafety ppl, etc to participate!  Pls join if you are interested in participating: <https:\/\/app.jogl.io\/project\/140>   slack channel: <#C01044Q28UB|proj-dev-edgame>",
            "user": "UV76CQTB4",
            "ts": "1584819618.116600",
            "team": "TUU48M0T1",
            "attachments": [
                {
                    "title": "JOGL - Just One Giant Lab",
                    "title_link": "https:\/\/app.jogl.io\/project\/140",
                    "text": "JOGL helps sync humanity onto solving our most important social &amp; environmental problems using open science, responsible innovation &amp; continuous learning.",
                    "fallback": "JOGL - Just One Giant Lab",
                    "thumb_url": "https:\/\/app.jogl.io\/planet.jpg",
                    "from_url": "https:\/\/app.jogl.io\/project\/140",
                    "thumb_width": 2049,
                    "thumb_height": 1011,
                    "service_icon": "https:\/\/app.jogl.io\/favicon.ico",
                    "service_name": "app.jogl.io",
                    "id": 1,
                    "original_url": "https:\/\/app.jogl.io\/project\/140"
                }
            ],
            "blocks": [
                {
                    "type": "rich_text",
                    "block_id": "2TaN",
                    "elements": [
                        {
                            "type": "rich_text_section",
                            "elements": [
                                {
                                    "type": "text",
                                    "text": "Hey comm friends! After some interest in the design team, I created a project for an educational game on the virus and safety practices so that we can reach kids in one of their favorite medium! We need designers, developers, scientists, biosafety ppl, etc to participate!  Pls join if you are interested in participating: "
                                },
                                {
                                    "type": "link",
                                    "url": "https:\/\/app.jogl.io\/project\/140"
                                },
                                {
                                    "type": "text",
                                    "text": "   slack channel: "
                                },
                                {
                                    "type": "channel",
                                    "channel_id": "C01044Q28UB"
                                }
                            ]
                        }
                    ]
                }
            ],
            "thread_ts": "1584819618.116600",
            "reply_count": 4,
            "reply_users_count": 3,
            "latest_reply": "1584996126.161000",
            "reply_users": [
                "U0103LPAWQ4",
                "UV76CQTB4",
                "U01019BQXM3"
            ],
            "subscribed": false
        },
        "attachments": [
            {
                "service_name": "YouTube",
                "service_url": "https:\/\/www.youtube.com\/",
                "title": "The Coronavirus Explained &amp; What You Should Do",
                "title_link": "https:\/\/youtu.be\/BtN-goy9VOY",
                "author_name": "Kurzgesagt – In a Nutshell",
                "author_link": "https:\/\/www.youtube.com\/user\/Kurzgesagt",
                "thumb_url": "https:\/\/i.ytimg.com\/vi\/BtN-goy9VOY\/hqdefault.jpg",
                "thumb_width": 480,
                "thumb_height": 360,
                "fallback": "YouTube Video: The Coronavirus Explained & What You Should Do",
                "video_html": "<iframe width=\"400\" height=\"225\" src=\"https:\/\/www.youtube.com\/embed\/BtN-goy9VOY?feature=oembed&autoplay=1&iv_load_policy=3\" frameborder=\"0\" allow=\"accelerometer; autoplay; encrypted-media; gyroscope; picture-in-picture\" allowfullscreen><\/iframe>",
                "video_html_width": 400,
                "video_html_height": 225,
                "from_url": "https:\/\/youtu.be\/BtN-goy9VOY",
                "service_icon": "https:\/\/a.slack-edge.com\/80588\/img\/unfurl_icons\/youtube.png",
                "id": 1,
                "original_url": "https:\/\/youtu.be\/BtN-goy9VOY"
            }
        ],
        "blocks": [
            {
                "type": "rich_text",
                "block_id": "wDwmC",
                "elements": [
                    {
                        "type": "rich_text_section",
                        "elements": [
                            {
                                "type": "text",
                                "text": "I want to share this link explaining covid-19 in a very simple and friendly way : Whatever your background is, you get a great overview: "
                            },
                            {
                                "type": "link",
                                "url": "https:\/\/youtu.be\/BtN-goy9VOY",
                                "text": "https:\/\/youtu.be\/BtN-goy9VOY"
                            }
                        ]
                    }
                ]
            }
        ],
        "client_msg_id": "77D6E25A-0F95-4699-BBBD-923BD3227A9C",
        "reactions": [
            {
                "name": "+1",
                "users": [
                    "UV2SC7ZE3",
                    "U0106Q75GJD",
                    "UV76CQTB4"
                ],
                "count": 3
            }
        ]
    },
    {
        "client_msg_id": "98f13dcc-4da7-47c9-ac47-dfdf4c0648ad",
        "type": "message",
        "text": "Thanks!",
        "user": "UV9V03C8Y",
        "ts": "1584996164.161400",
        "team": "TUU48M0T1",
        "user_team": "TUU48M0T1",
        "source_team": "TUU48M0T1",
        "user_profile": {
            "avatar_hash": "177697fb7b8f",
            "image_72": "https:\/\/avatars.slack-edge.com\/2020-03-12\/996126178096_177697fb7b8ffa57649c_72.jpg",
            "first_name": "Camille",
            "real_name": "Camille Masselot - JOGL Program coordinator",
            "display_name": "Camille Masselot - JOGL coordinator",
            "team": "TUU48M0T1",
            "name": "masselot.camille",
            "is_restricted": false,
            "is_ultra_restricted": false
        },
        "blocks": [
            {
                "type": "rich_text",
                "block_id": "48x",
                "elements": [
                    {
                        "type": "rich_text_section",
                        "elements": [
                            {
                                "type": "text",
                                "text": "Thanks!"
                            }
                        ]
                    }
                ]
            }
        ],
        "thread_ts": "1584984144.151500",
        "parent_user_id": "UV9V03C8Y"
    }
]