[
    {
        "type": "message",
        "text": "Here’s a similar flowchart from the CovidWatch community. I don’t necessarily think that the content is very pertinent in this case, nor do I find it super clear to navigate.\n\nBut we could think about similar visual for the onboarding step-by-step process (creating profile, joining channels etc.), which to me is different from the flowchart you created, <@UV9V03C8Y> which feels more like a “I just got here, how do I get involved?” guide.",
        "files": [
            {
                "id": "F011Q32ESS3",
                "created": 1587370702,
                "timestamp": 1587370702,
                "name": "image.png",
                "title": "image.png",
                "mimetype": "image\/png",
                "filetype": "png",
                "pretty_type": "PNG",
                "user": "U011B6VLM2A",
                "editable": false,
                "size": 607511,
                "mode": "hosted",
                "is_external": false,
                "external_type": "",
                "is_public": true,
                "public_url_shared": false,
                "display_as_bot": false,
                "username": "",
                "url_private": "https:\/\/files.slack.com\/files-pri\/TUU48M0T1-F011Q32ESS3\/image.png?t=xoxe-980144714919-1106606678066-1105227127893-6f722bb664235052954ad46852628b64",
                "url_private_download": "https:\/\/files.slack.com\/files-pri\/TUU48M0T1-F011Q32ESS3\/download\/image.png?t=xoxe-980144714919-1106606678066-1105227127893-6f722bb664235052954ad46852628b64",
                "thumb_64": "https:\/\/files.slack.com\/files-tmb\/TUU48M0T1-F011Q32ESS3-6d096ca5fc\/image_64.png?t=xoxe-980144714919-1106606678066-1105227127893-6f722bb664235052954ad46852628b64",
                "thumb_80": "https:\/\/files.slack.com\/files-tmb\/TUU48M0T1-F011Q32ESS3-6d096ca5fc\/image_80.png?t=xoxe-980144714919-1106606678066-1105227127893-6f722bb664235052954ad46852628b64",
                "thumb_360": "https:\/\/files.slack.com\/files-tmb\/TUU48M0T1-F011Q32ESS3-6d096ca5fc\/image_360.png?t=xoxe-980144714919-1106606678066-1105227127893-6f722bb664235052954ad46852628b64",
                "thumb_360_w": 360,
                "thumb_360_h": 270,
                "thumb_480": "https:\/\/files.slack.com\/files-tmb\/TUU48M0T1-F011Q32ESS3-6d096ca5fc\/image_480.png?t=xoxe-980144714919-1106606678066-1105227127893-6f722bb664235052954ad46852628b64",
                "thumb_480_w": 480,
                "thumb_480_h": 360,
                "thumb_160": "https:\/\/files.slack.com\/files-tmb\/TUU48M0T1-F011Q32ESS3-6d096ca5fc\/image_160.png?t=xoxe-980144714919-1106606678066-1105227127893-6f722bb664235052954ad46852628b64",
                "thumb_720": "https:\/\/files.slack.com\/files-tmb\/TUU48M0T1-F011Q32ESS3-6d096ca5fc\/image_720.png?t=xoxe-980144714919-1106606678066-1105227127893-6f722bb664235052954ad46852628b64",
                "thumb_720_w": 720,
                "thumb_720_h": 540,
                "thumb_800": "https:\/\/files.slack.com\/files-tmb\/TUU48M0T1-F011Q32ESS3-6d096ca5fc\/image_800.png?t=xoxe-980144714919-1106606678066-1105227127893-6f722bb664235052954ad46852628b64",
                "thumb_800_w": 800,
                "thumb_800_h": 600,
                "thumb_960": "https:\/\/files.slack.com\/files-tmb\/TUU48M0T1-F011Q32ESS3-6d096ca5fc\/image_960.png?t=xoxe-980144714919-1106606678066-1105227127893-6f722bb664235052954ad46852628b64",
                "thumb_960_w": 960,
                "thumb_960_h": 720,
                "thumb_1024": "https:\/\/files.slack.com\/files-tmb\/TUU48M0T1-F011Q32ESS3-6d096ca5fc\/image_1024.png?t=xoxe-980144714919-1106606678066-1105227127893-6f722bb664235052954ad46852628b64",
                "thumb_1024_w": 1024,
                "thumb_1024_h": 768,
                "original_w": 1552,
                "original_h": 1164,
                "thumb_tiny": "AwAkADDToprsV6Ln8aFJYEnj0FADsikJxTdo\/vU7HHBoAFORmlpg+U8kU8EHpQBG6l2IU4x1OKcgHORz3pwGOlBGaAGlc96UcUbfc\/nQeBQAm4Z6U4VGDk9akFABRRRQAUUUUAGB6UUUUAf\/2Q==",
                "permalink": "https:\/\/open-covid19.slack.com\/files\/U011B6VLM2A\/F011Q32ESS3\/image.png",
                "permalink_public": "https:\/\/slack-files.com\/TUU48M0T1-F011Q32ESS3-c025846ce3",
                "is_starred": false,
                "has_rich_preview": false
            }
        ],
        "upload": true,
        "blocks": [
            {
                "type": "rich_text",
                "block_id": "Po=M",
                "elements": [
                    {
                        "type": "rich_text_section",
                        "elements": [
                            {
                                "type": "text",
                                "text": "Here’s a similar flowchart from the CovidWatch community. I don’t necessarily think that the content is very pertinent in this case, nor do I find it super clear to navigate.\n\nBut we could think about similar visual for the onboarding step-by-step process (creating profile, joining channels etc.), which to me is different from the flowchart you created, "
                            },
                            {
                                "type": "user",
                                "user_id": "UV9V03C8Y"
                            },
                            {
                                "type": "text",
                                "text": " which feels more like a “I just got here, how do I get involved?” guide."
                            }
                        ]
                    }
                ]
            }
        ],
        "user": "U011B6VLM2A",
        "display_as_bot": false,
        "ts": "1587370706.088800",
        "client_msg_id": "d7bc9042-787b-4949-a174-245fb73a46be",
        "thread_ts": "1587051284.063000",
        "parent_user_id": "UV9V03C8Y"
    },
    {
        "client_msg_id": "0bf4b546-2743-4aab-8020-def398db9ce6",
        "type": "message",
        "text": "Sure! Thanks for the reminder!",
        "user": "UV9V03C8Y",
        "ts": "1587376757.089400",
        "team": "TUU48M0T1",
        "user_team": "TUU48M0T1",
        "source_team": "TUU48M0T1",
        "user_profile": {
            "avatar_hash": "177697fb7b8f",
            "image_72": "https:\/\/avatars.slack-edge.com\/2020-03-12\/996126178096_177697fb7b8ffa57649c_72.jpg",
            "first_name": "Camille",
            "real_name": "Camille Masselot - JOGL Program coordinator",
            "display_name": "Camille Masselot - JOGL coordinator",
            "team": "TUU48M0T1",
            "name": "masselot.camille",
            "is_restricted": false,
            "is_ultra_restricted": false
        },
        "blocks": [
            {
                "type": "rich_text",
                "block_id": "b5jU",
                "elements": [
                    {
                        "type": "rich_text_section",
                        "elements": [
                            {
                                "type": "text",
                                "text": "Sure! Thanks for the reminder!"
                            }
                        ]
                    }
                ]
            }
        ],
        "thread_ts": "1587264611.087100",
        "parent_user_id": "UV2SC7ZE3"
    },
    {
        "client_msg_id": "f7c39f28-efb9-412e-82d6-6c9be5409cd4",
        "type": "message",
        "text": "Hey, this is cool! Let's see with the design team what we could do!",
        "user": "UV9V03C8Y",
        "ts": "1587383026.090400",
        "team": "TUU48M0T1",
        "user_team": "TUU48M0T1",
        "source_team": "TUU48M0T1",
        "user_profile": {
            "avatar_hash": "177697fb7b8f",
            "image_72": "https:\/\/avatars.slack-edge.com\/2020-03-12\/996126178096_177697fb7b8ffa57649c_72.jpg",
            "first_name": "Camille",
            "real_name": "Camille Masselot - JOGL Program coordinator",
            "display_name": "Camille Masselot - JOGL coordinator",
            "team": "TUU48M0T1",
            "name": "masselot.camille",
            "is_restricted": false,
            "is_ultra_restricted": false
        },
        "blocks": [
            {
                "type": "rich_text",
                "block_id": "b8+",
                "elements": [
                    {
                        "type": "rich_text_section",
                        "elements": [
                            {
                                "type": "text",
                                "text": "Hey, this is cool! Let's see with the design team what we could do!"
                            }
                        ]
                    }
                ]
            }
        ],
        "thread_ts": "1587051284.063000",
        "parent_user_id": "UV9V03C8Y"
    },
    {
        "type": "message",
        "text": "Hey <!here>, here is the record of the communication meeting on Friday.\n<@U011VF29MK2> *is presenting the vision on how to collaboratively build communication strategy! Also identifying the gaps to be filled* :slightly_smiling_face:*.* \n\n<@UV02WET96> <@UV0QTJCMT> if you could listen to the first 10minutes I think it would be super helpful to understand what we need from you :wink: ! Then it would be awesome if you could provide the communication team with the history of the creation of opencovid19, the vision of it, and what is aimed for in the next few months.\n\nCheers!",
        "files": [
            {
                "id": "F012BBE5P0C",
                "created": 1587382937,
                "timestamp": 1587382937,
                "name": "zoom_0.mp4",
                "title": "zoom_0.mp4",
                "mimetype": "video\/mp4",
                "filetype": "mp4",
                "pretty_type": "MPEG 4 Video",
                "user": "UV9V03C8Y",
                "editable": false,
                "size": 62616187,
                "mode": "hosted",
                "is_external": false,
                "external_type": "",
                "is_public": true,
                "public_url_shared": false,
                "display_as_bot": false,
                "username": "",
                "url_private": "https:\/\/files.slack.com\/files-pri\/TUU48M0T1-F012BBE5P0C\/zoom_0.mp4?t=xoxe-980144714919-1106606678066-1105227127893-6f722bb664235052954ad46852628b64",
                "url_private_download": "https:\/\/files.slack.com\/files-pri\/TUU48M0T1-F012BBE5P0C\/download\/zoom_0.mp4?t=xoxe-980144714919-1106606678066-1105227127893-6f722bb664235052954ad46852628b64",
                "thumb_video": "https:\/\/files.slack.com\/files-tmb\/TUU48M0T1-F012BBE5P0C-166ea8e159\/zoom_0_thumb_video.jpeg?t=xoxe-980144714919-1106606678066-1105227127893-6f722bb664235052954ad46852628b64",
                "permalink": "https:\/\/open-covid19.slack.com\/files\/UV9V03C8Y\/F012BBE5P0C\/zoom_0.mp4",
                "permalink_public": "https:\/\/slack-files.com\/TUU48M0T1-F012BBE5P0C-7c151a4e33",
                "is_starred": false,
                "has_rich_preview": false
            }
        ],
        "upload": true,
        "blocks": [
            {
                "type": "rich_text",
                "block_id": "fmIi",
                "elements": [
                    {
                        "type": "rich_text_section",
                        "elements": [
                            {
                                "type": "text",
                                "text": "Hey "
                            },
                            {
                                "type": "broadcast",
                                "range": "here"
                            },
                            {
                                "type": "text",
                                "text": ", here is the record of the communication meeting on Friday.\n"
                            },
                            {
                                "type": "user",
                                "user_id": "U011VF29MK2"
                            },
                            {
                                "type": "text",
                                "text": " is presenting the vision on how to collaboratively build communication strategy! Also identifying the gaps to be filled ",
                                "style": {
                                    "bold": true
                                }
                            },
                            {
                                "type": "emoji",
                                "name": "slightly_smiling_face",
                                "style": {
                                    "bold": true
                                }
                            },
                            {
                                "type": "text",
                                "text": ". ",
                                "style": {
                                    "bold": true
                                }
                            },
                            {
                                "type": "text",
                                "text": "\n\n"
                            },
                            {
                                "type": "user",
                                "user_id": "UV02WET96"
                            },
                            {
                                "type": "text",
                                "text": " "
                            },
                            {
                                "type": "user",
                                "user_id": "UV0QTJCMT"
                            },
                            {
                                "type": "text",
                                "text": " if you could listen to the first 10minutes I think it would be super helpful to understand what we need from you "
                            },
                            {
                                "type": "emoji",
                                "name": "wink"
                            },
                            {
                                "type": "text",
                                "text": " ! Then it would be awesome if you could provide the communication team with the history of the creation of opencovid19, the vision of it, and what is aimed for in the next few months.\n\nCheers!"
                            }
                        ]
                    }
                ]
            }
        ],
        "user": "UV9V03C8Y",
        "display_as_bot": false,
        "ts": "1587383551.090600",
        "client_msg_id": "993b2570-3e6f-43dd-85da-917198a6b9bc"
    },
    {
        "type": "message",
        "subtype": "channel_join",
        "ts": "1587386593.091400",
        "user": "U012G0X589F",
        "text": "<@U012G0X589F> has joined the channel",
        "inviter": "UV9V03C8Y"
    },
    {
        "client_msg_id": "35999958-5c75-4893-99b3-c695a0a6d000",
        "type": "message",
        "text": "Hey<!here>, please meet <@U012G0X589F>. She's a virologist, with experience with Pasteur Institute and interested in science communication. She's currently working on a webinar project. Feel free to reach out to onboard her on the current activities :slightly_smiling_face:! Happy collaboration!",
        "user": "UV9V03C8Y",
        "ts": "1587386724.093300",
        "team": "TUU48M0T1",
        "user_team": "TUU48M0T1",
        "source_team": "TUU48M0T1",
        "user_profile": {
            "avatar_hash": "177697fb7b8f",
            "image_72": "https:\/\/avatars.slack-edge.com\/2020-03-12\/996126178096_177697fb7b8ffa57649c_72.jpg",
            "first_name": "Camille",
            "real_name": "Camille Masselot - JOGL Program coordinator",
            "display_name": "Camille Masselot - JOGL coordinator",
            "team": "TUU48M0T1",
            "name": "masselot.camille",
            "is_restricted": false,
            "is_ultra_restricted": false
        },
        "blocks": [
            {
                "type": "rich_text",
                "block_id": "=I3",
                "elements": [
                    {
                        "type": "rich_text_section",
                        "elements": [
                            {
                                "type": "text",
                                "text": "Hey"
                            },
                            {
                                "type": "broadcast",
                                "range": "here"
                            },
                            {
                                "type": "text",
                                "text": ", please meet "
                            },
                            {
                                "type": "user",
                                "user_id": "U012G0X589F"
                            },
                            {
                                "type": "text",
                                "text": ". She's a virologist, with experience with Pasteur Institute and interested in science communication. She's currently working on a webinar project. Feel free to reach out to onboard her on the current activities "
                            },
                            {
                                "type": "emoji",
                                "name": "slightly_smiling_face"
                            },
                            {
                                "type": "text",
                                "text": "! Happy collaboration!"
                            }
                        ]
                    }
                ]
            }
        ]
    },
    {
        "client_msg_id": "191a2ee6-0d27-4e93-ab43-69c959a2ab53",
        "type": "message",
        "text": "hey hey hello <@U012G0X589F>!! welcome to the craziness of the OC19 community!! :slightly_smiling_face:",
        "user": "UV85V64SD",
        "ts": "1587386963.096100",
        "team": "TUU48M0T1",
        "user_team": "TUU48M0T1",
        "source_team": "TUU48M0T1",
        "user_profile": {
            "avatar_hash": "1e73a651bdfe",
            "image_72": "https:\/\/avatars.slack-edge.com\/2020-03-16\/1004297548853_1e73a651bdfef2c41501_72.jpg",
            "first_name": "Marc",
            "real_name": "Marc Santolini",
            "display_name": "Marc Santolini - JOGL CoFounder \/ CSO",
            "team": "TUU48M0T1",
            "name": "marc.santolini",
            "is_restricted": false,
            "is_ultra_restricted": false
        },
        "blocks": [
            {
                "type": "rich_text",
                "block_id": "6e6EP",
                "elements": [
                    {
                        "type": "rich_text_section",
                        "elements": [
                            {
                                "type": "text",
                                "text": "hey hey hello "
                            },
                            {
                                "type": "user",
                                "user_id": "U012G0X589F"
                            },
                            {
                                "type": "text",
                                "text": "!! welcome to the craziness of the OC19 community!! "
                            },
                            {
                                "type": "emoji",
                                "name": "slightly_smiling_face"
                            }
                        ]
                    }
                ]
            }
        ],
        "reactions": [
            {
                "name": "+1",
                "users": [
                    "U010Q3372P3"
                ],
                "count": 1
            },
            {
                "name": "sweat_smile",
                "users": [
                    "U012G0X589F"
                ],
                "count": 1
            }
        ]
    },
    {
        "client_msg_id": "d855ce3b-8792-4d36-b71f-0320d0482acb",
        "type": "message",
        "text": "<@U012G0X589F> nice to meet you, perhaps we can set up some time to talk about the work the comms team is doing, we are starting to build a comms strategy with <@U011VF29MK2> and <@U010W4KTANM> we met on Friday evening to discuss, and will have the collective team input and review as we build this out further. You can see Catherine’s detailed explanation in the Zoom video <@UV9V03C8Y> posted. We look forward to working with you!",
        "user": "U010Q3372P3",
        "ts": "1587386979.096400",
        "team": "TUU48M0T1",
        "user_team": "TUU48M0T1",
        "source_team": "TUU48M0T1",
        "user_profile": {
            "avatar_hash": "95066184973b",
            "image_72": "https:\/\/avatars.slack-edge.com\/2020-03-30\/1036274198128_95066184973b1de50d1a_72.png",
            "first_name": "Kathryn",
            "real_name": "Kathryn Rowe",
            "display_name": "Kathryn Rowe",
            "team": "TUU48M0T1",
            "name": "kathryn.rowe",
            "is_restricted": false,
            "is_ultra_restricted": false
        },
        "blocks": [
            {
                "type": "rich_text",
                "block_id": "eZy",
                "elements": [
                    {
                        "type": "rich_text_section",
                        "elements": [
                            {
                                "type": "user",
                                "user_id": "U012G0X589F"
                            },
                            {
                                "type": "text",
                                "text": " nice to meet you, perhaps we can set up some time to talk about the work the comms team is doing, we are starting to build a comms strategy with "
                            },
                            {
                                "type": "user",
                                "user_id": "U011VF29MK2"
                            },
                            {
                                "type": "text",
                                "text": " and "
                            },
                            {
                                "type": "user",
                                "user_id": "U010W4KTANM"
                            },
                            {
                                "type": "text",
                                "text": " we met on Friday evening to discuss, and will have the collective team input and review as we build this out further. You can see Catherine’s detailed explanation in the Zoom video "
                            },
                            {
                                "type": "user",
                                "user_id": "UV9V03C8Y"
                            },
                            {
                                "type": "text",
                                "text": " posted. We look forward to working with you!"
                            }
                        ]
                    }
                ]
            }
        ],
        "thread_ts": "1587386979.096400",
        "reply_count": 1,
        "reply_users_count": 1,
        "latest_reply": "1587392887.100700",
        "reply_users": [
            "U012G0X589F"
        ],
        "replies": [
            {
                "user": "U012G0X589F",
                "ts": "1587392887.100700"
            }
        ],
        "subscribed": false
    },
    {
        "client_msg_id": "941c8e23-4cd1-43ce-a88d-ea69c640345c",
        "type": "message",
        "text": "Thanks <@UV9V03C8Y> for the introductions! Happy to be part of the community ;D",
        "user": "U012G0X589F",
        "ts": "1587387116.097400",
        "team": "TUU48M0T1",
        "user_team": "TUU48M0T1",
        "source_team": "TUU48M0T1",
        "user_profile": {
            "avatar_hash": "geedc4e2d6eb",
            "image_72": "https:\/\/secure.gravatar.com\/avatar\/eedc4e2d6eb67843d8dbd043fb8db9d7.jpg?s=72&d=https%3A%2F%2Fa.slack-edge.com%2Fdf10d%2Fimg%2Favatars%2Fava_0013-72.png",
            "first_name": "",
            "real_name": "Eugenia Covernton",
            "display_name": "Eugenia Covernton",
            "team": "TUU48M0T1",
            "name": "eugenia.covernton",
            "is_restricted": false,
            "is_ultra_restricted": false
        },
        "blocks": [
            {
                "type": "rich_text",
                "block_id": "SG2PM",
                "elements": [
                    {
                        "type": "rich_text_section",
                        "elements": [
                            {
                                "type": "text",
                                "text": "Thanks "
                            },
                            {
                                "type": "user",
                                "user_id": "UV9V03C8Y"
                            },
                            {
                                "type": "text",
                                "text": " for the introductions! Happy to be part of the community ;D"
                            }
                        ]
                    }
                ]
            }
        ],
        "reactions": [
            {
                "name": "wave",
                "users": [
                    "UV2SC7ZE3"
                ],
                "count": 1
            }
        ]
    },
    {
        "client_msg_id": "63d95db7-880f-4e25-a265-e2e7dad96441",
        "type": "message",
        "text": "Hi <@UV9V03C8Y> Apologies for the short notice, I can't make the governance call this morning - please let me know if you want to meet later today to discuss the comms strategy with everyone - and welcome <@U012G0X589F>!",
        "user": "U011VF29MK2",
        "ts": "1587390504.100300",
        "team": "TUU48M0T1",
        "user_team": "TUU48M0T1",
        "source_team": "TUU48M0T1",
        "user_profile": {
            "avatar_hash": "0ef0287e69f4",
            "image_72": "https:\/\/avatars.slack-edge.com\/2020-04-07\/1045707527815_0ef0287e69f4d3296eaf_72.jpg",
            "first_name": "Catherine",
            "real_name": "Catherine Coykendall",
            "display_name": "Catherine Coykendall - Marketing Consultant",
            "team": "TUU48M0T1",
            "name": "c.coyken1978",
            "is_restricted": false,
            "is_ultra_restricted": false
        },
        "blocks": [
            {
                "type": "rich_text",
                "block_id": "M\/w",
                "elements": [
                    {
                        "type": "rich_text_section",
                        "elements": [
                            {
                                "type": "text",
                                "text": "Hi "
                            },
                            {
                                "type": "user",
                                "user_id": "UV9V03C8Y"
                            },
                            {
                                "type": "text",
                                "text": " Apologies for the short notice, I can't make the governance call this morning - please let me know if you want to meet later today to discuss the comms strategy with everyone - and welcome "
                            },
                            {
                                "type": "user",
                                "user_id": "U012G0X589F"
                            },
                            {
                                "type": "text",
                                "text": "!"
                            }
                        ]
                    }
                ]
            }
        ]
    },
    {
        "client_msg_id": "25eded2f-0792-4ce6-bafb-975faa0f26e4",
        "type": "message",
        "text": "<@U010Q3372P3> sure, I'd be happy to discuss further, just let me know when it would work best for you! I'm watching the video right now.",
        "user": "U012G0X589F",
        "ts": "1587392887.100700",
        "team": "TUU48M0T1",
        "user_team": "TUU48M0T1",
        "source_team": "TUU48M0T1",
        "user_profile": {
            "avatar_hash": "geedc4e2d6eb",
            "image_72": "https:\/\/secure.gravatar.com\/avatar\/eedc4e2d6eb67843d8dbd043fb8db9d7.jpg?s=72&d=https%3A%2F%2Fa.slack-edge.com%2Fdf10d%2Fimg%2Favatars%2Fava_0013-72.png",
            "first_name": "",
            "real_name": "Eugenia Covernton",
            "display_name": "Eugenia Covernton",
            "team": "TUU48M0T1",
            "name": "eugenia.covernton",
            "is_restricted": false,
            "is_ultra_restricted": false
        },
        "blocks": [
            {
                "type": "rich_text",
                "block_id": "R4Oo",
                "elements": [
                    {
                        "type": "rich_text_section",
                        "elements": [
                            {
                                "type": "user",
                                "user_id": "U010Q3372P3"
                            },
                            {
                                "type": "text",
                                "text": " sure, I'd be happy to discuss further, just let me know when it would work best for you! I'm watching the video right now."
                            }
                        ]
                    }
                ]
            }
        ],
        "thread_ts": "1587386979.096400",
        "parent_user_id": "U010Q3372P3"
    },
    {
        "client_msg_id": "b24bbdd3-c686-4386-b391-e1df31a3f44d",
        "type": "message",
        "text": "<@U011VF29MK2> Is the strategy something that can be discussed at tomorrow's scheduled meeting at 6 pm CET?",
        "user": "UV2SC7ZE3",
        "ts": "1587441874.103100",
        "team": "TUU48M0T1",
        "user_team": "TUU48M0T1",
        "source_team": "TUU48M0T1",
        "user_profile": {
            "avatar_hash": "d28dd0d076e8",
            "image_72": "https:\/\/avatars.slack-edge.com\/2020-03-14\/987873094258_d28dd0d076e8fa9a8409_72.png",
            "first_name": "David",
            "real_name": "David Lu",
            "display_name": "David Lu",
            "team": "TUU48M0T1",
            "name": "ludavidyi",
            "is_restricted": false,
            "is_ultra_restricted": false
        },
        "blocks": [
            {
                "type": "rich_text",
                "block_id": "+N4",
                "elements": [
                    {
                        "type": "rich_text_section",
                        "elements": [
                            {
                                "type": "user",
                                "user_id": "U011VF29MK2"
                            },
                            {
                                "type": "text",
                                "text": " Is the strategy something that can be discussed at tomorrow's scheduled meeting at 6 pm CET?"
                            }
                        ]
                    }
                ]
            }
        ],
        "thread_ts": "1587441874.103100",
        "reply_count": 1,
        "reply_users_count": 1,
        "latest_reply": "1587484478.108100",
        "reply_users": [
            "U011VF29MK2"
        ],
        "replies": [
            {
                "user": "U011VF29MK2",
                "ts": "1587484478.108100"
            }
        ],
        "subscribed": false,
        "reactions": [
            {
                "name": "pray",
                "users": [
                    "U011B6VLM2A"
                ],
                "count": 1
            }
        ]
    }
]