[
    {
        "client_msg_id": "7fc27b3c-f21a-4ed6-b118-7fb59ad20b33",
        "type": "message",
        "text": "Dear <!channel> - probing people here, who is available for the 6pm CET meeting tonight? Since we have the weekly recsys and Slack analyses weekly meetings already, I’m pondering if there is a use of adding one more meeting. Just checking if there is a crowd, let me know in the thread! Also if you want an onboarding on the project, or know what the other subgroups are doing, will be happy to use the time for that. Happy Friyay!",
        "user": "UV85V64SD",
        "ts": "1587109057.161000",
        "team": "TUU48M0T1",
        "user_team": "TUU48M0T1",
        "source_team": "TUU48M0T1",
        "user_profile": {
            "avatar_hash": "1e73a651bdfe",
            "image_72": "https:\/\/avatars.slack-edge.com\/2020-03-16\/1004297548853_1e73a651bdfef2c41501_72.jpg",
            "first_name": "Marc",
            "real_name": "Marc Santolini",
            "display_name": "Marc Santolini - JOGL CoFounder \/ CSO",
            "team": "TUU48M0T1",
            "name": "marc.santolini",
            "is_restricted": false,
            "is_ultra_restricted": false
        },
        "blocks": [
            {
                "type": "rich_text",
                "block_id": "\/nFF",
                "elements": [
                    {
                        "type": "rich_text_section",
                        "elements": [
                            {
                                "type": "text",
                                "text": "Dear "
                            },
                            {
                                "type": "broadcast",
                                "range": "channel"
                            },
                            {
                                "type": "text",
                                "text": " - probing people here, who is available for the 6pm CET meeting tonight? Since we have the weekly recsys and Slack analyses weekly meetings already, I’m pondering if there is a use of adding one more meeting. Just checking if there is a crowd, let me know in the thread! Also if you want an onboarding on the project, or know what the other subgroups are doing, will be happy to use the time for that. Happy Friyay!"
                            }
                        ]
                    }
                ]
            }
        ],
        "thread_ts": "1587109057.161000",
        "reply_count": 6,
        "reply_users_count": 6,
        "latest_reply": "1587133077.162700",
        "reply_users": [
            "U0101DKUALV",
            "U010734498S",
            "U010AGDDEBZ",
            "UV85V64SD",
            "UVC9WMA7N",
            "U010B412MF1"
        ],
        "replies": [
            {
                "user": "U0101DKUALV",
                "ts": "1587109293.161100"
            },
            {
                "user": "U010734498S",
                "ts": "1587109588.161400"
            },
            {
                "user": "U010AGDDEBZ",
                "ts": "1587112462.161600"
            },
            {
                "user": "UV85V64SD",
                "ts": "1587117720.161900"
            },
            {
                "user": "UVC9WMA7N",
                "ts": "1587132948.162400"
            },
            {
                "user": "U010B412MF1",
                "ts": "1587133077.162700"
            }
        ],
        "subscribed": false
    },
    {
        "client_msg_id": "83ce3fa7-4cf1-4681-9120-bc0bc7174b0c",
        "type": "message",
        "text": "Hello, Marc! While I could technically make the meeting, I would like to be honest and say I would prefer having the time to instead catch up on the literature shared for the Slack project  and be a more effective contributor to the Slack data meetings, while further trying to identify a useful role I can provide to the team. I hope you can understand!",
        "user": "U0101DKUALV",
        "ts": "1587109293.161100",
        "team": "TUU48M0T1",
        "user_team": "TUU48M0T1",
        "source_team": "TUU48M0T1",
        "user_profile": {
            "avatar_hash": "b0aee06ed3e5",
            "image_72": "https:\/\/avatars.slack-edge.com\/2020-04-22\/1072886325190_b0aee06ed3e501ebdf56_72.png",
            "first_name": "",
            "real_name": "Pauline Chane",
            "display_name": "Pauline Chane",
            "team": "TUU48M0T1",
            "name": "pauline.chane",
            "is_restricted": false,
            "is_ultra_restricted": false
        },
        "blocks": [
            {
                "type": "rich_text",
                "block_id": "nOJX",
                "elements": [
                    {
                        "type": "rich_text_section",
                        "elements": [
                            {
                                "type": "text",
                                "text": "Hello, Marc! While I could technically make the meeting, I would like to be honest and say I would prefer having the time to instead catch up on the literature shared for the Slack project  and be a more effective contributor to the Slack data meetings, while further trying to identify a useful role I can provide to the team. I hope you can understand!"
                            }
                        ]
                    }
                ]
            }
        ],
        "thread_ts": "1587109057.161000",
        "parent_user_id": "UV85V64SD"
    },
    {
        "client_msg_id": "a651e340-c41e-4de0-9165-354a359f4889",
        "type": "message",
        "text": "My availability would be only 75% assured for a meeting today.",
        "user": "U010734498S",
        "ts": "1587109588.161400",
        "team": "TUU48M0T1",
        "user_team": "TUU48M0T1",
        "source_team": "TUU48M0T1",
        "user_profile": {
            "avatar_hash": "g85cae5734da",
            "image_72": "https:\/\/secure.gravatar.com\/avatar\/85cae5734dae69539dca99aa96ef691f.jpg?s=72&d=https%3A%2F%2Fa.slack-edge.com%2Fdf10d%2Fimg%2Favatars%2Fava_0011-72.png",
            "first_name": "",
            "real_name": "pedro ramaciotti",
            "display_name": "pedro ramaciotti",
            "team": "TUU48M0T1",
            "name": "pedro.ramaciotti",
            "is_restricted": false,
            "is_ultra_restricted": false
        },
        "blocks": [
            {
                "type": "rich_text",
                "block_id": "F8x",
                "elements": [
                    {
                        "type": "rich_text_section",
                        "elements": [
                            {
                                "type": "text",
                                "text": "My availability would be only 75% assured for a meeting today."
                            }
                        ]
                    }
                ]
            }
        ],
        "thread_ts": "1587109057.161000",
        "parent_user_id": "UV85V64SD"
    },
    {
        "client_msg_id": "2e080125-c4b9-4657-9dc6-10e0b9ac4f25",
        "type": "message",
        "text": "I second with Pauline. I can make the meetings but it would be great to cut into the literature.",
        "user": "U010AGDDEBZ",
        "ts": "1587112462.161600",
        "team": "TUU48M0T1",
        "user_team": "TUU48M0T1",
        "source_team": "TUU48M0T1",
        "user_profile": {
            "avatar_hash": "a1cf28a8adcc",
            "image_72": "https:\/\/avatars.slack-edge.com\/2020-03-22\/1017122430308_a1cf28a8adcc052e8332_72.png",
            "first_name": "Rathin",
            "real_name": "Rathin Jeyaram",
            "display_name": "Rathin Jeyaram",
            "team": "TUU48M0T1",
            "name": "jeyaram.rathin",
            "is_restricted": false,
            "is_ultra_restricted": false
        },
        "blocks": [
            {
                "type": "rich_text",
                "block_id": "4dj",
                "elements": [
                    {
                        "type": "rich_text_section",
                        "elements": [
                            {
                                "type": "text",
                                "text": "I second with Pauline. I can make the meetings but it would be great to cut into the literature."
                            }
                        ]
                    }
                ]
            }
        ],
        "thread_ts": "1587109057.161000",
        "parent_user_id": "UV85V64SD"
    },
    {
        "client_msg_id": "fdafcb12-2ff3-4c4b-81d2-fd1618b82beb",
        "type": "message",
        "text": "I would say, let’s cancel it then. I think the subgroup meetings are already sufficient for catch ups, we don’t want to overload.",
        "user": "UV85V64SD",
        "ts": "1587117720.161900",
        "team": "TUU48M0T1",
        "user_team": "TUU48M0T1",
        "source_team": "TUU48M0T1",
        "user_profile": {
            "avatar_hash": "1e73a651bdfe",
            "image_72": "https:\/\/avatars.slack-edge.com\/2020-03-16\/1004297548853_1e73a651bdfef2c41501_72.jpg",
            "first_name": "Marc",
            "real_name": "Marc Santolini",
            "display_name": "Marc Santolini - JOGL CoFounder \/ CSO",
            "team": "TUU48M0T1",
            "name": "marc.santolini",
            "is_restricted": false,
            "is_ultra_restricted": false
        },
        "blocks": [
            {
                "type": "rich_text",
                "block_id": "6hx0",
                "elements": [
                    {
                        "type": "rich_text_section",
                        "elements": [
                            {
                                "type": "text",
                                "text": "I would say, let’s cancel it then. I think the subgroup meetings are already sufficient for catch ups, we don’t want to overload."
                            }
                        ]
                    }
                ]
            }
        ],
        "thread_ts": "1587109057.161000",
        "parent_user_id": "UV85V64SD",
        "reactions": [
            {
                "name": "+1",
                "users": [
                    "U0101DKUALV",
                    "U010AGDDEBZ"
                ],
                "count": 2
            }
        ]
    },
    {
        "client_msg_id": "7002b348-54fb-4954-875f-9f703abc1e21",
        "type": "message",
        "text": ":+1:",
        "user": "UVC9WMA7N",
        "ts": "1587132948.162400",
        "team": "TUU48M0T1",
        "user_team": "TUU48M0T1",
        "source_team": "TUU48M0T1",
        "user_profile": {
            "avatar_hash": "56d14d58ed53",
            "image_72": "https:\/\/avatars.slack-edge.com\/2020-03-13\/998337892660_56d14d58ed537e6e4654_72.png",
            "first_name": "Leo",
            "real_name": "Leo Blondel",
            "display_name": "Leo Blondel - JOGL CoFounder \/ CTO",
            "team": "TUU48M0T1",
            "name": "leo",
            "is_restricted": false,
            "is_ultra_restricted": false
        },
        "blocks": [
            {
                "type": "rich_text",
                "block_id": "Gf1\/X",
                "elements": [
                    {
                        "type": "rich_text_section",
                        "elements": [
                            {
                                "type": "emoji",
                                "name": "+1"
                            }
                        ]
                    }
                ]
            }
        ],
        "thread_ts": "1587109057.161000",
        "parent_user_id": "UV85V64SD"
    },
    {
        "client_msg_id": "cac64281-5837-4c0f-ae10-1993b5568c43",
        "type": "message",
        "text": "Yes and next time then we can make a group meditation also :earth_africa: . See you and take care",
        "user": "U010B412MF1",
        "ts": "1587133077.162700",
        "team": "TUU48M0T1",
        "user_team": "TUU48M0T1",
        "source_team": "TUU48M0T1",
        "user_profile": {
            "avatar_hash": "218d963a797f",
            "image_72": "https:\/\/avatars.slack-edge.com\/2020-03-19\/1013072792629_218d963a797fbf4410c0_72.png",
            "first_name": "",
            "real_name": "liu",
            "display_name": "liu",
            "team": "TUU48M0T1",
            "name": "liubov.tupikina",
            "is_restricted": false,
            "is_ultra_restricted": false
        },
        "edited": {
            "user": "U010B412MF1",
            "ts": "1587133107.000000"
        },
        "blocks": [
            {
                "type": "rich_text",
                "block_id": "U1nw",
                "elements": [
                    {
                        "type": "rich_text_section",
                        "elements": [
                            {
                                "type": "text",
                                "text": "Yes and next time then we can make a group meditation also "
                            },
                            {
                                "type": "emoji",
                                "name": "earth_africa"
                            },
                            {
                                "type": "text",
                                "text": " . See you and take care"
                            }
                        ]
                    }
                ]
            }
        ],
        "thread_ts": "1587109057.161000",
        "parent_user_id": "UV85V64SD"
    }
]