[
    {
        "type": "message",
        "text": ":mega:Hi <!channel> - For tomorrow’s *Global Community Call*, we (on the Communications Team call today) have updated the weekly slide deck to also include slides for program-level teams to share updates in a more streamlined way. I’ve included a slide for this particular team, so plz take a look and add content prior to tomorrow’s call. (<@UV85V64SD> - are you the right person for this?) — if there’s an external presentation deck that you need to share for your update, that’s fine too; you can just add a couple of words in the stand-in slide so that you have dedicated speaking time.\nThanks for adding your update prior to the call!\nHere’s the doc:\n<https:\/\/docs.google.com\/presentation\/d\/1-qHD_mQNyNz7i1ODXg2JSi_Rp-3PdUj3VDa8y3BgAlE\/edit#slide=id.g73568cc0b1_0_6>",
        "files": [
            {
                "id": "F011BMZA355",
                "created": 1586299249,
                "timestamp": 1586299249,
                "name": "8",
                "title": "Weekly Updates - Global Community Calls",
                "mimetype": "application\/vnd.google-apps.presentation",
                "filetype": "gpres",
                "pretty_type": "GSuite Presentation",
                "user": "UV0QTJCMT",
                "editable": false,
                "size": 1602,
                "mode": "external",
                "is_external": true,
                "external_type": "gdrive",
                "is_public": true,
                "public_url_shared": false,
                "display_as_bot": false,
                "username": "",
                "url_private": "https:\/\/docs.google.com\/presentation\/d\/1-qHD_mQNyNz7i1ODXg2JSi_Rp-3PdUj3VDa8y3BgAlE\/edit#slide=id.p",
                "thumb_64": "https:\/\/files.slack.com\/files-tmb\/TUU48M0T1-F011BMZA355-18be214ce4\/8_64.png?t=xoxe-980144714919-1133254701825-1120841107731-daf595b5a7d6c9028b0b02a925032e36",
                "thumb_80": "https:\/\/files.slack.com\/files-tmb\/TUU48M0T1-F011BMZA355-18be214ce4\/8_80.png?t=xoxe-980144714919-1133254701825-1120841107731-daf595b5a7d6c9028b0b02a925032e36",
                "thumb_360": "https:\/\/files.slack.com\/files-tmb\/TUU48M0T1-F011BMZA355-18be214ce4\/8_360.png?t=xoxe-980144714919-1133254701825-1120841107731-daf595b5a7d6c9028b0b02a925032e36",
                "thumb_360_w": 360,
                "thumb_360_h": 203,
                "thumb_480": "https:\/\/files.slack.com\/files-tmb\/TUU48M0T1-F011BMZA355-18be214ce4\/8_480.png?t=xoxe-980144714919-1133254701825-1120841107731-daf595b5a7d6c9028b0b02a925032e36",
                "thumb_480_w": 480,
                "thumb_480_h": 270,
                "thumb_160": "https:\/\/files.slack.com\/files-tmb\/TUU48M0T1-F011BMZA355-18be214ce4\/8_160.png?t=xoxe-980144714919-1133254701825-1120841107731-daf595b5a7d6c9028b0b02a925032e36",
                "thumb_720": "https:\/\/files.slack.com\/files-tmb\/TUU48M0T1-F011BMZA355-18be214ce4\/8_720.png?t=xoxe-980144714919-1133254701825-1120841107731-daf595b5a7d6c9028b0b02a925032e36",
                "thumb_720_w": 720,
                "thumb_720_h": 405,
                "thumb_800": "https:\/\/files.slack.com\/files-tmb\/TUU48M0T1-F011BMZA355-18be214ce4\/8_800.png?t=xoxe-980144714919-1133254701825-1120841107731-daf595b5a7d6c9028b0b02a925032e36",
                "thumb_800_w": 800,
                "thumb_800_h": 450,
                "image_exif_rotation": 1,
                "original_w": 800,
                "original_h": 450,
                "thumb_tiny": "AwAbADDTzRUM2NwyB07timLtzghMezmgCzRUSrCTgHOe2aXyU9D+ZoAkooAAAA6CigBjMQM8fjTfMPqtOowPQUAIGYjjbS7n9BRRQAbn9BSgnvSUUAf\/2Q==",
                "permalink": "https:\/\/open-covid19.slack.com\/files\/UV0QTJCMT\/F011BMZA355\/8",
                "is_starred": false,
                "external_id": "1-qHD_mQNyNz7i1ODXg2JSi_Rp-3PdUj3VDa8y3BgAlE",
                "external_url": "https:\/\/docs.google.com\/presentation\/d\/1-qHD_mQNyNz7i1ODXg2JSi_Rp-3PdUj3VDa8y3BgAlE\/edit#slide=id.p",
                "has_rich_preview": true
            }
        ],
        "upload": false,
        "blocks": [
            {
                "type": "rich_text",
                "block_id": "QNkN",
                "elements": [
                    {
                        "type": "rich_text_section",
                        "elements": [
                            {
                                "type": "emoji",
                                "name": "mega"
                            },
                            {
                                "type": "text",
                                "text": "Hi "
                            },
                            {
                                "type": "broadcast",
                                "range": "channel"
                            },
                            {
                                "type": "text",
                                "text": " - For tomorrow’s "
                            },
                            {
                                "type": "text",
                                "text": "Global Community Call",
                                "style": {
                                    "bold": true
                                }
                            },
                            {
                                "type": "text",
                                "text": ", we (on the Communications Team call today) have updated the weekly slide deck to also include slides for program-level teams to share updates in a more streamlined way. I’ve included a slide for this particular team, so plz take a look and add content prior to tomorrow’s call. ("
                            },
                            {
                                "type": "user",
                                "user_id": "UV85V64SD"
                            },
                            {
                                "type": "text",
                                "text": " - are you the right person for this?) — if there’s an external presentation deck that you need to share for your update, that’s fine too; you can just add a couple of words in the stand-in slide so that you have dedicated speaking time.\nThanks for adding your update prior to the call!\nHere’s the doc:\n"
                            },
                            {
                                "type": "link",
                                "url": "https:\/\/docs.google.com\/presentation\/d\/1-qHD_mQNyNz7i1ODXg2JSi_Rp-3PdUj3VDa8y3BgAlE\/edit#slide=id.g73568cc0b1_0_6"
                            }
                        ]
                    }
                ]
            }
        ],
        "user": "U011B6VLM2A",
        "display_as_bot": false,
        "x_files": [
            "F011BMZA355"
        ],
        "ts": "1586888149.145900",
        "client_msg_id": "f0065e51-5fff-440b-88e2-08f14ba11517"
    }
]