[
    {
        "client_msg_id": "8B7ABA07-F053-495F-A966-35DD7FD8C0F3",
        "type": "message",
        "text": "Bhav=Sentiment; vriksha=Tree\nit is a Parts of Speech tagging tool for annotating sentiments in each pos group. there's very little dataset in Hindi. :\/\n\ni'm just surprised it still works. haha, i would just take the tree drawing\/interaction code if needed.",
        "user": "U010RE1NDCG",
        "ts": "1587029144.157300",
        "team": "TUU48M0T1",
        "user_team": "TUU48M0T1",
        "source_team": "TUU48M0T1",
        "user_profile": {
            "avatar_hash": "9b536de47814",
            "image_72": "https:\/\/avatars.slack-edge.com\/2020-03-27\/1033593346022_9b536de4781429680ea1_72.jpg",
            "first_name": "",
            "real_name": "Prashant Sinha",
            "display_name": "",
            "team": "TUU48M0T1",
            "name": "prashant",
            "is_restricted": false,
            "is_ultra_restricted": false
        },
        "blocks": [
            {
                "type": "rich_text",
                "block_id": "wxZt",
                "elements": [
                    {
                        "type": "rich_text_section",
                        "elements": [
                            {
                                "type": "text",
                                "text": "Bhav=Sentiment; vriksha=Tree\nit is a Parts of Speech tagging tool for annotating sentiments in each pos group. there's very little dataset in Hindi. :\/\n"
                            },
                            {
                                "type": "text",
                                "text": "\ni'm just surprised it still works. haha, i would just take the tree drawing\/interaction code if needed."
                            }
                        ]
                    }
                ]
            }
        ],
        "thread_ts": "1586485795.136800",
        "parent_user_id": "U010RE1NDCG"
    }
]