[
    {
        "client_msg_id": "c591d7a1-6fc2-4eb8-86d2-d025877284c4",
        "type": "message",
        "text": "Thank you so much! I need to use Monday to catch up on my class but I'll be keeping an eye out for the recording.",
        "user": "U0101DKUALV",
        "ts": "1589169965.197600",
        "team": "TUU48M0T1",
        "user_team": "TUU48M0T1",
        "source_team": "TUU48M0T1",
        "user_profile": {
            "avatar_hash": "b0aee06ed3e5",
            "image_72": "https:\/\/avatars.slack-edge.com\/2020-04-22\/1072886325190_b0aee06ed3e501ebdf56_72.png",
            "first_name": "",
            "real_name": "Pauline Chane",
            "display_name": "Pauline Chane",
            "team": "TUU48M0T1",
            "name": "pauline.chane",
            "is_restricted": false,
            "is_ultra_restricted": false
        },
        "blocks": [
            {
                "type": "rich_text",
                "block_id": "JY2W",
                "elements": [
                    {
                        "type": "rich_text_section",
                        "elements": [
                            {
                                "type": "text",
                                "text": "Thank you so much! I need to use Monday to catch up on my class but I'll be keeping an eye out for the recording."
                            }
                        ]
                    }
                ]
            }
        ],
        "thread_ts": "1588836544.196300",
        "parent_user_id": "UV85V64SD"
    }
]