[
    {
        "client_msg_id": "82ba5292-64dd-4859-8e46-311bc20d8176",
        "type": "message",
        "text": "Hi <!channel>\nas said last meeting, our next metastudy call will be next Friday (not tomorrow). We are moving to a biweekly meetup, as now subgroups have regular meetings: Monday 5pm CET for recommender group, Tuesday 6pm CET for Slack study and viz.",
        "user": "UV85V64SD",
        "ts": "1586421932.132100",
        "team": "TUU48M0T1",
        "user_team": "TUU48M0T1",
        "source_team": "TUU48M0T1",
        "user_profile": {
            "avatar_hash": "1e73a651bdfe",
            "image_72": "https:\/\/avatars.slack-edge.com\/2020-03-16\/1004297548853_1e73a651bdfef2c41501_72.jpg",
            "first_name": "Marc",
            "real_name": "Marc Santolini",
            "display_name": "Marc Santolini - JOGL CoFounder \/ CSO",
            "team": "TUU48M0T1",
            "name": "marc.santolini",
            "is_restricted": false,
            "is_ultra_restricted": false
        },
        "edited": {
            "user": "UV85V64SD",
            "ts": "1586421946.000000"
        },
        "blocks": [
            {
                "type": "rich_text",
                "block_id": "agfB",
                "elements": [
                    {
                        "type": "rich_text_section",
                        "elements": [
                            {
                                "type": "text",
                                "text": "Hi "
                            },
                            {
                                "type": "broadcast",
                                "range": "channel"
                            },
                            {
                                "type": "text",
                                "text": "\nas said last meeting, our next metastudy call will be next Friday (not tomorrow). We are moving to a biweekly meetup, as now subgroups have regular meetings: Monday 5pm CET for recommender group, Tuesday 6pm CET for Slack study and viz."
                            }
                        ]
                    }
                ]
            }
        ],
        "reactions": [
            {
                "name": "+1",
                "users": [
                    "U010AGDDEBZ",
                    "U0101DKUALV",
                    "UVDJ0PAQK",
                    "U010B412MF1"
                ],
                "count": 4
            }
        ]
    },
    {
        "type": "message",
        "text": "Hey y’all, i found some old dusty code with d3 of a pos tagging toy, maybe the d3 code could be used for something?\n\n\n<https:\/\/github.com\/prashnts\/bhavriksha|https:\/\/github.com\/prashnts\/bhavriksha>\n\nI just made it public and added a tiny readme :)",
        "files": [
            {
                "id": "F011V59TD33",
                "created": 1586485596,
                "timestamp": 1586485596,
                "name": "File from iOS.mov",
                "title": "File from iOS",
                "mimetype": "video\/quicktime",
                "filetype": "mov",
                "pretty_type": "QuickTime Movie",
                "user": "U010RE1NDCG",
                "editable": false,
                "size": 4020502,
                "mode": "hosted",
                "is_external": false,
                "external_type": "",
                "is_public": true,
                "public_url_shared": false,
                "display_as_bot": false,
                "username": "",
                "url_private": "https:\/\/files.slack.com\/files-pri\/TUU48M0T1-F011V59TD33\/file_from_ios.mov?t=xoxe-980144714919-1133254701825-1120841107731-daf595b5a7d6c9028b0b02a925032e36",
                "url_private_download": "https:\/\/files.slack.com\/files-pri\/TUU48M0T1-F011V59TD33\/download\/file_from_ios.mov?t=xoxe-980144714919-1133254701825-1120841107731-daf595b5a7d6c9028b0b02a925032e36",
                "thumb_video": "https:\/\/files.slack.com\/files-tmb\/TUU48M0T1-F011V59TD33-e76071a2b5\/file_from_ios_thumb_video.jpeg?t=xoxe-980144714919-1133254701825-1120841107731-daf595b5a7d6c9028b0b02a925032e36",
                "permalink": "https:\/\/open-covid19.slack.com\/files\/U010RE1NDCG\/F011V59TD33\/file_from_ios.mov",
                "permalink_public": "https:\/\/slack-files.com\/TUU48M0T1-F011V59TD33-c8087a4bdb",
                "is_starred": false,
                "has_rich_preview": false
            }
        ],
        "upload": true,
        "blocks": [
            {
                "type": "rich_text",
                "block_id": "Uhg",
                "elements": [
                    {
                        "type": "rich_text_section",
                        "elements": [
                            {
                                "type": "text",
                                "text": "Hey y’all, i found some old dusty code with d3 of a pos tagging toy, maybe the d3 code could be used for something?\n"
                            },
                            {
                                "type": "text",
                                "text": "\n\n"
                            },
                            {
                                "type": "link",
                                "url": "https:\/\/github.com\/prashnts\/bhavriksha",
                                "text": "https:\/\/github.com\/prashnts\/bhavriksha"
                            },
                            {
                                "type": "text",
                                "text": "\n\n"
                            },
                            {
                                "type": "text",
                                "text": "I just made it public and added a tiny readme :)"
                            }
                        ]
                    }
                ]
            }
        ],
        "user": "U010RE1NDCG",
        "display_as_bot": false,
        "ts": "1586485795.136800",
        "client_msg_id": "4FDC023E-2967-4ABE-9AFF-80B96E5285D1",
        "thread_ts": "1586485795.136800",
        "reply_count": 3,
        "reply_users_count": 2,
        "latest_reply": "1587029144.157300",
        "reply_users": [
            "U010RE1NDCG",
            "UV85V64SD"
        ],
        "replies": [
            {
                "user": "U010RE1NDCG",
                "ts": "1586485861.137200"
            },
            {
                "user": "UV85V64SD",
                "ts": "1586525248.141300"
            },
            {
                "user": "U010RE1NDCG",
                "ts": "1587029144.157300"
            }
        ],
        "subscribed": false,
        "reactions": [
            {
                "name": "heart",
                "users": [
                    "U010B412MF1"
                ],
                "count": 1
            }
        ]
    },
    {
        "client_msg_id": "50169970-1EF5-4FE7-BFCB-EA51FAF6C16C",
        "type": "message",
        "text": "<https:\/\/bhavriksha.herokuapp.com\/|https:\/\/bhavriksha.herokuapp.com\/>",
        "user": "U010RE1NDCG",
        "ts": "1586485861.137200",
        "team": "TUU48M0T1",
        "user_team": "TUU48M0T1",
        "source_team": "TUU48M0T1",
        "user_profile": {
            "avatar_hash": "9b536de47814",
            "image_72": "https:\/\/avatars.slack-edge.com\/2020-03-27\/1033593346022_9b536de4781429680ea1_72.jpg",
            "first_name": "",
            "real_name": "Prashant Sinha",
            "display_name": "",
            "team": "TUU48M0T1",
            "name": "prashant",
            "is_restricted": false,
            "is_ultra_restricted": false
        },
        "attachments": [
            {
                "title": "Bhav Vriksha",
                "title_link": "https:\/\/bhavriksha.herokuapp.com\/",
                "text": "Bhav Vriksha",
                "fallback": "Bhav Vriksha",
                "from_url": "https:\/\/bhavriksha.herokuapp.com\/",
                "service_name": "bhavriksha.herokuapp.com",
                "id": 1,
                "original_url": "https:\/\/bhavriksha.herokuapp.com\/"
            }
        ],
        "blocks": [
            {
                "type": "rich_text",
                "block_id": "7bi",
                "elements": [
                    {
                        "type": "rich_text_section",
                        "elements": [
                            {
                                "type": "link",
                                "url": "https:\/\/bhavriksha.herokuapp.com\/",
                                "text": "https:\/\/bhavriksha.herokuapp.com\/"
                            }
                        ]
                    }
                ]
            }
        ],
        "thread_ts": "1586485795.136800",
        "parent_user_id": "U010RE1NDCG"
    },
    {
        "type": "message",
        "subtype": "thread_broadcast",
        "text": "I don’t know, but maybe this could be useful? <https:\/\/en.m.wikipedia.org\/wiki\/Benford's_law|https:\/\/en.m.wikipedia.org\/wiki\/Benford's_law>",
        "user": "U010RE1NDCG",
        "ts": "1586486917.138800",
        "thread_ts": "1586204191.102800",
        "root": {
            "client_msg_id": "253d59f6-48da-4219-b78a-3a9de2bf9554",
            "type": "message",
            "text": "if not then we are all just blindly making charts on unverified measurements and calling ourselves smarter because we use math to come to our conclusions.",
            "user": "U010GHT685A",
            "ts": "1586204191.102800",
            "team": "TUU48M0T1",
            "blocks": [
                {
                    "type": "rich_text",
                    "block_id": "JhW",
                    "elements": [
                        {
                            "type": "rich_text_section",
                            "elements": [
                                {
                                    "type": "text",
                                    "text": "if not then we are all just blindly making charts on unverified measurements and calling ourselves smarter because we use math to come to our conclusions."
                                }
                            ]
                        }
                    ]
                }
            ],
            "thread_ts": "1586204191.102800",
            "reply_count": 3,
            "reply_users_count": 2,
            "latest_reply": "1586525433.141500",
            "reply_users": [
                "U010RE1NDCG",
                "UV85V64SD"
            ],
            "subscribed": false
        },
        "attachments": [
            {
                "image_url": "https:\/\/upload.wikimedia.org\/wikipedia\/commons\/thumb\/4\/46\/Rozklad_benforda.svg\/1200px-Rozklad_benforda.svg.png",
                "image_width": 1200,
                "image_height": 900,
                "image_bytes": 25218,
                "title": "Benford's law",
                "title_link": "https:\/\/en.m.wikipedia.org\/wiki\/Benford's_law",
                "from_url": "https:\/\/en.m.wikipedia.org\/wiki\/Benford's_law",
                "author_name": "Wikipedia",
                "author_link": "https:\/\/en.wikipedia.org\/",
                "text": "Benford's law, also called the Newcomb–Benford law, the law of anomalous numbers, or the first-digit law, is an observation about the frequency distribution of leading digits in many real-life sets of numerical data. The law states that in many naturally occurring collections of numbers, the leading significant digit is likely to be small. For example, in sets that obey the law, the number 1 appears as the leading significant digit about 30% of the time, while 9 appears as the leading significant digit less than 5% of the time. If the digits were distributed uniformly, they would each occur about 11.1% of the time. Benford's law also makes predictions about the distribution of second digits, third digits, digit combinations, and so on.\nThe graph to the right shows Benford's law for base 10. There is a generalization of the law to numbers expressed in other bases (for example, base 16), and also a generalization from leading 1 digit to leading n digits.\nIt has been shown that this result applies to a wide variety of data sets, including electricity bills, street addresses, stock prices, house prices, population numbers, death rates, lengths of rivers, physical and mathematical constants. Like other general principles about natural data—for example the fact that many data sets are well approximated by a normal distribution—there are illustrative examples and explanations that cover many of the cases where Benford's law applies, though there are many other cases where Benford's law applies that resist a simple explanation. It tends to be most accurate when values are distributed across multiple orders of magnitude, especially if the process generating the numbers is described by a power law (which are common in nature).\nIt is named after physicist Frank Benford, who stated it in 1938 in a paper titled \"The Law of Anomalous Numbers\", although it had been previously stated by Simon Newcomb in 1881.",
                "fallback": "wikipedia: Benford's law",
                "service_icon": "https:\/\/a.slack-edge.com\/80588\/img\/unfurl_icons\/wikipedia.png",
                "id": 1,
                "original_url": "https:\/\/en.m.wikipedia.org\/wiki\/Benford's_law"
            }
        ],
        "blocks": [
            {
                "type": "rich_text",
                "block_id": "PRLT",
                "elements": [
                    {
                        "type": "rich_text_section",
                        "elements": [
                            {
                                "type": "text",
                                "text": "I don’t know, but maybe this could be useful? "
                            },
                            {
                                "type": "link",
                                "url": "https:\/\/en.m.wikipedia.org\/wiki\/Benford's_law",
                                "text": "https:\/\/en.m.wikipedia.org\/wiki\/Benford's_law"
                            }
                        ]
                    }
                ]
            }
        ],
        "client_msg_id": "BA0AEF44-3795-4EA5-B6F7-EE23242801E1",
        "reactions": [
            {
                "name": "+1",
                "users": [
                    "U010B412MF1"
                ],
                "count": 1
            }
        ]
    },
    {
        "client_msg_id": "12CD782E-66AD-4DA5-92D9-32085934457B",
        "type": "message",
        "text": "Specifically, this quite: ... Likewise, some continuous processes satisfy Benford's Law exactly (in the asymptotic limit as the process continues through time). One( example)an exponential growth or decay proces...",
        "user": "U010RE1NDCG",
        "ts": "1586487133.140800",
        "team": "TUU48M0T1",
        "user_team": "TUU48M0T1",
        "source_team": "TUU48M0T1",
        "user_profile": {
            "avatar_hash": "9b536de47814",
            "image_72": "https:\/\/avatars.slack-edge.com\/2020-03-27\/1033593346022_9b536de4781429680ea1_72.jpg",
            "first_name": "",
            "real_name": "Prashant Sinha",
            "display_name": "",
            "team": "TUU48M0T1",
            "name": "prashant",
            "is_restricted": false,
            "is_ultra_restricted": false
        },
        "blocks": [
            {
                "type": "rich_text",
                "block_id": "hoskX",
                "elements": [
                    {
                        "type": "rich_text_section",
                        "elements": [
                            {
                                "type": "text",
                                "text": "Specifically, this quite: ... Likewise, some continuous processes satisfy Benford's Law exactly (in the asymptotic limit as the process continues through time). One( example)an exponential growth or decay proces..."
                            }
                        ]
                    }
                ]
            }
        ],
        "thread_ts": "1586204191.102800",
        "parent_user_id": "U010GHT685A"
    }
]