[
    {
        "client_msg_id": "471ba36c-e632-4186-9728-12e77be19fa4",
        "type": "message",
        "text": "Hello All you there,\n\nOn the Reagent producing Bioreactor ( selected for grants in the first award session) we are looking for web developers with Java Script skills as one of our specialized resources became unavailable recently. This ia  a combination of fairly standard web screens and one screen that represents a research challenge.\nThank you in advance,\n\nAdrian\n<https:\/\/app.jogl.io\/project\/156>",
        "user": "U0103SR759U",
        "ts": "1588179924.006000",
        "team": "TUU48M0T1",
        "user_team": "TUU48M0T1",
        "source_team": "TUU48M0T1",
        "user_profile": {
            "avatar_hash": "g2694d379600",
            "image_72": "https:\/\/secure.gravatar.com\/avatar\/2694d3796008843d36d4b6ceff7f8660.jpg?s=72&d=https%3A%2F%2Fa.slack-edge.com%2Fdf10d%2Fimg%2Favatars%2Fava_0010-72.png",
            "first_name": "Adrian",
            "real_name": "Adrian Molecule",
            "display_name": "Adrian Molecule",
            "team": "TUU48M0T1",
            "name": "tada",
            "is_restricted": false,
            "is_ultra_restricted": false
        },
        "attachments": [
            {
                "service_name": "JOGL - Just One Giant Lab",
                "title": "prgm-bioreactor | JOGL",
                "title_link": "https:\/\/app.jogl.io\/project\/156",
                "text": "Fighting viruses require expensive reagents. For cheap and quality reagents you need a bioreactor, a controlled environment growth chamber.",
                "fallback": "JOGL - Just One Giant Lab: prgm-bioreactor | JOGL",
                "thumb_url": "https:\/\/jogl-backend.herokuapp.com\/rails\/active_storage\/representations\/eyJfcmFpbHMiOnsibWVzc2FnZSI6IkJBaHBBaU1HIiwiZXhwIjpudWxsLCJwdXIiOiJibG9iX2lkIn19--4f89edad939bb5dde4527a48a7fb3a485fb679d2\/eyJfcmFpbHMiOnsibWVzc2FnZSI6IkJBaDdCam9MY21WemFYcGxTU0lOTkRBd2VEUXdNRjRHT2daRlZBPT0iLCJleHAiOm51bGwsInB1ciI6InZhcmlhdGlvbiJ9fQ==--a35f8ec586c78dc9d1bd1b8dff57088b517bdd00\/bioreactor.png",
                "from_url": "https:\/\/app.jogl.io\/project\/156",
                "thumb_width": 512,
                "thumb_height": 400,
                "service_icon": "https:\/\/app.jogl.io\/images\/favicon.ico",
                "id": 1,
                "original_url": "https:\/\/app.jogl.io\/project\/156"
            }
        ],
        "blocks": [
            {
                "type": "rich_text",
                "block_id": "CBj",
                "elements": [
                    {
                        "type": "rich_text_section",
                        "elements": [
                            {
                                "type": "text",
                                "text": "Hello All you there,\n\nOn the Reagent producing Bioreactor ( selected for grants in the first award session) we are looking for web developers with Java Script skills as one of our specialized resources became unavailable recently. This ia  a combination of fairly standard web screens and one screen that represents a research challenge.\nThank you in advance,\n\nAdrian\n"
                            },
                            {
                                "type": "link",
                                "url": "https:\/\/app.jogl.io\/project\/156"
                            }
                        ]
                    }
                ]
            }
        ],
        "thread_ts": "1588179924.006000",
        "reply_count": 2,
        "reply_users_count": 2,
        "latest_reply": "1588361544.027600",
        "reply_users": [
            "UV9V03C8Y",
            "U0103SR759U"
        ],
        "replies": [
            {
                "user": "UV9V03C8Y",
                "ts": "1588180591.006200"
            },
            {
                "user": "U0103SR759U",
                "ts": "1588361544.027600"
            }
        ],
        "subscribed": false
    },
    {
        "client_msg_id": "2107fc1c-83b2-4c80-9d1a-f482754b977f",
        "type": "message",
        "text": "Hey <@U0103SR759U>, there are curently 70 people on JOGL with Java script skills ; have you checked it out already? Feel free to contact them directly! Also happy to provide you with any assistance in that regard! <https:\/\/app.jogl.io\/search\/members?refinementList%5Bskills%5D%5B0%5D=JavaScript&amp;page=1>",
        "user": "UV9V03C8Y",
        "ts": "1588180591.006200",
        "team": "TUU48M0T1",
        "user_team": "TUU48M0T1",
        "source_team": "TUU48M0T1",
        "user_profile": {
            "avatar_hash": "177697fb7b8f",
            "image_72": "https:\/\/avatars.slack-edge.com\/2020-03-12\/996126178096_177697fb7b8ffa57649c_72.jpg",
            "first_name": "Camille",
            "real_name": "Camille Masselot - JOGL Program coordinator",
            "display_name": "Camille Masselot - JOGL coordinator",
            "team": "TUU48M0T1",
            "name": "masselot.camille",
            "is_restricted": false,
            "is_ultra_restricted": false
        },
        "attachments": [
            {
                "service_name": "JOGL - Just One Giant Lab",
                "title": "Search members | JOGL",
                "title_link": "https:\/\/app.jogl.io\/search\/members?refinementList%5Bskills%5D%5B0%5D=JavaScript&page=1",
                "text": "JOGL helps sync humanity onto solving our most important social &amp; environmental problems using open science, responsible innovation &amp; continuous learning.",
                "fallback": "JOGL - Just One Giant Lab: Search members | JOGL",
                "thumb_url": "https:\/\/app.jogl.io\/images\/planet.jpg",
                "from_url": "https:\/\/app.jogl.io\/search\/members?refinementList%5Bskills%5D%5B0%5D=JavaScript&page=1",
                "thumb_width": 2599,
                "thumb_height": 1215,
                "service_icon": "https:\/\/app.jogl.io\/images\/favicon.ico",
                "id": 1,
                "original_url": "https:\/\/app.jogl.io\/search\/members?refinementList%5Bskills%5D%5B0%5D=JavaScript&amp;page=1"
            }
        ],
        "blocks": [
            {
                "type": "rich_text",
                "block_id": "882P=",
                "elements": [
                    {
                        "type": "rich_text_section",
                        "elements": [
                            {
                                "type": "text",
                                "text": "Hey "
                            },
                            {
                                "type": "user",
                                "user_id": "U0103SR759U"
                            },
                            {
                                "type": "text",
                                "text": ", there are curently 70 people on JOGL with Java script skills ; have you checked it out already? Feel free to contact them directly! Also happy to provide you with any assistance in that regard! "
                            },
                            {
                                "type": "link",
                                "url": "https:\/\/app.jogl.io\/search\/members?refinementList%5Bskills%5D%5B0%5D=JavaScript&page=1"
                            }
                        ]
                    }
                ]
            }
        ],
        "thread_ts": "1588179924.006000",
        "parent_user_id": "U0103SR759U"
    },
    {
        "type": "message",
        "subtype": "channel_join",
        "ts": "1588182056.006600",
        "user": "U012YDF5XEG",
        "text": "<@U012YDF5XEG> has joined the channel",
        "inviter": "UV02WET96"
    },
    {
        "client_msg_id": "9969234e-3824-4f7a-837e-e002fefa82cb",
        "type": "message",
        "text": "Hello everyone!\n\nIn the SARS cov detective project (<https:\/\/app.jogl.io\/project\/181\/edit>) we are at the moment planning to design new lamp primer sets based on the daily nCov sequences and checking in which regions the existing ones will face difficulties due to the local strain mutations. Any help from people in the bio informatics field is welcomed. We are at the moment performing the alignments of the huge sequences database (8160 sequences).\n\nThanks!",
        "user": "UV3URUKK5",
        "ts": "1588188504.008400",
        "team": "TUU48M0T1",
        "user_team": "TUU48M0T1",
        "source_team": "TUU48M0T1",
        "user_profile": {
            "avatar_hash": "64c99c2ed974",
            "image_72": "https:\/\/avatars.slack-edge.com\/2020-03-15\/1000999702004_64c99c2ed97497e08ca9_72.jpg",
            "first_name": "",
            "real_name": "Francisco Javier Quero",
            "display_name": "Francisco Javier Quero",
            "team": "TUU48M0T1",
            "name": "franxi2953",
            "is_restricted": false,
            "is_ultra_restricted": false
        },
        "attachments": [
            {
                "service_name": "JOGL - Just One Giant Lab",
                "title": "Search projects | JOGL",
                "title_link": "https:\/\/app.jogl.io\/project\/181\/edit",
                "text": "JOGL helps sync humanity onto solving our most important social &amp; environmental problems using open science, responsible innovation &amp; continuous learning.",
                "fallback": "JOGL - Just One Giant Lab: Search projects | JOGL",
                "thumb_url": "https:\/\/app.jogl.io\/images\/planet.jpg",
                "from_url": "https:\/\/app.jogl.io\/project\/181\/edit",
                "thumb_width": 2599,
                "thumb_height": 1215,
                "service_icon": "https:\/\/app.jogl.io\/images\/favicon.ico",
                "id": 1,
                "original_url": "https:\/\/app.jogl.io\/project\/181\/edit"
            }
        ],
        "blocks": [
            {
                "type": "rich_text",
                "block_id": "9ht=",
                "elements": [
                    {
                        "type": "rich_text_section",
                        "elements": [
                            {
                                "type": "text",
                                "text": "Hello everyone!\n\nIn the SARS cov detective project ("
                            },
                            {
                                "type": "link",
                                "url": "https:\/\/app.jogl.io\/project\/181\/edit"
                            },
                            {
                                "type": "text",
                                "text": ") we are at the moment planning to design new lamp primer sets based on the daily nCov sequences and checking in which regions the existing ones will face difficulties due to the local strain mutations. Any help from people in the bio informatics field is welcomed. We are at the moment performing the alignments of the huge sequences database (8160 sequences).\n\nThanks!"
                            }
                        ]
                    }
                ]
            }
        ],
        "thread_ts": "1588188504.008400",
        "reply_count": 1,
        "reply_users_count": 1,
        "latest_reply": "1589285838.052900",
        "reply_users": [
            "U011B6VLM2A"
        ],
        "replies": [
            {
                "user": "U011B6VLM2A",
                "ts": "1589285838.052900"
            }
        ],
        "subscribed": false
    },
    {
        "client_msg_id": "06ef2533-5f89-4c88-9e3b-de6dfabd3acf",
        "type": "message",
        "text": "Hello everyone, I am looking for experts in the field of immunology. While all the focus on screening is focused on virus detection via PCR etc, I am exploring the concept as to a skin test similar to the tuberculin skin test which is *based on* the fact that infection with M. *tuberculosis* bacterium produces a delayed-type hypersensitivity *skin* reaction to certain components of the bacterium is feasible for detecting an immunologic response to SARS-Co-V2. Such a skin test would provide a readout within a short period of time, easy to administer, and would provide an obvious response if the subject would be positive for exposure.",
        "user": "U012SNWMF7U",
        "ts": "1588194751.008800",
        "team": "TUU48M0T1",
        "user_team": "TUU48M0T1",
        "source_team": "TUU48M0T1",
        "user_profile": {
            "avatar_hash": "gc0e50e62ee0",
            "image_72": "https:\/\/secure.gravatar.com\/avatar\/c0e50e62ee0483dd8bdea0a990b34517.jpg?s=72&d=https%3A%2F%2Fa.slack-edge.com%2Fdf10d%2Fimg%2Favatars%2Fava_0023-72.png",
            "first_name": "",
            "real_name": "Daniel Gordin",
            "display_name": "Daniel Gordin",
            "team": "TUU48M0T1",
            "name": "danielg0",
            "is_restricted": false,
            "is_ultra_restricted": false
        },
        "edited": {
            "user": "U012SNWMF7U",
            "ts": "1588195158.000000"
        },
        "blocks": [
            {
                "type": "rich_text",
                "block_id": "F0W",
                "elements": [
                    {
                        "type": "rich_text_section",
                        "elements": [
                            {
                                "type": "text",
                                "text": "Hello everyone, I am looking for experts in the field of immunology. While all the focus on screening is focused on virus detection via PCR etc, I am exploring the concept as to a skin test similar to the tuberculin skin test which is "
                            },
                            {
                                "type": "text",
                                "text": "based on",
                                "style": {
                                    "bold": true
                                }
                            },
                            {
                                "type": "text",
                                "text": " the fact that infection with M. "
                            },
                            {
                                "type": "text",
                                "text": "tuberculosis",
                                "style": {
                                    "bold": true
                                }
                            },
                            {
                                "type": "text",
                                "text": " bacterium produces a delayed-type hypersensitivity "
                            },
                            {
                                "type": "text",
                                "text": "skin",
                                "style": {
                                    "bold": true
                                }
                            },
                            {
                                "type": "text",
                                "text": " reaction to certain components of the bacterium is feasible for detecting an immunologic response to SARS-Co-V2. Such a skin test would provide a readout within a short period of time, easy to administer, and would provide an obvious response if the subject would be positive for exposure."
                            }
                        ]
                    }
                ]
            }
        ],
        "thread_ts": "1588194751.008800",
        "reply_count": 1,
        "reply_users_count": 1,
        "latest_reply": "1589285277.050600",
        "reply_users": [
            "U011B6VLM2A"
        ],
        "replies": [
            {
                "user": "U011B6VLM2A",
                "ts": "1589285277.050600"
            }
        ],
        "subscribed": false
    },
    {
        "client_msg_id": "50BB556B-FD80-436A-BCA7-83E4A9650DE0",
        "type": "message",
        "text": "Hi all from Geneva,\n\n\nMy name is Servane CLAUDEL, I am part of the <http:\/\/printers-solidaires.ch|printers-solidaires.ch> group. To introduce quickly myself I have a Ph-D micro technique sciences physique pour l'ingénieur from UTBM, MBA IE business School and 3 Prusa printers MK3 at home. \n\n<http:\/\/Printers-solidaires.ch|Printers-solidaires.ch> produced with volunteers makers more than 2200 face shield in 3D that we give for free to front-liners.\n\nContact me if you are have an open source and would like to volunteer \n\nAnybody is working on HEPA filter ?",
        "user": "U012ZLAE5MJ",
        "ts": "1588229632.009400",
        "team": "TUU48M0T1",
        "user_team": "TUU48M0T1",
        "source_team": "TUU48M0T1",
        "user_profile": {
            "avatar_hash": "g25a89f1a764",
            "image_72": "https:\/\/secure.gravatar.com\/avatar\/25a89f1a7644c9ad6eacff2df324debf.jpg?s=72&d=https%3A%2F%2Fa.slack-edge.com%2Fdf10d%2Fimg%2Favatars%2Fava_0025-72.png",
            "first_name": "",
            "real_name": "Servane Printers-solidaires.ch",
            "display_name": "",
            "team": "TUU48M0T1",
            "name": "printerssolidaires.ch",
            "is_restricted": false,
            "is_ultra_restricted": false
        },
        "blocks": [
            {
                "type": "rich_text",
                "block_id": "4\/N",
                "elements": [
                    {
                        "type": "rich_text_section",
                        "elements": [
                            {
                                "type": "text",
                                "text": "Hi all from Geneva,\n\n\nMy name is Servane CLAUDEL, I am part of the "
                            },
                            {
                                "type": "link",
                                "url": "http:\/\/printers-solidaires.ch",
                                "text": "printers-solidaires.ch"
                            },
                            {
                                "type": "text",
                                "text": " group. To introduce quickly myself I have a Ph-D micro technique sciences physique pour l'ingénieur from UTBM, MBA IE business School and 3 Prusa printers MK3 at home. \n\n"
                            },
                            {
                                "type": "link",
                                "url": "http:\/\/Printers-solidaires.ch",
                                "text": "Printers-solidaires.ch"
                            },
                            {
                                "type": "text",
                                "text": " produced with volunteers makers more than 2200 face shield in 3D that we give for free to front-liners.\n\nContact me if you are have an open source and would like to volunteer \n\nAnybody is working on HEPA filter ?"
                            }
                        ]
                    }
                ]
            }
        ]
    }
]