[
    {
        "client_msg_id": "dc0478c8-9c6a-4d80-afb2-29d631d3baf6",
        "type": "message",
        "text": ":fire:<!subteam^S01265GRL15|@project-leads> — please use this channel to share announcements about specific skills or expertise you need to help your project succeed! Also, browse posts in this channel to find potential new team members.:fire:",
        "user": "U011B6VLM2A",
        "ts": "1588325157.011500",
        "team": "TUU48M0T1",
        "user_team": "TUU48M0T1",
        "source_team": "TUU48M0T1",
        "user_profile": {
            "avatar_hash": "4231dc598cfc",
            "image_72": "https:\/\/avatars.slack-edge.com\/2020-04-02\/1044784558839_4231dc598cfc2e59c4c4_72.jpg",
            "first_name": "Alix",
            "real_name": "Alix Mains",
            "display_name": "Alix Mains - JOGL Coordinator",
            "team": "TUU48M0T1",
            "name": "alixhmains",
            "is_restricted": false,
            "is_ultra_restricted": false
        },
        "blocks": [
            {
                "type": "rich_text",
                "block_id": "XiG",
                "elements": [
                    {
                        "type": "rich_text_section",
                        "elements": [
                            {
                                "type": "emoji",
                                "name": "fire"
                            },
                            {
                                "type": "usergroup",
                                "usergroup_id": "S01265GRL15"
                            },
                            {
                                "type": "text",
                                "text": " — please use this channel to share announcements about specific skills or expertise you need to help your project succeed! Also, browse posts in this channel to find potential new team members."
                            },
                            {
                                "type": "emoji",
                                "name": "fire"
                            }
                        ]
                    }
                ]
            }
        ],
        "reactions": [
            {
                "name": "+1",
                "users": [
                    "U011D6K9RH6",
                    "UV8T52QJ3"
                ],
                "count": 2
            }
        ]
    },
    {
        "type": "message",
        "subtype": "channel_join",
        "ts": "1588325161.011700",
        "user": "UUNGFHSV8",
        "text": "<@UUNGFHSV8> has joined the channel",
        "inviter": "U011B6VLM2A"
    },
    {
        "type": "message",
        "subtype": "channel_join",
        "ts": "1588325161.011900",
        "user": "UUPFF4TC3",
        "text": "<@UUPFF4TC3> has joined the channel",
        "inviter": "U011B6VLM2A"
    },
    {
        "type": "message",
        "subtype": "channel_join",
        "ts": "1588325162.012100",
        "user": "UUPQGNNTV",
        "text": "<@UUPQGNNTV> has joined the channel",
        "inviter": "U011B6VLM2A"
    },
    {
        "type": "message",
        "subtype": "channel_join",
        "ts": "1588325162.012300",
        "user": "UV10KBUQG",
        "text": "<@UV10KBUQG> has joined the channel",
        "inviter": "U011B6VLM2A"
    },
    {
        "type": "message",
        "subtype": "channel_join",
        "ts": "1588325162.012500",
        "user": "UV1A22N3W",
        "text": "<@UV1A22N3W> has joined the channel",
        "inviter": "U011B6VLM2A"
    },
    {
        "type": "message",
        "subtype": "channel_join",
        "ts": "1588325162.012800",
        "user": "UV78JAX0S",
        "text": "<@UV78JAX0S> has joined the channel",
        "inviter": "U011B6VLM2A"
    },
    {
        "type": "message",
        "subtype": "channel_join",
        "ts": "1588325162.013000",
        "user": "UV8T52QJ3",
        "text": "<@UV8T52QJ3> has joined the channel",
        "inviter": "U011B6VLM2A"
    },
    {
        "type": "message",
        "subtype": "channel_join",
        "ts": "1588325162.013200",
        "user": "UVA0E24KZ",
        "text": "<@UVA0E24KZ> has joined the channel",
        "inviter": "U011B6VLM2A"
    },
    {
        "type": "message",
        "subtype": "channel_join",
        "ts": "1588325162.013500",
        "user": "UVA46RKLY",
        "text": "<@UVA46RKLY> has joined the channel",
        "inviter": "U011B6VLM2A"
    },
    {
        "type": "message",
        "subtype": "channel_join",
        "ts": "1588325162.013800",
        "user": "UVADMLUB0",
        "text": "<@UVADMLUB0> has joined the channel",
        "inviter": "U011B6VLM2A"
    },
    {
        "type": "message",
        "subtype": "channel_join",
        "ts": "1588325162.014100",
        "user": "UVDJ0PAQK",
        "text": "<@UVDJ0PAQK> has joined the channel",
        "inviter": "U011B6VLM2A"
    },
    {
        "type": "message",
        "subtype": "channel_join",
        "ts": "1588325162.014400",
        "user": "U0104M5CWV9",
        "text": "<@U0104M5CWV9> has joined the channel",
        "inviter": "U011B6VLM2A"
    },
    {
        "type": "message",
        "subtype": "channel_join",
        "ts": "1588325163.014700",
        "user": "U01084P4ELX",
        "text": "<@U01084P4ELX> has joined the channel",
        "inviter": "U011B6VLM2A"
    },
    {
        "type": "message",
        "subtype": "channel_join",
        "ts": "1588325163.015100",
        "user": "U01089UEU30",
        "text": "<@U01089UEU30> has joined the channel",
        "inviter": "U011B6VLM2A"
    },
    {
        "type": "message",
        "subtype": "channel_join",
        "ts": "1588325163.015300",
        "user": "U0108DWH5NH",
        "text": "<@U0108DWH5NH> has joined the channel",
        "inviter": "U011B6VLM2A"
    },
    {
        "type": "message",
        "subtype": "channel_join",
        "ts": "1588325163.015800",
        "user": "U010B4EJG2C",
        "text": "<@U010B4EJG2C> has joined the channel",
        "inviter": "U011B6VLM2A"
    },
    {
        "type": "message",
        "subtype": "channel_join",
        "ts": "1588325163.016100",
        "user": "U010Q3G4MDF",
        "text": "<@U010Q3G4MDF> has joined the channel",
        "inviter": "U011B6VLM2A"
    },
    {
        "type": "message",
        "subtype": "channel_join",
        "ts": "1588325163.016300",
        "user": "U010QHBTBPY",
        "text": "<@U010QHBTBPY> has joined the channel",
        "inviter": "U011B6VLM2A"
    },
    {
        "type": "message",
        "subtype": "channel_join",
        "ts": "1588325163.016600",
        "user": "U010YT4BM34",
        "text": "<@U010YT4BM34> has joined the channel",
        "inviter": "U011B6VLM2A"
    },
    {
        "type": "message",
        "subtype": "channel_join",
        "ts": "1588325163.016800",
        "user": "U010Z4GHYGG",
        "text": "<@U010Z4GHYGG> has joined the channel",
        "inviter": "U011B6VLM2A"
    },
    {
        "type": "message",
        "subtype": "channel_join",
        "ts": "1588325164.017100",
        "user": "U0115R9V9CJ",
        "text": "<@U0115R9V9CJ> has joined the channel",
        "inviter": "U011B6VLM2A"
    },
    {
        "type": "message",
        "subtype": "channel_join",
        "ts": "1588325164.017400",
        "user": "U0119U5N3T3",
        "text": "<@U0119U5N3T3> has joined the channel",
        "inviter": "U011B6VLM2A"
    },
    {
        "type": "message",
        "subtype": "channel_join",
        "ts": "1588325164.017900",
        "user": "U011BAD8A5V",
        "text": "<@U011BAD8A5V> has joined the channel",
        "inviter": "U011B6VLM2A"
    },
    {
        "type": "message",
        "subtype": "channel_join",
        "ts": "1588325164.018200",
        "user": "U011D6K9RH6",
        "text": "<@U011D6K9RH6> has joined the channel",
        "inviter": "U011B6VLM2A"
    },
    {
        "type": "message",
        "subtype": "channel_join",
        "ts": "1588325164.018400",
        "user": "U011G0QGFN3",
        "text": "<@U011G0QGFN3> has joined the channel",
        "inviter": "U011B6VLM2A"
    },
    {
        "type": "message",
        "subtype": "channel_join",
        "ts": "1588325164.018700",
        "user": "U011XCJJ7KK",
        "text": "<@U011XCJJ7KK> has joined the channel",
        "inviter": "U011B6VLM2A"
    },
    {
        "client_msg_id": "dd5fa4de-c8f3-4ab2-a2f7-a8211b7ac857",
        "type": "message",
        "text": "Covid-19 Museum is looking for its Open Source dev programmers will excellent skill to build the code of the museum. Volunteers will have to think the structure and help its dev under the supervision of one full professor of Informatics at Sorbonne Paris Nord and one retired tech engineer of the google\/android program who already join the project.",
        "user": "U011BAD8A5V",
        "ts": "1588335397.024000",
        "team": "TUU48M0T1",
        "user_team": "TUU48M0T1",
        "source_team": "TUU48M0T1",
        "user_profile": {
            "avatar_hash": "cc2342c6b5e4",
            "image_72": "https:\/\/avatars.slack-edge.com\/2020-04-15\/1050435442151_cc2342c6b5e4ed35a60a_72.png",
            "first_name": "Yves",
            "real_name": "Yves Rozenholc",
            "display_name": "Yves - Covid19 Museum",
            "team": "TUU48M0T1",
            "name": "contact",
            "is_restricted": false,
            "is_ultra_restricted": false
        },
        "blocks": [
            {
                "type": "rich_text",
                "block_id": "p0wDc",
                "elements": [
                    {
                        "type": "rich_text_section",
                        "elements": [
                            {
                                "type": "text",
                                "text": "Covid-19 Museum is looking for its Open Source dev programmers will excellent skill to build the code of the museum. Volunteers will have to think the structure and help its dev under the supervision of one full professor of Informatics at Sorbonne Paris Nord and one retired tech engineer of the google\/android program who already join the project."
                            }
                        ]
                    }
                ]
            }
        ],
        "reactions": [
            {
                "name": "+1",
                "users": [
                    "U011D6K9RH6"
                ],
                "count": 1
            }
        ]
    },
    {
        "client_msg_id": "1f672152-dfce-4008-b4d4-8a0641475320",
        "type": "message",
        "text": "Covid-19 Museum is also looking for its community manager(s) to help the project to be known at the public level when its scientific part will be brought out (expecting very soon now). Please look at <http:\/\/covid19.museum>",
        "user": "U011BAD8A5V",
        "ts": "1588335546.026000",
        "team": "TUU48M0T1",
        "user_team": "TUU48M0T1",
        "source_team": "TUU48M0T1",
        "user_profile": {
            "avatar_hash": "cc2342c6b5e4",
            "image_72": "https:\/\/avatars.slack-edge.com\/2020-04-15\/1050435442151_cc2342c6b5e4ed35a60a_72.png",
            "first_name": "Yves",
            "real_name": "Yves Rozenholc",
            "display_name": "Yves - Covid19 Museum",
            "team": "TUU48M0T1",
            "name": "contact",
            "is_restricted": false,
            "is_ultra_restricted": false
        },
        "attachments": [
            {
                "service_name": "JOGL - Just One Giant Lab",
                "title": "Covid-19 Museum | JOGL",
                "title_link": "http:\/\/covid19.museum\/",
                "text": "Collaborative electronic museum to gather and protect iconographic, media, literary, scientific traces for memory, pedagogy and research",
                "fallback": "JOGL - Just One Giant Lab: Covid-19 Museum | JOGL",
                "thumb_url": "https:\/\/jogl-backend.herokuapp.com\/rails\/active_storage\/representations\/eyJfcmFpbHMiOnsibWVzc2FnZSI6IkJBaHBBaFFIIiwiZXhwIjpudWxsLCJwdXIiOiJibG9iX2lkIn19--de4464943f110c5ef582b858539e32cecdef5ae3\/eyJfcmFpbHMiOnsibWVzc2FnZSI6IkJBaDdCam9MY21WemFYcGxTU0lOTkRBd2VEUXdNRjRHT2daRlZBPT0iLCJleHAiOm51bGwsInB1ciI6InZhcmlhdGlvbiJ9fQ==--a35f8ec586c78dc9d1bd1b8dff57088b517bdd00\/logo-Y9-covid-museum-01.png",
                "from_url": "http:\/\/covid19.museum\/",
                "thumb_width": 673,
                "thumb_height": 400,
                "service_icon": "https:\/\/app.jogl.io\/images\/favicon.ico",
                "id": 1,
                "original_url": "http:\/\/covid19.museum"
            }
        ],
        "blocks": [
            {
                "type": "rich_text",
                "block_id": "fjig7",
                "elements": [
                    {
                        "type": "rich_text_section",
                        "elements": [
                            {
                                "type": "text",
                                "text": "Covid-19 Museum is also looking for its community manager(s) to help the project to be known at the public level when its scientific part will be brought out (expecting very soon now). Please look at "
                            },
                            {
                                "type": "link",
                                "url": "http:\/\/covid19.museum"
                            }
                        ]
                    }
                ]
            }
        ]
    },
    {
        "client_msg_id": "731a7c0e-cd09-442f-b87f-4921d2f7d0e0",
        "type": "message",
        "text": "We are still working away on the app using AI. We would love to get any developers on this. We are looking for:\n\n-- Apple developers (App)\n-- Google developers (App)\n-- AI developer\n-- Website UX Developer (with knowledge of AI).\n\nWe want to create this app\/website that reads people's emotions in real-time and gives them access to content and etc. - We have an App in hand already - we are looking to edit its framework, add these elements, and re-wireframe for ease of use and focused around offering mental health resources. Would love to hear from you, if interested, please DM! :slightly_smiling_face: - Thanks for your hard work! :slightly_smiling_face:",
        "user": "U011D6K9RH6",
        "ts": "1588343250.026300",
        "team": "TUU48M0T1",
        "user_team": "TUU48M0T1",
        "source_team": "TUU48M0T1",
        "user_profile": {
            "avatar_hash": "85c5155708e4",
            "image_72": "https:\/\/avatars.slack-edge.com\/2020-04-02\/1033600589794_85c5155708e4e6cfa61f_72.jpg",
            "first_name": "George",
            "real_name": "George Elerick",
            "display_name": "George Elerick",
            "team": "TUU48M0T1",
            "name": "george",
            "is_restricted": false,
            "is_ultra_restricted": false
        },
        "blocks": [
            {
                "type": "rich_text",
                "block_id": "=KbW0",
                "elements": [
                    {
                        "type": "rich_text_section",
                        "elements": [
                            {
                                "type": "text",
                                "text": "We are still working away on the app using AI. We would love to get any developers on this. We are looking for:\n\n-- Apple developers (App)\n-- Google developers (App)\n-- AI developer\n-- Website UX Developer (with knowledge of AI).\n\nWe want to create this app\/website that reads people's emotions in real-time and gives them access to content and etc. - We have an App in hand already - we are looking to edit its framework, add these elements, and re-wireframe for ease of use and focused around offering mental health resources. Would love to hear from you, if interested, please DM! "
                            },
                            {
                                "type": "emoji",
                                "name": "slightly_smiling_face"
                            },
                            {
                                "type": "text",
                                "text": " - Thanks for your hard work! "
                            },
                            {
                                "type": "emoji",
                                "name": "slightly_smiling_face"
                            }
                        ]
                    }
                ]
            }
        ]
    },
    {
        "client_msg_id": "c5115b63-6d61-4be6-9124-6df28a3a001c",
        "type": "message",
        "text": "<https:\/\/hackit19.azurewebsites.net\/Home>",
        "user": "U011NP2GGJJ",
        "ts": "1588356983.027000",
        "team": "TUU48M0T1",
        "user_team": "TUU48M0T1",
        "source_team": "TUU48M0T1",
        "user_profile": {
            "avatar_hash": "g3cc77bf0759",
            "image_72": "https:\/\/secure.gravatar.com\/avatar\/3cc77bf075917df3f244f1cd9de236e0.jpg?s=72&d=https%3A%2F%2Fa.slack-edge.com%2Fdf10d%2Fimg%2Favatars%2Fava_0002-72.png",
            "first_name": "",
            "real_name": "Sophie Parsy",
            "display_name": "Sophie Parsy",
            "team": "TUU48M0T1",
            "name": "parsysophie",
            "is_restricted": false,
            "is_ultra_restricted": false
        },
        "blocks": [
            {
                "type": "rich_text",
                "block_id": "xhN",
                "elements": [
                    {
                        "type": "rich_text_section",
                        "elements": [
                            {
                                "type": "link",
                                "url": "https:\/\/hackit19.azurewebsites.net\/Home"
                            }
                        ]
                    }
                ]
            }
        ],
        "thread_ts": "1587819683.001900",
        "parent_user_id": "U011NP2GGJJ"
    },
    {
        "client_msg_id": "5e0a1e24-5565-412f-abc5-f82c9275968b",
        "type": "message",
        "text": "this is our website, that we would like to make responsive",
        "user": "U011NP2GGJJ",
        "ts": "1588356998.027200",
        "team": "TUU48M0T1",
        "user_team": "TUU48M0T1",
        "source_team": "TUU48M0T1",
        "user_profile": {
            "avatar_hash": "g3cc77bf0759",
            "image_72": "https:\/\/secure.gravatar.com\/avatar\/3cc77bf075917df3f244f1cd9de236e0.jpg?s=72&d=https%3A%2F%2Fa.slack-edge.com%2Fdf10d%2Fimg%2Favatars%2Fava_0002-72.png",
            "first_name": "",
            "real_name": "Sophie Parsy",
            "display_name": "Sophie Parsy",
            "team": "TUU48M0T1",
            "name": "parsysophie",
            "is_restricted": false,
            "is_ultra_restricted": false
        },
        "blocks": [
            {
                "type": "rich_text",
                "block_id": "XB7",
                "elements": [
                    {
                        "type": "rich_text_section",
                        "elements": [
                            {
                                "type": "text",
                                "text": "this is our website, that we would like to make responsive"
                            }
                        ]
                    }
                ]
            }
        ],
        "thread_ts": "1587819683.001900",
        "parent_user_id": "U011NP2GGJJ"
    },
    {
        "client_msg_id": "a96be282-4e42-4f55-86de-c26701110d31",
        "type": "message",
        "text": "Hi Camille, I did message some directly but have not hard back from anybody so we still need somebody. Any help would be appreciated :\nCheers,",
        "user": "U0103SR759U",
        "ts": "1588361544.027600",
        "team": "TUU48M0T1",
        "user_team": "TUU48M0T1",
        "source_team": "TUU48M0T1",
        "user_profile": {
            "avatar_hash": "g2694d379600",
            "image_72": "https:\/\/secure.gravatar.com\/avatar\/2694d3796008843d36d4b6ceff7f8660.jpg?s=72&d=https%3A%2F%2Fa.slack-edge.com%2Fdf10d%2Fimg%2Favatars%2Fava_0010-72.png",
            "first_name": "Adrian",
            "real_name": "Adrian Molecule",
            "display_name": "Adrian Molecule",
            "team": "TUU48M0T1",
            "name": "tada",
            "is_restricted": false,
            "is_ultra_restricted": false
        },
        "blocks": [
            {
                "type": "rich_text",
                "block_id": "Zaw3",
                "elements": [
                    {
                        "type": "rich_text_section",
                        "elements": [
                            {
                                "type": "text",
                                "text": "Hi Camille, I did message some directly but have not hard back from anybody so we still need somebody. Any help would be appreciated :\nCheers,"
                            }
                        ]
                    }
                ]
            }
        ],
        "thread_ts": "1588179924.006000",
        "parent_user_id": "U0103SR759U"
    },
    {
        "client_msg_id": "a2f286dc-b4a4-4e75-ab9f-cad0ae6ea3f1",
        "type": "message",
        "text": "<http:\/\/CoEpi.org|CoEpi.org> could still use more mobile developers to help improve our app for symptom self-reporting and exposure alerting. If you’re literate in Kotlin or Swift, or could contribute in any other way, please LMK and I’ll get you added to our Slack. If you want to peruse our Github, the repos are at <https:\/\/github.com\/Co-Epi> and the project boards at <https:\/\/github.com\/orgs\/Co-Epi\/projects>",
        "user": "U01089UEU30",
        "ts": "1588386466.030300",
        "team": "TUU48M0T1",
        "user_team": "TUU48M0T1",
        "source_team": "TUU48M0T1",
        "user_profile": {
            "avatar_hash": "9641933d6160",
            "image_72": "https:\/\/avatars.slack-edge.com\/2020-04-13\/1066453688484_9641933d6160000374f6_72.jpg",
            "first_name": "Scott",
            "real_name": "Scott Leibrand",
            "display_name": "",
            "team": "TUU48M0T1",
            "name": "scott",
            "is_restricted": false,
            "is_ultra_restricted": false
        },
        "attachments": [
            {
                "fallback": "CoEpi",
                "title": "CoEpi",
                "footer": "<https:\/\/github.com\/Co-Epi|@Co-Epi>",
                "id": 1,
                "thumb_height": 135,
                "thumb_width": 135,
                "thumb_url": "https:\/\/avatars3.githubusercontent.com\/u\/61392409?v=4",
                "footer_icon": "https:\/\/github.githubassets.com\/favicon.ico",
                "ts": 1582490955,
                "color": "24292f",
                "fields": [
                    {
                        "title": "URL",
                        "value": "<http:\/\/CoEpi.org|CoEpi.org>",
                        "short": true
                    },
                    {
                        "title": "Repositories",
                        "value": "13",
                        "short": true
                    }
                ],
                "bot_id": "BUW789DM0",
                "app_unfurl_url": "https:\/\/github.com\/Co-Epi",
                "is_app_unfurl": true
            }
        ],
        "blocks": [
            {
                "type": "rich_text",
                "block_id": "BkTDp",
                "elements": [
                    {
                        "type": "rich_text_section",
                        "elements": [
                            {
                                "type": "link",
                                "url": "http:\/\/CoEpi.org",
                                "text": "CoEpi.org"
                            },
                            {
                                "type": "text",
                                "text": " could still use more mobile developers to help improve our app for symptom self-reporting and exposure alerting. If you’re literate in Kotlin or Swift, or could contribute in any other way, please LMK and I’ll get you added to our Slack. If you want to peruse our Github, the repos are at "
                            },
                            {
                                "type": "link",
                                "url": "https:\/\/github.com\/Co-Epi"
                            },
                            {
                                "type": "text",
                                "text": " and the project boards at "
                            },
                            {
                                "type": "link",
                                "url": "https:\/\/github.com\/orgs\/Co-Epi\/projects"
                            }
                        ]
                    }
                ]
            }
        ],
        "thread_ts": "1588386466.030300",
        "reply_count": 1,
        "reply_users_count": 1,
        "latest_reply": "1589284176.043800",
        "reply_users": [
            "U011B6VLM2A"
        ],
        "replies": [
            {
                "user": "U011B6VLM2A",
                "ts": "1589284176.043800"
            }
        ],
        "subscribed": false
    }
]