[
    {
        "client_msg_id": "c06f6a88-456f-4f23-949b-dcbd920927ae",
        "type": "message",
        "text": "Hi Julie there. I am a new member on jogl ! I need some coordinators and experts (clinicians, data scientists, researchers, virologists, epidemiologists) to look into my project for validation. It is about combination treatment on sars-coV2 infection. The project is already posted on jogl. Thank you for your help I need teammates ! Here is the link to the project : <https:\/\/app.jogl.io\/project\/231>",
        "user": "U013NQG86SC",
        "ts": "1588536495.032400",
        "team": "TUU48M0T1",
        "user_team": "TUU48M0T1",
        "source_team": "TUU48M0T1",
        "user_profile": {
            "avatar_hash": "gd07e00ae4f0",
            "image_72": "https:\/\/secure.gravatar.com\/avatar\/d07e00ae4f063cdc6f134e2da33a600f.jpg?s=72&d=https%3A%2F%2Fa.slack-edge.com%2Fdf10d%2Fimg%2Favatars%2Fava_0013-72.png",
            "first_name": "",
            "real_name": "JT95",
            "display_name": "JT95",
            "team": "TUU48M0T1",
            "name": "julietrinh95",
            "is_restricted": false,
            "is_ultra_restricted": false
        },
        "attachments": [
            {
                "service_name": "JOGL - Just One Giant Lab",
                "title": "Combination entry blokers (rh(s)-ACE2) + a7nachR inhibitor | JOGL",
                "title_link": "https:\/\/app.jogl.io\/project\/231",
                "text": "Review of litterature and RD research of a7nachR inhibitor or building new molecules of interest, maybe it is the solution to this crisis !",
                "fallback": "JOGL - Just One Giant Lab: Combination entry blokers (rh(s)-ACE2) + a7nachR inhibitor | JOGL",
                "thumb_url": "https:\/\/app.jogl.io\/images\/default\/default-project.jpg",
                "from_url": "https:\/\/app.jogl.io\/project\/231",
                "thumb_width": 1667,
                "thumb_height": 1000,
                "service_icon": "https:\/\/app.jogl.io\/images\/favicon.ico",
                "id": 1,
                "original_url": "https:\/\/app.jogl.io\/project\/231"
            }
        ],
        "blocks": [
            {
                "type": "rich_text",
                "block_id": "561D",
                "elements": [
                    {
                        "type": "rich_text_section",
                        "elements": [
                            {
                                "type": "text",
                                "text": "Hi Julie there. I am a new member on jogl ! I need some coordinators and experts (clinicians, data scientists, researchers, virologists, epidemiologists) to look into my project for validation. It is about combination treatment on sars-coV2 infection. The project is already posted on jogl. Thank you for your help I need teammates ! Here is the link to the project : "
                            },
                            {
                                "type": "link",
                                "url": "https:\/\/app.jogl.io\/project\/231"
                            }
                        ]
                    }
                ]
            }
        ],
        "thread_ts": "1588536495.032400",
        "reply_count": 5,
        "reply_users_count": 4,
        "latest_reply": "1589284507.046600",
        "reply_users": [
            "U012G0X589F",
            "UV9V03C8Y",
            "U013NQG86SC",
            "U011B6VLM2A"
        ],
        "replies": [
            {
                "user": "U012G0X589F",
                "ts": "1588584153.032700"
            },
            {
                "user": "UV9V03C8Y",
                "ts": "1588592083.033000"
            },
            {
                "user": "U013NQG86SC",
                "ts": "1588592317.033400"
            },
            {
                "user": "UV9V03C8Y",
                "ts": "1588593588.033800"
            },
            {
                "user": "U011B6VLM2A",
                "ts": "1589284507.046600"
            }
        ],
        "subscribed": false,
        "reactions": [
            {
                "name": "+1",
                "users": [
                    "U011D6K9RH6"
                ],
                "count": 1
            }
        ]
    }
]