[
    {
        "type": "message",
        "subtype": "channel_join",
        "ts": "1583800007.000200",
        "user": "UUQM4L2AF",
        "text": "<@UUQM4L2AF> has joined the channel"
    },
    {
        "type": "message",
        "subtype": "channel_purpose",
        "ts": "1583800007.000300",
        "user": "UUQM4L2AF",
        "text": "<@UUQM4L2AF> set the channel purpose: Updates on the use of OT2 for scaling up testing for Covid19",
        "purpose": "Updates on the use of OT2 for scaling up testing for Covid19"
    },
    {
        "type": "message",
        "subtype": "channel_join",
        "ts": "1583800016.000500",
        "user": "UV02WET96",
        "text": "<@UV02WET96> has joined the channel",
        "inviter": "UUQM4L2AF"
    },
    {
        "type": "message",
        "subtype": "channel_join",
        "ts": "1583800016.000700",
        "user": "UUUEFQW8N",
        "text": "<@UUUEFQW8N> has joined the channel",
        "inviter": "UUQM4L2AF"
    },
    {
        "client_msg_id": "724a02d3-704f-4231-89ed-65bd2f0ffcff",
        "type": "message",
        "text": "I've been talking with Kristin about where they are in development of the OT2 for Covid19 detection. To summarise, this is what they made public:\n<https:\/\/blog.opentrons.com\/testing-for-covid-19-with-opentrons\/?fbclid=IwAR2mS1V3XI3aCYis8PxhvTEdfOA3cstIRycJvvz5UjL37isXQYY4K6q2s-A>",
        "user": "UUQM4L2AF",
        "ts": "1583800068.001500",
        "team": "TUU48M0T1",
        "user_team": "TUU48M0T1",
        "source_team": "TUU48M0T1",
        "user_profile": {
            "avatar_hash": "8498d1c7b98b",
            "image_72": "https:\/\/avatars.slack-edge.com\/2020-03-08\/988293405557_8498d1c7b98b63b41054_72.jpg",
            "first_name": "",
            "real_name": "JJ Hastings",
            "display_name": "JJ Hastings",
            "team": "TUU48M0T1",
            "name": "astro.hacker.2001",
            "is_restricted": false,
            "is_ultra_restricted": false
        },
        "attachments": [
            {
                "service_name": "Blog | Opentrons Labworks",
                "title": "How Opentrons Can Help Labs Screen Millions For COVID-19",
                "title_link": "https:\/\/blog.opentrons.com\/testing-for-covid-19-with-opentrons\/?fbclid=IwAR2mS1V3XI3aCYis8PxhvTEdfOA3cstIRycJvvz5UjL37isXQYY4K6q2s-A",
                "text": "Opentrons COVID-19 Testing System can help labs running public health surveillance projects immediately scale up and screen 2,400 tests per day.",
                "fallback": "Blog | Opentrons Labworks: How Opentrons Can Help Labs Screen Millions For COVID-19",
                "image_url": "https:\/\/blog.opentrons.com\/content\/images\/2020\/03\/Screenshot-2020-03-08-15.09.12-copy.png",
                "image_width": 648,
                "image_height": 250,
                "fields": [
                    {
                        "title": "Written by",
                        "value": "Will Canine",
                        "short": true
                    },
                    {
                        "title": "Filed under",
                        "value": "automation, covid19, qpcr",
                        "short": true
                    }
                ],
                "ts": 1583767598,
                "from_url": "https:\/\/blog.opentrons.com\/testing-for-covid-19-with-opentrons\/?fbclid=IwAR2mS1V3XI3aCYis8PxhvTEdfOA3cstIRycJvvz5UjL37isXQYY4K6q2s-A",
                "image_bytes": 169939,
                "service_icon": "https:\/\/s3.amazonaws.com\/opentrons-images\/website\/OTfavicon.ico",
                "id": 1,
                "original_url": "https:\/\/blog.opentrons.com\/testing-for-covid-19-with-opentrons\/?fbclid=IwAR2mS1V3XI3aCYis8PxhvTEdfOA3cstIRycJvvz5UjL37isXQYY4K6q2s-A"
            }
        ],
        "blocks": [
            {
                "type": "rich_text",
                "block_id": "3dajb",
                "elements": [
                    {
                        "type": "rich_text_section",
                        "elements": [
                            {
                                "type": "text",
                                "text": "I've been talking with Kristin about where they are in development of the OT2 for Covid19 detection. To summarise, this is what they made public:\n"
                            },
                            {
                                "type": "link",
                                "url": "https:\/\/blog.opentrons.com\/testing-for-covid-19-with-opentrons\/?fbclid=IwAR2mS1V3XI3aCYis8PxhvTEdfOA3cstIRycJvvz5UjL37isXQYY4K6q2s-A"
                            }
                        ]
                    }
                ]
            }
        ],
        "reactions": [
            {
                "name": "100",
                "users": [
                    "UUUEFQW8N"
                ],
                "count": 1
            }
        ]
    },
    {
        "client_msg_id": "165698a8-ef75-4561-b9aa-bc4bae988a95",
        "type": "message",
        "text": "Good to know! We've got an OT-2 at SoundBio =D",
        "user": "UUUEFQW8N",
        "ts": "1583800105.002400",
        "team": "TUU48M0T1",
        "user_team": "TUU48M0T1",
        "source_team": "TUU48M0T1",
        "user_profile": {
            "avatar_hash": "5660f4d7fe91",
            "image_72": "https:\/\/avatars.slack-edge.com\/2020-03-06\/974037299378_5660f4d7fe9118b28c09_72.jpg",
            "first_name": "zachmueller",
            "real_name": "zachmueller",
            "display_name": "zachmueller",
            "team": "TUU48M0T1",
            "name": "zach",
            "is_restricted": false,
            "is_ultra_restricted": false
        },
        "blocks": [
            {
                "type": "rich_text",
                "block_id": "RtIZ",
                "elements": [
                    {
                        "type": "rich_text_section",
                        "elements": [
                            {
                                "type": "text",
                                "text": "Good to know! We've got an OT-2 at SoundBio =D"
                            }
                        ]
                    }
                ]
            }
        ]
    },
    {
        "client_msg_id": "24330224-2b50-42c0-9346-796ae13789ab",
        "type": "message",
        "text": "Yes! Kristin wrote to me saying that she wanted to connect Will of OpenTron to us. I haven’t heard from Will yet.",
        "user": "UV02WET96",
        "ts": "1583800123.003000",
        "team": "TUU48M0T1",
        "user_team": "TUU48M0T1",
        "source_team": "TUU48M0T1",
        "user_profile": {
            "avatar_hash": "a99c74a194f8",
            "image_72": "https:\/\/avatars.slack-edge.com\/2020-03-07\/975708504851_a99c74a194f86715ca7d_72.png",
            "first_name": "Thomas",
            "real_name": "Thomas Landrain",
            "display_name": "Thomas Landrain - JOGL CoFounder \/ CEO",
            "team": "TUU48M0T1",
            "name": "thomas",
            "is_restricted": false,
            "is_ultra_restricted": false
        },
        "blocks": [
            {
                "type": "rich_text",
                "block_id": "k9uS+",
                "elements": [
                    {
                        "type": "rich_text_section",
                        "elements": [
                            {
                                "type": "text",
                                "text": "Yes! Kristin wrote to me saying that she wanted to connect Will of OpenTron to us. I haven’t heard from Will yet."
                            }
                        ]
                    }
                ]
            }
        ]
    },
    {
        "type": "message",
        "subtype": "channel_join",
        "ts": "1583800153.003700",
        "user": "UV1G2M821",
        "text": "<@UV1G2M821> has joined the channel",
        "inviter": "UUUEFQW8N"
    },
    {
        "client_msg_id": "8eb6dad4-6b44-4e45-9c9b-26487ad1ea69",
        "type": "message",
        "text": "Excellent! There is a whole multi-machine work flow that is required ($100k) for the whole process.\n\nKristin says: Working on locking down SOP through live install at Open Medicine in Palo Alto this week, and we'll have a good process flow determined by EoW",
        "user": "UUQM4L2AF",
        "ts": "1583800160.003900",
        "team": "TUU48M0T1",
        "user_team": "TUU48M0T1",
        "source_team": "TUU48M0T1",
        "user_profile": {
            "avatar_hash": "8498d1c7b98b",
            "image_72": "https:\/\/avatars.slack-edge.com\/2020-03-08\/988293405557_8498d1c7b98b63b41054_72.jpg",
            "first_name": "",
            "real_name": "JJ Hastings",
            "display_name": "JJ Hastings",
            "team": "TUU48M0T1",
            "name": "astro.hacker.2001",
            "is_restricted": false,
            "is_ultra_restricted": false
        },
        "blocks": [
            {
                "type": "rich_text",
                "block_id": "h5c",
                "elements": [
                    {
                        "type": "rich_text_section",
                        "elements": [
                            {
                                "type": "text",
                                "text": "Excellent! There is a whole multi-machine work flow that is required ($100k) for the whole process.\n\nKristin says: Working on locking down SOP through live install at Open Medicine in Palo Alto this week, and we'll have a good process flow determined by EoW"
                            }
                        ]
                    }
                ]
            }
        ]
    },
    {
        "client_msg_id": "f13a3566-583c-4503-a245-ca8d80ca88ab",
        "type": "message",
        "text": "Since UW Health Center is now starting to operate drive thru testing for their health workers, I am keen to see if we can bring in the OT set up to help them scale.",
        "user": "UUQM4L2AF",
        "ts": "1583800215.004800",
        "team": "TUU48M0T1",
        "user_team": "TUU48M0T1",
        "source_team": "TUU48M0T1",
        "user_profile": {
            "avatar_hash": "8498d1c7b98b",
            "image_72": "https:\/\/avatars.slack-edge.com\/2020-03-08\/988293405557_8498d1c7b98b63b41054_72.jpg",
            "first_name": "",
            "real_name": "JJ Hastings",
            "display_name": "JJ Hastings",
            "team": "TUU48M0T1",
            "name": "astro.hacker.2001",
            "is_restricted": false,
            "is_ultra_restricted": false
        },
        "blocks": [
            {
                "type": "rich_text",
                "block_id": "d47L",
                "elements": [
                    {
                        "type": "rich_text_section",
                        "elements": [
                            {
                                "type": "text",
                                "text": "Since UW Health Center is now starting to operate drive thru testing for their health workers, I am keen to see if we can bring in the OT set up to help them scale."
                            }
                        ]
                    }
                ]
            }
        ]
    },
    {
        "client_msg_id": "5feca788-e0db-4743-82f5-1fb401ee71ff",
        "type": "message",
        "text": "BUT... UW Health Center is testing for influenza A and B, RSV, as well as COVID-19 for every person that comes to them in the drive thru. They use a nasopharyngeal swab to collect.",
        "user": "UUQM4L2AF",
        "ts": "1583800233.005000",
        "team": "TUU48M0T1",
        "user_team": "TUU48M0T1",
        "source_team": "TUU48M0T1",
        "user_profile": {
            "avatar_hash": "8498d1c7b98b",
            "image_72": "https:\/\/avatars.slack-edge.com\/2020-03-08\/988293405557_8498d1c7b98b63b41054_72.jpg",
            "first_name": "",
            "real_name": "JJ Hastings",
            "display_name": "JJ Hastings",
            "team": "TUU48M0T1",
            "name": "astro.hacker.2001",
            "is_restricted": false,
            "is_ultra_restricted": false
        },
        "blocks": [
            {
                "type": "rich_text",
                "block_id": "wnj5v",
                "elements": [
                    {
                        "type": "rich_text_section",
                        "elements": [
                            {
                                "type": "text",
                                "text": "BUT... UW Health Center is testing for influenza A and B, RSV, as well as COVID-19 for every person that comes to them in the drive thru. They use a nasopharyngeal swab to collect."
                            }
                        ]
                    }
                ]
            }
        ]
    }
]