[
    {
        "client_msg_id": "a32bf479-2809-4147-bca9-a725ac9b3ca7",
        "type": "message",
        "text": "Florian, it is in 10 minutes, not sure what time zone you are in but hopefully that helps!",
        "user": "U010W2Z4MMZ",
        "ts": "1587048663.344700",
        "team": "TUU48M0T1",
        "user_team": "TUU48M0T1",
        "source_team": "TUU48M0T1",
        "user_profile": {
            "avatar_hash": "f45399db1932",
            "image_72": "https:\/\/avatars.slack-edge.com\/2020-04-01\/1030367017170_f45399db193262631758_72.png",
            "first_name": "Isabella",
            "real_name": "Isabella Zorra",
            "display_name": "Izzi",
            "team": "TUU48M0T1",
            "name": "miss.zorra",
            "is_restricted": false,
            "is_ultra_restricted": false
        },
        "blocks": [
            {
                "type": "rich_text",
                "block_id": "Eol",
                "elements": [
                    {
                        "type": "rich_text_section",
                        "elements": [
                            {
                                "type": "text",
                                "text": "Florian, it is in 10 minutes, not sure what time zone you are in but hopefully that helps!"
                            }
                        ]
                    }
                ]
            }
        ],
        "thread_ts": "1587017586.344600",
        "parent_user_id": "U010X9FPMS8"
    }
]