[
    {
        "client_msg_id": "947e2ccf-00f1-4ab4-b599-7e45eb556c45",
        "type": "message",
        "text": "Lab\/company working on a Mango NASBA detection protocol; worth following as they may develop validated NASBA primers before OpenCOVID10 does <https:\/\/www.genengnews.com\/news\/covid-19-test-kits-being-developed-using-rna-imaging\/>",
        "user": "UUNGFHSV8",
        "ts": "1584718501.101100",
        "team": "TUU48M0T1",
        "user_team": "TUU48M0T1",
        "source_team": "TUU48M0T1",
        "user_profile": {
            "avatar_hash": "1c55ee32397a",
            "image_72": "https:\/\/avatars.slack-edge.com\/2020-03-07\/987349161984_1c55ee32397a85a87ec4_72.png",
            "first_name": "Isaac",
            "real_name": "Isaac Larkin",
            "display_name": "Isaac Larkin",
            "team": "TUU48M0T1",
            "name": "eyesmo",
            "is_restricted": false,
            "is_ultra_restricted": false
        },
        "attachments": [
            {
                "service_name": "GEN - Genetic Engineering and Biotechnology News",
                "title": "COVID-19 Test Kits Being Developed Using RNA Imaging",
                "title_link": "https:\/\/www.genengnews.com\/news\/covid-19-test-kits-being-developed-using-rna-imaging\/",
                "text": "Coronavirus testing kits to be developed using SFU-invented RNA imaging technology",
                "fallback": "GEN - Genetic Engineering and Biotechnology News: COVID-19 Test Kits Being Developed Using RNA Imaging",
                "image_url": "https:\/\/www.genengnews.com\/wp-content\/uploads\/2020\/03\/glowing-2245832_1920.jpg",
                "image_width": 376,
                "image_height": 250,
                "ts": 1584705617,
                "from_url": "https:\/\/www.genengnews.com\/news\/covid-19-test-kits-being-developed-using-rna-imaging\/",
                "image_bytes": 308468,
                "service_icon": "https:\/\/www.genengnews.com\/wp-content\/uploads\/2018\/10\/gen-76x76.png",
                "id": 1,
                "original_url": "https:\/\/www.genengnews.com\/news\/covid-19-test-kits-being-developed-using-rna-imaging\/"
            }
        ],
        "blocks": [
            {
                "type": "rich_text",
                "block_id": "DsNJ",
                "elements": [
                    {
                        "type": "rich_text_section",
                        "elements": [
                            {
                                "type": "text",
                                "text": "Lab\/company working on a Mango NASBA detection protocol; worth following as they may develop validated NASBA primers before OpenCOVID10 does "
                            },
                            {
                                "type": "link",
                                "url": "https:\/\/www.genengnews.com\/news\/covid-19-test-kits-being-developed-using-rna-imaging\/"
                            }
                        ]
                    }
                ]
            }
        ],
        "reactions": [
            {
                "name": "+1",
                "users": [
                    "UV3URUKK5",
                    "UV18Y0Q1Y",
                    "U0103128G4D"
                ],
                "count": 3
            }
        ]
    },
    {
        "type": "message",
        "text": "Important bio safety reminder for whatever positive controls we use ",
        "files": [
            {
                "id": "F010H90P44X",
                "created": 1584727373,
                "timestamp": 1584727373,
                "name": "Image from iOS.jpg",
                "title": "Image from iOS",
                "mimetype": "image\/jpeg",
                "filetype": "jpg",
                "pretty_type": "JPEG",
                "user": "UUNGFHSV8",
                "editable": false,
                "size": 101717,
                "mode": "hosted",
                "is_external": false,
                "external_type": "",
                "is_public": true,
                "public_url_shared": false,
                "display_as_bot": false,
                "username": "",
                "url_private": "https:\/\/files.slack.com\/files-pri\/TUU48M0T1-F010H90P44X\/image_from_ios.jpg?t=xoxe-980144714919-1106606678066-1105227127893-6f722bb664235052954ad46852628b64",
                "url_private_download": "https:\/\/files.slack.com\/files-pri\/TUU48M0T1-F010H90P44X\/download\/image_from_ios.jpg?t=xoxe-980144714919-1106606678066-1105227127893-6f722bb664235052954ad46852628b64",
                "thumb_64": "https:\/\/files.slack.com\/files-tmb\/TUU48M0T1-F010H90P44X-6bd0196e32\/image_from_ios_64.jpg?t=xoxe-980144714919-1106606678066-1105227127893-6f722bb664235052954ad46852628b64",
                "thumb_80": "https:\/\/files.slack.com\/files-tmb\/TUU48M0T1-F010H90P44X-6bd0196e32\/image_from_ios_80.jpg?t=xoxe-980144714919-1106606678066-1105227127893-6f722bb664235052954ad46852628b64",
                "thumb_360": "https:\/\/files.slack.com\/files-tmb\/TUU48M0T1-F010H90P44X-6bd0196e32\/image_from_ios_360.jpg?t=xoxe-980144714919-1106606678066-1105227127893-6f722bb664235052954ad46852628b64",
                "thumb_360_w": 360,
                "thumb_360_h": 257,
                "thumb_480": "https:\/\/files.slack.com\/files-tmb\/TUU48M0T1-F010H90P44X-6bd0196e32\/image_from_ios_480.jpg?t=xoxe-980144714919-1106606678066-1105227127893-6f722bb664235052954ad46852628b64",
                "thumb_480_w": 480,
                "thumb_480_h": 343,
                "thumb_160": "https:\/\/files.slack.com\/files-tmb\/TUU48M0T1-F010H90P44X-6bd0196e32\/image_from_ios_160.jpg?t=xoxe-980144714919-1106606678066-1105227127893-6f722bb664235052954ad46852628b64",
                "thumb_720": "https:\/\/files.slack.com\/files-tmb\/TUU48M0T1-F010H90P44X-6bd0196e32\/image_from_ios_720.jpg?t=xoxe-980144714919-1106606678066-1105227127893-6f722bb664235052954ad46852628b64",
                "thumb_720_w": 720,
                "thumb_720_h": 515,
                "thumb_800": "https:\/\/files.slack.com\/files-tmb\/TUU48M0T1-F010H90P44X-6bd0196e32\/image_from_ios_800.jpg?t=xoxe-980144714919-1106606678066-1105227127893-6f722bb664235052954ad46852628b64",
                "thumb_800_w": 800,
                "thumb_800_h": 572,
                "thumb_960": "https:\/\/files.slack.com\/files-tmb\/TUU48M0T1-F010H90P44X-6bd0196e32\/image_from_ios_960.jpg?t=xoxe-980144714919-1106606678066-1105227127893-6f722bb664235052954ad46852628b64",
                "thumb_960_w": 960,
                "thumb_960_h": 686,
                "thumb_1024": "https:\/\/files.slack.com\/files-tmb\/TUU48M0T1-F010H90P44X-6bd0196e32\/image_from_ios_1024.jpg?t=xoxe-980144714919-1106606678066-1105227127893-6f722bb664235052954ad46852628b64",
                "thumb_1024_w": 1024,
                "thumb_1024_h": 732,
                "image_exif_rotation": 1,
                "original_w": 1125,
                "original_h": 804,
                "thumb_tiny": "AwAiADCr5x8ry8D64ozzk4\/IVFUmff8AUUAHXrj8AKTaMdf5UuRR+X5igBNg9T+lNKkfSnj\/ADyKawGM9\/rQA2peff8AWoqecY43ZpgLu56\/qaNw\/vfqaa23Py5\/Gm0gHkjHDY\/E00k+uaSigAoyfU0UUAFFFFABRRRQB\/\/Z",
                "permalink": "https:\/\/open-covid19.slack.com\/files\/UUNGFHSV8\/F010H90P44X\/image_from_ios.jpg",
                "permalink_public": "https:\/\/slack-files.com\/TUU48M0T1-F010H90P44X-4510179e41",
                "is_starred": false,
                "has_rich_preview": false
            }
        ],
        "upload": true,
        "blocks": [
            {
                "type": "rich_text",
                "block_id": "Jjr28",
                "elements": [
                    {
                        "type": "rich_text_section",
                        "elements": [
                            {
                                "type": "text",
                                "text": "Important bio safety reminder for whatever positive controls we use "
                            }
                        ]
                    }
                ]
            }
        ],
        "user": "UUNGFHSV8",
        "display_as_bot": false,
        "ts": "1584727378.102600",
        "client_msg_id": "985FB8D1-0191-4134-B612-236788EC4CCC",
        "thread_ts": "1584727378.102600",
        "reply_count": 2,
        "reply_users_count": 2,
        "latest_reply": "1584992366.015700",
        "reply_users": [
            "UV0QTJCMT",
            "U0103SR759U"
        ],
        "replies": [
            {
                "user": "UV0QTJCMT",
                "ts": "1584727434.103200"
            },
            {
                "user": "U0103SR759U",
                "ts": "1584992366.015700"
            }
        ],
        "subscribed": false,
        "reactions": [
            {
                "name": "exclamation",
                "users": [
                    "UV0QTJCMT",
                    "U0103128G4D",
                    "UVBQDE7R8",
                    "UV5CCJ9RC",
                    "UVALZTQ58"
                ],
                "count": 5
            },
            {
                "name": "+1",
                "users": [
                    "UV10KBUQG",
                    "UV39M083H"
                ],
                "count": 2
            }
        ]
    },
    {
        "client_msg_id": "884b7086-5109-43e3-aabb-47f1a12637a0",
        "type": "message",
        "text": "<@UUNGFHSV8> thanks for bringing this reminder over :slightly_smiling_face:",
        "user": "UV0QTJCMT",
        "ts": "1584727434.103200",
        "team": "TUU48M0T1",
        "user_team": "TUU48M0T1",
        "source_team": "TUU48M0T1",
        "user_profile": {
            "avatar_hash": "06a6ae8f69d1",
            "image_72": "https:\/\/avatars.slack-edge.com\/2020-04-13\/1060635499315_06a6ae8f69d18f1ad464_72.png",
            "first_name": "Katherine",
            "real_name": "Katherine Holo",
            "display_name": "Kat Holo - Co-Organizer of OpenCOVID19",
            "team": "TUU48M0T1",
            "name": "katherineh245",
            "is_restricted": false,
            "is_ultra_restricted": false
        },
        "blocks": [
            {
                "type": "rich_text",
                "block_id": "5EV",
                "elements": [
                    {
                        "type": "rich_text_section",
                        "elements": [
                            {
                                "type": "user",
                                "user_id": "UUNGFHSV8"
                            },
                            {
                                "type": "text",
                                "text": " thanks for bringing this reminder over "
                            },
                            {
                                "type": "emoji",
                                "name": "slightly_smiling_face"
                            }
                        ]
                    }
                ]
            }
        ],
        "thread_ts": "1584727378.102600",
        "parent_user_id": "UUNGFHSV8",
        "reactions": [
            {
                "name": "+1",
                "users": [
                    "UUNGFHSV8"
                ],
                "count": 1
            }
        ]
    },
    {
        "client_msg_id": "d250af13-f8d1-4a4d-981d-5473ea63c208",
        "type": "message",
        "text": "So a more detailed set of steps to flesh out and test:\n1. add sample and lysis buffer to tube - lyse cells and release nucleic acids\n2. add DNAse to tube (not sure how long to incubate for) - to remove DNA and leave only RNA \n3. add 2 small pieces of filter paper to tube and leave for a few seconds - RNA should adsorb to filter paper\n4. transfer filter papers to wash buffer for one minute\n5. transfer one filter paper to RT-PCR reaction containing SARS-COV2 detection primers\n6. transfer second filter paper to RT-PCR reaction containing human RNA detection primers - acts as a positive control for RNA extraction and purification\n7. set up third amplification reaction with SARS control plasmid and SARS-COV2 detection primers - acts as positive control for amplification\n• lysis buffer: 800 mM guanidine hydrochloride, 50 mM Tris [pH 8], 0.5% Triton X100, 1% Tween-20\n• wash buffer: 10 mM Tris [pH 8.0], 0.1% Tween-20\n• ^ buffer mixtures taken from <https:\/\/doi.org\/10.1371\/journal.pbio.2003916>\n<@UV7AZH728> <@UVBQDE7R8>",
        "user": "U010D9EGSTH",
        "ts": "1584729558.113600",
        "team": "TUU48M0T1",
        "user_team": "TUU48M0T1",
        "source_team": "TUU48M0T1",
        "user_profile": {
            "avatar_hash": "gc4df71cbae9",
            "image_72": "https:\/\/secure.gravatar.com\/avatar\/c4df71cbae90ff8819eff196c6ed3edf.jpg?s=72&d=https%3A%2F%2Fa.slack-edge.com%2Fdf10d%2Fimg%2Favatars%2Fava_0020-72.png",
            "first_name": "",
            "real_name": "Ilya Levantis",
            "display_name": "Ilya Levantis",
            "team": "TUU48M0T1",
            "name": "il79663",
            "is_restricted": false,
            "is_ultra_restricted": false
        },
        "edited": {
            "user": "U010D9EGSTH",
            "ts": "1584730515.000000"
        },
        "blocks": [
            {
                "type": "rich_text",
                "block_id": "GHzY\/",
                "elements": [
                    {
                        "type": "rich_text_section",
                        "elements": [
                            {
                                "type": "text",
                                "text": "So a more detailed set of steps to flesh out and test:\n"
                            }
                        ]
                    },
                    {
                        "type": "rich_text_list",
                        "elements": [
                            {
                                "type": "rich_text_section",
                                "elements": [
                                    {
                                        "type": "text",
                                        "text": "add sample and lysis buffer to tube - lyse cells and release nucleic acids"
                                    }
                                ]
                            },
                            {
                                "type": "rich_text_section",
                                "elements": [
                                    {
                                        "type": "text",
                                        "text": "add DNAse to tube (not sure how long to incubate for) - to remove DNA and leave only RNA "
                                    }
                                ]
                            },
                            {
                                "type": "rich_text_section",
                                "elements": [
                                    {
                                        "type": "text",
                                        "text": "add 2 small pieces of filter paper to tube and leave for a few seconds - RNA should adsorb to filter paper"
                                    }
                                ]
                            },
                            {
                                "type": "rich_text_section",
                                "elements": [
                                    {
                                        "type": "text",
                                        "text": "transfer filter papers to wash buffer for one minute"
                                    }
                                ]
                            },
                            {
                                "type": "rich_text_section",
                                "elements": [
                                    {
                                        "type": "text",
                                        "text": "transfer one filter paper to RT-PCR reaction containing SARS-COV2 detection primers"
                                    }
                                ]
                            },
                            {
                                "type": "rich_text_section",
                                "elements": [
                                    {
                                        "type": "text",
                                        "text": "transfer second filter paper to RT-PCR reaction containing human RNA detection primers - acts as a positive control for RNA extraction and purification"
                                    }
                                ]
                            },
                            {
                                "type": "rich_text_section",
                                "elements": [
                                    {
                                        "type": "text",
                                        "text": "set up third amplification reaction with SARS control plasmid and SARS-COV2 detection primers - acts as positive control for amplification"
                                    }
                                ]
                            }
                        ],
                        "style": "ordered",
                        "indent": 0
                    },
                    {
                        "type": "rich_text_list",
                        "elements": [
                            {
                                "type": "rich_text_section",
                                "elements": [
                                    {
                                        "type": "text",
                                        "text": "lysis buffer: 800 mM guanidine hydrochloride, 50 mM Tris [pH 8], 0.5% Triton X100, 1% Tween-20"
                                    }
                                ]
                            },
                            {
                                "type": "rich_text_section",
                                "elements": [
                                    {
                                        "type": "text",
                                        "text": "wash buffer: 10 mM Tris [pH 8.0], 0.1% Tween-20"
                                    }
                                ]
                            },
                            {
                                "type": "rich_text_section",
                                "elements": [
                                    {
                                        "type": "text",
                                        "text": "^ buffer mixtures taken from "
                                    },
                                    {
                                        "type": "link",
                                        "url": "https:\/\/doi.org\/10.1371\/journal.pbio.2003916"
                                    }
                                ]
                            }
                        ],
                        "style": "bullet",
                        "indent": 0
                    },
                    {
                        "type": "rich_text_section",
                        "elements": [
                            {
                                "type": "user",
                                "user_id": "UV7AZH728"
                            },
                            {
                                "type": "text",
                                "text": " "
                            },
                            {
                                "type": "user",
                                "user_id": "UVBQDE7R8"
                            }
                        ]
                    }
                ]
            }
        ],
        "thread_ts": "1584729558.113600",
        "reply_count": 6,
        "reply_users_count": 3,
        "latest_reply": "1584731157.116300",
        "reply_users": [
            "UV7LUJG1Y",
            "U010D9EGSTH",
            "UVBQDE7R8"
        ],
        "replies": [
            {
                "user": "UV7LUJG1Y",
                "ts": "1584730428.114100"
            },
            {
                "user": "U010D9EGSTH",
                "ts": "1584730773.114500"
            },
            {
                "user": "UVBQDE7R8",
                "ts": "1584730860.115500"
            },
            {
                "user": "U010D9EGSTH",
                "ts": "1584730875.115700"
            },
            {
                "user": "U010D9EGSTH",
                "ts": "1584730951.115900"
            },
            {
                "user": "U010D9EGSTH",
                "ts": "1584731157.116300"
            }
        ],
        "subscribed": false,
        "reactions": [
            {
                "name": "+1",
                "users": [
                    "UVALZTQ58",
                    "UVBQDE7R8"
                ],
                "count": 2
            }
        ]
    },
    {
        "client_msg_id": "64d9ea80-aa87-4735-bc6e-548b2747075a",
        "type": "message",
        "text": "Because of the same type(swab) which is FULL or RNAses,  I would add a step of incubation with proteinase k maybe 10 minutes 65C then 2 at 95C to inactivate..",
        "user": "UV7LUJG1Y",
        "ts": "1584730428.114100",
        "team": "TUU48M0T1",
        "user_team": "TUU48M0T1",
        "source_team": "TUU48M0T1",
        "user_profile": {
            "avatar_hash": "048307b17644",
            "image_72": "https:\/\/avatars.slack-edge.com\/2020-04-04\/1043242365313_048307b17644844abd87_72.jpg",
            "first_name": "",
            "real_name": "Guy Aidelberg",
            "display_name": "Guy Aidelberg",
            "team": "TUU48M0T1",
            "name": "guyaidelberg",
            "is_restricted": false,
            "is_ultra_restricted": false
        },
        "blocks": [
            {
                "type": "rich_text",
                "block_id": "gu0Id",
                "elements": [
                    {
                        "type": "rich_text_section",
                        "elements": [
                            {
                                "type": "text",
                                "text": "Because of the same type(swab) which is FULL or RNAses,  I would add a step of incubation with proteinase k maybe 10 minutes 65C then 2 at 95C to inactivate.."
                            }
                        ]
                    }
                ]
            }
        ],
        "thread_ts": "1584729558.113600",
        "parent_user_id": "U010D9EGSTH",
        "reactions": [
            {
                "name": "+1",
                "users": [
                    "U010D9EGSTH"
                ],
                "count": 1
            }
        ]
    },
    {
        "client_msg_id": "a2a5b5bd-f70d-4b35-a54c-9329203f24d3",
        "type": "message",
        "text": "Although might be able to get away without doing it given that the RNA is adsorbed quite quickly and most proteins are then washed away quickly in the wash step",
        "user": "U010D9EGSTH",
        "ts": "1584730773.114500",
        "team": "TUU48M0T1",
        "user_team": "TUU48M0T1",
        "source_team": "TUU48M0T1",
        "user_profile": {
            "avatar_hash": "gc4df71cbae9",
            "image_72": "https:\/\/secure.gravatar.com\/avatar\/c4df71cbae90ff8819eff196c6ed3edf.jpg?s=72&d=https%3A%2F%2Fa.slack-edge.com%2Fdf10d%2Fimg%2Favatars%2Fava_0020-72.png",
            "first_name": "",
            "real_name": "Ilya Levantis",
            "display_name": "Ilya Levantis",
            "team": "TUU48M0T1",
            "name": "il79663",
            "is_restricted": false,
            "is_ultra_restricted": false
        },
        "blocks": [
            {
                "type": "rich_text",
                "block_id": "9Eb",
                "elements": [
                    {
                        "type": "rich_text_section",
                        "elements": [
                            {
                                "type": "text",
                                "text": "Although might be able to get away without doing it given that the RNA is adsorbed quite quickly and most proteins are then washed away quickly in the wash step"
                            }
                        ]
                    }
                ]
            }
        ],
        "thread_ts": "1584729558.113600",
        "parent_user_id": "U010D9EGSTH"
    },
    {
        "client_msg_id": "8a12b645-c80c-44e4-b40c-9474e19b665f",
        "type": "message",
        "text": "<https:\/\/www.internationalreagentresource.org\/> might be able to provide controls and other testing reagents for you lab people testing things out",
        "user": "U010D9EGSTH",
        "ts": "1584730843.115300",
        "team": "TUU48M0T1",
        "user_team": "TUU48M0T1",
        "source_team": "TUU48M0T1",
        "user_profile": {
            "avatar_hash": "gc4df71cbae9",
            "image_72": "https:\/\/secure.gravatar.com\/avatar\/c4df71cbae90ff8819eff196c6ed3edf.jpg?s=72&d=https%3A%2F%2Fa.slack-edge.com%2Fdf10d%2Fimg%2Favatars%2Fava_0020-72.png",
            "first_name": "",
            "real_name": "Ilya Levantis",
            "display_name": "Ilya Levantis",
            "team": "TUU48M0T1",
            "name": "il79663",
            "is_restricted": false,
            "is_ultra_restricted": false
        },
        "attachments": [
            {
                "title": "  International Reagent Resource &gt; Home ",
                "title_link": "https:\/\/www.internationalreagentresource.org\/",
                "text": "International Reagent Resources (IRR) was established by the Centers of Disease Control (CDC). The CDC-IRR is a biological reagent repository established to provide better access to influenza virus strains and research reagents. The CDC-IRR resources are available to public health facilities, research institutions, and life science companies.",
                "fallback": "  International Reagent Resource &gt; Home ",
                "from_url": "https:\/\/www.internationalreagentresource.org\/",
                "service_name": "internationalreagentresource.org",
                "id": 1,
                "original_url": "https:\/\/www.internationalreagentresource.org\/"
            }
        ],
        "blocks": [
            {
                "type": "rich_text",
                "block_id": "8pLj",
                "elements": [
                    {
                        "type": "rich_text_section",
                        "elements": [
                            {
                                "type": "link",
                                "url": "https:\/\/www.internationalreagentresource.org\/"
                            },
                            {
                                "type": "text",
                                "text": " might be able to provide controls and other testing reagents for you lab people testing things out"
                            }
                        ]
                    }
                ]
            }
        ],
        "reactions": [
            {
                "name": "+1",
                "users": [
                    "UV10KBUQG"
                ],
                "count": 1
            }
        ]
    },
    {
        "client_msg_id": "96df0964-d641-4d27-814e-12672eb99153",
        "type": "message",
        "text": "ProteinaseK wouldn't hurt then, or a denaturant. Can be tested...",
        "user": "UVBQDE7R8",
        "ts": "1584730860.115500",
        "team": "TUU48M0T1",
        "user_team": "TUU48M0T1",
        "source_team": "TUU48M0T1",
        "user_profile": {
            "avatar_hash": "gb77d2e5c821",
            "image_72": "https:\/\/secure.gravatar.com\/avatar\/b77d2e5c8214c9643410000e998ef9f4.jpg?s=72&d=https%3A%2F%2Fa.slack-edge.com%2Fdf10d%2Fimg%2Favatars%2Fava_0018-72.png",
            "first_name": "",
            "real_name": "Darach",
            "display_name": "Darach",
            "team": "TUU48M0T1",
            "name": "dchmiller",
            "is_restricted": false,
            "is_ultra_restricted": false
        },
        "blocks": [
            {
                "type": "rich_text",
                "block_id": "y0i",
                "elements": [
                    {
                        "type": "rich_text_section",
                        "elements": [
                            {
                                "type": "text",
                                "text": "ProteinaseK wouldn't hurt then, or a denaturant. Can be tested..."
                            }
                        ]
                    }
                ]
            }
        ],
        "thread_ts": "1584729558.113600",
        "parent_user_id": "U010D9EGSTH"
    },
    {
        "client_msg_id": "e2e7f05f-0d78-4c9d-8025-0e93e02e7a64",
        "type": "message",
        "text": "yep just test with and without for a bunch of this stuff",
        "user": "U010D9EGSTH",
        "ts": "1584730875.115700",
        "team": "TUU48M0T1",
        "user_team": "TUU48M0T1",
        "source_team": "TUU48M0T1",
        "user_profile": {
            "avatar_hash": "gc4df71cbae9",
            "image_72": "https:\/\/secure.gravatar.com\/avatar\/c4df71cbae90ff8819eff196c6ed3edf.jpg?s=72&d=https%3A%2F%2Fa.slack-edge.com%2Fdf10d%2Fimg%2Favatars%2Fava_0020-72.png",
            "first_name": "",
            "real_name": "Ilya Levantis",
            "display_name": "Ilya Levantis",
            "team": "TUU48M0T1",
            "name": "il79663",
            "is_restricted": false,
            "is_ultra_restricted": false
        },
        "blocks": [
            {
                "type": "rich_text",
                "block_id": "C89x",
                "elements": [
                    {
                        "type": "rich_text_section",
                        "elements": [
                            {
                                "type": "text",
                                "text": "yep just test with and without for a bunch of this stuff"
                            }
                        ]
                    }
                ]
            }
        ],
        "thread_ts": "1584729558.113600",
        "parent_user_id": "U010D9EGSTH"
    },
    {
        "client_msg_id": "890f1297-810c-4556-b8d0-77bf9407b08c",
        "type": "message",
        "text": "also deactivation of DNAse can be part of the first PCR heating cycle",
        "user": "U010D9EGSTH",
        "ts": "1584730951.115900",
        "team": "TUU48M0T1",
        "user_team": "TUU48M0T1",
        "source_team": "TUU48M0T1",
        "user_profile": {
            "avatar_hash": "gc4df71cbae9",
            "image_72": "https:\/\/secure.gravatar.com\/avatar\/c4df71cbae90ff8819eff196c6ed3edf.jpg?s=72&d=https%3A%2F%2Fa.slack-edge.com%2Fdf10d%2Fimg%2Favatars%2Fava_0020-72.png",
            "first_name": "",
            "real_name": "Ilya Levantis",
            "display_name": "Ilya Levantis",
            "team": "TUU48M0T1",
            "name": "il79663",
            "is_restricted": false,
            "is_ultra_restricted": false
        },
        "blocks": [
            {
                "type": "rich_text",
                "block_id": "ffOt",
                "elements": [
                    {
                        "type": "rich_text_section",
                        "elements": [
                            {
                                "type": "text",
                                "text": "also deactivation of DNAse can be part of the first PCR heating cycle"
                            }
                        ]
                    }
                ]
            }
        ],
        "thread_ts": "1584729558.113600",
        "parent_user_id": "U010D9EGSTH",
        "reactions": [
            {
                "name": "+1",
                "users": [
                    "UVBQDE7R8"
                ],
                "count": 1
            }
        ]
    },
    {
        "client_msg_id": "a0d2219a-8e74-4cd1-bd86-19e842a3d78b",
        "type": "message",
        "text": "also regarding the initial processing of the samples the CDC has good info in the PDFs here: <https:\/\/www.cdc.gov\/coronavirus\/2019-ncov\/lab\/index.html>",
        "user": "U010D9EGSTH",
        "ts": "1584731157.116300",
        "team": "TUU48M0T1",
        "user_team": "TUU48M0T1",
        "source_team": "TUU48M0T1",
        "user_profile": {
            "avatar_hash": "gc4df71cbae9",
            "image_72": "https:\/\/secure.gravatar.com\/avatar\/c4df71cbae90ff8819eff196c6ed3edf.jpg?s=72&d=https%3A%2F%2Fa.slack-edge.com%2Fdf10d%2Fimg%2Favatars%2Fava_0020-72.png",
            "first_name": "",
            "real_name": "Ilya Levantis",
            "display_name": "Ilya Levantis",
            "team": "TUU48M0T1",
            "name": "il79663",
            "is_restricted": false,
            "is_ultra_restricted": false
        },
        "edited": {
            "user": "U010D9EGSTH",
            "ts": "1584731162.000000"
        },
        "blocks": [
            {
                "type": "rich_text",
                "block_id": "Pqs",
                "elements": [
                    {
                        "type": "rich_text_section",
                        "elements": [
                            {
                                "type": "text",
                                "text": "also regarding the initial processing of the samples the CDC has good info in the PDFs here: "
                            },
                            {
                                "type": "link",
                                "url": "https:\/\/www.cdc.gov\/coronavirus\/2019-ncov\/lab\/index.html"
                            }
                        ]
                    }
                ]
            }
        ],
        "thread_ts": "1584729558.113600",
        "parent_user_id": "U010D9EGSTH"
    },
    {
        "client_msg_id": "6448832d-e888-4b7c-890d-e4d167ed9761",
        "type": "message",
        "text": "RNA extraction protocol <https:\/\/www.biorxiv.org\/content\/10.1101\/2020.02.22.961268v1>",
        "user": "UUNGFHSV8",
        "ts": "1584739917.117200",
        "team": "TUU48M0T1",
        "user_team": "TUU48M0T1",
        "source_team": "TUU48M0T1",
        "user_profile": {
            "avatar_hash": "1c55ee32397a",
            "image_72": "https:\/\/avatars.slack-edge.com\/2020-03-07\/987349161984_1c55ee32397a85a87ec4_72.png",
            "first_name": "Isaac",
            "real_name": "Isaac Larkin",
            "display_name": "Isaac Larkin",
            "team": "TUU48M0T1",
            "name": "eyesmo",
            "is_restricted": false,
            "is_ultra_restricted": false
        },
        "attachments": [
            {
                "service_name": "bioRxiv",
                "title": "A simple magnetic nanoparticles-based viral RNA extraction method for efficient detection of SARS-CoV-2",
                "title_link": "https:\/\/www.biorxiv.org\/content\/10.1101\/2020.02.22.961268v1",
                "text": "The ongoing outbreak of the novel coronavirus disease 2019 (COVID-19) originating from Wuhan, China, draws worldwide concerns due to its long incubation period and strong infectivity. Although RT-PCR-based molecular diagnosis techniques are being widely applied for clinical diagnosis currently, timely and accurate diagnosis are still limited due to labour intensive and time-consuming operations of these techniques. To address the issue, herein we report the synthesis of poly (amino ester) with carboxyl groups (PC)-coated magnetic nanoparticles (pcMNPs), and the development of pcMNPs-based viral RNA extraction method for the sensitive detection of COVID-19 causing virus, the SARS-CoV-2. This method combines the lysis and binding steps into one step, and the pcMNPs-RNA complexes can be directly introduced into subsequent RT-PCR reactions. The simplified process can purify viral RNA from multiple samples within 20 min using a simple manual method or an automated high-throughput approach. By identifying two different regions ( ORFlab and N gene) of viral RNA, a 10-copy sensitivity and a strong linear correlation between 10 and 105 copies of SARS-CoV-2 pseudovirus particles are achieved. Benefitting from the simplicity and excellent performances, this new extraction method can dramatically reduce the turn-around time and operational requirements in current molecular diagnosis of COVID-19, in particular for the early clinical diagnosis.",
                "fallback": "bioRxiv: A simple magnetic nanoparticles-based viral RNA extraction method for efficient detection of SARS-CoV-2",
                "thumb_url": "https:\/\/www.biorxiv.org\/sites\/default\/files\/images\/biorxiv_logo_homepage7-5-small.png",
                "ts": 1582790400,
                "from_url": "https:\/\/www.biorxiv.org\/content\/10.1101\/2020.02.22.961268v1",
                "thumb_width": 252,
                "thumb_height": 252,
                "service_icon": "https:\/\/www.biorxiv.org\/sites\/default\/files\/images\/favicon.ico",
                "id": 1,
                "original_url": "https:\/\/www.biorxiv.org\/content\/10.1101\/2020.02.22.961268v1"
            }
        ],
        "blocks": [
            {
                "type": "rich_text",
                "block_id": "rNF",
                "elements": [
                    {
                        "type": "rich_text_section",
                        "elements": [
                            {
                                "type": "text",
                                "text": "RNA extraction protocol "
                            },
                            {
                                "type": "link",
                                "url": "https:\/\/www.biorxiv.org\/content\/10.1101\/2020.02.22.961268v1"
                            }
                        ]
                    }
                ]
            }
        ]
    },
    {
        "client_msg_id": "76083947-e22c-4067-8095-e4cc73486869",
        "type": "message",
        "text": "This is very cool: open protocol for a massively parallel COVID-19 test using NGS <https:\/\/docs.google.com\/document\/d\/1kP2w_uTMSep2UxTCOnUhh1TMCjWvHEY0sUUpkJHPYV4\/edit>",
        "user": "UUNGFHSV8",
        "ts": "1584741692.117500",
        "team": "TUU48M0T1",
        "user_team": "TUU48M0T1",
        "source_team": "TUU48M0T1",
        "user_profile": {
            "avatar_hash": "1c55ee32397a",
            "image_72": "https:\/\/avatars.slack-edge.com\/2020-03-07\/987349161984_1c55ee32397a85a87ec4_72.png",
            "first_name": "Isaac",
            "real_name": "Isaac Larkin",
            "display_name": "Isaac Larkin",
            "team": "TUU48M0T1",
            "name": "eyesmo",
            "is_restricted": false,
            "is_ultra_restricted": false
        },
        "edited": {
            "user": "UUNGFHSV8",
            "ts": "1584741720.000000"
        },
        "blocks": [
            {
                "type": "rich_text",
                "block_id": "fUZu",
                "elements": [
                    {
                        "type": "rich_text_section",
                        "elements": [
                            {
                                "type": "text",
                                "text": "This is very cool: open protocol for a massively parallel COVID-19 test using NGS "
                            },
                            {
                                "type": "link",
                                "url": "https:\/\/docs.google.com\/document\/d\/1kP2w_uTMSep2UxTCOnUhh1TMCjWvHEY0sUUpkJHPYV4\/edit"
                            }
                        ]
                    }
                ]
            }
        ],
        "reactions": [
            {
                "name": "+1",
                "users": [
                    "UV13874FN",
                    "UV10KBUQG",
                    "UV3URUKK5"
                ],
                "count": 3
            }
        ]
    },
    {
        "client_msg_id": "3879f756-173b-40a7-bf92-7dfa939d634d",
        "type": "message",
        "text": "^The protocol above is limited primarily by the throughput of RNA extraction.",
        "user": "UUNGFHSV8",
        "ts": "1584741814.118400",
        "team": "TUU48M0T1",
        "user_team": "TUU48M0T1",
        "source_team": "TUU48M0T1",
        "user_profile": {
            "avatar_hash": "1c55ee32397a",
            "image_72": "https:\/\/avatars.slack-edge.com\/2020-03-07\/987349161984_1c55ee32397a85a87ec4_72.png",
            "first_name": "Isaac",
            "real_name": "Isaac Larkin",
            "display_name": "Isaac Larkin",
            "team": "TUU48M0T1",
            "name": "eyesmo",
            "is_restricted": false,
            "is_ultra_restricted": false
        },
        "blocks": [
            {
                "type": "rich_text",
                "block_id": "n4Uu",
                "elements": [
                    {
                        "type": "rich_text_section",
                        "elements": [
                            {
                                "type": "text",
                                "text": "^The protocol above is limited primarily by the throughput of RNA extraction."
                            }
                        ]
                    }
                ]
            }
        ]
    }
]