[
    {
        "client_msg_id": "78cfddea-c121-45a2-80f9-d82deb8b5566",
        "type": "message",
        "text": "maybe there is a way to make the implementation follow from the validation of the R&amp;D options?  not sure how though - some yes\/no, choices, then... the downstream applications?",
        "user": "UV1A22N3W",
        "ts": "1585556680.088500",
        "team": "TUU48M0T1",
        "user_team": "TUU48M0T1",
        "source_team": "TUU48M0T1",
        "user_profile": {
            "avatar_hash": "71f827776ad6",
            "image_72": "https:\/\/avatars.slack-edge.com\/2020-03-09\/988125642964_71f827776ad610af05a2_72.jpg",
            "first_name": "",
            "real_name": "RachelA",
            "display_name": "RachelA",
            "team": "TUU48M0T1",
            "name": "raronoff",
            "is_restricted": false,
            "is_ultra_restricted": false
        },
        "blocks": [
            {
                "type": "rich_text",
                "block_id": "dxF",
                "elements": [
                    {
                        "type": "rich_text_section",
                        "elements": [
                            {
                                "type": "text",
                                "text": "maybe there is a way to make the implementation follow from the validation of the R&D options?  not sure how though - some yes\/no, choices, then... the downstream applications?"
                            }
                        ]
                    }
                ]
            }
        ],
        "thread_ts": "1585420196.052900",
        "parent_user_id": "UV3URUKK5"
    },
    {
        "client_msg_id": "cfd3af66-12c5-4383-84b3-d7c4769739eb",
        "type": "message",
        "text": "yes, I was going to add something about the fact that I heard there were at least 30 commercial testing kits out there...  for our case, we are validating some of 'published' the open primer sets - some of which were probably the basis for the different commercial kits.  Maybe Kristin's doc will still be useful to put together the primer sets (or at least gene targets, as maybe not all will reveal this) in the context of the different kits??",
        "user": "UV1A22N3W",
        "ts": "1585557026.091100",
        "team": "TUU48M0T1",
        "user_team": "TUU48M0T1",
        "source_team": "TUU48M0T1",
        "user_profile": {
            "avatar_hash": "71f827776ad6",
            "image_72": "https:\/\/avatars.slack-edge.com\/2020-03-09\/988125642964_71f827776ad610af05a2_72.jpg",
            "first_name": "",
            "real_name": "RachelA",
            "display_name": "RachelA",
            "team": "TUU48M0T1",
            "name": "raronoff",
            "is_restricted": false,
            "is_ultra_restricted": false
        },
        "edited": {
            "user": "UV1A22N3W",
            "ts": "1585557492.000000"
        },
        "blocks": [
            {
                "type": "rich_text",
                "block_id": "+GUZ+",
                "elements": [
                    {
                        "type": "rich_text_section",
                        "elements": [
                            {
                                "type": "text",
                                "text": "yes, I was going to add something about the fact that I heard there were at least 30 commercial testing kits out there...  for our case, we are validating some of 'published' the open primer sets - some of which were probably the basis for the different commercial kits.  Maybe Kristin's doc will still be useful to put together the primer sets (or at least gene targets, as maybe not all will reveal this) in the context of the different kits??"
                            }
                        ]
                    }
                ]
            }
        ]
    },
    {
        "client_msg_id": "0d536c04-f086-42bc-adb7-d079cd4c6904",
        "type": "message",
        "text": "Two other points, for the development of the quenched system- as I may have another qPCR option at Hackuarium.  1) Are we all going to share ordered primers, or should we make other orders for Switzerland and Madrid?  (ultimately, the dream would be it all works well, and we will want the best set(s) with the FAM and quencher to go to Paris, for Guy to do the lyophilisation - 8 tube strips of 4 control and 4 virus detection sets...)  &amp;  2) We should call it something like the 'DIT SARS-CoV2 Detective'  (not covid19). <@UV3URUKK5> <@UV7LUJG1Y> <@UV10KBUQG>  It's great orders are already being made!",
        "user": "UV1A22N3W",
        "ts": "1585557395.096200",
        "team": "TUU48M0T1",
        "user_team": "TUU48M0T1",
        "source_team": "TUU48M0T1",
        "user_profile": {
            "avatar_hash": "71f827776ad6",
            "image_72": "https:\/\/avatars.slack-edge.com\/2020-03-09\/988125642964_71f827776ad610af05a2_72.jpg",
            "first_name": "",
            "real_name": "RachelA",
            "display_name": "RachelA",
            "team": "TUU48M0T1",
            "name": "raronoff",
            "is_restricted": false,
            "is_ultra_restricted": false
        },
        "blocks": [
            {
                "type": "rich_text",
                "block_id": "aIhu",
                "elements": [
                    {
                        "type": "rich_text_section",
                        "elements": [
                            {
                                "type": "text",
                                "text": "Two other points, for the development of the quenched system- as I may have another qPCR option at Hackuarium.  1) Are we all going to share ordered primers, or should we make other orders for Switzerland and Madrid?  (ultimately, the dream would be it all works well, and we will want the best set(s) with the FAM and quencher to go to Paris, for Guy to do the lyophilisation - 8 tube strips of 4 control and 4 virus detection sets...)  &  2) We should call it something like the 'DIT SARS-CoV2 Detective'  (not covid19). "
                            },
                            {
                                "type": "user",
                                "user_id": "UV3URUKK5"
                            },
                            {
                                "type": "text",
                                "text": " "
                            },
                            {
                                "type": "user",
                                "user_id": "UV7LUJG1Y"
                            },
                            {
                                "type": "text",
                                "text": " "
                            },
                            {
                                "type": "user",
                                "user_id": "UV10KBUQG"
                            },
                            {
                                "type": "text",
                                "text": "  It's great orders are already being made!"
                            }
                        ]
                    }
                ]
            }
        ]
    },
    {
        "client_msg_id": "a7fae412-9b99-4530-86fa-9dede9000024",
        "type": "message",
        "text": "Third thing: where are we documenting the experiments?  will they somehow get done in parallel really, or <@UUPQGNNTV> has your co already started with the NEB kit??",
        "user": "UV1A22N3W",
        "ts": "1585557441.097100",
        "team": "TUU48M0T1",
        "user_team": "TUU48M0T1",
        "source_team": "TUU48M0T1",
        "user_profile": {
            "avatar_hash": "71f827776ad6",
            "image_72": "https:\/\/avatars.slack-edge.com\/2020-03-09\/988125642964_71f827776ad610af05a2_72.jpg",
            "first_name": "",
            "real_name": "RachelA",
            "display_name": "RachelA",
            "team": "TUU48M0T1",
            "name": "raronoff",
            "is_restricted": false,
            "is_ultra_restricted": false
        },
        "blocks": [
            {
                "type": "rich_text",
                "block_id": "Uaa",
                "elements": [
                    {
                        "type": "rich_text_section",
                        "elements": [
                            {
                                "type": "text",
                                "text": "Third thing: where are we documenting the experiments?  will they somehow get done in parallel really, or "
                            },
                            {
                                "type": "user",
                                "user_id": "UUPQGNNTV"
                            },
                            {
                                "type": "text",
                                "text": " has your co already started with the NEB kit??"
                            }
                        ]
                    }
                ]
            }
        ]
    },
    {
        "client_msg_id": "446523b4-48b1-4a02-bed2-694e80b9b688",
        "type": "message",
        "text": "<@UUWLPKCLB> And everyone else this might be useful:<https:\/\/sph.nus.edu.sg\/wp-content\/uploads\/2020\/03\/COVID-19-Science-Report-Diagnostics-30-Mar.pdf>",
        "user": "UV7LUJG1Y",
        "ts": "1585568874.098200",
        "team": "TUU48M0T1",
        "user_team": "TUU48M0T1",
        "source_team": "TUU48M0T1",
        "user_profile": {
            "avatar_hash": "048307b17644",
            "image_72": "https:\/\/avatars.slack-edge.com\/2020-04-04\/1043242365313_048307b17644844abd87_72.jpg",
            "first_name": "",
            "real_name": "Guy Aidelberg",
            "display_name": "Guy Aidelberg",
            "team": "TUU48M0T1",
            "name": "guyaidelberg",
            "is_restricted": false,
            "is_ultra_restricted": false
        },
        "blocks": [
            {
                "type": "rich_text",
                "block_id": "KJf5c",
                "elements": [
                    {
                        "type": "rich_text_section",
                        "elements": [
                            {
                                "type": "user",
                                "user_id": "UUWLPKCLB"
                            },
                            {
                                "type": "text",
                                "text": " And everyone else this might be useful:"
                            },
                            {
                                "type": "link",
                                "url": "https:\/\/sph.nus.edu.sg\/wp-content\/uploads\/2020\/03\/COVID-19-Science-Report-Diagnostics-30-Mar.pdf"
                            }
                        ]
                    }
                ]
            }
        ]
    },
    {
        "client_msg_id": "b54c44e3-9aaa-44ad-b89c-ba8447b41121",
        "type": "message",
        "text": "<@UV1A22N3W> <@UV10KBUQG> <@UV7LUJG1Y> I did a Benchling project, maybe we could work in its folder. We could document the experiments in the notebook what we are doing and share primers and other sequence through its sequence editor. We could think in other tool which is open, but just thinking in being practical I would use benchling. If you think it could be useful just give me you emails and i will add you as admins as soon as I read you.",
        "user": "UV3URUKK5",
        "ts": "1585571768.100700",
        "team": "TUU48M0T1",
        "user_team": "TUU48M0T1",
        "source_team": "TUU48M0T1",
        "user_profile": {
            "avatar_hash": "64c99c2ed974",
            "image_72": "https:\/\/avatars.slack-edge.com\/2020-03-15\/1000999702004_64c99c2ed97497e08ca9_72.jpg",
            "first_name": "",
            "real_name": "Francisco Javier Quero",
            "display_name": "Francisco Javier Quero",
            "team": "TUU48M0T1",
            "name": "franxi2953",
            "is_restricted": false,
            "is_ultra_restricted": false
        },
        "edited": {
            "user": "UV3URUKK5",
            "ts": "1585571801.000000"
        },
        "blocks": [
            {
                "type": "rich_text",
                "block_id": "=8ag",
                "elements": [
                    {
                        "type": "rich_text_section",
                        "elements": [
                            {
                                "type": "user",
                                "user_id": "UV1A22N3W"
                            },
                            {
                                "type": "text",
                                "text": " "
                            },
                            {
                                "type": "user",
                                "user_id": "UV10KBUQG"
                            },
                            {
                                "type": "text",
                                "text": " "
                            },
                            {
                                "type": "user",
                                "user_id": "UV7LUJG1Y"
                            },
                            {
                                "type": "text",
                                "text": " I did a Benchling project, maybe we could work in its folder. We could document the experiments in the notebook what we are doing and share primers and other sequence through its sequence editor. We could think in other tool which is open, but just thinking in being practical I would use benchling. If you think it could be useful just give me you emails and i will add you as admins as soon as I read you."
                            }
                        ]
                    }
                ]
            }
        ]
    },
    {
        "client_msg_id": "21df40ec-9ce1-4ffd-bf87-c5920ba8aa9c",
        "type": "message",
        "text": "Hi All! Hope you're doing well :slightly_smiling_face: Is there a bio-diagnostics call happening in about 30 minutes? If so, which Zoom link will it be through?",
        "user": "UV5C2TFCH",
        "ts": "1585575303.102100",
        "team": "TUU48M0T1",
        "user_team": "TUU48M0T1",
        "source_team": "TUU48M0T1",
        "user_profile": {
            "avatar_hash": "a4f88622caa0",
            "image_72": "https:\/\/avatars.slack-edge.com\/2020-03-17\/997014072945_a4f88622caa0f9ec4968_72.jpg",
            "first_name": "",
            "real_name": "Sangita Vasikaran",
            "display_name": "",
            "team": "TUU48M0T1",
            "name": "sangitavv",
            "is_restricted": false,
            "is_ultra_restricted": false
        },
        "blocks": [
            {
                "type": "rich_text",
                "block_id": "tz7a",
                "elements": [
                    {
                        "type": "rich_text_section",
                        "elements": [
                            {
                                "type": "text",
                                "text": "Hi All! Hope you're doing well "
                            },
                            {
                                "type": "emoji",
                                "name": "slightly_smiling_face"
                            },
                            {
                                "type": "text",
                                "text": " Is there a bio-diagnostics call happening in about 30 minutes? If so, which Zoom link will it be through?"
                            }
                        ]
                    }
                ]
            }
        ]
    },
    {
        "client_msg_id": "77d45523-8544-4e9f-8584-02e4dc1a9377",
        "type": "message",
        "text": "hi! <@UV02WET96> will it be the usual zoom?",
        "user": "UV1A22N3W",
        "ts": "1585576348.103100",
        "team": "TUU48M0T1",
        "user_team": "TUU48M0T1",
        "source_team": "TUU48M0T1",
        "user_profile": {
            "avatar_hash": "71f827776ad6",
            "image_72": "https:\/\/avatars.slack-edge.com\/2020-03-09\/988125642964_71f827776ad610af05a2_72.jpg",
            "first_name": "",
            "real_name": "RachelA",
            "display_name": "RachelA",
            "team": "TUU48M0T1",
            "name": "raronoff",
            "is_restricted": false,
            "is_ultra_restricted": false
        },
        "blocks": [
            {
                "type": "rich_text",
                "block_id": "X8w",
                "elements": [
                    {
                        "type": "rich_text_section",
                        "elements": [
                            {
                                "type": "text",
                                "text": "hi! "
                            },
                            {
                                "type": "user",
                                "user_id": "UV02WET96"
                            },
                            {
                                "type": "text",
                                "text": " will it be the usual zoom?"
                            }
                        ]
                    }
                ]
            }
        ]
    },
    {
        "client_msg_id": "c5550bc6-c299-440f-8f33-edee83e04c89",
        "type": "message",
        "text": "yes :slightly_smiling_face:",
        "user": "UV02WET96",
        "ts": "1585576380.103300",
        "team": "TUU48M0T1",
        "user_team": "TUU48M0T1",
        "source_team": "TUU48M0T1",
        "user_profile": {
            "avatar_hash": "a99c74a194f8",
            "image_72": "https:\/\/avatars.slack-edge.com\/2020-03-07\/975708504851_a99c74a194f86715ca7d_72.png",
            "first_name": "Thomas",
            "real_name": "Thomas Landrain",
            "display_name": "Thomas Landrain - JOGL CoFounder \/ CEO",
            "team": "TUU48M0T1",
            "name": "thomas",
            "is_restricted": false,
            "is_ultra_restricted": false
        },
        "blocks": [
            {
                "type": "rich_text",
                "block_id": "LG7y",
                "elements": [
                    {
                        "type": "rich_text_section",
                        "elements": [
                            {
                                "type": "text",
                                "text": "yes "
                            },
                            {
                                "type": "emoji",
                                "name": "slightly_smiling_face"
                            }
                        ]
                    }
                ]
            }
        ],
        "thread_ts": "1585576380.103300",
        "reply_count": 1,
        "reply_users_count": 1,
        "latest_reply": "1585576562.103800",
        "reply_users": [
            "UV5C2TFCH"
        ],
        "replies": [
            {
                "user": "UV5C2TFCH",
                "ts": "1585576562.103800"
            }
        ],
        "subscribed": false
    },
    {
        "client_msg_id": "726c3aaf-0a43-431e-96f9-f204d9c78728",
        "type": "message",
        "text": "<https:\/\/zoom.us\/j\/7804345815>",
        "user": "UV02WET96",
        "ts": "1585576383.103600",
        "team": "TUU48M0T1",
        "user_team": "TUU48M0T1",
        "source_team": "TUU48M0T1",
        "user_profile": {
            "avatar_hash": "a99c74a194f8",
            "image_72": "https:\/\/avatars.slack-edge.com\/2020-03-07\/975708504851_a99c74a194f86715ca7d_72.png",
            "first_name": "Thomas",
            "real_name": "Thomas Landrain",
            "display_name": "Thomas Landrain - JOGL CoFounder \/ CEO",
            "team": "TUU48M0T1",
            "name": "thomas",
            "is_restricted": false,
            "is_ultra_restricted": false
        },
        "blocks": [
            {
                "type": "rich_text",
                "block_id": "RrFa2",
                "elements": [
                    {
                        "type": "rich_text_section",
                        "elements": [
                            {
                                "type": "link",
                                "url": "https:\/\/zoom.us\/j\/7804345815"
                            }
                        ]
                    }
                ]
            }
        ],
        "reactions": [
            {
                "name": "heart",
                "users": [
                    "UV5C2TFCH"
                ],
                "count": 1
            }
        ]
    },
    {
        "client_msg_id": "e2eb9e16-36a8-4203-afd9-6c79341bafac",
        "type": "message",
        "text": "thank you!",
        "user": "UV5C2TFCH",
        "ts": "1585576562.103800",
        "team": "TUU48M0T1",
        "user_team": "TUU48M0T1",
        "source_team": "TUU48M0T1",
        "user_profile": {
            "avatar_hash": "a4f88622caa0",
            "image_72": "https:\/\/avatars.slack-edge.com\/2020-03-17\/997014072945_a4f88622caa0f9ec4968_72.jpg",
            "first_name": "",
            "real_name": "Sangita Vasikaran",
            "display_name": "",
            "team": "TUU48M0T1",
            "name": "sangitavv",
            "is_restricted": false,
            "is_ultra_restricted": false
        },
        "blocks": [
            {
                "type": "rich_text",
                "block_id": "HwX",
                "elements": [
                    {
                        "type": "rich_text_section",
                        "elements": [
                            {
                                "type": "text",
                                "text": "thank you!"
                            }
                        ]
                    }
                ]
            }
        ],
        "thread_ts": "1585576380.103300",
        "parent_user_id": "UV02WET96"
    },
    {
        "client_msg_id": "5bfe2611-c6c0-4676-9504-d86f56bbf6fb",
        "type": "message",
        "text": "<@UV10KBUQG> are you joining us? :slightly_smiling_face:",
        "user": "UV02WET96",
        "ts": "1585577287.104200",
        "team": "TUU48M0T1",
        "user_team": "TUU48M0T1",
        "source_team": "TUU48M0T1",
        "user_profile": {
            "avatar_hash": "a99c74a194f8",
            "image_72": "https:\/\/avatars.slack-edge.com\/2020-03-07\/975708504851_a99c74a194f86715ca7d_72.png",
            "first_name": "Thomas",
            "real_name": "Thomas Landrain",
            "display_name": "Thomas Landrain - JOGL CoFounder \/ CEO",
            "team": "TUU48M0T1",
            "name": "thomas",
            "is_restricted": false,
            "is_ultra_restricted": false
        },
        "blocks": [
            {
                "type": "rich_text",
                "block_id": "o6VKl",
                "elements": [
                    {
                        "type": "rich_text_section",
                        "elements": [
                            {
                                "type": "user",
                                "user_id": "UV10KBUQG"
                            },
                            {
                                "type": "text",
                                "text": " are you joining us? "
                            },
                            {
                                "type": "emoji",
                                "name": "slightly_smiling_face"
                            }
                        ]
                    }
                ]
            }
        ]
    },
    {
        "client_msg_id": "dfc3dd27-4659-4dfa-99f7-f538b70427eb",
        "type": "message",
        "text": "I thought it's in 10 minutes? Yes",
        "user": "UV10KBUQG",
        "ts": "1585579687.105000",
        "team": "TUU48M0T1",
        "user_team": "TUU48M0T1",
        "source_team": "TUU48M0T1",
        "user_profile": {
            "avatar_hash": "2deebbf6be3d",
            "image_72": "https:\/\/avatars.slack-edge.com\/2020-03-06\/976932190641_2deebbf6be3d17141d91_72.jpg",
            "first_name": "Sarah",
            "real_name": "Sarah Blossom Ware",
            "display_name": "Sarah Blossom Ware - BioBlaze Community Bio Lab",
            "team": "TUU48M0T1",
            "name": "ware.sarah",
            "is_restricted": false,
            "is_ultra_restricted": false
        },
        "blocks": [
            {
                "type": "rich_text",
                "block_id": "85X",
                "elements": [
                    {
                        "type": "rich_text_section",
                        "elements": [
                            {
                                "type": "text",
                                "text": "I thought it's in 10 minutes? Yes"
                            }
                        ]
                    }
                ]
            }
        ]
    },
    {
        "client_msg_id": "ec0afde0-ceba-4ec5-af25-4832a8c5887e",
        "type": "message",
        "text": "<@UVALZTQ58> where is your spreadsheet in the Google drive?",
        "user": "UV10KBUQG",
        "ts": "1585581933.105400",
        "team": "TUU48M0T1",
        "user_team": "TUU48M0T1",
        "source_team": "TUU48M0T1",
        "user_profile": {
            "avatar_hash": "2deebbf6be3d",
            "image_72": "https:\/\/avatars.slack-edge.com\/2020-03-06\/976932190641_2deebbf6be3d17141d91_72.jpg",
            "first_name": "Sarah",
            "real_name": "Sarah Blossom Ware",
            "display_name": "Sarah Blossom Ware - BioBlaze Community Bio Lab",
            "team": "TUU48M0T1",
            "name": "ware.sarah",
            "is_restricted": false,
            "is_ultra_restricted": false
        },
        "blocks": [
            {
                "type": "rich_text",
                "block_id": "lf6",
                "elements": [
                    {
                        "type": "rich_text_section",
                        "elements": [
                            {
                                "type": "user",
                                "user_id": "UVALZTQ58"
                            },
                            {
                                "type": "text",
                                "text": " where is your spreadsheet in the Google drive?"
                            }
                        ]
                    }
                ]
            }
        ],
        "thread_ts": "1585581933.105400",
        "reply_count": 2,
        "reply_users_count": 1,
        "latest_reply": "1585582076.107000",
        "reply_users": [
            "UVALZTQ58"
        ],
        "replies": [
            {
                "user": "UVALZTQ58",
                "ts": "1585582049.106400"
            },
            {
                "user": "UVALZTQ58",
                "ts": "1585582076.107000"
            }
        ],
        "subscribed": false
    },
    {
        "client_msg_id": "e576bb27-e66a-4b05-8a41-2ba92d8988ea",
        "type": "message",
        "text": "Here are the notes from our meeting:\n<https:\/\/docs.google.com\/document\/d\/16RfvOW-CJ9rrokx2wp_y4g_Y7Kfm3Wg0q_rz66ct9tc\/edit>",
        "user": "UV02WET96",
        "ts": "1585581962.105800",
        "team": "TUU48M0T1",
        "user_team": "TUU48M0T1",
        "source_team": "TUU48M0T1",
        "user_profile": {
            "avatar_hash": "a99c74a194f8",
            "image_72": "https:\/\/avatars.slack-edge.com\/2020-03-07\/975708504851_a99c74a194f86715ca7d_72.png",
            "first_name": "Thomas",
            "real_name": "Thomas Landrain",
            "display_name": "Thomas Landrain - JOGL CoFounder \/ CEO",
            "team": "TUU48M0T1",
            "name": "thomas",
            "is_restricted": false,
            "is_ultra_restricted": false
        },
        "blocks": [
            {
                "type": "rich_text",
                "block_id": "SysQe",
                "elements": [
                    {
                        "type": "rich_text_section",
                        "elements": [
                            {
                                "type": "text",
                                "text": "Here are the notes from our meeting:\n"
                            },
                            {
                                "type": "link",
                                "url": "https:\/\/docs.google.com\/document\/d\/16RfvOW-CJ9rrokx2wp_y4g_Y7Kfm3Wg0q_rz66ct9tc\/edit"
                            }
                        ]
                    }
                ]
            }
        ]
    },
    {
        "client_msg_id": "3fa9a3e1-bd63-47e5-8338-81d63a7b73a9",
        "type": "message",
        "text": "<https:\/\/docs.google.com\/spreadsheets\/d\/1iUrtiRLAXbJEzl1sxpJkNs5Z89pYgPFiidvYrKQ9Ta4\/edit#gid=856899734>",
        "user": "UVALZTQ58",
        "ts": "1585582049.106400",
        "team": "TUU48M0T1",
        "user_team": "TUU48M0T1",
        "source_team": "TUU48M0T1",
        "user_profile": {
            "avatar_hash": "68ae03dc29bc",
            "image_72": "https:\/\/avatars.slack-edge.com\/2020-03-19\/1000158389970_68ae03dc29bc6cbe2e2c_72.png",
            "first_name": "",
            "real_name": "Larissa de Clauser",
            "display_name": "Larissa de Clauser",
            "team": "TUU48M0T1",
            "name": "larissa.declauser",
            "is_restricted": false,
            "is_ultra_restricted": false
        },
        "blocks": [
            {
                "type": "rich_text",
                "block_id": "gH1u",
                "elements": [
                    {
                        "type": "rich_text_section",
                        "elements": [
                            {
                                "type": "link",
                                "url": "https:\/\/docs.google.com\/spreadsheets\/d\/1iUrtiRLAXbJEzl1sxpJkNs5Z89pYgPFiidvYrKQ9Ta4\/edit#gid=856899734"
                            }
                        ]
                    }
                ]
            }
        ],
        "thread_ts": "1585581933.105400",
        "parent_user_id": "UV10KBUQG"
    },
    {
        "client_msg_id": "b66ef57f-d622-48db-8bbf-fb1a0e4e9525",
        "type": "message",
        "text": "very promising! thx all!",
        "user": "UV1A22N3W",
        "ts": "1585582072.106900",
        "team": "TUU48M0T1",
        "user_team": "TUU48M0T1",
        "source_team": "TUU48M0T1",
        "user_profile": {
            "avatar_hash": "71f827776ad6",
            "image_72": "https:\/\/avatars.slack-edge.com\/2020-03-09\/988125642964_71f827776ad610af05a2_72.jpg",
            "first_name": "",
            "real_name": "RachelA",
            "display_name": "RachelA",
            "team": "TUU48M0T1",
            "name": "raronoff",
            "is_restricted": false,
            "is_ultra_restricted": false
        },
        "blocks": [
            {
                "type": "rich_text",
                "block_id": "RZI5",
                "elements": [
                    {
                        "type": "rich_text_section",
                        "elements": [
                            {
                                "type": "text",
                                "text": "very promising! thx all!"
                            }
                        ]
                    }
                ]
            }
        ]
    },
    {
        "client_msg_id": "6c38fc5f-024d-43a3-91ef-d52384c14c0a",
        "type": "message",
        "text": "wait you mean a different one? there we have RNA extraction and detection methods",
        "user": "UVALZTQ58",
        "ts": "1585582076.107000",
        "team": "TUU48M0T1",
        "user_team": "TUU48M0T1",
        "source_team": "TUU48M0T1",
        "user_profile": {
            "avatar_hash": "68ae03dc29bc",
            "image_72": "https:\/\/avatars.slack-edge.com\/2020-03-19\/1000158389970_68ae03dc29bc6cbe2e2c_72.png",
            "first_name": "",
            "real_name": "Larissa de Clauser",
            "display_name": "Larissa de Clauser",
            "team": "TUU48M0T1",
            "name": "larissa.declauser",
            "is_restricted": false,
            "is_ultra_restricted": false
        },
        "edited": {
            "user": "UVALZTQ58",
            "ts": "1585582087.000000"
        },
        "blocks": [
            {
                "type": "rich_text",
                "block_id": "Jtx9d",
                "elements": [
                    {
                        "type": "rich_text_section",
                        "elements": [
                            {
                                "type": "text",
                                "text": "wait you mean a different one? there we have RNA extraction and detection methods"
                            }
                        ]
                    }
                ]
            }
        ],
        "thread_ts": "1585581933.105400",
        "parent_user_id": "UV10KBUQG"
    },
    {
        "client_msg_id": "9c017218-f43d-44c0-bee0-a9a1553fa3a2",
        "type": "message",
        "text": "Don’t forget to register to the OpenCovid19 calendar to visualize all future meetings <https:\/\/calendar.google.com\/calendar\/b\/1?cid=c2xpZmZxNmUwN2lpcHVoMHI5cW1nMjhtMWdAZ3JvdXAuY2FsZW5kYXIuZ29vZ2xlLmNvbQ>",
        "user": "UV02WET96",
        "ts": "1585582114.107900",
        "team": "TUU48M0T1",
        "user_team": "TUU48M0T1",
        "source_team": "TUU48M0T1",
        "user_profile": {
            "avatar_hash": "a99c74a194f8",
            "image_72": "https:\/\/avatars.slack-edge.com\/2020-03-07\/975708504851_a99c74a194f86715ca7d_72.png",
            "first_name": "Thomas",
            "real_name": "Thomas Landrain",
            "display_name": "Thomas Landrain - JOGL CoFounder \/ CEO",
            "team": "TUU48M0T1",
            "name": "thomas",
            "is_restricted": false,
            "is_ultra_restricted": false
        },
        "attachments": [
            {
                "title": "Google Calendar",
                "title_link": "https:\/\/calendar.google.com\/calendar\/b\/1?cid=c2xpZmZxNmUwN2lpcHVoMHI5cW1nMjhtMWdAZ3JvdXAuY2FsZW5kYXIuZ29vZ2xlLmNvbQ",
                "text": "With Google's free online calendar, it’s easy to keep track of life’s important events all in one place.",
                "fallback": "Google Calendar",
                "from_url": "https:\/\/calendar.google.com\/calendar\/b\/1?cid=c2xpZmZxNmUwN2lpcHVoMHI5cW1nMjhtMWdAZ3JvdXAuY2FsZW5kYXIuZ29vZ2xlLmNvbQ",
                "service_icon": "https:\/\/accounts.google.com\/favicon.ico",
                "service_name": "accounts.google.com",
                "id": 1,
                "original_url": "https:\/\/calendar.google.com\/calendar\/b\/1?cid=c2xpZmZxNmUwN2lpcHVoMHI5cW1nMjhtMWdAZ3JvdXAuY2FsZW5kYXIuZ29vZ2xlLmNvbQ"
            }
        ],
        "blocks": [
            {
                "type": "rich_text",
                "block_id": "L39qd",
                "elements": [
                    {
                        "type": "rich_text_section",
                        "elements": [
                            {
                                "type": "text",
                                "text": "Don’t forget to register to the OpenCovid19 calendar to visualize all future meetings "
                            },
                            {
                                "type": "link",
                                "url": "https:\/\/calendar.google.com\/calendar\/b\/1?cid=c2xpZmZxNmUwN2lpcHVoMHI5cW1nMjhtMWdAZ3JvdXAuY2FsZW5kYXIuZ29vZ2xlLmNvbQ"
                            }
                        ]
                    }
                ]
            }
        ]
    },
    {
        "client_msg_id": "e2be3a22-0232-469c-84d2-b2bfc57d92d0",
        "type": "message",
        "text": "Thanks <@UV02WET96> The calendar is very helpful! Our meeting we just had was not in there.  And I thought project review meeting was now but calendar says later today.",
        "user": "UV10KBUQG",
        "ts": "1585582639.110800",
        "team": "TUU48M0T1",
        "user_team": "TUU48M0T1",
        "source_team": "TUU48M0T1",
        "user_profile": {
            "avatar_hash": "2deebbf6be3d",
            "image_72": "https:\/\/avatars.slack-edge.com\/2020-03-06\/976932190641_2deebbf6be3d17141d91_72.jpg",
            "first_name": "Sarah",
            "real_name": "Sarah Blossom Ware",
            "display_name": "Sarah Blossom Ware - BioBlaze Community Bio Lab",
            "team": "TUU48M0T1",
            "name": "ware.sarah",
            "is_restricted": false,
            "is_ultra_restricted": false
        },
        "blocks": [
            {
                "type": "rich_text",
                "block_id": "Za9Ke",
                "elements": [
                    {
                        "type": "rich_text_section",
                        "elements": [
                            {
                                "type": "text",
                                "text": "Thanks "
                            },
                            {
                                "type": "user",
                                "user_id": "UV02WET96"
                            },
                            {
                                "type": "text",
                                "text": " The calendar is very helpful! Our meeting we just had was not in there.  And I thought project review meeting was now but calendar says later today."
                            }
                        ]
                    }
                ]
            }
        ]
    },
    {
        "client_msg_id": "70bcd416-36b3-47ce-a3c1-540831bfe9ce",
        "type": "message",
        "text": "For new people: The overall aim of this channel is to develop an open-source one-step field-protocol for the detection of Covid-19 which can be automated.\nTo this end we are currently mainly focusing on the development of a LAMP assay <#C010S1VPLQM|proj-neb-lamp-test>.\n\nWe are having bi-weekly meetings Monday and Thursday at 5PM CET. <https:\/\/calendar.google.com\/calendar\/b\/1?cid=c2xpZmZxNmUwN2lpcHVoMHI5cW1nMjhtMWdAZ3JvdXAuY2FsZW5kYXIuZ29vZ2xlLmNvbQ>",
        "user": "UVALZTQ58",
        "ts": "1585582821.112600",
        "team": "TUU48M0T1",
        "user_team": "TUU48M0T1",
        "source_team": "TUU48M0T1",
        "user_profile": {
            "avatar_hash": "68ae03dc29bc",
            "image_72": "https:\/\/avatars.slack-edge.com\/2020-03-19\/1000158389970_68ae03dc29bc6cbe2e2c_72.png",
            "first_name": "",
            "real_name": "Larissa de Clauser",
            "display_name": "Larissa de Clauser",
            "team": "TUU48M0T1",
            "name": "larissa.declauser",
            "is_restricted": false,
            "is_ultra_restricted": false
        },
        "edited": {
            "user": "UVALZTQ58",
            "ts": "1585582904.000000"
        },
        "blocks": [
            {
                "type": "rich_text",
                "block_id": "LLPFs",
                "elements": [
                    {
                        "type": "rich_text_section",
                        "elements": [
                            {
                                "type": "text",
                                "text": "For new people: The overall aim of this channel is to develop an open-source one-step field-protocol for the detection of Covid-19 which can be automated.\nTo this end we are currently mainly focusing on the development of a LAMP assay "
                            },
                            {
                                "type": "channel",
                                "channel_id": "C010S1VPLQM"
                            },
                            {
                                "type": "text",
                                "text": ".\n\nWe are having bi-weekly meetings Monday and Thursday at 5PM CET. "
                            },
                            {
                                "type": "link",
                                "url": "https:\/\/calendar.google.com\/calendar\/b\/1?cid=c2xpZmZxNmUwN2lpcHVoMHI5cW1nMjhtMWdAZ3JvdXAuY2FsZW5kYXIuZ29vZ2xlLmNvbQ"
                            }
                        ]
                    }
                ]
            }
        ],
        "reactions": [
            {
                "name": "+1",
                "users": [
                    "UVCS0865Q",
                    "UV10KBUQG",
                    "U01099UVAUA"
                ],
                "count": 3
            },
            {
                "name": "100",
                "users": [
                    "U010QHBTBPY"
                ],
                "count": 1
            }
        ]
    },
    {
        "client_msg_id": "baa9f6bd-ec6d-4e3f-89e3-08b8fdc7d558",
        "type": "message",
        "text": "Does today's ToDo list have something about who will convince the NEB people to give us all we need (somehow)??",
        "user": "UV1A22N3W",
        "ts": "1585582821.112700",
        "team": "TUU48M0T1",
        "user_team": "TUU48M0T1",
        "source_team": "TUU48M0T1",
        "user_profile": {
            "avatar_hash": "71f827776ad6",
            "image_72": "https:\/\/avatars.slack-edge.com\/2020-03-09\/988125642964_71f827776ad610af05a2_72.jpg",
            "first_name": "",
            "real_name": "RachelA",
            "display_name": "RachelA",
            "team": "TUU48M0T1",
            "name": "raronoff",
            "is_restricted": false,
            "is_ultra_restricted": false
        },
        "blocks": [
            {
                "type": "rich_text",
                "block_id": "Yavc",
                "elements": [
                    {
                        "type": "rich_text_section",
                        "elements": [
                            {
                                "type": "text",
                                "text": "Does today's ToDo list have something about who will convince the NEB people to give us all we need (somehow)??"
                            }
                        ]
                    }
                ]
            }
        ],
        "thread_ts": "1585582821.112700",
        "reply_count": 1,
        "reply_users_count": 1,
        "latest_reply": "1585582965.113400",
        "reply_users": [
            "UVALZTQ58"
        ],
        "replies": [
            {
                "user": "UVALZTQ58",
                "ts": "1585582965.113400"
            }
        ],
        "subscribed": false
    },
    {
        "client_msg_id": "d3f53150-a45f-442d-8ccd-42dca78a3a9c",
        "type": "message",
        "text": "Nope, is <@UV7LUJG1Y> the person who has been in touch with them mostly?",
        "user": "UVALZTQ58",
        "ts": "1585582965.113400",
        "team": "TUU48M0T1",
        "user_team": "TUU48M0T1",
        "source_team": "TUU48M0T1",
        "user_profile": {
            "avatar_hash": "68ae03dc29bc",
            "image_72": "https:\/\/avatars.slack-edge.com\/2020-03-19\/1000158389970_68ae03dc29bc6cbe2e2c_72.png",
            "first_name": "",
            "real_name": "Larissa de Clauser",
            "display_name": "Larissa de Clauser",
            "team": "TUU48M0T1",
            "name": "larissa.declauser",
            "is_restricted": false,
            "is_ultra_restricted": false
        },
        "blocks": [
            {
                "type": "rich_text",
                "block_id": "q\/XVc",
                "elements": [
                    {
                        "type": "rich_text_section",
                        "elements": [
                            {
                                "type": "text",
                                "text": "Nope, is "
                            },
                            {
                                "type": "user",
                                "user_id": "UV7LUJG1Y"
                            },
                            {
                                "type": "text",
                                "text": " the person who has been in touch with them mostly?"
                            }
                        ]
                    }
                ]
            }
        ],
        "thread_ts": "1585582821.112700",
        "parent_user_id": "UV1A22N3W"
    },
    {
        "client_msg_id": "d7b36e25-bab2-41da-9308-09ec8a80a23e",
        "type": "message",
        "text": "There is a specific <#C010S1VPLQM|proj-neb-lamp-test> channel for the NEB colorimetric LAMP validation and eventual reproduction by the DIY community.  There has also been a project created for this specifically in JOGL.",
        "user": "UV10KBUQG",
        "ts": "1585583599.117900",
        "team": "TUU48M0T1",
        "user_team": "TUU48M0T1",
        "source_team": "TUU48M0T1",
        "user_profile": {
            "avatar_hash": "2deebbf6be3d",
            "image_72": "https:\/\/avatars.slack-edge.com\/2020-03-06\/976932190641_2deebbf6be3d17141d91_72.jpg",
            "first_name": "Sarah",
            "real_name": "Sarah Blossom Ware",
            "display_name": "Sarah Blossom Ware - BioBlaze Community Bio Lab",
            "team": "TUU48M0T1",
            "name": "ware.sarah",
            "is_restricted": false,
            "is_ultra_restricted": false
        },
        "edited": {
            "user": "UV10KBUQG",
            "ts": "1585583655.000000"
        },
        "blocks": [
            {
                "type": "rich_text",
                "block_id": "zIW",
                "elements": [
                    {
                        "type": "rich_text_section",
                        "elements": [
                            {
                                "type": "text",
                                "text": "There is a specific "
                            },
                            {
                                "type": "channel",
                                "channel_id": "C010S1VPLQM"
                            },
                            {
                                "type": "text",
                                "text": " channel for the NEB colorimetric LAMP validation and eventual reproduction by the DIY community.  There has also been a project created for this specifically in JOGL."
                            }
                        ]
                    }
                ]
            }
        ],
        "reactions": [
            {
                "name": "+1",
                "users": [
                    "U010QHBTBPY"
                ],
                "count": 1
            }
        ]
    },
    {
        "client_msg_id": "c8bfe213-88b7-414f-b28a-1304b50d6a76",
        "type": "message",
        "text": "Apologies for not joining this meeting. I was not aware of it until it was almost done. Thanks for the g-calendar and minutes. I can attend the next meeting. I am working on expressing various enzymes from <@UV1V637PU>’s Open Enzyme Collection, synthesized by FreeGenes that can benefit the effort. I have a number of protocols for expression and purification. My constructs are His-tagged but I don’t have any Nickel resin yet. Does anyone have any surplus?",
        "user": "U010QHBTBPY",
        "ts": "1585583797.120000",
        "team": "TUU48M0T1",
        "user_team": "TUU48M0T1",
        "source_team": "TUU48M0T1",
        "user_profile": {
            "avatar_hash": "g4e30c4af69a",
            "image_72": "https:\/\/secure.gravatar.com\/avatar\/4e30c4af69a6429e53cd9cce9da9f65c.jpg?s=72&d=https%3A%2F%2Fa.slack-edge.com%2Fdf10d%2Fimg%2Favatars%2Fava_0015-72.png",
            "first_name": "",
            "real_name": "osn_scott",
            "display_name": "osn_scott",
            "team": "TUU48M0T1",
            "name": "scott527",
            "is_restricted": false,
            "is_ultra_restricted": false
        },
        "blocks": [
            {
                "type": "rich_text",
                "block_id": "exMfQ",
                "elements": [
                    {
                        "type": "rich_text_section",
                        "elements": [
                            {
                                "type": "text",
                                "text": "Apologies for not joining this meeting. I was not aware of it until it was almost done. Thanks for the g-calendar and minutes. I can attend the next meeting. I am working on expressing various enzymes from "
                            },
                            {
                                "type": "user",
                                "user_id": "UV1V637PU"
                            },
                            {
                                "type": "text",
                                "text": "’s Open Enzyme Collection, synthesized by FreeGenes that can benefit the effort. I have a number of protocols for expression and purification. My constructs are His-tagged but I don’t have any Nickel resin yet. Does anyone have any surplus?"
                            }
                        ]
                    }
                ]
            }
        ],
        "reactions": [
            {
                "name": "heart",
                "users": [
                    "UVCS0865Q"
                ],
                "count": 1
            },
            {
                "name": "+1",
                "users": [
                    "UVALZTQ58"
                ],
                "count": 1
            }
        ]
    },
    {
        "client_msg_id": "a7c3f510-144f-4560-b3c7-250e13f540ab",
        "type": "message",
        "text": "<@UV10KBUQG> what is your email address? I’m going to give edit access on the calendar",
        "user": "UV02WET96",
        "ts": "1585586225.120800",
        "team": "TUU48M0T1",
        "user_team": "TUU48M0T1",
        "source_team": "TUU48M0T1",
        "user_profile": {
            "avatar_hash": "a99c74a194f8",
            "image_72": "https:\/\/avatars.slack-edge.com\/2020-03-07\/975708504851_a99c74a194f86715ca7d_72.png",
            "first_name": "Thomas",
            "real_name": "Thomas Landrain",
            "display_name": "Thomas Landrain - JOGL CoFounder \/ CEO",
            "team": "TUU48M0T1",
            "name": "thomas",
            "is_restricted": false,
            "is_ultra_restricted": false
        },
        "edited": {
            "user": "UV02WET96",
            "ts": "1585586234.000000"
        },
        "blocks": [
            {
                "type": "rich_text",
                "block_id": "ThN",
                "elements": [
                    {
                        "type": "rich_text_section",
                        "elements": [
                            {
                                "type": "user",
                                "user_id": "UV10KBUQG"
                            },
                            {
                                "type": "text",
                                "text": " what is your email address? I’m going to give edit access on the calendar"
                            }
                        ]
                    }
                ]
            }
        ],
        "thread_ts": "1585586225.120800",
        "reply_count": 2,
        "reply_users_count": 2,
        "latest_reply": "1585599753.122100",
        "reply_users": [
            "UV10KBUQG",
            "UV02WET96"
        ],
        "replies": [
            {
                "user": "UV10KBUQG",
                "ts": "1585591332.121400"
            },
            {
                "user": "UV02WET96",
                "ts": "1585599753.122100"
            }
        ],
        "subscribed": false
    },
    {
        "client_msg_id": "6e517266-1ea3-4eef-87e5-d4815360f652",
        "type": "message",
        "text": "<mailto:ware.sarah@gmail.com|ware.sarah@gmail.com>",
        "user": "UV10KBUQG",
        "ts": "1585591332.121400",
        "team": "TUU48M0T1",
        "user_team": "TUU48M0T1",
        "source_team": "TUU48M0T1",
        "user_profile": {
            "avatar_hash": "2deebbf6be3d",
            "image_72": "https:\/\/avatars.slack-edge.com\/2020-03-06\/976932190641_2deebbf6be3d17141d91_72.jpg",
            "first_name": "Sarah",
            "real_name": "Sarah Blossom Ware",
            "display_name": "Sarah Blossom Ware - BioBlaze Community Bio Lab",
            "team": "TUU48M0T1",
            "name": "ware.sarah",
            "is_restricted": false,
            "is_ultra_restricted": false
        },
        "blocks": [
            {
                "type": "rich_text",
                "block_id": "yhOo",
                "elements": [
                    {
                        "type": "rich_text_section",
                        "elements": [
                            {
                                "type": "link",
                                "url": "mailto:ware.sarah@gmail.com",
                                "text": "ware.sarah@gmail.com"
                            }
                        ]
                    }
                ]
            }
        ],
        "thread_ts": "1585586225.120800",
        "parent_user_id": "UV02WET96"
    },
    {
        "client_msg_id": "0fb9b0a6-5575-423d-91a7-f034f4f238c6",
        "type": "message",
        "text": "this might be useful: <https:\/\/www.biorxiv.org\/content\/10.1101\/2020.03.28.013508v1>",
        "user": "U01099UVAUA",
        "ts": "1585597261.121800",
        "team": "TUU48M0T1",
        "user_team": "TUU48M0T1",
        "source_team": "TUU48M0T1",
        "user_profile": {
            "avatar_hash": "ge3e198df6dc",
            "image_72": "https:\/\/secure.gravatar.com\/avatar\/e3e198df6dc45f8635520f971d0036b2.jpg?s=72&d=https%3A%2F%2Fa.slack-edge.com%2Fdf10d%2Fimg%2Favatars%2Fava_0014-72.png",
            "first_name": "",
            "real_name": "Fernan Federici",
            "display_name": "Fernan Federici",
            "team": "TUU48M0T1",
            "name": "ffederici",
            "is_restricted": false,
            "is_ultra_restricted": false
        },
        "attachments": [
            {
                "service_name": "bioRxiv",
                "title": "SARS-CoV-2 detection from nasopharyngeal swab samples without RNA extraction",
                "title_link": "https:\/\/www.biorxiv.org\/content\/10.1101\/2020.03.28.013508v1",
                "text": "The ongoing COVID-19 pandemic has reached more than 200 countries and territories worldwide. Given the large requirement of SARS-CoV-2 diagnosis and considering that RNA extraction kits are in short supply, we investigated whether two commercial RT-qPCR kits were compatible with direct SARS-CoV-2 detection from nasopharyngeal swab samples. We show that one of the tested kits is fully compatible with direct SARS-CoV-2 detection suggesting that omission of RNA extraction step should be considered in SARS-CoV-2 diagnosis.",
                "fallback": "bioRxiv: SARS-CoV-2 detection from nasopharyngeal swab samples without RNA extraction",
                "thumb_url": "https:\/\/www.biorxiv.org\/sites\/default\/files\/images\/biorxiv_logo_homepage7-5-small.png",
                "ts": 1585551600,
                "from_url": "https:\/\/www.biorxiv.org\/content\/10.1101\/2020.03.28.013508v1",
                "thumb_width": 252,
                "thumb_height": 252,
                "service_icon": "https:\/\/www.biorxiv.org\/sites\/default\/files\/images\/favicon.ico",
                "id": 1,
                "original_url": "https:\/\/www.biorxiv.org\/content\/10.1101\/2020.03.28.013508v1"
            }
        ],
        "blocks": [
            {
                "type": "rich_text",
                "block_id": "ithD",
                "elements": [
                    {
                        "type": "rich_text_section",
                        "elements": [
                            {
                                "type": "text",
                                "text": "this might be useful: "
                            },
                            {
                                "type": "link",
                                "url": "https:\/\/www.biorxiv.org\/content\/10.1101\/2020.03.28.013508v1"
                            }
                        ]
                    }
                ]
            }
        ],
        "reactions": [
            {
                "name": "+1",
                "users": [
                    "UV02WET96",
                    "UV1A22N3W"
                ],
                "count": 2
            }
        ]
    },
    {
        "client_msg_id": "6c5d96e8-9d7e-4c80-b427-1028d299a355",
        "type": "message",
        "text": "done :slightly_smiling_face:",
        "user": "UV02WET96",
        "ts": "1585599753.122100",
        "team": "TUU48M0T1",
        "user_team": "TUU48M0T1",
        "source_team": "TUU48M0T1",
        "user_profile": {
            "avatar_hash": "a99c74a194f8",
            "image_72": "https:\/\/avatars.slack-edge.com\/2020-03-07\/975708504851_a99c74a194f86715ca7d_72.png",
            "first_name": "Thomas",
            "real_name": "Thomas Landrain",
            "display_name": "Thomas Landrain - JOGL CoFounder \/ CEO",
            "team": "TUU48M0T1",
            "name": "thomas",
            "is_restricted": false,
            "is_ultra_restricted": false
        },
        "blocks": [
            {
                "type": "rich_text",
                "block_id": "UlU=",
                "elements": [
                    {
                        "type": "rich_text_section",
                        "elements": [
                            {
                                "type": "text",
                                "text": "done "
                            },
                            {
                                "type": "emoji",
                                "name": "slightly_smiling_face"
                            }
                        ]
                    }
                ]
            }
        ],
        "thread_ts": "1585586225.120800",
        "parent_user_id": "UV02WET96"
    }
]