[
    {
        "client_msg_id": "725a8741-5561-4356-841b-eec02fe943f6",
        "type": "message",
        "text": "<https:\/\/www.rapidmicrobiology.com\/news\/pinpoint39s-low-cost-handheld-covid-19-aptamer-based-diagnostic-device-in-development|https:\/\/www.rapidmicrobiology.com\/news\/pinpoint39s-low-cost-handheld-covid-19-aptamer-based-diagnostic-device-in-development>",
        "user": "UV3URUKK5",
        "ts": "1587209764.001300",
        "team": "TUU48M0T1",
        "user_team": "TUU48M0T1",
        "source_team": "TUU48M0T1",
        "user_profile": {
            "avatar_hash": "64c99c2ed974",
            "image_72": "https:\/\/avatars.slack-edge.com\/2020-03-15\/1000999702004_64c99c2ed97497e08ca9_72.jpg",
            "first_name": "",
            "real_name": "Francisco Javier Quero",
            "display_name": "Francisco Javier Quero",
            "team": "TUU48M0T1",
            "name": "franxi2953",
            "is_restricted": false,
            "is_ultra_restricted": false
        },
        "attachments": [
            {
                "title": "rapidmicrobiology Pinpoint's Low-Cost Handheld Covid-19 Aptamer-based Diagnostic Device in Development",
                "title_link": "https:\/\/www.rapidmicrobiology.com\/news\/pinpoint39s-low-cost-handheld-covid-19-aptamer-based-diagnostic-device-in-development",
                "text": "A low-cost handheld Covid-19 diagnostic device is currently in development at Pinpoint Science laboratories. The nanosensor aptamer-based instrument will a",
                "fallback": "rapidmicrobiology Pinpoint's Low-Cost Handheld Covid-19 Aptamer-based Diagnostic Device in Development",
                "from_url": "https:\/\/www.rapidmicrobiology.com\/news\/pinpoint39s-low-cost-handheld-covid-19-aptamer-based-diagnostic-device-in-development",
                "service_icon": "https:\/\/www.rapidmicrobiology.com\/favicon.ico",
                "service_name": "rapidmicrobiology.com",
                "id": 1,
                "original_url": "https:\/\/www.rapidmicrobiology.com\/news\/pinpoint39s-low-cost-handheld-covid-19-aptamer-based-diagnostic-device-in-development"
            }
        ],
        "blocks": [
            {
                "type": "rich_text",
                "block_id": "oM0",
                "elements": [
                    {
                        "type": "rich_text_section",
                        "elements": [
                            {
                                "type": "link",
                                "url": "https:\/\/www.rapidmicrobiology.com\/news\/pinpoint39s-low-cost-handheld-covid-19-aptamer-based-diagnostic-device-in-development",
                                "text": "https:\/\/www.rapidmicrobiology.com\/news\/pinpoint39s-low-cost-handheld-covid-19-aptamer-based-diagnostic-device-in-development"
                            }
                        ]
                    }
                ]
            }
        ]
    },
    {
        "client_msg_id": "f35eb6af-af84-4b48-980f-b7bf6a58d59e",
        "type": "message",
        "text": "Looks like some aptamers have being finally developed!",
        "user": "UV3URUKK5",
        "ts": "1587209777.001900",
        "team": "TUU48M0T1",
        "user_team": "TUU48M0T1",
        "source_team": "TUU48M0T1",
        "user_profile": {
            "avatar_hash": "64c99c2ed974",
            "image_72": "https:\/\/avatars.slack-edge.com\/2020-03-15\/1000999702004_64c99c2ed97497e08ca9_72.jpg",
            "first_name": "",
            "real_name": "Francisco Javier Quero",
            "display_name": "Francisco Javier Quero",
            "team": "TUU48M0T1",
            "name": "franxi2953",
            "is_restricted": false,
            "is_ultra_restricted": false
        },
        "blocks": [
            {
                "type": "rich_text",
                "block_id": "Uhdvr",
                "elements": [
                    {
                        "type": "rich_text_section",
                        "elements": [
                            {
                                "type": "text",
                                "text": "Looks like some aptamers have being finally developed!"
                            }
                        ]
                    }
                ]
            }
        ],
        "thread_ts": "1587209777.001900",
        "reply_count": 3,
        "reply_users_count": 3,
        "latest_reply": "1587233555.003200",
        "reply_users": [
            "UV20M5HGQ",
            "UV3URUKK5",
            "UV78JAX0S"
        ],
        "replies": [
            {
                "user": "UV20M5HGQ",
                "ts": "1587221370.002800"
            },
            {
                "user": "UV3URUKK5",
                "ts": "1587223869.003000"
            },
            {
                "user": "UV78JAX0S",
                "ts": "1587233555.003200"
            }
        ],
        "subscribed": false,
        "reactions": [
            {
                "name": "100",
                "users": [
                    "UV20M5HGQ"
                ],
                "count": 1
            }
        ]
    },
    {
        "client_msg_id": "c39fa3e1-87a9-48b7-a82d-5aeccbdb067e",
        "type": "message",
        "text": "I wish they would tell us the aptamer sequence!",
        "user": "UV20M5HGQ",
        "ts": "1587221370.002800",
        "team": "TUU48M0T1",
        "user_team": "TUU48M0T1",
        "source_team": "TUU48M0T1",
        "user_profile": {
            "avatar_hash": "de7ea7b7e14e",
            "image_72": "https:\/\/avatars.slack-edge.com\/2020-03-11\/981865374050_de7ea7b7e14e7b4316b9_72.jpg",
            "first_name": "",
            "real_name": "Vesta Korniakova",
            "display_name": "Vesta Korniakova",
            "team": "TUU48M0T1",
            "name": "riboswitchvesta",
            "is_restricted": false,
            "is_ultra_restricted": false
        },
        "blocks": [
            {
                "type": "rich_text",
                "block_id": "QVF",
                "elements": [
                    {
                        "type": "rich_text_section",
                        "elements": [
                            {
                                "type": "text",
                                "text": "I wish they would tell us the aptamer sequence!"
                            }
                        ]
                    }
                ]
            }
        ],
        "thread_ts": "1587209777.001900",
        "parent_user_id": "UV3URUKK5"
    },
    {
        "client_msg_id": "592b59e0-8840-49f4-92b6-741b4bdd3c39",
        "type": "message",
        "text": "Should I write them an email asking?",
        "user": "UV3URUKK5",
        "ts": "1587223869.003000",
        "team": "TUU48M0T1",
        "user_team": "TUU48M0T1",
        "source_team": "TUU48M0T1",
        "user_profile": {
            "avatar_hash": "64c99c2ed974",
            "image_72": "https:\/\/avatars.slack-edge.com\/2020-03-15\/1000999702004_64c99c2ed97497e08ca9_72.jpg",
            "first_name": "",
            "real_name": "Francisco Javier Quero",
            "display_name": "Francisco Javier Quero",
            "team": "TUU48M0T1",
            "name": "franxi2953",
            "is_restricted": false,
            "is_ultra_restricted": false
        },
        "blocks": [
            {
                "type": "rich_text",
                "block_id": "PrK8",
                "elements": [
                    {
                        "type": "rich_text_section",
                        "elements": [
                            {
                                "type": "text",
                                "text": "Should I write them an email asking?"
                            }
                        ]
                    }
                ]
            }
        ],
        "thread_ts": "1587209777.001900",
        "parent_user_id": "UV3URUKK5",
        "reactions": [
            {
                "name": "+1",
                "users": [
                    "UV1A22N3W"
                ],
                "count": 1
            }
        ]
    },
    {
        "client_msg_id": "2f34dcf0-63f3-48a7-a581-24041ebec32e",
        "type": "message",
        "text": "as a for-profit company, they're unlikely to disclose any details especially sequence information... worth a quick email to ask for technical details though!",
        "user": "UV78JAX0S",
        "ts": "1587233555.003200",
        "team": "TUU48M0T1",
        "user_team": "TUU48M0T1",
        "source_team": "TUU48M0T1",
        "user_profile": {
            "avatar_hash": "ab643489965e",
            "image_72": "https:\/\/avatars.slack-edge.com\/2020-03-17\/996174739571_ab643489965e0031c49d_72.png",
            "first_name": "Khalid",
            "real_name": "Khalid K. Alam",
            "display_name": "Khalid K. Alam",
            "team": "TUU48M0T1",
            "name": "khalid",
            "is_restricted": false,
            "is_ultra_restricted": false
        },
        "blocks": [
            {
                "type": "rich_text",
                "block_id": "JJu",
                "elements": [
                    {
                        "type": "rich_text_section",
                        "elements": [
                            {
                                "type": "text",
                                "text": "as a for-profit company, they're unlikely to disclose any details especially sequence information... worth a quick email to ask for technical details though!"
                            }
                        ]
                    }
                ]
            }
        ],
        "thread_ts": "1587209777.001900",
        "parent_user_id": "UV3URUKK5"
    }
]