[
    {
        "type": "message",
        "subtype": "channel_join",
        "ts": "1585850227.007200",
        "user": "U010YT4BM34",
        "text": "<@U010YT4BM34> has joined the channel"
    },
    {
        "type": "message",
        "subtype": "channel_join",
        "ts": "1585850239.007400",
        "user": "U0110449PRR",
        "text": "<@U0110449PRR> has joined the channel"
    }
]