[
    {
        "client_msg_id": "2c9a1f63-b6cc-4ffb-9020-d7d9dc4cb372",
        "type": "message",
        "text": "An overview article: <https:\/\/doi.org\/10.1016\/j.ijid.2020.02.049>",
        "user": "U0115U5P1B6",
        "ts": "1585910484.007800",
        "team": "TUU48M0T1",
        "user_team": "TUU48M0T1",
        "source_team": "TUU48M0T1",
        "user_profile": {
            "avatar_hash": "6874ee7768d4",
            "image_72": "https:\/\/avatars.slack-edge.com\/2020-04-01\/1040583598240_6874ee7768d4233e0047_72.jpg",
            "first_name": "",
            "real_name": "Mika Turkia",
            "display_name": "Mika Turkia",
            "team": "TUU48M0T1",
            "name": "turkia",
            "is_restricted": false,
            "is_ultra_restricted": false
        },
        "blocks": [
            {
                "type": "rich_text",
                "block_id": "DZDsA",
                "elements": [
                    {
                        "type": "rich_text_section",
                        "elements": [
                            {
                                "type": "text",
                                "text": "An overview article: "
                            },
                            {
                                "type": "link",
                                "url": "https:\/\/doi.org\/10.1016\/j.ijid.2020.02.049"
                            }
                        ]
                    }
                ]
            }
        ]
    },
    {
        "client_msg_id": "3cb1af57-0676-42ae-a7c7-c821439286ee",
        "type": "message",
        "text": "Hi <@UV02WET96> can you please invite invite the AfricaOSH crew to this channel? Oba, Jorge, Johanssen Obanda, share the link in the AfricaOSH community channel - etc",
        "user": "U0116HWM0UX",
        "ts": "1585911198.009000",
        "team": "TUU48M0T1",
        "user_team": "TUU48M0T1",
        "source_team": "TUU48M0T1",
        "user_profile": {
            "avatar_hash": "0ba6883eb3d3",
            "image_72": "https:\/\/avatars.slack-edge.com\/2020-04-03\/1050250600736_0ba6883eb3d3a9f2b765_72.jpg",
            "first_name": "Jo",
            "real_name": "Jo Havemann",
            "display_name": "Jo Havemann",
            "team": "TUU48M0T1",
            "name": "info112",
            "is_restricted": false,
            "is_ultra_restricted": false
        },
        "edited": {
            "user": "U0116HWM0UX",
            "ts": "1585911459.000000"
        },
        "blocks": [
            {
                "type": "rich_text",
                "block_id": "alJ",
                "elements": [
                    {
                        "type": "rich_text_section",
                        "elements": [
                            {
                                "type": "text",
                                "text": "Hi "
                            },
                            {
                                "type": "user",
                                "user_id": "UV02WET96"
                            },
                            {
                                "type": "text",
                                "text": " can you please invite invite the AfricaOSH crew to this channel? Oba, Jorge, Johanssen Obanda, share the link in the AfricaOSH community channel - etc"
                            }
                        ]
                    }
                ]
            }
        ]
    },
    {
        "client_msg_id": "dc35ac59-0039-47a0-8651-17d6d83a1237",
        "type": "message",
        "text": "Feedback needed: <https:\/\/zenodo.org\/record\/3733768#.XocVtG6xVTY>",
        "user": "U0116HWM0UX",
        "ts": "1585911356.009300",
        "team": "TUU48M0T1",
        "user_team": "TUU48M0T1",
        "source_team": "TUU48M0T1",
        "user_profile": {
            "avatar_hash": "0ba6883eb3d3",
            "image_72": "https:\/\/avatars.slack-edge.com\/2020-04-03\/1050250600736_0ba6883eb3d3a9f2b765_72.jpg",
            "first_name": "Jo",
            "real_name": "Jo Havemann",
            "display_name": "Jo Havemann",
            "team": "TUU48M0T1",
            "name": "info112",
            "is_restricted": false,
            "is_ultra_restricted": false
        },
        "attachments": [
            {
                "service_name": "Zenodo",
                "title": "Harnessing the Open Science infrastructure for an efficient African response to COVID-19 [preprint]",
                "title_link": "https:\/\/zenodo.org\/record\/3733768#.XocVtG6xVTY",
                "text": "Please note: This document in its current preprint version (v1.0) is open for commenting. Please make direct suggestions to the text at <http:\/\/tinyurl.com\/Open-Science-Africa-COVID-19|tinyurl.com\/Open-Science-Africa-COVID-19>, or email the corresponding authors. To contribute in the collaborative response in some of the work steps and\/or financially, please visit <https:\/\/info.africarxiv.org\/contribute\/>.  ",
                "fallback": "Zenodo: Harnessing the Open Science infrastructure for an efficient African response to COVID-19 [preprint]",
                "from_url": "https:\/\/zenodo.org\/record\/3733768#.XocVtG6xVTY",
                "id": 1,
                "original_url": "https:\/\/zenodo.org\/record\/3733768#.XocVtG6xVTY"
            }
        ],
        "blocks": [
            {
                "type": "rich_text",
                "block_id": "Kutvy",
                "elements": [
                    {
                        "type": "rich_text_section",
                        "elements": [
                            {
                                "type": "text",
                                "text": "Feedback needed: "
                            },
                            {
                                "type": "link",
                                "url": "https:\/\/zenodo.org\/record\/3733768#.XocVtG6xVTY"
                            }
                        ]
                    }
                ]
            }
        ]
    },
    {
        "client_msg_id": "2d009b0b-05a3-45be-828b-dbb94701b4cc",
        "type": "message",
        "text": ":mega::earth_africa::microscope: <https:\/\/medium.com\/@CodeForAfrica\/africas-largest-open-data-civic-technology-network-partners-with-continental-digital-archive-dd9e3dc68ae4>\n\nIf you can spare some time for this in the coming days and weeks, please get in touch here or via email <mailto:info@africarxiv.org|info@africarxiv.org> to coordinate activities",
        "user": "U0116HWM0UX",
        "ts": "1585920006.009700",
        "team": "TUU48M0T1",
        "user_team": "TUU48M0T1",
        "source_team": "TUU48M0T1",
        "user_profile": {
            "avatar_hash": "0ba6883eb3d3",
            "image_72": "https:\/\/avatars.slack-edge.com\/2020-04-03\/1050250600736_0ba6883eb3d3a9f2b765_72.jpg",
            "first_name": "Jo",
            "real_name": "Jo Havemann",
            "display_name": "Jo Havemann",
            "team": "TUU48M0T1",
            "name": "info112",
            "is_restricted": false,
            "is_ultra_restricted": false
        },
        "attachments": [
            {
                "service_name": "Medium",
                "title": "Africa’s Largest Open Data &amp; Civic Technology Network Partners with Continental Digital Archive…",
                "title_link": "https:\/\/medium.com\/@CodeForAfrica\/africas-largest-open-data-civic-technology-network-partners-with-continental-digital-archive-dd9e3dc68ae4",
                "text": "Does one size fit all? How should Africa, with its fragile healthcare systems, crowded settlements and large informal economies tailor…",
                "fallback": "Medium: Africa’s Largest Open Data &amp; Civic Technology Network Partners with Continental Digital Archive…",
                "image_url": "https:\/\/miro.medium.com\/max\/1200\/1*VqsG5tFkoEJf4QdY4bdYEw.jpeg",
                "fields": [
                    {
                        "title": "Reading time",
                        "value": "5 min read",
                        "short": true
                    }
                ],
                "ts": 1585918774,
                "from_url": "https:\/\/medium.com\/@CodeForAfrica\/africas-largest-open-data-civic-technology-network-partners-with-continental-digital-archive-dd9e3dc68ae4",
                "image_width": 500,
                "image_height": 250,
                "image_bytes": 46956,
                "service_icon": "https:\/\/cdn-images-1.medium.com\/fit\/c\/152\/152\/1*8I-HPL0bfoIzGied-dzOvA.png",
                "id": 1,
                "original_url": "https:\/\/medium.com\/@CodeForAfrica\/africas-largest-open-data-civic-technology-network-partners-with-continental-digital-archive-dd9e3dc68ae4"
            }
        ],
        "blocks": [
            {
                "type": "rich_text",
                "block_id": "IKf",
                "elements": [
                    {
                        "type": "rich_text_section",
                        "elements": [
                            {
                                "type": "emoji",
                                "name": "mega"
                            },
                            {
                                "type": "emoji",
                                "name": "earth_africa"
                            },
                            {
                                "type": "emoji",
                                "name": "microscope"
                            },
                            {
                                "type": "text",
                                "text": " "
                            },
                            {
                                "type": "link",
                                "url": "https:\/\/medium.com\/@CodeForAfrica\/africas-largest-open-data-civic-technology-network-partners-with-continental-digital-archive-dd9e3dc68ae4"
                            },
                            {
                                "type": "text",
                                "text": "\n\nIf you can spare some time for this in the coming days and weeks, please get in touch here or via email "
                            },
                            {
                                "type": "link",
                                "url": "mailto:info@africarxiv.org",
                                "text": "info@africarxiv.org"
                            },
                            {
                                "type": "text",
                                "text": " to coordinate activities"
                            }
                        ]
                    }
                ]
            }
        ]
    },
    {
        "client_msg_id": "bb6c4f09-d6c6-4ce6-984d-a9b2ee8e9977",
        "type": "message",
        "text": "it would be great if you could do it <@U01136GDY5V> <@U0116HWM0UX>\nCoordinating the whole OpenCovid19 initiative, I just have too much on my plate right now :slightly_smiling_face:\nThanks!",
        "user": "UV02WET96",
        "ts": "1585920668.010800",
        "team": "TUU48M0T1",
        "user_team": "TUU48M0T1",
        "source_team": "TUU48M0T1",
        "user_profile": {
            "avatar_hash": "a99c74a194f8",
            "image_72": "https:\/\/avatars.slack-edge.com\/2020-03-07\/975708504851_a99c74a194f86715ca7d_72.png",
            "first_name": "Thomas",
            "real_name": "Thomas Landrain",
            "display_name": "Thomas Landrain - JOGL CoFounder \/ CEO",
            "team": "TUU48M0T1",
            "name": "thomas",
            "is_restricted": false,
            "is_ultra_restricted": false
        },
        "blocks": [
            {
                "type": "rich_text",
                "block_id": "rLMx",
                "elements": [
                    {
                        "type": "rich_text_section",
                        "elements": [
                            {
                                "type": "text",
                                "text": "it would be great if you could do it "
                            },
                            {
                                "type": "user",
                                "user_id": "U01136GDY5V"
                            },
                            {
                                "type": "text",
                                "text": " "
                            },
                            {
                                "type": "user",
                                "user_id": "U0116HWM0UX"
                            },
                            {
                                "type": "text",
                                "text": "\nCoordinating the whole OpenCovid19 initiative, I just have too much on my plate right now "
                            },
                            {
                                "type": "emoji",
                                "name": "slightly_smiling_face"
                            },
                            {
                                "type": "text",
                                "text": "\nThanks!"
                            }
                        ]
                    }
                ]
            }
        ]
    }
]