[
    {
        "type": "message",
        "subtype": "channel_join",
        "ts": "1584961363.025700",
        "user": "UVC9WMA7N",
        "text": "<@UVC9WMA7N> has joined the channel",
        "team": "TUU48M0T1"
    },
    {
        "client_msg_id": "5b674995-21b5-43ee-b623-be6ee66295c1",
        "type": "message",
        "text": "For your information, may be really worth it to reach out to them: <https:\/\/crowdfightcovid19.org\/contact>",
        "user": "UHK0ZKM0V",
        "ts": "1584971442.026100",
        "team": "TUU48M0T1",
        "user_team": "T8MNSEUPP",
        "source_team": "T8MNSEUPP",
        "user_profile": {
            "avatar_hash": "dd94ac7c19ed",
            "image_72": "https:\/\/avatars.slack-edge.com\/2020-05-06\/1092017372535_dd94ac7c19ed8b1bdb45_72.jpg",
            "first_name": "Camille",
            "real_name": "Camille Masselot",
            "display_name": "Camille",
            "team": "T8MNSEUPP",
            "name": "masselot.camille",
            "is_restricted": false,
            "is_ultra_restricted": false
        },
        "attachments": [
            {
                "title": "Crowdfight COVID-19 | Contact",
                "title_link": "https:\/\/crowdfightcovid19.org\/contact",
                "text": "An initiative to redirect scientific resources towards the fight against COVID-19",
                "fallback": "Crowdfight COVID-19 | Contact",
                "from_url": "https:\/\/crowdfightcovid19.org\/contact",
                "service_icon": "https:\/\/www.mailerlite.com\/site\/themes\/new\/img\/favicons\/favicon-32x32.png",
                "service_name": "crowdfightcovid19.org",
                "id": 1,
                "original_url": "https:\/\/crowdfightcovid19.org\/contact"
            }
        ],
        "blocks": [
            {
                "type": "rich_text",
                "block_id": "ihZ",
                "elements": [
                    {
                        "type": "rich_text_section",
                        "elements": [
                            {
                                "type": "text",
                                "text": "For your information, may be really worth it to reach out to them: "
                            },
                            {
                                "type": "link",
                                "url": "https:\/\/crowdfightcovid19.org\/contact"
                            }
                        ]
                    }
                ]
            }
        ]
    },
    {
        "type": "message",
        "text": "",
        "files": [
            {
                "id": "F0107PUCGE7",
                "mode": "tombstone"
            }
        ],
        "upload": true,
        "user": "UHK0ZKM0V",
        "display_as_bot": false,
        "team": "TUU48M0T1",
        "ts": "1584971550.026300",
        "client_msg_id": "a6a118a1-b780-4848-8629-6eb919150b62",
        "user_team": "T8MNSEUPP",
        "source_team": "T8MNSEUPP",
        "user_profile": {
            "avatar_hash": "dd94ac7c19ed",
            "image_72": "https:\/\/avatars.slack-edge.com\/2020-05-06\/1092017372535_dd94ac7c19ed8b1bdb45_72.jpg",
            "first_name": "Camille",
            "real_name": "Camille Masselot",
            "display_name": "Camille",
            "team": "T8MNSEUPP",
            "name": "masselot.camille",
            "is_restricted": false,
            "is_ultra_restricted": false
        }
    },
    {
        "type": "message",
        "subtype": "channel_join",
        "ts": "1584972294.027200",
        "user": "U010MCAV022",
        "text": "<@U010MCAV022> has joined the channel",
        "team": "TUU48M0T1"
    },
    {
        "type": "message",
        "subtype": "bot_message",
        "text": "*Just One Giant Lab* stopped sharing this channel with your workspace. From this point on, conversations here can only be seen by members of *OpenCOVID19 Initiative*.",
        "ts": "1584972430.000100",
        "user": "USLACKBOT",
        "username": "slackbot"
    }
]