[
    {
        "client_msg_id": "b9928606-0072-4df9-8f92-ec34843d8bdc",
        "type": "message",
        "text": "Hi Rosie, we might we need more detais but if we can help...with pleasure",
        "user": "U0103SR759U",
        "ts": "1586978034.005200",
        "team": "TUU48M0T1",
        "user_team": "TUU48M0T1",
        "source_team": "TUU48M0T1",
        "user_profile": {
            "avatar_hash": "g2694d379600",
            "image_72": "https:\/\/secure.gravatar.com\/avatar\/2694d3796008843d36d4b6ceff7f8660.jpg?s=72&d=https%3A%2F%2Fa.slack-edge.com%2Fdf10d%2Fimg%2Favatars%2Fava_0010-72.png",
            "first_name": "Adrian",
            "real_name": "Adrian Molecule",
            "display_name": "Adrian Molecule",
            "team": "TUU48M0T1",
            "name": "tada",
            "is_restricted": false,
            "is_ultra_restricted": false
        },
        "blocks": [
            {
                "type": "rich_text",
                "block_id": "mRzAi",
                "elements": [
                    {
                        "type": "rich_text_section",
                        "elements": [
                            {
                                "type": "text",
                                "text": "Hi Rosie, we might we need more detais but if we can help...with pleasure"
                            }
                        ]
                    }
                ]
            }
        ],
        "thread_ts": "1585189018.001300",
        "parent_user_id": "U010FDH9JMD"
    }
]