[
    {
        "type": "message",
        "subtype": "channel_join",
        "ts": "1584206185.000200",
        "user": "U6PP2B89F",
        "text": "<@U6PP2B89F> has joined the channel"
    },
    {
        "client_msg_id": "4ca6aaa3-79d7-4b51-8d3f-55132cfebd00",
        "type": "message",
        "text": "Questions for y'all:\n1. Is this project's main purpose to try to classify cases of COVID-19 incidence using wearable device data? Or prevalence, or both?\n2. What are the other project objectives (if any)?",
        "user": "US5J9BX0S",
        "ts": "1584215653.004100",
        "team": "TUU48M0T1",
        "user_team": "T48QEEVTJ",
        "source_team": "T48QEEVTJ",
        "user_profile": {
            "avatar_hash": "d095530d9f8a",
            "image_72": "https:\/\/avatars.slack-edge.com\/2020-01-10\/902417618453_d095530d9f8af5c16607_72.jpg",
            "first_name": "Eric",
            "real_name": "Eric J. Daza, DrPH, MPS",
            "display_name": "Eric J. Daza",
            "team": "T48QEEVTJ",
            "name": "ericjdaza013",
            "is_restricted": false,
            "is_ultra_restricted": false
        },
        "edited": {
            "user": "US5J9BX0S",
            "ts": "1584216664.000000"
        },
        "blocks": [
            {
                "type": "rich_text",
                "block_id": "DO43",
                "elements": [
                    {
                        "type": "rich_text_section",
                        "elements": [
                            {
                                "type": "text",
                                "text": "Questions for y'all:\n1. Is this project's main purpose to try to classify cases of COVID-19 incidence using wearable device data? Or prevalence, or both?\n2. What are the other project objectives (if any)?"
                            }
                        ]
                    }
                ]
            }
        ]
    },
    {
        "client_msg_id": "F6A07519-3CE9-42E9-8EB4-199EA1432EAE",
        "type": "message",
        "text": "I’d say it’s in the first place to see if there is any stable signal in HR and\/or temperature data that precedes sickness ",
        "user": "U52KBSW9X",
        "ts": "1584228614.005700",
        "team": "TUU48M0T1",
        "user_team": "T48QEEVTJ",
        "source_team": "T48QEEVTJ",
        "user_profile": {
            "avatar_hash": "079d4f4301af",
            "image_72": "https:\/\/avatars.slack-edge.com\/2019-07-28\/696974040114_079d4f4301af057e28c1_72.jpg",
            "first_name": "Bastian",
            "real_name": "Bastian Greshake Tzovaras",
            "display_name": "gedankenstuecke",
            "team": "T48QEEVTJ",
            "name": "gedankenstuecke",
            "is_restricted": false,
            "is_ultra_restricted": false
        },
        "blocks": [
            {
                "type": "rich_text",
                "block_id": "cHQ",
                "elements": [
                    {
                        "type": "rich_text_section",
                        "elements": [
                            {
                                "type": "text",
                                "text": "I’d say it’s in the first place to see if there is any stable signal in HR and\/or temperature data that precedes sickness "
                            }
                        ]
                    }
                ]
            }
        ],
        "thread_ts": "1584228614.005700",
        "reply_count": 1,
        "reply_users_count": 1,
        "latest_reply": "1584256694.000200",
        "reply_users": [
            "US5J9BX0S"
        ],
        "replies": [
            {
                "user": "US5J9BX0S",
                "ts": "1584256694.000200"
            }
        ],
        "subscribed": false,
        "reactions": [
            {
                "name": "+1::skin-tone-5",
                "users": [
                    "US5J9BX0S"
                ],
                "count": 1
            },
            {
                "name": "+1",
                "users": [
                    "USBSKSF4Z"
                ],
                "count": 1
            }
        ]
    },
    {
        "type": "message",
        "subtype": "channel_join",
        "ts": "1584228656.005900",
        "user": "U9GTT5PNW",
        "text": "<@U9GTT5PNW> has joined the channel"
    },
    {
        "client_msg_id": "e811a5f9-9c47-4b05-a232-c958ed6627b0",
        "type": "message",
        "text": "<https:\/\/perjantaikokki.fi\/2020\/03\/14\/greetings-from-a-corona-positive-patient-from-quarantine\/>",
        "user": "U9GTT5PNW",
        "ts": "1584228674.006100",
        "team": "TUU48M0T1",
        "user_team": "T48QEEVTJ",
        "source_team": "T48QEEVTJ",
        "user_profile": {
            "avatar_hash": "g010a3fb80c5",
            "image_72": "https:\/\/secure.gravatar.com\/avatar\/1010a3fb80c53adf520d5cb1dd82ad8f.jpg?s=72&d=https%3A%2F%2Fa.slack-edge.com%2Fdf10d%2Fimg%2Favatars%2Fava_0026-72.png",
            "first_name": "",
            "real_name": "Paul-Olivier Dehaye",
            "display_name": "",
            "team": "T48QEEVTJ",
            "name": "paulolivier",
            "is_restricted": false,
            "is_ultra_restricted": false
        },
        "attachments": [
            {
                "service_name": "Perjantaikokin blogi",
                "service_url": "http:\/\/perjantaikokki.fi",
                "title": "Greetings from a corona positive patient from quarantine!",
                "title_link": "https:\/\/perjantaikokki.fi\/2020\/03\/14\/greetings-from-a-corona-positive-patient-from-quarantine\/",
                "author_name": "Petri Hollmén",
                "author_link": "https:\/\/perjantaikokki.fi\/author\/perjantaikokki\/",
                "thumb_url": "https:\/\/perjantaikokki.files.wordpress.com\/2020\/03\/img_2769.jpg?fit=200%2C150",
                "thumb_width": 113,
                "thumb_height": 150,
                "text": "Rumours spread faster than a virus. If you want to publish something, tell it as a secret to someone. Since all the rumours are not true, I&rsquo;d like to tell my story (even though many told me not to. This corona seems to be a bit of a tabu at the moment). I&rsquo;d like to tell the story, because there is a lot of missunderstanding and fake believes around the virus.\n\n\n\nOur dog Miisa loves that we are all with her 24\/7Yes, I have been diagnosed with coronavirus on the 12th of March 2020. I got it either from Tyrol, Austria during the weekend or from Stockholm on Tuesday. I would guess Austria, since that seems to be a home for many infections found around Europe.\n\n\n\nFirst of all, don&rsquo;t worry about us, me and my family are doing perfectly fine. Even better than expected. We are basically symptom-free &ndash; at least at the moment.\n\n\n\nThis is how it all started.\n\n\n\nOn Thursday, 5th of March I travelled from Turku to Z&uuml;rich (via Helsinki-Vantaa) and from there to St. Anton, Tyrol area Austria. Yes, Italy was already an epidemic area, but Tyrol had like 14 cases on the day I left there. At that time, Helsinki had much more cases. I considered it as a safe trip.\n\n\n\nI took a bottle of hand sanitizer with me, used it a lot and washed my hands like never before.\n\n\n\nIn Austria, I didn&rsquo;t see anybody coughing or sneezing around me.\n\n\n\nI returned to Finland on Sunday evening and went back home and on Monday morning to our office. I had no symptoms what so ever.\n\n\n\nOn Monday evening I flew to Stockholm to our local office and again paid a lot of attention to hand hygiene. On Tuesday morning, instead of using the subway, we walked through the beautiful city with my colleague. It took us an hour and the city seemed to be full of pedestrians on their way to work. I flew back to Turku on Tuesday evening. Empty airport and empty planes.\n\n\n\nOn Monday evening I also learned that Tyrol was declared as an epidemic area. I was puzzled, since the amount of cases in Tyrol seemed stable. At some point I noticed news about a bar in Ischgl, where many cases were traced back. I was not concerned, since that was some 50 kilometres from our village.\n\n\n\nAfter returning again to Finland, I decided together with our HR director and chairman of the board that I&rsquo;ll go for the self-quarantine, since I was returning from an epidemic area. I did this, even though Tyrol was declared to be an epidemic area only after I left the area. So, on Wednesday I worked remotely and didn&rsquo;t leave my house.\n\n\n\nOn Thursday the 12th of March I woke up feeling my self quite normal. I opened up my Oura app (the ring that monitors my sleep, breathing, body temperature etc) and got surprised how low my &rdquo;readiness&rdquo; was. For all Oura users, my readiness was 54 as it normally is around 80-90 and the reason for this was my elevated body temperature. I had +1c compared to normal, so you could say that I &rdquo;almost had fever&rdquo;.\n\n\n\nI decided to call the local authorities anyway and tell about the mild temperature and about being in Tyrol area. I felt a bit shamed to do that, since I felt perfectly fine. They hesitated about testing, since I had no other symptoms, but decided to do the test anyway. I was tested in TYKS (Turku University Hospital) in the morning by a lady in a space suit. Really quick and pleasant experience, if you like 15 cm long cotton sticks stuffed in your nose&hellip; After the test I returned back home, where the rest of my family was also self-quarantined.\n\n\n\nThe results came in the late afternoon and the test was found positive. I was interviewed about my locations and travelling in Tyrol and after that. Official advise was that everyone I met 24 hours before the symptoms started are considered as &rdquo;close contacts.&rdquo; In my case this means everybody I spent more time than 15 minutes at the same space during Wednesday the 11th of March. Luckily I was self quarantined during that day and my close contacts (people who are considered with higher risk of getting the virus) are only my wife and kids. And we all have been at home since yesterday morning.\n\n\n\nGood news &ndash; and also bad news &ndash; is that for me, and many others that I know getting the infection, this seems to be really a mild version of the virus. Or at least it is for us, forty something year olds. In any other given date with such a mild temperature rise (and normal temperature again in the morning) and good feeling in general, I think 95% of the people would go to work and continue living as they always have been. Without the ring measuring my body during the night, I would not even had known about the temperature rise. I measured my temperature several times during the following day and it always came back with 36,5c. This makes this flu to spread &ndash; you might not even recognise it.\n\n\n\nOn Thursday and Friday I heard news from many others that I met on my trip also getting the (mild) symptoms and many were tested positive in their home countries. I checked the official stats in Finland: 110 cases. Only I knew 10% more cases to that number so I figured out that a true number have to be many times bigger.\n\n\n\nI do not know how many others have returned from Italy or Austrian side of Tyrol during the last month with only very mild symptoms or no symptoms at all and are going around spreading the corona, but they must be hundreds.\n\n\n\nI don&rsquo;t feel proud to be the first person in my city being infected by this virus. I keep thinking what I could have done in order to avoid this. I followed the official travel instructions, used a lot of hand sanitizer, washed my hands like never before and avoided touching my face. It is easy to say afterwards that you should&rsquo;ve just stayed at home and not travel at all. That is true, but on the other hand, predicting the future is possible only afterwards and that attitude would also make my job pretty hard to do (although in Austria I was for a vacation). I&rsquo;m glad though that I self-quarantined myself and did not come to our Turku office on Wednesday. If I would&rsquo;ve been there, the number of affected people would have been several times higher. Although making this decision on Wednesday felt a bit overreacting, it was the right one to do.\n\n\n\nAbout my health\n\n\n\nLike mentioned, I feel almost like normal (if I ever have been one). Last night I had +0,6c body temperature (measured by Oura) and these are the only symptoms I have. My wife and daughter had some very mild symptoms of sore throat and our boys have nothing. I hope it goes by like this. We are now quarantined for 14 days at least, but it&rsquo;s a smallest thing we can do. I do not wan&rsquo;t to go around and cause maybe huge health issues to people belonging to risk groups. But the problem with this virus is, that it gives so mild symptoms to so many. And many neglect even clear symptoms thinking that what ever they planned to do today is more important than life of an old lady next door. Or it&rsquo;s more important than our health care system&rsquo;s ability to treat the ones needing help.\n\n\n\nMy message is that do not panic, pay attention to social distance and hand hygiene but most of all: don&rsquo;t be a self centered prick. If you have even the smallest symptoms, stay at home. Do not go out and meet people in risk categories. You don&rsquo;t know by the age, face or any other thing who will get a bad version of this virus.\n\n\n\nAnd for the closure, this virus does not blow up your ass, so there is no need to buy 100 toilet paper rolls for two week quarantine!\n\n\n\nLet&rsquo;s fight this one together!\n\n\n\nPetri\n\n\n\nPs. I originally posted this in Facebook, but due to feedback, I decided to share it publicly on my blog.",
                "fallback": "Perjantaikokin blogi Link: Greetings from a corona positive patient from&nbsp;quarantine!",
                "from_url": "https:\/\/perjantaikokki.fi\/2020\/03\/14\/greetings-from-a-corona-positive-patient-from-quarantine\/",
                "service_icon": "https:\/\/s2.wp.com\/i\/webclip.png",
                "id": 1,
                "original_url": "https:\/\/perjantaikokki.fi\/2020\/03\/14\/greetings-from-a-corona-positive-patient-from-quarantine\/"
            }
        ],
        "blocks": [
            {
                "type": "rich_text",
                "block_id": "gy\/c",
                "elements": [
                    {
                        "type": "rich_text_section",
                        "elements": [
                            {
                                "type": "link",
                                "url": "https:\/\/perjantaikokki.fi\/2020\/03\/14\/greetings-from-a-corona-positive-patient-from-quarantine\/"
                            }
                        ]
                    }
                ]
            }
        ],
        "reactions": [
            {
                "name": "+1::skin-tone-5",
                "users": [
                    "US5J9BX0S"
                ],
                "count": 1
            }
        ]
    },
    {
        "client_msg_id": "c9c386a7-1c35-4922-a410-2fe7e69f3616",
        "type": "message",
        "text": "Oura is a finnish company, the MyData folks have good links to them too",
        "user": "U9GTT5PNW",
        "ts": "1584228796.006600",
        "team": "TUU48M0T1",
        "user_team": "T48QEEVTJ",
        "source_team": "T48QEEVTJ",
        "user_profile": {
            "avatar_hash": "g010a3fb80c5",
            "image_72": "https:\/\/secure.gravatar.com\/avatar\/1010a3fb80c53adf520d5cb1dd82ad8f.jpg?s=72&d=https%3A%2F%2Fa.slack-edge.com%2Fdf10d%2Fimg%2Favatars%2Fava_0026-72.png",
            "first_name": "",
            "real_name": "Paul-Olivier Dehaye",
            "display_name": "",
            "team": "T48QEEVTJ",
            "name": "paulolivier",
            "is_restricted": false,
            "is_ultra_restricted": false
        },
        "blocks": [
            {
                "type": "rich_text",
                "block_id": "2e7ON",
                "elements": [
                    {
                        "type": "rich_text_section",
                        "elements": [
                            {
                                "type": "text",
                                "text": "Oura is a finnish company, the MyData folks have good links to them too"
                            }
                        ]
                    }
                ]
            }
        ]
    }
]