[
    {
        "type": "message",
        "subtype": "channel_join",
        "ts": "1584611454.009500",
        "user": "UV85V64SD",
        "text": "<@UV85V64SD> has joined the channel",
        "team": "TUU48M0T1",
        "inviter": "U52KBSW9X"
    },
    {
        "type": "message",
        "subtype": "bot_message",
        "text": "This channel’s now shared between *Open Humans Community* and *OpenCOVID19 Initiative*. It works just like any other channel, except better — because here, there are two teams working together.",
        "ts": "1584611455.009600",
        "user": "USLACKBOT",
        "username": "slackbot",
        "team": "TUU48M0T1"
    },
    {
        "client_msg_id": "97d97de0-b145-43a6-bb5e-8d677cdb123b",
        "type": "message",
        "text": "Yay! thanks <@UV85V64SD> (you now have 3 different entry points to this slack, also with <@UB2072NJV> and <@U9DKGBDJT> :joy:)!",
        "user": "U52KBSW9X",
        "ts": "1584611505.010400",
        "team": "TUU48M0T1",
        "user_team": "T48QEEVTJ",
        "source_team": "T48QEEVTJ",
        "user_profile": {
            "avatar_hash": "079d4f4301af",
            "image_72": "https:\/\/avatars.slack-edge.com\/2019-07-28\/696974040114_079d4f4301af057e28c1_72.jpg",
            "first_name": "Bastian",
            "real_name": "Bastian Greshake Tzovaras",
            "display_name": "gedankenstuecke",
            "team": "T48QEEVTJ",
            "name": "gedankenstuecke",
            "is_restricted": false,
            "is_ultra_restricted": false
        },
        "blocks": [
            {
                "type": "rich_text",
                "block_id": "gjiJL",
                "elements": [
                    {
                        "type": "rich_text_section",
                        "elements": [
                            {
                                "type": "text",
                                "text": "Yay! thanks "
                            },
                            {
                                "type": "user",
                                "user_id": "UV85V64SD"
                            },
                            {
                                "type": "text",
                                "text": " (you now have 3 different entry points to this slack, also with "
                            },
                            {
                                "type": "user",
                                "user_id": "UB2072NJV"
                            },
                            {
                                "type": "text",
                                "text": " and "
                            },
                            {
                                "type": "user",
                                "user_id": "U9DKGBDJT"
                            },
                            {
                                "type": "text",
                                "text": " "
                            },
                            {
                                "type": "emoji",
                                "name": "joy"
                            },
                            {
                                "type": "text",
                                "text": ")!"
                            }
                        ]
                    }
                ]
            }
        ],
        "thread_ts": "1584611505.010400",
        "reply_count": 1,
        "reply_users_count": 1,
        "latest_reply": "1584618147.016100",
        "reply_users": [
            "UV85V64SD"
        ],
        "replies": [
            {
                "user": "UV85V64SD",
                "ts": "1584618147.016100"
            }
        ],
        "subscribed": false,
        "reactions": [
            {
                "name": "joy",
                "users": [
                    "U4A6D8F6J"
                ],
                "count": 1
            }
        ]
    },
    {
        "client_msg_id": "3906c8c6-6231-4231-9ea8-fd9075b9e2a9",
        "type": "message",
        "text": "I’m currently drafting a project description for <#CV5USP9BP|quantifiedflu> on JOGL and they also have a slack specific for their COVID19 program, which has tons of interested people. So hopefully there’s some potential to collaborate :slightly_smiling_face:",
        "user": "U52KBSW9X",
        "ts": "1584611716.011200",
        "team": "TUU48M0T1",
        "user_team": "T48QEEVTJ",
        "source_team": "T48QEEVTJ",
        "user_profile": {
            "avatar_hash": "079d4f4301af",
            "image_72": "https:\/\/avatars.slack-edge.com\/2019-07-28\/696974040114_079d4f4301af057e28c1_72.jpg",
            "first_name": "Bastian",
            "real_name": "Bastian Greshake Tzovaras",
            "display_name": "gedankenstuecke",
            "team": "T48QEEVTJ",
            "name": "gedankenstuecke",
            "is_restricted": false,
            "is_ultra_restricted": false
        },
        "blocks": [
            {
                "type": "rich_text",
                "block_id": "ySr",
                "elements": [
                    {
                        "type": "rich_text_section",
                        "elements": [
                            {
                                "type": "text",
                                "text": "I’m currently drafting a project description for "
                            },
                            {
                                "type": "channel",
                                "channel_id": "CV5USP9BP"
                            },
                            {
                                "type": "text",
                                "text": " on JOGL and they also have a slack specific for their COVID19 program, which has tons of interested people. So hopefully there’s some potential to collaborate "
                            },
                            {
                                "type": "emoji",
                                "name": "slightly_smiling_face"
                            }
                        ]
                    }
                ]
            }
        ]
    },
    {
        "client_msg_id": "dd7d32ff-6450-4726-9448-54de4e97d8d2",
        "type": "message",
        "text": "and here’s the JOGL project description: <https:\/\/app.jogl.io\/project\/135?success=1#about>",
        "user": "U52KBSW9X",
        "ts": "1584612668.011800",
        "team": "TUU48M0T1",
        "user_team": "T48QEEVTJ",
        "source_team": "T48QEEVTJ",
        "user_profile": {
            "avatar_hash": "079d4f4301af",
            "image_72": "https:\/\/avatars.slack-edge.com\/2019-07-28\/696974040114_079d4f4301af057e28c1_72.jpg",
            "first_name": "Bastian",
            "real_name": "Bastian Greshake Tzovaras",
            "display_name": "gedankenstuecke",
            "team": "T48QEEVTJ",
            "name": "gedankenstuecke",
            "is_restricted": false,
            "is_ultra_restricted": false
        },
        "attachments": [
            {
                "title": "JOGL - Just One Giant Lab",
                "title_link": "https:\/\/app.jogl.io\/project\/135?success=1#about",
                "text": "JOGL helps sync humanity onto solving our most important social &amp; environmental problems using open science, responsible innovation &amp; continuous learning.",
                "fallback": "JOGL - Just One Giant Lab",
                "thumb_url": "https:\/\/app.jogl.io\/planet.jpg",
                "from_url": "https:\/\/app.jogl.io\/project\/135?success=1#about",
                "thumb_width": 2049,
                "thumb_height": 1011,
                "service_icon": "https:\/\/app.jogl.io\/favicon.ico",
                "service_name": "app.jogl.io",
                "id": 1,
                "original_url": "https:\/\/app.jogl.io\/project\/135?success=1#about"
            }
        ],
        "blocks": [
            {
                "type": "rich_text",
                "block_id": "fxF95",
                "elements": [
                    {
                        "type": "rich_text_section",
                        "elements": [
                            {
                                "type": "text",
                                "text": "and here’s the JOGL project description: "
                            },
                            {
                                "type": "link",
                                "url": "https:\/\/app.jogl.io\/project\/135?success=1#about"
                            }
                        ]
                    }
                ]
            }
        ]
    },
    {
        "type": "message",
        "subtype": "channel_join",
        "ts": "1584613240.012600",
        "user": "UVCDJN550",
        "text": "<@UVCDJN550> has joined the channel",
        "team": "TUU48M0T1"
    },
    {
        "type": "message",
        "subtype": "channel_topic",
        "ts": "1584613342.013600",
        "user": "U52KBSW9X",
        "text": "<@U52KBSW9X> set the channel topic: Can wearables be used to predict when one is falling sick? Let’s try to do a group-research project using retrospective &amp; current data | Details @ <https:\/\/app.jogl.io\/project\/135#about> | Code @ <https:\/\/github.com\/madprime\/quantified-flu\/>",
        "topic": "Can wearables be used to predict when one is falling sick? Let’s try to do a group-research project using retrospective &amp; current data | Details @ <https:\/\/app.jogl.io\/project\/135#about> | Code @ <https:\/\/github.com\/madprime\/quantified-flu\/>",
        "team": "TUU48M0T1",
        "user_team": "T48QEEVTJ",
        "source_team": "T48QEEVTJ",
        "user_profile": {
            "avatar_hash": "079d4f4301af",
            "image_72": "https:\/\/avatars.slack-edge.com\/2019-07-28\/696974040114_079d4f4301af057e28c1_72.jpg",
            "first_name": "Bastian",
            "real_name": "Bastian Greshake Tzovaras",
            "display_name": "gedankenstuecke",
            "team": "T48QEEVTJ",
            "name": "gedankenstuecke",
            "is_restricted": false,
            "is_ultra_restricted": false
        }
    },
    {
        "client_msg_id": "58564208-16b8-4adc-b6ff-79860568309f",
        "type": "message",
        "text": "dear All, there is\n“Home Testing of Respiratory Illness Study’ with Fitbit-connection + daily “check-in” emails and some kind of flu kit (saliva?) when sick.\nby Evidation Health and guess who is a co-PI! <@U6QB2M5BN> Ernesto Ramirez :slightly_smiling_face:\nClinical Trial <https:\/\/clinicaltrials.gov\/ct2\/show\/NCT04245800>\nStudy page:   <https:\/\/fluathome.org\/>\n\nDaily checkin as below…",
        "user": "USBSKSF4Z",
        "ts": "1584613543.014500",
        "team": "TUU48M0T1",
        "user_team": "T48QEEVTJ",
        "source_team": "T48QEEVTJ",
        "user_profile": {
            "avatar_hash": "gcc1033b90b2",
            "image_72": "https:\/\/secure.gravatar.com\/avatar\/cc1033b90b28be17d8557f5b753dc2ec.jpg?s=72&d=https%3A%2F%2Fa.slack-edge.com%2Fdf10d%2Fimg%2Favatars%2Fava_0015-72.png",
            "first_name": "",
            "real_name": "Katarzyna Wac",
            "display_name": "Katarzyna Wac",
            "team": "T48QEEVTJ",
            "name": "katarzyna.wac",
            "is_restricted": false,
            "is_ultra_restricted": false
        },
        "attachments": [
            {
                "title": "Home Testing of Respiratory Illness - Full Text View - ClinicalTrials.gov",
                "title_link": "https:\/\/clinicaltrials.gov\/ct2\/show\/NCT04245800",
                "text": "Home Testing of Respiratory Illness - Full Text View.",
                "fallback": "Home Testing of Respiratory Illness - Full Text View - ClinicalTrials.gov",
                "image_url": "https:\/\/clinicaltrials.gov\/ct2\/html\/images\/ct.gov-nlm-nih-logo.png",
                "from_url": "https:\/\/clinicaltrials.gov\/ct2\/show\/NCT04245800",
                "image_width": 286,
                "image_height": 73,
                "image_bytes": 11855,
                "service_icon": "https:\/\/clinicaltrials.gov\/ct2\/html\/images\/favicon.ico",
                "service_name": "clinicaltrials.gov",
                "id": 1,
                "original_url": "https:\/\/clinicaltrials.gov\/ct2\/show\/NCT04245800"
            }
        ],
        "blocks": [
            {
                "type": "rich_text",
                "block_id": "fY1",
                "elements": [
                    {
                        "type": "rich_text_section",
                        "elements": [
                            {
                                "type": "text",
                                "text": "dear All, there is\n“Home Testing of Respiratory Illness Study’ with Fitbit-connection + daily “check-in” emails and some kind of flu kit (saliva?) when sick.\nby Evidation Health and guess who is a co-PI! "
                            },
                            {
                                "type": "user",
                                "user_id": "U6QB2M5BN"
                            },
                            {
                                "type": "text",
                                "text": " Ernesto Ramirez "
                            },
                            {
                                "type": "emoji",
                                "name": "slightly_smiling_face"
                            },
                            {
                                "type": "text",
                                "text": "\nClinical Trial "
                            },
                            {
                                "type": "link",
                                "url": "https:\/\/clinicaltrials.gov\/ct2\/show\/NCT04245800"
                            },
                            {
                                "type": "text",
                                "text": "\nStudy page:   "
                            },
                            {
                                "type": "link",
                                "url": "https:\/\/fluathome.org\/"
                            },
                            {
                                "type": "text",
                                "text": "\n\nDaily checkin as below…"
                            }
                        ]
                    }
                ]
            }
        ]
    },
    {
        "type": "message",
        "subtype": "channel_join",
        "ts": "1584613562.014800",
        "user": "U6QB2M5BN",
        "text": "<@U6QB2M5BN> has joined the channel",
        "team": "TUU48M0T1",
        "inviter": "USBSKSF4Z"
    },
    {
        "type": "message",
        "text": "Home Testing Respiratory Illness daily check-in email (the table on the right is a bad copy-paste…)",
        "files": [
            {
                "id": "F010AS6C0R2",
                "created": 1584613685,
                "timestamp": 1584613685,
                "name": "Screenshot 2020-03-19 at 11.27.19 .png",
                "title": "Screenshot 2020-03-19 at 11.27.19 .png",
                "mimetype": "image\/png",
                "filetype": "png",
                "pretty_type": "PNG",
                "user": "USBSKSF4Z",
                "editable": false,
                "size": 340841,
                "mode": "hosted",
                "is_external": false,
                "external_type": "",
                "is_public": true,
                "public_url_shared": false,
                "display_as_bot": false,
                "username": "",
                "url_private": "https:\/\/files.slack.com\/files-pri\/T48QEEVTJ-F010AS6C0R2\/screenshot_2020-03-19_at_11.27.19_.png?t=xoxe-980144714919-1106606678066-1105227127893-6f722bb664235052954ad46852628b64",
                "url_private_download": "https:\/\/files.slack.com\/files-pri\/T48QEEVTJ-F010AS6C0R2\/download\/screenshot_2020-03-19_at_11.27.19_.png?t=xoxe-980144714919-1106606678066-1105227127893-6f722bb664235052954ad46852628b64",
                "thumb_64": "https:\/\/files.slack.com\/files-tmb\/T48QEEVTJ-F010AS6C0R2-802e5b42bb\/screenshot_2020-03-19_at_11.27.19__64.png?t=xoxe-980144714919-1106606678066-1105227127893-6f722bb664235052954ad46852628b64",
                "thumb_80": "https:\/\/files.slack.com\/files-tmb\/T48QEEVTJ-F010AS6C0R2-802e5b42bb\/screenshot_2020-03-19_at_11.27.19__80.png?t=xoxe-980144714919-1106606678066-1105227127893-6f722bb664235052954ad46852628b64",
                "thumb_360": "https:\/\/files.slack.com\/files-tmb\/T48QEEVTJ-F010AS6C0R2-802e5b42bb\/screenshot_2020-03-19_at_11.27.19__360.png?t=xoxe-980144714919-1106606678066-1105227127893-6f722bb664235052954ad46852628b64",
                "thumb_360_w": 360,
                "thumb_360_h": 276,
                "thumb_480": "https:\/\/files.slack.com\/files-tmb\/T48QEEVTJ-F010AS6C0R2-802e5b42bb\/screenshot_2020-03-19_at_11.27.19__480.png?t=xoxe-980144714919-1106606678066-1105227127893-6f722bb664235052954ad46852628b64",
                "thumb_480_w": 480,
                "thumb_480_h": 368,
                "thumb_160": "https:\/\/files.slack.com\/files-tmb\/T48QEEVTJ-F010AS6C0R2-802e5b42bb\/screenshot_2020-03-19_at_11.27.19__160.png?t=xoxe-980144714919-1106606678066-1105227127893-6f722bb664235052954ad46852628b64",
                "thumb_720": "https:\/\/files.slack.com\/files-tmb\/T48QEEVTJ-F010AS6C0R2-802e5b42bb\/screenshot_2020-03-19_at_11.27.19__720.png?t=xoxe-980144714919-1106606678066-1105227127893-6f722bb664235052954ad46852628b64",
                "thumb_720_w": 720,
                "thumb_720_h": 551,
                "thumb_800": "https:\/\/files.slack.com\/files-tmb\/T48QEEVTJ-F010AS6C0R2-802e5b42bb\/screenshot_2020-03-19_at_11.27.19__800.png?t=xoxe-980144714919-1106606678066-1105227127893-6f722bb664235052954ad46852628b64",
                "thumb_800_w": 800,
                "thumb_800_h": 613,
                "thumb_960": "https:\/\/files.slack.com\/files-tmb\/T48QEEVTJ-F010AS6C0R2-802e5b42bb\/screenshot_2020-03-19_at_11.27.19__960.png?t=xoxe-980144714919-1106606678066-1105227127893-6f722bb664235052954ad46852628b64",
                "thumb_960_w": 960,
                "thumb_960_h": 735,
                "thumb_1024": "https:\/\/files.slack.com\/files-tmb\/T48QEEVTJ-F010AS6C0R2-802e5b42bb\/screenshot_2020-03-19_at_11.27.19__1024.png?t=xoxe-980144714919-1106606678066-1105227127893-6f722bb664235052954ad46852628b64",
                "thumb_1024_w": 1024,
                "thumb_1024_h": 784,
                "image_exif_rotation": 1,
                "original_w": 1854,
                "original_h": 1420,
                "thumb_tiny": "AwAkADDTJApMimyKGAySPocUzyFLBvmz\/vGgCbqKbgU6kBoANtGCDx0ozRkZx3oAWiiigAPSkyP8ilpPxoAMj\/IoyP8AIo\/GjBznJoAWiiigAPSkxSnpRQAUUUUAf\/\/Z",
                "permalink": "https:\/\/openhumans.slack.com\/files\/USBSKSF4Z\/F010AS6C0R2\/screenshot_2020-03-19_at_11.27.19_.png",
                "permalink_public": "https:\/\/slack-files.com\/T48QEEVTJ-F010AS6C0R2-fc64744b9f",
                "user_team": "T48QEEVTJ",
                "source_team": "T48QEEVTJ",
                "is_starred": false,
                "has_rich_preview": false
            }
        ],
        "upload": true,
        "blocks": [
            {
                "type": "rich_text",
                "block_id": "r68Lr",
                "elements": [
                    {
                        "type": "rich_text_section",
                        "elements": [
                            {
                                "type": "text",
                                "text": "Home Testing Respiratory Illness daily check-in email (the table on the right is a bad copy-paste…)"
                            }
                        ]
                    }
                ]
            }
        ],
        "user": "USBSKSF4Z",
        "display_as_bot": false,
        "team": "TUU48M0T1",
        "ts": "1584613694.014900",
        "edited": {
            "user": "USBSKSF4Z",
            "ts": "1584613723.000000"
        },
        "client_msg_id": "666066f4-9afc-4121-820c-ea1c00f157c7",
        "user_team": "T48QEEVTJ",
        "source_team": "T48QEEVTJ",
        "user_profile": {
            "avatar_hash": "gcc1033b90b2",
            "image_72": "https:\/\/secure.gravatar.com\/avatar\/cc1033b90b28be17d8557f5b753dc2ec.jpg?s=72&d=https%3A%2F%2Fa.slack-edge.com%2Fdf10d%2Fimg%2Favatars%2Fava_0015-72.png",
            "first_name": "",
            "real_name": "Katarzyna Wac",
            "display_name": "Katarzyna Wac",
            "team": "T48QEEVTJ",
            "name": "katarzyna.wac",
            "is_restricted": false,
            "is_ultra_restricted": false
        }
    },
    {
        "client_msg_id": "2176d39a-1173-4e9d-a225-2e0a72f57a8b",
        "type": "message",
        "text": "oh, that’s amazing! I hope <@U6QB2M5BN> might be able to share some insights on this!",
        "user": "U52KBSW9X",
        "ts": "1584614462.015800",
        "team": "TUU48M0T1",
        "user_team": "T48QEEVTJ",
        "source_team": "T48QEEVTJ",
        "user_profile": {
            "avatar_hash": "079d4f4301af",
            "image_72": "https:\/\/avatars.slack-edge.com\/2019-07-28\/696974040114_079d4f4301af057e28c1_72.jpg",
            "first_name": "Bastian",
            "real_name": "Bastian Greshake Tzovaras",
            "display_name": "gedankenstuecke",
            "team": "T48QEEVTJ",
            "name": "gedankenstuecke",
            "is_restricted": false,
            "is_ultra_restricted": false
        },
        "blocks": [
            {
                "type": "rich_text",
                "block_id": "W++\/",
                "elements": [
                    {
                        "type": "rich_text_section",
                        "elements": [
                            {
                                "type": "text",
                                "text": "oh, that’s amazing! I hope "
                            },
                            {
                                "type": "user",
                                "user_id": "U6QB2M5BN"
                            },
                            {
                                "type": "text",
                                "text": " might be able to share some insights on this!"
                            }
                        ]
                    }
                ]
            }
        ]
    },
    {
        "client_msg_id": "a25301e8-6345-45be-8b83-e85b5809c2e1",
        "type": "message",
        "text": "hahaha amazing!",
        "user": "UV85V64SD",
        "ts": "1584618147.016100",
        "team": "TUU48M0T1",
        "user_team": "TUU48M0T1",
        "source_team": "TUU48M0T1",
        "user_profile": {
            "avatar_hash": "1e73a651bdfe",
            "image_72": "https:\/\/avatars.slack-edge.com\/2020-03-16\/1004297548853_1e73a651bdfef2c41501_72.jpg",
            "first_name": "Marc",
            "real_name": "Marc Santolini",
            "display_name": "Marc Santolini - JOGL CoFounder \/ CSO",
            "team": "TUU48M0T1",
            "name": "marc.santolini",
            "is_restricted": false,
            "is_ultra_restricted": false
        },
        "blocks": [
            {
                "type": "rich_text",
                "block_id": "Uuxs",
                "elements": [
                    {
                        "type": "rich_text_section",
                        "elements": [
                            {
                                "type": "text",
                                "text": "hahaha amazing!"
                            }
                        ]
                    }
                ]
            }
        ],
        "thread_ts": "1584611505.010400",
        "parent_user_id": "U52KBSW9X"
    },
    {
        "type": "message",
        "subtype": "channel_join",
        "ts": "1584629645.016400",
        "user": "U010BRWNGPP",
        "text": "<@U010BRWNGPP> has joined the channel",
        "team": "TUU48M0T1"
    },
    {
        "type": "message",
        "subtype": "channel_join",
        "ts": "1584631849.016600",
        "user": "UPGELJS3T",
        "text": "<@UPGELJS3T> has joined the channel",
        "team": "TUU48M0T1"
    },
    {
        "client_msg_id": "FED78C23-1F2B-4A0E-BDAB-47D8D55C88BE",
        "type": "message",
        "text": "<@U6QB2M5BN> gathering of the tribes... ! this looks like a group oriented study to generate evidence of HR elevation prediction of infection. Is that right?",
        "user": "U4EFEMFS9",
        "ts": "1584643133.018900",
        "team": "TUU48M0T1",
        "user_team": "T48QEEVTJ",
        "source_team": "T48QEEVTJ",
        "user_profile": {
            "avatar_hash": "g182c4ed7b70",
            "image_72": "https:\/\/secure.gravatar.com\/avatar\/f182c4ed7b704c54e3c1d1984585e2db.jpg?s=72&d=https%3A%2F%2Fa.slack-edge.com%2Fdf10d%2Fimg%2Favatars%2Fava_0002-72.png",
            "first_name": "Gary",
            "real_name": "Gary Wolf",
            "display_name": "agaricus",
            "team": "T48QEEVTJ",
            "name": "agaricus",
            "is_restricted": false,
            "is_ultra_restricted": false
        },
        "blocks": [
            {
                "type": "rich_text",
                "block_id": "l7UT",
                "elements": [
                    {
                        "type": "rich_text_section",
                        "elements": [
                            {
                                "type": "user",
                                "user_id": "U6QB2M5BN"
                            },
                            {
                                "type": "text",
                                "text": " gathering of the tribes... ! this looks like a group oriented study to generate evidence of HR elevation prediction of infection. Is that right?"
                            }
                        ]
                    }
                ]
            }
        ]
    }
]