[
    {
        "type": "message",
        "subtype": "channel_join",
        "ts": "1586357181.252400",
        "user": "U011YKGHLM6",
        "text": "<@U011YKGHLM6> has joined the channel",
        "team": "TUU48M0T1"
    },
    {
        "client_msg_id": "6fe2b41a-7553-4207-afc2-fe4fad59f9e6",
        "type": "message",
        "text": "<@U52KBSW9X> are you giving an update for the project?",
        "user": "UV02WET96",
        "ts": "1586365595.252800",
        "team": "TUU48M0T1",
        "user_team": "TUU48M0T1",
        "source_team": "TUU48M0T1",
        "user_profile": {
            "avatar_hash": "a99c74a194f8",
            "image_72": "https:\/\/avatars.slack-edge.com\/2020-03-07\/975708504851_a99c74a194f86715ca7d_72.png",
            "first_name": "Thomas",
            "real_name": "Thomas Landrain",
            "display_name": "Thomas Landrain - JOGL CoFounder \/ CEO",
            "team": "TUU48M0T1",
            "name": "thomas",
            "is_restricted": false,
            "is_ultra_restricted": false
        },
        "blocks": [
            {
                "type": "rich_text",
                "block_id": "Cbi7",
                "elements": [
                    {
                        "type": "rich_text_section",
                        "elements": [
                            {
                                "type": "user",
                                "user_id": "U52KBSW9X"
                            },
                            {
                                "type": "text",
                                "text": " are you giving an update for the project?"
                            }
                        ]
                    }
                ]
            }
        ]
    },
    {
        "client_msg_id": "e7a8ce53-04e8-414b-a5f5-5d76f4187e82",
        "type": "message",
        "text": "<@UV02WET96> yeah, i can give a quick update!",
        "user": "U52KBSW9X",
        "ts": "1586365639.253200",
        "team": "TUU48M0T1",
        "user_team": "T48QEEVTJ",
        "source_team": "T48QEEVTJ",
        "user_profile": {
            "avatar_hash": "079d4f4301af",
            "image_72": "https:\/\/avatars.slack-edge.com\/2019-07-28\/696974040114_079d4f4301af057e28c1_72.jpg",
            "first_name": "Bastian",
            "real_name": "Bastian Greshake Tzovaras",
            "display_name": "gedankenstuecke",
            "team": "T48QEEVTJ",
            "name": "gedankenstuecke",
            "is_restricted": false,
            "is_ultra_restricted": false
        },
        "blocks": [
            {
                "type": "rich_text",
                "block_id": "MQm",
                "elements": [
                    {
                        "type": "rich_text_section",
                        "elements": [
                            {
                                "type": "user",
                                "user_id": "UV02WET96"
                            },
                            {
                                "type": "text",
                                "text": " yeah, i can give a quick update!"
                            }
                        ]
                    }
                ]
            }
        ]
    },
    {
        "client_msg_id": "335f496a-792f-4c34-8b39-b3824ab6beba",
        "type": "message",
        "text": "great",
        "user": "UV02WET96",
        "ts": "1586365648.253400",
        "team": "TUU48M0T1",
        "user_team": "TUU48M0T1",
        "source_team": "TUU48M0T1",
        "user_profile": {
            "avatar_hash": "a99c74a194f8",
            "image_72": "https:\/\/avatars.slack-edge.com\/2020-03-07\/975708504851_a99c74a194f86715ca7d_72.png",
            "first_name": "Thomas",
            "real_name": "Thomas Landrain",
            "display_name": "Thomas Landrain - JOGL CoFounder \/ CEO",
            "team": "TUU48M0T1",
            "name": "thomas",
            "is_restricted": false,
            "is_ultra_restricted": false
        },
        "blocks": [
            {
                "type": "rich_text",
                "block_id": "um8",
                "elements": [
                    {
                        "type": "rich_text_section",
                        "elements": [
                            {
                                "type": "text",
                                "text": "great"
                            }
                        ]
                    }
                ]
            }
        ]
    },
    {
        "client_msg_id": "9fe2a0ac-be90-4ccc-8595-b941ca4bc431",
        "type": "message",
        "text": "thanks for the reminder <@UV02WET96> ! great community call!",
        "user": "U52KBSW9X",
        "ts": "1586368759.254000",
        "team": "TUU48M0T1",
        "user_team": "T48QEEVTJ",
        "source_team": "T48QEEVTJ",
        "user_profile": {
            "avatar_hash": "079d4f4301af",
            "image_72": "https:\/\/avatars.slack-edge.com\/2019-07-28\/696974040114_079d4f4301af057e28c1_72.jpg",
            "first_name": "Bastian",
            "real_name": "Bastian Greshake Tzovaras",
            "display_name": "gedankenstuecke",
            "team": "T48QEEVTJ",
            "name": "gedankenstuecke",
            "is_restricted": false,
            "is_ultra_restricted": false
        },
        "blocks": [
            {
                "type": "rich_text",
                "block_id": "9H=Z",
                "elements": [
                    {
                        "type": "rich_text_section",
                        "elements": [
                            {
                                "type": "text",
                                "text": "thanks for the reminder "
                            },
                            {
                                "type": "user",
                                "user_id": "UV02WET96"
                            },
                            {
                                "type": "text",
                                "text": " ! great community call!"
                            }
                        ]
                    }
                ]
            }
        ]
    },
    {
        "type": "message",
        "subtype": "channel_join",
        "ts": "1586381214.254200",
        "user": "U011H0RLVNJ",
        "text": "<@U011H0RLVNJ> has joined the channel",
        "team": "TUU48M0T1"
    }
]