[
    {
        "type": "message",
        "text": "Looks like we’re on to something ;)",
        "files": [
            {
                "id": "F010BQ2K6PK",
                "created": 1585044511,
                "timestamp": 1585044511,
                "name": "Image from iOS.png",
                "title": "Image from iOS",
                "mimetype": "image\/png",
                "filetype": "png",
                "pretty_type": "PNG",
                "user": "U52KBSW9X",
                "editable": false,
                "size": 4752925,
                "mode": "hosted",
                "is_external": false,
                "external_type": "",
                "is_public": true,
                "public_url_shared": false,
                "display_as_bot": false,
                "username": "",
                "url_private": "https:\/\/files.slack.com\/files-pri\/T48QEEVTJ-F010BQ2K6PK\/image_from_ios.png?t=xoxe-980144714919-1106606678066-1105227127893-6f722bb664235052954ad46852628b64",
                "url_private_download": "https:\/\/files.slack.com\/files-pri\/T48QEEVTJ-F010BQ2K6PK\/download\/image_from_ios.png?t=xoxe-980144714919-1106606678066-1105227127893-6f722bb664235052954ad46852628b64",
                "thumb_64": "https:\/\/files.slack.com\/files-tmb\/T48QEEVTJ-F010BQ2K6PK-74c63d3633\/image_from_ios_64.png?t=xoxe-980144714919-1106606678066-1105227127893-6f722bb664235052954ad46852628b64",
                "thumb_80": "https:\/\/files.slack.com\/files-tmb\/T48QEEVTJ-F010BQ2K6PK-74c63d3633\/image_from_ios_80.png?t=xoxe-980144714919-1106606678066-1105227127893-6f722bb664235052954ad46852628b64",
                "thumb_360": "https:\/\/files.slack.com\/files-tmb\/T48QEEVTJ-F010BQ2K6PK-74c63d3633\/image_from_ios_360.png?t=xoxe-980144714919-1106606678066-1105227127893-6f722bb664235052954ad46852628b64",
                "thumb_360_w": 166,
                "thumb_360_h": 360,
                "thumb_480": "https:\/\/files.slack.com\/files-tmb\/T48QEEVTJ-F010BQ2K6PK-74c63d3633\/image_from_ios_480.png?t=xoxe-980144714919-1106606678066-1105227127893-6f722bb664235052954ad46852628b64",
                "thumb_480_w": 222,
                "thumb_480_h": 480,
                "thumb_160": "https:\/\/files.slack.com\/files-tmb\/T48QEEVTJ-F010BQ2K6PK-74c63d3633\/image_from_ios_160.png?t=xoxe-980144714919-1106606678066-1105227127893-6f722bb664235052954ad46852628b64",
                "thumb_720": "https:\/\/files.slack.com\/files-tmb\/T48QEEVTJ-F010BQ2K6PK-74c63d3633\/image_from_ios_720.png?t=xoxe-980144714919-1106606678066-1105227127893-6f722bb664235052954ad46852628b64",
                "thumb_720_w": 333,
                "thumb_720_h": 720,
                "thumb_800": "https:\/\/files.slack.com\/files-tmb\/T48QEEVTJ-F010BQ2K6PK-74c63d3633\/image_from_ios_800.png?t=xoxe-980144714919-1106606678066-1105227127893-6f722bb664235052954ad46852628b64",
                "thumb_800_w": 800,
                "thumb_800_h": 1732,
                "thumb_960": "https:\/\/files.slack.com\/files-tmb\/T48QEEVTJ-F010BQ2K6PK-74c63d3633\/image_from_ios_960.png?t=xoxe-980144714919-1106606678066-1105227127893-6f722bb664235052954ad46852628b64",
                "thumb_960_w": 443,
                "thumb_960_h": 960,
                "thumb_1024": "https:\/\/files.slack.com\/files-tmb\/T48QEEVTJ-F010BQ2K6PK-74c63d3633\/image_from_ios_1024.png?t=xoxe-980144714919-1106606678066-1105227127893-6f722bb664235052954ad46852628b64",
                "thumb_1024_w": 473,
                "thumb_1024_h": 1024,
                "image_exif_rotation": 1,
                "original_w": 1125,
                "original_h": 2436,
                "thumb_tiny": "AwAwABaiaMcd6043AiTp90UFx7UybmZ2pKt3LZQfWq2aB3JllO0ADoPWpHuGK4MSj3AqFMbRT2OQPSgLEUkm4YxTM06TgdKZQFhwAxnJox7ml28AAmlCspzg0hjHXAB5x602pnkdowhb5Qc4FR49zQB\/\/9k=",
                "permalink": "https:\/\/openhumans.slack.com\/files\/U52KBSW9X\/F010BQ2K6PK\/image_from_ios.png",
                "permalink_public": "https:\/\/slack-files.com\/T48QEEVTJ-F010BQ2K6PK-976c2b2ff7",
                "user_team": "T48QEEVTJ",
                "source_team": "T48QEEVTJ",
                "is_starred": false,
                "has_rich_preview": false
            }
        ],
        "upload": true,
        "blocks": [
            {
                "type": "rich_text",
                "block_id": "D1p",
                "elements": [
                    {
                        "type": "rich_text_section",
                        "elements": [
                            {
                                "type": "text",
                                "text": "Looks like we’re on to something ;)"
                            }
                        ]
                    }
                ]
            }
        ],
        "user": "U52KBSW9X",
        "display_as_bot": false,
        "team": "TUU48M0T1",
        "ts": "1585044523.002100",
        "client_msg_id": "2B071A77-EFC2-4F52-ABEC-4017B96E8A02",
        "user_team": "T48QEEVTJ",
        "source_team": "T48QEEVTJ",
        "user_profile": {
            "avatar_hash": "079d4f4301af",
            "image_72": "https:\/\/avatars.slack-edge.com\/2019-07-28\/696974040114_079d4f4301af057e28c1_72.jpg",
            "first_name": "Bastian",
            "real_name": "Bastian Greshake Tzovaras",
            "display_name": "gedankenstuecke",
            "team": "T48QEEVTJ",
            "name": "gedankenstuecke",
            "is_restricted": false,
            "is_ultra_restricted": false
        },
        "thread_ts": "1585044523.002100",
        "reply_count": 2,
        "reply_users_count": 2,
        "latest_reply": "1585126449.004400",
        "reply_users": [
            "USBSKSF4Z",
            "U52KBSW9X"
        ],
        "replies": [
            {
                "user": "USBSKSF4Z",
                "ts": "1585125927.004100"
            },
            {
                "user": "U52KBSW9X",
                "ts": "1585126449.004400"
            }
        ],
        "subscribed": false,
        "reactions": [
            {
                "name": "heart_eyes",
                "users": [
                    "UPGELJS3T"
                ],
                "count": 1
            }
        ]
    },
    {
        "client_msg_id": "5aaf5f8a-bd4f-451e-922b-d1011020afe5",
        "type": "message",
        "text": "<!channel> and there we go folks! <@U4A6D8F6J> and I spent most of our day yesterday and today to wrap this one up into a usable prototype. Check out the first <https:\/\/quantifiedflu.org\/> version now :slightly_smiling_face:",
        "user": "U52KBSW9X",
        "ts": "1585073223.003800",
        "team": "TUU48M0T1",
        "user_team": "T48QEEVTJ",
        "source_team": "T48QEEVTJ",
        "user_profile": {
            "avatar_hash": "079d4f4301af",
            "image_72": "https:\/\/avatars.slack-edge.com\/2019-07-28\/696974040114_079d4f4301af057e28c1_72.jpg",
            "first_name": "Bastian",
            "real_name": "Bastian Greshake Tzovaras",
            "display_name": "gedankenstuecke",
            "team": "T48QEEVTJ",
            "name": "gedankenstuecke",
            "is_restricted": false,
            "is_ultra_restricted": false
        },
        "attachments": [
            {
                "title": "Quantified Flu",
                "title_link": "https:\/\/quantifiedflu.org\/",
                "text": "Quantified Flu is a project to explore personal tracking and infectious disease",
                "fallback": "Quantified Flu",
                "from_url": "https:\/\/quantifiedflu.org\/",
                "service_icon": "https:\/\/quantifiedflu.org\/static\/img\/favicon-32x32.ec5b54e60581.png",
                "service_name": "quantifiedflu.org",
                "id": 1,
                "original_url": "https:\/\/quantifiedflu.org\/"
            }
        ],
        "blocks": [
            {
                "type": "rich_text",
                "block_id": "q6Lwz",
                "elements": [
                    {
                        "type": "rich_text_section",
                        "elements": [
                            {
                                "type": "broadcast",
                                "range": "channel"
                            },
                            {
                                "type": "text",
                                "text": " and there we go folks! "
                            },
                            {
                                "type": "user",
                                "user_id": "U4A6D8F6J"
                            },
                            {
                                "type": "text",
                                "text": " and I spent most of our day yesterday and today to wrap this one up into a usable prototype. Check out the first "
                            },
                            {
                                "type": "link",
                                "url": "https:\/\/quantifiedflu.org\/"
                            },
                            {
                                "type": "text",
                                "text": " version now "
                            },
                            {
                                "type": "emoji",
                                "name": "slightly_smiling_face"
                            }
                        ]
                    }
                ]
            }
        ]
    },
    {
        "type": "message",
        "subtype": "channel_join",
        "ts": "1585074527.004200",
        "user": "UB7HCCZNH",
        "text": "<@UB7HCCZNH> has joined the channel",
        "team": "TUU48M0T1"
    },
    {
        "client_msg_id": "5fadcb3c-d5ff-4009-93ff-5af3b79d768d",
        "type": "message",
        "text": "<@U52KBSW9X> is the graph on the front page dynamic? if not, is that the one i saw the github issue about re: d3 and a loess fit?",
        "user": "U4AGJ7L87",
        "ts": "1585075666.005000",
        "team": "TUU48M0T1",
        "user_team": "T48QEEVTJ",
        "source_team": "T48QEEVTJ",
        "user_profile": {
            "avatar_hash": "g066561fa364",
            "image_72": "https:\/\/secure.gravatar.com\/avatar\/0066561fa3649531b915aba34caff0b8.jpg?s=72&d=https%3A%2F%2Fa.slack-edge.com%2Fdf10d%2Fimg%2Favatars%2Fava_0024-72.png",
            "first_name": "Beau",
            "real_name": "Beau Gunderson",
            "display_name": "beau",
            "team": "T48QEEVTJ",
            "name": "beau",
            "is_restricted": false,
            "is_ultra_restricted": false
        },
        "blocks": [
            {
                "type": "rich_text",
                "block_id": "1=C",
                "elements": [
                    {
                        "type": "rich_text_section",
                        "elements": [
                            {
                                "type": "user",
                                "user_id": "U52KBSW9X"
                            },
                            {
                                "type": "text",
                                "text": " is the graph on the front page dynamic? if not, is that the one i saw the github issue about re: d3 and a loess fit?"
                            }
                        ]
                    }
                ]
            }
        ]
    },
    {
        "client_msg_id": "d86a89b2-fecf-4b3c-bb25-5db60bc5dcf0",
        "type": "message",
        "text": "the graph on the front page is a screenshot, but actual graphs for users are rendered dynamically with the metricsgraphics.js library",
        "user": "U52KBSW9X",
        "ts": "1585075703.005800",
        "team": "TUU48M0T1",
        "user_team": "T48QEEVTJ",
        "source_team": "T48QEEVTJ",
        "user_profile": {
            "avatar_hash": "079d4f4301af",
            "image_72": "https:\/\/avatars.slack-edge.com\/2019-07-28\/696974040114_079d4f4301af057e28c1_72.jpg",
            "first_name": "Bastian",
            "real_name": "Bastian Greshake Tzovaras",
            "display_name": "gedankenstuecke",
            "team": "T48QEEVTJ",
            "name": "gedankenstuecke",
            "is_restricted": false,
            "is_ultra_restricted": false
        },
        "blocks": [
            {
                "type": "rich_text",
                "block_id": "\/GTiQ",
                "elements": [
                    {
                        "type": "rich_text_section",
                        "elements": [
                            {
                                "type": "text",
                                "text": "the graph on the front page is a screenshot, but actual graphs for users are rendered dynamically with the metricsgraphics.js library"
                            }
                        ]
                    }
                ]
            }
        ]
    },
    {
        "client_msg_id": "135ed7b5-915b-4738-bae0-bc76f28800e4",
        "type": "message",
        "text": "ahh",
        "user": "U4AGJ7L87",
        "ts": "1585075708.006100",
        "team": "TUU48M0T1",
        "user_team": "T48QEEVTJ",
        "source_team": "T48QEEVTJ",
        "user_profile": {
            "avatar_hash": "g066561fa364",
            "image_72": "https:\/\/secure.gravatar.com\/avatar\/0066561fa3649531b915aba34caff0b8.jpg?s=72&d=https%3A%2F%2Fa.slack-edge.com%2Fdf10d%2Fimg%2Favatars%2Fava_0024-72.png",
            "first_name": "Beau",
            "real_name": "Beau Gunderson",
            "display_name": "beau",
            "team": "T48QEEVTJ",
            "name": "beau",
            "is_restricted": false,
            "is_ultra_restricted": false
        },
        "blocks": [
            {
                "type": "rich_text",
                "block_id": "9J9u",
                "elements": [
                    {
                        "type": "rich_text_section",
                        "elements": [
                            {
                                "type": "text",
                                "text": "ahh"
                            }
                        ]
                    }
                ]
            }
        ]
    },
    {
        "client_msg_id": "d51cbdad-1ca0-4ff0-be09-7ea946b8b983",
        "type": "message",
        "text": "but yeah, i could not figure out how to get a loess fit implemented with metricsgraphics.js. So if someone would be willing to reimplement the visualization in d3 that would be amazing :smile:",
        "user": "U52KBSW9X",
        "ts": "1585075745.007000",
        "team": "TUU48M0T1",
        "user_team": "T48QEEVTJ",
        "source_team": "T48QEEVTJ",
        "user_profile": {
            "avatar_hash": "079d4f4301af",
            "image_72": "https:\/\/avatars.slack-edge.com\/2019-07-28\/696974040114_079d4f4301af057e28c1_72.jpg",
            "first_name": "Bastian",
            "real_name": "Bastian Greshake Tzovaras",
            "display_name": "gedankenstuecke",
            "team": "T48QEEVTJ",
            "name": "gedankenstuecke",
            "is_restricted": false,
            "is_ultra_restricted": false
        },
        "blocks": [
            {
                "type": "rich_text",
                "block_id": "0j6",
                "elements": [
                    {
                        "type": "rich_text_section",
                        "elements": [
                            {
                                "type": "text",
                                "text": "but yeah, i could not figure out how to get a loess fit implemented with metricsgraphics.js. So if someone would be willing to reimplement the visualization in d3 that would be amazing "
                            },
                            {
                                "type": "emoji",
                                "name": "smile"
                            }
                        ]
                    }
                ]
            }
        ]
    },
    {
        "client_msg_id": "1d8c987d-e826-4f80-b407-318da1db0eed",
        "type": "message",
        "text": "i would like to give it a try but i don't have an oura or a fitbit with heartbeat data (but i do have an apple watch with heartbeat data...); if someone wants to share their own data in the format that's currently the input to the metricsgraphics version i would be happy to take a stab at it :slightly_smiling_face:",
        "user": "U4AGJ7L87",
        "ts": "1585075828.008400",
        "team": "TUU48M0T1",
        "user_team": "T48QEEVTJ",
        "source_team": "T48QEEVTJ",
        "user_profile": {
            "avatar_hash": "g066561fa364",
            "image_72": "https:\/\/secure.gravatar.com\/avatar\/0066561fa3649531b915aba34caff0b8.jpg?s=72&d=https%3A%2F%2Fa.slack-edge.com%2Fdf10d%2Fimg%2Favatars%2Fava_0024-72.png",
            "first_name": "Beau",
            "real_name": "Beau Gunderson",
            "display_name": "beau",
            "team": "T48QEEVTJ",
            "name": "beau",
            "is_restricted": false,
            "is_ultra_restricted": false
        },
        "blocks": [
            {
                "type": "rich_text",
                "block_id": "VwJP",
                "elements": [
                    {
                        "type": "rich_text_section",
                        "elements": [
                            {
                                "type": "text",
                                "text": "i would like to give it a try but i don't have an oura or a fitbit with heartbeat data (but i do have an apple watch with heartbeat data...); if someone wants to share their own data in the format that's currently the input to the metricsgraphics version i would be happy to take a stab at it "
                            },
                            {
                                "type": "emoji",
                                "name": "slightly_smiling_face"
                            }
                        ]
                    }
                ]
            }
        ]
    },
    {
        "client_msg_id": "9a68ee2c-3562-4bba-88a1-3997861b9a3d",
        "type": "message",
        "text": "yep, very happy to!",
        "user": "U52KBSW9X",
        "ts": "1585075903.008600",
        "team": "TUU48M0T1",
        "user_team": "T48QEEVTJ",
        "source_team": "T48QEEVTJ",
        "user_profile": {
            "avatar_hash": "079d4f4301af",
            "image_72": "https:\/\/avatars.slack-edge.com\/2019-07-28\/696974040114_079d4f4301af057e28c1_72.jpg",
            "first_name": "Bastian",
            "real_name": "Bastian Greshake Tzovaras",
            "display_name": "gedankenstuecke",
            "team": "T48QEEVTJ",
            "name": "gedankenstuecke",
            "is_restricted": false,
            "is_ultra_restricted": false
        },
        "blocks": [
            {
                "type": "rich_text",
                "block_id": "sfB",
                "elements": [
                    {
                        "type": "rich_text_section",
                        "elements": [
                            {
                                "type": "text",
                                "text": "yep, very happy to!"
                            }
                        ]
                    }
                ]
            }
        ]
    },
    {
        "type": "message",
        "text": "Here’s the data that produces the static screenshot in the JSON format as it’s being taken in by metricsgraphics.js",
        "files": [
            {
                "id": "F010DB4BMPB",
                "created": 1585075993,
                "timestamp": 1585075993,
                "name": "oura_2018-12-31.json",
                "title": "oura_2018-12-31.json",
                "mimetype": "text\/plain",
                "filetype": "javascript",
                "pretty_type": "JavaScript\/JSON",
                "user": "U52KBSW9X",
                "editable": true,
                "size": 27,
                "mode": "snippet",
                "is_external": false,
                "external_type": "",
                "is_public": true,
                "public_url_shared": false,
                "display_as_bot": false,
                "username": "",
                "url_private": "https:\/\/files.slack.com\/files-pri\/T48QEEVTJ-F010DB4BMPB\/oura_2018-12-31.json?t=xoxe-980144714919-1106606678066-1105227127893-6f722bb664235052954ad46852628b64",
                "url_private_download": "https:\/\/files.slack.com\/files-pri\/T48QEEVTJ-F010DB4BMPB\/download\/oura_2018-12-31.json?t=xoxe-980144714919-1106606678066-1105227127893-6f722bb664235052954ad46852628b64",
                "permalink": "https:\/\/openhumans.slack.com\/files\/U52KBSW9X\/F010DB4BMPB\/oura_2018-12-31.json",
                "permalink_public": "https:\/\/slack-files.com\/T48QEEVTJ-F010DB4BMPB-7dad8db7dd",
                "edit_link": "https:\/\/openhumans.slack.com\/files\/U52KBSW9X\/F010DB4BMPB\/oura_2018-12-31.json\/edit",
                "user_team": "T48QEEVTJ",
                "source_team": "T48QEEVTJ",
                "is_starred": false,
                "has_rich_preview": false
            }
        ],
        "upload": true,
        "blocks": [
            {
                "type": "rich_text",
                "block_id": "RcUt",
                "elements": [
                    {
                        "type": "rich_text_section",
                        "elements": [
                            {
                                "type": "text",
                                "text": "Here’s the data that produces the static screenshot in the JSON format as it’s being taken in by metricsgraphics.js"
                            }
                        ]
                    }
                ]
            }
        ],
        "user": "U52KBSW9X",
        "display_as_bot": false,
        "team": "TUU48M0T1",
        "ts": "1585075994.008700",
        "client_msg_id": "262a7c02-62c8-4557-a27b-5d5ba21581c7",
        "user_team": "T48QEEVTJ",
        "source_team": "T48QEEVTJ",
        "user_profile": {
            "avatar_hash": "079d4f4301af",
            "image_72": "https:\/\/avatars.slack-edge.com\/2019-07-28\/696974040114_079d4f4301af057e28c1_72.jpg",
            "first_name": "Bastian",
            "real_name": "Bastian Greshake Tzovaras",
            "display_name": "gedankenstuecke",
            "team": "T48QEEVTJ",
            "name": "gedankenstuecke",
            "is_restricted": false,
            "is_ultra_restricted": false
        }
    },
    {
        "client_msg_id": "ab0ac8f6-01c2-4ccb-88ea-872a564a0be7",
        "type": "message",
        "text": "or not :smile:",
        "user": "U52KBSW9X",
        "ts": "1585076042.009200",
        "team": "TUU48M0T1",
        "user_team": "T48QEEVTJ",
        "source_team": "T48QEEVTJ",
        "user_profile": {
            "avatar_hash": "079d4f4301af",
            "image_72": "https:\/\/avatars.slack-edge.com\/2019-07-28\/696974040114_079d4f4301af057e28c1_72.jpg",
            "first_name": "Bastian",
            "real_name": "Bastian Greshake Tzovaras",
            "display_name": "gedankenstuecke",
            "team": "T48QEEVTJ",
            "name": "gedankenstuecke",
            "is_restricted": false,
            "is_ultra_restricted": false
        },
        "blocks": [
            {
                "type": "rich_text",
                "block_id": "qdE",
                "elements": [
                    {
                        "type": "rich_text_section",
                        "elements": [
                            {
                                "type": "text",
                                "text": "or not "
                            },
                            {
                                "type": "emoji",
                                "name": "smile"
                            }
                        ]
                    }
                ]
            }
        ]
    },
    {
        "client_msg_id": "9fb2601b-205d-441d-b6cf-37ec73f8e92b",
        "type": "message",
        "text": "haha oops",
        "user": "U4AGJ7L87",
        "ts": "1585076073.009400",
        "team": "TUU48M0T1",
        "user_team": "T48QEEVTJ",
        "source_team": "T48QEEVTJ",
        "user_profile": {
            "avatar_hash": "g066561fa364",
            "image_72": "https:\/\/secure.gravatar.com\/avatar\/0066561fa3649531b915aba34caff0b8.jpg?s=72&d=https%3A%2F%2Fa.slack-edge.com%2Fdf10d%2Fimg%2Favatars%2Fava_0024-72.png",
            "first_name": "Beau",
            "real_name": "Beau Gunderson",
            "display_name": "beau",
            "team": "T48QEEVTJ",
            "name": "beau",
            "is_restricted": false,
            "is_ultra_restricted": false
        },
        "blocks": [
            {
                "type": "rich_text",
                "block_id": "Sf9",
                "elements": [
                    {
                        "type": "rich_text_section",
                        "elements": [
                            {
                                "type": "text",
                                "text": "haha oops"
                            }
                        ]
                    }
                ]
            }
        ]
    },
    {
        "type": "message",
        "text": "here’s the actual data :wink:",
        "files": [
            {
                "id": "F010PCS7CEL",
                "created": 1585076074,
                "timestamp": 1585076074,
                "name": "oura_2018-12-31.json",
                "title": "oura_2018-12-31.json",
                "mimetype": "text\/plain",
                "filetype": "javascript",
                "pretty_type": "JavaScript\/JSON",
                "user": "U52KBSW9X",
                "editable": true,
                "size": 319258,
                "mode": "snippet",
                "is_external": false,
                "external_type": "",
                "is_public": true,
                "public_url_shared": false,
                "display_as_bot": false,
                "username": "",
                "url_private": "https:\/\/files.slack.com\/files-pri\/T48QEEVTJ-F010PCS7CEL\/oura_2018-12-31.json?t=xoxe-980144714919-1106606678066-1105227127893-6f722bb664235052954ad46852628b64",
                "url_private_download": "https:\/\/files.slack.com\/files-pri\/T48QEEVTJ-F010PCS7CEL\/download\/oura_2018-12-31.json?t=xoxe-980144714919-1106606678066-1105227127893-6f722bb664235052954ad46852628b64",
                "permalink": "https:\/\/openhumans.slack.com\/files\/U52KBSW9X\/F010PCS7CEL\/oura_2018-12-31.json",
                "permalink_public": "https:\/\/slack-files.com\/T48QEEVTJ-F010PCS7CEL-d783cf223f",
                "edit_link": "https:\/\/openhumans.slack.com\/files\/U52KBSW9X\/F010PCS7CEL\/oura_2018-12-31.json\/edit",
                "user_team": "T48QEEVTJ",
                "source_team": "T48QEEVTJ",
                "is_starred": false,
                "has_rich_preview": false
            }
        ],
        "upload": true,
        "blocks": [
            {
                "type": "rich_text",
                "block_id": "VXKI",
                "elements": [
                    {
                        "type": "rich_text_section",
                        "elements": [
                            {
                                "type": "text",
                                "text": "here’s the actual data "
                            },
                            {
                                "type": "emoji",
                                "name": "wink"
                            }
                        ]
                    }
                ]
            }
        ],
        "user": "U52KBSW9X",
        "display_as_bot": false,
        "team": "TUU48M0T1",
        "ts": "1585076076.009500",
        "client_msg_id": "8a6e7152-e1c0-41e8-abc5-eae19146bd60",
        "user_team": "T48QEEVTJ",
        "source_team": "T48QEEVTJ",
        "user_profile": {
            "avatar_hash": "079d4f4301af",
            "image_72": "https:\/\/avatars.slack-edge.com\/2019-07-28\/696974040114_079d4f4301af057e28c1_72.jpg",
            "first_name": "Bastian",
            "real_name": "Bastian Greshake Tzovaras",
            "display_name": "gedankenstuecke",
            "team": "T48QEEVTJ",
            "name": "gedankenstuecke",
            "is_restricted": false,
            "is_ultra_restricted": false
        }
    },
    {
        "client_msg_id": "fbf7aced-ab0a-45e7-84a6-7dfce5769cd5",
        "type": "message",
        "text": "awesome!",
        "user": "U4AGJ7L87",
        "ts": "1585076770.009900",
        "team": "TUU48M0T1",
        "user_team": "T48QEEVTJ",
        "source_team": "T48QEEVTJ",
        "user_profile": {
            "avatar_hash": "g066561fa364",
            "image_72": "https:\/\/secure.gravatar.com\/avatar\/0066561fa3649531b915aba34caff0b8.jpg?s=72&d=https%3A%2F%2Fa.slack-edge.com%2Fdf10d%2Fimg%2Favatars%2Fava_0024-72.png",
            "first_name": "Beau",
            "real_name": "Beau Gunderson",
            "display_name": "beau",
            "team": "T48QEEVTJ",
            "name": "beau",
            "is_restricted": false,
            "is_ultra_restricted": false
        },
        "blocks": [
            {
                "type": "rich_text",
                "block_id": "iCC",
                "elements": [
                    {
                        "type": "rich_text_section",
                        "elements": [
                            {
                                "type": "text",
                                "text": "awesome!"
                            }
                        ]
                    }
                ]
            }
        ]
    },
    {
        "client_msg_id": "57f1e52c-32c1-4245-9d52-f33e840e35f6",
        "type": "message",
        "text": "thanks for taking a look!",
        "user": "U52KBSW9X",
        "ts": "1585076905.010100",
        "team": "TUU48M0T1",
        "user_team": "T48QEEVTJ",
        "source_team": "T48QEEVTJ",
        "user_profile": {
            "avatar_hash": "079d4f4301af",
            "image_72": "https:\/\/avatars.slack-edge.com\/2019-07-28\/696974040114_079d4f4301af057e28c1_72.jpg",
            "first_name": "Bastian",
            "real_name": "Bastian Greshake Tzovaras",
            "display_name": "gedankenstuecke",
            "team": "T48QEEVTJ",
            "name": "gedankenstuecke",
            "is_restricted": false,
            "is_ultra_restricted": false
        },
        "blocks": [
            {
                "type": "rich_text",
                "block_id": "Htv0y",
                "elements": [
                    {
                        "type": "rich_text_section",
                        "elements": [
                            {
                                "type": "text",
                                "text": "thanks for taking a look!"
                            }
                        ]
                    }
                ]
            }
        ]
    },
    {
        "type": "message",
        "subtype": "channel_join",
        "ts": "1585079238.010600",
        "user": "U01050S7XPU",
        "text": "<@U01050S7XPU> has joined the channel",
        "team": "TUU48M0T1"
    },
    {
        "type": "message",
        "text": "",
        "files": [
            {
                "id": "F010CRT48TV",
                "created": 1585104515,
                "timestamp": 1585104515,
                "name": "image.png",
                "title": "image.png",
                "mimetype": "image\/png",
                "filetype": "png",
                "pretty_type": "PNG",
                "user": "U4AGJ7L87",
                "editable": false,
                "size": 65429,
                "mode": "hosted",
                "is_external": false,
                "external_type": "",
                "is_public": true,
                "public_url_shared": false,
                "display_as_bot": false,
                "username": "",
                "url_private": "https:\/\/files.slack.com\/files-pri\/T48QEEVTJ-F010CRT48TV\/image.png?t=xoxe-980144714919-1106606678066-1105227127893-6f722bb664235052954ad46852628b64",
                "url_private_download": "https:\/\/files.slack.com\/files-pri\/T48QEEVTJ-F010CRT48TV\/download\/image.png?t=xoxe-980144714919-1106606678066-1105227127893-6f722bb664235052954ad46852628b64",
                "thumb_64": "https:\/\/files.slack.com\/files-tmb\/T48QEEVTJ-F010CRT48TV-bbfefe7d9b\/image_64.png?t=xoxe-980144714919-1106606678066-1105227127893-6f722bb664235052954ad46852628b64",
                "thumb_80": "https:\/\/files.slack.com\/files-tmb\/T48QEEVTJ-F010CRT48TV-bbfefe7d9b\/image_80.png?t=xoxe-980144714919-1106606678066-1105227127893-6f722bb664235052954ad46852628b64",
                "thumb_360": "https:\/\/files.slack.com\/files-tmb\/T48QEEVTJ-F010CRT48TV-bbfefe7d9b\/image_360.png?t=xoxe-980144714919-1106606678066-1105227127893-6f722bb664235052954ad46852628b64",
                "thumb_360_w": 360,
                "thumb_360_h": 88,
                "thumb_480": "https:\/\/files.slack.com\/files-tmb\/T48QEEVTJ-F010CRT48TV-bbfefe7d9b\/image_480.png?t=xoxe-980144714919-1106606678066-1105227127893-6f722bb664235052954ad46852628b64",
                "thumb_480_w": 480,
                "thumb_480_h": 117,
                "thumb_160": "https:\/\/files.slack.com\/files-tmb\/T48QEEVTJ-F010CRT48TV-bbfefe7d9b\/image_160.png?t=xoxe-980144714919-1106606678066-1105227127893-6f722bb664235052954ad46852628b64",
                "thumb_720": "https:\/\/files.slack.com\/files-tmb\/T48QEEVTJ-F010CRT48TV-bbfefe7d9b\/image_720.png?t=xoxe-980144714919-1106606678066-1105227127893-6f722bb664235052954ad46852628b64",
                "thumb_720_w": 720,
                "thumb_720_h": 176,
                "thumb_800": "https:\/\/files.slack.com\/files-tmb\/T48QEEVTJ-F010CRT48TV-bbfefe7d9b\/image_800.png?t=xoxe-980144714919-1106606678066-1105227127893-6f722bb664235052954ad46852628b64",
                "thumb_800_w": 800,
                "thumb_800_h": 196,
                "thumb_960": "https:\/\/files.slack.com\/files-tmb\/T48QEEVTJ-F010CRT48TV-bbfefe7d9b\/image_960.png?t=xoxe-980144714919-1106606678066-1105227127893-6f722bb664235052954ad46852628b64",
                "thumb_960_w": 960,
                "thumb_960_h": 235,
                "thumb_1024": "https:\/\/files.slack.com\/files-tmb\/T48QEEVTJ-F010CRT48TV-bbfefe7d9b\/image_1024.png?t=xoxe-980144714919-1106606678066-1105227127893-6f722bb664235052954ad46852628b64",
                "thumb_1024_w": 1024,
                "thumb_1024_h": 251,
                "image_exif_rotation": 1,
                "original_w": 1279,
                "original_h": 313,
                "thumb_tiny": "AwALADDS3DFG4etJRmgBdw9aAwNJSZz1oAfketJuHam0uaAP\/9k=",
                "permalink": "https:\/\/openhumans.slack.com\/files\/U4AGJ7L87\/F010CRT48TV\/image.png",
                "permalink_public": "https:\/\/slack-files.com\/T48QEEVTJ-F010CRT48TV-0736e4d147",
                "user_team": "T48QEEVTJ",
                "source_team": "T48QEEVTJ",
                "is_starred": false,
                "has_rich_preview": false
            }
        ],
        "upload": true,
        "user": "U4AGJ7L87",
        "display_as_bot": false,
        "team": "TUU48M0T1",
        "ts": "1585104520.000100",
        "client_msg_id": "fc6c6c5c-d41e-474a-848d-5924aeeff668",
        "user_team": "T48QEEVTJ",
        "source_team": "T48QEEVTJ",
        "user_profile": {
            "avatar_hash": "g066561fa364",
            "image_72": "https:\/\/secure.gravatar.com\/avatar\/0066561fa3649531b915aba34caff0b8.jpg?s=72&d=https%3A%2F%2Fa.slack-edge.com%2Fdf10d%2Fimg%2Favatars%2Fava_0024-72.png",
            "first_name": "Beau",
            "real_name": "Beau Gunderson",
            "display_name": "beau",
            "team": "T48QEEVTJ",
            "name": "beau",
            "is_restricted": false,
            "is_ultra_restricted": false
        }
    },
    {
        "client_msg_id": "e944450e-be2e-4a69-a58b-ac43ea2cd5c7",
        "type": "message",
        "text": "<@U52KBSW9X> <https:\/\/github.com\/beaugunderson\/loess>",
        "user": "U4AGJ7L87",
        "ts": "1585104612.000500",
        "team": "TUU48M0T1",
        "user_team": "T48QEEVTJ",
        "source_team": "T48QEEVTJ",
        "user_profile": {
            "avatar_hash": "g066561fa364",
            "image_72": "https:\/\/secure.gravatar.com\/avatar\/0066561fa3649531b915aba34caff0b8.jpg?s=72&d=https%3A%2F%2Fa.slack-edge.com%2Fdf10d%2Fimg%2Favatars%2Fava_0024-72.png",
            "first_name": "Beau",
            "real_name": "Beau Gunderson",
            "display_name": "beau",
            "team": "T48QEEVTJ",
            "name": "beau",
            "is_restricted": false,
            "is_ultra_restricted": false
        },
        "blocks": [
            {
                "type": "rich_text",
                "block_id": "y3l",
                "elements": [
                    {
                        "type": "rich_text_section",
                        "elements": [
                            {
                                "type": "user",
                                "user_id": "U52KBSW9X"
                            },
                            {
                                "type": "text",
                                "text": " "
                            },
                            {
                                "type": "link",
                                "url": "https:\/\/github.com\/beaugunderson\/loess"
                            }
                        ]
                    }
                ]
            }
        ],
        "thread_ts": "1585104612.000500",
        "reply_count": 13,
        "reply_users_count": 2,
        "latest_reply": "1586945218.317800",
        "reply_users": [
            "U52KBSW9X",
            "U4AGJ7L87"
        ],
        "replies": [
            {
                "user": "U52KBSW9X",
                "ts": "1585125712.003800"
            },
            {
                "user": "U52KBSW9X",
                "ts": "1585135513.013800"
            },
            {
                "user": "U52KBSW9X",
                "ts": "1585326644.065600"
            },
            {
                "user": "U4AGJ7L87",
                "ts": "1585327561.067900"
            },
            {
                "user": "U52KBSW9X",
                "ts": "1585331240.068800"
            },
            {
                "user": "U4AGJ7L87",
                "ts": "1585332721.069000"
            },
            {
                "user": "U52KBSW9X",
                "ts": "1585332764.069300"
            },
            {
                "user": "U52KBSW9X",
                "ts": "1586530311.268400"
            },
            {
                "user": "U4AGJ7L87",
                "ts": "1586542291.281600"
            },
            {
                "user": "U52KBSW9X",
                "ts": "1586542303.281900"
            },
            {
                "user": "U4AGJ7L87",
                "ts": "1586542312.282100"
            },
            {
                "user": "U52KBSW9X",
                "ts": "1586945206.317600"
            },
            {
                "user": "U52KBSW9X",
                "ts": "1586945218.317800"
            }
        ],
        "subscribed": false
    },
    {
        "client_msg_id": "9f7c8464-7d8e-4f54-8fa1-b5d918d1693a",
        "type": "message",
        "text": "`npm install; npm start` to see it work",
        "user": "U4AGJ7L87",
        "ts": "1585104620.000800",
        "team": "TUU48M0T1",
        "user_team": "T48QEEVTJ",
        "source_team": "T48QEEVTJ",
        "user_profile": {
            "avatar_hash": "g066561fa364",
            "image_72": "https:\/\/secure.gravatar.com\/avatar\/0066561fa3649531b915aba34caff0b8.jpg?s=72&d=https%3A%2F%2Fa.slack-edge.com%2Fdf10d%2Fimg%2Favatars%2Fava_0024-72.png",
            "first_name": "Beau",
            "real_name": "Beau Gunderson",
            "display_name": "beau",
            "team": "T48QEEVTJ",
            "name": "beau",
            "is_restricted": false,
            "is_ultra_restricted": false
        },
        "blocks": [
            {
                "type": "rich_text",
                "block_id": "jXR",
                "elements": [
                    {
                        "type": "rich_text_section",
                        "elements": [
                            {
                                "type": "text",
                                "text": "npm install; npm start",
                                "style": {
                                    "code": true
                                }
                            },
                            {
                                "type": "text",
                                "text": " to see it work"
                            }
                        ]
                    }
                ]
            }
        ]
    },
    {
        "client_msg_id": "9ebaf7f8-9553-4985-89a2-a1e8750ef4d1",
        "type": "message",
        "text": "it needs d3, d3-regression, and date-fns to work",
        "user": "U4AGJ7L87",
        "ts": "1585104655.001400",
        "team": "TUU48M0T1",
        "user_team": "T48QEEVTJ",
        "source_team": "T48QEEVTJ",
        "user_profile": {
            "avatar_hash": "g066561fa364",
            "image_72": "https:\/\/secure.gravatar.com\/avatar\/0066561fa3649531b915aba34caff0b8.jpg?s=72&d=https%3A%2F%2Fa.slack-edge.com%2Fdf10d%2Fimg%2Favatars%2Fava_0024-72.png",
            "first_name": "Beau",
            "real_name": "Beau Gunderson",
            "display_name": "beau",
            "team": "T48QEEVTJ",
            "name": "beau",
            "is_restricted": false,
            "is_ultra_restricted": false
        },
        "blocks": [
            {
                "type": "rich_text",
                "block_id": "HVt",
                "elements": [
                    {
                        "type": "rich_text_section",
                        "elements": [
                            {
                                "type": "text",
                                "text": "it needs d3, d3-regression, and date-fns to work"
                            }
                        ]
                    }
                ]
            }
        ]
    },
    {
        "client_msg_id": "91ac6f46-f8b6-43d2-81a2-e5d5b7651a52",
        "type": "message",
        "text": "(you could host via something like unpkg if that's easiest)",
        "user": "U4AGJ7L87",
        "ts": "1585104673.001700",
        "team": "TUU48M0T1",
        "user_team": "T48QEEVTJ",
        "source_team": "T48QEEVTJ",
        "user_profile": {
            "avatar_hash": "g066561fa364",
            "image_72": "https:\/\/secure.gravatar.com\/avatar\/0066561fa3649531b915aba34caff0b8.jpg?s=72&d=https%3A%2F%2Fa.slack-edge.com%2Fdf10d%2Fimg%2Favatars%2Fava_0024-72.png",
            "first_name": "Beau",
            "real_name": "Beau Gunderson",
            "display_name": "beau",
            "team": "T48QEEVTJ",
            "name": "beau",
            "is_restricted": false,
            "is_ultra_restricted": false
        },
        "blocks": [
            {
                "type": "rich_text",
                "block_id": "TREqv",
                "elements": [
                    {
                        "type": "rich_text_section",
                        "elements": [
                            {
                                "type": "text",
                                "text": "(you could host via something like unpkg if that's easiest)"
                            }
                        ]
                    }
                ]
            }
        ]
    },
    {
        "client_msg_id": "57ae99c7-a1f0-4d72-9687-484361b4caef",
        "type": "message",
        "text": "let me know if you have any questions\/trouble with it or need additional implementation done; would be very easy to add the vertical bar annotation but i was unsure how it was specified in the data file",
        "user": "U4AGJ7L87",
        "ts": "1585104729.002700",
        "team": "TUU48M0T1",
        "user_team": "T48QEEVTJ",
        "source_team": "T48QEEVTJ",
        "user_profile": {
            "avatar_hash": "g066561fa364",
            "image_72": "https:\/\/secure.gravatar.com\/avatar\/0066561fa3649531b915aba34caff0b8.jpg?s=72&d=https%3A%2F%2Fa.slack-edge.com%2Fdf10d%2Fimg%2Favatars%2Fava_0024-72.png",
            "first_name": "Beau",
            "real_name": "Beau Gunderson",
            "display_name": "beau",
            "team": "T48QEEVTJ",
            "name": "beau",
            "is_restricted": false,
            "is_ultra_restricted": false
        },
        "blocks": [
            {
                "type": "rich_text",
                "block_id": "0SgI",
                "elements": [
                    {
                        "type": "rich_text_section",
                        "elements": [
                            {
                                "type": "text",
                                "text": "let me know if you have any questions\/trouble with it or need additional implementation done; would be very easy to add the vertical bar annotation but i was unsure how it was specified in the data file"
                            }
                        ]
                    }
                ]
            }
        ]
    },
    {
        "client_msg_id": "ad202c47-3d0a-40da-b780-47f110344ad5",
        "type": "message",
        "text": "(if at all)",
        "user": "U4AGJ7L87",
        "ts": "1585104733.002900",
        "team": "TUU48M0T1",
        "user_team": "T48QEEVTJ",
        "source_team": "T48QEEVTJ",
        "user_profile": {
            "avatar_hash": "g066561fa364",
            "image_72": "https:\/\/secure.gravatar.com\/avatar\/0066561fa3649531b915aba34caff0b8.jpg?s=72&d=https%3A%2F%2Fa.slack-edge.com%2Fdf10d%2Fimg%2Favatars%2Fava_0024-72.png",
            "first_name": "Beau",
            "real_name": "Beau Gunderson",
            "display_name": "beau",
            "team": "T48QEEVTJ",
            "name": "beau",
            "is_restricted": false,
            "is_ultra_restricted": false
        },
        "blocks": [
            {
                "type": "rich_text",
                "block_id": "lR1g0",
                "elements": [
                    {
                        "type": "rich_text_section",
                        "elements": [
                            {
                                "type": "text",
                                "text": "(if at all)"
                            }
                        ]
                    }
                ]
            }
        ]
    },
    {
        "type": "message",
        "text": "also noticed a small typo on the homepage",
        "files": [
            {
                "id": "F010PSC4668",
                "created": 1585104892,
                "timestamp": 1585104892,
                "name": "image.png",
                "title": "image.png",
                "mimetype": "image\/png",
                "filetype": "png",
                "pretty_type": "PNG",
                "user": "U4AGJ7L87",
                "editable": false,
                "size": 4353,
                "mode": "hosted",
                "is_external": false,
                "external_type": "",
                "is_public": true,
                "public_url_shared": false,
                "display_as_bot": false,
                "username": "",
                "url_private": "https:\/\/files.slack.com\/files-pri\/T48QEEVTJ-F010PSC4668\/image.png?t=xoxe-980144714919-1106606678066-1105227127893-6f722bb664235052954ad46852628b64",
                "url_private_download": "https:\/\/files.slack.com\/files-pri\/T48QEEVTJ-F010PSC4668\/download\/image.png?t=xoxe-980144714919-1106606678066-1105227127893-6f722bb664235052954ad46852628b64",
                "thumb_64": "https:\/\/files.slack.com\/files-tmb\/T48QEEVTJ-F010PSC4668-29686cc3a4\/image_64.png?t=xoxe-980144714919-1106606678066-1105227127893-6f722bb664235052954ad46852628b64",
                "thumb_80": "https:\/\/files.slack.com\/files-tmb\/T48QEEVTJ-F010PSC4668-29686cc3a4\/image_80.png?t=xoxe-980144714919-1106606678066-1105227127893-6f722bb664235052954ad46852628b64",
                "thumb_360": "https:\/\/files.slack.com\/files-tmb\/T48QEEVTJ-F010PSC4668-29686cc3a4\/image_360.png?t=xoxe-980144714919-1106606678066-1105227127893-6f722bb664235052954ad46852628b64",
                "thumb_360_w": 264,
                "thumb_360_h": 34,
                "thumb_160": "https:\/\/files.slack.com\/files-tmb\/T48QEEVTJ-F010PSC4668-29686cc3a4\/image_160.png?t=xoxe-980144714919-1106606678066-1105227127893-6f722bb664235052954ad46852628b64",
                "image_exif_rotation": 1,
                "original_w": 264,
                "original_h": 34,
                "thumb_tiny": "AwAGADDQKyZOJMD020m2XP8ArBj\/AHakooAjCy\/89B\/3zRtkx\/rBn\/dqSigBgWTIzIPf5aFDg\/M4I9AKfRQB\/9k=",
                "permalink": "https:\/\/openhumans.slack.com\/files\/U4AGJ7L87\/F010PSC4668\/image.png",
                "permalink_public": "https:\/\/slack-files.com\/T48QEEVTJ-F010PSC4668-f79fed2f18",
                "user_team": "T48QEEVTJ",
                "source_team": "T48QEEVTJ",
                "is_starred": false,
                "has_rich_preview": false
            }
        ],
        "upload": true,
        "blocks": [
            {
                "type": "rich_text",
                "block_id": "6Fq",
                "elements": [
                    {
                        "type": "rich_text_section",
                        "elements": [
                            {
                                "type": "text",
                                "text": "also noticed a small typo on the homepage"
                            }
                        ]
                    }
                ]
            }
        ],
        "user": "U4AGJ7L87",
        "display_as_bot": false,
        "team": "TUU48M0T1",
        "ts": "1585104898.003100",
        "client_msg_id": "d4505900-64e4-4d0d-ba34-f7650e30a6f7",
        "user_team": "T48QEEVTJ",
        "source_team": "T48QEEVTJ",
        "user_profile": {
            "avatar_hash": "g066561fa364",
            "image_72": "https:\/\/secure.gravatar.com\/avatar\/0066561fa3649531b915aba34caff0b8.jpg?s=72&d=https%3A%2F%2Fa.slack-edge.com%2Fdf10d%2Fimg%2Favatars%2Fava_0024-72.png",
            "first_name": "Beau",
            "real_name": "Beau Gunderson",
            "display_name": "beau",
            "team": "T48QEEVTJ",
            "name": "beau",
            "is_restricted": false,
            "is_ultra_restricted": false
        }
    },
    {
        "type": "message",
        "subtype": "channel_join",
        "ts": "1585107763.003500",
        "user": "U010PTL0X8U",
        "text": "<@U010PTL0X8U> has joined the channel",
        "team": "TUU48M0T1"
    }
]