[
    {
        "type": "message",
        "subtype": "channel_join",
        "ts": "1586266763.238900",
        "user": "UJ50C2AMS",
        "text": "<@UJ50C2AMS> has joined the channel",
        "team": "TUU48M0T1"
    },
    {
        "client_msg_id": "6abaaa0c-830f-44fa-8d83-51685f61784d",
        "type": "message",
        "text": "Another flu-tracking app, from Duke:\n“The ability to detect coronavirus (COVID-19) earlier using information from devices like smartphones, smartwatches and step counters would help us stop the spread of the virus and predict when someone may need more intensive care. If we can achieve this, we may be able to save more lives.” <https:\/\/covidentify.org\/>",
        "user": "U7XDRH7B8",
        "ts": "1586279332.239400",
        "team": "TUU48M0T1",
        "user_team": "T48QEEVTJ",
        "source_team": "T48QEEVTJ",
        "user_profile": {
            "avatar_hash": "e7d1fe0f30d5",
            "image_72": "https:\/\/avatars.slack-edge.com\/2017-11-07\/268663463203_e7d1fe0f30d5f4e278d5_72.jpg",
            "first_name": "Richard",
            "real_name": "Richard Sprague",
            "display_name": "sprague",
            "team": "T48QEEVTJ",
            "name": "richardsprague_openhu",
            "is_restricted": false,
            "is_ultra_restricted": false
        },
        "blocks": [
            {
                "type": "rich_text",
                "block_id": "a=NK",
                "elements": [
                    {
                        "type": "rich_text_section",
                        "elements": [
                            {
                                "type": "text",
                                "text": "Another flu-tracking app, from Duke:\n“The ability to detect coronavirus (COVID-19) earlier using information from devices like smartphones, smartwatches and step counters would help us stop the spread of the virus and predict when someone may need more intensive care. If we can achieve this, we may be able to save more lives.” "
                            },
                            {
                                "type": "link",
                                "url": "https:\/\/covidentify.org\/"
                            }
                        ]
                    }
                ]
            }
        ],
        "thread_ts": "1586279332.239400",
        "reply_count": 1,
        "reply_users_count": 1,
        "latest_reply": "1586280177.239600",
        "reply_users": [
            "US5J9BX0S"
        ],
        "replies": [
            {
                "user": "US5J9BX0S",
                "ts": "1586280177.239600"
            }
        ],
        "subscribed": false,
        "reactions": [
            {
                "name": "+1::skin-tone-5",
                "users": [
                    "US5J9BX0S"
                ],
                "count": 1
            }
        ]
    },
    {
        "client_msg_id": "063a16e1-5503-4cb0-9386-ab7961520341",
        "type": "message",
        "text": "there are a few more here: <https:\/\/statsof1.netlify.com\/2020-03-27-wearable-device-efforts-in-fighting-coronavirus\/>",
        "user": "US5J9BX0S",
        "ts": "1586280177.239600",
        "team": "TUU48M0T1",
        "user_team": "T48QEEVTJ",
        "source_team": "T48QEEVTJ",
        "user_profile": {
            "avatar_hash": "d095530d9f8a",
            "image_72": "https:\/\/avatars.slack-edge.com\/2020-01-10\/902417618453_d095530d9f8af5c16607_72.jpg",
            "first_name": "Eric",
            "real_name": "Eric J. Daza, DrPH, MPS",
            "display_name": "Eric J. Daza",
            "team": "T48QEEVTJ",
            "name": "ericjdaza013",
            "is_restricted": false,
            "is_ultra_restricted": false
        },
        "blocks": [
            {
                "type": "rich_text",
                "block_id": "t4M7",
                "elements": [
                    {
                        "type": "rich_text_section",
                        "elements": [
                            {
                                "type": "text",
                                "text": "there are a few more here: "
                            },
                            {
                                "type": "link",
                                "url": "https:\/\/statsof1.netlify.com\/2020-03-27-wearable-device-efforts-in-fighting-coronavirus\/"
                            }
                        ]
                    }
                ]
            }
        ],
        "thread_ts": "1586279332.239400",
        "parent_user_id": "U7XDRH7B8"
    },
    {
        "client_msg_id": "17756c78-61df-40ec-ad9a-afc5feeec006",
        "type": "message",
        "text": "Regarding all these apps and efforts – I think it's very important to say…\n\n*Quantified Flu is doing is not attempting to do epidemiology.* It's attempting to explore and potentially improve, through collective self research &amp; an open process, what individual value data has with wearable data and symptom tracking.\n\nAnd I'm particularly interested in exploring longitudinal symptom self-tracking as a personal data source (with or without wearables – how to do it better, how to discover individual value). This is something that has lasting value beyond covid-19, but the crisis is a time where people have a reason to want to be doing it.\n\nMy time is pretty limited and I've seen\/engaged with efforts (wearable and otherwise w\/ personal data collections, mostly survey) ranging from fairly reasonable to… stuff that seems extremely unrealistic, largely from people working outside their \"zone\" (imho academic credentials do not protect people from this…). There's a lot of urgency, a lot of ideas. I hope whatever we do is at the \"fairly reasonable\" end of this spectrum, focused on our \"zone\". :slightly_smiling_face:",
        "user": "U4A6D8F6J",
        "ts": "1586284036.250100",
        "team": "TUU48M0T1",
        "user_team": "T48QEEVTJ",
        "source_team": "T48QEEVTJ",
        "user_profile": {
            "avatar_hash": "4dc43012615b",
            "image_72": "https:\/\/avatars.slack-edge.com\/2019-10-17\/801801580071_4dc43012615b2074c521_72.jpg",
            "first_name": "Mad",
            "real_name": "Mad Price Ball",
            "display_name": "madprime",
            "team": "T48QEEVTJ",
            "name": "madprime",
            "is_restricted": false,
            "is_ultra_restricted": false
        },
        "blocks": [
            {
                "type": "rich_text",
                "block_id": "7IFqz",
                "elements": [
                    {
                        "type": "rich_text_section",
                        "elements": [
                            {
                                "type": "text",
                                "text": "Regarding all these apps and efforts – I think it's very important to say…\n\n"
                            },
                            {
                                "type": "text",
                                "text": "Quantified Flu is doing is not attempting to do epidemiology.",
                                "style": {
                                    "bold": true
                                }
                            },
                            {
                                "type": "text",
                                "text": " It's attempting to explore and potentially improve, through collective self research & an open process, what individual value data has with wearable data and symptom tracking.\n\nAnd I'm particularly interested in exploring longitudinal symptom self-tracking as a personal data source (with or without wearables – how to do it better, how to discover individual value). This is something that has lasting value beyond covid-19, but the crisis is a time where people have a reason to want to be doing it.\n\nMy time is pretty limited and I've seen\/engaged with efforts (wearable and otherwise w\/ personal data collections, mostly survey) ranging from fairly reasonable to… stuff that seems extremely unrealistic, largely from people working outside their \"zone\" (imho academic credentials do not protect people from this…). There's a lot of urgency, a lot of ideas. I hope whatever we do is at the \"fairly reasonable\" end of this spectrum, focused on our \"zone\". "
                            },
                            {
                                "type": "emoji",
                                "name": "slightly_smiling_face"
                            }
                        ]
                    }
                ]
            }
        ],
        "reactions": [
            {
                "name": "heavy_check_mark",
                "users": [
                    "US5J9BX0S",
                    "U4EFEMFS9",
                    "U52KBSW9X"
                ],
                "count": 3
            },
            {
                "name": "+1::skin-tone-5",
                "users": [
                    "US5J9BX0S"
                ],
                "count": 1
            }
        ]
    }
]