[
    {
        "type": "message",
        "subtype": "channel_join",
        "ts": "1586657658.295200",
        "user": "U011N2YE97C",
        "text": "<@U011N2YE97C> has joined the channel",
        "team": "TUU48M0T1"
    },
    {
        "client_msg_id": "ba1684bb-69d8-4f9b-ac4b-dd4e4c13ead8",
        "type": "message",
        "text": "Hi guys! I offered to volunteer on this project! I am looking to volunteer for something data science related. It says to get in touch on this channel. Thanks!",
        "user": "U011N2YE97C",
        "ts": "1586657684.295600",
        "team": "TUU48M0T1",
        "user_team": "T48QEEVTJ",
        "source_team": "T48QEEVTJ",
        "user_profile": {
            "avatar_hash": "gbbde9d9bf6a",
            "image_72": "https:\/\/secure.gravatar.com\/avatar\/bbde9d9bf6a3992388d0ff09214d3f48.jpg?s=72&d=https%3A%2F%2Fa.slack-edge.com%2Fdf10d%2Fimg%2Favatars%2Fava_0006-72.png",
            "first_name": "Brian",
            "real_name": "Brian Jankowitz",
            "display_name": "Brian Jankowitz",
            "team": "T48QEEVTJ",
            "name": "jankowitzb12",
            "is_restricted": false,
            "is_ultra_restricted": false
        },
        "blocks": [
            {
                "type": "rich_text",
                "block_id": "\/2KD",
                "elements": [
                    {
                        "type": "rich_text_section",
                        "elements": [
                            {
                                "type": "text",
                                "text": "Hi guys! I offered to volunteer on this project! I am looking to volunteer for something data science related. It says to get in touch on this channel. Thanks!"
                            }
                        ]
                    }
                ]
            }
        ],
        "reactions": [
            {
                "name": "+1",
                "users": [
                    "U52KBSW9X"
                ],
                "count": 1
            }
        ]
    },
    {
        "client_msg_id": "89807E29-EA5E-4CFC-8785-A96D8B6837B0",
        "type": "message",
        "text": "Welcome <@U011N2YE97C> ! Do you do data analysis or visualization stuff?",
        "user": "U4A6D8F6J",
        "ts": "1586673018.297700",
        "team": "TUU48M0T1",
        "user_team": "T48QEEVTJ",
        "source_team": "T48QEEVTJ",
        "user_profile": {
            "avatar_hash": "4dc43012615b",
            "image_72": "https:\/\/avatars.slack-edge.com\/2019-10-17\/801801580071_4dc43012615b2074c521_72.jpg",
            "first_name": "Mad",
            "real_name": "Mad Price Ball",
            "display_name": "madprime",
            "team": "T48QEEVTJ",
            "name": "madprime",
            "is_restricted": false,
            "is_ultra_restricted": false
        },
        "blocks": [
            {
                "type": "rich_text",
                "block_id": "xTSQ4",
                "elements": [
                    {
                        "type": "rich_text_section",
                        "elements": [
                            {
                                "type": "text",
                                "text": "Welcome "
                            },
                            {
                                "type": "user",
                                "user_id": "U011N2YE97C"
                            },
                            {
                                "type": "text",
                                "text": " ! Do you do data analysis or visualization stuff?"
                            }
                        ]
                    }
                ]
            }
        ],
        "thread_ts": "1586673018.297700",
        "reply_count": 1,
        "reply_users_count": 1,
        "latest_reply": "1586716243.302600",
        "reply_users": [
            "U011N2YE97C"
        ],
        "replies": [
            {
                "user": "U011N2YE97C",
                "ts": "1586716243.302600"
            }
        ],
        "subscribed": false
    },
    {
        "client_msg_id": "C56B1FF8-13A0-4D53-9658-2C25A07E79B5",
        "type": "message",
        "text": "Not exactly one batch, but it should be possible to use a simple script to get everything. I’m not aware of any data sharing yet by those projects (they might be interested, maybe depends on project) or what they have. :)",
        "user": "U4A6D8F6J",
        "ts": "1586673147.300000",
        "team": "TUU48M0T1",
        "user_team": "T48QEEVTJ",
        "source_team": "T48QEEVTJ",
        "user_profile": {
            "avatar_hash": "4dc43012615b",
            "image_72": "https:\/\/avatars.slack-edge.com\/2019-10-17\/801801580071_4dc43012615b2074c521_72.jpg",
            "first_name": "Mad",
            "real_name": "Mad Price Ball",
            "display_name": "madprime",
            "team": "T48QEEVTJ",
            "name": "madprime",
            "is_restricted": false,
            "is_ultra_restricted": false
        },
        "edited": {
            "user": "U4A6D8F6J",
            "ts": "1586673157.000000"
        },
        "blocks": [
            {
                "type": "rich_text",
                "block_id": "srq",
                "elements": [
                    {
                        "type": "rich_text_section",
                        "elements": [
                            {
                                "type": "text",
                                "text": "Not exactly one batch, but it should be possible to use a simple script to get everything. I’m not aware of any data sharing yet by those projects (they might be interested, maybe depends on project) or what they have. :)"
                            }
                        ]
                    }
                ]
            }
        ],
        "thread_ts": "1586534866.269000",
        "parent_user_id": "U52KBSW9X",
        "reactions": [
            {
                "name": "+1",
                "users": [
                    "U011JNH9V4N"
                ],
                "count": 1
            }
        ]
    }
]