[
    {
        "client_msg_id": "97b0af7f-3792-4a19-8f6f-f5b872b37f6a",
        "type": "message",
        "text": "Just joking",
        "user": "U01081Y0TBP",
        "ts": "1587888726.299300",
        "team": "TUU48M0T1",
        "user_team": "TUU48M0T1",
        "source_team": "TUU48M0T1",
        "user_profile": {
            "avatar_hash": "60ec5b47107a",
            "image_72": "https:\/\/avatars.slack-edge.com\/2020-03-18\/995274181218_60ec5b47107a3bd2ca7d_72.jpg",
            "first_name": "Peter",
            "real_name": "Peter Kooren",
            "display_name": "Peter Kooren",
            "team": "TUU48M0T1",
            "name": "peterkooren",
            "is_restricted": false,
            "is_ultra_restricted": false
        },
        "blocks": [
            {
                "type": "rich_text",
                "block_id": "Ar451",
                "elements": [
                    {
                        "type": "rich_text_section",
                        "elements": [
                            {
                                "type": "text",
                                "text": "Just joking"
                            }
                        ]
                    }
                ]
            }
        ],
        "thread_ts": "1587838919.297700",
        "parent_user_id": "U011R2UV0VA"
    },
    {
        "client_msg_id": "39b0f015-f58e-43f4-9379-7fc069b697c4",
        "type": "message",
        "text": "Cc-by-sa is also permissive, isn't it? Or do you prefer cc-by? <@UV02WET96>",
        "user": "U01081Y0TBP",
        "ts": "1587902419.299600",
        "team": "TUU48M0T1",
        "user_team": "TUU48M0T1",
        "source_team": "TUU48M0T1",
        "user_profile": {
            "avatar_hash": "60ec5b47107a",
            "image_72": "https:\/\/avatars.slack-edge.com\/2020-03-18\/995274181218_60ec5b47107a3bd2ca7d_72.jpg",
            "first_name": "Peter",
            "real_name": "Peter Kooren",
            "display_name": "Peter Kooren",
            "team": "TUU48M0T1",
            "name": "peterkooren",
            "is_restricted": false,
            "is_ultra_restricted": false
        },
        "edited": {
            "user": "U01081Y0TBP",
            "ts": "1587906235.000000"
        },
        "blocks": [
            {
                "type": "rich_text",
                "block_id": "dkX",
                "elements": [
                    {
                        "type": "rich_text_section",
                        "elements": [
                            {
                                "type": "text",
                                "text": "Cc-by-sa is also permissive, isn't it? Or do you prefer cc-by? "
                            },
                            {
                                "type": "user",
                                "user_id": "UV02WET96"
                            }
                        ]
                    }
                ]
            }
        ],
        "thread_ts": "1587834301.296100",
        "parent_user_id": "UV02WET96"
    },
    {
        "client_msg_id": "48954FF2-3212-48A1-ABD5-6E8B63B225D2",
        "type": "message",
        "text": "That’s right, Share-alike licenses are not permissive as they oblige projects to use the same license for the whole project. It can creates limitations on who can use it.",
        "user": "UV02WET96",
        "ts": "1587921037.302100",
        "team": "TUU48M0T1",
        "user_team": "TUU48M0T1",
        "source_team": "TUU48M0T1",
        "user_profile": {
            "avatar_hash": "a99c74a194f8",
            "image_72": "https:\/\/avatars.slack-edge.com\/2020-03-07\/975708504851_a99c74a194f86715ca7d_72.png",
            "first_name": "Thomas",
            "real_name": "Thomas Landrain",
            "display_name": "Thomas Landrain - JOGL CoFounder \/ CEO",
            "team": "TUU48M0T1",
            "name": "thomas",
            "is_restricted": false,
            "is_ultra_restricted": false
        },
        "edited": {
            "user": "UV02WET96",
            "ts": "1587995728.000000"
        },
        "blocks": [
            {
                "type": "rich_text",
                "block_id": "a\/2y",
                "elements": [
                    {
                        "type": "rich_text_section",
                        "elements": [
                            {
                                "type": "text",
                                "text": "That’s right, Share-alike licenses are not permissive as they oblige projects to use the same license for the whole project. It can creates limitations on who can use it."
                            }
                        ]
                    }
                ]
            }
        ],
        "thread_ts": "1587834301.296100",
        "parent_user_id": "UV02WET96"
    }
]