[
    {
        "client_msg_id": "a4a258b3-3d9a-4b7e-8452-292b6cf06ea3",
        "type": "message",
        "text": "I just want to answer here that JOGL so far has not tried hard to connect both it is true, BUT it is not because we don't want to, but because all of us are under the water working 12-14h days for the past weeks. What we try to do is focus on the people already here who are doing amazing work, and the entire internet and world has so many other beautiful and Amazing open source projects happening right now, but we don't have the human resources to reach out to all of them yet, the invites have been launched I believe and if they want to come then we will focus more energy then, but until that I don't see how we can divert ressources to this. And it saddens me that this generate so much tension, there might even be other designs out there in languages none of us understand, but it should hopefully not stress everyone. \n\nI hope you all can find a solution where conflict is minimal :)",
        "user": "UVC9WMA7N",
        "ts": "1588067790.306200",
        "team": "TUU48M0T1",
        "user_team": "TUU48M0T1",
        "source_team": "TUU48M0T1",
        "user_profile": {
            "avatar_hash": "56d14d58ed53",
            "image_72": "https:\/\/avatars.slack-edge.com\/2020-03-13\/998337892660_56d14d58ed537e6e4654_72.png",
            "first_name": "Leo",
            "real_name": "Leo Blondel",
            "display_name": "Leo Blondel - JOGL CoFounder \/ CTO",
            "team": "TUU48M0T1",
            "name": "leo",
            "is_restricted": false,
            "is_ultra_restricted": false
        },
        "blocks": [
            {
                "type": "rich_text",
                "block_id": "cz+mt",
                "elements": [
                    {
                        "type": "rich_text_section",
                        "elements": [
                            {
                                "type": "text",
                                "text": "I just want to answer here that JOGL so far has not tried hard to connect both it is true, BUT it is not because we don't want to, but because all of us are under the water working 12-14h days for the past weeks. What we try to do is focus on the people already here who are doing amazing work, and the entire internet and world has so many other beautiful and Amazing open source projects happening right now, but we don't have the human resources to reach out to all of them yet, the invites have been launched I believe and if they want to come then we will focus more energy then, but until that I don't see how we can divert ressources to this. And it saddens me that this generate so much tension, there might even be other designs out there in languages none of us understand, but it should hopefully not stress everyone. \n\nI hope you all can find a solution where conflict is minimal :)"
                            }
                        ]
                    }
                ]
            }
        ],
        "thread_ts": "1587799911.244800",
        "parent_user_id": "U01081Y0TBP"
    },
    {
        "client_msg_id": "b687dc6a-5297-4399-97d7-485d0504637c",
        "type": "message",
        "text": "Any estimate of how long for an experience maker this build could take ?",
        "user": "UVC9WMA7N",
        "ts": "1588068132.306400",
        "team": "TUU48M0T1",
        "user_team": "TUU48M0T1",
        "source_team": "TUU48M0T1",
        "user_profile": {
            "avatar_hash": "56d14d58ed53",
            "image_72": "https:\/\/avatars.slack-edge.com\/2020-03-13\/998337892660_56d14d58ed537e6e4654_72.png",
            "first_name": "Leo",
            "real_name": "Leo Blondel",
            "display_name": "Leo Blondel - JOGL CoFounder \/ CTO",
            "team": "TUU48M0T1",
            "name": "leo",
            "is_restricted": false,
            "is_ultra_restricted": false
        },
        "blocks": [
            {
                "type": "rich_text",
                "block_id": "ZKQ",
                "elements": [
                    {
                        "type": "rich_text_section",
                        "elements": [
                            {
                                "type": "text",
                                "text": "Any estimate of how long for an experience maker this build could take ?"
                            }
                        ]
                    }
                ]
            }
        ],
        "thread_ts": "1587995568.303900",
        "parent_user_id": "U01188XCK19"
    },
    {
        "client_msg_id": "1997c5e0-67b6-444d-b2d4-93f33d9a82ef",
        "type": "message",
        "text": "the electronics side would be a few hours once I've put the instructions online. for the hardware side you'd have to ask sina and gauthier, I'd expect a day at most assuming you have all the parts in front of you. maybe significantly less",
        "user": "U01188XCK19",
        "ts": "1588068196.306600",
        "team": "TUU48M0T1",
        "user_team": "TUU48M0T1",
        "source_team": "TUU48M0T1",
        "user_profile": {
            "avatar_hash": "gd85edfb45fa",
            "image_72": "https:\/\/secure.gravatar.com\/avatar\/d85edfb45fa87b47ea33da26228d07dd.jpg?s=72&d=https%3A%2F%2Fa.slack-edge.com%2Fdf10d%2Fimg%2Favatars%2Fava_0011-72.png",
            "first_name": "",
            "real_name": "wolf arthur",
            "display_name": "wolf arthur",
            "team": "TUU48M0T1",
            "name": "wolf.arthur",
            "is_restricted": false,
            "is_ultra_restricted": false
        },
        "blocks": [
            {
                "type": "rich_text",
                "block_id": "7xa",
                "elements": [
                    {
                        "type": "rich_text_section",
                        "elements": [
                            {
                                "type": "text",
                                "text": "the electronics side would be a few hours once I've put the instructions online. for the hardware side you'd have to ask sina and gauthier, I'd expect a day at most assuming you have all the parts in front of you. maybe significantly less"
                            }
                        ]
                    }
                ]
            }
        ],
        "thread_ts": "1587995568.303900",
        "parent_user_id": "U01188XCK19"
    },
    {
        "client_msg_id": "6dabf0cb-3b00-4527-ae35-b9d2e4294ed1",
        "type": "message",
        "text": "*Hello @ channel*!\nI’m working on the coordination team and implementing a new Slack tool: User Groups. We’re looking to identify the main Project Lead(s) for each project, and add them to the Project Leads user group so that they can be easily contacted.\n*Who should I add from this project? <@U010U9EHR7T>? <@U0119U5N3T3>?* ",
        "user": "U011B6VLM2A",
        "ts": "1588086385.307300",
        "team": "TUU48M0T1",
        "user_team": "TUU48M0T1",
        "source_team": "TUU48M0T1",
        "user_profile": {
            "avatar_hash": "4231dc598cfc",
            "image_72": "https:\/\/avatars.slack-edge.com\/2020-04-02\/1044784558839_4231dc598cfc2e59c4c4_72.jpg",
            "first_name": "Alix",
            "real_name": "Alix Mains",
            "display_name": "Alix Mains - JOGL Coordinator",
            "team": "TUU48M0T1",
            "name": "alixhmains",
            "is_restricted": false,
            "is_ultra_restricted": false
        },
        "blocks": [
            {
                "type": "rich_text",
                "block_id": "1bn22",
                "elements": [
                    {
                        "type": "rich_text_section",
                        "elements": [
                            {
                                "type": "text",
                                "text": "Hello @ channel",
                                "style": {
                                    "bold": true
                                }
                            },
                            {
                                "type": "text",
                                "text": "!\nI’m working on the coordination team and implementing a new Slack tool: User Groups. We’re looking to identify the main Project Lead(s) for each project, and add them to the Project Leads user group so that they can be easily contacted.\n"
                            },
                            {
                                "type": "text",
                                "text": "Who should I add from this project? ",
                                "style": {
                                    "bold": true
                                }
                            },
                            {
                                "type": "user",
                                "user_id": "U010U9EHR7T",
                                "style": {
                                    "bold": true
                                }
                            },
                            {
                                "type": "text",
                                "text": "? ",
                                "style": {
                                    "bold": true
                                }
                            },
                            {
                                "type": "user",
                                "user_id": "U0119U5N3T3",
                                "style": {
                                    "bold": true
                                }
                            },
                            {
                                "type": "text",
                                "text": "? ",
                                "style": {
                                    "bold": true
                                }
                            }
                        ]
                    }
                ]
            }
        ]
    },
    {
        "client_msg_id": "dcc8868d-18cc-43dc-9d7a-72011caa971b",
        "type": "message",
        "text": "(keep in mind there can be multiple project leads!)",
        "user": "U011B6VLM2A",
        "ts": "1588086394.307600",
        "team": "TUU48M0T1",
        "user_team": "TUU48M0T1",
        "source_team": "TUU48M0T1",
        "user_profile": {
            "avatar_hash": "4231dc598cfc",
            "image_72": "https:\/\/avatars.slack-edge.com\/2020-04-02\/1044784558839_4231dc598cfc2e59c4c4_72.jpg",
            "first_name": "Alix",
            "real_name": "Alix Mains",
            "display_name": "Alix Mains - JOGL Coordinator",
            "team": "TUU48M0T1",
            "name": "alixhmains",
            "is_restricted": false,
            "is_ultra_restricted": false
        },
        "blocks": [
            {
                "type": "rich_text",
                "block_id": "e9GdL",
                "elements": [
                    {
                        "type": "rich_text_section",
                        "elements": [
                            {
                                "type": "text",
                                "text": "(keep in mind there can be multiple project leads!)"
                            }
                        ]
                    }
                ]
            }
        ]
    },
    {
        "client_msg_id": "02cc921d-750d-4f05-b303-f87fba380a15",
        "type": "message",
        "text": "<@U0119U5N3T3> would probably be the best person for this role :slightly_smiling_face:",
        "user": "UV02WET96",
        "ts": "1588086452.308100",
        "team": "TUU48M0T1",
        "user_team": "TUU48M0T1",
        "source_team": "TUU48M0T1",
        "user_profile": {
            "avatar_hash": "a99c74a194f8",
            "image_72": "https:\/\/avatars.slack-edge.com\/2020-03-07\/975708504851_a99c74a194f86715ca7d_72.png",
            "first_name": "Thomas",
            "real_name": "Thomas Landrain",
            "display_name": "Thomas Landrain - JOGL CoFounder \/ CEO",
            "team": "TUU48M0T1",
            "name": "thomas",
            "is_restricted": false,
            "is_ultra_restricted": false
        },
        "blocks": [
            {
                "type": "rich_text",
                "block_id": "wWwB",
                "elements": [
                    {
                        "type": "rich_text_section",
                        "elements": [
                            {
                                "type": "user",
                                "user_id": "U0119U5N3T3"
                            },
                            {
                                "type": "text",
                                "text": " would probably be the best person for this role "
                            },
                            {
                                "type": "emoji",
                                "name": "slightly_smiling_face"
                            }
                        ]
                    }
                ]
            }
        ],
        "reactions": [
            {
                "name": "+1",
                "users": [
                    "U011B6VLM2A",
                    "U0106NJNM17"
                ],
                "count": 2
            }
        ]
    },
    {
        "client_msg_id": "ef623bad-07cc-461a-9764-1949d23036c4",
        "type": "message",
        "text": "FAQ : Zoom today ?",
        "user": "U011R2UV0VA",
        "ts": "1588100195.308600",
        "team": "TUU48M0T1",
        "user_team": "TUU48M0T1",
        "source_team": "TUU48M0T1",
        "user_profile": {
            "avatar_hash": "g99085ac5441",
            "image_72": "https:\/\/secure.gravatar.com\/avatar\/99085ac5441e5d82378e596693e3d9e6.jpg?s=72&d=https%3A%2F%2Fa.slack-edge.com%2Fdf10d%2Fimg%2Favatars%2Fava_0011-72.png",
            "first_name": "",
            "real_name": "Christian Chabrerie",
            "display_name": "Christian Chabrerie",
            "team": "TUU48M0T1",
            "name": "christian.chabrerie",
            "is_restricted": false,
            "is_ultra_restricted": false
        },
        "blocks": [
            {
                "type": "rich_text",
                "block_id": "4Ad",
                "elements": [
                    {
                        "type": "rich_text_section",
                        "elements": [
                            {
                                "type": "text",
                                "text": "FAQ : Zoom today ?"
                            }
                        ]
                    }
                ]
            }
        ]
    },
    {
        "client_msg_id": "D7C7E07E-F42B-4F4D-9F68-B3504F8518AC",
        "type": "message",
        "text": "Hey guys sorry I am still in a zoom meeting that doesn’t seem to end soon",
        "user": "U0119U5N3T3",
        "ts": "1588100422.309100",
        "team": "TUU48M0T1",
        "user_team": "TUU48M0T1",
        "source_team": "TUU48M0T1",
        "user_profile": {
            "avatar_hash": "b3b38b63650e",
            "image_72": "https:\/\/avatars.slack-edge.com\/2020-04-04\/1047354985190_b3b38b63650e809885b3_72.jpg",
            "first_name": "",
            "real_name": "Sina Booeshaghi",
            "display_name": "Sina Booeshaghi",
            "team": "TUU48M0T1",
            "name": "abooesha",
            "is_restricted": false,
            "is_ultra_restricted": false
        }
    },
    {
        "client_msg_id": "96E53065-2333-40B7-BA4A-AC58D04A32C3",
        "type": "message",
        "text": "Will get back to you all after ",
        "user": "U0119U5N3T3",
        "ts": "1588100446.309400",
        "team": "TUU48M0T1",
        "user_team": "TUU48M0T1",
        "source_team": "TUU48M0T1",
        "user_profile": {
            "avatar_hash": "b3b38b63650e",
            "image_72": "https:\/\/avatars.slack-edge.com\/2020-04-04\/1047354985190_b3b38b63650e809885b3_72.jpg",
            "first_name": "",
            "real_name": "Sina Booeshaghi",
            "display_name": "Sina Booeshaghi",
            "team": "TUU48M0T1",
            "name": "abooesha",
            "is_restricted": false,
            "is_ultra_restricted": false
        }
    },
    {
        "client_msg_id": "F57EE388-B961-455D-B663-C25492474498",
        "type": "message",
        "text": "Ok! <@U0119U5N3T3> would you be available tomorrow around 6.30pm Paris time for providing an update during our Global Community Call?",
        "user": "UV02WET96",
        "ts": "1588100571.311100",
        "team": "TUU48M0T1",
        "user_team": "TUU48M0T1",
        "source_team": "TUU48M0T1",
        "user_profile": {
            "avatar_hash": "a99c74a194f8",
            "image_72": "https:\/\/avatars.slack-edge.com\/2020-03-07\/975708504851_a99c74a194f86715ca7d_72.png",
            "first_name": "Thomas",
            "real_name": "Thomas Landrain",
            "display_name": "Thomas Landrain - JOGL CoFounder \/ CEO",
            "team": "TUU48M0T1",
            "name": "thomas",
            "is_restricted": false,
            "is_ultra_restricted": false
        },
        "blocks": [
            {
                "type": "rich_text",
                "block_id": "6\/doe",
                "elements": [
                    {
                        "type": "rich_text_section",
                        "elements": [
                            {
                                "type": "text",
                                "text": "Ok! "
                            },
                            {
                                "type": "user",
                                "user_id": "U0119U5N3T3"
                            },
                            {
                                "type": "text",
                                "text": " would you be available tomorrow around 6.30pm Paris time for providing an update during our Global Community Call?"
                            }
                        ]
                    }
                ]
            }
        ]
    },
    {
        "client_msg_id": "C30FC2E1-03ED-4A3A-B6E0-1D52108F734F",
        "type": "message",
        "text": "Sounded good to have multiple project leads but fully agree with Thomas decision !",
        "user": "U010U9EHR7T",
        "ts": "1588101671.312800",
        "team": "TUU48M0T1",
        "user_team": "TUU48M0T1",
        "source_team": "TUU48M0T1",
        "user_profile": {
            "avatar_hash": "g36ea42e25d9",
            "image_72": "https:\/\/secure.gravatar.com\/avatar\/ad392afd49098e1505b10c168f27050d.jpg?s=72&d=https%3A%2F%2Fa.slack-edge.com%2Fdf10d%2Fimg%2Favatars%2Fava_0004-72.png",
            "first_name": "Jean-Loup",
            "real_name": "Jean-Loup DUBREUCQ",
            "display_name": "jldubreucq",
            "team": "TUU48M0T1",
            "name": "jlmd.jogl",
            "is_restricted": false,
            "is_ultra_restricted": false
        },
        "blocks": [
            {
                "type": "rich_text",
                "block_id": "XLRql",
                "elements": [
                    {
                        "type": "rich_text_section",
                        "elements": [
                            {
                                "type": "text",
                                "text": "Sounded good to have multiple project leads but fully agree with Thomas decision !"
                            }
                        ]
                    }
                ]
            }
        ]
    },
    {
        "client_msg_id": "8A0ED05C-506F-4B32-8FD1-CEC7537CCC79",
        "type": "message",
        "text": "No meeting today ! Let’s try tomorrow ?",
        "user": "U010U9EHR7T",
        "ts": "1588101725.313700",
        "team": "TUU48M0T1",
        "user_team": "TUU48M0T1",
        "source_team": "TUU48M0T1",
        "user_profile": {
            "avatar_hash": "g36ea42e25d9",
            "image_72": "https:\/\/secure.gravatar.com\/avatar\/ad392afd49098e1505b10c168f27050d.jpg?s=72&d=https%3A%2F%2Fa.slack-edge.com%2Fdf10d%2Fimg%2Favatars%2Fava_0004-72.png",
            "first_name": "Jean-Loup",
            "real_name": "Jean-Loup DUBREUCQ",
            "display_name": "jldubreucq",
            "team": "TUU48M0T1",
            "name": "jlmd.jogl",
            "is_restricted": false,
            "is_ultra_restricted": false
        },
        "blocks": [
            {
                "type": "rich_text",
                "block_id": "8+Zg",
                "elements": [
                    {
                        "type": "rich_text_section",
                        "elements": [
                            {
                                "type": "text",
                                "text": "No meeting today ! Let’s try tomorrow ?"
                            }
                        ]
                    }
                ]
            }
        ]
    },
    {
        "client_msg_id": "0B9D76EF-8013-4B09-86D1-C29D34123352",
        "type": "message",
        "text": "Can you guys share your latest advancements here as bullet points? ",
        "user": "UV02WET96",
        "ts": "1588101759.314400",
        "team": "TUU48M0T1",
        "user_team": "TUU48M0T1",
        "source_team": "TUU48M0T1",
        "user_profile": {
            "avatar_hash": "a99c74a194f8",
            "image_72": "https:\/\/avatars.slack-edge.com\/2020-03-07\/975708504851_a99c74a194f86715ca7d_72.png",
            "first_name": "Thomas",
            "real_name": "Thomas Landrain",
            "display_name": "Thomas Landrain - JOGL CoFounder \/ CEO",
            "team": "TUU48M0T1",
            "name": "thomas",
            "is_restricted": false,
            "is_ultra_restricted": false
        },
        "edited": {
            "user": "UV02WET96",
            "ts": "1588101767.000000"
        },
        "blocks": [
            {
                "type": "rich_text",
                "block_id": "Pi\/ab",
                "elements": [
                    {
                        "type": "rich_text_section",
                        "elements": [
                            {
                                "type": "text",
                                "text": "Can you guys share your latest advancements here as bullet points? "
                            }
                        ]
                    }
                ]
            }
        ]
    },
    {
        "client_msg_id": "02DEA6EB-F42F-4727-902A-DEC577356B96",
        "type": "message",
        "text": "Yes of course ! I’ll be back soon !",
        "user": "U010U9EHR7T",
        "ts": "1588101948.316600",
        "team": "TUU48M0T1",
        "user_team": "TUU48M0T1",
        "source_team": "TUU48M0T1",
        "user_profile": {
            "avatar_hash": "g36ea42e25d9",
            "image_72": "https:\/\/secure.gravatar.com\/avatar\/ad392afd49098e1505b10c168f27050d.jpg?s=72&d=https%3A%2F%2Fa.slack-edge.com%2Fdf10d%2Fimg%2Favatars%2Fava_0004-72.png",
            "first_name": "Jean-Loup",
            "real_name": "Jean-Loup DUBREUCQ",
            "display_name": "jldubreucq",
            "team": "TUU48M0T1",
            "name": "jlmd.jogl",
            "is_restricted": false,
            "is_ultra_restricted": false
        },
        "blocks": [
            {
                "type": "rich_text",
                "block_id": "125\/",
                "elements": [
                    {
                        "type": "rich_text_section",
                        "elements": [
                            {
                                "type": "text",
                                "text": "Yes of course ! I’ll be back soon !"
                            }
                        ]
                    }
                ]
            }
        ]
    },
    {
        "client_msg_id": "80daa2e2-fc84-4850-8889-d829a70997a0",
        "type": "message",
        "text": "Hi there! I'm David, helping out with communications. Do you guys have any updates that you'd like to share tomorrow during the global community call? <https:\/\/docs.google.com\/document\/d\/1e2SoOkFJfYMfA3VGdAUfWpwxGyNWhufzL3L467yT2lA\/edit>",
        "user": "UV2SC7ZE3",
        "ts": "1588108879.317700",
        "team": "TUU48M0T1",
        "user_team": "TUU48M0T1",
        "source_team": "TUU48M0T1",
        "user_profile": {
            "avatar_hash": "d28dd0d076e8",
            "image_72": "https:\/\/avatars.slack-edge.com\/2020-03-14\/987873094258_d28dd0d076e8fa9a8409_72.png",
            "first_name": "David",
            "real_name": "David Lu",
            "display_name": "David Lu",
            "team": "TUU48M0T1",
            "name": "ludavidyi",
            "is_restricted": false,
            "is_ultra_restricted": false
        },
        "blocks": [
            {
                "type": "rich_text",
                "block_id": "5g81",
                "elements": [
                    {
                        "type": "rich_text_section",
                        "elements": [
                            {
                                "type": "text",
                                "text": "Hi there! I'm David, helping out with communications. Do you guys have any updates that you'd like to share tomorrow during the global community call? "
                            },
                            {
                                "type": "link",
                                "url": "https:\/\/docs.google.com\/document\/d\/1e2SoOkFJfYMfA3VGdAUfWpwxGyNWhufzL3L467yT2lA\/edit"
                            }
                        ]
                    }
                ]
            }
        ]
    },
    {
        "client_msg_id": "af70db8e-25cf-4be9-aa69-9ed93d3c6f02",
        "type": "message",
        "text": "Tomorrow yes",
        "user": "U0119U5N3T3",
        "ts": "1588113702.318200",
        "team": "TUU48M0T1",
        "user_team": "TUU48M0T1",
        "source_team": "TUU48M0T1",
        "user_profile": {
            "avatar_hash": "b3b38b63650e",
            "image_72": "https:\/\/avatars.slack-edge.com\/2020-04-04\/1047354985190_b3b38b63650e809885b3_72.jpg",
            "first_name": "",
            "real_name": "Sina Booeshaghi",
            "display_name": "Sina Booeshaghi",
            "team": "TUU48M0T1",
            "name": "abooesha",
            "is_restricted": false,
            "is_ultra_restricted": false
        },
        "blocks": [
            {
                "type": "rich_text",
                "block_id": "7376i",
                "elements": [
                    {
                        "type": "rich_text_section",
                        "elements": [
                            {
                                "type": "text",
                                "text": "Tomorrow yes"
                            }
                        ]
                    }
                ]
            }
        ]
    },
    {
        "client_msg_id": "23c46105-bc93-48eb-9d98-15abe7543128",
        "type": "message",
        "text": "ill be there",
        "user": "U0119U5N3T3",
        "ts": "1588113704.318400",
        "team": "TUU48M0T1",
        "user_team": "TUU48M0T1",
        "source_team": "TUU48M0T1",
        "user_profile": {
            "avatar_hash": "b3b38b63650e",
            "image_72": "https:\/\/avatars.slack-edge.com\/2020-04-04\/1047354985190_b3b38b63650e809885b3_72.jpg",
            "first_name": "",
            "real_name": "Sina Booeshaghi",
            "display_name": "Sina Booeshaghi",
            "team": "TUU48M0T1",
            "name": "abooesha",
            "is_restricted": false,
            "is_ultra_restricted": false
        },
        "blocks": [
            {
                "type": "rich_text",
                "block_id": "BodeI",
                "elements": [
                    {
                        "type": "rich_text_section",
                        "elements": [
                            {
                                "type": "text",
                                "text": "ill be there"
                            }
                        ]
                    }
                ]
            }
        ]
    },
    {
        "client_msg_id": "cfff4602-4059-4828-b04d-b8323ff1263d",
        "type": "message",
        "text": "sorry its been a hectic day",
        "user": "U0119U5N3T3",
        "ts": "1588113708.318600",
        "team": "TUU48M0T1",
        "user_team": "TUU48M0T1",
        "source_team": "TUU48M0T1",
        "user_profile": {
            "avatar_hash": "b3b38b63650e",
            "image_72": "https:\/\/avatars.slack-edge.com\/2020-04-04\/1047354985190_b3b38b63650e809885b3_72.jpg",
            "first_name": "",
            "real_name": "Sina Booeshaghi",
            "display_name": "Sina Booeshaghi",
            "team": "TUU48M0T1",
            "name": "abooesha",
            "is_restricted": false,
            "is_ultra_restricted": false
        },
        "blocks": [
            {
                "type": "rich_text",
                "block_id": "QTH",
                "elements": [
                    {
                        "type": "rich_text_section",
                        "elements": [
                            {
                                "type": "text",
                                "text": "sorry its been a hectic day"
                            }
                        ]
                    }
                ]
            }
        ]
    },
    {
        "client_msg_id": "55b89e1e-efdc-4c91-82c5-12a2cb262a80",
        "type": "message",
        "text": "will try to join the call tomorrow too",
        "user": "U01188XCK19",
        "ts": "1588114387.318800",
        "team": "TUU48M0T1",
        "user_team": "TUU48M0T1",
        "source_team": "TUU48M0T1",
        "user_profile": {
            "avatar_hash": "gd85edfb45fa",
            "image_72": "https:\/\/secure.gravatar.com\/avatar\/d85edfb45fa87b47ea33da26228d07dd.jpg?s=72&d=https%3A%2F%2Fa.slack-edge.com%2Fdf10d%2Fimg%2Favatars%2Fava_0011-72.png",
            "first_name": "",
            "real_name": "wolf arthur",
            "display_name": "wolf arthur",
            "team": "TUU48M0T1",
            "name": "wolf.arthur",
            "is_restricted": false,
            "is_ultra_restricted": false
        },
        "blocks": [
            {
                "type": "rich_text",
                "block_id": "fcVp",
                "elements": [
                    {
                        "type": "rich_text_section",
                        "elements": [
                            {
                                "type": "text",
                                "text": "will try to join the call tomorrow too"
                            }
                        ]
                    }
                ]
            }
        ]
    },
    {
        "client_msg_id": "cc73467b-67f3-4780-bfcc-a3ece58d8fa8",
        "type": "message",
        "text": "( as well as look over for updates )",
        "user": "U01188XCK19",
        "ts": "1588114406.319100",
        "team": "TUU48M0T1",
        "user_team": "TUU48M0T1",
        "source_team": "TUU48M0T1",
        "user_profile": {
            "avatar_hash": "gd85edfb45fa",
            "image_72": "https:\/\/secure.gravatar.com\/avatar\/d85edfb45fa87b47ea33da26228d07dd.jpg?s=72&d=https%3A%2F%2Fa.slack-edge.com%2Fdf10d%2Fimg%2Favatars%2Fava_0011-72.png",
            "first_name": "",
            "real_name": "wolf arthur",
            "display_name": "wolf arthur",
            "team": "TUU48M0T1",
            "name": "wolf.arthur",
            "is_restricted": false,
            "is_ultra_restricted": false
        },
        "blocks": [
            {
                "type": "rich_text",
                "block_id": "VRB\/G",
                "elements": [
                    {
                        "type": "rich_text_section",
                        "elements": [
                            {
                                "type": "text",
                                "text": "( as well as look over for updates )"
                            }
                        ]
                    }
                ]
            }
        ]
    }
]