[
    {
        "client_msg_id": "69e3e403-1272-4aec-a9d7-8ececbe0d162",
        "type": "message",
        "text": "Hi everyone, I’m Kevin resident in medecine. I dont know if you got an answer <@UV02WET96> but the key parameters in a syringe pump are usually : - speed going from 0 to 150 ml \/ hour\n-capability of doing bolus injection\n-usually they adapt and can recognize between a 10, 20 or  a 50 ml syring\n-there is an alarm ringing just before the end of the syring and when the syring is finished\n-it also rings when there is an obstruction or any other kind of problem (low pressure \/ high pressure)",
        "user": "U011CCCTPFF",
        "ts": "1586070052.060700",
        "team": "TUU48M0T1",
        "user_team": "TUU48M0T1",
        "source_team": "TUU48M0T1",
        "user_profile": {
            "avatar_hash": "g2da64e70875",
            "image_72": "https:\/\/secure.gravatar.com\/avatar\/2da64e708759c4d7ba60d53bea82013a.jpg?s=72&d=https%3A%2F%2Fa.slack-edge.com%2Fdf10d%2Fimg%2Favatars%2Fava_0008-72.png",
            "first_name": "",
            "real_name": "Bloch",
            "display_name": "Bloch",
            "team": "TUU48M0T1",
            "name": "k.bloch.maier",
            "is_restricted": false,
            "is_ultra_restricted": false
        },
        "edited": {
            "user": "U011CCCTPFF",
            "ts": "1586070502.000000"
        },
        "blocks": [
            {
                "type": "rich_text",
                "block_id": "Rg2ru",
                "elements": [
                    {
                        "type": "rich_text_section",
                        "elements": [
                            {
                                "type": "text",
                                "text": "Hi everyone, I’m Kevin resident in medecine. I dont know if you got an answer "
                            },
                            {
                                "type": "user",
                                "user_id": "UV02WET96"
                            },
                            {
                                "type": "text",
                                "text": " but the key parameters in a syringe pump are usually : - speed going from 0 to 150 ml \/ hour\n-capability of doing bolus injection\n-usually they adapt and can recognize between a 10, 20 or  a 50 ml syring\n-there is an alarm ringing just before the end of the syring and when the syring is finished\n-it also rings when there is an obstruction or any other kind of problem (low pressure \/ high pressure)"
                            }
                        ]
                    }
                ]
            }
        ],
        "thread_ts": "1585992331.020400",
        "parent_user_id": "UV02WET96"
    },
    {
        "client_msg_id": "bfd9e65b-f410-4328-8dec-ce5aaa6d05b2",
        "type": "message",
        "text": "<@UV02WET96> <@U0119U5N3T3> How can I get access to a physical syringe pump and raspberry pi, so that I can help out? Can you mail one to me? I'm based in the US.",
        "user": "U011ARP8MRU",
        "ts": "1586072101.062300",
        "team": "TUU48M0T1",
        "user_team": "TUU48M0T1",
        "source_team": "TUU48M0T1",
        "user_profile": {
            "avatar_hash": "10e517b2a81d",
            "image_72": "https:\/\/avatars.slack-edge.com\/2020-04-05\/1044068223073_10e517b2a81d99669419_72.jpg",
            "first_name": "",
            "real_name": "Alex Flint",
            "display_name": "",
            "team": "TUU48M0T1",
            "name": "alex.flint",
            "is_restricted": false,
            "is_ultra_restricted": false
        },
        "blocks": [
            {
                "type": "rich_text",
                "block_id": "g7=z",
                "elements": [
                    {
                        "type": "rich_text_section",
                        "elements": [
                            {
                                "type": "user",
                                "user_id": "UV02WET96"
                            },
                            {
                                "type": "text",
                                "text": " "
                            },
                            {
                                "type": "user",
                                "user_id": "U0119U5N3T3"
                            },
                            {
                                "type": "text",
                                "text": " How can I get access to a physical syringe pump and raspberry pi, so that I can help out? Can you mail one to me? I'm based in the US."
                            }
                        ]
                    }
                ]
            }
        ]
    },
    {
        "client_msg_id": "9bb94762-7d2b-446c-8dd8-ec865da68600",
        "type": "message",
        "text": "hey <@U0119U5N3T3> based on my experience getting the software up and running I created a pull request with some updates to the readme: <https:\/\/github.com\/pachterlab\/poseidon\/pull\/31|https:\/\/github.com\/pachterlab\/poseidon\/pull\/31>",
        "user": "U011ARP8MRU",
        "ts": "1586072762.063200",
        "team": "TUU48M0T1",
        "user_team": "TUU48M0T1",
        "source_team": "TUU48M0T1",
        "user_profile": {
            "avatar_hash": "10e517b2a81d",
            "image_72": "https:\/\/avatars.slack-edge.com\/2020-04-05\/1044068223073_10e517b2a81d99669419_72.jpg",
            "first_name": "",
            "real_name": "Alex Flint",
            "display_name": "",
            "team": "TUU48M0T1",
            "name": "alex.flint",
            "is_restricted": false,
            "is_ultra_restricted": false
        },
        "attachments": [
            {
                "author_name": "alexflint",
                "fallback": "[pachterlab\/poseidon] #31 improve software instructions in readme",
                "text": "• New versions of pip complain about being invoked via an old wrapper, so use `python -m pip` rather than just `pip`\n• Consolidate the `apt-get` commands into a single line so that they can all be downloaded and installed in one batch.",
                "title": "#31 improve software instructions in readme",
                "footer": "<https:\/\/github.com\/pachterlab\/poseidon|pachterlab\/poseidon>",
                "id": 1,
                "title_link": "https:\/\/github.com\/pachterlab\/poseidon\/pull\/31",
                "author_link": "https:\/\/github.com\/alexflint",
                "author_icon": "https:\/\/avatars3.githubusercontent.com\/u\/640247?v=4",
                "footer_icon": "https:\/\/github.githubassets.com\/favicon.ico",
                "ts": 1586072715,
                "color": "36a64f",
                "mrkdwn_in": [
                    "text"
                ],
                "bot_id": "BUW789DM0",
                "app_unfurl_url": "https:\/\/github.com\/pachterlab\/poseidon\/pull\/31",
                "is_app_unfurl": true
            }
        ],
        "blocks": [
            {
                "type": "rich_text",
                "block_id": "F7r",
                "elements": [
                    {
                        "type": "rich_text_section",
                        "elements": [
                            {
                                "type": "text",
                                "text": "hey "
                            },
                            {
                                "type": "user",
                                "user_id": "U0119U5N3T3"
                            },
                            {
                                "type": "text",
                                "text": " based on my experience getting the software up and running I created a pull request with some updates to the readme: "
                            },
                            {
                                "type": "link",
                                "url": "https:\/\/github.com\/pachterlab\/poseidon\/pull\/31",
                                "text": "https:\/\/github.com\/pachterlab\/poseidon\/pull\/31"
                            }
                        ]
                    }
                ]
            }
        ]
    },
    {
        "type": "message",
        "subtype": "thread_broadcast",
        "text": "<@U011CCCTPFF> <@UV02WET96> Do we need camera support? The current poseidon software can capture images from a camera but if we don't need this then it will simplify things a bit.",
        "user": "U011ARP8MRU",
        "ts": "1586073336.063400",
        "thread_ts": "1585992331.020400",
        "root": {
            "client_msg_id": "BB448276-C2D2-4752-82CE-BF295D135F03",
            "type": "message",
            "text": "This is great <@U011ARP8MRU>! Thanks!\nThe goal here would be to have a very simplistic interface that could be controlled by a few knobs and a visualization on a small monitor attached to each syringe pump. Ideally no computer involved, except arduino\/raspberry pie style. \n<@U011CCCTPFF> could you ask what key parameters should be controlled by the knobs? (Speed\/time\/frequency\/?)",
            "user": "UV02WET96",
            "ts": "1585992331.020400",
            "team": "TUU48M0T1",
            "blocks": [
                {
                    "type": "rich_text",
                    "block_id": "UHk",
                    "elements": [
                        {
                            "type": "rich_text_section",
                            "elements": [
                                {
                                    "type": "text",
                                    "text": "This is great "
                                },
                                {
                                    "type": "user",
                                    "user_id": "U011ARP8MRU"
                                },
                                {
                                    "type": "text",
                                    "text": "! Thanks!\nThe goal here would be to have a very simplistic interface that could be controlled by a few knobs and a visualization on a small monitor attached to each syringe pump. Ideally no computer involved, except arduino\/raspberry pie style. \n"
                                },
                                {
                                    "type": "user",
                                    "user_id": "U011CCCTPFF"
                                },
                                {
                                    "type": "text",
                                    "text": " could you ask what key parameters should be controlled by the knobs? (Speed\/time\/frequency\/?)"
                                }
                            ]
                        }
                    ]
                }
            ],
            "thread_ts": "1585992331.020400",
            "reply_count": 11,
            "reply_users_count": 6,
            "latest_reply": "1586080405.065200",
            "reply_users": [
                "U010B4EJG2C",
                "UV02WET96",
                "U010Q1JH9FT",
                "U010GHT685A",
                "U011CCCTPFF",
                "U011ARP8MRU"
            ],
            "subscribed": false
        },
        "blocks": [
            {
                "type": "rich_text",
                "block_id": "MuG1",
                "elements": [
                    {
                        "type": "rich_text_section",
                        "elements": [
                            {
                                "type": "user",
                                "user_id": "U011CCCTPFF"
                            },
                            {
                                "type": "text",
                                "text": " "
                            },
                            {
                                "type": "user",
                                "user_id": "UV02WET96"
                            },
                            {
                                "type": "text",
                                "text": " Do we need camera support? The current poseidon software can capture images from a camera but if we don't need this then it will simplify things a bit."
                            }
                        ]
                    }
                ]
            }
        ],
        "client_msg_id": "9902428f-620e-4a45-8aa7-7957d7408212"
    },
    {
        "type": "message",
        "text": "Based on our discussion so far I put together this simple mockup for what the UI could look like. Let me know if this works for y'all.",
        "files": [
            {
                "id": "F0115JU6QLT",
                "created": 1586074257,
                "timestamp": 1586074257,
                "name": "Syringe pump UI mockup - Page 1.png",
                "title": "Syringe pump UI mockup - Page 1.png",
                "mimetype": "image\/png",
                "filetype": "png",
                "pretty_type": "PNG",
                "user": "U011ARP8MRU",
                "editable": false,
                "size": 146503,
                "mode": "hosted",
                "is_external": false,
                "external_type": "",
                "is_public": true,
                "public_url_shared": false,
                "display_as_bot": false,
                "username": "",
                "url_private": "https:\/\/files.slack.com\/files-pri\/TUU48M0T1-F0115JU6QLT\/syringe_pump_ui_mockup_-_page_1.png?t=xoxe-980144714919-1106606678066-1105227127893-6f722bb664235052954ad46852628b64",
                "url_private_download": "https:\/\/files.slack.com\/files-pri\/TUU48M0T1-F0115JU6QLT\/download\/syringe_pump_ui_mockup_-_page_1.png?t=xoxe-980144714919-1106606678066-1105227127893-6f722bb664235052954ad46852628b64",
                "thumb_64": "https:\/\/files.slack.com\/files-tmb\/TUU48M0T1-F0115JU6QLT-ab9072134d\/syringe_pump_ui_mockup_-_page_1_64.png?t=xoxe-980144714919-1106606678066-1105227127893-6f722bb664235052954ad46852628b64",
                "thumb_80": "https:\/\/files.slack.com\/files-tmb\/TUU48M0T1-F0115JU6QLT-ab9072134d\/syringe_pump_ui_mockup_-_page_1_80.png?t=xoxe-980144714919-1106606678066-1105227127893-6f722bb664235052954ad46852628b64",
                "thumb_360": "https:\/\/files.slack.com\/files-tmb\/TUU48M0T1-F0115JU6QLT-ab9072134d\/syringe_pump_ui_mockup_-_page_1_360.png?t=xoxe-980144714919-1106606678066-1105227127893-6f722bb664235052954ad46852628b64",
                "thumb_360_w": 360,
                "thumb_360_h": 217,
                "thumb_480": "https:\/\/files.slack.com\/files-tmb\/TUU48M0T1-F0115JU6QLT-ab9072134d\/syringe_pump_ui_mockup_-_page_1_480.png?t=xoxe-980144714919-1106606678066-1105227127893-6f722bb664235052954ad46852628b64",
                "thumb_480_w": 480,
                "thumb_480_h": 289,
                "thumb_160": "https:\/\/files.slack.com\/files-tmb\/TUU48M0T1-F0115JU6QLT-ab9072134d\/syringe_pump_ui_mockup_-_page_1_160.png?t=xoxe-980144714919-1106606678066-1105227127893-6f722bb664235052954ad46852628b64",
                "thumb_720": "https:\/\/files.slack.com\/files-tmb\/TUU48M0T1-F0115JU6QLT-ab9072134d\/syringe_pump_ui_mockup_-_page_1_720.png?t=xoxe-980144714919-1106606678066-1105227127893-6f722bb664235052954ad46852628b64",
                "thumb_720_w": 720,
                "thumb_720_h": 434,
                "thumb_800": "https:\/\/files.slack.com\/files-tmb\/TUU48M0T1-F0115JU6QLT-ab9072134d\/syringe_pump_ui_mockup_-_page_1_800.png?t=xoxe-980144714919-1106606678066-1105227127893-6f722bb664235052954ad46852628b64",
                "thumb_800_w": 800,
                "thumb_800_h": 482,
                "thumb_960": "https:\/\/files.slack.com\/files-tmb\/TUU48M0T1-F0115JU6QLT-ab9072134d\/syringe_pump_ui_mockup_-_page_1_960.png?t=xoxe-980144714919-1106606678066-1105227127893-6f722bb664235052954ad46852628b64",
                "thumb_960_w": 960,
                "thumb_960_h": 579,
                "thumb_1024": "https:\/\/files.slack.com\/files-tmb\/TUU48M0T1-F0115JU6QLT-ab9072134d\/syringe_pump_ui_mockup_-_page_1_1024.png?t=xoxe-980144714919-1106606678066-1105227127893-6f722bb664235052954ad46852628b64",
                "thumb_1024_w": 1024,
                "thumb_1024_h": 617,
                "image_exif_rotation": 1,
                "original_w": 2326,
                "original_h": 1402,
                "thumb_tiny": "AwAcADDTooNFACZz0opcUUAJnnGeaWjFFAAaPxoooAKKKMCgAooxRQB\/\/9k=",
                "permalink": "https:\/\/open-covid19.slack.com\/files\/U011ARP8MRU\/F0115JU6QLT\/syringe_pump_ui_mockup_-_page_1.png",
                "permalink_public": "https:\/\/slack-files.com\/TUU48M0T1-F0115JU6QLT-76b516b110",
                "is_starred": false,
                "has_rich_preview": false
            }
        ],
        "upload": true,
        "blocks": [
            {
                "type": "rich_text",
                "block_id": "mFwE",
                "elements": [
                    {
                        "type": "rich_text_section",
                        "elements": [
                            {
                                "type": "text",
                                "text": "Based on our discussion so far I put together this simple mockup for what the UI could look like. Let me know if this works for y'all."
                            }
                        ]
                    }
                ]
            }
        ],
        "user": "U011ARP8MRU",
        "display_as_bot": false,
        "ts": "1586074303.064600",
        "client_msg_id": "1109a146-7f1f-4d85-9691-f8b603ac3017"
    },
    {
        "client_msg_id": "1eceabf8-163f-46c0-937e-55f72e34a5c1",
        "type": "message",
        "text": "<@U010GHT685A> True. We can still use an arudino laying around as a dev board. Then we let the final product to be produced by a reputable manufacturer who will follow all the standards we need including X-ray scanning each board for quality of soldering and environmental tests.",
        "user": "U010B4EJG2C",
        "ts": "1586075156.064900",
        "team": "TUU48M0T1",
        "user_team": "TUU48M0T1",
        "source_team": "TUU48M0T1",
        "user_profile": {
            "avatar_hash": "5c9626d7b328",
            "image_72": "https:\/\/avatars.slack-edge.com\/2020-03-19\/1011171782821_5c9626d7b328e5dc84ea_72.jpg",
            "first_name": "Adam",
            "real_name": "Adam Krovina",
            "display_name": "Adam Krovina",
            "team": "TUU48M0T1",
            "name": "adam",
            "is_restricted": false,
            "is_ultra_restricted": false
        },
        "blocks": [
            {
                "type": "rich_text",
                "block_id": "LAU+A",
                "elements": [
                    {
                        "type": "rich_text_section",
                        "elements": [
                            {
                                "type": "user",
                                "user_id": "U010GHT685A"
                            },
                            {
                                "type": "text",
                                "text": " True. We can still use an arudino laying around as a dev board. Then we let the final product to be produced by a reputable manufacturer who will follow all the standards we need including X-ray scanning each board for quality of soldering and environmental tests."
                            }
                        ]
                    }
                ]
            }
        ],
        "thread_ts": "1585992331.020400",
        "parent_user_id": "UV02WET96",
        "reactions": [
            {
                "name": "+1",
                "users": [
                    "U01181TG37X"
                ],
                "count": 1
            }
        ]
    },
    {
        "client_msg_id": "83a70e83-aca0-470f-901e-16a333dcf555",
        "type": "message",
        "text": "<@U011ARP8MRU> no need for a camera support.",
        "user": "U011CCCTPFF",
        "ts": "1586080405.065200",
        "team": "TUU48M0T1",
        "user_team": "TUU48M0T1",
        "source_team": "TUU48M0T1",
        "user_profile": {
            "avatar_hash": "g2da64e70875",
            "image_72": "https:\/\/secure.gravatar.com\/avatar\/2da64e708759c4d7ba60d53bea82013a.jpg?s=72&d=https%3A%2F%2Fa.slack-edge.com%2Fdf10d%2Fimg%2Favatars%2Fava_0008-72.png",
            "first_name": "",
            "real_name": "Bloch",
            "display_name": "Bloch",
            "team": "TUU48M0T1",
            "name": "k.bloch.maier",
            "is_restricted": false,
            "is_ultra_restricted": false
        },
        "blocks": [
            {
                "type": "rich_text",
                "block_id": "\/ZrD",
                "elements": [
                    {
                        "type": "rich_text_section",
                        "elements": [
                            {
                                "type": "user",
                                "user_id": "U011ARP8MRU"
                            },
                            {
                                "type": "text",
                                "text": " no need for a camera support."
                            }
                        ]
                    }
                ]
            }
        ],
        "thread_ts": "1585992331.020400",
        "parent_user_id": "UV02WET96"
    },
    {
        "client_msg_id": "6BAC6307-BA41-496F-A9EE-5CD431239F69",
        "type": "message",
        "text": "Hi Sina! Thanks for joining us! \nThe reason we are going with a simple design is because hospitals need syringe pumps now so it has to be a model that can be manufactured easily and fast. Your design was fitting this demand. ",
        "user": "UV02WET96",
        "ts": "1586083091.068100",
        "team": "TUU48M0T1",
        "user_team": "TUU48M0T1",
        "source_team": "TUU48M0T1",
        "user_profile": {
            "avatar_hash": "a99c74a194f8",
            "image_72": "https:\/\/avatars.slack-edge.com\/2020-03-07\/975708504851_a99c74a194f86715ca7d_72.png",
            "first_name": "Thomas",
            "real_name": "Thomas Landrain",
            "display_name": "Thomas Landrain - JOGL CoFounder \/ CEO",
            "team": "TUU48M0T1",
            "name": "thomas",
            "is_restricted": false,
            "is_ultra_restricted": false
        },
        "blocks": [
            {
                "type": "rich_text",
                "block_id": "tynRj",
                "elements": [
                    {
                        "type": "rich_text_section",
                        "elements": [
                            {
                                "type": "text",
                                "text": "Hi Sina! Thanks for joining us! \nThe reason we are going with a simple design is because hospitals need syringe pumps now so it has to be a model that can be manufactured easily and fast. Your design was fitting this demand. "
                            }
                        ]
                    }
                ]
            }
        ],
        "thread_ts": "1586065001.060500",
        "parent_user_id": "U0119U5N3T3"
    },
    {
        "client_msg_id": "237BEFDF-FC3A-4018-AD15-7FA039FDF7CB",
        "type": "message",
        "text": "Hey all, just woke up. I think it may be a good idea to meet to discuss exactly what the needs and goals are for the pump and design from there? <@U011ARP8MRU> I’ll take a look st the PR. Just a heads up, I rewrote the Arduino code (fixed a ton of bugs) and will be pushing to the GitHub repo soon. In terms of a new UI, changes are quite easy to make. Also keep in mind the pump does not need to be run from a raspberry pi. It could be run off of a standard computer. ",
        "user": "U0119U5N3T3",
        "ts": "1586107255.072600",
        "team": "TUU48M0T1",
        "user_team": "TUU48M0T1",
        "source_team": "TUU48M0T1",
        "user_profile": {
            "avatar_hash": "b3b38b63650e",
            "image_72": "https:\/\/avatars.slack-edge.com\/2020-04-04\/1047354985190_b3b38b63650e809885b3_72.jpg",
            "first_name": "",
            "real_name": "Sina Booeshaghi",
            "display_name": "Sina Booeshaghi",
            "team": "TUU48M0T1",
            "name": "abooesha",
            "is_restricted": false,
            "is_ultra_restricted": false
        }
    },
    {
        "client_msg_id": "2FEE9B9F-9694-414B-9762-7AC1CB146CDB",
        "type": "message",
        "text": "Thanks Sina! Feel free to have a call between you. Otherwise I propose a call tomorrow at 9pm CET (Paris time). Would that work with you? ",
        "user": "UV02WET96",
        "ts": "1586114439.074100",
        "team": "TUU48M0T1",
        "user_team": "TUU48M0T1",
        "source_team": "TUU48M0T1",
        "user_profile": {
            "avatar_hash": "a99c74a194f8",
            "image_72": "https:\/\/avatars.slack-edge.com\/2020-03-07\/975708504851_a99c74a194f86715ca7d_72.png",
            "first_name": "Thomas",
            "real_name": "Thomas Landrain",
            "display_name": "Thomas Landrain - JOGL CoFounder \/ CEO",
            "team": "TUU48M0T1",
            "name": "thomas",
            "is_restricted": false,
            "is_ultra_restricted": false
        },
        "blocks": [
            {
                "type": "rich_text",
                "block_id": "5Jy",
                "elements": [
                    {
                        "type": "rich_text_section",
                        "elements": [
                            {
                                "type": "text",
                                "text": "Thanks Sina! Feel free to have a call between you. Otherwise I propose a call tomorrow at 9pm CET (Paris time). Would that work with you? "
                            }
                        ]
                    }
                ]
            }
        ]
    },
    {
        "client_msg_id": "79E0FB7E-03FF-42E0-8EAC-B03CBF67445D",
        "type": "message",
        "text": "That works for me",
        "user": "U0119U5N3T3",
        "ts": "1586117044.074300",
        "team": "TUU48M0T1",
        "user_team": "TUU48M0T1",
        "source_team": "TUU48M0T1",
        "user_profile": {
            "avatar_hash": "b3b38b63650e",
            "image_72": "https:\/\/avatars.slack-edge.com\/2020-04-04\/1047354985190_b3b38b63650e809885b3_72.jpg",
            "first_name": "",
            "real_name": "Sina Booeshaghi",
            "display_name": "Sina Booeshaghi",
            "team": "TUU48M0T1",
            "name": "abooesha",
            "is_restricted": false,
            "is_ultra_restricted": false
        }
    },
    {
        "client_msg_id": "5d26a302-cc62-4476-a8b5-df4d6187034b",
        "type": "message",
        "text": "great!",
        "user": "UV02WET96",
        "ts": "1586117474.074600",
        "team": "TUU48M0T1",
        "user_team": "TUU48M0T1",
        "source_team": "TUU48M0T1",
        "user_profile": {
            "avatar_hash": "a99c74a194f8",
            "image_72": "https:\/\/avatars.slack-edge.com\/2020-03-07\/975708504851_a99c74a194f86715ca7d_72.png",
            "first_name": "Thomas",
            "real_name": "Thomas Landrain",
            "display_name": "Thomas Landrain - JOGL CoFounder \/ CEO",
            "team": "TUU48M0T1",
            "name": "thomas",
            "is_restricted": false,
            "is_ultra_restricted": false
        },
        "blocks": [
            {
                "type": "rich_text",
                "block_id": "fIrxv",
                "elements": [
                    {
                        "type": "rich_text_section",
                        "elements": [
                            {
                                "type": "text",
                                "text": "great!"
                            }
                        ]
                    }
                ]
            }
        ]
    },
    {
        "client_msg_id": "589b43e3-fa86-4e2a-a267-a439b72bebd3",
        "type": "message",
        "text": "Also, here is another open source work on a syringe pump; I like the fact that the monitor and the computing part is integrated to the design. If possible we should avoid external computers.",
        "user": "UV02WET96",
        "ts": "1586117557.076000",
        "team": "TUU48M0T1",
        "user_team": "TUU48M0T1",
        "source_team": "TUU48M0T1",
        "user_profile": {
            "avatar_hash": "a99c74a194f8",
            "image_72": "https:\/\/avatars.slack-edge.com\/2020-03-07\/975708504851_a99c74a194f86715ca7d_72.png",
            "first_name": "Thomas",
            "real_name": "Thomas Landrain",
            "display_name": "Thomas Landrain - JOGL CoFounder \/ CEO",
            "team": "TUU48M0T1",
            "name": "thomas",
            "is_restricted": false,
            "is_ultra_restricted": false
        },
        "blocks": [
            {
                "type": "rich_text",
                "block_id": "a5kg",
                "elements": [
                    {
                        "type": "rich_text_section",
                        "elements": [
                            {
                                "type": "text",
                                "text": "Also, here is another open source work on a syringe pump; I like the fact that the monitor and the computing part is integrated to the design. If possible we should avoid external computers."
                            }
                        ]
                    }
                ]
            }
        ]
    },
    {
        "client_msg_id": "686c1f0c-5481-460a-a370-f91b829c5d07",
        "type": "message",
        "text": "<https:\/\/github.com\/jmcabaleiro\/syringe-pumpV2>",
        "user": "UV02WET96",
        "ts": "1586117561.076200",
        "team": "TUU48M0T1",
        "user_team": "TUU48M0T1",
        "source_team": "TUU48M0T1",
        "user_profile": {
            "avatar_hash": "a99c74a194f8",
            "image_72": "https:\/\/avatars.slack-edge.com\/2020-03-07\/975708504851_a99c74a194f86715ca7d_72.png",
            "first_name": "Thomas",
            "real_name": "Thomas Landrain",
            "display_name": "Thomas Landrain - JOGL CoFounder \/ CEO",
            "team": "TUU48M0T1",
            "name": "thomas",
            "is_restricted": false,
            "is_ultra_restricted": false
        },
        "attachments": [
            {
                "fallback": "jmcabaleiro\/syringe-pumpV2",
                "text": "Here you will find solid works parts and assembly to print in a fdm printer, along with the arduino software to control the pump. ",
                "title": "jmcabaleiro\/syringe-pumpV2",
                "footer": "<https:\/\/github.com\/jmcabaleiro\/syringe-pumpV2|jmcabaleiro\/syringe-pumpV2>",
                "id": 1,
                "footer_icon": "https:\/\/github.githubassets.com\/favicon.ico",
                "ts": 1566412032,
                "color": "24292f",
                "fields": [
                    {
                        "title": "Stars",
                        "value": "1",
                        "short": true
                    },
                    {
                        "title": "Language",
                        "value": "C++",
                        "short": true
                    }
                ],
                "mrkdwn_in": [
                    "text",
                    "fields"
                ],
                "bot_id": "BUW789DM0",
                "app_unfurl_url": "https:\/\/github.com\/jmcabaleiro\/syringe-pumpV2",
                "is_app_unfurl": true
            }
        ],
        "blocks": [
            {
                "type": "rich_text",
                "block_id": "MwRZ",
                "elements": [
                    {
                        "type": "rich_text_section",
                        "elements": [
                            {
                                "type": "link",
                                "url": "https:\/\/github.com\/jmcabaleiro\/syringe-pumpV2"
                            }
                        ]
                    }
                ]
            }
        ]
    },
    {
        "type": "message",
        "subtype": "channel_join",
        "ts": "1586117681.076500",
        "user": "U010HTBUHS9",
        "text": "<@U010HTBUHS9> has joined the channel",
        "inviter": "UV02WET96"
    },
    {
        "client_msg_id": "8af2ffb9-856b-4815-98b1-55615433417d",
        "type": "message",
        "text": "All - sorry I'm late to the group.  Background is mechanical engineering faculty at uni in the US, before that fifteen years in industry about half was building FDA compliant devices.\n\nQuestion - do we have a specs doc yet?  Flow rates, max pressure or force, syringe volume, accuracy, etc. so we can know the goals?",
        "user": "U010HTBUHS9",
        "ts": "1586117887.078200",
        "team": "TUU48M0T1",
        "user_team": "TUU48M0T1",
        "source_team": "TUU48M0T1",
        "user_profile": {
            "avatar_hash": "e7bdbebff0d9",
            "image_72": "https:\/\/avatars.slack-edge.com\/2020-03-22\/1017951251813_e7bdbebff0d9ad1e8f12_72.jpg",
            "first_name": "",
            "real_name": "Adam Arabian",
            "display_name": "Adam Arabian",
            "team": "TUU48M0T1",
            "name": "adam.arabian",
            "is_restricted": false,
            "is_ultra_restricted": false
        },
        "blocks": [
            {
                "type": "rich_text",
                "block_id": "95yQE",
                "elements": [
                    {
                        "type": "rich_text_section",
                        "elements": [
                            {
                                "type": "text",
                                "text": "All - sorry I'm late to the group.  Background is mechanical engineering faculty at uni in the US, before that fifteen years in industry about half was building FDA compliant devices.\n\nQuestion - do we have a specs doc yet?  Flow rates, max pressure or force, syringe volume, accuracy, etc. so we can know the goals?"
                            }
                        ]
                    }
                ]
            }
        ]
    },
    {
        "client_msg_id": "013e4156-049b-4da8-99fd-2aaee41d6c2f",
        "type": "message",
        "text": "people from APHP are supposed to give us this. We should have them tomorrow",
        "user": "UV02WET96",
        "ts": "1586117934.078700",
        "team": "TUU48M0T1",
        "user_team": "TUU48M0T1",
        "source_team": "TUU48M0T1",
        "user_profile": {
            "avatar_hash": "a99c74a194f8",
            "image_72": "https:\/\/avatars.slack-edge.com\/2020-03-07\/975708504851_a99c74a194f86715ca7d_72.png",
            "first_name": "Thomas",
            "real_name": "Thomas Landrain",
            "display_name": "Thomas Landrain - JOGL CoFounder \/ CEO",
            "team": "TUU48M0T1",
            "name": "thomas",
            "is_restricted": false,
            "is_ultra_restricted": false
        },
        "blocks": [
            {
                "type": "rich_text",
                "block_id": "VWp\/",
                "elements": [
                    {
                        "type": "rich_text_section",
                        "elements": [
                            {
                                "type": "text",
                                "text": "people from APHP are supposed to give us this. We should have them tomorrow"
                            }
                        ]
                    }
                ]
            }
        ]
    },
    {
        "client_msg_id": "6036e07b-3206-46de-b544-28b6048faabf",
        "type": "message",
        "text": "here are the specs of an existing open source syringe pump (in spanish though) <https:\/\/github.com\/jmcabaleiro\/syringe-pumpV2\/blob\/master\/software\/Manual%20-%20Leeme.txt>",
        "user": "UV02WET96",
        "ts": "1586118025.079400",
        "team": "TUU48M0T1",
        "user_team": "TUU48M0T1",
        "source_team": "TUU48M0T1",
        "user_profile": {
            "avatar_hash": "a99c74a194f8",
            "image_72": "https:\/\/avatars.slack-edge.com\/2020-03-07\/975708504851_a99c74a194f86715ca7d_72.png",
            "first_name": "Thomas",
            "real_name": "Thomas Landrain",
            "display_name": "Thomas Landrain - JOGL CoFounder \/ CEO",
            "team": "TUU48M0T1",
            "name": "thomas",
            "is_restricted": false,
            "is_ultra_restricted": false
        },
        "attachments": [
            {
                "fallback": "[jmcabaleiro\/syringe-pumpV2] software\/Manual - Leeme.txt",
                "text": "```\nThis software has been developed by Emanuel Elizalde. Translation to english coming soon.\n\nIntroduccion:\n────────────\n\nA fin de establecer una velocidad de avance del carro, la placa Arduino\ngenera una onda cuadrada. Esta onda funciona como un tren de pulsos, donde\ncada pulso produce el avance de un micropaso del motor. Por lo tanto\nla frecuencia de esta onda es proporcional a la velocidad de avance del carro.\n\nLos valores aceptables para esta frecuencia son números enteros entre 31 y 12500 Hz.\nEsto conlleva la constitución de valores mínimos y máximos para el caudal\ndependiendo de la jeringa utilizada.\n\nPor este motivo al seleccionar un caudal en el Modo Flow-Rate o al seleccionar\nun tiempo en el Modo Volume-Time, el sistema realiza la verificación de si los\nvalores seleccionados son alcanzables dada la calibracion de la jeringa.\n\nAdemás la escala de valores reales alcanzables queda discretizada.\nEsto se debe a que la frecuencia solo puede tomar valores enteros.\nPor lo tanto el sistema diferencia entre el valor consigna y el valor real.\nPor este motivo se decide que el modo de reajuste del caudal en tiempo real\ndentro del Modo Flow-Rate trabaje en base a la frecuencia.\nEs decir que se le permite al usuario establecer la frecuencia como consigna\nmostrando el caudal real derivado de dicha frecuencia.\n\nMANUAL DE USUARIO:\n─────────────────\n\nUtilizar las teclas UP y DOWN para desplazarse por el menu principal\n\n*----------------*\n|1 ← Fast Move → |\n|  Displace Cart |\n*----------------*\n\nPantalla de bienvenida. Modo de movimiento rápido.\nUtilice las teclas LEFT y RIGHT para posicionar el carro.\nRIGHT: mueve el carro hacia atrás a fin de dar lugar a la jeringa.\nLEFT: mueve el carro hacia adelante a fin de tomar contacto con la jeringa.\n\t│\t*----------------*\n\t└──&gt;|ENDSTOP REACHED |\n\t\t|                |\n\t\t*----------------*\n\t\tSi se acciona el Final de Carrera se muestra este mensaje\n\t\tal intentar avanzar hacia adelante.\n\t\tUtil para calibrar el Tornillo de Final de Carrera\n\t\t\n*----------------*\n|2 Calibrate     |\n|  Syringe       |\n*----------------*\n │\n │Presione SELECT para entrar a las pantallas de calibracion de la jeringa.\n │\t*----------------*\n └─&gt;|Syringe Length: |\n\t|_58000 μm       |\n │\t*----------------*\n │\tEstablecer la longitud de la jeringa.\n │\tMedir la distancia entre dos marcas de graduación de volumen.\n │\tEl cursor titila indicando cuál cifra se modificará.\n │\tLEFT y RIGHT: mueve el cursor entre las posiciones decimales.\n │\tUP y DOWN: incrementa o decrementa el valor de la cifra seleccionada.\n │\tSELECT: Acepta el valor. Se muestra el mensaje de aceptación.\n │\t\t*----------------*\n │\t\t|Length Selected:|\n │\t\t|       58000 μm |\n │\t\t*----------------*\n │\n └─&gt;*----------------*\n\t|Syringe Volume: |\n\t|__1000 μL       |\n\t*----------------*\n\tEstablecer el volumen de la jeringa definido por las marcas de graduación.\n\tLEFT, RIGHT, UP y DOWN: cambia las cifras.\n\tSELECT: Acepta el valor. Muestra mensaje y vuelve al Menu Principal\n\t\t*----------------*\n\t\t|Volume Selected:|\n\t\t|        1000 μL |\n\t\t*----------------*\n\t\t\t\t│\n&lt;───────────────┘\n*----------------*\n|3 Enter Mode    |\n|  Flow-Rate     |\n*----------------*\n │\tIngresar al Modo Caudal.\n │\tUna vez posicionado el carro y configurada la jeringa,\n │\tse ingresa a uno de los dos modos de RUN.\n │\tEn este modo se selecciona un caudal y el sistema calcula\n │\tla velocidad de avance.\n │\t*----------------*\n └─&gt;|Flow-Rate:      | &lt;────────────────────────────────────────────┐\n │\t|__5000 μL\/h     |\t\t\t\t\t\t\t\t\t\t\t\t│\n │\t*----------------*\t\t\t\t\t\t\t\t\t\t\t\t│\n │\tEstablecer el caudal   \t\t\t\t\t\t\t\t\t\t\t│\n │\tLEFT, RIGHT, UP y DOWN: cambia las cifras.\t\t\t\t\t\t│\n │\tSELECT: Acepta el valor. Calcula la velocidad necesaria.\t\t│ \n │ \t\t\t\t\t\t\t\t\t\t\t\t\t\t\t\t\t│\n │\tSi la velocidad no está en los limites operativos se solicita\t│\n │\tque se vuelva a seleccionar el caudal.\t\t\t\t\t\t\t│\n │\t\t*----------------*\t\t\t\t\t\t\t\t\t\t\t│\n │\t\t|Must be:        |\t\t\t\t\t\t\t\t\t\t\t│\n │\t\t|    89&lt;Q&lt;36188  | ─────────────────────────────────────────┘\n │\t\t*----------------*\n │\tSi el caudal esta dentro del limite operativose acepta el valor \n │  y se continua a la pantalla de Runinng.\n │\t\t*----------------*\n └─────&gt;|FlowRateAcepted:|\n\t│\t|    5000 μL\/h   |\n\t│\t*----------------*\n\t│ Pantalla de Runinng. El sistema queda listo para iniciar el bombeo.\n\t│ La pantalla oscila entre las instrucciones de ejecucion\n\t│ y la pantalla de información del caudal seteado.\n\t│\t*----------------*\t  *----------------*\n\t└──&gt;| RIGHT TO START | &lt;&gt; | Set Point:     |\n\t│\t| LEFT TO CANCEL | &lt;&gt; | 5000 μL\/h      |\n\t│\t*----------------*\t  *----------------*\n\t│\tLEFT: cancela la operacion. Vuelve al Menu Principal.\n\t│\tRIGHT: inicia el bombeo\n\t│\t\t*----------------*\n\t│\t\t| Operation      |\n\t│\t\t| Cancelled      |\n\t│\t\t*----------------*\n&lt;───────────────┘\n\t│\n\t│   Se inicia el bombeo. La pantalla continua oscilando\n\t│   entre instrucciones y el caudal real.\n\t│\tOpcionalmente se puede ingresar al modo de ajuste en tiempo real.\n\t│\t*----------------*\t  *----------------*\t*----------------*\n\t└──&gt;|     RUNINNG    | &lt;&gt; |Flow Rate:      | &lt;&gt; | Press RIGHT to |&lt;─────┐\n\t \t| SELECT TO STOP | &lt;&gt; |   4999 μL\/h    | &lt;&gt; |real-time adjust|\t\t│\n\t \t*----------------*\t  *----------------*\t*----------------*\t\t│\n\t \tSELECT: detiene el flujo.\t\t\t\t\t\t\t\t\t\t\t│\n\t \tRIGHT: ingresa al cambio de caudal sin detener la operación.\t\t│\n\t\t│\t*----------------*\t\t\t\t\t\t\t\t\t\t\t\t│\t\n\t\t│\t|      FLOW      |\t\t\t\t\t\t\t\t\t\t\t\t│\n\t\t│\t|    STOPPED     |\t\t\t\t\t\t\t\t\t\t\t\t│\n\t\t│\t*----------------*\t\t\t\t\t\t\t\t\t\t\t\t│\n&lt;───────────────┘\t\t\t\t\t\t\t\t\t\t\t\t\t\t\t│\n\t\t│\t*----------------*\t\t\t\t\t\t\t\t\t\t\t\t│\n\t\t└──&gt;|F-R: 004999 μL\/h|\t\t\t\t\t\t\t\t\t\t\t\t│\n\t\t\t|freq: _1727 Hz  |\t\t\t\t\t\t\t\t\t\t\t\t│\n\t\t\t*----------------*\t\t\t\t\t\t\t\t\t\t\t\t│\n\t\t\tEn esta pantalla se puede seleccionar la frecuencia de\t\t\t│\n\t\t\toperacion mientras se continua con el bombeo.\t\t\t\t\t│\n\t\t\tMediante el teclado se puede cambiar la frecuencia en tiempo\t│\t\n\t\t\treal y el sistema muestra el caudal equivalente.\t\t\t\t│\n\t\t\tSe establece automaticamente que:  31&lt;freq&lt;10000.\t\t\t\t│\n\t\t\tLEFT, RIGHT, UP y DOWN: cambia las cifras de la frecuencia.\t\t│\n\t\t\tSELECT: Vuelve a la pantalla anterior ──────────────────────────┘\n\t\t│\n\t\t│\tSi en cualquier momento durante el bombeo se acciona el \n\t\t│ \tel switch de final de carrera la operacion se aborta.\n\t\t│\t*----------------*\t  *----------------*\n\t\t└──&gt;|Flow Aborted    | &lt;&gt; |Pres SELECT to  |\n\t\t\t|Endstop Reached | &lt;&gt; |return Main Menu|\n\t\t\t*----------------*\t  *----------------*\n\t\t\tSELECT: Quita la pantalla y vuelve al menu principal\n&lt;────────────────────┘\t\n\n*----------------*\n|4 Enter Mode    |\n|  Volume-Time   |\n*----------------*\n │\tIngresar al Modo Volumen-Tiempo.\n │\tUna vez posicionado el carro y configurada la jeringa,\n │\tse ingresa a uno de los dos modos de RUN.\n │\tEn este modo se selecciona un Volumen Total a bombear y \n │\tun Tiempo Total en el cual se ejecutará el bombeo.\n │\tEl sistema calculará la velocidad a la cual debe avanzar el carro.\n │  Alcanzado el Tiempo Total, se detiene el avance del carro.\n │\t*----------------*\n └─&gt;|Total Volume:   |\n │\t|___500 μL       |\n │\t*----------------*\n │\tEstablecer el volumen a ser bombeado.\n │\tEs responsabilidad del usuario que la jeringa\n │  tenga el volumen suficiente de liquido.\n │\tLEFT, RIGHT, UP y DOWN: cambia las cifras.\n │\tSELECT: Acepta el valor. Continua a seleccion de tiempo.\n │\t\t*----------------*\n │\t\t|Volume Selected:|\n │\t\t|         500 μL |\n │\t\t*----------------*\n │\n │\t*----------------*\n └─&gt;|Total Time:     | &lt;────────────────────────────────────────────┐\n │\t|___360 Seconds  |\t\t\t\t\t\t\t\t\t\t\t\t│\n │\t*----------------*\t\t\t\t\t\t\t\t\t\t\t\t│\n │\tEstablecer el tiempo total en el cual el volumen \t\t\t\t│\n │  seleccionado debe ser bombeado.\t\t\t\t\t\t\t\t\t│\n │\tLEFT, RIGHT, UP y DOWN: cambia las cifras.\t\t\t\t\t\t│\n │\tSELECT: Acepta el valor. Calcula la velocidad necesaria.\t\t│ \n │ \t\t\t\t\t\t\t\t\t\t\t\t\t\t\t\t\t│\n │\tSi la velocidad no está en los limites operativos se solicita\t│\n │\tque se vuelva a seleccionar un tiempo.\t\t\t\t\t\t\t│\n │\t\t*----------------*\t\t\t\t\t\t\t\t\t…",
                "title": "software\/Manual - Leeme.txt",
                "footer": "<https:\/\/github.com\/jmcabaleiro\/syringe-pumpV2|jmcabaleiro\/syringe-pumpV2>",
                "id": 1,
                "title_link": "https:\/\/github.com\/jmcabaleiro\/syringe-pumpV2\/blob\/master\/software\/Manual%20-%20Leeme.txt",
                "footer_icon": "https:\/\/github.githubassets.com\/favicon.ico",
                "color": "24292f",
                "mrkdwn_in": [
                    "text"
                ],
                "bot_id": "BUW789DM0",
                "app_unfurl_url": "https:\/\/github.com\/jmcabaleiro\/syringe-pumpV2\/blob\/master\/software\/Manual%20-%20Leeme.txt",
                "is_app_unfurl": true
            }
        ],
        "blocks": [
            {
                "type": "rich_text",
                "block_id": "u8xkS",
                "elements": [
                    {
                        "type": "rich_text_section",
                        "elements": [
                            {
                                "type": "text",
                                "text": "here are the specs of an existing open source syringe pump (in spanish though) "
                            },
                            {
                                "type": "link",
                                "url": "https:\/\/github.com\/jmcabaleiro\/syringe-pumpV2\/blob\/master\/software\/Manual%20-%20Leeme.txt"
                            }
                        ]
                    }
                ]
            }
        ]
    },
    {
        "client_msg_id": "d629b445-24d6-4721-9fed-addd9b2f5316",
        "type": "message",
        "text": "The syringe pumps will be used for delivering mostly food to patients so nothing too critical such as anaesthetic drugs.",
        "user": "UV02WET96",
        "ts": "1586118081.080300",
        "team": "TUU48M0T1",
        "user_team": "TUU48M0T1",
        "source_team": "TUU48M0T1",
        "user_profile": {
            "avatar_hash": "a99c74a194f8",
            "image_72": "https:\/\/avatars.slack-edge.com\/2020-03-07\/975708504851_a99c74a194f86715ca7d_72.png",
            "first_name": "Thomas",
            "real_name": "Thomas Landrain",
            "display_name": "Thomas Landrain - JOGL CoFounder \/ CEO",
            "team": "TUU48M0T1",
            "name": "thomas",
            "is_restricted": false,
            "is_ultra_restricted": false
        },
        "edited": {
            "user": "UV02WET96",
            "ts": "1586118099.000000"
        },
        "blocks": [
            {
                "type": "rich_text",
                "block_id": "7R6",
                "elements": [
                    {
                        "type": "rich_text_section",
                        "elements": [
                            {
                                "type": "text",
                                "text": "The syringe pumps will be used for delivering mostly food to patients so nothing too critical such as anaesthetic drugs."
                            }
                        ]
                    }
                ]
            }
        ],
        "reactions": [
            {
                "name": "+1",
                "users": [
                    "U010B4EJG2C"
                ],
                "count": 1
            }
        ]
    },
    {
        "client_msg_id": "401D396C-D7B9-4568-9B80-12881BD24DA0",
        "type": "message",
        "text": "Thanks for the info <@UV02WET96> ",
        "user": "U0119U5N3T3",
        "ts": "1586118976.080900",
        "team": "TUU48M0T1",
        "user_team": "TUU48M0T1",
        "source_team": "TUU48M0T1",
        "user_profile": {
            "avatar_hash": "b3b38b63650e",
            "image_72": "https:\/\/avatars.slack-edge.com\/2020-04-04\/1047354985190_b3b38b63650e809885b3_72.jpg",
            "first_name": "",
            "real_name": "Sina Booeshaghi",
            "display_name": "Sina Booeshaghi",
            "team": "TUU48M0T1",
            "name": "abooesha",
            "is_restricted": false,
            "is_ultra_restricted": false
        }
    },
    {
        "client_msg_id": "36c54813-d937-426c-a517-395d251f5053",
        "type": "message",
        "text": "Sorry to be late in this channel. My background is both medical and engineering\/programming. Waiting about specifications from APHP ?",
        "user": "U010U9EHR7T",
        "ts": "1586119742.083300",
        "team": "TUU48M0T1",
        "user_team": "TUU48M0T1",
        "source_team": "TUU48M0T1",
        "user_profile": {
            "avatar_hash": "g36ea42e25d9",
            "image_72": "https:\/\/secure.gravatar.com\/avatar\/ad392afd49098e1505b10c168f27050d.jpg?s=72&d=https%3A%2F%2Fa.slack-edge.com%2Fdf10d%2Fimg%2Favatars%2Fava_0004-72.png",
            "first_name": "Jean-Loup",
            "real_name": "Jean-Loup DUBREUCQ",
            "display_name": "jldubreucq",
            "team": "TUU48M0T1",
            "name": "jlmd.jogl",
            "is_restricted": false,
            "is_ultra_restricted": false
        },
        "blocks": [
            {
                "type": "rich_text",
                "block_id": "MEMw6",
                "elements": [
                    {
                        "type": "rich_text_section",
                        "elements": [
                            {
                                "type": "text",
                                "text": "Sorry to be late in this channel. My background is both medical and engineering\/programming. Waiting about specifications from APHP ?"
                            }
                        ]
                    }
                ]
            }
        ]
    },
    {
        "client_msg_id": "39c61c50-8bb0-42c1-99e2-6a01d7bb9c55",
        "type": "message",
        "text": "<@UV02WET96> Are you sure the coming devices will be used only for enteral nutrition, or alternatively for infusion or parenteral nutrition ?",
        "user": "U010U9EHR7T",
        "ts": "1586120769.084500",
        "team": "TUU48M0T1",
        "user_team": "TUU48M0T1",
        "source_team": "TUU48M0T1",
        "user_profile": {
            "avatar_hash": "g36ea42e25d9",
            "image_72": "https:\/\/secure.gravatar.com\/avatar\/ad392afd49098e1505b10c168f27050d.jpg?s=72&d=https%3A%2F%2Fa.slack-edge.com%2Fdf10d%2Fimg%2Favatars%2Fava_0004-72.png",
            "first_name": "Jean-Loup",
            "real_name": "Jean-Loup DUBREUCQ",
            "display_name": "jldubreucq",
            "team": "TUU48M0T1",
            "name": "jlmd.jogl",
            "is_restricted": false,
            "is_ultra_restricted": false
        },
        "edited": {
            "user": "U010U9EHR7T",
            "ts": "1586123598.000000"
        },
        "blocks": [
            {
                "type": "rich_text",
                "block_id": "59ul",
                "elements": [
                    {
                        "type": "rich_text_section",
                        "elements": [
                            {
                                "type": "user",
                                "user_id": "UV02WET96"
                            },
                            {
                                "type": "text",
                                "text": " Are you sure the coming devices will be used only for enteral nutrition, or alternatively for infusion or parenteral nutrition ?"
                            }
                        ]
                    }
                ]
            }
        ]
    },
    {
        "client_msg_id": "96f77e3a-be23-4c15-bd6b-140d1c80b749",
        "type": "message",
        "text": "We assembled, here at Nancy, a prototype on the basis of this project : <https:\/\/karpova-lab.github.io\/syringe-pump\/>\nBeing laser cut, the device is quickly manufactured and assembled.\nNo automatic detection of the syringe capacity, but anyway, even on devices with this feature, the exact model must be confirmed, i.e. by human people. We can add to software some kind of menu, and a feature allowing to add types of syringes with proper parameters. AFAIK, no real normalization exists for this point. Total capacity and ration lenght\/volume are the only parameters needed.\nAs soon as APHP gives us the precise specifications, we can go ! :wink:",
        "user": "U010U9EHR7T",
        "ts": "1586121567.092300",
        "team": "TUU48M0T1",
        "user_team": "TUU48M0T1",
        "source_team": "TUU48M0T1",
        "user_profile": {
            "avatar_hash": "g36ea42e25d9",
            "image_72": "https:\/\/secure.gravatar.com\/avatar\/ad392afd49098e1505b10c168f27050d.jpg?s=72&d=https%3A%2F%2Fa.slack-edge.com%2Fdf10d%2Fimg%2Favatars%2Fava_0004-72.png",
            "first_name": "Jean-Loup",
            "real_name": "Jean-Loup DUBREUCQ",
            "display_name": "jldubreucq",
            "team": "TUU48M0T1",
            "name": "jlmd.jogl",
            "is_restricted": false,
            "is_ultra_restricted": false
        },
        "blocks": [
            {
                "type": "rich_text",
                "block_id": "ykK7q",
                "elements": [
                    {
                        "type": "rich_text_section",
                        "elements": [
                            {
                                "type": "text",
                                "text": "We assembled, here at Nancy, a prototype on the basis of this project : "
                            },
                            {
                                "type": "link",
                                "url": "https:\/\/karpova-lab.github.io\/syringe-pump\/"
                            },
                            {
                                "type": "text",
                                "text": "\nBeing laser cut, the device is quickly manufactured and assembled.\nNo automatic detection of the syringe capacity, but anyway, even on devices with this feature, the exact model must be confirmed, i.e. by human people. We can add to software some kind of menu, and a feature allowing to add types of syringes with proper parameters. AFAIK, no real normalization exists for this point. Total capacity and ration lenght\/volume are the only parameters needed.\nAs soon as APHP gives us the precise specifications, we can go ! "
                            },
                            {
                                "type": "emoji",
                                "name": "wink"
                            }
                        ]
                    }
                ]
            }
        ]
    },
    {
        "client_msg_id": "a0d7429e-a757-4fe5-8ed3-5546f4f9e802",
        "type": "message",
        "text": "An idea about the number of devices needed ?",
        "user": "U010U9EHR7T",
        "ts": "1586121630.092800",
        "team": "TUU48M0T1",
        "user_team": "TUU48M0T1",
        "source_team": "TUU48M0T1",
        "user_profile": {
            "avatar_hash": "g36ea42e25d9",
            "image_72": "https:\/\/secure.gravatar.com\/avatar\/ad392afd49098e1505b10c168f27050d.jpg?s=72&d=https%3A%2F%2Fa.slack-edge.com%2Fdf10d%2Fimg%2Favatars%2Fava_0004-72.png",
            "first_name": "Jean-Loup",
            "real_name": "Jean-Loup DUBREUCQ",
            "display_name": "jldubreucq",
            "team": "TUU48M0T1",
            "name": "jlmd.jogl",
            "is_restricted": false,
            "is_ultra_restricted": false
        },
        "blocks": [
            {
                "type": "rich_text",
                "block_id": "pPMj",
                "elements": [
                    {
                        "type": "rich_text_section",
                        "elements": [
                            {
                                "type": "text",
                                "text": "An idea about the number of devices needed ?"
                            }
                        ]
                    }
                ]
            }
        ]
    },
    {
        "client_msg_id": "07dc33d5-9248-402c-b6c6-842ebc3da324",
        "type": "message",
        "text": "Ready made card as Arduino can be used, and, if necessary, secured.\nHMI has to be as simple as possible to avoid human errors : LCD screen, optical rotary encoder and leds !",
        "user": "U010U9EHR7T",
        "ts": "1586122664.095600",
        "team": "TUU48M0T1",
        "user_team": "TUU48M0T1",
        "source_team": "TUU48M0T1",
        "user_profile": {
            "avatar_hash": "g36ea42e25d9",
            "image_72": "https:\/\/secure.gravatar.com\/avatar\/ad392afd49098e1505b10c168f27050d.jpg?s=72&d=https%3A%2F%2Fa.slack-edge.com%2Fdf10d%2Fimg%2Favatars%2Fava_0004-72.png",
            "first_name": "Jean-Loup",
            "real_name": "Jean-Loup DUBREUCQ",
            "display_name": "jldubreucq",
            "team": "TUU48M0T1",
            "name": "jlmd.jogl",
            "is_restricted": false,
            "is_ultra_restricted": false
        },
        "blocks": [
            {
                "type": "rich_text",
                "block_id": "WuQVl",
                "elements": [
                    {
                        "type": "rich_text_section",
                        "elements": [
                            {
                                "type": "text",
                                "text": "Ready made card as Arduino can be used, and, if necessary, secured.\nHMI has to be as simple as possible to avoid human errors : LCD screen, optical rotary encoder and leds !"
                            }
                        ]
                    }
                ]
            }
        ]
    },
    {
        "client_msg_id": "ec7b3a60-ab98-4f38-ac36-2f0967640245",
        "type": "message",
        "text": "Hey what’s the status of this project",
        "user": "UV3V8C9S5",
        "ts": "1586129375.096100",
        "team": "TUU48M0T1",
        "user_team": "TUU48M0T1",
        "source_team": "TUU48M0T1",
        "user_profile": {
            "avatar_hash": "2dd13d9564de",
            "image_72": "https:\/\/avatars.slack-edge.com\/2020-03-13\/999631987028_2dd13d9564def27250ac_72.jpg",
            "first_name": "Tal",
            "real_name": "Tal Globus",
            "display_name": "Tal",
            "team": "TUU48M0T1",
            "name": "talglobus",
            "is_restricted": false,
            "is_ultra_restricted": false
        },
        "blocks": [
            {
                "type": "rich_text",
                "block_id": "++2+",
                "elements": [
                    {
                        "type": "rich_text_section",
                        "elements": [
                            {
                                "type": "text",
                                "text": "Hey what’s the status of this project"
                            }
                        ]
                    }
                ]
            }
        ]
    }
]