[
    {
        "client_msg_id": "E2B4EACB-DB62-43F0-858A-6E03DD7E4088",
        "type": "message",
        "text": "I sent Jean Charles a couple of documents to work on certification issues, it will be interesting though to contact FDA to try to get the closest to a “CE” certification first",
        "user": "U0106NJNM17",
        "ts": "1586959983.296800",
        "team": "TUU48M0T1",
        "user_team": "TUU48M0T1",
        "source_team": "TUU48M0T1",
        "user_profile": {
            "avatar_hash": "gc09b413a2fb",
            "image_72": "https:\/\/secure.gravatar.com\/avatar\/c09b413a2fb05b3c1097e14a64b9092c.jpg?s=72&d=https%3A%2F%2Fa.slack-edge.com%2Fdf10d%2Fimg%2Favatars%2Fava_0000-72.png",
            "first_name": "",
            "real_name": "Guillaume Tassin",
            "display_name": "",
            "team": "TUU48M0T1",
            "name": "guillaume.tassin",
            "is_restricted": false,
            "is_ultra_restricted": false
        },
        "blocks": [
            {
                "type": "rich_text",
                "block_id": "hOf",
                "elements": [
                    {
                        "type": "rich_text_section",
                        "elements": [
                            {
                                "type": "text",
                                "text": "I sent Jean Charles a couple of documents to work on certification issues, it will be interesting though to contact FDA to try to get the closest to a “CE” certification first"
                            }
                        ]
                    }
                ]
            }
        ],
        "thread_ts": "1586888562.245600",
        "parent_user_id": "U010UF6AXMF"
    },
    {
        "client_msg_id": "BEF74B10-21B3-4476-A5EC-E1A7832EFFB6",
        "type": "message",
        "text": "Getting a certification will be a tough process but we can fight for it!",
        "user": "U0106NJNM17",
        "ts": "1586960053.297500",
        "team": "TUU48M0T1",
        "user_team": "TUU48M0T1",
        "source_team": "TUU48M0T1",
        "user_profile": {
            "avatar_hash": "gc09b413a2fb",
            "image_72": "https:\/\/secure.gravatar.com\/avatar\/c09b413a2fb05b3c1097e14a64b9092c.jpg?s=72&d=https%3A%2F%2Fa.slack-edge.com%2Fdf10d%2Fimg%2Favatars%2Fava_0000-72.png",
            "first_name": "",
            "real_name": "Guillaume Tassin",
            "display_name": "",
            "team": "TUU48M0T1",
            "name": "guillaume.tassin",
            "is_restricted": false,
            "is_ultra_restricted": false
        },
        "blocks": [
            {
                "type": "rich_text",
                "block_id": "qsa",
                "elements": [
                    {
                        "type": "rich_text_section",
                        "elements": [
                            {
                                "type": "text",
                                "text": "Getting a certification will be a tough process but we can fight for it!"
                            }
                        ]
                    }
                ]
            }
        ],
        "thread_ts": "1586888562.245600",
        "parent_user_id": "U010UF6AXMF"
    },
    {
        "client_msg_id": "1368395b-8d64-49bb-a1b5-b74f5b2cd1c9",
        "type": "message",
        "text": "Hi! I've come upon your project recently and there's something I don't understand: why use stepper motors? You need a motor driver",
        "user": "U011V4B6RU5",
        "ts": "1586968558.299300",
        "team": "TUU48M0T1",
        "user_team": "TUU48M0T1",
        "source_team": "TUU48M0T1",
        "user_profile": {
            "avatar_hash": "g15d34273d83",
            "image_72": "https:\/\/secure.gravatar.com\/avatar\/15d34273d8341b50fc14599259776bc1.jpg?s=72&d=https%3A%2F%2Fa.slack-edge.com%2Fdf10d%2Fimg%2Favatars%2Fava_0025-72.png",
            "first_name": "",
            "real_name": "Léopold Poquillon",
            "display_name": "Léopold Poquillon",
            "team": "TUU48M0T1",
            "name": "leopoq",
            "is_restricted": false,
            "is_ultra_restricted": false
        },
        "blocks": [
            {
                "type": "rich_text",
                "block_id": "pqKn3",
                "elements": [
                    {
                        "type": "rich_text_section",
                        "elements": [
                            {
                                "type": "text",
                                "text": "Hi! I've come upon your project recently and there's something I don't understand: why use stepper motors? You need a motor driver"
                            }
                        ]
                    }
                ]
            }
        ],
        "thread_ts": "1586968558.299300",
        "reply_count": 11,
        "reply_users_count": 2,
        "latest_reply": "1586971732.311500",
        "reply_users": [
            "U01188XCK19",
            "U011V4B6RU5"
        ],
        "replies": [
            {
                "user": "U01188XCK19",
                "ts": "1586969841.308900"
            },
            {
                "user": "U01188XCK19",
                "ts": "1586969871.309200"
            },
            {
                "user": "U01188XCK19",
                "ts": "1586969877.309400"
            },
            {
                "user": "U01188XCK19",
                "ts": "1586969924.309600"
            },
            {
                "user": "U01188XCK19",
                "ts": "1586969975.309800"
            },
            {
                "user": "U01188XCK19",
                "ts": "1586970039.310100"
            },
            {
                "user": "U01188XCK19",
                "ts": "1586970129.310300"
            },
            {
                "user": "U01188XCK19",
                "ts": "1586970136.310500"
            },
            {
                "user": "U01188XCK19",
                "ts": "1586970141.310700"
            },
            {
                "user": "U01188XCK19",
                "ts": "1586970153.310900"
            },
            {
                "user": "U011V4B6RU5",
                "ts": "1586971732.311500"
            }
        ],
        "subscribed": false
    },
    {
        "client_msg_id": "7437039f-8de3-4031-a379-a68140dc144b",
        "type": "message",
        "text": "Hey <!channel> can we have someone to provide an update of this project during our Global Community Call? It’s now here: <https:\/\/zoom.us\/j\/7804345815>\nthanks!:pray:",
        "user": "UV02WET96",
        "ts": "1586969004.307300",
        "team": "TUU48M0T1",
        "user_team": "TUU48M0T1",
        "source_team": "TUU48M0T1",
        "user_profile": {
            "avatar_hash": "a99c74a194f8",
            "image_72": "https:\/\/avatars.slack-edge.com\/2020-03-07\/975708504851_a99c74a194f86715ca7d_72.png",
            "first_name": "Thomas",
            "real_name": "Thomas Landrain",
            "display_name": "Thomas Landrain - JOGL CoFounder \/ CEO",
            "team": "TUU48M0T1",
            "name": "thomas",
            "is_restricted": false,
            "is_ultra_restricted": false
        },
        "blocks": [
            {
                "type": "rich_text",
                "block_id": "dtKF=",
                "elements": [
                    {
                        "type": "rich_text_section",
                        "elements": [
                            {
                                "type": "text",
                                "text": "Hey "
                            },
                            {
                                "type": "broadcast",
                                "range": "channel"
                            },
                            {
                                "type": "text",
                                "text": " can we have someone to provide an update of this project during our Global Community Call? It’s now here: "
                            },
                            {
                                "type": "link",
                                "url": "https:\/\/zoom.us\/j\/7804345815"
                            },
                            {
                                "type": "text",
                                "text": "\nthanks!"
                            },
                            {
                                "type": "emoji",
                                "name": "pray"
                            }
                        ]
                    }
                ]
            }
        ],
        "thread_ts": "1586969004.307300",
        "reply_count": 2,
        "reply_users_count": 2,
        "latest_reply": "1586973530.315200",
        "reply_users": [
            "U0119U5N3T3",
            "U011KG47FMW"
        ],
        "replies": [
            {
                "user": "U0119U5N3T3",
                "ts": "1586969093.308700"
            },
            {
                "user": "U011KG47FMW",
                "ts": "1586973530.315200"
            }
        ],
        "subscribed": false
    },
    {
        "client_msg_id": "4a643cf1-5b28-429b-823c-00cd762ca3eb",
        "type": "message",
        "text": "(continued due to a miss placed \"enter\" key strike) you can't get the torque the motor is putting out, and you need a feedback loop to know if you skipped steps for some reason (except if you use Trinamic ICs, but that just adds complexity and cost). Since you have a feedback loop, why not go for a simple DC (or 235V universal) motor? With a simple current sense resistor, you can get the torque, monitor motor conditions (short circuit, over-torque conditions) and with the feedback loop you know where you are and at what speed. For such the small speeds the pusher needs to go at, a worm and wheel combined with the threaded rod could do the trick. If not,, just add a planetary reduction stage at the motor output",
        "user": "U011V4B6RU5",
        "ts": "1586969043.308000",
        "team": "TUU48M0T1",
        "user_team": "TUU48M0T1",
        "source_team": "TUU48M0T1",
        "user_profile": {
            "avatar_hash": "g15d34273d83",
            "image_72": "https:\/\/secure.gravatar.com\/avatar\/15d34273d8341b50fc14599259776bc1.jpg?s=72&d=https%3A%2F%2Fa.slack-edge.com%2Fdf10d%2Fimg%2Favatars%2Fava_0025-72.png",
            "first_name": "",
            "real_name": "Léopold Poquillon",
            "display_name": "Léopold Poquillon",
            "team": "TUU48M0T1",
            "name": "leopoq",
            "is_restricted": false,
            "is_ultra_restricted": false
        },
        "edited": {
            "user": "U011V4B6RU5",
            "ts": "1586970938.000000"
        },
        "blocks": [
            {
                "type": "rich_text",
                "block_id": "Txp",
                "elements": [
                    {
                        "type": "rich_text_section",
                        "elements": [
                            {
                                "type": "text",
                                "text": "(continued due to a miss placed \"enter\" key strike) you can't get the torque the motor is putting out, and you need a feedback loop to know if you skipped steps for some reason (except if you use Trinamic ICs, but that just adds complexity and cost). Since you have a feedback loop, why not go for a simple DC (or 235V universal) motor? With a simple current sense resistor, you can get the torque, monitor motor conditions (short circuit, over-torque conditions) and with the feedback loop you know where you are and at what speed. For such the small speeds the pusher needs to go at, a worm and wheel combined with the threaded rod could do the trick. If not,, just add a planetary reduction stage at the motor output"
                            }
                        ]
                    }
                ]
            }
        ]
    },
    {
        "client_msg_id": "56BB59DB-8D10-45F5-983A-FA127474EA18",
        "type": "message",
        "text": "I just woke up, <@U010Q1JH9FT> or <@U011KG47FMW>  can you?",
        "user": "U0119U5N3T3",
        "ts": "1586969093.308700",
        "team": "TUU48M0T1",
        "user_team": "TUU48M0T1",
        "source_team": "TUU48M0T1",
        "user_profile": {
            "avatar_hash": "b3b38b63650e",
            "image_72": "https:\/\/avatars.slack-edge.com\/2020-04-04\/1047354985190_b3b38b63650e809885b3_72.jpg",
            "first_name": "",
            "real_name": "Sina Booeshaghi",
            "display_name": "Sina Booeshaghi",
            "team": "TUU48M0T1",
            "name": "abooesha",
            "is_restricted": false,
            "is_ultra_restricted": false
        },
        "thread_ts": "1586969004.307300",
        "parent_user_id": "UV02WET96",
        "reactions": [
            {
                "name": "+1",
                "users": [
                    "UV02WET96"
                ],
                "count": 1
            },
            {
                "name": "see_no_evil",
                "users": [
                    "U011KG47FMW"
                ],
                "count": 1
            }
        ]
    },
    {
        "client_msg_id": "f754b61a-6baa-4522-a740-8c7d2053be3d",
        "type": "message",
        "text": "steppers give you very accurate and consistent motion, and is really great at keeping track of position. it's also very cheap, and very easy to control",
        "user": "U01188XCK19",
        "ts": "1586969841.308900",
        "team": "TUU48M0T1",
        "user_team": "TUU48M0T1",
        "source_team": "TUU48M0T1",
        "user_profile": {
            "avatar_hash": "gd85edfb45fa",
            "image_72": "https:\/\/secure.gravatar.com\/avatar\/d85edfb45fa87b47ea33da26228d07dd.jpg?s=72&d=https%3A%2F%2Fa.slack-edge.com%2Fdf10d%2Fimg%2Favatars%2Fava_0011-72.png",
            "first_name": "",
            "real_name": "wolf arthur",
            "display_name": "wolf arthur",
            "team": "TUU48M0T1",
            "name": "wolf.arthur",
            "is_restricted": false,
            "is_ultra_restricted": false
        },
        "blocks": [
            {
                "type": "rich_text",
                "block_id": "6nmsT",
                "elements": [
                    {
                        "type": "rich_text_section",
                        "elements": [
                            {
                                "type": "text",
                                "text": "steppers give you very accurate and consistent motion, and is really great at keeping track of position. it's also very cheap, and very easy to control"
                            }
                        ]
                    }
                ]
            }
        ],
        "thread_ts": "1586968558.299300",
        "parent_user_id": "U011V4B6RU5"
    },
    {
        "client_msg_id": "bcdef727-d6f2-4046-a50e-7e7b12ea522c",
        "type": "message",
        "text": "also, modern steppers NEVER skip steps if sized correctly for the application",
        "user": "U01188XCK19",
        "ts": "1586969871.309200",
        "team": "TUU48M0T1",
        "user_team": "TUU48M0T1",
        "source_team": "TUU48M0T1",
        "user_profile": {
            "avatar_hash": "gd85edfb45fa",
            "image_72": "https:\/\/secure.gravatar.com\/avatar\/d85edfb45fa87b47ea33da26228d07dd.jpg?s=72&d=https%3A%2F%2Fa.slack-edge.com%2Fdf10d%2Fimg%2Favatars%2Fava_0011-72.png",
            "first_name": "",
            "real_name": "wolf arthur",
            "display_name": "wolf arthur",
            "team": "TUU48M0T1",
            "name": "wolf.arthur",
            "is_restricted": false,
            "is_ultra_restricted": false
        },
        "blocks": [
            {
                "type": "rich_text",
                "block_id": "JWsI",
                "elements": [
                    {
                        "type": "rich_text_section",
                        "elements": [
                            {
                                "type": "text",
                                "text": "also, modern steppers NEVER skip steps if sized correctly for the application"
                            }
                        ]
                    }
                ]
            }
        ],
        "thread_ts": "1586968558.299300",
        "parent_user_id": "U011V4B6RU5"
    },
    {
        "client_msg_id": "9545bfb8-da74-4a7d-b36d-32f2de027469",
        "type": "message",
        "text": "feedback is not required",
        "user": "U01188XCK19",
        "ts": "1586969877.309400",
        "team": "TUU48M0T1",
        "user_team": "TUU48M0T1",
        "source_team": "TUU48M0T1",
        "user_profile": {
            "avatar_hash": "gd85edfb45fa",
            "image_72": "https:\/\/secure.gravatar.com\/avatar\/d85edfb45fa87b47ea33da26228d07dd.jpg?s=72&d=https%3A%2F%2Fa.slack-edge.com%2Fdf10d%2Fimg%2Favatars%2Fava_0011-72.png",
            "first_name": "",
            "real_name": "wolf arthur",
            "display_name": "wolf arthur",
            "team": "TUU48M0T1",
            "name": "wolf.arthur",
            "is_restricted": false,
            "is_ultra_restricted": false
        },
        "blocks": [
            {
                "type": "rich_text",
                "block_id": "RqAX",
                "elements": [
                    {
                        "type": "rich_text_section",
                        "elements": [
                            {
                                "type": "text",
                                "text": "feedback is not required"
                            }
                        ]
                    }
                ]
            }
        ],
        "thread_ts": "1586968558.299300",
        "parent_user_id": "U011V4B6RU5"
    },
    {
        "client_msg_id": "ac86d2dc-66a1-4c53-b2be-c10afc0c556b",
        "type": "message",
        "text": "also, the trinamic driver's stall detection feature is not very good, has false positives, isn't reliable. this is the feedback from dozens of testers in the 3D printing community",
        "user": "U01188XCK19",
        "ts": "1586969924.309600",
        "team": "TUU48M0T1",
        "user_team": "TUU48M0T1",
        "source_team": "TUU48M0T1",
        "user_profile": {
            "avatar_hash": "gd85edfb45fa",
            "image_72": "https:\/\/secure.gravatar.com\/avatar\/d85edfb45fa87b47ea33da26228d07dd.jpg?s=72&d=https%3A%2F%2Fa.slack-edge.com%2Fdf10d%2Fimg%2Favatars%2Fava_0011-72.png",
            "first_name": "",
            "real_name": "wolf arthur",
            "display_name": "wolf arthur",
            "team": "TUU48M0T1",
            "name": "wolf.arthur",
            "is_restricted": false,
            "is_ultra_restricted": false
        },
        "blocks": [
            {
                "type": "rich_text",
                "block_id": "ttC",
                "elements": [
                    {
                        "type": "rich_text_section",
                        "elements": [
                            {
                                "type": "text",
                                "text": "also, the trinamic driver's stall detection feature is not very good, has false positives, isn't reliable. this is the feedback from dozens of testers in the 3D printing community"
                            }
                        ]
                    }
                ]
            }
        ],
        "thread_ts": "1586968558.299300",
        "parent_user_id": "U011V4B6RU5"
    },
    {
        "client_msg_id": "7061426f-6422-4c3d-8919-e47be4d9b9e0",
        "type": "message",
        "text": "we'll be testing linear encoders, rotary encoders, DROs\/digital calipers, and FSR's to detect pushing force, but all of those are to detect issues with the patient ( such as a blocked tube ), they are not due to a limitation of steppers",
        "user": "U01188XCK19",
        "ts": "1586969975.309800",
        "team": "TUU48M0T1",
        "user_team": "TUU48M0T1",
        "source_team": "TUU48M0T1",
        "user_profile": {
            "avatar_hash": "gd85edfb45fa",
            "image_72": "https:\/\/secure.gravatar.com\/avatar\/d85edfb45fa87b47ea33da26228d07dd.jpg?s=72&d=https%3A%2F%2Fa.slack-edge.com%2Fdf10d%2Fimg%2Favatars%2Fava_0011-72.png",
            "first_name": "",
            "real_name": "wolf arthur",
            "display_name": "wolf arthur",
            "team": "TUU48M0T1",
            "name": "wolf.arthur",
            "is_restricted": false,
            "is_ultra_restricted": false
        },
        "blocks": [
            {
                "type": "rich_text",
                "block_id": "hFR3",
                "elements": [
                    {
                        "type": "rich_text_section",
                        "elements": [
                            {
                                "type": "text",
                                "text": "we'll be testing linear encoders, rotary encoders, DROs\/digital calipers, and FSR's to detect pushing force, but all of those are to detect issues with the patient ( such as a blocked tube ), they are not due to a limitation of steppers"
                            }
                        ]
                    }
                ]
            }
        ],
        "thread_ts": "1586968558.299300",
        "parent_user_id": "U011V4B6RU5"
    },
    {
        "client_msg_id": "94a5a7f9-b80a-4941-9d39-518fbf4c4270",
        "type": "message",
        "text": "<@U011V4B6RU5> this was all discussed at length in the initial zoom meetings for the project. it's likely the specs document we are working from has info on the rationales aronud this too",
        "user": "U01188XCK19",
        "ts": "1586970039.310100",
        "team": "TUU48M0T1",
        "user_team": "TUU48M0T1",
        "source_team": "TUU48M0T1",
        "user_profile": {
            "avatar_hash": "gd85edfb45fa",
            "image_72": "https:\/\/secure.gravatar.com\/avatar\/d85edfb45fa87b47ea33da26228d07dd.jpg?s=72&d=https%3A%2F%2Fa.slack-edge.com%2Fdf10d%2Fimg%2Favatars%2Fava_0011-72.png",
            "first_name": "",
            "real_name": "wolf arthur",
            "display_name": "wolf arthur",
            "team": "TUU48M0T1",
            "name": "wolf.arthur",
            "is_restricted": false,
            "is_ultra_restricted": false
        },
        "blocks": [
            {
                "type": "rich_text",
                "block_id": "XHlK",
                "elements": [
                    {
                        "type": "rich_text_section",
                        "elements": [
                            {
                                "type": "user",
                                "user_id": "U011V4B6RU5"
                            },
                            {
                                "type": "text",
                                "text": " this was all discussed at length in the initial zoom meetings for the project. it's likely the specs document we are working from has info on the rationales aronud this too"
                            }
                        ]
                    }
                ]
            }
        ],
        "thread_ts": "1586968558.299300",
        "parent_user_id": "U011V4B6RU5"
    },
    {
        "client_msg_id": "00bea3dc-9eaf-4dc6-950e-26521ceba2a7",
        "type": "message",
        "text": "this and many others are why the commercial designs we are copying all use steppers",
        "user": "U01188XCK19",
        "ts": "1586970129.310300",
        "team": "TUU48M0T1",
        "user_team": "TUU48M0T1",
        "source_team": "TUU48M0T1",
        "user_profile": {
            "avatar_hash": "gd85edfb45fa",
            "image_72": "https:\/\/secure.gravatar.com\/avatar\/d85edfb45fa87b47ea33da26228d07dd.jpg?s=72&d=https%3A%2F%2Fa.slack-edge.com%2Fdf10d%2Fimg%2Favatars%2Fava_0011-72.png",
            "first_name": "",
            "real_name": "wolf arthur",
            "display_name": "wolf arthur",
            "team": "TUU48M0T1",
            "name": "wolf.arthur",
            "is_restricted": false,
            "is_ultra_restricted": false
        },
        "blocks": [
            {
                "type": "rich_text",
                "block_id": "2T6",
                "elements": [
                    {
                        "type": "rich_text_section",
                        "elements": [
                            {
                                "type": "text",
                                "text": "this and many others are why the commercial designs we are copying all use steppers"
                            }
                        ]
                    }
                ]
            }
        ],
        "thread_ts": "1586968558.299300",
        "parent_user_id": "U011V4B6RU5"
    },
    {
        "client_msg_id": "f49e2fd2-4f64-47ee-95e8-5a28ec7764f1",
        "type": "message",
        "text": "same thing with modern 3D printers, all use steppers",
        "user": "U01188XCK19",
        "ts": "1586970136.310500",
        "team": "TUU48M0T1",
        "user_team": "TUU48M0T1",
        "source_team": "TUU48M0T1",
        "user_profile": {
            "avatar_hash": "gd85edfb45fa",
            "image_72": "https:\/\/secure.gravatar.com\/avatar\/d85edfb45fa87b47ea33da26228d07dd.jpg?s=72&d=https%3A%2F%2Fa.slack-edge.com%2Fdf10d%2Fimg%2Favatars%2Fava_0011-72.png",
            "first_name": "",
            "real_name": "wolf arthur",
            "display_name": "wolf arthur",
            "team": "TUU48M0T1",
            "name": "wolf.arthur",
            "is_restricted": false,
            "is_ultra_restricted": false
        },
        "blocks": [
            {
                "type": "rich_text",
                "block_id": "q90Ae",
                "elements": [
                    {
                        "type": "rich_text_section",
                        "elements": [
                            {
                                "type": "text",
                                "text": "same thing with modern 3D printers, all use steppers"
                            }
                        ]
                    }
                ]
            }
        ],
        "thread_ts": "1586968558.299300",
        "parent_user_id": "U011V4B6RU5"
    },
    {
        "client_msg_id": "b10d76f5-c7df-4354-bc76-e75fce4b3d54",
        "type": "message",
        "text": "2D ( two ) printers, scanners ...",
        "user": "U01188XCK19",
        "ts": "1586970141.310700",
        "team": "TUU48M0T1",
        "user_team": "TUU48M0T1",
        "source_team": "TUU48M0T1",
        "user_profile": {
            "avatar_hash": "gd85edfb45fa",
            "image_72": "https:\/\/secure.gravatar.com\/avatar\/d85edfb45fa87b47ea33da26228d07dd.jpg?s=72&d=https%3A%2F%2Fa.slack-edge.com%2Fdf10d%2Fimg%2Favatars%2Fava_0011-72.png",
            "first_name": "",
            "real_name": "wolf arthur",
            "display_name": "wolf arthur",
            "team": "TUU48M0T1",
            "name": "wolf.arthur",
            "is_restricted": false,
            "is_ultra_restricted": false
        },
        "edited": {
            "user": "U01188XCK19",
            "ts": "1586970167.000000"
        },
        "blocks": [
            {
                "type": "rich_text",
                "block_id": "r+8d",
                "elements": [
                    {
                        "type": "rich_text_section",
                        "elements": [
                            {
                                "type": "text",
                                "text": "2D ( two ) printers, scanners ..."
                            }
                        ]
                    }
                ]
            }
        ],
        "thread_ts": "1586968558.299300",
        "parent_user_id": "U011V4B6RU5"
    },
    {
        "client_msg_id": "6aa902f0-5e9f-4f79-8d3b-0890352f9872",
        "type": "message",
        "text": "steppers have very good arguments going for them, cost is just one of them",
        "user": "U01188XCK19",
        "ts": "1586970153.310900",
        "team": "TUU48M0T1",
        "user_team": "TUU48M0T1",
        "source_team": "TUU48M0T1",
        "user_profile": {
            "avatar_hash": "gd85edfb45fa",
            "image_72": "https:\/\/secure.gravatar.com\/avatar\/d85edfb45fa87b47ea33da26228d07dd.jpg?s=72&d=https%3A%2F%2Fa.slack-edge.com%2Fdf10d%2Fimg%2Favatars%2Fava_0011-72.png",
            "first_name": "",
            "real_name": "wolf arthur",
            "display_name": "wolf arthur",
            "team": "TUU48M0T1",
            "name": "wolf.arthur",
            "is_restricted": false,
            "is_ultra_restricted": false
        },
        "blocks": [
            {
                "type": "rich_text",
                "block_id": "4O\/y",
                "elements": [
                    {
                        "type": "rich_text_section",
                        "elements": [
                            {
                                "type": "text",
                                "text": "steppers have very good arguments going for them, cost is just one of them"
                            }
                        ]
                    }
                ]
            }
        ],
        "thread_ts": "1586968558.299300",
        "parent_user_id": "U011V4B6RU5"
    },
    {
        "client_msg_id": "912375e2-c3c1-4160-8470-e1d04b0be7ac",
        "type": "message",
        "text": "A DRO and FSR is EXACTLY what is commonly called a feedback loop, and even though I haven't worked with cheap FSRs, cheap DROs (as in hacking a caliper) won't cut it: at 50ml\/h, in a 40mm syringe, that's 0.01mm\/s and we both know that those calipers can't measure precisely at that range. Sure, use Mitutoyo ones and that will do, but that's just throwing money at the issue",
        "user": "U011V4B6RU5",
        "ts": "1586971732.311500",
        "team": "TUU48M0T1",
        "user_team": "TUU48M0T1",
        "source_team": "TUU48M0T1",
        "user_profile": {
            "avatar_hash": "g15d34273d83",
            "image_72": "https:\/\/secure.gravatar.com\/avatar\/15d34273d8341b50fc14599259776bc1.jpg?s=72&d=https%3A%2F%2Fa.slack-edge.com%2Fdf10d%2Fimg%2Favatars%2Fava_0025-72.png",
            "first_name": "",
            "real_name": "Léopold Poquillon",
            "display_name": "Léopold Poquillon",
            "team": "TUU48M0T1",
            "name": "leopoq",
            "is_restricted": false,
            "is_ultra_restricted": false
        },
        "blocks": [
            {
                "type": "rich_text",
                "block_id": "x5vci",
                "elements": [
                    {
                        "type": "rich_text_section",
                        "elements": [
                            {
                                "type": "text",
                                "text": "A DRO and FSR is EXACTLY what is commonly called a feedback loop, and even though I haven't worked with cheap FSRs, cheap DROs (as in hacking a caliper) won't cut it: at 50ml\/h, in a 40mm syringe, that's 0.01mm\/s and we both know that those calipers can't measure precisely at that range. Sure, use Mitutoyo ones and that will do, but that's just throwing money at the issue"
                            }
                        ]
                    }
                ]
            }
        ],
        "thread_ts": "1586968558.299300",
        "parent_user_id": "U011V4B6RU5"
    },
    {
        "client_msg_id": "dff5e883-2fc7-4b15-8759-033a67ddda63",
        "type": "message",
        "text": "<@U011V4B6RU5> I answered your message in a \"thread\", which you can see by clicking the \"reply\" thing bellow your message. that's the prefered way of answering messages on this slack, just telling you as it's not obvious to everyone, and you just joined",
        "user": "U01188XCK19",
        "ts": "1586971941.312500",
        "team": "TUU48M0T1",
        "user_team": "TUU48M0T1",
        "source_team": "TUU48M0T1",
        "user_profile": {
            "avatar_hash": "gd85edfb45fa",
            "image_72": "https:\/\/secure.gravatar.com\/avatar\/d85edfb45fa87b47ea33da26228d07dd.jpg?s=72&d=https%3A%2F%2Fa.slack-edge.com%2Fdf10d%2Fimg%2Favatars%2Fava_0011-72.png",
            "first_name": "",
            "real_name": "wolf arthur",
            "display_name": "wolf arthur",
            "team": "TUU48M0T1",
            "name": "wolf.arthur",
            "is_restricted": false,
            "is_ultra_restricted": false
        },
        "blocks": [
            {
                "type": "rich_text",
                "block_id": "OQD1M",
                "elements": [
                    {
                        "type": "rich_text_section",
                        "elements": [
                            {
                                "type": "user",
                                "user_id": "U011V4B6RU5"
                            },
                            {
                                "type": "text",
                                "text": " I answered your message in a \"thread\", which you can see by clicking the \"reply\" thing bellow your message. that's the prefered way of answering messages on this slack, just telling you as it's not obvious to everyone, and you just joined"
                            }
                        ]
                    }
                ]
            }
        ]
    },
    {
        "client_msg_id": "740f963f-1ce4-4da6-a8cf-d5af80922486",
        "type": "message",
        "text": "sorry guys, missed it worked all night long",
        "user": "U011KG47FMW",
        "ts": "1586973530.315200",
        "team": "TUU48M0T1",
        "user_team": "TUU48M0T1",
        "source_team": "TUU48M0T1",
        "user_profile": {
            "avatar_hash": "a185a551ed8e",
            "image_72": "https:\/\/avatars.slack-edge.com\/2020-04-18\/1064308020918_a185a551ed8e333459c9_72.jpg",
            "first_name": "",
            "real_name": "Jean Charles Luisada",
            "display_name": "Jean Charles Luisada",
            "team": "TUU48M0T1",
            "name": "jc.luisada",
            "is_restricted": false,
            "is_ultra_restricted": false
        },
        "blocks": [
            {
                "type": "rich_text",
                "block_id": "PYY",
                "elements": [
                    {
                        "type": "rich_text_section",
                        "elements": [
                            {
                                "type": "text",
                                "text": "sorry guys, missed it worked all night long"
                            }
                        ]
                    }
                ]
            }
        ],
        "thread_ts": "1586969004.307300",
        "parent_user_id": "UV02WET96"
    },
    {
        "client_msg_id": "287359e4-ab4e-41e0-bd42-d8b5113ced0a",
        "type": "message",
        "text": "<!channel> I'm not going to make it to the zoom tonight ( have to go seek a glcd display from the office as the one I have at home doesn't seem to work ), so here's the short version of what's up with my side of things, maybe <@U010Q1JH9FT> can give the update for me :slightly_smiling_face: I had sent emails requesting free hardware from the \"to order\" list, and 3 companies answered positivelely, and are sending items to me. it's not much, but it's pretty cool that some said yes. I'll add the names of the companies to the BOM document, they are \"sponsors\" to the project I guess. we don't have any contractual obligation to them, but still should mention them in communications if it's not too much of a bother, at least in the near future\/for a while. I have gotten some answers to the requests for proper quotations for mass-production-quantity orders of some of the items in the BOM, I've added them to the \"sources\" tab in the BOM, with links to the PDF quotations. I'll add more as I get more, these quotations will help us be more ready if\/when we need to actually mass-produce these things. I've started the code for the actual syringe pusher. my first priority is going to be doing the basic feature of actually having an interface to set up pushing, then once that works ( at which point it should already be able to help actual medical personel ), I'll work on adding linear\/rotary encoder support as a means to increase safety ( checking if what happens is what we asked to happen ), then once that works I'll add support for DRO ( pretty much the same as the encoders, just different hardware, a bit more expensive but has some advantages in term of reliabliity over encoders ), and once that works, I'll start work on the FSRs to detect pushing pressure, and check if it's what we expect etc, so one more layer of safety. and once all of that works, additional work will go into improving the interface's friendliness, mostly by adding buttons to make set up quicker\/easier, and LEDs so errors are less likely. that's what I'm up to now, I don't really need to be at the zoom meeting to say all this, so like somebody read this, or just paste this into the zoom chat. Thanks a ton everybody, will be in the next zoom meetihng likely",
        "user": "U01188XCK19",
        "ts": "1586973795.320500",
        "team": "TUU48M0T1",
        "user_team": "TUU48M0T1",
        "source_team": "TUU48M0T1",
        "user_profile": {
            "avatar_hash": "gd85edfb45fa",
            "image_72": "https:\/\/secure.gravatar.com\/avatar\/d85edfb45fa87b47ea33da26228d07dd.jpg?s=72&d=https%3A%2F%2Fa.slack-edge.com%2Fdf10d%2Fimg%2Favatars%2Fava_0011-72.png",
            "first_name": "",
            "real_name": "wolf arthur",
            "display_name": "wolf arthur",
            "team": "TUU48M0T1",
            "name": "wolf.arthur",
            "is_restricted": false,
            "is_ultra_restricted": false
        },
        "blocks": [
            {
                "type": "rich_text",
                "block_id": "utuPm",
                "elements": [
                    {
                        "type": "rich_text_section",
                        "elements": [
                            {
                                "type": "broadcast",
                                "range": "channel"
                            },
                            {
                                "type": "text",
                                "text": " I'm not going to make it to the zoom tonight ( have to go seek a glcd display from the office as the one I have at home doesn't seem to work ), so here's the short version of what's up with my side of things, maybe "
                            },
                            {
                                "type": "user",
                                "user_id": "U010Q1JH9FT"
                            },
                            {
                                "type": "text",
                                "text": " can give the update for me "
                            },
                            {
                                "type": "emoji",
                                "name": "slightly_smiling_face"
                            },
                            {
                                "type": "text",
                                "text": " I had sent emails requesting free hardware from the \"to order\" list, and 3 companies answered positivelely, and are sending items to me. it's not much, but it's pretty cool that some said yes. I'll add the names of the companies to the BOM document, they are \"sponsors\" to the project I guess. we don't have any contractual obligation to them, but still should mention them in communications if it's not too much of a bother, at least in the near future\/for a while. I have gotten some answers to the requests for proper quotations for mass-production-quantity orders of some of the items in the BOM, I've added them to the \"sources\" tab in the BOM, with links to the PDF quotations. I'll add more as I get more, these quotations will help us be more ready if\/when we need to actually mass-produce these things. I've started the code for the actual syringe pusher. my first priority is going to be doing the basic feature of actually having an interface to set up pushing, then once that works ( at which point it should already be able to help actual medical personel ), I'll work on adding linear\/rotary encoder support as a means to increase safety ( checking if what happens is what we asked to happen ), then once that works I'll add support for DRO ( pretty much the same as the encoders, just different hardware, a bit more expensive but has some advantages in term of reliabliity over encoders ), and once that works, I'll start work on the FSRs to detect pushing pressure, and check if it's what we expect etc, so one more layer of safety. and once all of that works, additional work will go into improving the interface's friendliness, mostly by adding buttons to make set up quicker\/easier, and LEDs so errors are less likely. that's what I'm up to now, I don't really need to be at the zoom meeting to say all this, so like somebody read this, or just paste this into the zoom chat. Thanks a ton everybody, will be in the next zoom meetihng likely"
                            }
                        ]
                    }
                ]
            }
        ],
        "reactions": [
            {
                "name": "+1",
                "users": [
                    "U010S08MHS7",
                    "U0119U5N3T3",
                    "U010Q1JH9FT",
                    "U010UF6AXMF"
                ],
                "count": 4
            },
            {
                "name": "clap",
                "users": [
                    "U011KG47FMW"
                ],
                "count": 1
            }
        ]
    },
    {
        "client_msg_id": "8cc87a63-8ffe-4ae6-9938-f438d7ee5cd1",
        "type": "message",
        "text": "Good job Arthur will talk about it tonight",
        "user": "U010Q1JH9FT",
        "ts": "1586973930.321200",
        "team": "TUU48M0T1",
        "user_team": "TUU48M0T1",
        "source_team": "TUU48M0T1",
        "user_profile": {
            "avatar_hash": "g6f87c6ca5a4",
            "image_72": "https:\/\/secure.gravatar.com\/avatar\/6f87c6ca5a4f6d039b292db7e6e3aa28.jpg?s=72&d=https%3A%2F%2Fa.slack-edge.com%2Fdf10d%2Fimg%2Favatars%2Fava_0017-72.png",
            "first_name": "Philippe",
            "real_name": "Philippe Cochin",
            "display_name": "Philippe Cochin - COVID3D",
            "team": "TUU48M0T1",
            "name": "philippe.cochin",
            "is_restricted": false,
            "is_ultra_restricted": false
        },
        "blocks": [
            {
                "type": "rich_text",
                "block_id": "B0M",
                "elements": [
                    {
                        "type": "rich_text_section",
                        "elements": [
                            {
                                "type": "text",
                                "text": "Good job Arthur will talk about it tonight"
                            }
                        ]
                    }
                ]
            }
        ]
    },
    {
        "client_msg_id": "f3608ce5-a38a-4211-824f-40409610de57",
        "type": "message",
        "text": "What time is the meeting?",
        "user": "UV3V8C9S5",
        "ts": "1586974015.321900",
        "team": "TUU48M0T1",
        "user_team": "TUU48M0T1",
        "source_team": "TUU48M0T1",
        "user_profile": {
            "avatar_hash": "2dd13d9564de",
            "image_72": "https:\/\/avatars.slack-edge.com\/2020-03-13\/999631987028_2dd13d9564def27250ac_72.jpg",
            "first_name": "Tal",
            "real_name": "Tal Globus",
            "display_name": "Tal",
            "team": "TUU48M0T1",
            "name": "talglobus",
            "is_restricted": false,
            "is_ultra_restricted": false
        },
        "blocks": [
            {
                "type": "rich_text",
                "block_id": "a7E",
                "elements": [
                    {
                        "type": "rich_text_section",
                        "elements": [
                            {
                                "type": "text",
                                "text": "What time is the meeting?"
                            }
                        ]
                    }
                ]
            }
        ]
    },
    {
        "client_msg_id": "11F16966-F5B9-4E91-88BC-37C22B009AD0",
        "type": "message",
        "text": "9pm Paris time ",
        "user": "UV02WET96",
        "ts": "1586974116.322300",
        "team": "TUU48M0T1",
        "user_team": "TUU48M0T1",
        "source_team": "TUU48M0T1",
        "user_profile": {
            "avatar_hash": "a99c74a194f8",
            "image_72": "https:\/\/avatars.slack-edge.com\/2020-03-07\/975708504851_a99c74a194f86715ca7d_72.png",
            "first_name": "Thomas",
            "real_name": "Thomas Landrain",
            "display_name": "Thomas Landrain - JOGL CoFounder \/ CEO",
            "team": "TUU48M0T1",
            "name": "thomas",
            "is_restricted": false,
            "is_ultra_restricted": false
        },
        "blocks": [
            {
                "type": "rich_text",
                "block_id": "cEFf",
                "elements": [
                    {
                        "type": "rich_text_section",
                        "elements": [
                            {
                                "type": "text",
                                "text": "9pm Paris time "
                            }
                        ]
                    }
                ]
            }
        ]
    },
    {
        "client_msg_id": "AC4A9A5F-0CF8-41E2-BE14-44173A32E9BA",
        "type": "message",
        "text": "In 50min",
        "user": "UV02WET96",
        "ts": "1586974122.322600",
        "team": "TUU48M0T1",
        "user_team": "TUU48M0T1",
        "source_team": "TUU48M0T1",
        "user_profile": {
            "avatar_hash": "a99c74a194f8",
            "image_72": "https:\/\/avatars.slack-edge.com\/2020-03-07\/975708504851_a99c74a194f86715ca7d_72.png",
            "first_name": "Thomas",
            "real_name": "Thomas Landrain",
            "display_name": "Thomas Landrain - JOGL CoFounder \/ CEO",
            "team": "TUU48M0T1",
            "name": "thomas",
            "is_restricted": false,
            "is_ultra_restricted": false
        },
        "blocks": [
            {
                "type": "rich_text",
                "block_id": "=7Lw",
                "elements": [
                    {
                        "type": "rich_text_section",
                        "elements": [
                            {
                                "type": "text",
                                "text": "In 50min"
                            }
                        ]
                    }
                ]
            }
        ]
    },
    {
        "client_msg_id": "f68f77c5-9d18-4a8f-854c-0bfbbc5cc9c7",
        "type": "message",
        "text": "<@U010UF6AXMF> We are currently working on setting thius up in a more official manner.\n\nfor now what we try to do JOGL wise is to assemble pannels of experts to judge and review things !\n\nPlease lemme know if u need anything like this ?",
        "user": "UVC9WMA7N",
        "ts": "1586974490.322800",
        "team": "TUU48M0T1",
        "user_team": "TUU48M0T1",
        "source_team": "TUU48M0T1",
        "user_profile": {
            "avatar_hash": "56d14d58ed53",
            "image_72": "https:\/\/avatars.slack-edge.com\/2020-03-13\/998337892660_56d14d58ed537e6e4654_72.png",
            "first_name": "Leo",
            "real_name": "Leo Blondel",
            "display_name": "Leo Blondel - JOGL CoFounder \/ CTO",
            "team": "TUU48M0T1",
            "name": "leo",
            "is_restricted": false,
            "is_ultra_restricted": false
        },
        "blocks": [
            {
                "type": "rich_text",
                "block_id": "gb38v",
                "elements": [
                    {
                        "type": "rich_text_section",
                        "elements": [
                            {
                                "type": "user",
                                "user_id": "U010UF6AXMF"
                            },
                            {
                                "type": "text",
                                "text": " We are currently working on setting thius up in a more official manner.\n\nfor now what we try to do JOGL wise is to assemble pannels of experts to judge and review things !\n\nPlease lemme know if u need anything like this ?"
                            }
                        ]
                    }
                ]
            }
        ],
        "thread_ts": "1586888562.245600",
        "parent_user_id": "U010UF6AXMF"
    },
    {
        "client_msg_id": "f9eefb85-5906-45ff-b7c6-eac08f38da6c",
        "type": "message",
        "text": "any zoom link?",
        "user": "U0126EXGWQY",
        "ts": "1586977161.323200",
        "team": "TUU48M0T1",
        "user_team": "TUU48M0T1",
        "source_team": "TUU48M0T1",
        "user_profile": {
            "avatar_hash": "g4a004919c0e",
            "image_72": "https:\/\/secure.gravatar.com\/avatar\/4a004919c0e47b90b49a926c060bd402.jpg?s=72&d=https%3A%2F%2Fa.slack-edge.com%2Fdf10d%2Fimg%2Favatars%2Fava_0018-72.png",
            "first_name": "",
            "real_name": "gauthier",
            "display_name": "gauthier",
            "team": "TUU48M0T1",
            "name": "gauthier",
            "is_restricted": false,
            "is_ultra_restricted": false
        },
        "blocks": [
            {
                "type": "rich_text",
                "block_id": "tHSFw",
                "elements": [
                    {
                        "type": "rich_text_section",
                        "elements": [
                            {
                                "type": "text",
                                "text": "any zoom link?"
                            }
                        ]
                    }
                ]
            }
        ]
    },
    {
        "client_msg_id": "e85a7b83-860e-465f-aff5-800efe13a2f6",
        "type": "message",
        "text": "<https:\/\/zoom.us\/j\/7804345815>",
        "user": "UV02WET96",
        "ts": "1586977302.323700",
        "team": "TUU48M0T1",
        "user_team": "TUU48M0T1",
        "source_team": "TUU48M0T1",
        "user_profile": {
            "avatar_hash": "a99c74a194f8",
            "image_72": "https:\/\/avatars.slack-edge.com\/2020-03-07\/975708504851_a99c74a194f86715ca7d_72.png",
            "first_name": "Thomas",
            "real_name": "Thomas Landrain",
            "display_name": "Thomas Landrain - JOGL CoFounder \/ CEO",
            "team": "TUU48M0T1",
            "name": "thomas",
            "is_restricted": false,
            "is_ultra_restricted": false
        },
        "blocks": [
            {
                "type": "rich_text",
                "block_id": "YLT",
                "elements": [
                    {
                        "type": "rich_text_section",
                        "elements": [
                            {
                                "type": "link",
                                "url": "https:\/\/zoom.us\/j\/7804345815"
                            }
                        ]
                    }
                ]
            }
        ]
    },
    {
        "client_msg_id": "a6abfd5c-17e0-400c-9eab-34384e471e7a",
        "type": "message",
        "text": "<!channel> meeting is now <https:\/\/zoom.us\/j\/7804345815>",
        "user": "UV02WET96",
        "ts": "1586977310.324100",
        "team": "TUU48M0T1",
        "user_team": "TUU48M0T1",
        "source_team": "TUU48M0T1",
        "user_profile": {
            "avatar_hash": "a99c74a194f8",
            "image_72": "https:\/\/avatars.slack-edge.com\/2020-03-07\/975708504851_a99c74a194f86715ca7d_72.png",
            "first_name": "Thomas",
            "real_name": "Thomas Landrain",
            "display_name": "Thomas Landrain - JOGL CoFounder \/ CEO",
            "team": "TUU48M0T1",
            "name": "thomas",
            "is_restricted": false,
            "is_ultra_restricted": false
        },
        "blocks": [
            {
                "type": "rich_text",
                "block_id": "A=1s",
                "elements": [
                    {
                        "type": "rich_text_section",
                        "elements": [
                            {
                                "type": "broadcast",
                                "range": "channel"
                            },
                            {
                                "type": "text",
                                "text": " meeting is now "
                            },
                            {
                                "type": "link",
                                "url": "https:\/\/zoom.us\/j\/7804345815"
                            }
                        ]
                    }
                ]
            }
        ]
    },
    {
        "client_msg_id": "e9b5cb2f-c564-4096-95b8-69ccf0ad5f68",
        "type": "message",
        "text": "Hi <@UVC9WMA7N>, yes a panel of experts (at *prorgam* level) could serve as a verification &amp; validation team for *projects* items (e.g. specs, tests). That would address the need to have independence between design\/dev team and v&amp;v team.",
        "user": "U010UF6AXMF",
        "ts": "1586980554.324300",
        "team": "TUU48M0T1",
        "user_team": "TUU48M0T1",
        "source_team": "TUU48M0T1",
        "user_profile": {
            "avatar_hash": "g5248b59fec0",
            "image_72": "https:\/\/secure.gravatar.com\/avatar\/5248b59fec06db7591dc8d9d10879432.jpg?s=72&d=https%3A%2F%2Fa.slack-edge.com%2Fdf10d%2Fimg%2Favatars%2Fava_0020-72.png",
            "first_name": "",
            "real_name": "Charley",
            "display_name": "Charley",
            "team": "TUU48M0T1",
            "name": "charleypaulus",
            "is_restricted": false,
            "is_ultra_restricted": false
        },
        "blocks": [
            {
                "type": "rich_text",
                "block_id": "GEZ",
                "elements": [
                    {
                        "type": "rich_text_section",
                        "elements": [
                            {
                                "type": "text",
                                "text": "Hi "
                            },
                            {
                                "type": "user",
                                "user_id": "UVC9WMA7N"
                            },
                            {
                                "type": "text",
                                "text": ", yes a panel of experts (at "
                            },
                            {
                                "type": "text",
                                "text": "prorgam",
                                "style": {
                                    "bold": true
                                }
                            },
                            {
                                "type": "text",
                                "text": " level) could serve as a verification & validation team for "
                            },
                            {
                                "type": "text",
                                "text": "projects",
                                "style": {
                                    "bold": true
                                }
                            },
                            {
                                "type": "text",
                                "text": " items (e.g. specs, tests). That would address the need to have independence between design\/dev team and v&v team."
                            }
                        ]
                    }
                ]
            }
        ],
        "thread_ts": "1586888562.245600",
        "parent_user_id": "U010UF6AXMF"
    },
    {
        "client_msg_id": "1a640256-1fc9-4b78-bc9b-2ac1156c090f",
        "type": "message",
        "text": "Yes we are currently doing this but assembling such panel in a time of crisis is not easy !\n\n<@UV02WET96> were are we on the process ?",
        "user": "UVC9WMA7N",
        "ts": "1586981616.324500",
        "team": "TUU48M0T1",
        "user_team": "TUU48M0T1",
        "source_team": "TUU48M0T1",
        "user_profile": {
            "avatar_hash": "56d14d58ed53",
            "image_72": "https:\/\/avatars.slack-edge.com\/2020-03-13\/998337892660_56d14d58ed537e6e4654_72.png",
            "first_name": "Leo",
            "real_name": "Leo Blondel",
            "display_name": "Leo Blondel - JOGL CoFounder \/ CTO",
            "team": "TUU48M0T1",
            "name": "leo",
            "is_restricted": false,
            "is_ultra_restricted": false
        },
        "blocks": [
            {
                "type": "rich_text",
                "block_id": "BMSm8",
                "elements": [
                    {
                        "type": "rich_text_section",
                        "elements": [
                            {
                                "type": "text",
                                "text": "Yes we are currently doing this but assembling such panel in a time of crisis is not easy !\n\n"
                            },
                            {
                                "type": "user",
                                "user_id": "UV02WET96"
                            },
                            {
                                "type": "text",
                                "text": " were are we on the process ?"
                            }
                        ]
                    }
                ]
            }
        ],
        "thread_ts": "1586888562.245600",
        "parent_user_id": "U010UF6AXMF"
    }
]