[
    {
        "type": "message",
        "subtype": "channel_join",
        "ts": "1585685669.000200",
        "user": "U010HGKFDNE",
        "text": "<@U010HGKFDNE> has joined the channel"
    },
    {
        "type": "message",
        "subtype": "channel_purpose",
        "ts": "1585685670.000300",
        "user": "U010HGKFDNE",
        "text": "<@U010HGKFDNE> set the channel purpose: App design",
        "purpose": "App design"
    },
    {
        "type": "message",
        "subtype": "channel_join",
        "ts": "1585685680.000500",
        "user": "U0113TTNECF",
        "text": "<@U0113TTNECF> has joined the channel",
        "inviter": "U010HGKFDNE"
    },
    {
        "type": "message",
        "subtype": "channel_join",
        "ts": "1585685681.000700",
        "user": "U011487FG3X",
        "text": "<@U011487FG3X> has joined the channel",
        "inviter": "U010HGKFDNE"
    },
    {
        "client_msg_id": "8b5bd9fb-ef3b-4ca2-a52e-803a3f0220ff",
        "type": "message",
        "text": "Hello! Thank you for the awesome meeting earlier on, feel free to change the name of this channel its pretty long",
        "user": "U010HGKFDNE",
        "ts": "1585685697.001100",
        "team": "TUU48M0T1",
        "user_team": "TUU48M0T1",
        "source_team": "TUU48M0T1",
        "user_profile": {
            "avatar_hash": "168a8764c68c",
            "image_72": "https:\/\/avatars.slack-edge.com\/2020-03-27\/1030474372304_168a8764c68cd6e9af14_72.png",
            "first_name": "Evangeline",
            "real_name": "Evangeline - JOGL UX\/UI",
            "display_name": "Evangeline Ng",
            "team": "TUU48M0T1",
            "name": "irrelevandesign",
            "is_restricted": false,
            "is_ultra_restricted": false
        },
        "blocks": [
            {
                "type": "rich_text",
                "block_id": "MmwK",
                "elements": [
                    {
                        "type": "rich_text_section",
                        "elements": [
                            {
                                "type": "text",
                                "text": "Hello! Thank you for the awesome meeting earlier on, feel free to change the name of this channel its pretty long"
                            }
                        ]
                    }
                ]
            }
        ]
    },
    {
        "type": "message",
        "subtype": "channel_name",
        "ts": "1585685807.001200",
        "user": "U010HGKFDNE",
        "text": "<@U010HGKFDNE> has renamed the channel from \"prgm-design-team-coughchecker-app\" to \"prgm-design-cough-app\"",
        "old_name": "prgm-design-team-coughchecker-app",
        "name": "prgm-design-cough-app"
    }
]