[
    {
        "client_msg_id": "e21c1474-0a40-47b0-bd0a-794d9ad06268",
        "type": "message",
        "text": "Hey <@U010R28M89Y>!Thanks a lot! I actually started using workstream with the governance channel and the communication one, and have some additional questions.\n• Is it possible to stop the notification on the channel?\n• Can several people be assigned to one task?\n• Is it possible to assign one person per item in a checklist? \nDo you have any tutorial I could refer to? Sorry for asking here, I just couldn't find ways of doing it.\n\nTake care!",
        "user": "UV9V03C8Y",
        "ts": "1588075828.007300",
        "team": "TUU48M0T1",
        "user_team": "TUU48M0T1",
        "source_team": "TUU48M0T1",
        "user_profile": {
            "avatar_hash": "177697fb7b8f",
            "image_72": "https:\/\/avatars.slack-edge.com\/2020-03-12\/996126178096_177697fb7b8ffa57649c_72.jpg",
            "first_name": "Camille",
            "real_name": "Camille Masselot - JOGL Program coordinator",
            "display_name": "Camille Masselot - JOGL coordinator",
            "team": "TUU48M0T1",
            "name": "masselot.camille",
            "is_restricted": false,
            "is_ultra_restricted": false
        },
        "blocks": [
            {
                "type": "rich_text",
                "block_id": "rLH",
                "elements": [
                    {
                        "type": "rich_text_section",
                        "elements": [
                            {
                                "type": "text",
                                "text": "Hey "
                            },
                            {
                                "type": "user",
                                "user_id": "U010R28M89Y"
                            },
                            {
                                "type": "text",
                                "text": "!Thanks a lot! I actually started using workstream with the governance channel and the communication one, and have some additional questions.\n"
                            }
                        ]
                    },
                    {
                        "type": "rich_text_list",
                        "elements": [
                            {
                                "type": "rich_text_section",
                                "elements": [
                                    {
                                        "type": "text",
                                        "text": "Is it possible to stop the notification on the channel?"
                                    }
                                ]
                            },
                            {
                                "type": "rich_text_section",
                                "elements": [
                                    {
                                        "type": "text",
                                        "text": "Can several people be assigned to one task?"
                                    }
                                ]
                            },
                            {
                                "type": "rich_text_section",
                                "elements": [
                                    {
                                        "type": "text",
                                        "text": "Is it possible to assign one person per item in a checklist? "
                                    }
                                ]
                            }
                        ],
                        "style": "bullet",
                        "indent": 0
                    },
                    {
                        "type": "rich_text_section",
                        "elements": [
                            {
                                "type": "text",
                                "text": "Do you have any tutorial I could refer to? Sorry for asking here, I just couldn't find ways of doing it.\n\nTake care!"
                            }
                        ]
                    }
                ]
            }
        ]
    },
    {
        "client_msg_id": "aa17fee0-1f13-4097-8203-0f13ab22ae7d",
        "type": "message",
        "text": "Hey <@UV9V03C8Y> no problem :slightly_smiling_face:",
        "user": "U010R28M89Y",
        "ts": "1588076551.007600",
        "team": "TUU48M0T1",
        "user_team": "TUU48M0T1",
        "source_team": "TUU48M0T1",
        "user_profile": {
            "avatar_hash": "d337412d1dd6",
            "image_72": "https:\/\/avatars.slack-edge.com\/2020-04-28\/1090354401635_d337412d1dd6258687ed_72.png",
            "first_name": "Elie",
            "real_name": "Elie Goldfarb",
            "display_name": "Elie Goldfarb",
            "team": "TUU48M0T1",
            "name": "elie",
            "is_restricted": false,
            "is_ultra_restricted": false
        },
        "blocks": [
            {
                "type": "rich_text",
                "block_id": "eaxB",
                "elements": [
                    {
                        "type": "rich_text_section",
                        "elements": [
                            {
                                "type": "text",
                                "text": "Hey "
                            },
                            {
                                "type": "user",
                                "user_id": "UV9V03C8Y"
                            },
                            {
                                "type": "text",
                                "text": " no problem "
                            },
                            {
                                "type": "emoji",
                                "name": "slightly_smiling_face"
                            }
                        ]
                    }
                ]
            }
        ]
    },
    {
        "client_msg_id": "d84d77a6-5e9a-4ed3-a277-b2669eda2fe6",
        "type": "message",
        "text": "It's possible to turn off notification, just do \"<@U011E5YPGAJ> mute\"",
        "user": "U010R28M89Y",
        "ts": "1588076609.008000",
        "team": "TUU48M0T1",
        "user_team": "TUU48M0T1",
        "source_team": "TUU48M0T1",
        "user_profile": {
            "avatar_hash": "d337412d1dd6",
            "image_72": "https:\/\/avatars.slack-edge.com\/2020-04-28\/1090354401635_d337412d1dd6258687ed_72.png",
            "first_name": "Elie",
            "real_name": "Elie Goldfarb",
            "display_name": "Elie Goldfarb",
            "team": "TUU48M0T1",
            "name": "elie",
            "is_restricted": false,
            "is_ultra_restricted": false
        },
        "blocks": [
            {
                "type": "rich_text",
                "block_id": "sXn",
                "elements": [
                    {
                        "type": "rich_text_section",
                        "elements": [
                            {
                                "type": "text",
                                "text": "It's possible to turn off notification, just do \""
                            },
                            {
                                "type": "user",
                                "user_id": "U011E5YPGAJ"
                            },
                            {
                                "type": "text",
                                "text": " mute\""
                            }
                        ]
                    }
                ]
            }
        ]
    },
    {
        "client_msg_id": "89f1aa9d-b73a-44cf-a8c8-0ea1c64bd10b",
        "type": "message",
        "text": "you can only have 1 assignee but you can have followers.",
        "user": "U010R28M89Y",
        "ts": "1588076633.008400",
        "team": "TUU48M0T1",
        "user_team": "TUU48M0T1",
        "source_team": "TUU48M0T1",
        "user_profile": {
            "avatar_hash": "d337412d1dd6",
            "image_72": "https:\/\/avatars.slack-edge.com\/2020-04-28\/1090354401635_d337412d1dd6258687ed_72.png",
            "first_name": "Elie",
            "real_name": "Elie Goldfarb",
            "display_name": "Elie Goldfarb",
            "team": "TUU48M0T1",
            "name": "elie",
            "is_restricted": false,
            "is_ultra_restricted": false
        },
        "edited": {
            "user": "U010R28M89Y",
            "ts": "1588076666.000000"
        },
        "blocks": [
            {
                "type": "rich_text",
                "block_id": "cCnbn",
                "elements": [
                    {
                        "type": "rich_text_section",
                        "elements": [
                            {
                                "type": "text",
                                "text": "you can only have 1 assignee but you can have followers."
                            }
                        ]
                    }
                ]
            }
        ]
    },
    {
        "client_msg_id": "7fb8d8fe-988e-45cb-a080-9f1bcbb96933",
        "type": "message",
        "text": "And no, it's not possible to assign one person per item in a checklist",
        "user": "U010R28M89Y",
        "ts": "1588076691.009000",
        "team": "TUU48M0T1",
        "user_team": "TUU48M0T1",
        "source_team": "TUU48M0T1",
        "user_profile": {
            "avatar_hash": "d337412d1dd6",
            "image_72": "https:\/\/avatars.slack-edge.com\/2020-04-28\/1090354401635_d337412d1dd6258687ed_72.png",
            "first_name": "Elie",
            "real_name": "Elie Goldfarb",
            "display_name": "Elie Goldfarb",
            "team": "TUU48M0T1",
            "name": "elie",
            "is_restricted": false,
            "is_ultra_restricted": false
        },
        "blocks": [
            {
                "type": "rich_text",
                "block_id": "sIj\/8",
                "elements": [
                    {
                        "type": "rich_text_section",
                        "elements": [
                            {
                                "type": "text",
                                "text": "And no, it's not possible to assign one person per item in a checklist"
                            }
                        ]
                    }
                ]
            }
        ]
    },
    {
        "client_msg_id": "fb9a15a3-88b6-4dc4-bcdf-69aec68836b6",
        "type": "message",
        "text": "Thank you very much <@U010R28M89Y>!",
        "user": "UV9V03C8Y",
        "ts": "1588077503.009400",
        "team": "TUU48M0T1",
        "user_team": "TUU48M0T1",
        "source_team": "TUU48M0T1",
        "user_profile": {
            "avatar_hash": "177697fb7b8f",
            "image_72": "https:\/\/avatars.slack-edge.com\/2020-03-12\/996126178096_177697fb7b8ffa57649c_72.jpg",
            "first_name": "Camille",
            "real_name": "Camille Masselot - JOGL Program coordinator",
            "display_name": "Camille Masselot - JOGL coordinator",
            "team": "TUU48M0T1",
            "name": "masselot.camille",
            "is_restricted": false,
            "is_ultra_restricted": false
        },
        "blocks": [
            {
                "type": "rich_text",
                "block_id": "W2Vm",
                "elements": [
                    {
                        "type": "rich_text_section",
                        "elements": [
                            {
                                "type": "text",
                                "text": "Thank you very much "
                            },
                            {
                                "type": "user",
                                "user_id": "U010R28M89Y"
                            },
                            {
                                "type": "text",
                                "text": "!"
                            }
                        ]
                    }
                ]
            }
        ]
    },
    {
        "client_msg_id": "e34a4270-13a9-4be8-8b67-a7f4fa7d22ea",
        "type": "message",
        "text": "Also regarding the notification on the channel, you can switch to \"compact view\"",
        "user": "U010R28M89Y",
        "ts": "1588078746.010000",
        "team": "TUU48M0T1",
        "user_team": "TUU48M0T1",
        "source_team": "TUU48M0T1",
        "user_profile": {
            "avatar_hash": "d337412d1dd6",
            "image_72": "https:\/\/avatars.slack-edge.com\/2020-04-28\/1090354401635_d337412d1dd6258687ed_72.png",
            "first_name": "Elie",
            "real_name": "Elie Goldfarb",
            "display_name": "Elie Goldfarb",
            "team": "TUU48M0T1",
            "name": "elie",
            "is_restricted": false,
            "is_ultra_restricted": false
        },
        "edited": {
            "user": "U010R28M89Y",
            "ts": "1588078761.000000"
        },
        "blocks": [
            {
                "type": "rich_text",
                "block_id": "8IHo",
                "elements": [
                    {
                        "type": "rich_text_section",
                        "elements": [
                            {
                                "type": "text",
                                "text": "Also regarding the notification on the channel, you can switch to \"compact view\""
                            }
                        ]
                    }
                ]
            }
        ]
    },
    {
        "client_msg_id": "fcbc5b2c-51b9-4aef-b981-398ccd672d45",
        "type": "message",
        "text": "For all tutorials, you can start with this video, and check the others on youtube  :\n<https:\/\/www.youtube.com\/watch?v=ya91cM6IgsA>",
        "user": "U010R28M89Y",
        "ts": "1588085026.010800",
        "team": "TUU48M0T1",
        "user_team": "TUU48M0T1",
        "source_team": "TUU48M0T1",
        "user_profile": {
            "avatar_hash": "d337412d1dd6",
            "image_72": "https:\/\/avatars.slack-edge.com\/2020-04-28\/1090354401635_d337412d1dd6258687ed_72.png",
            "first_name": "Elie",
            "real_name": "Elie Goldfarb",
            "display_name": "Elie Goldfarb",
            "team": "TUU48M0T1",
            "name": "elie",
            "is_restricted": false,
            "is_ultra_restricted": false
        },
        "attachments": [
            {
                "service_name": "YouTube",
                "service_url": "https:\/\/www.youtube.com\/",
                "title": "Getting Started on Slack | Workstreams.ai",
                "title_link": "https:\/\/www.youtube.com\/watch?v=ya91cM6IgsA",
                "author_name": "Workstreams.ai",
                "author_link": "https:\/\/www.youtube.com\/channel\/UCJBa8JcSF2wd2jMJgIjhQTQ",
                "thumb_url": "https:\/\/i.ytimg.com\/vi\/ya91cM6IgsA\/hqdefault.jpg",
                "thumb_width": 480,
                "thumb_height": 360,
                "fallback": "YouTube Video: Getting Started on Slack | Workstreams.ai",
                "video_html": "<iframe width=\"400\" height=\"225\" src=\"https:\/\/www.youtube.com\/embed\/ya91cM6IgsA?feature=oembed&autoplay=1&iv_load_policy=3\" frameborder=\"0\" allow=\"accelerometer; autoplay; encrypted-media; gyroscope; picture-in-picture\" allowfullscreen><\/iframe>",
                "video_html_width": 400,
                "video_html_height": 225,
                "from_url": "https:\/\/www.youtube.com\/watch?v=ya91cM6IgsA",
                "service_icon": "https:\/\/a.slack-edge.com\/80588\/img\/unfurl_icons\/youtube.png",
                "id": 1,
                "original_url": "https:\/\/www.youtube.com\/watch?v=ya91cM6IgsA"
            }
        ],
        "blocks": [
            {
                "type": "rich_text",
                "block_id": "R\/Ce",
                "elements": [
                    {
                        "type": "rich_text_section",
                        "elements": [
                            {
                                "type": "text",
                                "text": "For all tutorials, you can start with this video, and check the others on youtube  :\n"
                            },
                            {
                                "type": "link",
                                "url": "https:\/\/www.youtube.com\/watch?v=ya91cM6IgsA"
                            }
                        ]
                    }
                ]
            }
        ]
    }
]