[
    {
        "type": "message",
        "subtype": "channel_join",
        "ts": "1586184089.000200",
        "user": "U010R28M89Y",
        "text": "<@U010R28M89Y> has joined the channel"
    },
    {
        "type": "message",
        "subtype": "channel_join",
        "ts": "1586184104.000600",
        "user": "U011E5YPGAJ",
        "text": "<@U011E5YPGAJ> has joined the channel",
        "inviter": "U010R28M89Y"
    },
    {
        "type": "message",
        "subtype": "bot_message",
        "text": "Hi :wave: I'm here to help you get *stuff* done :rocket:",
        "ts": "1586184105.000700",
        "username": "Workstreams",
        "bot_id": "B011E5YPDU6",
        "blocks": [
            {
                "type": "section",
                "block_id": "1bm",
                "text": {
                    "type": "mrkdwn",
                    "text": "Hi :wave: I'm here to help you get *stuff* done :rocket:",
                    "verbatim": false
                }
            },
            {
                "type": "context",
                "block_id": "channel-settings-C011PC2G2SC",
                "elements": [
                    {
                        "type": "mrkdwn",
                        "text": ":memo: planned: *2*",
                        "verbatim": false
                    },
                    {
                        "type": "mrkdwn",
                        "text": ":arrow_forward: in progress: *1*",
                        "verbatim": false
                    },
                    {
                        "type": "mrkdwn",
                        "text": ":white_check_mark: completed: *0*",
                        "verbatim": false
                    }
                ]
            },
            {
                "type": "context",
                "block_id": "fE65",
                "elements": [
                    {
                        "type": "mrkdwn",
                        "text": "Current workflow: *planned* | *in progress* | *completed*",
                        "verbatim": false
                    }
                ]
            },
            {
                "type": "divider",
                "block_id": "4ML1I"
            },
            {
                "type": "actions",
                "block_id": "ahn",
                "elements": [
                    {
                        "type": "button",
                        "action_id": "new-task",
                        "text": {
                            "type": "plain_text",
                            "text": ":heavy_plus_sign: New task",
                            "emoji": true
                        },
                        "style": "primary"
                    },
                    {
                        "type": "button",
                        "action_id": "taskboard",
                        "text": {
                            "type": "plain_text",
                            "text": ":clipboard: Taskboard",
                            "emoji": true
                        },
                        "style": "primary",
                        "url": "https:\/\/app.workstreams.ai\/teams\/TUU48M0T1\/board\/C011PC2G2SC"
                    },
                    {
                        "type": "button",
                        "action_id": "channel-settings",
                        "text": {
                            "type": "plain_text",
                            "text": ":gear: Settings",
                            "emoji": true
                        },
                        "style": "primary"
                    }
                ]
            },
            {
                "type": "actions",
                "block_id": "YYve",
                "elements": [
                    {
                        "type": "button",
                        "action_id": "restart-tutorial",
                        "text": {
                            "type": "plain_text",
                            "text": ":mortar_board: Tutorial",
                            "emoji": true
                        }
                    },
                    {
                        "type": "button",
                        "action_id": "help",
                        "text": {
                            "type": "plain_text",
                            "text": ":sos: Help center",
                            "emoji": true
                        },
                        "url": "https:\/\/www.workstreams.ai\/support\/task-management.html?source=slack-help-button]"
                    },
                    {
                        "type": "button",
                        "action_id": "open-feedback-modal",
                        "text": {
                            "type": "plain_text",
                            "text": ":loudspeaker: Feedback",
                            "emoji": true
                        }
                    }
                ]
            }
        ],
        "edited": {
            "user": "B011E5YPDU6",
            "ts": "1588056528.000000"
        }
    },
    {
        "client_msg_id": "2949436c-f892-4ffc-8953-01ec4a264f5b",
        "type": "message",
        "text": "Here are some handy videos on Youtube\n\nGetting started - <https:\/\/www.youtube.com\/watch?v=ya91cM6IgsA>\nGoals - <https:\/\/www.youtube.com\/watch?v=PNeVA8JcNmA>",
        "user": "U010R28M89Y",
        "ts": "1586184163.001000",
        "team": "TUU48M0T1",
        "user_team": "TUU48M0T1",
        "source_team": "TUU48M0T1",
        "user_profile": {
            "avatar_hash": "d337412d1dd6",
            "image_72": "https:\/\/avatars.slack-edge.com\/2020-04-28\/1090354401635_d337412d1dd6258687ed_72.png",
            "first_name": "Elie",
            "real_name": "Elie Goldfarb",
            "display_name": "Elie Goldfarb",
            "team": "TUU48M0T1",
            "name": "elie",
            "is_restricted": false,
            "is_ultra_restricted": false
        },
        "attachments": [
            {
                "service_name": "YouTube",
                "service_url": "https:\/\/www.youtube.com\/",
                "title": "Getting Started on Slack | Workstreams.ai",
                "title_link": "https:\/\/www.youtube.com\/watch?v=ya91cM6IgsA",
                "author_name": "Workstreams.ai",
                "author_link": "https:\/\/www.youtube.com\/channel\/UCJBa8JcSF2wd2jMJgIjhQTQ",
                "thumb_url": "https:\/\/i.ytimg.com\/vi\/ya91cM6IgsA\/hqdefault.jpg",
                "thumb_width": 480,
                "thumb_height": 360,
                "fallback": "YouTube Video: Getting Started on Slack | Workstreams.ai",
                "video_html": "<iframe width=\"400\" height=\"225\" src=\"https:\/\/www.youtube.com\/embed\/ya91cM6IgsA?feature=oembed&autoplay=1&iv_load_policy=3\" frameborder=\"0\" allow=\"accelerometer; autoplay; encrypted-media; gyroscope; picture-in-picture\" allowfullscreen><\/iframe>",
                "video_html_width": 400,
                "video_html_height": 225,
                "from_url": "https:\/\/www.youtube.com\/watch?v=ya91cM6IgsA",
                "service_icon": "https:\/\/a.slack-edge.com\/80588\/img\/unfurl_icons\/youtube.png",
                "id": 1,
                "original_url": "https:\/\/www.youtube.com\/watch?v=ya91cM6IgsA"
            },
            {
                "service_name": "YouTube",
                "service_url": "https:\/\/www.youtube.com\/",
                "title": "Goals | Workstreams.ai",
                "title_link": "https:\/\/www.youtube.com\/watch?v=PNeVA8JcNmA",
                "author_name": "Workstreams.ai",
                "author_link": "https:\/\/www.youtube.com\/channel\/UCJBa8JcSF2wd2jMJgIjhQTQ",
                "thumb_url": "https:\/\/i.ytimg.com\/vi\/PNeVA8JcNmA\/hqdefault.jpg",
                "thumb_width": 480,
                "thumb_height": 360,
                "fallback": "YouTube Video: Goals | Workstreams.ai",
                "video_html": "<iframe width=\"400\" height=\"225\" src=\"https:\/\/www.youtube.com\/embed\/PNeVA8JcNmA?feature=oembed&autoplay=1&iv_load_policy=3\" frameborder=\"0\" allow=\"accelerometer; autoplay; encrypted-media; gyroscope; picture-in-picture\" allowfullscreen><\/iframe>",
                "video_html_width": 400,
                "video_html_height": 225,
                "from_url": "https:\/\/www.youtube.com\/watch?v=PNeVA8JcNmA",
                "service_icon": "https:\/\/a.slack-edge.com\/80588\/img\/unfurl_icons\/youtube.png",
                "id": 2,
                "original_url": "https:\/\/www.youtube.com\/watch?v=PNeVA8JcNmA"
            }
        ],
        "blocks": [
            {
                "type": "rich_text",
                "block_id": "\/o5sw",
                "elements": [
                    {
                        "type": "rich_text_section",
                        "elements": [
                            {
                                "type": "text",
                                "text": "Here are some handy videos on Youtube\n\nGetting started - "
                            },
                            {
                                "type": "link",
                                "url": "https:\/\/www.youtube.com\/watch?v=ya91cM6IgsA"
                            },
                            {
                                "type": "text",
                                "text": "\nGoals - "
                            },
                            {
                                "type": "link",
                                "url": "https:\/\/www.youtube.com\/watch?v=PNeVA8JcNmA"
                            }
                        ]
                    }
                ]
            }
        ]
    },
    {
        "type": "message",
        "subtype": "bot_message",
        "text": "",
        "ts": "1586194905.000100",
        "username": "Workstreams",
        "bot_id": "B011E5YPDU6",
        "attachments": [
            {
                "text": ":wave: Managing your tasks works best when there are actual tasks created :wink:",
                "id": 1,
                "fallback": ":wave: Managing your tasks works best when there are actual tasks created :wink:"
            },
            {
                "text": "Let us start adding some by using the button below or simply typing `\/plan title`",
                "id": 2,
                "mrkdwn_in": [
                    "text"
                ],
                "fallback": "Let us start adding some by using the button below or simply typing `\/plan title`"
            },
            {
                "text": "Everything you create is conveniently placed in the \"Planned\" column of your brand new <https:\/\/app.workstreams.ai\/teams\/TUU48M0T1\/board\/C011PC2G2SC|Kanban board>",
                "id": 3,
                "fallback": "Everything you create is conveniently placed in the \"Planned\" column of your brand new <https:\/\/app.workstreams.ai\/teams\/TUU48M0T1\/board\/C011PC2G2SC|Kanban board>"
            },
            {
                "callback_id": "tutorial_action",
                "text": "Let's get to work!",
                "id": 4,
                "actions": [
                    {
                        "id": "1",
                        "name": "dialog|tasks|create",
                        "text": "Create task",
                        "type": "button",
                        "value": "",
                        "style": "primary"
                    },
                    {
                        "id": "2",
                        "text": "Taskboard",
                        "type": "button",
                        "style": "primary",
                        "url": "https:\/\/app.workstreams.ai\/teams\/TUU48M0T1\/board\/C011PC2G2SC",
                        "name": "openBoard"
                    }
                ],
                "fallback": "Let's get to work!"
            }
        ]
    }
]