[
    {
        "client_msg_id": "9a2f302f-fab3-4c39-8b54-4910c44db36d",
        "type": "message",
        "text": "Dropping these here so I don’t forget where to find carboxylated magbeads <https:\/\/www.sigmaaldrich.com\/catalog\/search?term=Sera-Mag%E2%84%A2+magnetic+carboxylate+modified+particles&amp;interface=All&amp;N=0&amp;mode=match%20partialmax&amp;lang=en&amp;region=US&amp;focus=product>",
        "user": "UUNGFHSV8",
        "ts": "1586902531.003700",
        "team": "TUU48M0T1",
        "user_team": "TUU48M0T1",
        "source_team": "TUU48M0T1",
        "user_profile": {
            "avatar_hash": "1c55ee32397a",
            "image_72": "https:\/\/avatars.slack-edge.com\/2020-03-07\/987349161984_1c55ee32397a85a87ec4_72.png",
            "first_name": "Isaac",
            "real_name": "Isaac Larkin",
            "display_name": "Isaac Larkin",
            "team": "TUU48M0T1",
            "name": "eyesmo",
            "is_restricted": false,
            "is_ultra_restricted": false
        },
        "attachments": [
            {
                "title": "Sera-Mag™ magnetic carboxylate modified particles | Sigma-Aldrich",
                "title_link": "https:\/\/www.sigmaaldrich.com\/catalog\/search?term=Sera-Mag%E2%84%A2+magnetic+carboxylate+modified+particles&interface=All&N=0&mode=match%20partialmax&lang=en&region=US&focus=product",
                "text": "Search results for Sera-Mag™ magnetic carboxylate modified particles at Sigma-Aldrich",
                "fallback": "Sera-Mag™ magnetic carboxylate modified particles | Sigma-Aldrich",
                "from_url": "https:\/\/www.sigmaaldrich.com\/catalog\/search?term=Sera-Mag%E2%84%A2+magnetic+carboxylate+modified+particles&interface=All&N=0&mode=match%20partialmax&lang=en&region=US&focus=product",
                "service_icon": "https:\/\/www.sigmaaldrich.com\/favicon.ico",
                "service_name": "sigmaaldrich.com",
                "id": 1,
                "original_url": "https:\/\/www.sigmaaldrich.com\/catalog\/search?term=Sera-Mag%E2%84%A2+magnetic+carboxylate+modified+particles&amp;interface=All&amp;N=0&amp;mode=match%20partialmax&amp;lang=en&amp;region=US&amp;focus=product"
            }
        ],
        "blocks": [
            {
                "type": "rich_text",
                "block_id": "V\/6gD",
                "elements": [
                    {
                        "type": "rich_text_section",
                        "elements": [
                            {
                                "type": "text",
                                "text": "Dropping these here so I don’t forget where to find carboxylated magbeads "
                            },
                            {
                                "type": "link",
                                "url": "https:\/\/www.sigmaaldrich.com\/catalog\/search?term=Sera-Mag%E2%84%A2+magnetic+carboxylate+modified+particles&interface=All&N=0&mode=match%20partialmax&lang=en&region=US&focus=product"
                            }
                        ]
                    }
                ]
            }
        ]
    },
    {
        "client_msg_id": "bd39d40a-6b9c-42b6-baf9-7d2ebcfa1459",
        "type": "message",
        "text": "<https:\/\/www.sigmaaldrich.com\/catalog\/product\/sigma\/ge24152105050250?lang=en&amp;region=US>",
        "user": "UUNGFHSV8",
        "ts": "1586902539.004000",
        "team": "TUU48M0T1",
        "user_team": "TUU48M0T1",
        "source_team": "TUU48M0T1",
        "user_profile": {
            "avatar_hash": "1c55ee32397a",
            "image_72": "https:\/\/avatars.slack-edge.com\/2020-03-07\/987349161984_1c55ee32397a85a87ec4_72.png",
            "first_name": "Isaac",
            "real_name": "Isaac Larkin",
            "display_name": "Isaac Larkin",
            "team": "TUU48M0T1",
            "name": "eyesmo",
            "is_restricted": false,
            "is_ultra_restricted": false
        },
        "attachments": [
            {
                "service_name": "Sigma-Aldrich",
                "title": "Sera-Mag™ Magnetic carboxylate modified particles (Hydrophylic) GE24152105050250",
                "title_link": "https:\/\/www.sigmaaldrich.com\/catalog\/product\/sigma\/ge24152105050250?lang=en&region=US",
                "text": "Sera-Mag™ Magnetic carboxylate modified particles (Hydrophylic) GE Healthcare, 24152105050250, 1 μm avg. part. size, suspension (5% Solids)",
                "fallback": "Sigma-Aldrich: Sera-Mag™ Magnetic carboxylate modified particles (Hydrophylic) GE24152105050250",
                "from_url": "https:\/\/www.sigmaaldrich.com\/catalog\/product\/sigma\/ge24152105050250?lang=en&region=US",
                "service_icon": "https:\/\/www.sigmaaldrich.com\/favicon.ico",
                "id": 1,
                "original_url": "https:\/\/www.sigmaaldrich.com\/catalog\/product\/sigma\/ge24152105050250?lang=en&amp;region=US"
            }
        ],
        "blocks": [
            {
                "type": "rich_text",
                "block_id": "tPh0u",
                "elements": [
                    {
                        "type": "rich_text_section",
                        "elements": [
                            {
                                "type": "link",
                                "url": "https:\/\/www.sigmaaldrich.com\/catalog\/product\/sigma\/ge24152105050250?lang=en&region=US"
                            }
                        ]
                    }
                ]
            }
        ]
    },
    {
        "client_msg_id": "528b050f-a882-4e92-8a26-f1aa594a0a71",
        "type": "message",
        "text": "and silica coated magnetic nanoparticles <https:\/\/www.sigmaaldrich.com\/catalog\/product\/mm\/101193?lang=en&amp;region=US&amp;cm_sp=Insite-_-caContent_prodMerch_cooccuranceModel-_-prodMerch10-1>",
        "user": "UUNGFHSV8",
        "ts": "1586902556.004400",
        "team": "TUU48M0T1",
        "user_team": "TUU48M0T1",
        "source_team": "TUU48M0T1",
        "user_profile": {
            "avatar_hash": "1c55ee32397a",
            "image_72": "https:\/\/avatars.slack-edge.com\/2020-03-07\/987349161984_1c55ee32397a85a87ec4_72.png",
            "first_name": "Isaac",
            "real_name": "Isaac Larkin",
            "display_name": "Isaac Larkin",
            "team": "TUU48M0T1",
            "name": "eyesmo",
            "is_restricted": false,
            "is_ultra_restricted": false
        },
        "attachments": [
            {
                "service_name": "Sigma-Aldrich",
                "title": "MagPrep Silica Particles 101193",
                "title_link": "https:\/\/www.sigmaaldrich.com\/catalog\/product\/mm\/101193?lang=en&region=US&cm_sp=Insite-_-caContent_prodMerch_cooccuranceModel-_-prodMerch10-1",
                "text": "MagPrep Silica Particles",
                "fallback": "Sigma-Aldrich: MagPrep Silica Particles 101193",
                "from_url": "https:\/\/www.sigmaaldrich.com\/catalog\/product\/mm\/101193?lang=en&region=US&cm_sp=Insite-_-caContent_prodMerch_cooccuranceModel-_-prodMerch10-1",
                "service_icon": "https:\/\/www.sigmaaldrich.com\/favicon.ico",
                "id": 1,
                "original_url": "https:\/\/www.sigmaaldrich.com\/catalog\/product\/mm\/101193?lang=en&amp;region=US&amp;cm_sp=Insite-_-caContent_prodMerch_cooccuranceModel-_-prodMerch10-1"
            }
        ],
        "blocks": [
            {
                "type": "rich_text",
                "block_id": "qBcD",
                "elements": [
                    {
                        "type": "rich_text_section",
                        "elements": [
                            {
                                "type": "text",
                                "text": "and silica coated magnetic nanoparticles "
                            },
                            {
                                "type": "link",
                                "url": "https:\/\/www.sigmaaldrich.com\/catalog\/product\/mm\/101193?lang=en&region=US&cm_sp=Insite-_-caContent_prodMerch_cooccuranceModel-_-prodMerch10-1"
                            }
                        ]
                    }
                ]
            }
        ]
    },
    {
        "client_msg_id": "9dfccd7e-a715-444e-a383-0c81646daad5",
        "type": "message",
        "text": "<https:\/\/www.sigmaaldrich.com\/catalog\/product\/mm\/101193?lang=en&amp;region=US&amp;cm_sp=Insite-_-caContent_prodMerch_cooccuranceModel-_-prodMerch10-2>",
        "user": "UUNGFHSV8",
        "ts": "1586902613.004700",
        "team": "TUU48M0T1",
        "user_team": "TUU48M0T1",
        "source_team": "TUU48M0T1",
        "user_profile": {
            "avatar_hash": "1c55ee32397a",
            "image_72": "https:\/\/avatars.slack-edge.com\/2020-03-07\/987349161984_1c55ee32397a85a87ec4_72.png",
            "first_name": "Isaac",
            "real_name": "Isaac Larkin",
            "display_name": "Isaac Larkin",
            "team": "TUU48M0T1",
            "name": "eyesmo",
            "is_restricted": false,
            "is_ultra_restricted": false
        },
        "attachments": [
            {
                "service_name": "Sigma-Aldrich",
                "title": "MagPrep Silica Particles 101193",
                "title_link": "https:\/\/www.sigmaaldrich.com\/catalog\/product\/mm\/101193?lang=en&region=US&cm_sp=Insite-_-caContent_prodMerch_cooccuranceModel-_-prodMerch10-2",
                "text": "MagPrep Silica Particles",
                "fallback": "Sigma-Aldrich: MagPrep Silica Particles 101193",
                "from_url": "https:\/\/www.sigmaaldrich.com\/catalog\/product\/mm\/101193?lang=en&region=US&cm_sp=Insite-_-caContent_prodMerch_cooccuranceModel-_-prodMerch10-2",
                "service_icon": "https:\/\/www.sigmaaldrich.com\/favicon.ico",
                "id": 1,
                "original_url": "https:\/\/www.sigmaaldrich.com\/catalog\/product\/mm\/101193?lang=en&amp;region=US&amp;cm_sp=Insite-_-caContent_prodMerch_cooccuranceModel-_-prodMerch10-2"
            }
        ],
        "blocks": [
            {
                "type": "rich_text",
                "block_id": "klPAd",
                "elements": [
                    {
                        "type": "rich_text_section",
                        "elements": [
                            {
                                "type": "link",
                                "url": "https:\/\/www.sigmaaldrich.com\/catalog\/product\/mm\/101193?lang=en&region=US&cm_sp=Insite-_-caContent_prodMerch_cooccuranceModel-_-prodMerch10-2"
                            }
                        ]
                    }
                ]
            }
        ]
    },
    {
        "client_msg_id": "f5e98370-2592-4c3b-845c-d9540f3e109c",
        "type": "message",
        "text": "No idea why the silica ones are so much more expensive",
        "user": "UUNGFHSV8",
        "ts": "1586902623.005100",
        "team": "TUU48M0T1",
        "user_team": "TUU48M0T1",
        "source_team": "TUU48M0T1",
        "user_profile": {
            "avatar_hash": "1c55ee32397a",
            "image_72": "https:\/\/avatars.slack-edge.com\/2020-03-07\/987349161984_1c55ee32397a85a87ec4_72.png",
            "first_name": "Isaac",
            "real_name": "Isaac Larkin",
            "display_name": "Isaac Larkin",
            "team": "TUU48M0T1",
            "name": "eyesmo",
            "is_restricted": false,
            "is_ultra_restricted": false
        },
        "blocks": [
            {
                "type": "rich_text",
                "block_id": "GeC",
                "elements": [
                    {
                        "type": "rich_text_section",
                        "elements": [
                            {
                                "type": "text",
                                "text": "No idea why the silica ones are so much more expensive"
                            }
                        ]
                    }
                ]
            }
        ]
    }
]