[
    {
        "type": "message",
        "subtype": "channel_join",
        "ts": "1584029689.001800",
        "user": "UVAB15FU0",
        "text": "<@UVAB15FU0> has joined the channel"
    },
    {
        "type": "message",
        "subtype": "channel_join",
        "ts": "1584068795.002100",
        "user": "UUYTLGUFL",
        "text": "<@UUYTLGUFL> has joined the channel"
    },
    {
        "type": "message",
        "subtype": "channel_join",
        "ts": "1584074424.002400",
        "user": "UUWR0FJ7M",
        "text": "<@UUWR0FJ7M> has joined the channel"
    }
]