[
    {
        "client_msg_id": "24e14c4c-f9f0-4cc5-9313-dcb8a185ec7e",
        "type": "message",
        "text": "<https:\/\/www.20minutes.fr\/arts-stars\/culture\/2767311-20200425-coronavirus-biscottes-sons-dessins-archives-confinement-deja-collectees>",
        "user": "U011BAD8A5V",
        "ts": "1587932216.005500",
        "team": "TUU48M0T1",
        "user_team": "TUU48M0T1",
        "source_team": "TUU48M0T1",
        "user_profile": {
            "avatar_hash": "cc2342c6b5e4",
            "image_72": "https:\/\/avatars.slack-edge.com\/2020-04-15\/1050435442151_cc2342c6b5e4ed35a60a_72.png",
            "first_name": "Yves",
            "real_name": "Yves Rozenholc",
            "display_name": "Yves - Covid19 Museum",
            "team": "TUU48M0T1",
            "name": "contact",
            "is_restricted": false,
            "is_ultra_restricted": false
        },
        "attachments": [
            {
                "title": "Biscottes, sons et dessins… Les archives du confinement déjà collectées",
                "title_link": "https:\/\/www.20minutes.fr\/arts-stars\/culture\/2767311-20200425-coronavirus-biscottes-sons-dessins-archives-confinement-deja-collectees",
                "text": "Le Mucem et de nombreux services d’archives lancent des collectes d’objets liés au confinement. Après la crise sanitaire, les chercheurs les utiliseront pour analyser ce moment de notre histoire collective",
                "fallback": "Biscottes, sons et dessins… Les archives du confinement déjà collectées",
                "image_url": "https:\/\/img.20mn.fr\/g067FvelRP6tiHy2djbtTg\/648x360_puzzle-attestation-sortie-pourraient-rejoindre-fonds-mucem.jpg",
                "from_url": "https:\/\/www.20minutes.fr\/arts-stars\/culture\/2767311-20200425-coronavirus-biscottes-sons-dessins-archives-confinement-deja-collectees",
                "image_width": 450,
                "image_height": 250,
                "image_bytes": 28179,
                "service_icon": "https:\/\/www.20minutes.fr\/favicons\/apple-touch-icon.png",
                "service_name": "20minutes.fr",
                "id": 1,
                "original_url": "https:\/\/www.20minutes.fr\/arts-stars\/culture\/2767311-20200425-coronavirus-biscottes-sons-dessins-archives-confinement-deja-collectees"
            }
        ],
        "blocks": [
            {
                "type": "rich_text",
                "block_id": "vCp",
                "elements": [
                    {
                        "type": "rich_text_section",
                        "elements": [
                            {
                                "type": "link",
                                "url": "https:\/\/www.20minutes.fr\/arts-stars\/culture\/2767311-20200425-coronavirus-biscottes-sons-dessins-archives-confinement-deja-collectees"
                            }
                        ]
                    }
                ]
            }
        ],
        "reactions": [
            {
                "name": "+1",
                "users": [
                    "UV02WET96"
                ],
                "count": 1
            }
        ]
    }
]