[
    {
        "client_msg_id": "339f0f46-8bcd-4881-bcc8-c6a555486670",
        "type": "message",
        "text": "Hi <@U011LQ49GLW> - Thank you SO much!!! I will definitely check out the link. We are past the feasibility stage and are now in the creation of the app\/website. - The wireframing is simply just to A\/B test different UX friendly iterations, if that makes sense? - I will keep you updated as to progress - Thanks again!",
        "user": "U011D6K9RH6",
        "ts": "1588005029.008600",
        "team": "TUU48M0T1",
        "user_team": "TUU48M0T1",
        "source_team": "TUU48M0T1",
        "user_profile": {
            "avatar_hash": "85c5155708e4",
            "image_72": "https:\/\/avatars.slack-edge.com\/2020-04-02\/1033600589794_85c5155708e4e6cfa61f_72.jpg",
            "first_name": "George",
            "real_name": "George Elerick",
            "display_name": "George Elerick",
            "team": "TUU48M0T1",
            "name": "george",
            "is_restricted": false,
            "is_ultra_restricted": false
        },
        "blocks": [
            {
                "type": "rich_text",
                "block_id": "ltsX",
                "elements": [
                    {
                        "type": "rich_text_section",
                        "elements": [
                            {
                                "type": "text",
                                "text": "Hi "
                            },
                            {
                                "type": "user",
                                "user_id": "U011LQ49GLW"
                            },
                            {
                                "type": "text",
                                "text": " - Thank you SO much!!! I will definitely check out the link. We are past the feasibility stage and are now in the creation of the app\/website. - The wireframing is simply just to A\/B test different UX friendly iterations, if that makes sense? - I will keep you updated as to progress - Thanks again!"
                            }
                        ]
                    }
                ]
            }
        ]
    },
    {
        "client_msg_id": "0d529a21-b461-4359-86d7-feb3da652c1e",
        "type": "message",
        "text": "<@U011LQ49GLW> - Just a quick update. I have a friend who has joined this channel who is a further steps ahead on the project - we would love to connect with you on helping with the developer side of things, if still interested? (i.e. he has an app in place) -we just will need to edit, and add AI components and interactivity. But, will let him speak as well. Let us know if you're still interested. Awesome! :slightly_smiling_face:",
        "user": "U011D6K9RH6",
        "ts": "1588017245.010400",
        "team": "TUU48M0T1",
        "user_team": "TUU48M0T1",
        "source_team": "TUU48M0T1",
        "user_profile": {
            "avatar_hash": "85c5155708e4",
            "image_72": "https:\/\/avatars.slack-edge.com\/2020-04-02\/1033600589794_85c5155708e4e6cfa61f_72.jpg",
            "first_name": "George",
            "real_name": "George Elerick",
            "display_name": "George Elerick",
            "team": "TUU48M0T1",
            "name": "george",
            "is_restricted": false,
            "is_ultra_restricted": false
        },
        "blocks": [
            {
                "type": "rich_text",
                "block_id": "6EUtb",
                "elements": [
                    {
                        "type": "rich_text_section",
                        "elements": [
                            {
                                "type": "user",
                                "user_id": "U011LQ49GLW"
                            },
                            {
                                "type": "text",
                                "text": " - Just a quick update. I have a friend who has joined this channel who is a further steps ahead on the project - we would love to connect with you on helping with the developer side of things, if still interested? (i.e. he has an app in place) -we just will need to edit, and add AI components and interactivity. But, will let him speak as well. Let us know if you're still interested. Awesome! "
                            },
                            {
                                "type": "emoji",
                                "name": "slightly_smiling_face"
                            }
                        ]
                    }
                ]
            }
        ]
    }
]