[
    {
        "type": "message",
        "subtype": "channel_join",
        "ts": "1584957494.000200",
        "user": "U01072UT127",
        "text": "<@U01072UT127> has joined the channel"
    },
    {
        "type": "message",
        "subtype": "channel_join",
        "ts": "1584971663.000400",
        "user": "U010MCAV022",
        "text": "<@U010MCAV022> has joined the channel"
    }
]