[
    {
        "client_msg_id": "380c0ddd-1967-4bde-adec-473f4ff59455",
        "type": "message",
        "text": "<https:\/\/www.sandiegouniontribune.com\/news\/science\/story\/2020-04-11\/coronavirus-infection-can-do-lasting-damage-to-the-heart-liver|https:\/\/www.sandiegouniontribune.com\/news\/science\/story\/2020-04-11\/coronavirus-infection-can-do-lasting-damage-to-the-heart-liver>",
        "user": "U010BA2NL9E",
        "ts": "1586782379.000100",
        "team": "TUU48M0T1",
        "user_team": "TUU48M0T1",
        "source_team": "TUU48M0T1",
        "user_profile": {
            "avatar_hash": "g3fa100f8f14",
            "image_72": "https:\/\/secure.gravatar.com\/avatar\/3fa100f8f14fc86a0f2f58648b36d29e.jpg?s=72&d=https%3A%2F%2Fa.slack-edge.com%2Fdf10d%2Fimg%2Favatars%2Fava_0008-72.png",
            "first_name": "",
            "real_name": "Eduardo Garcia",
            "display_name": "Eduardo Garcia",
            "team": "TUU48M0T1",
            "name": "eduardo.garcia",
            "is_restricted": false,
            "is_ultra_restricted": false
        },
        "attachments": [
            {
                "service_name": "San Diego Union-Tribune",
                "title": "Coronavirus infection may cause lasting damage throughout the body, doctors fear",
                "title_link": "https:\/\/www.sandiegouniontribune.com\/news\/science\/story\/2020-04-11\/coronavirus-infection-can-do-lasting-damage-to-the-heart-liver",
                "text": "Some patients who have recovered from coronavirus infection are suffering lasting damage, including liver damage, heart damage and blood clotting problems.",
                "fallback": "San Diego Union-Tribune: Coronavirus infection may cause lasting damage throughout the body, doctors fear",
                "image_url": "https:\/\/ca-times.brightspotcdn.com\/dims4\/default\/78103c3\/2147483647\/strip\/true\/crop\/4000x2100+0+254\/resize\/1200x630!\/quality\/90\/?url=https%3A%2F%2Fcalifornia-times-brightspot.s3.amazonaws.com%2F4f%2F9f%2F9c490db9463c8dd051c531cebc76%2Fhttps-delivery.gettyimages.com%2Fdownloads%2F1209565790.jpg",
                "image_width": 476,
                "image_height": 250,
                "ts": 1586643214,
                "from_url": "https:\/\/www.sandiegouniontribune.com\/news\/science\/story\/2020-04-11\/coronavirus-infection-can-do-lasting-damage-to-the-heart-liver",
                "image_bytes": 117015,
                "service_icon": "https:\/\/www.sandiegouniontribune.com\/apple-touch-icon.png",
                "id": 1,
                "original_url": "https:\/\/www.sandiegouniontribune.com\/news\/science\/story\/2020-04-11\/coronavirus-infection-can-do-lasting-damage-to-the-heart-liver"
            }
        ],
        "blocks": [
            {
                "type": "rich_text",
                "block_id": "m+LE",
                "elements": [
                    {
                        "type": "rich_text_section",
                        "elements": [
                            {
                                "type": "link",
                                "url": "https:\/\/www.sandiegouniontribune.com\/news\/science\/story\/2020-04-11\/coronavirus-infection-can-do-lasting-damage-to-the-heart-liver",
                                "text": "https:\/\/www.sandiegouniontribune.com\/news\/science\/story\/2020-04-11\/coronavirus-infection-can-do-lasting-damage-to-the-heart-liver"
                            }
                        ]
                    }
                ]
            }
        ],
        "thread_ts": "1586344928.000500",
        "parent_user_id": "U010BA2NL9E"
    },
    {
        "client_msg_id": "843b9947-be9a-4ec9-89ee-99cd5e2772b1",
        "type": "message",
        "text": "<https:\/\/doi.org\/10.1101\/2020.04.05.20053819|https:\/\/doi.org\/10.1101\/2020.04.05.20053819>",
        "user": "U010BA2NL9E",
        "ts": "1586782459.000400",
        "team": "TUU48M0T1",
        "user_team": "TUU48M0T1",
        "source_team": "TUU48M0T1",
        "user_profile": {
            "avatar_hash": "g3fa100f8f14",
            "image_72": "https:\/\/secure.gravatar.com\/avatar\/3fa100f8f14fc86a0f2f58648b36d29e.jpg?s=72&d=https%3A%2F%2Fa.slack-edge.com%2Fdf10d%2Fimg%2Favatars%2Fava_0008-72.png",
            "first_name": "",
            "real_name": "Eduardo Garcia",
            "display_name": "Eduardo Garcia",
            "team": "TUU48M0T1",
            "name": "eduardo.garcia",
            "is_restricted": false,
            "is_ultra_restricted": false
        },
        "attachments": [
            {
                "service_name": "medRxiv",
                "title": "Plasma Metabolomic and Lipidomic Alterations Associated with COVID-19",
                "title_link": "https:\/\/doi.org\/10.1101\/2020.04.05.20053819",
                "text": "The pandemic of the coronavirus disease 2019 (COVID-19) has become a global public health crisis. COVID-19 is marked by its rapid progression from mild to severe conditions, particularly in the absence of adequate medical care. However, the physiological changes associated with COVID-19 are barely understood. In this study, we performed untargeted metabolomic and lipidomic analyses of plasma from a cohort of COVID-19 patients who had experienced different symptoms. We found the metabolite and lipid alterations exhibit apparent correlation with the course of disease in these COVID-19 patients, indicating that the development of COVID-19 affected patient metabolism. Moreover, many of the metabolite and lipid alterations, particularly ones associated with hepatic functions, have been found to align with the progress and severity of COVID-19. This work provides valuable knowledge about blood biomarkers associated with COVID-19 and potential therapeutic targets, and presents important resource for further studies of COVID-19 pathogenesis. ### Competing Interest Statement The authors have declared no competing interest. ### Funding Statement This work was supported by the Strategic Priority Research Program of CAS (XDB29010300 to X.Z.), the National Science and Technology Major Project (2020ZX09201-001 to D.-Y.Z, and 2018ZX10101004 to X.Z.), and National Natural Science Foundation of China (81873964 to Y.Q., and 31670161 to X.Z.). ### Author Declarations All relevant ethical guidelines have been followed; any necessary IRB and\/or ethics committee approvals have been obtained and details of the IRB\/oversight body are included in the manuscript. Yes All necessary patient\/participant consent has been obtained and the appropriate institutional forms have been archived. Yes I understand that all clinical trials and any other prospective interventional studies must be registered with an ICMJE-approved registry, such as <http:\/\/ClinicalTrials.gov|ClinicalTrials.gov>. I confirm that any such study reported in the manuscript has been registered and the trial registration ID is provided (note: if posting a prospective study registered retrospectively, please provide a statement in the trial ID field explaining why the study was not registered in advance). Yes I have followed all appropriate research reporting guidelines and uploaded the relevant EQUATOR Network research reporting checklist(s) and other pertinent material as supplementary files, if applicable. Yes All data are available from the authors upon request",
                "fallback": "medRxiv: Plasma Metabolomic and Lipidomic Alterations Associated with COVID-19",
                "ts": 1586242800,
                "from_url": "https:\/\/doi.org\/10.1101\/2020.04.05.20053819",
                "service_icon": "https:\/\/www.medrxiv.org\/sites\/default\/files\/images\/favicon.ico",
                "id": 1,
                "original_url": "https:\/\/doi.org\/10.1101\/2020.04.05.20053819"
            }
        ],
        "blocks": [
            {
                "type": "rich_text",
                "block_id": "DQ6",
                "elements": [
                    {
                        "type": "rich_text_section",
                        "elements": [
                            {
                                "type": "link",
                                "url": "https:\/\/doi.org\/10.1101\/2020.04.05.20053819",
                                "text": "https:\/\/doi.org\/10.1101\/2020.04.05.20053819"
                            }
                        ]
                    }
                ]
            }
        ],
        "thread_ts": "1586344928.000500",
        "parent_user_id": "U010BA2NL9E"
    }
]