[
    {
        "client_msg_id": "145def07-5538-4e69-83fa-0f42b5933264",
        "type": "message",
        "text": "<https:\/\/www.straitstimes.com\/world\/europe\/coronavirus-recovery-may-not-confer-immunity-warn-experts|https:\/\/www.straitstimes.com\/world\/europe\/coronavirus-recovery-may-not-confer-immunity-warn-experts>",
        "user": "U010BA2NL9E",
        "ts": "1587194245.000100",
        "team": "TUU48M0T1",
        "user_team": "TUU48M0T1",
        "source_team": "TUU48M0T1",
        "user_profile": {
            "avatar_hash": "g3fa100f8f14",
            "image_72": "https:\/\/secure.gravatar.com\/avatar\/3fa100f8f14fc86a0f2f58648b36d29e.jpg?s=72&d=https%3A%2F%2Fa.slack-edge.com%2Fdf10d%2Fimg%2Favatars%2Fava_0008-72.png",
            "first_name": "",
            "real_name": "Eduardo Garcia",
            "display_name": "Eduardo Garcia",
            "team": "TUU48M0T1",
            "name": "eduardo.garcia",
            "is_restricted": false,
            "is_ultra_restricted": false
        },
        "attachments": [
            {
                "service_name": "The Straits Times",
                "title": "Coronavirus: Recovery may not confer immunity, warn experts",
                "title_link": "https:\/\/www.straitstimes.com\/world\/europe\/coronavirus-recovery-may-not-confer-immunity-warn-experts",
                "text": "Several cases from South Korea found that patients who recovered from Covid-19 later tested positive for the virus.. Read more at <http:\/\/straitstimes.com|straitstimes.com>.",
                "fallback": "The Straits Times: Coronavirus: Recovery may not confer immunity, warn experts",
                "image_url": "https:\/\/www.straitstimes.com\/sites\/default\/files\/styles\/x_large\/public\/articles\/2020\/04\/17\/topshots-topshot-thailand-health-virus-143226.jpg?itok=Fz_ocuxv",
                "image_width": 375,
                "image_height": 250,
                "ts": 1587138530,
                "from_url": "https:\/\/www.straitstimes.com\/world\/europe\/coronavirus-recovery-may-not-confer-immunity-warn-experts",
                "image_bytes": 65065,
                "service_icon": "https:\/\/www.straitstimes.com\/sites\/all\/themes\/custom\/bootdemo\/images\/icons\/apple-touch-icon.png",
                "id": 1,
                "original_url": "https:\/\/www.straitstimes.com\/world\/europe\/coronavirus-recovery-may-not-confer-immunity-warn-experts"
            }
        ],
        "blocks": [
            {
                "type": "rich_text",
                "block_id": "ehaK",
                "elements": [
                    {
                        "type": "rich_text_section",
                        "elements": [
                            {
                                "type": "link",
                                "url": "https:\/\/www.straitstimes.com\/world\/europe\/coronavirus-recovery-may-not-confer-immunity-warn-experts",
                                "text": "https:\/\/www.straitstimes.com\/world\/europe\/coronavirus-recovery-may-not-confer-immunity-warn-experts"
                            }
                        ]
                    }
                ]
            }
        ],
        "thread_ts": "1586344928.000500",
        "parent_user_id": "U010BA2NL9E"
    },
    {
        "client_msg_id": "2e2347ff-96de-4f7a-a1b1-c8d33482939d",
        "type": "message",
        "text": "<https:\/\/nypost.com\/2020\/04\/17\/my-lungs-are-on-fire-coronavirus-survivors-say-they-fear-long-term-effects\/|https:\/\/nypost.com\/2020\/04\/17\/my-lungs-are-on-fire-coronavirus-survivors-say-they-fear-long-term-effects\/>",
        "user": "U010BA2NL9E",
        "ts": "1587208440.000100",
        "team": "TUU48M0T1",
        "user_team": "TUU48M0T1",
        "source_team": "TUU48M0T1",
        "user_profile": {
            "avatar_hash": "g3fa100f8f14",
            "image_72": "https:\/\/secure.gravatar.com\/avatar\/3fa100f8f14fc86a0f2f58648b36d29e.jpg?s=72&d=https%3A%2F%2Fa.slack-edge.com%2Fdf10d%2Fimg%2Favatars%2Fava_0008-72.png",
            "first_name": "",
            "real_name": "Eduardo Garcia",
            "display_name": "Eduardo Garcia",
            "team": "TUU48M0T1",
            "name": "eduardo.garcia",
            "is_restricted": false,
            "is_ultra_restricted": false
        },
        "attachments": [
            {
                "service_name": "New York Post",
                "title": "Coronavirus survivors say they fear long-term effects",
                "title_link": "https:\/\/nypost.com\/2020\/04\/17\/my-lungs-are-on-fire-coronavirus-survivors-say-they-fear-long-term-effects\/",
                "text": "They survived a pandemic — but they are still fighting.",
                "fallback": "New York Post: Coronavirus survivors say they fear long-term effects",
                "image_url": "https:\/\/thenypost.files.wordpress.com\/2020\/04\/coronavirus-recovery-stories.jpg?quality=90&strip=all&w=664&h=441&crop=1",
                "image_width": 376,
                "image_height": 250,
                "ts": 1587124528,
                "from_url": "https:\/\/nypost.com\/2020\/04\/17\/my-lungs-are-on-fire-coronavirus-survivors-say-they-fear-long-term-effects\/",
                "image_bytes": 98110,
                "service_icon": "https:\/\/s2.wp.com\/wp-content\/themes\/vip\/nypost-2016\/static\/images\/apple-icons\/nypost\/apple-icon.png",
                "id": 1,
                "original_url": "https:\/\/nypost.com\/2020\/04\/17\/my-lungs-are-on-fire-coronavirus-survivors-say-they-fear-long-term-effects\/"
            }
        ],
        "blocks": [
            {
                "type": "rich_text",
                "block_id": "h9c",
                "elements": [
                    {
                        "type": "rich_text_section",
                        "elements": [
                            {
                                "type": "link",
                                "url": "https:\/\/nypost.com\/2020\/04\/17\/my-lungs-are-on-fire-coronavirus-survivors-say-they-fear-long-term-effects\/",
                                "text": "https:\/\/nypost.com\/2020\/04\/17\/my-lungs-are-on-fire-coronavirus-survivors-say-they-fear-long-term-effects\/"
                            }
                        ]
                    }
                ]
            }
        ],
        "thread_ts": "1586344928.000500",
        "parent_user_id": "U010BA2NL9E"
    },
    {
        "client_msg_id": "5de41438-656f-4bd1-b86f-96c4d71178c0",
        "type": "message",
        "text": "March 19, 2020\n\nCharacteristics and Outcomes of 21 Critically Ill Patients With COVID-19 in Washington State\n\n\nMechanical ventilation was initiated in 15 patients (71%) (Table 2). Acute respiratory distress syndrome (ARDS) was observed in 15 of 15 patients (100%) requiring mechanical ventilation and 8 of 15 (53%) developed severe ARDS by 72 hours. Although most patients did not present with evidence of shock, vasopressors were used for 14 patients (67%) during the illness. Cardiomyopathy developed in 7 patients (33%). As of March 17, 2020, mortality was 67% and 24% of patients have remained critically ill and 9.5% have been discharged from the ICU.\n\n<https:\/\/jamanetwork.com\/journals\/jama\/fullarticle\/2763485|https:\/\/jamanetwork.com\/journals\/jama\/fullarticle\/2763485>",
        "user": "U010BA2NL9E",
        "ts": "1587208709.000400",
        "team": "TUU48M0T1",
        "user_team": "TUU48M0T1",
        "source_team": "TUU48M0T1",
        "user_profile": {
            "avatar_hash": "g3fa100f8f14",
            "image_72": "https:\/\/secure.gravatar.com\/avatar\/3fa100f8f14fc86a0f2f58648b36d29e.jpg?s=72&d=https%3A%2F%2Fa.slack-edge.com%2Fdf10d%2Fimg%2Favatars%2Fava_0008-72.png",
            "first_name": "",
            "real_name": "Eduardo Garcia",
            "display_name": "Eduardo Garcia",
            "team": "TUU48M0T1",
            "name": "eduardo.garcia",
            "is_restricted": false,
            "is_ultra_restricted": false
        },
        "edited": {
            "user": "U010BA2NL9E",
            "ts": "1587208776.000000"
        },
        "blocks": [
            {
                "type": "rich_text",
                "block_id": "xKyO",
                "elements": [
                    {
                        "type": "rich_text_section",
                        "elements": [
                            {
                                "type": "text",
                                "text": "March 19, 2020\n\nCharacteristics and Outcomes of 21 Critically Ill Patients With COVID-19 in Washington State\n\n\nMechanical ventilation was initiated in 15 patients (71%) (Table 2). Acute respiratory distress syndrome (ARDS) was observed in 15 of 15 patients (100%) requiring mechanical ventilation and 8 of 15 (53%) developed severe ARDS by 72 hours. Although most patients did not present with evidence of shock, vasopressors were used for 14 patients (67%) during the illness. Cardiomyopathy developed in 7 patients (33%). As of March 17, 2020, mortality was 67% and 24% of patients have remained critically ill and 9.5% have been discharged from the ICU.\n\n"
                            },
                            {
                                "type": "link",
                                "url": "https:\/\/jamanetwork.com\/journals\/jama\/fullarticle\/2763485",
                                "text": "https:\/\/jamanetwork.com\/journals\/jama\/fullarticle\/2763485"
                            }
                        ]
                    }
                ]
            }
        ],
        "thread_ts": "1586344928.000500",
        "parent_user_id": "U010BA2NL9E"
    }
]