[
    {
        "type": "message",
        "subtype": "channel_join",
        "ts": "1583741282.028500",
        "user": "UURGMNE3T",
        "text": "<@UURGMNE3T> has joined the channel"
    },
    {
        "type": "message",
        "subtype": "channel_join",
        "ts": "1583743018.028700",
        "user": "UV3HA9MM4",
        "text": "<@UV3HA9MM4> has joined the channel"
    },
    {
        "type": "message",
        "subtype": "channel_join",
        "ts": "1583769773.029000",
        "user": "UV120B2P7",
        "text": "<@UV120B2P7> has joined the channel"
    },
    {
        "type": "message",
        "text": "<!channel> <@UUUEFQW8N> &amp; were working on this yesterday, but want to hear some feedback so we can quickly organize everything and get more things moving. would love to hear your thoughts\/questions! (feel free to leave comments on the actual doc it's linked in a message above)\n\n*EDIT*: also, i've created a _mock-up_ of our \"main doc\" (<https:\/\/docs.google.com\/document\/d\/1DFAKMvaN5rg2_UFzRMDyOI3j2CZJj4U88wGYDhDPwjQ\/edit#heading=h.btpav11l3r5>) feel free\/please leave some comments and\/or move things around! this will be replacing what is currently the \"Lab Notebook - OpenCovid19 Initiative\" document and will be a crucial resource for new members\/members looking for ways to contribute",
        "files": [
            {
                "id": "FUTMLE29F",
                "created": 1583780481,
                "timestamp": 1583780481,
                "name": "image.png",
                "title": "image.png",
                "mimetype": "image\/png",
                "filetype": "png",
                "pretty_type": "PNG",
                "user": "UV0QTJCMT",
                "editable": false,
                "size": 110664,
                "mode": "hosted",
                "is_external": false,
                "external_type": "",
                "is_public": true,
                "public_url_shared": false,
                "display_as_bot": false,
                "username": "",
                "url_private": "https:\/\/files.slack.com\/files-pri\/TUU48M0T1-FUTMLE29F\/image.png?t=xoxe-980144714919-1133254701825-1120841107731-daf595b5a7d6c9028b0b02a925032e36",
                "url_private_download": "https:\/\/files.slack.com\/files-pri\/TUU48M0T1-FUTMLE29F\/download\/image.png?t=xoxe-980144714919-1133254701825-1120841107731-daf595b5a7d6c9028b0b02a925032e36",
                "thumb_64": "https:\/\/files.slack.com\/files-tmb\/TUU48M0T1-FUTMLE29F-57720a8495\/image_64.png?t=xoxe-980144714919-1133254701825-1120841107731-daf595b5a7d6c9028b0b02a925032e36",
                "thumb_80": "https:\/\/files.slack.com\/files-tmb\/TUU48M0T1-FUTMLE29F-57720a8495\/image_80.png?t=xoxe-980144714919-1133254701825-1120841107731-daf595b5a7d6c9028b0b02a925032e36",
                "thumb_360": "https:\/\/files.slack.com\/files-tmb\/TUU48M0T1-FUTMLE29F-57720a8495\/image_360.png?t=xoxe-980144714919-1133254701825-1120841107731-daf595b5a7d6c9028b0b02a925032e36",
                "thumb_360_w": 282,
                "thumb_360_h": 360,
                "thumb_480": "https:\/\/files.slack.com\/files-tmb\/TUU48M0T1-FUTMLE29F-57720a8495\/image_480.png?t=xoxe-980144714919-1133254701825-1120841107731-daf595b5a7d6c9028b0b02a925032e36",
                "thumb_480_w": 377,
                "thumb_480_h": 480,
                "thumb_160": "https:\/\/files.slack.com\/files-tmb\/TUU48M0T1-FUTMLE29F-57720a8495\/image_160.png?t=xoxe-980144714919-1133254701825-1120841107731-daf595b5a7d6c9028b0b02a925032e36",
                "thumb_720": "https:\/\/files.slack.com\/files-tmb\/TUU48M0T1-FUTMLE29F-57720a8495\/image_720.png?t=xoxe-980144714919-1133254701825-1120841107731-daf595b5a7d6c9028b0b02a925032e36",
                "thumb_720_w": 565,
                "thumb_720_h": 720,
                "image_exif_rotation": 1,
                "original_w": 612,
                "original_h": 780,
                "thumb_tiny": "AwAwACW9K2z1\/D\/9dNEvH3yPYoeKfKVAx\/F2qKMybjySPQ5H9KXULXJEJOD5gI\/3cVJkeopuT6GjJ9DTAfRSDp3\/ABpaAI5mXaVPJPao0ReoABH1qSUAqRux7VXGB\/e\/75\/+vSbsDaW5Y\/4FS4piyg9WI+q1Jz\/eoTuJNMcKKB065opjIJztYN6elAmwMEMffinTYPBVifamCMEA8j6gUCbHo+7sR9cU\/rTVAUYBP5UuT6n8qBjxwKKQdOaWgD\/\/2Q==",
                "permalink": "https:\/\/open-covid19.slack.com\/files\/UV0QTJCMT\/FUTMLE29F\/image.png",
                "permalink_public": "https:\/\/slack-files.com\/TUU48M0T1-FUTMLE29F-f55be93941",
                "is_starred": false,
                "has_rich_preview": false
            }
        ],
        "upload": true,
        "blocks": [
            {
                "type": "rich_text",
                "block_id": "JxPfF",
                "elements": [
                    {
                        "type": "rich_text_section",
                        "elements": [
                            {
                                "type": "broadcast",
                                "range": "channel"
                            },
                            {
                                "type": "text",
                                "text": " "
                            },
                            {
                                "type": "user",
                                "user_id": "UUUEFQW8N"
                            },
                            {
                                "type": "text",
                                "text": " & were working on this yesterday, but want to hear some feedback so we can quickly organize everything and get more things moving. would love to hear your thoughts\/questions! (feel free to leave comments on the actual doc it's linked in a message above)\n\n"
                            },
                            {
                                "type": "text",
                                "text": "EDIT",
                                "style": {
                                    "bold": true
                                }
                            },
                            {
                                "type": "text",
                                "text": ": also, i've created a "
                            },
                            {
                                "type": "text",
                                "text": "mock-up",
                                "style": {
                                    "italic": true
                                }
                            },
                            {
                                "type": "text",
                                "text": " of our \"main doc\" ("
                            },
                            {
                                "type": "link",
                                "url": "https:\/\/docs.google.com\/document\/d\/1DFAKMvaN5rg2_UFzRMDyOI3j2CZJj4U88wGYDhDPwjQ\/edit#heading=h.btpav11l3r5"
                            },
                            {
                                "type": "text",
                                "text": ") feel free\/please leave some comments and\/or move things around! this will be replacing what is currently the \"Lab Notebook - OpenCovid19 Initiative\" document and will be a crucial resource for new members\/members looking for ways to contribute"
                            }
                        ]
                    }
                ]
            }
        ],
        "user": "UV0QTJCMT",
        "display_as_bot": false,
        "ts": "1583780487.029100",
        "edited": {
            "user": "UV0QTJCMT",
            "ts": "1583799510.000000"
        },
        "client_msg_id": "b46784fc-4695-4fd9-a11d-3b4634a05f7c",
        "thread_ts": "1583780487.029100",
        "reply_count": 7,
        "reply_users_count": 4,
        "latest_reply": "1583876077.003400",
        "reply_users": [
            "UV20M5HGQ",
            "UUUEFQW8N",
            "UV0QTJCMT",
            "UV3746ST1"
        ],
        "replies": [
            {
                "user": "UV20M5HGQ",
                "ts": "1583865636.002000"
            },
            {
                "user": "UUUEFQW8N",
                "ts": "1583865776.002200"
            },
            {
                "user": "UV0QTJCMT",
                "ts": "1583865867.002500"
            },
            {
                "user": "UUUEFQW8N",
                "ts": "1583865949.002800"
            },
            {
                "user": "UUUEFQW8N",
                "ts": "1583865959.003000"
            },
            {
                "user": "UV20M5HGQ",
                "ts": "1583865960.003200"
            },
            {
                "user": "UV3746ST1",
                "ts": "1583876077.003400"
            }
        ],
        "subscribed": true,
        "last_read": "1583880301.000124"
    }
]