[
    {
        "client_msg_id": "019df404-830f-4603-b249-bdfcb5c19e72",
        "type": "message",
        "text": "This looks good!",
        "user": "UUP8XJTH8",
        "ts": "1583830344.000300",
        "team": "TUU48M0T1",
        "user_team": "TUU48M0T1",
        "source_team": "TUU48M0T1",
        "user_profile": {
            "avatar_hash": "551563ed5769",
            "image_72": "https:\/\/avatars.slack-edge.com\/2020-03-09\/990308488310_551563ed5769d8569a8f_72.jpg",
            "first_name": "",
            "real_name": "Muhammad Ismail",
            "display_name": "Muhammad Ismail",
            "team": "TUU48M0T1",
            "name": "ismail",
            "is_restricted": false,
            "is_ultra_restricted": false
        },
        "blocks": [
            {
                "type": "rich_text",
                "block_id": "T\/Um",
                "elements": [
                    {
                        "type": "rich_text_section",
                        "elements": [
                            {
                                "type": "text",
                                "text": "This looks good!"
                            }
                        ]
                    }
                ]
            }
        ]
    },
    {
        "client_msg_id": "15d83edf-9a2d-49a2-87aa-c846ce0741fd",
        "type": "message",
        "text": "Can we also (if we don't already) have a spreadsheet with everyone's details on it, alongside each aspect of the project they're working on",
        "user": "UUP8XJTH8",
        "ts": "1583830389.001300",
        "team": "TUU48M0T1",
        "user_team": "TUU48M0T1",
        "source_team": "TUU48M0T1",
        "user_profile": {
            "avatar_hash": "551563ed5769",
            "image_72": "https:\/\/avatars.slack-edge.com\/2020-03-09\/990308488310_551563ed5769d8569a8f_72.jpg",
            "first_name": "",
            "real_name": "Muhammad Ismail",
            "display_name": "Muhammad Ismail",
            "team": "TUU48M0T1",
            "name": "ismail",
            "is_restricted": false,
            "is_ultra_restricted": false
        },
        "blocks": [
            {
                "type": "rich_text",
                "block_id": "\/KXph",
                "elements": [
                    {
                        "type": "rich_text_section",
                        "elements": [
                            {
                                "type": "text",
                                "text": "Can we also (if we don't already) have a spreadsheet with everyone's details on it, alongside each aspect of the project they're working on"
                            }
                        ]
                    }
                ]
            }
        ],
        "thread_ts": "1583830389.001300",
        "reply_count": 4,
        "reply_users_count": 3,
        "latest_reply": "1584131970.018400",
        "reply_users": [
            "UUUEFQW8N",
            "UV0QTJCMT",
            "UUP8XJTH8"
        ],
        "replies": [
            {
                "user": "UUUEFQW8N",
                "ts": "1583853138.000100"
            },
            {
                "user": "UV0QTJCMT",
                "ts": "1583858684.001800"
            },
            {
                "user": "UUP8XJTH8",
                "ts": "1584131961.018200"
            },
            {
                "user": "UUP8XJTH8",
                "ts": "1584131970.018400"
            }
        ],
        "subscribed": true,
        "last_read": "1584133618.000374"
    },
    {
        "client_msg_id": "86528199-afd8-4203-894c-0c78d6d01419",
        "type": "message",
        "text": "I think we do have that as the output from the project member survey. I forget where the link is to that file right now though, but it's in the Google drive folder",
        "user": "UUUEFQW8N",
        "ts": "1583853138.000100",
        "team": "TUU48M0T1",
        "user_team": "TUU48M0T1",
        "source_team": "TUU48M0T1",
        "user_profile": {
            "avatar_hash": "5660f4d7fe91",
            "image_72": "https:\/\/avatars.slack-edge.com\/2020-03-06\/974037299378_5660f4d7fe9118b28c09_72.jpg",
            "first_name": "zachmueller",
            "real_name": "zachmueller",
            "display_name": "zachmueller",
            "team": "TUU48M0T1",
            "name": "zach",
            "is_restricted": false,
            "is_ultra_restricted": false
        },
        "blocks": [
            {
                "type": "rich_text",
                "block_id": "aur",
                "elements": [
                    {
                        "type": "rich_text_section",
                        "elements": [
                            {
                                "type": "text",
                                "text": "I think we do have that as the output from the project member survey. I forget where the link is to that file right now though, but it's in the Google drive folder"
                            }
                        ]
                    }
                ]
            }
        ],
        "thread_ts": "1583830389.001300",
        "parent_user_id": "UUP8XJTH8"
    },
    {
        "client_msg_id": "D98B97EC-F8B1-4BE7-AD7D-850DA35A4554",
        "type": "message",
        "text": "So yea in the Operations folder there’s the survey responses that say what people are interested in doing but <@UUP8XJTH8> are you proposing having a sort of “live” spreadsheet that says what people are actively working on? ",
        "user": "UV0QTJCMT",
        "ts": "1583858684.001800",
        "team": "TUU48M0T1",
        "user_team": "TUU48M0T1",
        "source_team": "TUU48M0T1",
        "user_profile": {
            "avatar_hash": "06a6ae8f69d1",
            "image_72": "https:\/\/avatars.slack-edge.com\/2020-04-13\/1060635499315_06a6ae8f69d18f1ad464_72.png",
            "first_name": "Katherine",
            "real_name": "Katherine Holo",
            "display_name": "Kat Holo - Co-Organizer of OpenCOVID19",
            "team": "TUU48M0T1",
            "name": "katherineh245",
            "is_restricted": false,
            "is_ultra_restricted": false
        },
        "blocks": [
            {
                "type": "rich_text",
                "block_id": "TAA+",
                "elements": [
                    {
                        "type": "rich_text_section",
                        "elements": [
                            {
                                "type": "text",
                                "text": "So yea in the Operations folder there’s the survey responses that say what people are interested in doing but "
                            },
                            {
                                "type": "user",
                                "user_id": "UUP8XJTH8"
                            },
                            {
                                "type": "text",
                                "text": " are you proposing having a sort of “live” spreadsheet that says what people are actively working on? "
                            }
                        ]
                    }
                ]
            }
        ],
        "thread_ts": "1583830389.001300",
        "parent_user_id": "UUP8XJTH8"
    },
    {
        "client_msg_id": "60c61d57-cb77-4381-8cd4-453b65b379b5",
        "type": "message",
        "text": "great job! Very easy to navigate and clear. Looking for to seeing the sections develop. Quick question, how do we go about adding files to to the shared folder? I wanted to add into the Literature folder, the paper <@UV3746ST1> shared on Nested Mango NASBA, but I don't think I have permission to do so.",
        "user": "UV20M5HGQ",
        "ts": "1583865636.002000",
        "team": "TUU48M0T1",
        "user_team": "TUU48M0T1",
        "source_team": "TUU48M0T1",
        "user_profile": {
            "avatar_hash": "de7ea7b7e14e",
            "image_72": "https:\/\/avatars.slack-edge.com\/2020-03-11\/981865374050_de7ea7b7e14e7b4316b9_72.jpg",
            "first_name": "",
            "real_name": "Vesta Korniakova",
            "display_name": "Vesta Korniakova",
            "team": "TUU48M0T1",
            "name": "riboswitchvesta",
            "is_restricted": false,
            "is_ultra_restricted": false
        },
        "blocks": [
            {
                "type": "rich_text",
                "block_id": "ACZ",
                "elements": [
                    {
                        "type": "rich_text_section",
                        "elements": [
                            {
                                "type": "text",
                                "text": "great job! Very easy to navigate and clear. Looking for to seeing the sections develop. Quick question, how do we go about adding files to to the shared folder? I wanted to add into the Literature folder, the paper "
                            },
                            {
                                "type": "user",
                                "user_id": "UV3746ST1"
                            },
                            {
                                "type": "text",
                                "text": " shared on Nested Mango NASBA, but I don't think I have permission to do so."
                            }
                        ]
                    }
                ]
            }
        ],
        "thread_ts": "1583780487.029100",
        "parent_user_id": "UV0QTJCMT"
    },
    {
        "client_msg_id": "79ab61fe-ffa6-492f-bb42-7a53be4c7fd1",
        "type": "message",
        "text": "<@UV20M5HGQ> be sure to request to join the permissions list, there should be a link on the JOGL project about section. I can then approve the request then you'll have access",
        "user": "UUUEFQW8N",
        "ts": "1583865776.002200",
        "team": "TUU48M0T1",
        "user_team": "TUU48M0T1",
        "source_team": "TUU48M0T1",
        "user_profile": {
            "avatar_hash": "5660f4d7fe91",
            "image_72": "https:\/\/avatars.slack-edge.com\/2020-03-06\/974037299378_5660f4d7fe9118b28c09_72.jpg",
            "first_name": "zachmueller",
            "real_name": "zachmueller",
            "display_name": "zachmueller",
            "team": "TUU48M0T1",
            "name": "zach",
            "is_restricted": false,
            "is_ultra_restricted": false
        },
        "blocks": [
            {
                "type": "rich_text",
                "block_id": "cX3Gm",
                "elements": [
                    {
                        "type": "rich_text_section",
                        "elements": [
                            {
                                "type": "user",
                                "user_id": "UV20M5HGQ"
                            },
                            {
                                "type": "text",
                                "text": " be sure to request to join the permissions list, there should be a link on the JOGL project about section. I can then approve the request then you'll have access"
                            }
                        ]
                    }
                ]
            }
        ],
        "thread_ts": "1583780487.029100",
        "parent_user_id": "UV0QTJCMT",
        "reactions": [
            {
                "name": "+1",
                "users": [
                    "UV0QTJCMT",
                    "UV20M5HGQ"
                ],
                "count": 2
            }
        ]
    },
    {
        "client_msg_id": "e9928067-f246-474e-9d7f-65482997b85f",
        "type": "message",
        "text": "here's the link (<https:\/\/groups.google.com\/a\/community.bio\/forum\/#!forum\/covid19-jogl\/join>)",
        "user": "UV0QTJCMT",
        "ts": "1583865867.002500",
        "team": "TUU48M0T1",
        "user_team": "TUU48M0T1",
        "source_team": "TUU48M0T1",
        "user_profile": {
            "avatar_hash": "06a6ae8f69d1",
            "image_72": "https:\/\/avatars.slack-edge.com\/2020-04-13\/1060635499315_06a6ae8f69d18f1ad464_72.png",
            "first_name": "Katherine",
            "real_name": "Katherine Holo",
            "display_name": "Kat Holo - Co-Organizer of OpenCOVID19",
            "team": "TUU48M0T1",
            "name": "katherineh245",
            "is_restricted": false,
            "is_ultra_restricted": false
        },
        "blocks": [
            {
                "type": "rich_text",
                "block_id": "mPS",
                "elements": [
                    {
                        "type": "rich_text_section",
                        "elements": [
                            {
                                "type": "text",
                                "text": "here's the link ("
                            },
                            {
                                "type": "link",
                                "url": "https:\/\/groups.google.com\/a\/community.bio\/forum\/#!forum\/covid19-jogl\/join"
                            },
                            {
                                "type": "text",
                                "text": ")"
                            }
                        ]
                    }
                ]
            }
        ],
        "thread_ts": "1583780487.029100",
        "parent_user_id": "UV0QTJCMT"
    },
    {
        "client_msg_id": "ad787e79-746b-46cb-b979-e6476b7d1e8e",
        "type": "message",
        "text": "Saw the request and hit approve, you should be good to go now <@UV20M5HGQ>!",
        "user": "UUUEFQW8N",
        "ts": "1583865949.002800",
        "team": "TUU48M0T1",
        "user_team": "TUU48M0T1",
        "source_team": "TUU48M0T1",
        "user_profile": {
            "avatar_hash": "5660f4d7fe91",
            "image_72": "https:\/\/avatars.slack-edge.com\/2020-03-06\/974037299378_5660f4d7fe9118b28c09_72.jpg",
            "first_name": "zachmueller",
            "real_name": "zachmueller",
            "display_name": "zachmueller",
            "team": "TUU48M0T1",
            "name": "zach",
            "is_restricted": false,
            "is_ultra_restricted": false
        },
        "blocks": [
            {
                "type": "rich_text",
                "block_id": "6wk5",
                "elements": [
                    {
                        "type": "rich_text_section",
                        "elements": [
                            {
                                "type": "text",
                                "text": "Saw the request and hit approve, you should be good to go now "
                            },
                            {
                                "type": "user",
                                "user_id": "UV20M5HGQ"
                            },
                            {
                                "type": "text",
                                "text": "!"
                            }
                        ]
                    }
                ]
            }
        ],
        "thread_ts": "1583780487.029100",
        "parent_user_id": "UV0QTJCMT"
    },
    {
        "client_msg_id": "312868e7-8209-49e1-9cbb-482e103484b1",
        "type": "message",
        "text": "Let me know if you still run into problems",
        "user": "UUUEFQW8N",
        "ts": "1583865959.003000",
        "team": "TUU48M0T1",
        "user_team": "TUU48M0T1",
        "source_team": "TUU48M0T1",
        "user_profile": {
            "avatar_hash": "5660f4d7fe91",
            "image_72": "https:\/\/avatars.slack-edge.com\/2020-03-06\/974037299378_5660f4d7fe9118b28c09_72.jpg",
            "first_name": "zachmueller",
            "real_name": "zachmueller",
            "display_name": "zachmueller",
            "team": "TUU48M0T1",
            "name": "zach",
            "is_restricted": false,
            "is_ultra_restricted": false
        },
        "blocks": [
            {
                "type": "rich_text",
                "block_id": "GnB6s",
                "elements": [
                    {
                        "type": "rich_text_section",
                        "elements": [
                            {
                                "type": "text",
                                "text": "Let me know if you still run into problems"
                            }
                        ]
                    }
                ]
            }
        ],
        "thread_ts": "1583780487.029100",
        "parent_user_id": "UV0QTJCMT"
    },
    {
        "client_msg_id": "38d25cd3-60ad-454d-aabd-6c65c7a66545",
        "type": "message",
        "text": "Thank you!",
        "user": "UV20M5HGQ",
        "ts": "1583865960.003200",
        "team": "TUU48M0T1",
        "user_team": "TUU48M0T1",
        "source_team": "TUU48M0T1",
        "user_profile": {
            "avatar_hash": "de7ea7b7e14e",
            "image_72": "https:\/\/avatars.slack-edge.com\/2020-03-11\/981865374050_de7ea7b7e14e7b4316b9_72.jpg",
            "first_name": "",
            "real_name": "Vesta Korniakova",
            "display_name": "Vesta Korniakova",
            "team": "TUU48M0T1",
            "name": "riboswitchvesta",
            "is_restricted": false,
            "is_ultra_restricted": false
        },
        "blocks": [
            {
                "type": "rich_text",
                "block_id": "a0i3",
                "elements": [
                    {
                        "type": "rich_text_section",
                        "elements": [
                            {
                                "type": "text",
                                "text": "Thank you!"
                            }
                        ]
                    }
                ]
            }
        ],
        "thread_ts": "1583780487.029100",
        "parent_user_id": "UV0QTJCMT"
    },
    {
        "client_msg_id": "4124dfb2-f0c9-488b-88eb-f7f5087b98bb",
        "type": "message",
        "text": "Thanks <@UV0QTJCMT>, Indeed very clear organization for the project",
        "user": "UV3746ST1",
        "ts": "1583876077.003400",
        "team": "TUU48M0T1",
        "user_team": "TUU48M0T1",
        "source_team": "TUU48M0T1",
        "user_profile": {
            "avatar_hash": "a83ec6cd1d1a",
            "image_72": "https:\/\/avatars.slack-edge.com\/2020-03-07\/987381527184_a83ec6cd1d1ab6a03a2c_72.jpg",
            "first_name": "Anibal",
            "real_name": "Anibal",
            "display_name": "Anibal",
            "team": "TUU48M0T1",
            "name": "elanibal",
            "is_restricted": false,
            "is_ultra_restricted": false
        },
        "blocks": [
            {
                "type": "rich_text",
                "block_id": "7vq1",
                "elements": [
                    {
                        "type": "rich_text_section",
                        "elements": [
                            {
                                "type": "text",
                                "text": "Thanks "
                            },
                            {
                                "type": "user",
                                "user_id": "UV0QTJCMT"
                            },
                            {
                                "type": "text",
                                "text": ", Indeed very clear organization for the project"
                            }
                        ]
                    }
                ]
            }
        ],
        "thread_ts": "1583780487.029100",
        "parent_user_id": "UV0QTJCMT",
        "reactions": [
            {
                "name": "+1",
                "users": [
                    "UV0QTJCMT",
                    "UUUEFQW8N"
                ],
                "count": 2
            }
        ]
    },
    {
        "type": "message",
        "subtype": "channel_join",
        "ts": "1583886581.003900",
        "user": "UV5CCJ9RC",
        "text": "<@UV5CCJ9RC> has joined the channel"
    }
]