[
    {
        "type": "message",
        "subtype": "bot_message",
        "text": "Hi, would it be of any interest at all, if I offered you a commercial-grade lab notebook for free? It comes with currently the best voice-interface for hands free lab notes \/ ideas on the go. And we are working with few others on here to power it up with machine learning to mash collaborative research, extract ideas and communicate insights back to scientists",
        "ts": "1584041608.010200",
        "bot_id": "BVCSDRY15",
        "blocks": [
            {
                "type": "section",
                "block_id": "poll-03667f76-a3ac-49a0-9ba6-1403bc984551-title-and-menu",
                "text": {
                    "type": "mrkdwn",
                    "text": "*Hi, would it be of any interest at all, if I offered you a commercial-grade lab notebook for free? It comes with currently the best voice-interface for hands free lab notes \/ ideas on the go. And we are working with few others on here to power it up with machine learning to mash collaborative research, extract ideas and communicate insights back to scientists*",
                    "verbatim": false
                },
                "accessory": {
                    "type": "overflow",
                    "action_id": "title-and-menu",
                    "options": [
                        {
                            "text": {
                                "type": "plain_text",
                                "text": ":information_source: View info",
                                "emoji": true
                            },
                            "value": "view_info"
                        },
                        {
                            "text": {
                                "type": "plain_text",
                                "text": ":pushpin: Capture Decision from Poll",
                                "emoji": true
                            },
                            "value": "capture_decision_from_poll"
                        },
                        {
                            "text": {
                                "type": "plain_text",
                                "text": ":x: Delete Poll",
                                "emoji": true
                            },
                            "value": "delete_poll"
                        },
                        {
                            "text": {
                                "type": "plain_text",
                                "text": ":gear: Go to Settings",
                                "emoji": true
                            },
                            "value": "go_to_settings_from_poll",
                            "url": "https:\/\/simplepoll.rocks\/dashboard\/jogl-covid-19\/settings\/"
                        }
                    ]
                }
            },
            {
                "type": "section",
                "block_id": "poll-03667f76-a3ac-49a0-9ba6-1403bc984551-vote-1",
                "text": {
                    "type": "mrkdwn",
                    "text": ":one: sure, bring it on    `2`\n<@UV2SC7ZE3>, <@UV8T52QJ3>",
                    "verbatim": false
                },
                "accessory": {
                    "type": "button",
                    "action_id": "vote-1",
                    "text": {
                        "type": "plain_text",
                        "text": ":one:",
                        "emoji": true
                    }
                }
            },
            {
                "type": "section",
                "block_id": "poll-03667f76-a3ac-49a0-9ba6-1403bc984551-vote-2",
                "text": {
                    "type": "mrkdwn",
                    "text": ":two: nope\n",
                    "verbatim": false
                },
                "accessory": {
                    "type": "button",
                    "action_id": "vote-2",
                    "text": {
                        "type": "plain_text",
                        "text": ":two:",
                        "emoji": true
                    }
                }
            },
            {
                "type": "context",
                "block_id": "Bfjv",
                "elements": [
                    {
                        "type": "mrkdwn",
                        "text": "Created by <@UV8HN81LM> with \/poll",
                        "verbatim": false
                    }
                ]
            }
        ],
        "edited": {
            "user": "BVCSDRY15",
            "ts": "1584172949.000000"
        }
    },
    {
        "client_msg_id": "b56cdc9b-021d-4b10-90b8-11808da5be5b",
        "type": "message",
        "text": "<@UV8HN81LM> is it open source?",
        "user": "UV02WET96",
        "ts": "1584042028.010700",
        "team": "TUU48M0T1",
        "user_team": "TUU48M0T1",
        "source_team": "TUU48M0T1",
        "user_profile": {
            "avatar_hash": "a99c74a194f8",
            "image_72": "https:\/\/avatars.slack-edge.com\/2020-03-07\/975708504851_a99c74a194f86715ca7d_72.png",
            "first_name": "Thomas",
            "real_name": "Thomas Landrain",
            "display_name": "Thomas Landrain - JOGL CoFounder \/ CEO",
            "team": "TUU48M0T1",
            "name": "thomas",
            "is_restricted": false,
            "is_ultra_restricted": false
        },
        "blocks": [
            {
                "type": "rich_text",
                "block_id": "GDPQC",
                "elements": [
                    {
                        "type": "rich_text_section",
                        "elements": [
                            {
                                "type": "user",
                                "user_id": "UV8HN81LM"
                            },
                            {
                                "type": "text",
                                "text": " is it open source?"
                            }
                        ]
                    }
                ]
            }
        ]
    },
    {
        "client_msg_id": "9C5FCB59-1E78-4628-92D9-8B20B26A832E",
        "type": "message",
        "text": "Not the Lab Notebook itself. The intention is to use the ELN to generate raw lab notes and send it to cloud - and whatever is build on top of that will be. Some ideas flying around are based on building an open source natural language programming engine that connects the dots in research of different people &amp; online sources, and feeds insights back to community as a newsletter.",
        "user": "UV8HN81LM",
        "ts": "1584042279.015000",
        "team": "TUU48M0T1",
        "user_team": "TUU48M0T1",
        "source_team": "TUU48M0T1",
        "user_profile": {
            "avatar_hash": "23edc16cb301",
            "image_72": "https:\/\/avatars.slack-edge.com\/2020-03-11\/994879482245_23edc16cb301ce1bd2e4_72.jpg",
            "first_name": "",
            "real_name": "Kamil D",
            "display_name": "",
            "team": "TUU48M0T1",
            "name": "kamil.dabrowski.asb",
            "is_restricted": false,
            "is_ultra_restricted": false
        },
        "blocks": [
            {
                "type": "rich_text",
                "block_id": "L=b",
                "elements": [
                    {
                        "type": "rich_text_section",
                        "elements": [
                            {
                                "type": "text",
                                "text": "Not the Lab Notebook itself. The intention is to use the ELN to generate raw lab notes and send it to cloud - and whatever is build on top of that will be. Some ideas flying around are based on building an open source natural language programming engine that connects the dots in research of different people & online sources, and feeds insights back to community as a newsletter."
                            }
                        ]
                    }
                ]
            }
        ]
    }
]