[
    {
        "type": "message",
        "subtype": "tombstone",
        "text": "This message was deleted.",
        "user": "USLACKBOT",
        "hidden": true,
        "ts": "1587039476.254100",
        "thread_ts": "1587039476.254100",
        "reply_count": 2,
        "reply_users_count": 1,
        "latest_reply": "1587044801.263100",
        "reply_users": [
            "B011E5YPDU6"
        ],
        "replies": [
            {
                "user": "B011E5YPDU6",
                "ts": "1587039477.254200"
            },
            {
                "user": "B011E5YPDU6",
                "ts": "1587044801.263100"
            }
        ],
        "subscribed": false
    },
    {
        "type": "message",
        "subtype": "bot_message",
        "text": "*Created* this task",
        "ts": "1587039477.254200",
        "username": "Camille Masselot - JOGL Program coordinator via Wo",
        "icons": {
            "image_48": "https:\/\/s3-us-west-2.amazonaws.com\/slack-files2\/bot_icons\/2020-04-16\/1066629867682_48.png"
        },
        "bot_id": "B011E5YPDU6",
        "thread_ts": "1587039476.254100"
    },
    {
        "type": "message",
        "subtype": "tombstone",
        "text": "This message was deleted.",
        "user": "USLACKBOT",
        "hidden": true,
        "ts": "1587039520.254500",
        "thread_ts": "1587039520.254500",
        "reply_count": 3,
        "reply_users_count": 1,
        "latest_reply": "1587039633.256000",
        "reply_users": [
            "B011E5YPDU6"
        ],
        "replies": [
            {
                "user": "B011E5YPDU6",
                "ts": "1587039520.254600"
            },
            {
                "user": "B011E5YPDU6",
                "ts": "1587039631.255700"
            },
            {
                "user": "B011E5YPDU6",
                "ts": "1587039633.256000"
            }
        ],
        "subscribed": false
    },
    {
        "type": "message",
        "subtype": "bot_message",
        "text": "*Created* this task",
        "ts": "1587039520.254600",
        "username": "Camille Masselot - JOGL Program coordinator via Wo",
        "icons": {
            "image_48": "https:\/\/s3-us-west-2.amazonaws.com\/slack-files2\/bot_icons\/2020-04-16\/1066629867682_48.png"
        },
        "bot_id": "B011E5YPDU6",
        "thread_ts": "1587039520.254500"
    },
    {
        "type": "message",
        "subtype": "tombstone",
        "text": "This message was deleted.",
        "user": "USLACKBOT",
        "hidden": true,
        "ts": "1587039584.254900",
        "thread_ts": "1587039584.254900",
        "reply_count": 1,
        "reply_users_count": 1,
        "latest_reply": "1587039584.255000",
        "reply_users": [
            "B011E5YPDU6"
        ],
        "replies": [
            {
                "user": "B011E5YPDU6",
                "ts": "1587039584.255000"
            }
        ],
        "subscribed": false
    },
    {
        "type": "message",
        "subtype": "bot_message",
        "text": "*Created* this task",
        "ts": "1587039584.255000",
        "username": "Camille Masselot - JOGL Program coordinator via Wo",
        "icons": {
            "image_48": "https:\/\/s3-us-west-2.amazonaws.com\/slack-files2\/bot_icons\/2020-04-16\/1066629867682_48.png"
        },
        "bot_id": "B011E5YPDU6",
        "thread_ts": "1587039584.254900"
    },
    {
        "type": "message",
        "subtype": "tombstone",
        "text": "This message was deleted.",
        "user": "USLACKBOT",
        "hidden": true,
        "ts": "1587039617.255200",
        "thread_ts": "1587039617.255200",
        "reply_count": 1,
        "reply_users_count": 1,
        "latest_reply": "1587039618.255400",
        "reply_users": [
            "B011E5YPDU6"
        ],
        "replies": [
            {
                "user": "B011E5YPDU6",
                "ts": "1587039618.255400"
            }
        ],
        "subscribed": false
    },
    {
        "type": "message",
        "subtype": "bot_message",
        "text": "*Created* this task",
        "ts": "1587039618.255400",
        "username": "Camille Masselot - JOGL Program coordinator via Wo",
        "icons": {
            "image_48": "https:\/\/s3-us-west-2.amazonaws.com\/slack-files2\/bot_icons\/2020-04-16\/1066629867682_48.png"
        },
        "bot_id": "B011E5YPDU6",
        "thread_ts": "1587039617.255200"
    },
    {
        "type": "message",
        "subtype": "bot_message",
        "text": "*Due date* set to 04\/17\/2020",
        "ts": "1587039631.255700",
        "username": "Camille Masselot - JOGL Program coordinator via Wo",
        "icons": {
            "image_48": "https:\/\/s3-us-west-2.amazonaws.com\/slack-files2\/bot_icons\/2020-04-16\/1066629867682_48.png"
        },
        "bot_id": "B011E5YPDU6",
        "thread_ts": "1587039520.254500"
    },
    {
        "type": "message",
        "subtype": "bot_message",
        "text": "<slack:\/\/user?team=TUU48M0T1&amp;id=UV9V03C8Y|Camille Masselot - JOGL Program coordinator> is now *assigned*",
        "ts": "1587039633.256000",
        "username": "Camille Masselot - JOGL Program coordinator via Wo",
        "icons": {
            "image_48": "https:\/\/s3-us-west-2.amazonaws.com\/slack-files2\/bot_icons\/2020-04-16\/1066629867682_48.png"
        },
        "bot_id": "B011E5YPDU6",
        "thread_ts": "1587039520.254500"
    },
    {
        "type": "message",
        "subtype": "tombstone",
        "text": "This message was deleted.",
        "user": "USLACKBOT",
        "hidden": true,
        "ts": "1587039659.256300",
        "thread_ts": "1587039659.256300",
        "reply_count": 2,
        "reply_users_count": 1,
        "latest_reply": "1587039673.256800",
        "reply_users": [
            "B011E5YPDU6"
        ],
        "replies": [
            {
                "user": "B011E5YPDU6",
                "ts": "1587039660.256400"
            },
            {
                "user": "B011E5YPDU6",
                "ts": "1587039673.256800"
            }
        ],
        "subscribed": false
    },
    {
        "type": "message",
        "subtype": "bot_message",
        "text": "*Created* this task",
        "ts": "1587039660.256400",
        "username": "Leo Blondel via Workstreams",
        "icons": {
            "image_48": "https:\/\/s3-us-west-2.amazonaws.com\/slack-files2\/bot_icons\/2020-04-16\/1072804186484_48.png"
        },
        "bot_id": "B011E5YPDU6",
        "thread_ts": "1587039659.256300"
    },
    {
        "type": "message",
        "subtype": "bot_message",
        "text": "Task was *archived*",
        "ts": "1587039673.256800",
        "username": "Leo Blondel via Workstreams",
        "icons": {
            "image_48": "https:\/\/s3-us-west-2.amazonaws.com\/slack-files2\/bot_icons\/2020-04-16\/1072804186484_48.png"
        },
        "bot_id": "B011E5YPDU6",
        "thread_ts": "1587039659.256300"
    },
    {
        "type": "message",
        "subtype": "tombstone",
        "text": "This message was deleted.",
        "user": "USLACKBOT",
        "hidden": true,
        "ts": "1587039809.257100",
        "thread_ts": "1587039809.257100",
        "reply_count": 4,
        "reply_users_count": 1,
        "latest_reply": "1588007350.347900",
        "reply_users": [
            "B011E5YPDU6"
        ],
        "replies": [
            {
                "user": "B011E5YPDU6",
                "ts": "1587039809.257300"
            },
            {
                "user": "B011E5YPDU6",
                "ts": "1587039832.257600"
            },
            {
                "user": "B011E5YPDU6",
                "ts": "1587040079.258500"
            },
            {
                "user": "B011E5YPDU6",
                "ts": "1588007350.347900"
            }
        ],
        "subscribed": false
    },
    {
        "type": "message",
        "subtype": "bot_message",
        "text": "*Created* this task",
        "ts": "1587039809.257300",
        "username": "Camille Masselot - JOGL Program coordinator via Wo",
        "icons": {
            "image_48": "https:\/\/s3-us-west-2.amazonaws.com\/slack-files2\/bot_icons\/2020-04-16\/1066629867682_48.png"
        },
        "bot_id": "B011E5YPDU6",
        "thread_ts": "1587039809.257100"
    },
    {
        "type": "message",
        "subtype": "bot_message",
        "text": "*Description* was updated",
        "ts": "1587039832.257600",
        "username": "Camille Masselot - JOGL Program coordinator via Wo",
        "icons": {
            "image_48": "https:\/\/s3-us-west-2.amazonaws.com\/slack-files2\/bot_icons\/2020-04-16\/1066629867682_48.png"
        },
        "bot_id": "B011E5YPDU6",
        "thread_ts": "1587039809.257100"
    },
    {
        "type": "message",
        "subtype": "bot_message",
        "text": "*Title* was updated",
        "ts": "1587040079.258500",
        "username": "Camille Masselot - JOGL Program coordinator via Wo",
        "icons": {
            "image_48": "https:\/\/s3-us-west-2.amazonaws.com\/slack-files2\/bot_icons\/2020-04-16\/1066629867682_48.png"
        },
        "bot_id": "B011E5YPDU6",
        "thread_ts": "1587039809.257100"
    },
    {
        "type": "message",
        "subtype": "tombstone",
        "text": "This message was deleted.",
        "user": "USLACKBOT",
        "hidden": true,
        "ts": "1587040209.258800",
        "thread_ts": "1587040209.258800",
        "reply_count": 1,
        "reply_users_count": 1,
        "latest_reply": "1587040209.258900",
        "reply_users": [
            "B011E5YPDU6"
        ],
        "replies": [
            {
                "user": "B011E5YPDU6",
                "ts": "1587040209.258900"
            }
        ],
        "subscribed": false
    },
    {
        "type": "message",
        "subtype": "bot_message",
        "text": "*Created* this task",
        "ts": "1587040209.258900",
        "username": "Camille Masselot - JOGL Program coordinator via Wo",
        "icons": {
            "image_48": "https:\/\/s3-us-west-2.amazonaws.com\/slack-files2\/bot_icons\/2020-04-16\/1066629867682_48.png"
        },
        "bot_id": "B011E5YPDU6",
        "thread_ts": "1587040209.258800"
    },
    {
        "type": "message",
        "subtype": "tombstone",
        "text": "This message was deleted.",
        "user": "USLACKBOT",
        "hidden": true,
        "ts": "1587040271.259300",
        "thread_ts": "1587040271.259300",
        "reply_count": 2,
        "reply_users_count": 1,
        "latest_reply": "1587042363.260500",
        "reply_users": [
            "B011E5YPDU6"
        ],
        "replies": [
            {
                "user": "B011E5YPDU6",
                "ts": "1587040271.259400"
            },
            {
                "user": "B011E5YPDU6",
                "ts": "1587042363.260500"
            }
        ],
        "subscribed": false
    },
    {
        "type": "message",
        "subtype": "bot_message",
        "text": "*Created* this task",
        "ts": "1587040271.259400",
        "username": "Camille Masselot - JOGL Program coordinator via Wo",
        "icons": {
            "image_48": "https:\/\/s3-us-west-2.amazonaws.com\/slack-files2\/bot_icons\/2020-04-16\/1066629867682_48.png"
        },
        "bot_id": "B011E5YPDU6",
        "thread_ts": "1587040271.259300"
    },
    {
        "type": "message",
        "subtype": "tombstone",
        "text": "This message was deleted.",
        "user": "USLACKBOT",
        "hidden": true,
        "ts": "1587040379.259700",
        "thread_ts": "1587040379.259700",
        "reply_count": 3,
        "reply_users_count": 1,
        "latest_reply": "1587042377.261100",
        "reply_users": [
            "B011E5YPDU6"
        ],
        "replies": [
            {
                "user": "B011E5YPDU6",
                "ts": "1587040379.259800"
            },
            {
                "user": "B011E5YPDU6",
                "ts": "1587042370.260800"
            },
            {
                "user": "B011E5YPDU6",
                "ts": "1587042377.261100"
            }
        ],
        "subscribed": false
    },
    {
        "type": "message",
        "subtype": "bot_message",
        "text": "*Created* this task",
        "ts": "1587040379.259800",
        "username": "Camille Masselot - JOGL Program coordinator via Wo",
        "icons": {
            "image_48": "https:\/\/s3-us-west-2.amazonaws.com\/slack-files2\/bot_icons\/2020-04-16\/1066629867682_48.png"
        },
        "bot_id": "B011E5YPDU6",
        "thread_ts": "1587040379.259700"
    },
    {
        "type": "message",
        "subtype": "tombstone",
        "text": "This message was deleted.",
        "user": "USLACKBOT",
        "hidden": true,
        "ts": "1587042353.260100",
        "thread_ts": "1587042353.260100",
        "reply_count": 2,
        "reply_users_count": 1,
        "latest_reply": "1587145244.286200",
        "reply_users": [
            "B011E5YPDU6"
        ],
        "replies": [
            {
                "user": "B011E5YPDU6",
                "ts": "1587042353.260200"
            },
            {
                "user": "B011E5YPDU6",
                "ts": "1587145244.286200"
            }
        ],
        "subscribed": false
    },
    {
        "type": "message",
        "subtype": "bot_message",
        "text": "*Created* this task",
        "ts": "1587042353.260200",
        "username": "Camille Masselot - JOGL Program coordinator via Wo",
        "icons": {
            "image_48": "https:\/\/s3-us-west-2.amazonaws.com\/slack-files2\/bot_icons\/2020-04-16\/1066629867682_48.png"
        },
        "bot_id": "B011E5YPDU6",
        "thread_ts": "1587042353.260100"
    },
    {
        "type": "message",
        "subtype": "bot_message",
        "text": "*Due date* set to 04\/22\/2020",
        "ts": "1587042363.260500",
        "username": "Camille Masselot - JOGL Program coordinator via Wo",
        "icons": {
            "image_48": "https:\/\/s3-us-west-2.amazonaws.com\/slack-files2\/bot_icons\/2020-04-16\/1066629867682_48.png"
        },
        "bot_id": "B011E5YPDU6",
        "thread_ts": "1587040271.259300"
    },
    {
        "type": "message",
        "subtype": "bot_message",
        "text": "*Due date* set to 04\/22\/2020",
        "ts": "1587042370.260800",
        "username": "Camille Masselot - JOGL Program coordinator via Wo",
        "icons": {
            "image_48": "https:\/\/s3-us-west-2.amazonaws.com\/slack-files2\/bot_icons\/2020-04-16\/1066629867682_48.png"
        },
        "bot_id": "B011E5YPDU6",
        "thread_ts": "1587040379.259700"
    },
    {
        "type": "message",
        "subtype": "bot_message",
        "text": "*Due date* set to 04\/29\/2020",
        "ts": "1587042377.261100",
        "username": "Camille Masselot - JOGL Program coordinator via Wo",
        "icons": {
            "image_48": "https:\/\/s3-us-west-2.amazonaws.com\/slack-files2\/bot_icons\/2020-04-16\/1066629867682_48.png"
        },
        "bot_id": "B011E5YPDU6",
        "thread_ts": "1587040379.259700"
    },
    {
        "type": "message",
        "subtype": "tombstone",
        "text": "This message was deleted.",
        "user": "USLACKBOT",
        "hidden": true,
        "ts": "1587043000.261500",
        "thread_ts": "1587043000.261500",
        "reply_count": 3,
        "reply_users_count": 1,
        "latest_reply": "1587043006.262300",
        "reply_users": [
            "B011E5YPDU6"
        ],
        "replies": [
            {
                "user": "B011E5YPDU6",
                "ts": "1587043000.261700"
            },
            {
                "user": "B011E5YPDU6",
                "ts": "1587043000.261900"
            },
            {
                "user": "B011E5YPDU6",
                "ts": "1587043006.262300"
            }
        ],
        "subscribed": false
    },
    {
        "type": "message",
        "subtype": "bot_message",
        "text": "*Created* this task",
        "ts": "1587043000.261700",
        "username": "Camille Masselot - JOGL Program coordinator via Wo",
        "icons": {
            "image_48": "https:\/\/s3-us-west-2.amazonaws.com\/slack-files2\/bot_icons\/2020-04-16\/1066629867682_48.png"
        },
        "bot_id": "B011E5YPDU6",
        "thread_ts": "1587043000.261500"
    },
    {
        "type": "message",
        "subtype": "bot_message",
        "text": "<slack:\/\/user?team=TUU48M0T1&amp;id=UV9V03C8Y|Camille Masselot - JOGL Program coordinator> is now *assigned*",
        "ts": "1587043000.261900",
        "username": "Camille Masselot - JOGL Program coordinator via Wo",
        "icons": {
            "image_48": "https:\/\/s3-us-west-2.amazonaws.com\/slack-files2\/bot_icons\/2020-04-16\/1066629867682_48.png"
        },
        "bot_id": "B011E5YPDU6",
        "thread_ts": "1587043000.261500"
    },
    {
        "type": "message",
        "subtype": "bot_message",
        "text": "*Workstep* was set to *completed*",
        "ts": "1587043006.262300",
        "username": "Camille Masselot - JOGL Program coordinator via Wo",
        "icons": {
            "image_48": "https:\/\/s3-us-west-2.amazonaws.com\/slack-files2\/bot_icons\/2020-04-16\/1066629867682_48.png"
        },
        "bot_id": "B011E5YPDU6",
        "thread_ts": "1587043000.261500"
    },
    {
        "type": "message",
        "subtype": "bot_message",
        "text": "*Workstep* was set to *in progress*",
        "ts": "1587044801.263100",
        "username": "Dmitri Zaitsev via Workstreams",
        "icons": {
            "image_48": "https:\/\/s3-us-west-2.amazonaws.com\/slack-files2\/bot_icons\/2020-04-16\/1065472838117_48.png"
        },
        "bot_id": "B011E5YPDU6",
        "thread_ts": "1587039476.254100"
    },
    {
        "type": "message",
        "text": ":female-artist:hey <!here>! *I've created a workflow to facilitate onboarding and orientation: it's a step by step easy process.* Here is the full version and the summary version, all drawing are available in the Operation&gt;Onboarding folder on Drive! Please feel free to comment!\n• <https:\/\/docs.google.com\/drawings\/d\/1KWeTDe6JkAizTZSVu4j5sqxf1ZpuQZbRY_pTgB-0R-w\/edit|Onboarding workflow full version>\n• <https:\/\/docs.google.com\/drawings\/d\/1sbkzBCd2YY5da2F00wMBsOnTwocBqSKsnqMs5iGs-ik\/edit?usp=sharing|Onboarding workflow summary version>\n• <https:\/\/drive.google.com\/open?id=1zh6Umbyj5n3s1w76S6lYydoMo0OPZn-_|All drawings here>",
        "files": [
            {
                "id": "F011ZBWK8UT",
                "mode": "tombstone"
            },
            {
                "id": "F012BQ4HCV7",
                "mode": "tombstone"
            }
        ],
        "upload": false,
        "blocks": [
            {
                "type": "rich_text",
                "block_id": "cnl",
                "elements": [
                    {
                        "type": "rich_text_section",
                        "elements": [
                            {
                                "type": "emoji",
                                "name": "female-artist"
                            },
                            {
                                "type": "text",
                                "text": "hey "
                            },
                            {
                                "type": "broadcast",
                                "range": "here"
                            },
                            {
                                "type": "text",
                                "text": "! "
                            },
                            {
                                "type": "text",
                                "text": "I've created a workflow to facilitate onboarding and orientation: it's a step by step easy process. ",
                                "style": {
                                    "bold": true
                                }
                            },
                            {
                                "type": "text",
                                "text": "Here is the full version and the summary version, all drawing are available in the Operation>Onboarding folder on Drive! Please feel free to comment!\n"
                            }
                        ]
                    },
                    {
                        "type": "rich_text_list",
                        "style": "bullet",
                        "indent": 0,
                        "elements": [
                            {
                                "type": "rich_text_section",
                                "elements": [
                                    {
                                        "type": "link",
                                        "url": "https:\/\/docs.google.com\/drawings\/d\/1KWeTDe6JkAizTZSVu4j5sqxf1ZpuQZbRY_pTgB-0R-w\/edit",
                                        "text": "Onboarding workflow full version"
                                    }
                                ]
                            },
                            {
                                "type": "rich_text_section",
                                "elements": [
                                    {
                                        "type": "link",
                                        "url": "https:\/\/docs.google.com\/drawings\/d\/1sbkzBCd2YY5da2F00wMBsOnTwocBqSKsnqMs5iGs-ik\/edit?usp=sharing",
                                        "text": "Onboarding workflow summary version"
                                    }
                                ]
                            },
                            {
                                "type": "rich_text_section",
                                "elements": [
                                    {
                                        "type": "link",
                                        "url": "https:\/\/drive.google.com\/open?id=1zh6Umbyj5n3s1w76S6lYydoMo0OPZn-_",
                                        "text": "All drawings here"
                                    }
                                ]
                            }
                        ]
                    }
                ]
            }
        ],
        "user": "UV9V03C8Y",
        "x_files": [
            "F011ZBWK8UT",
            "F012BQ4HCV7"
        ],
        "ts": "1587051269.266300",
        "client_msg_id": "225116e6-1e88-47ac-81ad-123a226a0661"
    },
    {
        "type": "message",
        "text": "Actually, may be easier to see it with a pdf format.",
        "files": [
            {
                "id": "F012P1JRP40",
                "created": 1587051595,
                "timestamp": 1587051595,
                "name": "Onboarding-step1-to-6-full-version.pdf",
                "title": "Onboarding-step1-to-6-full-version.pdf",
                "mimetype": "application\/pdf",
                "filetype": "pdf",
                "pretty_type": "PDF",
                "user": "UV9V03C8Y",
                "editable": false,
                "size": 66952,
                "mode": "hosted",
                "is_external": false,
                "external_type": "",
                "is_public": true,
                "public_url_shared": false,
                "display_as_bot": false,
                "username": "",
                "url_private": "https:\/\/files.slack.com\/files-pri\/TUU48M0T1-F012P1JRP40\/onboarding-step1-to-6-full-version.pdf?t=xoxe-980144714919-1106606678066-1105227127893-6f722bb664235052954ad46852628b64",
                "url_private_download": "https:\/\/files.slack.com\/files-pri\/TUU48M0T1-F012P1JRP40\/download\/onboarding-step1-to-6-full-version.pdf?t=xoxe-980144714919-1106606678066-1105227127893-6f722bb664235052954ad46852628b64",
                "thumb_pdf": "https:\/\/files.slack.com\/files-tmb\/TUU48M0T1-F012P1JRP40-c64d646c1e\/onboarding-step1-to-6-full-version_thumb_pdf.png?t=xoxe-980144714919-1106606678066-1105227127893-6f722bb664235052954ad46852628b64",
                "thumb_pdf_w": 1111,
                "thumb_pdf_h": 3922,
                "permalink": "https:\/\/open-covid19.slack.com\/files\/UV9V03C8Y\/F012P1JRP40\/onboarding-step1-to-6-full-version.pdf",
                "permalink_public": "https:\/\/slack-files.com\/TUU48M0T1-F012P1JRP40-4c11e474d4",
                "is_starred": false,
                "has_rich_preview": false
            }
        ],
        "upload": true,
        "blocks": [
            {
                "type": "rich_text",
                "block_id": "qHSMC",
                "elements": [
                    {
                        "type": "rich_text_section",
                        "elements": [
                            {
                                "type": "text",
                                "text": "Actually, may be easier to see it with a pdf format."
                            }
                        ]
                    }
                ]
            }
        ],
        "user": "UV9V03C8Y",
        "display_as_bot": false,
        "ts": "1587051599.268800",
        "client_msg_id": "c921ea17-6188-47e3-a47f-d53345b2afc9",
        "reactions": [
            {
                "name": "clap",
                "users": [
                    "U011B6VLM2A"
                ],
                "count": 1
            }
        ]
    },
    {
        "client_msg_id": "15094f3e-c637-42de-97c0-ad93b3a9c501",
        "type": "message",
        "text": "<@UV9V03C8Y> \"founding\" -&gt; \"funding\"\n\nIs this for people or coordinators ?\n\nIF for people, this needs to go in the hands of a designer\nIf for coordinators its great",
        "user": "UVC9WMA7N",
        "ts": "1587052603.270400",
        "team": "TUU48M0T1",
        "user_team": "TUU48M0T1",
        "source_team": "TUU48M0T1",
        "user_profile": {
            "avatar_hash": "56d14d58ed53",
            "image_72": "https:\/\/avatars.slack-edge.com\/2020-03-13\/998337892660_56d14d58ed537e6e4654_72.png",
            "first_name": "Leo",
            "real_name": "Leo Blondel",
            "display_name": "Leo Blondel - JOGL CoFounder \/ CTO",
            "team": "TUU48M0T1",
            "name": "leo",
            "is_restricted": false,
            "is_ultra_restricted": false
        },
        "blocks": [
            {
                "type": "rich_text",
                "block_id": "R697V",
                "elements": [
                    {
                        "type": "rich_text_section",
                        "elements": [
                            {
                                "type": "user",
                                "user_id": "UV9V03C8Y"
                            },
                            {
                                "type": "text",
                                "text": " \"founding\" -> \"funding\"\n\nIs this for people or coordinators ?\n\nIF for people, this needs to go in the hands of a designer\nIf for coordinators its great"
                            }
                        ]
                    }
                ]
            }
        ],
        "reactions": [
            {
                "name": "+1",
                "users": [
                    "UV9V03C8Y"
                ],
                "count": 1
            }
        ]
    },
    {
        "client_msg_id": "2a43e7a4-a217-449e-ae8d-305740025035",
        "type": "message",
        "text": "<@UVC9WMA7N> This is a draft. It is for both people and coordinator with the following use:\n• for people: once it is reviewed and links added, I agree it should go in the hands of a designer ; then we can add it to the onboarding document + relevant channels ; people can use it as a cheat-sheet\n• for coordinators: i) this can be a base to create a video for a step by step onboarding which can be published and\/or in the onboarding document ; ii) it can also as a base to elaborate the FAQ questions and answers ; iii) it can also be used by Guides or anybody working on triaging\/orientation\n",
        "user": "UV9V03C8Y",
        "ts": "1587053583.272200",
        "team": "TUU48M0T1",
        "user_team": "TUU48M0T1",
        "source_team": "TUU48M0T1",
        "user_profile": {
            "avatar_hash": "177697fb7b8f",
            "image_72": "https:\/\/avatars.slack-edge.com\/2020-03-12\/996126178096_177697fb7b8ffa57649c_72.jpg",
            "first_name": "Camille",
            "real_name": "Camille Masselot - JOGL Program coordinator",
            "display_name": "Camille Masselot - JOGL coordinator",
            "team": "TUU48M0T1",
            "name": "masselot.camille",
            "is_restricted": false,
            "is_ultra_restricted": false
        },
        "blocks": [
            {
                "type": "rich_text",
                "block_id": "M5M",
                "elements": [
                    {
                        "type": "rich_text_section",
                        "elements": [
                            {
                                "type": "user",
                                "user_id": "UVC9WMA7N"
                            },
                            {
                                "type": "text",
                                "text": " This is a draft. It is for both people and coordinator with the following use:\n"
                            }
                        ]
                    },
                    {
                        "type": "rich_text_list",
                        "elements": [
                            {
                                "type": "rich_text_section",
                                "elements": [
                                    {
                                        "type": "text",
                                        "text": "for people: once it is reviewed and links added, I agree it should go in the hands of a designer ; then we can add it to the onboarding document + relevant channels ; people can use it as a cheat-sheet"
                                    }
                                ]
                            },
                            {
                                "type": "rich_text_section",
                                "elements": [
                                    {
                                        "type": "text",
                                        "text": "for coordinators: i) this can be a base to create a video for a step by step onboarding which can be published and\/or in the onboarding document ; ii) it can also as a base to elaborate the FAQ questions and answers ; iii) it can also be used by Guides or anybody working on triaging\/orientation"
                                    }
                                ]
                            }
                        ],
                        "style": "bullet",
                        "indent": 0
                    },
                    {
                        "type": "rich_text_section",
                        "elements": []
                    }
                ]
            }
        ]
    },
    {
        "client_msg_id": "def931fc-344f-4e64-8a92-6d3d4cf6b08b",
        "type": "message",
        "text": "Sounds great <@UV9V03C8Y> I really like it  btw !\n\nI think we need to add <@UVABNG1A9> on this as well because we can \/ SHOULD \/ use this for JOGL",
        "user": "UVC9WMA7N",
        "ts": "1587053635.273100",
        "team": "TUU48M0T1",
        "user_team": "TUU48M0T1",
        "source_team": "TUU48M0T1",
        "user_profile": {
            "avatar_hash": "56d14d58ed53",
            "image_72": "https:\/\/avatars.slack-edge.com\/2020-03-13\/998337892660_56d14d58ed537e6e4654_72.png",
            "first_name": "Leo",
            "real_name": "Leo Blondel",
            "display_name": "Leo Blondel - JOGL CoFounder \/ CTO",
            "team": "TUU48M0T1",
            "name": "leo",
            "is_restricted": false,
            "is_ultra_restricted": false
        },
        "blocks": [
            {
                "type": "rich_text",
                "block_id": "1BhB",
                "elements": [
                    {
                        "type": "rich_text_section",
                        "elements": [
                            {
                                "type": "text",
                                "text": "Sounds great "
                            },
                            {
                                "type": "user",
                                "user_id": "UV9V03C8Y"
                            },
                            {
                                "type": "text",
                                "text": " I really like it  btw !\n\nI think we need to add "
                            },
                            {
                                "type": "user",
                                "user_id": "UVABNG1A9"
                            },
                            {
                                "type": "text",
                                "text": " on this as well because we can \/ SHOULD \/ use this for JOGL"
                            }
                        ]
                    }
                ]
            }
        ],
        "thread_ts": "1587053635.273100",
        "reply_count": 3,
        "reply_users_count": 2,
        "latest_reply": "1587065422.278600",
        "reply_users": [
            "UV9V03C8Y",
            "UVC9WMA7N"
        ],
        "replies": [
            {
                "user": "UV9V03C8Y",
                "ts": "1587053857.273200"
            },
            {
                "user": "UV9V03C8Y",
                "ts": "1587053911.273400"
            },
            {
                "user": "UVC9WMA7N",
                "ts": "1587065422.278600"
            }
        ],
        "subscribed": false
    },
    {
        "client_msg_id": "99600169-71d5-4ed4-950a-cdf6f8351e6b",
        "type": "message",
        "text": "héhé <@UVC9WMA7N> yes indeed! I have another version in the pipeline for JOGL :wink: with 2 components: platform use \/ program support ; similar here there is the platform component (left boxes) and the Slack (right boxes), I designed it in a modular way so that the left part (JOGL) stays the same, then you can adapt the right part (Slack, JOGL program, anything else that comes and complete what the paltform can offer).",
        "user": "UV9V03C8Y",
        "ts": "1587053857.273200",
        "team": "TUU48M0T1",
        "user_team": "TUU48M0T1",
        "source_team": "TUU48M0T1",
        "user_profile": {
            "avatar_hash": "177697fb7b8f",
            "image_72": "https:\/\/avatars.slack-edge.com\/2020-03-12\/996126178096_177697fb7b8ffa57649c_72.jpg",
            "first_name": "Camille",
            "real_name": "Camille Masselot - JOGL Program coordinator",
            "display_name": "Camille Masselot - JOGL coordinator",
            "team": "TUU48M0T1",
            "name": "masselot.camille",
            "is_restricted": false,
            "is_ultra_restricted": false
        },
        "blocks": [
            {
                "type": "rich_text",
                "block_id": "Asdlz",
                "elements": [
                    {
                        "type": "rich_text_section",
                        "elements": [
                            {
                                "type": "text",
                                "text": "héhé "
                            },
                            {
                                "type": "user",
                                "user_id": "UVC9WMA7N"
                            },
                            {
                                "type": "text",
                                "text": " yes indeed! I have another version in the pipeline for JOGL "
                            },
                            {
                                "type": "emoji",
                                "name": "wink"
                            },
                            {
                                "type": "text",
                                "text": " with 2 components: platform use \/ program support ; similar here there is the platform component (left boxes) and the Slack (right boxes), I designed it in a modular way so that the left part (JOGL) stays the same, then you can adapt the right part (Slack, JOGL program, anything else that comes and complete what the paltform can offer)."
                            }
                        ]
                    }
                ]
            }
        ],
        "thread_ts": "1587053635.273100",
        "parent_user_id": "UVC9WMA7N"
    },
    {
        "client_msg_id": "99940978-9666-43fc-80f7-c6948f90fd30",
        "type": "message",
        "text": "<@UVABNG1A9> would love to hear from you :hugging_face:!",
        "user": "UV9V03C8Y",
        "ts": "1587053911.273400",
        "team": "TUU48M0T1",
        "user_team": "TUU48M0T1",
        "source_team": "TUU48M0T1",
        "user_profile": {
            "avatar_hash": "177697fb7b8f",
            "image_72": "https:\/\/avatars.slack-edge.com\/2020-03-12\/996126178096_177697fb7b8ffa57649c_72.jpg",
            "first_name": "Camille",
            "real_name": "Camille Masselot - JOGL Program coordinator",
            "display_name": "Camille Masselot - JOGL coordinator",
            "team": "TUU48M0T1",
            "name": "masselot.camille",
            "is_restricted": false,
            "is_ultra_restricted": false
        },
        "blocks": [
            {
                "type": "rich_text",
                "block_id": "2Jh",
                "elements": [
                    {
                        "type": "rich_text_section",
                        "elements": [
                            {
                                "type": "user",
                                "user_id": "UVABNG1A9"
                            },
                            {
                                "type": "text",
                                "text": " would love to hear from you "
                            },
                            {
                                "type": "emoji",
                                "name": "hugging_face"
                            },
                            {
                                "type": "text",
                                "text": "!"
                            }
                        ]
                    }
                ]
            }
        ],
        "thread_ts": "1587053635.273100",
        "parent_user_id": "UVC9WMA7N"
    },
    {
        "type": "message",
        "text": "[Agenda] <!channel> *for today's Governance meeting at 7PM UTC!* \n• Agenda: <https:\/\/docs.google.com\/document\/d\/14sGlmT572D6i3RNNEy2J8_7vHHgNTEL0ECgdJXDEJ3U\/edit#|here>\n• Zoom: <https:\/\/zoom.us\/j\/7804345815> ; Password: 123456\n:point_right:General update on: project interviews, task management, work on definitions, social media strategy, program management\n:point_right:Focus on: onboarding, addressing pain points\n\nTalk soon! Take care!",
        "files": [
            {
                "id": "F011Y1LGRM3",
                "created": 1587056055,
                "timestamp": 1587056055,
                "name": "2020-04-23 Eighth Governance Call (7PM UTC)",
                "title": "2020-04-23 Eighth Governance Call (7PM UTC)",
                "mimetype": "application\/vnd.google-apps.document",
                "filetype": "gdoc",
                "pretty_type": "GSuite Document",
                "user": "UV9V03C8Y",
                "editable": false,
                "size": 1406,
                "mode": "external",
                "is_external": true,
                "external_type": "gdrive",
                "is_public": true,
                "public_url_shared": false,
                "display_as_bot": false,
                "username": "",
                "url_private": "https:\/\/docs.google.com\/document\/d\/14sGlmT572D6i3RNNEy2J8_7vHHgNTEL0ECgdJXDEJ3U\/edit#",
                "thumb_64": "https:\/\/files.slack.com\/files-tmb\/TUU48M0T1-F011Y1LGRM3-6754d982ca\/2020-04-23_eighth_governance_call__7pm_utc__64.png?t=xoxe-980144714919-1106606678066-1105227127893-6f722bb664235052954ad46852628b64",
                "thumb_80": "https:\/\/files.slack.com\/files-tmb\/TUU48M0T1-F011Y1LGRM3-6754d982ca\/2020-04-23_eighth_governance_call__7pm_utc__80.png?t=xoxe-980144714919-1106606678066-1105227127893-6f722bb664235052954ad46852628b64",
                "thumb_360": "https:\/\/files.slack.com\/files-tmb\/TUU48M0T1-F011Y1LGRM3-6754d982ca\/2020-04-23_eighth_governance_call__7pm_utc__360.png?t=xoxe-980144714919-1106606678066-1105227127893-6f722bb664235052954ad46852628b64",
                "thumb_360_w": 278,
                "thumb_360_h": 360,
                "thumb_480": "https:\/\/files.slack.com\/files-tmb\/TUU48M0T1-F011Y1LGRM3-6754d982ca\/2020-04-23_eighth_governance_call__7pm_utc__480.png?t=xoxe-980144714919-1106606678066-1105227127893-6f722bb664235052954ad46852628b64",
                "thumb_480_w": 371,
                "thumb_480_h": 480,
                "thumb_160": "https:\/\/files.slack.com\/files-tmb\/TUU48M0T1-F011Y1LGRM3-6754d982ca\/2020-04-23_eighth_governance_call__7pm_utc__160.png?t=xoxe-980144714919-1106606678066-1105227127893-6f722bb664235052954ad46852628b64",
                "thumb_720": "https:\/\/files.slack.com\/files-tmb\/TUU48M0T1-F011Y1LGRM3-6754d982ca\/2020-04-23_eighth_governance_call__7pm_utc__720.png?t=xoxe-980144714919-1106606678066-1105227127893-6f722bb664235052954ad46852628b64",
                "thumb_720_w": 557,
                "thumb_720_h": 720,
                "thumb_800": "https:\/\/files.slack.com\/files-tmb\/TUU48M0T1-F011Y1LGRM3-6754d982ca\/2020-04-23_eighth_governance_call__7pm_utc__800.png?t=xoxe-980144714919-1106606678066-1105227127893-6f722bb664235052954ad46852628b64",
                "thumb_800_w": 800,
                "thumb_800_h": 1035,
                "thumb_960": "https:\/\/files.slack.com\/files-tmb\/TUU48M0T1-F011Y1LGRM3-6754d982ca\/2020-04-23_eighth_governance_call__7pm_utc__960.png?t=xoxe-980144714919-1106606678066-1105227127893-6f722bb664235052954ad46852628b64",
                "thumb_960_w": 742,
                "thumb_960_h": 960,
                "thumb_1024": "https:\/\/files.slack.com\/files-tmb\/TUU48M0T1-F011Y1LGRM3-6754d982ca\/2020-04-23_eighth_governance_call__7pm_utc__1024.png?t=xoxe-980144714919-1106606678066-1105227127893-6f722bb664235052954ad46852628b64",
                "thumb_1024_w": 791,
                "thumb_1024_h": 1024,
                "image_exif_rotation": 1,
                "original_w": 800,
                "original_h": 1035,
                "thumb_tiny": "AwAwACXTJxSbh7\/lQw4poB\/uigB24e\/5UZ9j+VKB7CigAooooARhkUm4+lOppznofzoAUHNLTRnuD+dOoAKKKKACm457U6kK59aADGPT8qWk2+5paACiiigD\/9k=",
                "permalink": "https:\/\/open-covid19.slack.com\/files\/UV9V03C8Y\/F011Y1LGRM3\/2020-04-23_eighth_governance_call__7pm_utc_",
                "is_starred": false,
                "external_id": "14sGlmT572D6i3RNNEy2J8_7vHHgNTEL0ECgdJXDEJ3U",
                "external_url": "https:\/\/docs.google.com\/document\/d\/14sGlmT572D6i3RNNEy2J8_7vHHgNTEL0ECgdJXDEJ3U\/edit#",
                "has_rich_preview": true
            }
        ],
        "upload": false,
        "blocks": [
            {
                "type": "rich_text",
                "block_id": "QXr",
                "elements": [
                    {
                        "type": "rich_text_section",
                        "elements": [
                            {
                                "type": "text",
                                "text": "[Agenda] "
                            },
                            {
                                "type": "broadcast",
                                "range": "channel"
                            },
                            {
                                "type": "text",
                                "text": " "
                            },
                            {
                                "type": "text",
                                "text": "for today's Governance meeting at 7PM UTC! ",
                                "style": {
                                    "bold": true
                                }
                            },
                            {
                                "type": "text",
                                "text": "\n"
                            }
                        ]
                    },
                    {
                        "type": "rich_text_list",
                        "style": "bullet",
                        "indent": 0,
                        "elements": [
                            {
                                "type": "rich_text_section",
                                "elements": [
                                    {
                                        "type": "text",
                                        "text": "Agenda: "
                                    },
                                    {
                                        "type": "link",
                                        "url": "https:\/\/docs.google.com\/document\/d\/14sGlmT572D6i3RNNEy2J8_7vHHgNTEL0ECgdJXDEJ3U\/edit#",
                                        "text": "here"
                                    }
                                ]
                            },
                            {
                                "type": "rich_text_section",
                                "elements": [
                                    {
                                        "type": "text",
                                        "text": "Zoom: "
                                    },
                                    {
                                        "type": "link",
                                        "url": "https:\/\/zoom.us\/j\/7804345815"
                                    },
                                    {
                                        "type": "text",
                                        "text": " ; Password: 123456"
                                    }
                                ]
                            }
                        ]
                    },
                    {
                        "type": "rich_text_section",
                        "elements": [
                            {
                                "type": "text",
                                "text": "\n"
                            },
                            {
                                "type": "emoji",
                                "name": "point_right"
                            },
                            {
                                "type": "text",
                                "text": "General update on: project interviews, task management, work on definitions, social media strategy, program management\n"
                            },
                            {
                                "type": "emoji",
                                "name": "point_right"
                            },
                            {
                                "type": "text",
                                "text": "Focus on: onboarding, addressing pain points\n\nTalk soon! Take care!"
                            }
                        ]
                    }
                ]
            }
        ],
        "user": "UV9V03C8Y",
        "display_as_bot": false,
        "x_files": [
            "F011Y1LGRM3"
        ],
        "ts": "1587056053.276900",
        "client_msg_id": "d04b0e43-97b5-43bf-8c0b-9d9b12795d46",
        "reactions": [
            {
                "name": "+1",
                "users": [
                    "U011B6VLM2A"
                ],
                "count": 1
            }
        ]
    },
    {
        "client_msg_id": "57b68b1c-af9c-4eae-b4c2-cf2fb30cba88",
        "type": "message",
        "text": "<@U010W4KTANM>",
        "user": "U011B6VLM2A",
        "ts": "1587064206.278400",
        "team": "TUU48M0T1",
        "user_team": "TUU48M0T1",
        "source_team": "TUU48M0T1",
        "user_profile": {
            "avatar_hash": "4231dc598cfc",
            "image_72": "https:\/\/avatars.slack-edge.com\/2020-04-02\/1044784558839_4231dc598cfc2e59c4c4_72.jpg",
            "first_name": "Alix",
            "real_name": "Alix Mains",
            "display_name": "Alix Mains - JOGL Coordinator",
            "team": "TUU48M0T1",
            "name": "alixhmains",
            "is_restricted": false,
            "is_ultra_restricted": false
        },
        "blocks": [
            {
                "type": "rich_text",
                "block_id": "+HLey",
                "elements": [
                    {
                        "type": "rich_text_section",
                        "elements": [
                            {
                                "type": "user",
                                "user_id": "U010W4KTANM"
                            }
                        ]
                    }
                ]
            }
        ],
        "thread_ts": "1586530140.221700",
        "parent_user_id": "U011B6VLM2A"
    },
    {
        "client_msg_id": "d491f04e-3f40-45a2-a323-2a76bc7e1c38",
        "type": "message",
        "text": ":+1: :muscle: :rocket:",
        "user": "UVC9WMA7N",
        "ts": "1587065422.278600",
        "team": "TUU48M0T1",
        "user_team": "TUU48M0T1",
        "source_team": "TUU48M0T1",
        "user_profile": {
            "avatar_hash": "56d14d58ed53",
            "image_72": "https:\/\/avatars.slack-edge.com\/2020-03-13\/998337892660_56d14d58ed537e6e4654_72.png",
            "first_name": "Leo",
            "real_name": "Leo Blondel",
            "display_name": "Leo Blondel - JOGL CoFounder \/ CTO",
            "team": "TUU48M0T1",
            "name": "leo",
            "is_restricted": false,
            "is_ultra_restricted": false
        },
        "blocks": [
            {
                "type": "rich_text",
                "block_id": "YAa",
                "elements": [
                    {
                        "type": "rich_text_section",
                        "elements": [
                            {
                                "type": "emoji",
                                "name": "+1"
                            },
                            {
                                "type": "text",
                                "text": " "
                            },
                            {
                                "type": "emoji",
                                "name": "muscle"
                            },
                            {
                                "type": "text",
                                "text": " "
                            },
                            {
                                "type": "emoji",
                                "name": "rocket"
                            }
                        ]
                    }
                ]
            }
        ],
        "thread_ts": "1587053635.273100",
        "parent_user_id": "UVC9WMA7N"
    }
]