[
    {
        "client_msg_id": "99e08e01-2966-4ba9-8882-62ec562b00a6",
        "type": "message",
        "text": "Hi *<!channel>*! The channel channel *<#C0106TJ8ZGQ|prgm-literature-review>* is open. Its purpose is to *gather scientific literature*. It comes with a google sheet that will enable everyone working at program, challenge or project level to save time, and access resources more easily. Use it and modify as you wish, common tools are meant to facilitate everyone's life!\n*Link is*  :point_right: <https:\/\/docs.google.com\/spreadsheets\/d\/1Jhl5NRsghJfFfrKb-3tr-wnT47AdLi9XYqyvmXubfME\/edit#gid=0|HERE> (do not miss the tab 2 with useful websites)\n\nP*lus, you have access to all newly published articles* <https:\/\/www.ncbi.nlm.nih.gov\/research\/coronavirus\/docsum|HERE> thanks to LitCovid\/ncbi\nTake care, and talk to you later!",
        "user": "UV9V03C8Y",
        "ts": "1584526008.234800",
        "team": "TUU48M0T1",
        "user_team": "TUU48M0T1",
        "source_team": "TUU48M0T1",
        "user_profile": {
            "avatar_hash": "177697fb7b8f",
            "image_72": "https:\/\/avatars.slack-edge.com\/2020-03-12\/996126178096_177697fb7b8ffa57649c_72.jpg",
            "first_name": "Camille",
            "real_name": "Camille Masselot - JOGL Program coordinator",
            "display_name": "Camille Masselot - JOGL coordinator",
            "team": "TUU48M0T1",
            "name": "masselot.camille",
            "is_restricted": false,
            "is_ultra_restricted": false
        },
        "attachments": [
            {
                "title": "LitCovid - NCBI - NLM - NIH",
                "title_link": "https:\/\/www.ncbi.nlm.nih.gov\/research\/coronavirus\/docsum",
                "text": "LitCovid is a unique web system for tracking the most recent publications and literature about the 2019 Coronavirus (2019-nCov,SARS-CoV-2, COVID-19) outbreak. LitCovid is the most comprehensive resource on the subject.",
                "fallback": "LitCovid - NCBI - NLM - NIH",
                "from_url": "https:\/\/www.ncbi.nlm.nih.gov\/research\/coronavirus\/docsum",
                "service_icon": "https:\/\/www.ncbi.nlm.nih.gov\/favicon.ico",
                "service_name": "ncbi.nlm.nih.gov",
                "id": 1,
                "original_url": "https:\/\/www.ncbi.nlm.nih.gov\/research\/coronavirus\/docsum"
            }
        ],
        "blocks": [
            {
                "type": "rich_text",
                "block_id": "GO24k",
                "elements": [
                    {
                        "type": "rich_text_section",
                        "elements": [
                            {
                                "type": "text",
                                "text": "Hi "
                            },
                            {
                                "type": "broadcast",
                                "range": "channel",
                                "style": {
                                    "bold": true
                                }
                            },
                            {
                                "type": "text",
                                "text": "! The channel channel "
                            },
                            {
                                "type": "channel",
                                "channel_id": "C0106TJ8ZGQ",
                                "style": {
                                    "bold": true
                                }
                            },
                            {
                                "type": "text",
                                "text": " is open. Its purpose is to"
                            },
                            {
                                "type": "text",
                                "text": " gather scientific literature",
                                "style": {
                                    "bold": true
                                }
                            },
                            {
                                "type": "text",
                                "text": ". It comes with a google sheet that will enable everyone working at program, challenge or project level to save time, and access resources more easily. Use it and modify as you wish, common tools are meant to facilitate everyone's life!\n"
                            },
                            {
                                "type": "text",
                                "text": "Link is ",
                                "style": {
                                    "bold": true
                                }
                            },
                            {
                                "type": "text",
                                "text": " "
                            },
                            {
                                "type": "emoji",
                                "name": "point_right"
                            },
                            {
                                "type": "text",
                                "text": " "
                            },
                            {
                                "type": "link",
                                "url": "https:\/\/docs.google.com\/spreadsheets\/d\/1Jhl5NRsghJfFfrKb-3tr-wnT47AdLi9XYqyvmXubfME\/edit#gid=0",
                                "text": "HERE"
                            },
                            {
                                "type": "text",
                                "text": " (do not miss the tab 2 with useful websites)\n\nP"
                            },
                            {
                                "type": "text",
                                "text": "lus, you have access to all newly published articles",
                                "style": {
                                    "bold": true
                                }
                            },
                            {
                                "type": "text",
                                "text": " "
                            },
                            {
                                "type": "link",
                                "url": "https:\/\/www.ncbi.nlm.nih.gov\/research\/coronavirus\/docsum",
                                "text": "HERE"
                            },
                            {
                                "type": "text",
                                "text": " thanks to LitCovid\/ncbi\nTake care, and talk to you later!"
                            }
                        ]
                    }
                ]
            }
        ]
    },
    {
        "client_msg_id": "8c29be9f-b756-4f82-9828-b7320733d0b1",
        "type": "message",
        "text": "Hi <!channel>, people have come to me saying they do not have access to a common shared Covid19 drive folder and that it is starting to be complicated to follow up with all the documents. Is it intentional or did they just not had access to the information? Also, I have noticed documents can't be edited or view by everyone, what is the policy about this?",
        "user": "UV9V03C8Y",
        "ts": "1584529741.238400",
        "team": "TUU48M0T1",
        "user_team": "TUU48M0T1",
        "source_team": "TUU48M0T1",
        "user_profile": {
            "avatar_hash": "177697fb7b8f",
            "image_72": "https:\/\/avatars.slack-edge.com\/2020-03-12\/996126178096_177697fb7b8ffa57649c_72.jpg",
            "first_name": "Camille",
            "real_name": "Camille Masselot - JOGL Program coordinator",
            "display_name": "Camille Masselot - JOGL coordinator",
            "team": "TUU48M0T1",
            "name": "masselot.camille",
            "is_restricted": false,
            "is_ultra_restricted": false
        },
        "blocks": [
            {
                "type": "rich_text",
                "block_id": "3Pe",
                "elements": [
                    {
                        "type": "rich_text_section",
                        "elements": [
                            {
                                "type": "text",
                                "text": "Hi "
                            },
                            {
                                "type": "broadcast",
                                "range": "channel"
                            },
                            {
                                "type": "text",
                                "text": ", people have come to me saying they do not have access to a common shared Covid19 drive folder and that it is starting to be complicated to follow up with all the documents. Is it intentional or did they just not had access to the information? Also, I have noticed documents can't be edited or view by everyone, what is the policy about this?"
                            }
                        ]
                    }
                ]
            }
        ]
    },
    {
        "client_msg_id": "18e54b11-a499-4430-a6d2-bcebff6d9e8d",
        "type": "message",
        "text": "yes, we are going to implement a new system today, we are going to have a call about that today 3pm Paris time. if interested, join on <https:\/\/zoom.us\/j\/7804345815>",
        "user": "UV02WET96",
        "ts": "1584530193.239600",
        "team": "TUU48M0T1",
        "user_team": "TUU48M0T1",
        "source_team": "TUU48M0T1",
        "user_profile": {
            "avatar_hash": "a99c74a194f8",
            "image_72": "https:\/\/avatars.slack-edge.com\/2020-03-07\/975708504851_a99c74a194f86715ca7d_72.png",
            "first_name": "Thomas",
            "real_name": "Thomas Landrain",
            "display_name": "Thomas Landrain - JOGL CoFounder \/ CEO",
            "team": "TUU48M0T1",
            "name": "thomas",
            "is_restricted": false,
            "is_ultra_restricted": false
        },
        "blocks": [
            {
                "type": "rich_text",
                "block_id": "OrjwP",
                "elements": [
                    {
                        "type": "rich_text_section",
                        "elements": [
                            {
                                "type": "text",
                                "text": "yes, we are going to implement a new system today, we are going to have a call about that today 3pm Paris time. if interested, join on "
                            },
                            {
                                "type": "link",
                                "url": "https:\/\/zoom.us\/j\/7804345815"
                            }
                        ]
                    }
                ]
            }
        ],
        "thread_ts": "1584530193.239600",
        "reply_count": 1,
        "reply_users_count": 1,
        "latest_reply": "1584536166.240700",
        "reply_users": [
            "UV9V03C8Y"
        ],
        "replies": [
            {
                "user": "UV9V03C8Y",
                "ts": "1584536166.240700"
            }
        ],
        "subscribed": false
    },
    {
        "client_msg_id": "8e04aeef-6a01-439d-b15b-cc13c008d96c",
        "type": "message",
        "text": "<@UV02WET96> Governance call today 3PM CET + All community 6PM CET ?",
        "user": "U01019BQXM3",
        "ts": "1584532652.240300",
        "team": "TUU48M0T1",
        "user_team": "TUU48M0T1",
        "source_team": "TUU48M0T1",
        "user_profile": {
            "avatar_hash": "7e0f35d8cc55",
            "image_72": "https:\/\/avatars.slack-edge.com\/2020-03-15\/988667349730_7e0f35d8cc556cd89565_72.jpg",
            "first_name": "Marc",
            "real_name": "Marc Bokobza",
            "display_name": "Marc Bokobza",
            "team": "TUU48M0T1",
            "name": "marcbokobza1",
            "is_restricted": false,
            "is_ultra_restricted": false
        },
        "blocks": [
            {
                "type": "rich_text",
                "block_id": "itj94",
                "elements": [
                    {
                        "type": "rich_text_section",
                        "elements": [
                            {
                                "type": "user",
                                "user_id": "UV02WET96"
                            },
                            {
                                "type": "text",
                                "text": " Governance call today 3PM CET + All community 6PM CET ?"
                            }
                        ]
                    }
                ]
            }
        ],
        "reactions": [
            {
                "name": "+1",
                "users": [
                    "UV02WET96",
                    "UV9V03C8Y"
                ],
                "count": 2
            }
        ]
    },
    {
        "client_msg_id": "25e0c114-46ae-4b63-9258-1b4f5871222e",
        "type": "message",
        "text": "<@UV02WET96> 3pm Paris or 4pm Paris time??",
        "user": "UV9V03C8Y",
        "ts": "1584536166.240700",
        "team": "TUU48M0T1",
        "user_team": "TUU48M0T1",
        "source_team": "TUU48M0T1",
        "user_profile": {
            "avatar_hash": "177697fb7b8f",
            "image_72": "https:\/\/avatars.slack-edge.com\/2020-03-12\/996126178096_177697fb7b8ffa57649c_72.jpg",
            "first_name": "Camille",
            "real_name": "Camille Masselot - JOGL Program coordinator",
            "display_name": "Camille Masselot - JOGL coordinator",
            "team": "TUU48M0T1",
            "name": "masselot.camille",
            "is_restricted": false,
            "is_ultra_restricted": false
        },
        "blocks": [
            {
                "type": "rich_text",
                "block_id": "IMXZ",
                "elements": [
                    {
                        "type": "rich_text_section",
                        "elements": [
                            {
                                "type": "user",
                                "user_id": "UV02WET96"
                            },
                            {
                                "type": "text",
                                "text": " 3pm Paris or 4pm Paris time??"
                            }
                        ]
                    }
                ]
            }
        ],
        "thread_ts": "1584530193.239600",
        "parent_user_id": "UV02WET96"
    },
    {
        "client_msg_id": "34f790cf-75c4-4aa8-a239-6f313d0906d2",
        "type": "message",
        "text": "<@UV9V03C8Y> Also do not hesitate to use the Documents and Ressource tabs of the Challenge and Program on JOGL !",
        "user": "UVC9WMA7N",
        "ts": "1584536232.241300",
        "team": "TUU48M0T1",
        "user_team": "TUU48M0T1",
        "source_team": "TUU48M0T1",
        "user_profile": {
            "avatar_hash": "56d14d58ed53",
            "image_72": "https:\/\/avatars.slack-edge.com\/2020-03-13\/998337892660_56d14d58ed537e6e4654_72.png",
            "first_name": "Leo",
            "real_name": "Leo Blondel",
            "display_name": "Leo Blondel - JOGL CoFounder \/ CTO",
            "team": "TUU48M0T1",
            "name": "leo",
            "is_restricted": false,
            "is_ultra_restricted": false
        },
        "blocks": [
            {
                "type": "rich_text",
                "block_id": "Eao",
                "elements": [
                    {
                        "type": "rich_text_section",
                        "elements": [
                            {
                                "type": "user",
                                "user_id": "UV9V03C8Y"
                            },
                            {
                                "type": "text",
                                "text": " Also do not hesitate to use the Documents and Ressource tabs of the Challenge and Program on JOGL !"
                            }
                        ]
                    }
                ]
            }
        ],
        "thread_ts": "1584536232.241300",
        "reply_count": 1,
        "reply_users_count": 1,
        "latest_reply": "1584536469.243200",
        "reply_users": [
            "UV9V03C8Y"
        ],
        "replies": [
            {
                "user": "UV9V03C8Y",
                "ts": "1584536469.243200"
            }
        ],
        "subscribed": false
    },
    {
        "type": "message",
        "subtype": "tombstone",
        "text": "This message was deleted.",
        "user": "USLACKBOT",
        "hidden": true,
        "ts": "1584536413.243100",
        "thread_ts": "1584536413.243100",
        "reply_count": 14,
        "reply_users_count": 3,
        "latest_reply": "1584539836.252400",
        "reply_users": [
            "UV02WET96",
            "U01019BQXM3",
            "UV0QTJCMT"
        ],
        "replies": [
            {
                "user": "UV02WET96",
                "ts": "1584536696.243400"
            },
            {
                "user": "U01019BQXM3",
                "ts": "1584537146.243600"
            },
            {
                "user": "U01019BQXM3",
                "ts": "1584537187.243800"
            },
            {
                "user": "UV0QTJCMT",
                "ts": "1584539422.245900"
            },
            {
                "user": "U01019BQXM3",
                "ts": "1584539441.246100"
            },
            {
                "user": "UV0QTJCMT",
                "ts": "1584539475.247000"
            },
            {
                "user": "U01019BQXM3",
                "ts": "1584539504.247200"
            },
            {
                "user": "U01019BQXM3",
                "ts": "1584539528.247400"
            },
            {
                "user": "UV0QTJCMT",
                "ts": "1584539541.247600"
            },
            {
                "user": "U01019BQXM3",
                "ts": "1584539546.248100"
            },
            {
                "user": "UV0QTJCMT",
                "ts": "1584539561.248700"
            },
            {
                "user": "U01019BQXM3",
                "ts": "1584539604.248900"
            },
            {
                "user": "UV0QTJCMT",
                "ts": "1584539820.252200"
            },
            {
                "user": "UV02WET96",
                "ts": "1584539836.252400"
            }
        ],
        "subscribed": false
    },
    {
        "client_msg_id": "1762b5f7-71a8-4b76-babd-16057b008e83",
        "type": "message",
        "text": "Right <@UVC9WMA7N>!",
        "user": "UV9V03C8Y",
        "ts": "1584536469.243200",
        "team": "TUU48M0T1",
        "user_team": "TUU48M0T1",
        "source_team": "TUU48M0T1",
        "user_profile": {
            "avatar_hash": "177697fb7b8f",
            "image_72": "https:\/\/avatars.slack-edge.com\/2020-03-12\/996126178096_177697fb7b8ffa57649c_72.jpg",
            "first_name": "Camille",
            "real_name": "Camille Masselot - JOGL Program coordinator",
            "display_name": "Camille Masselot - JOGL coordinator",
            "team": "TUU48M0T1",
            "name": "masselot.camille",
            "is_restricted": false,
            "is_ultra_restricted": false
        },
        "blocks": [
            {
                "type": "rich_text",
                "block_id": "z7k",
                "elements": [
                    {
                        "type": "rich_text_section",
                        "elements": [
                            {
                                "type": "text",
                                "text": "Right "
                            },
                            {
                                "type": "user",
                                "user_id": "UVC9WMA7N"
                            },
                            {
                                "type": "text",
                                "text": "!"
                            }
                        ]
                    }
                ]
            }
        ],
        "thread_ts": "1584536232.241300",
        "parent_user_id": "UVC9WMA7N"
    },
    {
        "client_msg_id": "f8a2391b-3c96-47da-b0ef-23eb863e18b8",
        "type": "message",
        "text": "it was always 3pm CET on my calendar so i don’t know",
        "user": "UV02WET96",
        "ts": "1584536696.243400",
        "team": "TUU48M0T1",
        "user_team": "TUU48M0T1",
        "source_team": "TUU48M0T1",
        "user_profile": {
            "avatar_hash": "a99c74a194f8",
            "image_72": "https:\/\/avatars.slack-edge.com\/2020-03-07\/975708504851_a99c74a194f86715ca7d_72.png",
            "first_name": "Thomas",
            "real_name": "Thomas Landrain",
            "display_name": "Thomas Landrain - JOGL CoFounder \/ CEO",
            "team": "TUU48M0T1",
            "name": "thomas",
            "is_restricted": false,
            "is_ultra_restricted": false
        },
        "blocks": [
            {
                "type": "rich_text",
                "block_id": "Jspsz",
                "elements": [
                    {
                        "type": "rich_text_section",
                        "elements": [
                            {
                                "type": "text",
                                "text": "it was always 3pm CET on my calendar so i don’t know"
                            }
                        ]
                    }
                ]
            }
        ],
        "thread_ts": "1584536413.243100",
        "parent_user_id": "UV9V03C8Y"
    },
    {
        "client_msg_id": "548c2930-0905-42fc-9187-eb4136415ecb",
        "type": "message",
        "text": "So let’s stick with 3PM",
        "user": "U01019BQXM3",
        "ts": "1584537146.243600",
        "team": "TUU48M0T1",
        "user_team": "TUU48M0T1",
        "source_team": "TUU48M0T1",
        "user_profile": {
            "avatar_hash": "7e0f35d8cc55",
            "image_72": "https:\/\/avatars.slack-edge.com\/2020-03-15\/988667349730_7e0f35d8cc556cd89565_72.jpg",
            "first_name": "Marc",
            "real_name": "Marc Bokobza",
            "display_name": "Marc Bokobza",
            "team": "TUU48M0T1",
            "name": "marcbokobza1",
            "is_restricted": false,
            "is_ultra_restricted": false
        },
        "blocks": [
            {
                "type": "rich_text",
                "block_id": "HigAY",
                "elements": [
                    {
                        "type": "rich_text_section",
                        "elements": [
                            {
                                "type": "text",
                                "text": "So let’s stick with 3PM"
                            }
                        ]
                    }
                ]
            }
        ],
        "thread_ts": "1584536413.243100",
        "parent_user_id": "UV9V03C8Y"
    },
    {
        "client_msg_id": "c1181e54-4373-48b9-8c31-a9fbdc4f1ee4",
        "type": "message",
        "text": "I’m also good with 4PM btw",
        "user": "U01019BQXM3",
        "ts": "1584537187.243800",
        "team": "TUU48M0T1",
        "user_team": "TUU48M0T1",
        "source_team": "TUU48M0T1",
        "user_profile": {
            "avatar_hash": "7e0f35d8cc55",
            "image_72": "https:\/\/avatars.slack-edge.com\/2020-03-15\/988667349730_7e0f35d8cc556cd89565_72.jpg",
            "first_name": "Marc",
            "real_name": "Marc Bokobza",
            "display_name": "Marc Bokobza",
            "team": "TUU48M0T1",
            "name": "marcbokobza1",
            "is_restricted": false,
            "is_ultra_restricted": false
        },
        "blocks": [
            {
                "type": "rich_text",
                "block_id": "qiLJ\/",
                "elements": [
                    {
                        "type": "rich_text_section",
                        "elements": [
                            {
                                "type": "text",
                                "text": "I’m also good with 4PM btw"
                            }
                        ]
                    }
                ]
            }
        ],
        "thread_ts": "1584536413.243100",
        "parent_user_id": "UV9V03C8Y"
    },
    {
        "client_msg_id": "979BE4A1-BA55-451A-9539-026131F8961A",
        "type": "message",
        "text": "wait <@UV9V03C8Y> <@UV02WET96> <@U01019BQXM3> we scheduled the governance one for friday 3\/20 at 3pm utc? ",
        "user": "UV0QTJCMT",
        "ts": "1584539422.245900",
        "team": "TUU48M0T1",
        "user_team": "TUU48M0T1",
        "source_team": "TUU48M0T1",
        "user_profile": {
            "avatar_hash": "06a6ae8f69d1",
            "image_72": "https:\/\/avatars.slack-edge.com\/2020-04-13\/1060635499315_06a6ae8f69d18f1ad464_72.png",
            "first_name": "Katherine",
            "real_name": "Katherine Holo",
            "display_name": "Kat Holo - Co-Organizer of OpenCOVID19",
            "team": "TUU48M0T1",
            "name": "katherineh245",
            "is_restricted": false,
            "is_ultra_restricted": false
        },
        "edited": {
            "user": "UV0QTJCMT",
            "ts": "1584539451.000000"
        },
        "blocks": [
            {
                "type": "rich_text",
                "block_id": "41\/HT",
                "elements": [
                    {
                        "type": "rich_text_section",
                        "elements": [
                            {
                                "type": "text",
                                "text": "wait "
                            },
                            {
                                "type": "user",
                                "user_id": "UV9V03C8Y"
                            },
                            {
                                "type": "text",
                                "text": " "
                            },
                            {
                                "type": "user",
                                "user_id": "UV02WET96"
                            },
                            {
                                "type": "text",
                                "text": " "
                            },
                            {
                                "type": "user",
                                "user_id": "U01019BQXM3"
                            },
                            {
                                "type": "text",
                                "text": " we scheduled the governance one for friday 3\/20 at 3pm utc? "
                            }
                        ]
                    }
                ]
            }
        ],
        "thread_ts": "1584536413.243100",
        "parent_user_id": "UV9V03C8Y"
    },
    {
        "client_msg_id": "023f202f-eff2-42cf-8af2-e1351cdc2303",
        "type": "message",
        "text": "I’m honestly getting lost",
        "user": "U01019BQXM3",
        "ts": "1584539441.246100",
        "team": "TUU48M0T1",
        "user_team": "TUU48M0T1",
        "source_team": "TUU48M0T1",
        "user_profile": {
            "avatar_hash": "7e0f35d8cc55",
            "image_72": "https:\/\/avatars.slack-edge.com\/2020-03-15\/988667349730_7e0f35d8cc556cd89565_72.jpg",
            "first_name": "Marc",
            "real_name": "Marc Bokobza",
            "display_name": "Marc Bokobza",
            "team": "TUU48M0T1",
            "name": "marcbokobza1",
            "is_restricted": false,
            "is_ultra_restricted": false
        },
        "blocks": [
            {
                "type": "rich_text",
                "block_id": "PWCo",
                "elements": [
                    {
                        "type": "rich_text_section",
                        "elements": [
                            {
                                "type": "text",
                                "text": "I’m honestly getting lost"
                            }
                        ]
                    }
                ]
            }
        ],
        "thread_ts": "1584536413.243100",
        "parent_user_id": "UV9V03C8Y"
    },
    {
        "client_msg_id": "66CC8717-ED80-443E-A98B-69C0638563D5",
        "type": "message",
        "text": "yeah it’s confusing but i outlines all the calls in the announcement i made to the whole group ",
        "user": "UV0QTJCMT",
        "ts": "1584539475.247000",
        "team": "TUU48M0T1",
        "user_team": "TUU48M0T1",
        "source_team": "TUU48M0T1",
        "user_profile": {
            "avatar_hash": "06a6ae8f69d1",
            "image_72": "https:\/\/avatars.slack-edge.com\/2020-04-13\/1060635499315_06a6ae8f69d18f1ad464_72.png",
            "first_name": "Katherine",
            "real_name": "Katherine Holo",
            "display_name": "Kat Holo - Co-Organizer of OpenCOVID19",
            "team": "TUU48M0T1",
            "name": "katherineh245",
            "is_restricted": false,
            "is_ultra_restricted": false
        },
        "blocks": [
            {
                "type": "rich_text",
                "block_id": "gs7",
                "elements": [
                    {
                        "type": "rich_text_section",
                        "elements": [
                            {
                                "type": "text",
                                "text": "yeah it’s confusing but i outlines all the calls in the announcement i made to the whole group "
                            }
                        ]
                    }
                ]
            }
        ],
        "thread_ts": "1584536413.243100",
        "parent_user_id": "UV9V03C8Y"
    },
    {
        "client_msg_id": "f7dab557-1903-4105-be8b-adad4ba81aed",
        "type": "message",
        "text": "Should we add a channel #Zoom-Calls-schedule ?",
        "user": "U01019BQXM3",
        "ts": "1584539504.247200",
        "team": "TUU48M0T1",
        "user_team": "TUU48M0T1",
        "source_team": "TUU48M0T1",
        "user_profile": {
            "avatar_hash": "7e0f35d8cc55",
            "image_72": "https:\/\/avatars.slack-edge.com\/2020-03-15\/988667349730_7e0f35d8cc556cd89565_72.jpg",
            "first_name": "Marc",
            "real_name": "Marc Bokobza",
            "display_name": "Marc Bokobza",
            "team": "TUU48M0T1",
            "name": "marcbokobza1",
            "is_restricted": false,
            "is_ultra_restricted": false
        },
        "blocks": [
            {
                "type": "rich_text",
                "block_id": "1o8Gt",
                "elements": [
                    {
                        "type": "rich_text_section",
                        "elements": [
                            {
                                "type": "text",
                                "text": "Should we add a channel #Zoom-Calls-schedule ?"
                            }
                        ]
                    }
                ]
            }
        ],
        "thread_ts": "1584536413.243100",
        "parent_user_id": "UV9V03C8Y"
    },
    {
        "client_msg_id": "6d53859c-205b-4b75-92ee-43636fd33bd5",
        "type": "message",
        "text": "Where only you or certain people can post",
        "user": "U01019BQXM3",
        "ts": "1584539528.247400",
        "team": "TUU48M0T1",
        "user_team": "TUU48M0T1",
        "source_team": "TUU48M0T1",
        "user_profile": {
            "avatar_hash": "7e0f35d8cc55",
            "image_72": "https:\/\/avatars.slack-edge.com\/2020-03-15\/988667349730_7e0f35d8cc556cd89565_72.jpg",
            "first_name": "Marc",
            "real_name": "Marc Bokobza",
            "display_name": "Marc Bokobza",
            "team": "TUU48M0T1",
            "name": "marcbokobza1",
            "is_restricted": false,
            "is_ultra_restricted": false
        },
        "blocks": [
            {
                "type": "rich_text",
                "block_id": "V80",
                "elements": [
                    {
                        "type": "rich_text_section",
                        "elements": [
                            {
                                "type": "text",
                                "text": "Where only you or certain people can post"
                            }
                        ]
                    }
                ]
            }
        ],
        "thread_ts": "1584536413.243100",
        "parent_user_id": "UV9V03C8Y"
    },
    {
        "type": "message",
        "text": "",
        "files": [
            {
                "id": "F010AV38BT8",
                "created": 1584539533,
                "timestamp": 1584539533,
                "name": "Image from iOS.jpg",
                "title": "Image from iOS",
                "mimetype": "image\/jpeg",
                "filetype": "jpg",
                "pretty_type": "JPEG",
                "user": "UV0QTJCMT",
                "editable": false,
                "size": 156073,
                "mode": "hosted",
                "is_external": false,
                "external_type": "",
                "is_public": true,
                "public_url_shared": false,
                "display_as_bot": false,
                "username": "",
                "url_private": "https:\/\/files.slack.com\/files-pri\/TUU48M0T1-F010AV38BT8\/image_from_ios.jpg?t=xoxe-980144714919-1106606678066-1105227127893-6f722bb664235052954ad46852628b64",
                "url_private_download": "https:\/\/files.slack.com\/files-pri\/TUU48M0T1-F010AV38BT8\/download\/image_from_ios.jpg?t=xoxe-980144714919-1106606678066-1105227127893-6f722bb664235052954ad46852628b64",
                "thumb_64": "https:\/\/files.slack.com\/files-tmb\/TUU48M0T1-F010AV38BT8-1ac0352c34\/image_from_ios_64.jpg?t=xoxe-980144714919-1106606678066-1105227127893-6f722bb664235052954ad46852628b64",
                "thumb_80": "https:\/\/files.slack.com\/files-tmb\/TUU48M0T1-F010AV38BT8-1ac0352c34\/image_from_ios_80.jpg?t=xoxe-980144714919-1106606678066-1105227127893-6f722bb664235052954ad46852628b64",
                "thumb_360": "https:\/\/files.slack.com\/files-tmb\/TUU48M0T1-F010AV38BT8-1ac0352c34\/image_from_ios_360.jpg?t=xoxe-980144714919-1106606678066-1105227127893-6f722bb664235052954ad46852628b64",
                "thumb_360_w": 202,
                "thumb_360_h": 360,
                "thumb_480": "https:\/\/files.slack.com\/files-tmb\/TUU48M0T1-F010AV38BT8-1ac0352c34\/image_from_ios_480.jpg?t=xoxe-980144714919-1106606678066-1105227127893-6f722bb664235052954ad46852628b64",
                "thumb_480_w": 270,
                "thumb_480_h": 480,
                "thumb_160": "https:\/\/files.slack.com\/files-tmb\/TUU48M0T1-F010AV38BT8-1ac0352c34\/image_from_ios_160.jpg?t=xoxe-980144714919-1106606678066-1105227127893-6f722bb664235052954ad46852628b64",
                "thumb_720": "https:\/\/files.slack.com\/files-tmb\/TUU48M0T1-F010AV38BT8-1ac0352c34\/image_from_ios_720.jpg?t=xoxe-980144714919-1106606678066-1105227127893-6f722bb664235052954ad46852628b64",
                "thumb_720_w": 405,
                "thumb_720_h": 720,
                "thumb_800": "https:\/\/files.slack.com\/files-tmb\/TUU48M0T1-F010AV38BT8-1ac0352c34\/image_from_ios_800.jpg?t=xoxe-980144714919-1106606678066-1105227127893-6f722bb664235052954ad46852628b64",
                "thumb_800_w": 450,
                "thumb_800_h": 800,
                "thumb_960": "https:\/\/files.slack.com\/files-tmb\/TUU48M0T1-F010AV38BT8-1ac0352c34\/image_from_ios_960.jpg?t=xoxe-980144714919-1106606678066-1105227127893-6f722bb664235052954ad46852628b64",
                "thumb_960_w": 540,
                "thumb_960_h": 960,
                "thumb_1024": "https:\/\/files.slack.com\/files-tmb\/TUU48M0T1-F010AV38BT8-1ac0352c34\/image_from_ios_1024.jpg?t=xoxe-980144714919-1106606678066-1105227127893-6f722bb664235052954ad46852628b64",
                "thumb_1024_w": 576,
                "thumb_1024_h": 1024,
                "image_exif_rotation": 1,
                "original_w": 750,
                "original_h": 1334,
                "thumb_tiny": "AwAwABqkOc\/407YxHy8fjTV706gBGRl5\/kaZmnnHfFMoAenencU2PHOc\/hTvk9TQAmRjoT+FRk8099vbmmUAPTv69qcEbugP41H0ozQBIRtGSi\/nUVLk4pKAP\/\/Z",
                "permalink": "https:\/\/open-covid19.slack.com\/files\/UV0QTJCMT\/F010AV38BT8\/image_from_ios.jpg",
                "permalink_public": "https:\/\/slack-files.com\/TUU48M0T1-F010AV38BT8-2f5938566e",
                "is_starred": false,
                "has_rich_preview": false
            }
        ],
        "upload": true,
        "blocks": [
            {
                "type": "rich_text",
                "block_id": "SFS",
                "elements": []
            }
        ],
        "user": "UV0QTJCMT",
        "display_as_bot": false,
        "ts": "1584539541.247600",
        "client_msg_id": "A06695E3-F1BE-4159-804F-9425BDB6198B",
        "thread_ts": "1584536413.243100",
        "parent_user_id": "UV9V03C8Y"
    },
    {
        "client_msg_id": "ddd1c9eb-9856-4c46-935f-f54e04cda010",
        "type": "message",
        "text": "I know",
        "user": "U01019BQXM3",
        "ts": "1584539546.248100",
        "team": "TUU48M0T1",
        "user_team": "TUU48M0T1",
        "source_team": "TUU48M0T1",
        "user_profile": {
            "avatar_hash": "7e0f35d8cc55",
            "image_72": "https:\/\/avatars.slack-edge.com\/2020-03-15\/988667349730_7e0f35d8cc556cd89565_72.jpg",
            "first_name": "Marc",
            "real_name": "Marc Bokobza",
            "display_name": "Marc Bokobza",
            "team": "TUU48M0T1",
            "name": "marcbokobza1",
            "is_restricted": false,
            "is_ultra_restricted": false
        },
        "blocks": [
            {
                "type": "rich_text",
                "block_id": "+5WW3",
                "elements": [
                    {
                        "type": "rich_text_section",
                        "elements": [
                            {
                                "type": "text",
                                "text": "I know"
                            }
                        ]
                    }
                ]
            }
        ],
        "thread_ts": "1584536413.243100",
        "parent_user_id": "UV9V03C8Y"
    },
    {
        "client_msg_id": "C3AB1EEE-4D4C-4B74-8E1A-7F32F5D42274",
        "type": "message",
        "text": "oh i wasn’t aware that was a channel i mean sure yea we can share it there",
        "user": "UV0QTJCMT",
        "ts": "1584539561.248700",
        "team": "TUU48M0T1",
        "user_team": "TUU48M0T1",
        "source_team": "TUU48M0T1",
        "user_profile": {
            "avatar_hash": "06a6ae8f69d1",
            "image_72": "https:\/\/avatars.slack-edge.com\/2020-04-13\/1060635499315_06a6ae8f69d18f1ad464_72.png",
            "first_name": "Katherine",
            "real_name": "Katherine Holo",
            "display_name": "Kat Holo - Co-Organizer of OpenCOVID19",
            "team": "TUU48M0T1",
            "name": "katherineh245",
            "is_restricted": false,
            "is_ultra_restricted": false
        },
        "blocks": [
            {
                "type": "rich_text",
                "block_id": "tdn",
                "elements": [
                    {
                        "type": "rich_text_section",
                        "elements": [
                            {
                                "type": "text",
                                "text": "oh i wasn’t aware that was a channel i mean sure yea we can share it there"
                            }
                        ]
                    }
                ]
            }
        ],
        "thread_ts": "1584536413.243100",
        "parent_user_id": "UV9V03C8Y"
    },
    {
        "client_msg_id": "cbb108f1-58e8-4fe5-9b77-9654b67facc5",
        "type": "message",
        "text": "Yeah, sorry, I know you put in annoucements and the post is great. Just so when you see #zoom-calls : you know directly what you expect to see",
        "user": "U01019BQXM3",
        "ts": "1584539604.248900",
        "team": "TUU48M0T1",
        "user_team": "TUU48M0T1",
        "source_team": "TUU48M0T1",
        "user_profile": {
            "avatar_hash": "7e0f35d8cc55",
            "image_72": "https:\/\/avatars.slack-edge.com\/2020-03-15\/988667349730_7e0f35d8cc556cd89565_72.jpg",
            "first_name": "Marc",
            "real_name": "Marc Bokobza",
            "display_name": "Marc Bokobza",
            "team": "TUU48M0T1",
            "name": "marcbokobza1",
            "is_restricted": false,
            "is_ultra_restricted": false
        },
        "edited": {
            "user": "U01019BQXM3",
            "ts": "1584539640.000000"
        },
        "blocks": [
            {
                "type": "rich_text",
                "block_id": "4Dt",
                "elements": [
                    {
                        "type": "rich_text_section",
                        "elements": [
                            {
                                "type": "text",
                                "text": "Yeah, sorry, I know you put in annoucements and the post is great. Just so when you see #zoom-calls : you know directly what you expect to see"
                            }
                        ]
                    }
                ]
            }
        ],
        "thread_ts": "1584536413.243100",
        "parent_user_id": "UV9V03C8Y",
        "reactions": [
            {
                "name": "+1",
                "users": [
                    "UV0QTJCMT"
                ],
                "count": 1
            }
        ]
    },
    {
        "client_msg_id": "884ffdf4-926b-430d-9c6e-49b25740439c",
        "type": "message",
        "text": "<!channel> Do we stick with now 3PM CET or another time ?",
        "user": "U01019BQXM3",
        "ts": "1584539703.249700",
        "team": "TUU48M0T1",
        "user_team": "TUU48M0T1",
        "source_team": "TUU48M0T1",
        "user_profile": {
            "avatar_hash": "7e0f35d8cc55",
            "image_72": "https:\/\/avatars.slack-edge.com\/2020-03-15\/988667349730_7e0f35d8cc556cd89565_72.jpg",
            "first_name": "Marc",
            "real_name": "Marc Bokobza",
            "display_name": "Marc Bokobza",
            "team": "TUU48M0T1",
            "name": "marcbokobza1",
            "is_restricted": false,
            "is_ultra_restricted": false
        },
        "blocks": [
            {
                "type": "rich_text",
                "block_id": "z9Bi",
                "elements": [
                    {
                        "type": "rich_text_section",
                        "elements": [
                            {
                                "type": "broadcast",
                                "range": "channel"
                            },
                            {
                                "type": "text",
                                "text": " Do we stick with now 3PM CET or another time ?"
                            }
                        ]
                    }
                ]
            }
        ]
    },
    {
        "client_msg_id": "647c6073-c614-41d4-b494-56cfe56b1109",
        "type": "message",
        "text": "3pm is better for me",
        "user": "UV02WET96",
        "ts": "1584539711.249900",
        "team": "TUU48M0T1",
        "user_team": "TUU48M0T1",
        "source_team": "TUU48M0T1",
        "user_profile": {
            "avatar_hash": "a99c74a194f8",
            "image_72": "https:\/\/avatars.slack-edge.com\/2020-03-07\/975708504851_a99c74a194f86715ca7d_72.png",
            "first_name": "Thomas",
            "real_name": "Thomas Landrain",
            "display_name": "Thomas Landrain - JOGL CoFounder \/ CEO",
            "team": "TUU48M0T1",
            "name": "thomas",
            "is_restricted": false,
            "is_ultra_restricted": false
        },
        "blocks": [
            {
                "type": "rich_text",
                "block_id": "4z7",
                "elements": [
                    {
                        "type": "rich_text_section",
                        "elements": [
                            {
                                "type": "text",
                                "text": "3pm is better for me"
                            }
                        ]
                    }
                ]
            }
        ]
    },
    {
        "client_msg_id": "63d6bcb8-4bbf-476d-9614-71c2082e225f",
        "type": "message",
        "text": "Okay, do we have a Zoom set ?",
        "user": "U01019BQXM3",
        "ts": "1584539748.250500",
        "team": "TUU48M0T1",
        "user_team": "TUU48M0T1",
        "source_team": "TUU48M0T1",
        "user_profile": {
            "avatar_hash": "7e0f35d8cc55",
            "image_72": "https:\/\/avatars.slack-edge.com\/2020-03-15\/988667349730_7e0f35d8cc556cd89565_72.jpg",
            "first_name": "Marc",
            "real_name": "Marc Bokobza",
            "display_name": "Marc Bokobza",
            "team": "TUU48M0T1",
            "name": "marcbokobza1",
            "is_restricted": false,
            "is_ultra_restricted": false
        },
        "blocks": [
            {
                "type": "rich_text",
                "block_id": "XUZ",
                "elements": [
                    {
                        "type": "rich_text_section",
                        "elements": [
                            {
                                "type": "text",
                                "text": "Okay, do we have a Zoom set ?"
                            }
                        ]
                    }
                ]
            }
        ]
    },
    {
        "client_msg_id": "4eb5a498-e648-43be-bc2b-1dcc59dd7a82",
        "type": "message",
        "text": "<https:\/\/zoom.us\/j\/7804345815>",
        "user": "UV02WET96",
        "ts": "1584539806.252000",
        "team": "TUU48M0T1",
        "user_team": "TUU48M0T1",
        "source_team": "TUU48M0T1",
        "user_profile": {
            "avatar_hash": "a99c74a194f8",
            "image_72": "https:\/\/avatars.slack-edge.com\/2020-03-07\/975708504851_a99c74a194f86715ca7d_72.png",
            "first_name": "Thomas",
            "real_name": "Thomas Landrain",
            "display_name": "Thomas Landrain - JOGL CoFounder \/ CEO",
            "team": "TUU48M0T1",
            "name": "thomas",
            "is_restricted": false,
            "is_ultra_restricted": false
        },
        "blocks": [
            {
                "type": "rich_text",
                "block_id": "L=y8",
                "elements": [
                    {
                        "type": "rich_text_section",
                        "elements": [
                            {
                                "type": "link",
                                "url": "https:\/\/zoom.us\/j\/7804345815"
                            }
                        ]
                    }
                ]
            }
        ]
    },
    {
        "client_msg_id": "DE22E370-7E93-4483-9A91-AD54D98356C5",
        "type": "message",
        "text": "<@UV02WET96> that call was for us to make the agenda for the all comm call? ",
        "user": "UV0QTJCMT",
        "ts": "1584539820.252200",
        "team": "TUU48M0T1",
        "user_team": "TUU48M0T1",
        "source_team": "TUU48M0T1",
        "user_profile": {
            "avatar_hash": "06a6ae8f69d1",
            "image_72": "https:\/\/avatars.slack-edge.com\/2020-04-13\/1060635499315_06a6ae8f69d18f1ad464_72.png",
            "first_name": "Katherine",
            "real_name": "Katherine Holo",
            "display_name": "Kat Holo - Co-Organizer of OpenCOVID19",
            "team": "TUU48M0T1",
            "name": "katherineh245",
            "is_restricted": false,
            "is_ultra_restricted": false
        },
        "blocks": [
            {
                "type": "rich_text",
                "block_id": "h+\/",
                "elements": [
                    {
                        "type": "rich_text_section",
                        "elements": [
                            {
                                "type": "user",
                                "user_id": "UV02WET96"
                            },
                            {
                                "type": "text",
                                "text": " that call was for us to make the agenda for the all comm call? "
                            }
                        ]
                    }
                ]
            }
        ],
        "thread_ts": "1584536413.243100",
        "parent_user_id": "UV9V03C8Y"
    },
    {
        "client_msg_id": "d7b23ef3-4bc7-48f2-8e96-1217d922b8b7",
        "type": "message",
        "text": "yes",
        "user": "UV02WET96",
        "ts": "1584539836.252400",
        "team": "TUU48M0T1",
        "user_team": "TUU48M0T1",
        "source_team": "TUU48M0T1",
        "user_profile": {
            "avatar_hash": "a99c74a194f8",
            "image_72": "https:\/\/avatars.slack-edge.com\/2020-03-07\/975708504851_a99c74a194f86715ca7d_72.png",
            "first_name": "Thomas",
            "real_name": "Thomas Landrain",
            "display_name": "Thomas Landrain - JOGL CoFounder \/ CEO",
            "team": "TUU48M0T1",
            "name": "thomas",
            "is_restricted": false,
            "is_ultra_restricted": false
        },
        "blocks": [
            {
                "type": "rich_text",
                "block_id": "rR8lt",
                "elements": [
                    {
                        "type": "rich_text_section",
                        "elements": [
                            {
                                "type": "text",
                                "text": "yes"
                            }
                        ]
                    }
                ]
            }
        ],
        "thread_ts": "1584536413.243100",
        "parent_user_id": "UV9V03C8Y",
        "reactions": [
            {
                "name": "+1",
                "users": [
                    "UV0QTJCMT"
                ],
                "count": 1
            }
        ]
    },
    {
        "client_msg_id": "c9564e7c-d638-4234-95f9-ee9eba576161",
        "type": "message",
        "text": "<!channel> just to clarify--we still have a call on 3\/20 3PM Paris time :slightly_smiling_face: we're just calling now to set the agenda for the all-comm call",
        "user": "UV0QTJCMT",
        "ts": "1584541121.253800",
        "team": "TUU48M0T1",
        "user_team": "TUU48M0T1",
        "source_team": "TUU48M0T1",
        "user_profile": {
            "avatar_hash": "06a6ae8f69d1",
            "image_72": "https:\/\/avatars.slack-edge.com\/2020-04-13\/1060635499315_06a6ae8f69d18f1ad464_72.png",
            "first_name": "Katherine",
            "real_name": "Katherine Holo",
            "display_name": "Kat Holo - Co-Organizer of OpenCOVID19",
            "team": "TUU48M0T1",
            "name": "katherineh245",
            "is_restricted": false,
            "is_ultra_restricted": false
        },
        "blocks": [
            {
                "type": "rich_text",
                "block_id": "71tb",
                "elements": [
                    {
                        "type": "rich_text_section",
                        "elements": [
                            {
                                "type": "broadcast",
                                "range": "channel"
                            },
                            {
                                "type": "text",
                                "text": " just to clarify--we still have a call on 3\/20 3PM Paris time "
                            },
                            {
                                "type": "emoji",
                                "name": "slightly_smiling_face"
                            },
                            {
                                "type": "text",
                                "text": " we're just calling now to set the agenda for the all-comm call"
                            }
                        ]
                    }
                ]
            }
        ],
        "reactions": [
            {
                "name": "+1",
                "users": [
                    "UV02WET96",
                    "UV9V03C8Y"
                ],
                "count": 2
            }
        ]
    },
    {
        "client_msg_id": "db0c083c-6989-4421-ad32-057554b071ab",
        "type": "message",
        "text": ":+1:",
        "user": "UVC9WMA7N",
        "ts": "1584541135.254000",
        "team": "TUU48M0T1",
        "user_team": "TUU48M0T1",
        "source_team": "TUU48M0T1",
        "user_profile": {
            "avatar_hash": "56d14d58ed53",
            "image_72": "https:\/\/avatars.slack-edge.com\/2020-03-13\/998337892660_56d14d58ed537e6e4654_72.png",
            "first_name": "Leo",
            "real_name": "Leo Blondel",
            "display_name": "Leo Blondel - JOGL CoFounder \/ CTO",
            "team": "TUU48M0T1",
            "name": "leo",
            "is_restricted": false,
            "is_ultra_restricted": false
        },
        "blocks": [
            {
                "type": "rich_text",
                "block_id": "NQ4Ty",
                "elements": [
                    {
                        "type": "rich_text_section",
                        "elements": [
                            {
                                "type": "emoji",
                                "name": "+1"
                            }
                        ]
                    }
                ]
            }
        ]
    },
    {
        "client_msg_id": "d629cacf-119f-4ed5-b6b1-6605cdeddb35",
        "type": "message",
        "text": "<https:\/\/docs.google.com\/document\/d\/13Z0COFZrd8TheXG8l_YQ4BBqW9nRhJHnY4wfHOWvBhY\/edit>",
        "user": "UVC9WMA7N",
        "ts": "1584541684.254500",
        "team": "TUU48M0T1",
        "user_team": "TUU48M0T1",
        "source_team": "TUU48M0T1",
        "user_profile": {
            "avatar_hash": "56d14d58ed53",
            "image_72": "https:\/\/avatars.slack-edge.com\/2020-03-13\/998337892660_56d14d58ed537e6e4654_72.png",
            "first_name": "Leo",
            "real_name": "Leo Blondel",
            "display_name": "Leo Blondel - JOGL CoFounder \/ CTO",
            "team": "TUU48M0T1",
            "name": "leo",
            "is_restricted": false,
            "is_ultra_restricted": false
        },
        "blocks": [
            {
                "type": "rich_text",
                "block_id": "IH1Z",
                "elements": [
                    {
                        "type": "rich_text_section",
                        "elements": [
                            {
                                "type": "link",
                                "url": "https:\/\/docs.google.com\/document\/d\/13Z0COFZrd8TheXG8l_YQ4BBqW9nRhJHnY4wfHOWvBhY\/edit"
                            }
                        ]
                    }
                ]
            }
        ]
    },
    {
        "type": "message",
        "text": "all-comm call agenda doc: <https:\/\/docs.google.com\/document\/d\/1Gs5MyQlXHMTY3FhtvN3__pNhfhjrCtneueV4whvlZck\/edit>",
        "files": [
            {
                "id": "F01093GE8C8",
                "created": 1584545479,
                "timestamp": 1584545479,
                "name": "2020-03-18 Third All-Community Call",
                "title": "2020-03-18 Third All-Community Call",
                "mimetype": "application\/vnd.google-apps.document",
                "filetype": "gdoc",
                "pretty_type": "GSuite Document",
                "user": "UV0QTJCMT",
                "editable": false,
                "size": 1697,
                "mode": "external",
                "is_external": true,
                "external_type": "gdrive",
                "is_public": true,
                "public_url_shared": false,
                "display_as_bot": false,
                "username": "",
                "url_private": "https:\/\/docs.google.com\/document\/d\/1Gs5MyQlXHMTY3FhtvN3__pNhfhjrCtneueV4whvlZck\/edit",
                "thumb_64": "https:\/\/files.slack.com\/files-tmb\/TUU48M0T1-F01093GE8C8-b314d0e331\/2020-03-18_third_all-community_call_64.png?t=xoxe-980144714919-1106606678066-1105227127893-6f722bb664235052954ad46852628b64",
                "thumb_80": "https:\/\/files.slack.com\/files-tmb\/TUU48M0T1-F01093GE8C8-b314d0e331\/2020-03-18_third_all-community_call_80.png?t=xoxe-980144714919-1106606678066-1105227127893-6f722bb664235052954ad46852628b64",
                "thumb_360": "https:\/\/files.slack.com\/files-tmb\/TUU48M0T1-F01093GE8C8-b314d0e331\/2020-03-18_third_all-community_call_360.png?t=xoxe-980144714919-1106606678066-1105227127893-6f722bb664235052954ad46852628b64",
                "thumb_360_w": 278,
                "thumb_360_h": 360,
                "thumb_480": "https:\/\/files.slack.com\/files-tmb\/TUU48M0T1-F01093GE8C8-b314d0e331\/2020-03-18_third_all-community_call_480.png?t=xoxe-980144714919-1106606678066-1105227127893-6f722bb664235052954ad46852628b64",
                "thumb_480_w": 371,
                "thumb_480_h": 480,
                "thumb_160": "https:\/\/files.slack.com\/files-tmb\/TUU48M0T1-F01093GE8C8-b314d0e331\/2020-03-18_third_all-community_call_160.png?t=xoxe-980144714919-1106606678066-1105227127893-6f722bb664235052954ad46852628b64",
                "thumb_720": "https:\/\/files.slack.com\/files-tmb\/TUU48M0T1-F01093GE8C8-b314d0e331\/2020-03-18_third_all-community_call_720.png?t=xoxe-980144714919-1106606678066-1105227127893-6f722bb664235052954ad46852628b64",
                "thumb_720_w": 557,
                "thumb_720_h": 720,
                "thumb_800": "https:\/\/files.slack.com\/files-tmb\/TUU48M0T1-F01093GE8C8-b314d0e331\/2020-03-18_third_all-community_call_800.png?t=xoxe-980144714919-1106606678066-1105227127893-6f722bb664235052954ad46852628b64",
                "thumb_800_w": 800,
                "thumb_800_h": 1035,
                "thumb_960": "https:\/\/files.slack.com\/files-tmb\/TUU48M0T1-F01093GE8C8-b314d0e331\/2020-03-18_third_all-community_call_960.png?t=xoxe-980144714919-1106606678066-1105227127893-6f722bb664235052954ad46852628b64",
                "thumb_960_w": 742,
                "thumb_960_h": 960,
                "thumb_1024": "https:\/\/files.slack.com\/files-tmb\/TUU48M0T1-F01093GE8C8-b314d0e331\/2020-03-18_third_all-community_call_1024.png?t=xoxe-980144714919-1106606678066-1105227127893-6f722bb664235052954ad46852628b64",
                "thumb_1024_w": 791,
                "thumb_1024_h": 1024,
                "image_exif_rotation": 1,
                "original_w": 800,
                "original_h": 1035,
                "thumb_tiny": "AwAwACXTppbHQZp1RnG7tRewC72\/55n8xTx0pNy+oo3D1FK6CwtFFFMAPSoz15qQ8CozyeKAHbh70oOaRc9KcPrQAUUUUAFM55xT6TaPegBoz7\/lSjOe\/wCVLj6\/nS4oAKKKKAP\/2Q==",
                "permalink": "https:\/\/open-covid19.slack.com\/files\/UV0QTJCMT\/F01093GE8C8\/2020-03-18_third_all-community_call",
                "is_starred": false,
                "external_id": "1Gs5MyQlXHMTY3FhtvN3__pNhfhjrCtneueV4whvlZck",
                "external_url": "https:\/\/docs.google.com\/document\/d\/1Gs5MyQlXHMTY3FhtvN3__pNhfhjrCtneueV4whvlZck\/edit",
                "has_rich_preview": true
            }
        ],
        "upload": false,
        "blocks": [
            {
                "type": "rich_text",
                "block_id": "g=f",
                "elements": [
                    {
                        "type": "rich_text_section",
                        "elements": [
                            {
                                "type": "text",
                                "text": "all-comm call agenda doc: "
                            },
                            {
                                "type": "link",
                                "url": "https:\/\/docs.google.com\/document\/d\/1Gs5MyQlXHMTY3FhtvN3__pNhfhjrCtneueV4whvlZck\/edit"
                            }
                        ]
                    }
                ]
            }
        ],
        "user": "UV0QTJCMT",
        "display_as_bot": false,
        "x_files": [
            "F01093GE8C8"
        ],
        "ts": "1584545477.255500",
        "client_msg_id": "d1bab310-5590-4c0e-b4a1-2a7caade13df"
    },
    {
        "client_msg_id": "67256740-091b-4e78-a607-d11001d120f3",
        "type": "message",
        "text": "Thank you all. I won´t be able to attend the community call for long but will see the recording.",
        "user": "UV8Q23Y1K",
        "ts": "1584546531.256800",
        "team": "TUU48M0T1",
        "user_team": "TUU48M0T1",
        "source_team": "TUU48M0T1",
        "user_profile": {
            "avatar_hash": "ad69759435b1",
            "image_72": "https:\/\/avatars.slack-edge.com\/2020-03-19\/998559413570_ad69759435b1ba0e6be9_72.png",
            "first_name": "",
            "real_name": "Elena Perez-Nadales",
            "display_name": "Elena Perez-Nadales",
            "team": "TUU48M0T1",
            "name": "epereznadales",
            "is_restricted": false,
            "is_ultra_restricted": false
        },
        "blocks": [
            {
                "type": "rich_text",
                "block_id": "fe6r",
                "elements": [
                    {
                        "type": "rich_text_section",
                        "elements": [
                            {
                                "type": "text",
                                "text": "Thank you all. I won´t be able to attend the community call for long but will see the recording."
                            }
                        ]
                    }
                ]
            }
        ],
        "reactions": [
            {
                "name": "+1",
                "users": [
                    "UV02WET96"
                ],
                "count": 1
            }
        ]
    },
    {
        "client_msg_id": "90de6892-3ae9-4884-9ce5-00a1c9e0bec1",
        "type": "message",
        "text": "Hi *<!here>*, I'm happy to do hotline support for those of you who are exploring Glassfrog.",
        "user": "UUWR0FJ7M",
        "ts": "1584547536.257300",
        "team": "TUU48M0T1",
        "user_team": "TUU48M0T1",
        "source_team": "TUU48M0T1",
        "user_profile": {
            "avatar_hash": "g0851a85aef5",
            "image_72": "https:\/\/secure.gravatar.com\/avatar\/0851a85aef59ee4069c5669edd21a593.jpg?s=72&d=https%3A%2F%2Fa.slack-edge.com%2Fdf10d%2Fimg%2Favatars%2Fava_0004-72.png",
            "first_name": "manuel",
            "real_name": "manuel lannaud",
            "display_name": "manu lannaud",
            "team": "TUU48M0T1",
            "name": "slack1260",
            "is_restricted": false,
            "is_ultra_restricted": false
        },
        "blocks": [
            {
                "type": "rich_text",
                "block_id": "TOU",
                "elements": [
                    {
                        "type": "rich_text_section",
                        "elements": [
                            {
                                "type": "text",
                                "text": "Hi "
                            },
                            {
                                "type": "broadcast",
                                "range": "here",
                                "style": {
                                    "bold": true
                                }
                            },
                            {
                                "type": "text",
                                "text": ", I'm happy to do hotline support for those of you who are exploring Glassfrog."
                            }
                        ]
                    }
                ]
            }
        ],
        "reactions": [
            {
                "name": "+1",
                "users": [
                    "UV02WET96"
                ],
                "count": 1
            }
        ]
    },
    {
        "client_msg_id": "768b8bee-e219-4551-b924-db1cf9a3e015",
        "type": "message",
        "text": "we just decided at Ronin on times for our all hands meetings -- smart people thing these will work best for us:",
        "user": "UV87UQ37A",
        "ts": "1584554113.259300",
        "team": "TUU48M0T1",
        "user_team": "TUU48M0T1",
        "source_team": "TUU48M0T1",
        "user_profile": {
            "avatar_hash": "g7c78d2f0258",
            "image_72": "https:\/\/secure.gravatar.com\/avatar\/7c78d2f0258f7bdf78a86301cfd6b712.jpg?s=72&d=https%3A%2F%2Fa.slack-edge.com%2Fdf10d%2Fimg%2Favatars%2Fava_0014-72.png",
            "first_name": "Victoria",
            "real_name": "Victoria Costa",
            "display_name": "Victoria Costa",
            "team": "TUU48M0T1",
            "name": "victorycoast",
            "is_restricted": false,
            "is_ultra_restricted": false
        },
        "blocks": [
            {
                "type": "rich_text",
                "block_id": "c1M",
                "elements": [
                    {
                        "type": "rich_text_section",
                        "elements": [
                            {
                                "type": "text",
                                "text": "we just decided at Ronin on times for our all hands meetings -- smart people thing these will work best for us:"
                            }
                        ]
                    }
                ]
            }
        ],
        "thread_ts": "1584398088.133800",
        "parent_user_id": "UV87UQ37A"
    },
    {
        "client_msg_id": "e7df6a41-50b9-4a78-be3a-e8401ebdfa6f",
        "type": "message",
        "text": "6 PM MT, 8 PM ET, 7 AM Bangkok; 9 AM Tokyo; 11 AM Sydney; 1 PM Christchurch; 2 PM honolulu\n\n8 AM MT; 10 AM ET; 1PM London &amp; Rome; 3 PM Cape Town; 4 PM Damascus; 5:30 Tehran; 7:30 PM Delhi",
        "user": "UV87UQ37A",
        "ts": "1584554125.259500",
        "team": "TUU48M0T1",
        "user_team": "TUU48M0T1",
        "source_team": "TUU48M0T1",
        "user_profile": {
            "avatar_hash": "g7c78d2f0258",
            "image_72": "https:\/\/secure.gravatar.com\/avatar\/7c78d2f0258f7bdf78a86301cfd6b712.jpg?s=72&d=https%3A%2F%2Fa.slack-edge.com%2Fdf10d%2Fimg%2Favatars%2Fava_0014-72.png",
            "first_name": "Victoria",
            "real_name": "Victoria Costa",
            "display_name": "Victoria Costa",
            "team": "TUU48M0T1",
            "name": "victorycoast",
            "is_restricted": false,
            "is_ultra_restricted": false
        },
        "blocks": [
            {
                "type": "rich_text",
                "block_id": "UcQp",
                "elements": [
                    {
                        "type": "rich_text_section",
                        "elements": [
                            {
                                "type": "text",
                                "text": "6 PM MT, 8 PM ET, 7 AM Bangkok; 9 AM Tokyo; 11 AM Sydney; 1 PM Christchurch; 2 PM honolulu\n\n8 AM MT; 10 AM ET; 1PM London & Rome; 3 PM Cape Town; 4 PM Damascus; 5:30 Tehran; 7:30 PM Delhi"
                            }
                        ]
                    }
                ]
            }
        ],
        "thread_ts": "1584398088.133800",
        "parent_user_id": "UV87UQ37A"
    },
    {
        "client_msg_id": "2bf97f4f-e395-41f1-b0fd-855d21c1c21e",
        "type": "message",
        "text": "Sorry I couldn't make it tonight, I've had trouble with my internet line and I only just got connectivity",
        "user": "UVD8Q035K",
        "ts": "1584558781.260700",
        "team": "TUU48M0T1",
        "user_team": "TUU48M0T1",
        "source_team": "TUU48M0T1",
        "user_profile": {
            "avatar_hash": "8b2d0f7c083b",
            "image_72": "https:\/\/avatars.slack-edge.com\/2020-03-13\/1001496871254_8b2d0f7c083b78fb0457_72.jpg",
            "first_name": "",
            "real_name": "Jonathan W. Vos",
            "display_name": "Jonathan W. Vos",
            "team": "TUU48M0T1",
            "name": "jonathan",
            "is_restricted": false,
            "is_ultra_restricted": false
        },
        "blocks": [
            {
                "type": "rich_text",
                "block_id": "Bmp",
                "elements": [
                    {
                        "type": "rich_text_section",
                        "elements": [
                            {
                                "type": "text",
                                "text": "Sorry I couldn't make it tonight, I've had trouble with my internet line and I only just got connectivity"
                            }
                        ]
                    }
                ]
            }
        ],
        "thread_ts": "1584558781.260700",
        "reply_count": 2,
        "reply_users_count": 2,
        "latest_reply": "1584581433.262500",
        "reply_users": [
            "UV0QTJCMT",
            "UVC9WMA7N"
        ],
        "replies": [
            {
                "user": "UV0QTJCMT",
                "ts": "1584558983.261700"
            },
            {
                "user": "UVC9WMA7N",
                "ts": "1584581433.262500"
            }
        ],
        "subscribed": false
    },
    {
        "client_msg_id": "14FC10D2-B81B-49D4-8C33-219DA339F9A5",
        "type": "message",
        "text": "no worries <@UVD8Q035K>! we’ll be posting the recording like always, the agenda and notes are in the announcements channel, and i’ll be posting some action items later",
        "user": "UV0QTJCMT",
        "ts": "1584558983.261700",
        "team": "TUU48M0T1",
        "user_team": "TUU48M0T1",
        "source_team": "TUU48M0T1",
        "user_profile": {
            "avatar_hash": "06a6ae8f69d1",
            "image_72": "https:\/\/avatars.slack-edge.com\/2020-04-13\/1060635499315_06a6ae8f69d18f1ad464_72.png",
            "first_name": "Katherine",
            "real_name": "Katherine Holo",
            "display_name": "Kat Holo - Co-Organizer of OpenCOVID19",
            "team": "TUU48M0T1",
            "name": "katherineh245",
            "is_restricted": false,
            "is_ultra_restricted": false
        },
        "blocks": [
            {
                "type": "rich_text",
                "block_id": "jsz",
                "elements": [
                    {
                        "type": "rich_text_section",
                        "elements": [
                            {
                                "type": "text",
                                "text": "no worries "
                            },
                            {
                                "type": "user",
                                "user_id": "UVD8Q035K"
                            },
                            {
                                "type": "text",
                                "text": "! we’ll be posting the recording like always, the agenda and notes are in the announcements channel, and i’ll be posting some action items later"
                            }
                        ]
                    }
                ]
            }
        ],
        "thread_ts": "1584558781.260700",
        "parent_user_id": "UVD8Q035K"
    },
    {
        "client_msg_id": "6daeea87-2d72-47cd-ae77-e775c507760a",
        "type": "message",
        "text": "<@UV6PMT2DQ>",
        "user": "UVC9WMA7N",
        "ts": "1584581433.262500",
        "team": "TUU48M0T1",
        "user_team": "TUU48M0T1",
        "source_team": "TUU48M0T1",
        "user_profile": {
            "avatar_hash": "56d14d58ed53",
            "image_72": "https:\/\/avatars.slack-edge.com\/2020-03-13\/998337892660_56d14d58ed537e6e4654_72.png",
            "first_name": "Leo",
            "real_name": "Leo Blondel",
            "display_name": "Leo Blondel - JOGL CoFounder \/ CTO",
            "team": "TUU48M0T1",
            "name": "leo",
            "is_restricted": false,
            "is_ultra_restricted": false
        },
        "blocks": [
            {
                "type": "rich_text",
                "block_id": "53Dr4",
                "elements": [
                    {
                        "type": "rich_text_section",
                        "elements": [
                            {
                                "type": "user",
                                "user_id": "UV6PMT2DQ"
                            }
                        ]
                    }
                ]
            }
        ],
        "thread_ts": "1584558781.260700",
        "parent_user_id": "UVD8Q035K"
    }
]