[
    {
        "type": "message",
        "text": "Hi <!channel>, ahead of our governance meeting, if you could take a look at this draft of the survey (and add comments \/ additional questions at the bottom of the document), which we’ll hopefully start conducting next week, that would be great! The document also summarizes the survey goals and has links to other similar work that is under way or completed etc.",
        "files": [
            {
                "id": "F011S08M0PK",
                "created": 1586431703,
                "timestamp": 1586431703,
                "name": "Project inventory survey - April 2020",
                "title": "Project inventory survey - April 2020",
                "mimetype": "application\/vnd.google-apps.document",
                "filetype": "gdoc",
                "pretty_type": "GSuite Document",
                "user": "U011B6VLM2A",
                "editable": false,
                "size": 4112,
                "mode": "external",
                "is_external": true,
                "external_type": "gdrive",
                "is_public": true,
                "public_url_shared": false,
                "display_as_bot": false,
                "username": "",
                "url_private": "https:\/\/docs.google.com\/document\/d\/1ki2gWqsTGF-knuZ1v-5KfuGBTwtYuGgIYa7NcH-yvHg\/edit?usp=drive_web",
                "thumb_64": "https:\/\/files.slack.com\/files-tmb\/TUU48M0T1-F011S08M0PK-8e4be54d95\/project_inventory_survey_-_april_2020_64.png?t=xoxe-980144714919-1106606678066-1105227127893-6f722bb664235052954ad46852628b64",
                "thumb_80": "https:\/\/files.slack.com\/files-tmb\/TUU48M0T1-F011S08M0PK-8e4be54d95\/project_inventory_survey_-_april_2020_80.png?t=xoxe-980144714919-1106606678066-1105227127893-6f722bb664235052954ad46852628b64",
                "thumb_360": "https:\/\/files.slack.com\/files-tmb\/TUU48M0T1-F011S08M0PK-8e4be54d95\/project_inventory_survey_-_april_2020_360.png?t=xoxe-980144714919-1106606678066-1105227127893-6f722bb664235052954ad46852628b64",
                "thumb_360_w": 278,
                "thumb_360_h": 360,
                "thumb_480": "https:\/\/files.slack.com\/files-tmb\/TUU48M0T1-F011S08M0PK-8e4be54d95\/project_inventory_survey_-_april_2020_480.png?t=xoxe-980144714919-1106606678066-1105227127893-6f722bb664235052954ad46852628b64",
                "thumb_480_w": 371,
                "thumb_480_h": 480,
                "thumb_160": "https:\/\/files.slack.com\/files-tmb\/TUU48M0T1-F011S08M0PK-8e4be54d95\/project_inventory_survey_-_april_2020_160.png?t=xoxe-980144714919-1106606678066-1105227127893-6f722bb664235052954ad46852628b64",
                "thumb_720": "https:\/\/files.slack.com\/files-tmb\/TUU48M0T1-F011S08M0PK-8e4be54d95\/project_inventory_survey_-_april_2020_720.png?t=xoxe-980144714919-1106606678066-1105227127893-6f722bb664235052954ad46852628b64",
                "thumb_720_w": 557,
                "thumb_720_h": 720,
                "thumb_800": "https:\/\/files.slack.com\/files-tmb\/TUU48M0T1-F011S08M0PK-8e4be54d95\/project_inventory_survey_-_april_2020_800.png?t=xoxe-980144714919-1106606678066-1105227127893-6f722bb664235052954ad46852628b64",
                "thumb_800_w": 800,
                "thumb_800_h": 1035,
                "thumb_960": "https:\/\/files.slack.com\/files-tmb\/TUU48M0T1-F011S08M0PK-8e4be54d95\/project_inventory_survey_-_april_2020_960.png?t=xoxe-980144714919-1106606678066-1105227127893-6f722bb664235052954ad46852628b64",
                "thumb_960_w": 742,
                "thumb_960_h": 960,
                "thumb_1024": "https:\/\/files.slack.com\/files-tmb\/TUU48M0T1-F011S08M0PK-8e4be54d95\/project_inventory_survey_-_april_2020_1024.png?t=xoxe-980144714919-1106606678066-1105227127893-6f722bb664235052954ad46852628b64",
                "thumb_1024_w": 791,
                "thumb_1024_h": 1024,
                "image_exif_rotation": 1,
                "original_w": 800,
                "original_h": 1035,
                "thumb_tiny": "AwAwACXSJxSbxQx6UYPpQAu4UbhRz70c+9AC0UDpRQAjdKZtant901HQA7Df5NOG7vTKOaAJKKKKAGv0pCTmnEZGKTYKAE3H2pQSe4o2+9KBQAtFFFAH\/9k=",
                "permalink": "https:\/\/open-covid19.slack.com\/files\/U011B6VLM2A\/F011S08M0PK\/project_inventory_survey_-_april_2020",
                "is_starred": false,
                "external_id": "1ki2gWqsTGF-knuZ1v-5KfuGBTwtYuGgIYa7NcH-yvHg",
                "external_url": "https:\/\/docs.google.com\/document\/d\/1ki2gWqsTGF-knuZ1v-5KfuGBTwtYuGgIYa7NcH-yvHg\/edit?usp=drive_web",
                "has_rich_preview": true
            }
        ],
        "upload": false,
        "blocks": [
            {
                "type": "rich_text",
                "block_id": "Kmn",
                "elements": [
                    {
                        "type": "rich_text_section",
                        "elements": [
                            {
                                "type": "text",
                                "text": "Hi "
                            },
                            {
                                "type": "broadcast",
                                "range": "channel"
                            },
                            {
                                "type": "text",
                                "text": ", ahead of our governance meeting, if you could take a look at this draft of the survey (and add comments \/ additional questions at the bottom of the document), which we’ll hopefully start conducting next week, that would be great! The document also summarizes the survey goals and has links to other similar work that is under way or completed etc."
                            }
                        ]
                    }
                ]
            }
        ],
        "user": "U011B6VLM2A",
        "display_as_bot": false,
        "ts": "1586436682.210400",
        "edited": {
            "user": "U011B6VLM2A",
            "ts": "1586436690.000000"
        },
        "thread_ts": "1586436682.210400",
        "reply_count": 2,
        "reply_users_count": 1,
        "latest_reply": "1586463710.219200",
        "reply_users": [
            "UV9V03C8Y"
        ],
        "replies": [
            {
                "user": "UV9V03C8Y",
                "ts": "1586455125.212100"
            },
            {
                "user": "UV9V03C8Y",
                "ts": "1586463710.219200"
            }
        ],
        "subscribed": false,
        "reactions": [
            {
                "name": "+1",
                "users": [
                    "UV9V03C8Y"
                ],
                "count": 1
            }
        ]
    },
    {
        "client_msg_id": "639b5663-fc72-4955-a9cd-866ba57d2942",
        "type": "message",
        "text": "<@UV87UQ37A> <@UV0QTJCMT> <@UUWR0FJ7M> Thank you for sharing. I have to tell you, this look pretty cool. I'll look deeper into, but it certainly could be a good format.",
        "user": "U01072UT127",
        "ts": "1586452571.211700",
        "team": "TUU48M0T1",
        "user_team": "TUU48M0T1",
        "source_team": "TUU48M0T1",
        "user_profile": {
            "avatar_hash": "65a47b12fd55",
            "image_72": "https:\/\/avatars.slack-edge.com\/2020-03-23\/1018603039072_65a47b12fd55dde2b3ca_72.jpg",
            "first_name": "David",
            "real_name": "David Suter",
            "display_name": "David Suter",
            "team": "TUU48M0T1",
            "name": "davidsuter01",
            "is_restricted": false,
            "is_ultra_restricted": false
        },
        "blocks": [
            {
                "type": "rich_text",
                "block_id": "ZMtTJ",
                "elements": [
                    {
                        "type": "rich_text_section",
                        "elements": [
                            {
                                "type": "user",
                                "user_id": "UV87UQ37A"
                            },
                            {
                                "type": "text",
                                "text": " "
                            },
                            {
                                "type": "user",
                                "user_id": "UV0QTJCMT"
                            },
                            {
                                "type": "text",
                                "text": " "
                            },
                            {
                                "type": "user",
                                "user_id": "UUWR0FJ7M"
                            },
                            {
                                "type": "text",
                                "text": " Thank you for sharing. I have to tell you, this look pretty cool. I'll look deeper into, but it certainly could be a good format."
                            }
                        ]
                    }
                ]
            }
        ],
        "thread_ts": "1586310771.170800",
        "parent_user_id": "UUWR0FJ7M"
    },
    {
        "client_msg_id": "ad8d925e-c0e0-4e61-bcbb-71fc2b782657",
        "type": "message",
        "text": "Thanks <@U011B6VLM2A>! I'll have a look at it prior to the meeting",
        "user": "UV9V03C8Y",
        "ts": "1586455125.212100",
        "team": "TUU48M0T1",
        "user_team": "TUU48M0T1",
        "source_team": "TUU48M0T1",
        "user_profile": {
            "avatar_hash": "177697fb7b8f",
            "image_72": "https:\/\/avatars.slack-edge.com\/2020-03-12\/996126178096_177697fb7b8ffa57649c_72.jpg",
            "first_name": "Camille",
            "real_name": "Camille Masselot - JOGL Program coordinator",
            "display_name": "Camille Masselot - JOGL coordinator",
            "team": "TUU48M0T1",
            "name": "masselot.camille",
            "is_restricted": false,
            "is_ultra_restricted": false
        },
        "blocks": [
            {
                "type": "rich_text",
                "block_id": "Zb7",
                "elements": [
                    {
                        "type": "rich_text_section",
                        "elements": [
                            {
                                "type": "text",
                                "text": "Thanks "
                            },
                            {
                                "type": "user",
                                "user_id": "U011B6VLM2A"
                            },
                            {
                                "type": "text",
                                "text": "! I'll have a look at it prior to the meeting"
                            }
                        ]
                    }
                ]
            }
        ],
        "thread_ts": "1586436682.210400",
        "parent_user_id": "U011B6VLM2A"
    },
    {
        "type": "message",
        "text": "Hi <!here>, for *those interested in ONBOARDING PROCESS,* I'd like to brainstorm the avenues for its amelioration so that we can take actions. <@UV87UQ37A> <@UV85V64SD> <@UV2SC7ZE3> <@U0108UAAUQM> <@UV0QTJCMT> - and everyone else\n<https:\/\/docs.google.com\/document\/d\/1TDDpepQYorDm9FNa0_UZe_tFbFOhrwC6R8P5YtY8pj4\/edit#|Here is the document>",
        "files": [
            {
                "id": "F011M67JB7F",
                "created": 1586455370,
                "timestamp": 1586455370,
                "name": "Onboarding Process",
                "title": "Onboarding Process",
                "mimetype": "application\/vnd.google-apps.document",
                "filetype": "gdoc",
                "pretty_type": "GSuite Document",
                "user": "UV9V03C8Y",
                "editable": false,
                "size": 1733,
                "mode": "external",
                "is_external": true,
                "external_type": "gdrive",
                "is_public": true,
                "public_url_shared": false,
                "display_as_bot": false,
                "username": "",
                "url_private": "https:\/\/docs.google.com\/document\/d\/1TDDpepQYorDm9FNa0_UZe_tFbFOhrwC6R8P5YtY8pj4\/edit#",
                "thumb_64": "https:\/\/files.slack.com\/files-tmb\/TUU48M0T1-F011M67JB7F-cc283aa068\/onboarding_process_64.png?t=xoxe-980144714919-1106606678066-1105227127893-6f722bb664235052954ad46852628b64",
                "thumb_80": "https:\/\/files.slack.com\/files-tmb\/TUU48M0T1-F011M67JB7F-cc283aa068\/onboarding_process_80.png?t=xoxe-980144714919-1106606678066-1105227127893-6f722bb664235052954ad46852628b64",
                "thumb_360": "https:\/\/files.slack.com\/files-tmb\/TUU48M0T1-F011M67JB7F-cc283aa068\/onboarding_process_360.png?t=xoxe-980144714919-1106606678066-1105227127893-6f722bb664235052954ad46852628b64",
                "thumb_360_w": 255,
                "thumb_360_h": 360,
                "thumb_480": "https:\/\/files.slack.com\/files-tmb\/TUU48M0T1-F011M67JB7F-cc283aa068\/onboarding_process_480.png?t=xoxe-980144714919-1106606678066-1105227127893-6f722bb664235052954ad46852628b64",
                "thumb_480_w": 340,
                "thumb_480_h": 480,
                "thumb_160": "https:\/\/files.slack.com\/files-tmb\/TUU48M0T1-F011M67JB7F-cc283aa068\/onboarding_process_160.png?t=xoxe-980144714919-1106606678066-1105227127893-6f722bb664235052954ad46852628b64",
                "thumb_720": "https:\/\/files.slack.com\/files-tmb\/TUU48M0T1-F011M67JB7F-cc283aa068\/onboarding_process_720.png?t=xoxe-980144714919-1106606678066-1105227127893-6f722bb664235052954ad46852628b64",
                "thumb_720_w": 509,
                "thumb_720_h": 720,
                "thumb_800": "https:\/\/files.slack.com\/files-tmb\/TUU48M0T1-F011M67JB7F-cc283aa068\/onboarding_process_800.png?t=xoxe-980144714919-1106606678066-1105227127893-6f722bb664235052954ad46852628b64",
                "thumb_800_w": 800,
                "thumb_800_h": 1131,
                "thumb_960": "https:\/\/files.slack.com\/files-tmb\/TUU48M0T1-F011M67JB7F-cc283aa068\/onboarding_process_960.png?t=xoxe-980144714919-1106606678066-1105227127893-6f722bb664235052954ad46852628b64",
                "thumb_960_w": 679,
                "thumb_960_h": 960,
                "thumb_1024": "https:\/\/files.slack.com\/files-tmb\/TUU48M0T1-F011M67JB7F-cc283aa068\/onboarding_process_1024.png?t=xoxe-980144714919-1106606678066-1105227127893-6f722bb664235052954ad46852628b64",
                "thumb_1024_w": 724,
                "thumb_1024_h": 1024,
                "image_exif_rotation": 1,
                "original_w": 800,
                "original_h": 1131,
                "thumb_tiny": "AwAwACHTyPWm7j6D86MHPakIPagBdx9vzpQc03nHSlBoAdRRRQA35c89aQ4p2Pc0hAHXmgBBjtzTu1IORxQDmgB1FFFABQRnrRRQA1uBxxQB7mnUUAFFFFAH\/9k=",
                "permalink": "https:\/\/open-covid19.slack.com\/files\/UV9V03C8Y\/F011M67JB7F\/onboarding_process",
                "is_starred": false,
                "external_id": "1TDDpepQYorDm9FNa0_UZe_tFbFOhrwC6R8P5YtY8pj4",
                "external_url": "https:\/\/docs.google.com\/document\/d\/1TDDpepQYorDm9FNa0_UZe_tFbFOhrwC6R8P5YtY8pj4\/edit#",
                "has_rich_preview": true
            }
        ],
        "upload": false,
        "blocks": [
            {
                "type": "rich_text",
                "block_id": "JyN",
                "elements": [
                    {
                        "type": "rich_text_section",
                        "elements": [
                            {
                                "type": "text",
                                "text": "Hi "
                            },
                            {
                                "type": "broadcast",
                                "range": "here"
                            },
                            {
                                "type": "text",
                                "text": ", for "
                            },
                            {
                                "type": "text",
                                "text": "those interested in ONBOARDING PROCESS,",
                                "style": {
                                    "bold": true
                                }
                            },
                            {
                                "type": "text",
                                "text": " I'd like to brainstorm the avenues for its amelioration so that we can take actions. "
                            },
                            {
                                "type": "user",
                                "user_id": "UV87UQ37A"
                            },
                            {
                                "type": "text",
                                "text": " "
                            },
                            {
                                "type": "user",
                                "user_id": "UV85V64SD"
                            },
                            {
                                "type": "text",
                                "text": " "
                            },
                            {
                                "type": "user",
                                "user_id": "UV2SC7ZE3"
                            },
                            {
                                "type": "text",
                                "text": " "
                            },
                            {
                                "type": "user",
                                "user_id": "U0108UAAUQM"
                            },
                            {
                                "type": "text",
                                "text": " "
                            },
                            {
                                "type": "user",
                                "user_id": "UV0QTJCMT"
                            },
                            {
                                "type": "text",
                                "text": " - and everyone else\n"
                            },
                            {
                                "type": "link",
                                "url": "https:\/\/docs.google.com\/document\/d\/1TDDpepQYorDm9FNa0_UZe_tFbFOhrwC6R8P5YtY8pj4\/edit#",
                                "text": "Here is the document"
                            }
                        ]
                    }
                ]
            }
        ],
        "user": "UV9V03C8Y",
        "display_as_bot": false,
        "x_files": [
            "F011M67JB7F"
        ],
        "ts": "1586455368.215000",
        "client_msg_id": "700ac329-89fc-422d-8be0-7552a6d99296",
        "thread_ts": "1586455368.215000",
        "reply_count": 4,
        "reply_users_count": 4,
        "latest_reply": "1586491487.220300",
        "reply_users": [
            "U010HTBUHS9",
            "U010GFNDDL4",
            "UV9V03C8Y",
            "UV0QTJCMT"
        ],
        "replies": [
            {
                "user": "U010HTBUHS9",
                "ts": "1586455837.215700"
            },
            {
                "user": "U010GFNDDL4",
                "ts": "1586458850.215900"
            },
            {
                "user": "UV9V03C8Y",
                "ts": "1586463685.219000"
            },
            {
                "user": "UV0QTJCMT",
                "ts": "1586491487.220300"
            }
        ],
        "subscribed": false
    },
    {
        "client_msg_id": "e22141a8-d2d7-4c13-9949-e564ea2808fc",
        "type": "message",
        "text": "This is a great start - I look forward to discussing and really like the hola visualization!",
        "user": "U010HTBUHS9",
        "ts": "1586455837.215700",
        "team": "TUU48M0T1",
        "user_team": "TUU48M0T1",
        "source_team": "TUU48M0T1",
        "user_profile": {
            "avatar_hash": "e7bdbebff0d9",
            "image_72": "https:\/\/avatars.slack-edge.com\/2020-03-22\/1017951251813_e7bdbebff0d9ad1e8f12_72.jpg",
            "first_name": "",
            "real_name": "Adam Arabian",
            "display_name": "Adam Arabian",
            "team": "TUU48M0T1",
            "name": "adam.arabian",
            "is_restricted": false,
            "is_ultra_restricted": false
        },
        "blocks": [
            {
                "type": "rich_text",
                "block_id": "wLszS",
                "elements": [
                    {
                        "type": "rich_text_section",
                        "elements": [
                            {
                                "type": "text",
                                "text": "This is a great start - I look forward to discussing and really like the hola visualization!"
                            }
                        ]
                    }
                ]
            }
        ],
        "thread_ts": "1586455368.215000",
        "parent_user_id": "UV9V03C8Y"
    },
    {
        "client_msg_id": "cd601c51-12fb-4826-a132-3827713ca553",
        "type": "message",
        "text": "For question 1, how about adding a decidedly low-tech solution:  Pick five or ten \"top level\" channels, and put their names and descriptions in the onbording documentation.  Make sure these channels have a description in slack.\n\nTo give a concrete example of a problem this would solve:  prgm-dev-team and proj-dev-open-source-resources seem like they overlap.  Which one is intended to be the \"go to\" place for technical issues across different projects?  Which came first?  What was the thinking behind creating the second?\n\nIf we picked a set of channels as \"primary,\" identified them in the onboarding process, and made sure they had clear and accurate descriptions, this might help avoid overlapping\/conflicting channels.",
        "user": "U010GFNDDL4",
        "ts": "1586458850.215900",
        "team": "TUU48M0T1",
        "user_team": "TUU48M0T1",
        "source_team": "TUU48M0T1",
        "user_profile": {
            "avatar_hash": "b056393f8b03",
            "image_72": "https:\/\/avatars.slack-edge.com\/2020-03-21\/1017096790757_b056393f8b03bb5aef51_72.jpg",
            "first_name": "",
            "real_name": "Bill Foote",
            "display_name": "Bill Foote",
            "team": "TUU48M0T1",
            "name": "billf",
            "is_restricted": false,
            "is_ultra_restricted": false
        },
        "blocks": [
            {
                "type": "rich_text",
                "block_id": "t8E\/",
                "elements": [
                    {
                        "type": "rich_text_section",
                        "elements": [
                            {
                                "type": "text",
                                "text": "For question 1, how about adding a decidedly low-tech solution:  Pick five or ten \"top level\" channels, and put their names and descriptions in the onbording documentation.  Make sure these channels have a description in slack.\n\nTo give a concrete example of a problem this would solve:  prgm-dev-team and proj-dev-open-source-resources seem like they overlap.  Which one is intended to be the \"go to\" place for technical issues across different projects?  Which came first?  What was the thinking behind creating the second?\n\nIf we picked a set of channels as \"primary,\" identified them in the onboarding process, and made sure they had clear and accurate descriptions, this might help avoid overlapping\/conflicting channels."
                            }
                        ]
                    }
                ]
            }
        ],
        "thread_ts": "1586455368.215000",
        "parent_user_id": "UV9V03C8Y",
        "reactions": [
            {
                "name": "+1",
                "users": [
                    "UV9V03C8Y"
                ],
                "count": 1
            }
        ]
    },
    {
        "client_msg_id": "8129cfdf-0b89-4c99-ab8b-a208c9c04585",
        "type": "message",
        "text": "Are people in the meeting ok? I can’t seem to get in.",
        "user": "U0108UAAUQM",
        "ts": "1586459696.216300",
        "team": "TUU48M0T1",
        "user_team": "TUU48M0T1",
        "source_team": "TUU48M0T1",
        "user_profile": {
            "avatar_hash": "8c169aed81a4",
            "image_72": "https:\/\/avatars.slack-edge.com\/2020-03-25\/1026926917366_8c169aed81a4dabd872c_72.jpg",
            "first_name": "Robert",
            "real_name": "Robert Ward",
            "display_name": "Robbie Ward",
            "team": "TUU48M0T1",
            "name": "rward48",
            "is_restricted": false,
            "is_ultra_restricted": false
        },
        "blocks": [
            {
                "type": "rich_text",
                "block_id": "aKqf",
                "elements": [
                    {
                        "type": "rich_text_section",
                        "elements": [
                            {
                                "type": "text",
                                "text": "Are people in the meeting ok? I can’t seem to get in."
                            }
                        ]
                    }
                ]
            }
        ],
        "thread_ts": "1586459696.216300",
        "reply_count": 5,
        "reply_users_count": 2,
        "latest_reply": "1586460133.218200",
        "reply_users": [
            "UV2SC7ZE3",
            "U0108UAAUQM"
        ],
        "replies": [
            {
                "user": "UV2SC7ZE3",
                "ts": "1586459915.216400"
            },
            {
                "user": "U0108UAAUQM",
                "ts": "1586459990.216900"
            },
            {
                "user": "UV2SC7ZE3",
                "ts": "1586460013.217100"
            },
            {
                "user": "U0108UAAUQM",
                "ts": "1586460068.218000"
            },
            {
                "user": "U0108UAAUQM",
                "ts": "1586460133.218200"
            }
        ],
        "subscribed": false
    },
    {
        "client_msg_id": "dc2c7520-ecc4-4292-a600-b0ffd42bca51",
        "type": "message",
        "text": "Did you use the password 123456",
        "user": "UV2SC7ZE3",
        "ts": "1586459915.216400",
        "team": "TUU48M0T1",
        "user_team": "TUU48M0T1",
        "source_team": "TUU48M0T1",
        "user_profile": {
            "avatar_hash": "d28dd0d076e8",
            "image_72": "https:\/\/avatars.slack-edge.com\/2020-03-14\/987873094258_d28dd0d076e8fa9a8409_72.png",
            "first_name": "David",
            "real_name": "David Lu",
            "display_name": "David Lu",
            "team": "TUU48M0T1",
            "name": "ludavidyi",
            "is_restricted": false,
            "is_ultra_restricted": false
        },
        "edited": {
            "user": "UV2SC7ZE3",
            "ts": "1586459919.000000"
        },
        "blocks": [
            {
                "type": "rich_text",
                "block_id": "boe",
                "elements": [
                    {
                        "type": "rich_text_section",
                        "elements": [
                            {
                                "type": "text",
                                "text": "Did you use the password 123456"
                            }
                        ]
                    }
                ]
            }
        ],
        "thread_ts": "1586459696.216300",
        "parent_user_id": "U0108UAAUQM"
    },
    {
        "client_msg_id": "A3F1AB44-9CAC-42CD-8712-8981BF00F3D3",
        "type": "message",
        "text": "Yeah :thinking_face:",
        "user": "U0108UAAUQM",
        "ts": "1586459990.216900",
        "team": "TUU48M0T1",
        "user_team": "TUU48M0T1",
        "source_team": "TUU48M0T1",
        "user_profile": {
            "avatar_hash": "8c169aed81a4",
            "image_72": "https:\/\/avatars.slack-edge.com\/2020-03-25\/1026926917366_8c169aed81a4dabd872c_72.jpg",
            "first_name": "Robert",
            "real_name": "Robert Ward",
            "display_name": "Robbie Ward",
            "team": "TUU48M0T1",
            "name": "rward48",
            "is_restricted": false,
            "is_ultra_restricted": false
        },
        "blocks": [
            {
                "type": "rich_text",
                "block_id": "doOS",
                "elements": [
                    {
                        "type": "rich_text_section",
                        "elements": [
                            {
                                "type": "text",
                                "text": "Yeah "
                            },
                            {
                                "type": "emoji",
                                "name": "thinking_face"
                            }
                        ]
                    }
                ]
            }
        ],
        "thread_ts": "1586459696.216300",
        "parent_user_id": "U0108UAAUQM"
    },
    {
        "client_msg_id": "a479a89e-c03f-45e6-a020-4373671e9b04",
        "type": "message",
        "text": "And you used this link: <https:\/\/zoom.us\/j\/7804345815>",
        "user": "UV2SC7ZE3",
        "ts": "1586460013.217100",
        "team": "TUU48M0T1",
        "user_team": "TUU48M0T1",
        "source_team": "TUU48M0T1",
        "user_profile": {
            "avatar_hash": "d28dd0d076e8",
            "image_72": "https:\/\/avatars.slack-edge.com\/2020-03-14\/987873094258_d28dd0d076e8fa9a8409_72.png",
            "first_name": "David",
            "real_name": "David Lu",
            "display_name": "David Lu",
            "team": "TUU48M0T1",
            "name": "ludavidyi",
            "is_restricted": false,
            "is_ultra_restricted": false
        },
        "blocks": [
            {
                "type": "rich_text",
                "block_id": "p+q4a",
                "elements": [
                    {
                        "type": "rich_text_section",
                        "elements": [
                            {
                                "type": "text",
                                "text": "And you used this link: "
                            },
                            {
                                "type": "link",
                                "url": "https:\/\/zoom.us\/j\/7804345815"
                            }
                        ]
                    }
                ]
            }
        ],
        "thread_ts": "1586459696.216300",
        "parent_user_id": "U0108UAAUQM"
    },
    {
        "client_msg_id": "312B6193-73C8-420C-B0C6-C389BA73E775",
        "type": "message",
        "text": "Yep.  Tried restarting my computer will check again in a sec",
        "user": "U0108UAAUQM",
        "ts": "1586460068.218000",
        "team": "TUU48M0T1",
        "user_team": "TUU48M0T1",
        "source_team": "TUU48M0T1",
        "user_profile": {
            "avatar_hash": "8c169aed81a4",
            "image_72": "https:\/\/avatars.slack-edge.com\/2020-03-25\/1026926917366_8c169aed81a4dabd872c_72.jpg",
            "first_name": "Robert",
            "real_name": "Robert Ward",
            "display_name": "Robbie Ward",
            "team": "TUU48M0T1",
            "name": "rward48",
            "is_restricted": false,
            "is_ultra_restricted": false
        },
        "blocks": [
            {
                "type": "rich_text",
                "block_id": "Ss8t4",
                "elements": [
                    {
                        "type": "rich_text_section",
                        "elements": [
                            {
                                "type": "text",
                                "text": "Yep.  Tried restarting my computer will check again in a sec"
                            }
                        ]
                    }
                ]
            }
        ],
        "thread_ts": "1586459696.216300",
        "parent_user_id": "U0108UAAUQM"
    },
    {
        "client_msg_id": "89e51ec0-441f-4acc-90df-6c78fb9b7849",
        "type": "message",
        "text": "no luck :disappointed:",
        "user": "U0108UAAUQM",
        "ts": "1586460133.218200",
        "team": "TUU48M0T1",
        "user_team": "TUU48M0T1",
        "source_team": "TUU48M0T1",
        "user_profile": {
            "avatar_hash": "8c169aed81a4",
            "image_72": "https:\/\/avatars.slack-edge.com\/2020-03-25\/1026926917366_8c169aed81a4dabd872c_72.jpg",
            "first_name": "Robert",
            "real_name": "Robert Ward",
            "display_name": "Robbie Ward",
            "team": "TUU48M0T1",
            "name": "rward48",
            "is_restricted": false,
            "is_ultra_restricted": false
        },
        "blocks": [
            {
                "type": "rich_text",
                "block_id": "htri",
                "elements": [
                    {
                        "type": "rich_text_section",
                        "elements": [
                            {
                                "type": "text",
                                "text": "no luck "
                            },
                            {
                                "type": "emoji",
                                "name": "disappointed"
                            }
                        ]
                    }
                ]
            }
        ],
        "thread_ts": "1586459696.216300",
        "parent_user_id": "U0108UAAUQM"
    },
    {
        "type": "message",
        "subtype": "channel_topic",
        "ts": "1586462519.218500",
        "user": "UV87UQ37A",
        "text": "<@UV87UQ37A> set the channel topic: Guidance, framework and clarity of organization for Opencovid19.\nWeekly meetings: Mondays 2PM UTC - Thursday 7PM UTC\nZoom: <https:\/\/zoom.us\/j\/7804345815> ;  123456\n<https:\/\/drive.google.com\/drive\/folders\/1NiDvsMBfIZd29ptxvZCKZL0rxWAW53bp?usp=sharing>",
        "topic": "Guidance, framework and clarity of organization for Opencovid19.\nWeekly meetings: Mondays 2PM UTC - Thursday 7PM UTC\nZoom: <https:\/\/zoom.us\/j\/7804345815> ;  123456\n<https:\/\/drive.google.com\/drive\/folders\/1NiDvsMBfIZd29ptxvZCKZL0rxWAW53bp?usp=sharing>"
    },
    {
        "client_msg_id": "aa1b64a8-b165-43eb-aeca-700d17923bad",
        "type": "message",
        "text": "that had the wrong password",
        "user": "UV87UQ37A",
        "ts": "1586462531.218700",
        "team": "TUU48M0T1",
        "user_team": "TUU48M0T1",
        "source_team": "TUU48M0T1",
        "user_profile": {
            "avatar_hash": "g7c78d2f0258",
            "image_72": "https:\/\/secure.gravatar.com\/avatar\/7c78d2f0258f7bdf78a86301cfd6b712.jpg?s=72&d=https%3A%2F%2Fa.slack-edge.com%2Fdf10d%2Fimg%2Favatars%2Fava_0014-72.png",
            "first_name": "Victoria",
            "real_name": "Victoria Costa",
            "display_name": "Victoria Costa",
            "team": "TUU48M0T1",
            "name": "victorycoast",
            "is_restricted": false,
            "is_ultra_restricted": false
        },
        "blocks": [
            {
                "type": "rich_text",
                "block_id": "Xex",
                "elements": [
                    {
                        "type": "rich_text_section",
                        "elements": [
                            {
                                "type": "text",
                                "text": "that had the wrong password"
                            }
                        ]
                    }
                ]
            }
        ],
        "reactions": [
            {
                "name": "heart",
                "users": [
                    "UV9V03C8Y"
                ],
                "count": 1
            }
        ]
    },
    {
        "client_msg_id": "8e64e19a-98f3-48ca-9b05-4515d9af51f7",
        "type": "message",
        "text": "Completly agree <@U010GFNDDL4> , we should anyway work on the onboarding document. I think <@UV2SC7ZE3> was keen to do that I well if I am not misunderstanding :slightly_smiling_face:",
        "user": "UV9V03C8Y",
        "ts": "1586463685.219000",
        "team": "TUU48M0T1",
        "user_team": "TUU48M0T1",
        "source_team": "TUU48M0T1",
        "user_profile": {
            "avatar_hash": "177697fb7b8f",
            "image_72": "https:\/\/avatars.slack-edge.com\/2020-03-12\/996126178096_177697fb7b8ffa57649c_72.jpg",
            "first_name": "Camille",
            "real_name": "Camille Masselot - JOGL Program coordinator",
            "display_name": "Camille Masselot - JOGL coordinator",
            "team": "TUU48M0T1",
            "name": "masselot.camille",
            "is_restricted": false,
            "is_ultra_restricted": false
        },
        "blocks": [
            {
                "type": "rich_text",
                "block_id": "oIGK",
                "elements": [
                    {
                        "type": "rich_text_section",
                        "elements": [
                            {
                                "type": "text",
                                "text": "Completly agree "
                            },
                            {
                                "type": "user",
                                "user_id": "U010GFNDDL4"
                            },
                            {
                                "type": "text",
                                "text": " , we should anyway work on the onboarding document. I think "
                            },
                            {
                                "type": "user",
                                "user_id": "UV2SC7ZE3"
                            },
                            {
                                "type": "text",
                                "text": " was keen to do that I well if I am not misunderstanding "
                            },
                            {
                                "type": "emoji",
                                "name": "slightly_smiling_face"
                            }
                        ]
                    }
                ]
            }
        ],
        "thread_ts": "1586455368.215000",
        "parent_user_id": "UV9V03C8Y"
    },
    {
        "client_msg_id": "56ad8901-90d4-4967-a2c8-7299d98ddd87",
        "type": "message",
        "text": "<@UVC9WMA7N> <@UV85V64SD> could you please have a look at it?",
        "user": "UV9V03C8Y",
        "ts": "1586463710.219200",
        "team": "TUU48M0T1",
        "user_team": "TUU48M0T1",
        "source_team": "TUU48M0T1",
        "user_profile": {
            "avatar_hash": "177697fb7b8f",
            "image_72": "https:\/\/avatars.slack-edge.com\/2020-03-12\/996126178096_177697fb7b8ffa57649c_72.jpg",
            "first_name": "Camille",
            "real_name": "Camille Masselot - JOGL Program coordinator",
            "display_name": "Camille Masselot - JOGL coordinator",
            "team": "TUU48M0T1",
            "name": "masselot.camille",
            "is_restricted": false,
            "is_ultra_restricted": false
        },
        "blocks": [
            {
                "type": "rich_text",
                "block_id": "74=",
                "elements": [
                    {
                        "type": "rich_text_section",
                        "elements": [
                            {
                                "type": "user",
                                "user_id": "UVC9WMA7N"
                            },
                            {
                                "type": "text",
                                "text": " "
                            },
                            {
                                "type": "user",
                                "user_id": "UV85V64SD"
                            },
                            {
                                "type": "text",
                                "text": " could you please have a look at it?"
                            }
                        ]
                    }
                ]
            }
        ],
        "thread_ts": "1586436682.210400",
        "parent_user_id": "U011B6VLM2A"
    },
    {
        "client_msg_id": "6e3d1ae8-71eb-4ad9-9b62-b32d1188b78e",
        "type": "message",
        "text": "On my calendar now - I'll make the next one.  Sorry.",
        "user": "U010HTBUHS9",
        "ts": "1586465164.219700",
        "team": "TUU48M0T1",
        "user_team": "TUU48M0T1",
        "source_team": "TUU48M0T1",
        "user_profile": {
            "avatar_hash": "e7bdbebff0d9",
            "image_72": "https:\/\/avatars.slack-edge.com\/2020-03-22\/1017951251813_e7bdbebff0d9ad1e8f12_72.jpg",
            "first_name": "",
            "real_name": "Adam Arabian",
            "display_name": "Adam Arabian",
            "team": "TUU48M0T1",
            "name": "adam.arabian",
            "is_restricted": false,
            "is_ultra_restricted": false
        },
        "blocks": [
            {
                "type": "rich_text",
                "block_id": "5Jzy",
                "elements": [
                    {
                        "type": "rich_text_section",
                        "elements": [
                            {
                                "type": "text",
                                "text": "On my calendar now - I'll make the next one.  Sorry."
                            }
                        ]
                    }
                ]
            }
        ]
    },
    {
        "client_msg_id": "7d44c671-6ef9-4f45-b721-56ce0c633ccf",
        "type": "message",
        "text": "hey, sorry wasn't able to make the call (my classes overlap with the calls) but i left some comments on the document, it might just be stuff that i'm unclear on though :slightly_smiling_face:",
        "user": "UV0QTJCMT",
        "ts": "1586491487.220300",
        "team": "TUU48M0T1",
        "user_team": "TUU48M0T1",
        "source_team": "TUU48M0T1",
        "user_profile": {
            "avatar_hash": "06a6ae8f69d1",
            "image_72": "https:\/\/avatars.slack-edge.com\/2020-04-13\/1060635499315_06a6ae8f69d18f1ad464_72.png",
            "first_name": "Katherine",
            "real_name": "Katherine Holo",
            "display_name": "Kat Holo - Co-Organizer of OpenCOVID19",
            "team": "TUU48M0T1",
            "name": "katherineh245",
            "is_restricted": false,
            "is_ultra_restricted": false
        },
        "blocks": [
            {
                "type": "rich_text",
                "block_id": "q9qX",
                "elements": [
                    {
                        "type": "rich_text_section",
                        "elements": [
                            {
                                "type": "text",
                                "text": "hey, sorry wasn't able to make the call (my classes overlap with the calls) but i left some comments on the document, it might just be stuff that i'm unclear on though "
                            },
                            {
                                "type": "emoji",
                                "name": "slightly_smiling_face"
                            }
                        ]
                    }
                ]
            }
        ],
        "thread_ts": "1586455368.215000",
        "parent_user_id": "UV9V03C8Y"
    }
]