[
    {
        "client_msg_id": "75060d98-7b3e-4c70-b285-0531a87a9bb6",
        "type": "message",
        "text": "Question -- do we see this initiative running into the summer?",
        "user": "U0101DKUALV",
        "ts": "1587934223.340400",
        "team": "TUU48M0T1",
        "user_team": "TUU48M0T1",
        "source_team": "TUU48M0T1",
        "user_profile": {
            "avatar_hash": "b0aee06ed3e5",
            "image_72": "https:\/\/avatars.slack-edge.com\/2020-04-22\/1072886325190_b0aee06ed3e501ebdf56_72.png",
            "first_name": "",
            "real_name": "Pauline Chane",
            "display_name": "Pauline Chane",
            "team": "TUU48M0T1",
            "name": "pauline.chane",
            "is_restricted": false,
            "is_ultra_restricted": false
        },
        "blocks": [
            {
                "type": "rich_text",
                "block_id": "Wtmj",
                "elements": [
                    {
                        "type": "rich_text_section",
                        "elements": [
                            {
                                "type": "text",
                                "text": "Question -- do we see this initiative running into the summer?"
                            }
                        ]
                    }
                ]
            }
        ],
        "thread_ts": "1587934223.340400",
        "reply_count": 6,
        "reply_users_count": 3,
        "latest_reply": "1588178425.358300",
        "reply_users": [
            "UV9V03C8Y",
            "U0101DKUALV",
            "UVC9WMA7N"
        ],
        "replies": [
            {
                "user": "UV9V03C8Y",
                "ts": "1587983847.341600"
            },
            {
                "user": "U0101DKUALV",
                "ts": "1588030602.348300"
            },
            {
                "user": "UVC9WMA7N",
                "ts": "1588177746.357700"
            },
            {
                "user": "UVC9WMA7N",
                "ts": "1588177777.357900"
            },
            {
                "user": "U0101DKUALV",
                "ts": "1588177873.358100"
            },
            {
                "user": "UV9V03C8Y",
                "ts": "1588178425.358300"
            }
        ],
        "subscribed": false
    }
]