[
    {
        "client_msg_id": "DDD39C11-84DE-4B7B-BD06-B6B9C3F42781",
        "type": "message",
        "text": "Hi everyone, when should we have our next call? Tomorrow? ",
        "user": "UV02WET96",
        "ts": "1585215930.012100",
        "team": "TUU48M0T1",
        "user_team": "TUU48M0T1",
        "source_team": "TUU48M0T1",
        "user_profile": {
            "avatar_hash": "a99c74a194f8",
            "image_72": "https:\/\/avatars.slack-edge.com\/2020-03-07\/975708504851_a99c74a194f86715ca7d_72.png",
            "first_name": "Thomas",
            "real_name": "Thomas Landrain",
            "display_name": "Thomas Landrain - JOGL CoFounder \/ CEO",
            "team": "TUU48M0T1",
            "name": "thomas",
            "is_restricted": false,
            "is_ultra_restricted": false
        },
        "blocks": [
            {
                "type": "rich_text",
                "block_id": "44zF",
                "elements": [
                    {
                        "type": "rich_text_section",
                        "elements": [
                            {
                                "type": "text",
                                "text": "Hi everyone, when should we have our next call? Tomorrow? "
                            }
                        ]
                    }
                ]
            }
        ]
    },
    {
        "client_msg_id": "219b183a-d634-4e57-b61a-f7eafada738b",
        "type": "message",
        "text": "Dear <!channel> please find here the <https:\/\/docs.google.com\/document\/d\/1XieaaUdIHxG5uciTS6Tu9jhPOniBMc1hL5uV6JCqSe0\/edit#|governance 0.2>.\nThis version was adapted incorporating <@UV02WET96> and <@UV0QTJCMT> vision for the Opencovid19 initiative, current needs for collaboration, and proposed structure and roles. Its elaboration, implementation, and continuous modification follow principles of agility with a focus on providing the minimal guidance for the community to operate.\n• *What would be fantastic?* If you could take few minutes (or an hour) to go through it, and provide *constructive feedback, comments, suggestions.*\n• *What would be even better?* If you could do it *before Monday 30th of March so that we can make it available to the all community* for comments (unless you oppose this idea).\n• *This is an open and collaboratively elaborated document.* Therefore, please modify it as you want. Nothing is fixed. Each voice matter. \nLooking forward to reading all your amazing ideas and to help this community achieving greater good.\nTake care!",
        "user": "UV9V03C8Y",
        "ts": "1585219473.019300",
        "team": "TUU48M0T1",
        "user_team": "TUU48M0T1",
        "source_team": "TUU48M0T1",
        "user_profile": {
            "avatar_hash": "177697fb7b8f",
            "image_72": "https:\/\/avatars.slack-edge.com\/2020-03-12\/996126178096_177697fb7b8ffa57649c_72.jpg",
            "first_name": "Camille",
            "real_name": "Camille Masselot - JOGL Program coordinator",
            "display_name": "Camille Masselot - JOGL coordinator",
            "team": "TUU48M0T1",
            "name": "masselot.camille",
            "is_restricted": false,
            "is_ultra_restricted": false
        },
        "blocks": [
            {
                "type": "rich_text",
                "block_id": "eiN",
                "elements": [
                    {
                        "type": "rich_text_section",
                        "elements": [
                            {
                                "type": "text",
                                "text": "Dear "
                            },
                            {
                                "type": "broadcast",
                                "range": "channel"
                            },
                            {
                                "type": "text",
                                "text": " please find here the "
                            },
                            {
                                "type": "link",
                                "url": "https:\/\/docs.google.com\/document\/d\/1XieaaUdIHxG5uciTS6Tu9jhPOniBMc1hL5uV6JCqSe0\/edit#",
                                "text": "governance 0.2"
                            },
                            {
                                "type": "text",
                                "text": ".\nThis version was adapted incorporating "
                            },
                            {
                                "type": "user",
                                "user_id": "UV02WET96"
                            },
                            {
                                "type": "text",
                                "text": " and "
                            },
                            {
                                "type": "user",
                                "user_id": "UV0QTJCMT"
                            },
                            {
                                "type": "text",
                                "text": " vision for the Opencovid19 initiative, current needs for collaboration, and proposed structure and roles. Its elaboration, implementation, and continuous modification follow principles of agility with a focus on providing the minimal guidance for the community to operate.\n"
                            }
                        ]
                    },
                    {
                        "type": "rich_text_list",
                        "elements": [
                            {
                                "type": "rich_text_section",
                                "elements": [
                                    {
                                        "type": "text",
                                        "text": "What would be fantastic? ",
                                        "style": {
                                            "bold": true
                                        }
                                    },
                                    {
                                        "type": "text",
                                        "text": "If you could take few minutes (or an hour) to go through it, and provide "
                                    },
                                    {
                                        "type": "text",
                                        "text": "constructive feedback, comments, suggestions.",
                                        "style": {
                                            "bold": true
                                        }
                                    }
                                ]
                            },
                            {
                                "type": "rich_text_section",
                                "elements": [
                                    {
                                        "type": "text",
                                        "text": "What would be even better? ",
                                        "style": {
                                            "bold": true
                                        }
                                    },
                                    {
                                        "type": "text",
                                        "text": "If you could do it "
                                    },
                                    {
                                        "type": "text",
                                        "text": "before Monday 30th of March so that we can make it available to the all community",
                                        "style": {
                                            "bold": true
                                        }
                                    },
                                    {
                                        "type": "text",
                                        "text": " for comments (unless you oppose this idea)."
                                    }
                                ]
                            },
                            {
                                "type": "rich_text_section",
                                "elements": [
                                    {
                                        "type": "text",
                                        "text": "This is an open and collaboratively elaborated document. ",
                                        "style": {
                                            "bold": true
                                        }
                                    },
                                    {
                                        "type": "text",
                                        "text": "Therefore, please modify it as you want. Nothing is fixed. Each voice matter. "
                                    }
                                ]
                            }
                        ],
                        "style": "bullet",
                        "indent": 0
                    },
                    {
                        "type": "rich_text_section",
                        "elements": [
                            {
                                "type": "text",
                                "text": "Looking forward to reading all your amazing ideas and to help this community achieving greater good.\nTake care!"
                            }
                        ]
                    }
                ]
            }
        ],
        "reactions": [
            {
                "name": "clap",
                "users": [
                    "UV85V64SD",
                    "UV02WET96",
                    "UV8T52QJ3"
                ],
                "count": 3
            }
        ]
    },
    {
        "client_msg_id": "621d305d-383c-4007-88cf-1e26f50add86",
        "type": "message",
        "text": ":mega:<!channel> *[Third governance meeting] Today March 26th at 5pm UTC*\nFollowing yesterday's brightly executed poll (being ironical here), let's keep today's meeting at 5pm UTC (yes was first ranked) and take this opportunity to discuss when regular meetings should be.\nI am also taking this opportunity to implement the decision made on the first governance meeting to increase intelligibility of date and time zones.\n• *date: Month, Day(number)th* \n• *time zone: UTC* --&gt; let's be incluse. And nope, Paris is not the center of the world :wink: \n*Agenda:* <https:\/\/docs.google.com\/document\/d\/128HR1w4SxKW45LoltTpyzs6N1OQJ6CWqmzZUg55MkVI\/edit#|link> - please modify it at your convenience\n*Zoom:* <https:\/\/zoom.us\/j\/7804345815|link>\nTalk soon!",
        "user": "UV9V03C8Y",
        "ts": "1585221270.027100",
        "team": "TUU48M0T1",
        "user_team": "TUU48M0T1",
        "source_team": "TUU48M0T1",
        "user_profile": {
            "avatar_hash": "177697fb7b8f",
            "image_72": "https:\/\/avatars.slack-edge.com\/2020-03-12\/996126178096_177697fb7b8ffa57649c_72.jpg",
            "first_name": "Camille",
            "real_name": "Camille Masselot - JOGL Program coordinator",
            "display_name": "Camille Masselot - JOGL coordinator",
            "team": "TUU48M0T1",
            "name": "masselot.camille",
            "is_restricted": false,
            "is_ultra_restricted": false
        },
        "blocks": [
            {
                "type": "rich_text",
                "block_id": "YbS",
                "elements": [
                    {
                        "type": "rich_text_section",
                        "elements": [
                            {
                                "type": "emoji",
                                "name": "mega"
                            },
                            {
                                "type": "broadcast",
                                "range": "channel"
                            },
                            {
                                "type": "text",
                                "text": " "
                            },
                            {
                                "type": "text",
                                "text": "[Third governance meeting] Today March 26th at 5pm UTC",
                                "style": {
                                    "bold": true
                                }
                            },
                            {
                                "type": "text",
                                "text": "\nFollowing yesterday's brightly executed poll (being ironical here), let's keep today's meeting at 5pm UTC (yes was first ranked) and take this opportunity to discuss when regular meetings should be.\nI am also taking this opportunity to implement the decision made on the first governance meeting to increase intelligibility of date and time zones.\n"
                            }
                        ]
                    },
                    {
                        "type": "rich_text_list",
                        "elements": [
                            {
                                "type": "rich_text_section",
                                "elements": [
                                    {
                                        "type": "text",
                                        "text": "date: Month, Day(number)th ",
                                        "style": {
                                            "bold": true
                                        }
                                    }
                                ]
                            },
                            {
                                "type": "rich_text_section",
                                "elements": [
                                    {
                                        "type": "text",
                                        "text": "time zone: UTC ",
                                        "style": {
                                            "bold": true
                                        }
                                    },
                                    {
                                        "type": "text",
                                        "text": "--> let's be incluse. And nope, Paris is not the center of the world "
                                    },
                                    {
                                        "type": "emoji",
                                        "name": "wink"
                                    },
                                    {
                                        "type": "text",
                                        "text": " "
                                    }
                                ]
                            }
                        ],
                        "style": "bullet",
                        "indent": 0
                    },
                    {
                        "type": "rich_text_section",
                        "elements": [
                            {
                                "type": "text",
                                "text": "Agenda:",
                                "style": {
                                    "bold": true
                                }
                            },
                            {
                                "type": "text",
                                "text": " "
                            },
                            {
                                "type": "link",
                                "url": "https:\/\/docs.google.com\/document\/d\/128HR1w4SxKW45LoltTpyzs6N1OQJ6CWqmzZUg55MkVI\/edit#",
                                "text": "link"
                            },
                            {
                                "type": "text",
                                "text": " - please modify it at your convenience\n"
                            },
                            {
                                "type": "text",
                                "text": "Zoom:",
                                "style": {
                                    "bold": true
                                }
                            },
                            {
                                "type": "text",
                                "text": " "
                            },
                            {
                                "type": "link",
                                "url": "https:\/\/zoom.us\/j\/7804345815",
                                "text": "link"
                            },
                            {
                                "type": "text",
                                "text": "\nTalk soon!"
                            }
                        ]
                    }
                ]
            }
        ]
    },
    {
        "client_msg_id": "f41f2e8b-1986-4556-a1ff-1a0d37e60462",
        "type": "message",
        "text": "The mask competition crowdsource review survey is ready:\n<https:\/\/docs.google.com\/forms\/d\/e\/1FAIpQLSfZc1hxgx2-ObcqODuML4OEQNrw2TEtxdbOu75x_upr5fUeVw\/viewform>\nUnless anyone has an objection we'd like to ask it get put on <#CUDEHLGHY|announcements> for broadest distribution.  I'm posting but credit goes to <@UV2P3AQEN>, <@U01081Y0TBP> and <@UV02WET96>.",
        "user": "U010HTBUHS9",
        "ts": "1585230206.029900",
        "team": "TUU48M0T1",
        "user_team": "TUU48M0T1",
        "source_team": "TUU48M0T1",
        "user_profile": {
            "avatar_hash": "e7bdbebff0d9",
            "image_72": "https:\/\/avatars.slack-edge.com\/2020-03-22\/1017951251813_e7bdbebff0d9ad1e8f12_72.jpg",
            "first_name": "",
            "real_name": "Adam Arabian",
            "display_name": "Adam Arabian",
            "team": "TUU48M0T1",
            "name": "adam.arabian",
            "is_restricted": false,
            "is_ultra_restricted": false
        },
        "blocks": [
            {
                "type": "rich_text",
                "block_id": "PDs",
                "elements": [
                    {
                        "type": "rich_text_section",
                        "elements": [
                            {
                                "type": "text",
                                "text": "The mask competition crowdsource review survey is ready:\n"
                            },
                            {
                                "type": "link",
                                "url": "https:\/\/docs.google.com\/forms\/d\/e\/1FAIpQLSfZc1hxgx2-ObcqODuML4OEQNrw2TEtxdbOu75x_upr5fUeVw\/viewform"
                            },
                            {
                                "type": "text",
                                "text": "\nUnless anyone has an objection we'd like to ask it get put on "
                            },
                            {
                                "type": "channel",
                                "channel_id": "CUDEHLGHY"
                            },
                            {
                                "type": "text",
                                "text": " for broadest distribution.  I'm posting but credit goes to "
                            },
                            {
                                "type": "user",
                                "user_id": "UV2P3AQEN"
                            },
                            {
                                "type": "text",
                                "text": ", "
                            },
                            {
                                "type": "user",
                                "user_id": "U01081Y0TBP"
                            },
                            {
                                "type": "text",
                                "text": " and "
                            },
                            {
                                "type": "user",
                                "user_id": "UV02WET96"
                            },
                            {
                                "type": "text",
                                "text": "."
                            }
                        ]
                    }
                ]
            }
        ]
    },
    {
        "client_msg_id": "5832af6b-7539-4a27-bb5a-ff648c1c1b75",
        "type": "message",
        "text": "we are meeting in 1 hour?",
        "user": "UV87UQ37A",
        "ts": "1585238232.031600",
        "team": "TUU48M0T1",
        "user_team": "TUU48M0T1",
        "source_team": "TUU48M0T1",
        "user_profile": {
            "avatar_hash": "g7c78d2f0258",
            "image_72": "https:\/\/secure.gravatar.com\/avatar\/7c78d2f0258f7bdf78a86301cfd6b712.jpg?s=72&d=https%3A%2F%2Fa.slack-edge.com%2Fdf10d%2Fimg%2Favatars%2Fava_0014-72.png",
            "first_name": "Victoria",
            "real_name": "Victoria Costa",
            "display_name": "Victoria Costa",
            "team": "TUU48M0T1",
            "name": "victorycoast",
            "is_restricted": false,
            "is_ultra_restricted": false
        },
        "blocks": [
            {
                "type": "rich_text",
                "block_id": "9Kgu",
                "elements": [
                    {
                        "type": "rich_text_section",
                        "elements": [
                            {
                                "type": "text",
                                "text": "we are meeting in 1 hour?"
                            }
                        ]
                    }
                ]
            }
        ],
        "reactions": [
            {
                "name": "+1",
                "users": [
                    "UV02WET96",
                    "UV9V03C8Y"
                ],
                "count": 2
            }
        ]
    },
    {
        "client_msg_id": "96878257-D8AC-4830-A3E5-9861FABAFCEE",
        "type": "message",
        "text": "is there notes that i could read somewhere? ",
        "user": "UV0QTJCMT",
        "ts": "1585243422.033200",
        "team": "TUU48M0T1",
        "user_team": "TUU48M0T1",
        "source_team": "TUU48M0T1",
        "user_profile": {
            "avatar_hash": "06a6ae8f69d1",
            "image_72": "https:\/\/avatars.slack-edge.com\/2020-04-13\/1060635499315_06a6ae8f69d18f1ad464_72.png",
            "first_name": "Katherine",
            "real_name": "Katherine Holo",
            "display_name": "Kat Holo - Co-Organizer of OpenCOVID19",
            "team": "TUU48M0T1",
            "name": "katherineh245",
            "is_restricted": false,
            "is_ultra_restricted": false
        },
        "blocks": [
            {
                "type": "rich_text",
                "block_id": "jJEO+",
                "elements": [
                    {
                        "type": "rich_text_section",
                        "elements": [
                            {
                                "type": "text",
                                "text": "is there notes that i could read somewhere? "
                            }
                        ]
                    }
                ]
            }
        ],
        "thread_ts": "1585243422.033200",
        "reply_count": 2,
        "reply_users_count": 2,
        "latest_reply": "1585246236.033700",
        "reply_users": [
            "UV2SC7ZE3",
            "UV9V03C8Y"
        ],
        "replies": [
            {
                "user": "UV2SC7ZE3",
                "ts": "1585243431.033300"
            },
            {
                "user": "UV9V03C8Y",
                "ts": "1585246236.033700"
            }
        ],
        "subscribed": false
    },
    {
        "client_msg_id": "11fe2e0c-e0ae-4fab-81f8-88a460590dcb",
        "type": "message",
        "text": "<https:\/\/docs.google.com\/document\/d\/128HR1w4SxKW45LoltTpyzs6N1OQJ6CWqmzZUg55MkVI\/edit#>",
        "user": "UV2SC7ZE3",
        "ts": "1585243431.033300",
        "team": "TUU48M0T1",
        "user_team": "TUU48M0T1",
        "source_team": "TUU48M0T1",
        "user_profile": {
            "avatar_hash": "d28dd0d076e8",
            "image_72": "https:\/\/avatars.slack-edge.com\/2020-03-14\/987873094258_d28dd0d076e8fa9a8409_72.png",
            "first_name": "David",
            "real_name": "David Lu",
            "display_name": "David Lu",
            "team": "TUU48M0T1",
            "name": "ludavidyi",
            "is_restricted": false,
            "is_ultra_restricted": false
        },
        "blocks": [
            {
                "type": "rich_text",
                "block_id": "hwv",
                "elements": [
                    {
                        "type": "rich_text_section",
                        "elements": [
                            {
                                "type": "link",
                                "url": "https:\/\/docs.google.com\/document\/d\/128HR1w4SxKW45LoltTpyzs6N1OQJ6CWqmzZUg55MkVI\/edit#"
                            }
                        ]
                    }
                ]
            }
        ],
        "thread_ts": "1585243422.033200",
        "parent_user_id": "UV0QTJCMT",
        "reactions": [
            {
                "name": "+1",
                "users": [
                    "UV0QTJCMT",
                    "UV9V03C8Y"
                ],
                "count": 2
            }
        ]
    },
    {
        "client_msg_id": "96e51d05-43eb-46b2-a616-7faec975b141",
        "type": "message",
        "text": "Thanks a lot <@UV2SC7ZE3>!",
        "user": "UV9V03C8Y",
        "ts": "1585246236.033700",
        "team": "TUU48M0T1",
        "user_team": "TUU48M0T1",
        "source_team": "TUU48M0T1",
        "user_profile": {
            "avatar_hash": "177697fb7b8f",
            "image_72": "https:\/\/avatars.slack-edge.com\/2020-03-12\/996126178096_177697fb7b8ffa57649c_72.jpg",
            "first_name": "Camille",
            "real_name": "Camille Masselot - JOGL Program coordinator",
            "display_name": "Camille Masselot - JOGL coordinator",
            "team": "TUU48M0T1",
            "name": "masselot.camille",
            "is_restricted": false,
            "is_ultra_restricted": false
        },
        "blocks": [
            {
                "type": "rich_text",
                "block_id": "FX2H",
                "elements": [
                    {
                        "type": "rich_text_section",
                        "elements": [
                            {
                                "type": "text",
                                "text": "Thanks a lot "
                            },
                            {
                                "type": "user",
                                "user_id": "UV2SC7ZE3"
                            },
                            {
                                "type": "text",
                                "text": "!"
                            }
                        ]
                    }
                ]
            }
        ],
        "thread_ts": "1585243422.033200",
        "parent_user_id": "UV0QTJCMT"
    },
    {
        "client_msg_id": "734025ee-8f72-471d-ba47-36bfe0fa59f2",
        "type": "message",
        "text": "Hi <!here>! *[Minutes] of Third governance meeting!*\n Please find <https:\/\/docs.google.com\/document\/d\/128HR1w4SxKW45LoltTpyzs6N1OQJ6CWqmzZUg55MkVI\/edit#|complete notes here>.\n*Decisions taken:* \n• Governance 0.2 shall be open to the community for contribution on Friday 28th through the announcement channel\n• Governances bodies and boards will be now named “Groups” ; expect for the Biosafety board \n• *<https:\/\/www.cloverpop.com\/slack|Cloverpop> is adopted as a decision making* tool on Slack ; will be changed if any issue rises\n• Announcement channel will be open to lead member of working groups as soon as they are identified\n• *Weekly meeting will be held every Monday*, time will be communicated soon. \n*TO DOs:* \n• <!channel> Governance channel members: *please fill the governance 0.2 as much as you can by tomorrow* (evening UTC) and more importantly *name yourself as part of the “groups”* listed\n• <!channel> Governance channel members: i*f anybody is available to perform few simple tasks at program level, some of them are listed* <https:\/\/docs.google.com\/spreadsheets\/d\/12gwA5Mpccjgcss15HX2DUYDjJ1ku0k_ZXNMsXNLBL00\/edit#gid=448090647|master task spreadsheet>. This would really be of a great help for community management. You can also update it with relevant tasks you think should be done. The spreadsheet with shared broadly on Monday.\n• <@UV9V03C8Y>: follow-up with <@U010HTBUHS9> and <@U01080CJ6P3> , copy-paste documents on project management in a shared Drive folder\n• <@UV87UQ37A> : share project management templates in the Drive\n• <@UV87UQ37A>, <@UVADMLUB0>, <@UV9V03C8Y> (shadowing) + others? draft Trello system for task management at program level \nTake care everyone!",
        "user": "UV9V03C8Y",
        "ts": "1585247849.041700",
        "team": "TUU48M0T1",
        "user_team": "TUU48M0T1",
        "source_team": "TUU48M0T1",
        "user_profile": {
            "avatar_hash": "177697fb7b8f",
            "image_72": "https:\/\/avatars.slack-edge.com\/2020-03-12\/996126178096_177697fb7b8ffa57649c_72.jpg",
            "first_name": "Camille",
            "real_name": "Camille Masselot - JOGL Program coordinator",
            "display_name": "Camille Masselot - JOGL coordinator",
            "team": "TUU48M0T1",
            "name": "masselot.camille",
            "is_restricted": false,
            "is_ultra_restricted": false
        },
        "attachments": [
            {
                "title": "Cloverpop for Slack: The Way to Keep Track of Decisions in Slack, Free!",
                "title_link": "https:\/\/www.cloverpop.com\/slack",
                "text": "Cloverpop is the way agile teams keep track of decisions in Slack with decision-making polls, announcements, and approvals.",
                "fallback": "Cloverpop for Slack: The Way to Keep Track of Decisions in Slack, Free!",
                "image_url": "https:\/\/www.cloverpop.com\/hubfs\/Slack%20+%20Cloverpop.png#keepProtocol",
                "image_width": 444,
                "image_height": 250,
                "from_url": "https:\/\/www.cloverpop.com\/slack",
                "image_bytes": 54545,
                "service_icon": "https:\/\/www.cloverpop.com\/hubfs\/Cloverpop%20Logo%20Pips.png",
                "service_name": "cloverpop.com",
                "id": 1,
                "original_url": "https:\/\/www.cloverpop.com\/slack"
            }
        ],
        "blocks": [
            {
                "type": "rich_text",
                "block_id": "pk4rs",
                "elements": [
                    {
                        "type": "rich_text_section",
                        "elements": [
                            {
                                "type": "text",
                                "text": "Hi "
                            },
                            {
                                "type": "broadcast",
                                "range": "here"
                            },
                            {
                                "type": "text",
                                "text": "! "
                            },
                            {
                                "type": "text",
                                "text": "[Minutes] of Third governance meeting!",
                                "style": {
                                    "bold": true
                                }
                            },
                            {
                                "type": "text",
                                "text": "\n Please find "
                            },
                            {
                                "type": "link",
                                "url": "https:\/\/docs.google.com\/document\/d\/128HR1w4SxKW45LoltTpyzs6N1OQJ6CWqmzZUg55MkVI\/edit#",
                                "text": "complete notes here"
                            },
                            {
                                "type": "text",
                                "text": ".\n"
                            },
                            {
                                "type": "text",
                                "text": "Decisions taken: ",
                                "style": {
                                    "bold": true
                                }
                            },
                            {
                                "type": "text",
                                "text": "\n"
                            }
                        ]
                    },
                    {
                        "type": "rich_text_list",
                        "elements": [
                            {
                                "type": "rich_text_section",
                                "elements": [
                                    {
                                        "type": "text",
                                        "text": "Governance 0.2 shall be open to the community for contribution on Friday 28th through the announcement channel"
                                    }
                                ]
                            },
                            {
                                "type": "rich_text_section",
                                "elements": [
                                    {
                                        "type": "text",
                                        "text": "Governances bodies and boards will be now named “Groups” ; expect for the Biosafety board "
                                    }
                                ]
                            },
                            {
                                "type": "rich_text_section",
                                "elements": [
                                    {
                                        "type": "link",
                                        "url": "https:\/\/www.cloverpop.com\/slack",
                                        "text": "Cloverpop",
                                        "style": {
                                            "bold": true
                                        }
                                    },
                                    {
                                        "type": "text",
                                        "text": " is adopted as a decision making",
                                        "style": {
                                            "bold": true
                                        }
                                    },
                                    {
                                        "type": "text",
                                        "text": " tool on Slack ; will be changed if any issue rises"
                                    }
                                ]
                            },
                            {
                                "type": "rich_text_section",
                                "elements": [
                                    {
                                        "type": "text",
                                        "text": "Announcement channel will be open to lead member of working groups as soon as they are identified"
                                    }
                                ]
                            },
                            {
                                "type": "rich_text_section",
                                "elements": [
                                    {
                                        "type": "text",
                                        "text": "Weekly meeting will be held every Monday",
                                        "style": {
                                            "bold": true
                                        }
                                    },
                                    {
                                        "type": "text",
                                        "text": ", time will be communicated soon. "
                                    }
                                ]
                            }
                        ],
                        "style": "bullet",
                        "indent": 0
                    },
                    {
                        "type": "rich_text_section",
                        "elements": [
                            {
                                "type": "text",
                                "text": "TO DOs: ",
                                "style": {
                                    "bold": true
                                }
                            },
                            {
                                "type": "text",
                                "text": "\n"
                            }
                        ]
                    },
                    {
                        "type": "rich_text_list",
                        "elements": [
                            {
                                "type": "rich_text_section",
                                "elements": [
                                    {
                                        "type": "broadcast",
                                        "range": "channel"
                                    },
                                    {
                                        "type": "text",
                                        "text": " Governance channel members: "
                                    },
                                    {
                                        "type": "text",
                                        "text": "please fill the governance 0.2 as much as you can by tomorrow ",
                                        "style": {
                                            "bold": true
                                        }
                                    },
                                    {
                                        "type": "text",
                                        "text": "(evening UTC) and more importantly "
                                    },
                                    {
                                        "type": "text",
                                        "text": "name yourself as part of the “groups” ",
                                        "style": {
                                            "bold": true
                                        }
                                    },
                                    {
                                        "type": "text",
                                        "text": "listed"
                                    }
                                ]
                            },
                            {
                                "type": "rich_text_section",
                                "elements": [
                                    {
                                        "type": "broadcast",
                                        "range": "channel"
                                    },
                                    {
                                        "type": "text",
                                        "text": " Governance channel members: i"
                                    },
                                    {
                                        "type": "text",
                                        "text": "f anybody is available to perform few simple tasks at program level, some of them are listed",
                                        "style": {
                                            "bold": true
                                        }
                                    },
                                    {
                                        "type": "text",
                                        "text": " "
                                    },
                                    {
                                        "type": "link",
                                        "url": "https:\/\/docs.google.com\/spreadsheets\/d\/12gwA5Mpccjgcss15HX2DUYDjJ1ku0k_ZXNMsXNLBL00\/edit#gid=448090647",
                                        "text": "master task spreadsheet"
                                    },
                                    {
                                        "type": "text",
                                        "text": ". This would really be of a great help for community management. You can also update it with relevant tasks you think should be done. The spreadsheet with shared broadly on Monday."
                                    }
                                ]
                            },
                            {
                                "type": "rich_text_section",
                                "elements": [
                                    {
                                        "type": "user",
                                        "user_id": "UV9V03C8Y"
                                    },
                                    {
                                        "type": "text",
                                        "text": ": follow-up with "
                                    },
                                    {
                                        "type": "user",
                                        "user_id": "U010HTBUHS9"
                                    },
                                    {
                                        "type": "text",
                                        "text": " and "
                                    },
                                    {
                                        "type": "user",
                                        "user_id": "U01080CJ6P3"
                                    },
                                    {
                                        "type": "text",
                                        "text": " , copy-paste documents on project management in a shared Drive folder"
                                    }
                                ]
                            },
                            {
                                "type": "rich_text_section",
                                "elements": [
                                    {
                                        "type": "user",
                                        "user_id": "UV87UQ37A"
                                    },
                                    {
                                        "type": "text",
                                        "text": " : share project management templates in the Drive"
                                    }
                                ]
                            },
                            {
                                "type": "rich_text_section",
                                "elements": [
                                    {
                                        "type": "user",
                                        "user_id": "UV87UQ37A"
                                    },
                                    {
                                        "type": "text",
                                        "text": ", "
                                    },
                                    {
                                        "type": "user",
                                        "user_id": "UVADMLUB0"
                                    },
                                    {
                                        "type": "text",
                                        "text": ", "
                                    },
                                    {
                                        "type": "user",
                                        "user_id": "UV9V03C8Y"
                                    },
                                    {
                                        "type": "text",
                                        "text": " (shadowing) + others? draft Trello system for task management at program level "
                                    }
                                ]
                            }
                        ],
                        "style": "bullet",
                        "indent": 0
                    },
                    {
                        "type": "rich_text_section",
                        "elements": [
                            {
                                "type": "text",
                                "text": "Take care everyone!"
                            }
                        ]
                    }
                ]
            }
        ],
        "thread_ts": "1585247849.041700",
        "reply_count": 1,
        "reply_users_count": 1,
        "latest_reply": "1585322510.043700",
        "reply_users": [
            "UVADMLUB0"
        ],
        "replies": [
            {
                "user": "UVADMLUB0",
                "ts": "1585322510.043700"
            }
        ],
        "subscribed": false,
        "reactions": [
            {
                "name": "raised_hands",
                "users": [
                    "UV02WET96"
                ],
                "count": 1
            }
        ]
    }
]